0.0610207625,0,0
0.0610207625,0,0.0111111111
0.0610207625,0,0.0222222222
0.0610207625,0,0.0333333333
0.0610207625,0,0.0444444444
0.0610207625,0,0.0555555556
0.0610207625,0,0.0666666667
0.0610207625,0,0.0777777778
0.0610207625,0,0.0888888889
0.0610207625,0,0.1
0.1425506648,0.0111111111,0
0.035261194,0.0111111111,0.0111111111
0.1885563604,0.0111111111,0.0222222222
0.3420119439,0.0111111111,0.0333333333
0.1580267994,0.0111111111,0.0444444444
0.1796070214,0.0111111111,0.0555555556
0.1482753358,0.0111111111,0.0666666667
0.1706652329,0.0111111111,0.0777777778
0.1126678423,0.0111111111,0.0888888889
0.1642426841,0.0111111111,0.1
0.4686734638,0.0222222222,0
0.0610207625,0.0222222222,0.0111111111
0.5776164696,0.0222222222,0.0222222222
0.4332327919,0.0222222222,0.0333333333
0.7088034361,0.0222222222,0.0444444444
0.0610207625,0.0222222222,0.0555555556
0.3162707362,0.0222222222,0.0666666667
0.4830961205,0.0222222222,0.0777777778
0.4879874109,0.0222222222,0.0888888889
0.6314821123,0.0222222222,0.1
0.7307158594,0.0333333333,0
0.0610207625,0.0333333333,0.0111111111
0.6978863905,0.0333333333,0.0222222222
0.8613515512,0.0333333333,0.0333333333
0.7512218178,0.0333333333,0.0444444444
0.8022791392,0.0333333333,0.0555555556
0.5526329349,0.0333333333,0.0666666667
0.835290979,0.0333333333,0.0777777778
0.0610207625,0.0333333333,0.0888888889
0.8205351508,0.0333333333,0.1
0.0610207625,0.0444444444,0
0.5074456985,0.0444444444,0.0111111111
0.7574211682,0.0444444444,0.0222222222
0.0610207625,0.0444444444,0.0333333333
0.4839215808,0.0444444444,0.0444444444
0.7954915333,0.0444444444,0.0555555556
0.0610207625,0.0444444444,0.0666666667
0.7656814962,0.0444444444,0.0777777778
0.0610207625,0.0444444444,0.0888888889
0.4313748288,0.0444444444,0.1
0.0610207625,0.0555555556,0
0.0610207625,0.0555555556,0.0111111111
0.0610207625,0.0555555556,0.0222222222
0.0610207625,0.0555555556,0.0333333333
0.0610207625,0.0555555556,0.0444444444
0.0610207625,0.0555555556,0.0555555556
0.0610207625,0.0555555556,0.0666666667
0.0610207625,0.0555555556,0.0777777778
0.0610207625,0.0555555556,0.0888888889
0.0610207625,0.0555555556,0.1
0.0610207625,0.0666666667,0
0.0610207625,0.0666666667,0.0111111111
0.0610207625,0.0666666667,0.0222222222
0.0610207625,0.0666666667,0.0333333333
0.0610207625,0.0666666667,0.0444444444
0.0610207625,0.0666666667,0.0555555556
0.0610207625,0.0666666667,0.0666666667
0.0610207625,0.0666666667,0.0777777778
0.0610207625,0.0666666667,0.0888888889
0.0610207625,0.0666666667,0.1
0.0610207625,0.0777777778,0
0.0610207625,0.0777777778,0.0111111111
0.0610207625,0.0777777778,0.0222222222
0.0610207625,0.0777777778,0.0333333333
0.0610207625,0.0777777778,0.0444444444
0.0610207625,0.0777777778,0.0555555556
0.0610207625,0.0777777778,0.0666666667
0.0610207625,0.0777777778,0.0777777778
0.0610207625,0.0777777778,0.0888888889
0.0610207625,0.0777777778,0.1
0.0610207625,0.0888888889,0
0.0610207625,0.0888888889,0.0111111111
0.0610207625,0.0888888889,0.0222222222
0.0610207625,0.0888888889,0.0333333333
0.0610207625,0.0888888889,0.0444444444
0.0610207625,0.0888888889,0.0555555556
0.0610207625,0.0888888889,0.0666666667
0.0610207625,0.0888888889,0.0777777778
0.0610207625,0.0888888889,0.0888888889
0.0610207625,0.0888888889,0.1
0.0610207625,0.1,0
0.0610207625,0.1,0.0111111111
0.0610207625,0.1,0.0222222222
0.0610207625,0.1,0.0333333333
0.0610207625,0.1,0.0444444444
0.0610207625,0.1,0.0555555556
0.0610207625,0.1,0.0666666667
0.0610207625,0.1,0.0777777778
0.0610207625,0.1,0.0888888889
0.0610207625,0.1,0.1
0.196916896,,
