0,0,0,0,0,0,0,0,4,0,20,12,16,24,24,16,4,12,4,0,0,0,0,0,0,0,0,0,0,0,0,0,0,0,4,0,4,12,8,52,20,16,28,48,16,64,20,28,36,36,20,40,28,16,32,24,12,0,12,0,0,0,0,0
0,0,0,0,0,0,0,0,0,12,4,8,36,12,24,28,12,4,4,4,0,0,0,0,0,0,0,0,0,0,0,0,0,0,0,4,8,12,20,20,56,64,36,32,12,12,28,16,16,20,20,8,20,12,16,20,8,24,0,0,0,0,0,0
0,0,0,0,0,0,0,0,8,0,8,8,4,16,12,0,8,4,0,0,0,0,0,0,0,0,0,0,0,0,0,0,0,0,4,0,4,20,4,48,48,32,16,16,20,16,12,20,20,8,12,20,4,8,12,4,0,0,0,0,0,0,0,0
0,0,0,0,0,0,0,0,0,0,36,20,8,32,28,28,20,4,4,0,0,0,0,0,0,0,0,0,0,0,0,0,0,0,4,0,0,4,0,8,64,24,16,28,32,28,28,28,20,16,4,12,20,0,4,4,4,0,4,0,0,0,0,0
0,0,0,0,0,0,0,0,0,32,16,36,32,28,20,32,12,8,12,12,4,0,0,0,0,0,0,0,0,0,0,0,0,0,0,4,8,0,4,8,12,24,56,12,40,20,20,8,16,8,12,12,12,4,4,4,8,8,0,0,0,0,0,0
0,0,0,0,0,0,0,0,12,12,60,16,28,12,16,12,12,8,12,0,4,0,0,0,0,0,0,0,0,0,0,0,0,0,0,0,4,0,0,12,16,20,52,40,52,20,20,20,16,20,12,12,8,4,4,0,0,0,0,0,0,0,0,0
0,0,0,0,0,0,0,0,0,4,28,8,32,28,8,8,8,16,0,12,0,0,0,0,0,0,0,0,0,0,0,0,0,0,0,0,4,4,20,4,48,48,36,20,64,28,32,28,28,32,16,16,20,20,20,24,4,12,0,0,0,0,0,0
0,0,0,0,0,0,0,0,0,4,4,4,8,4,12,0,0,8,0,4,0,0,0,0,0,0,0,0,0,0,0,0,0,0,0,4,16,4,8,20,56,24,28,56,48,60,32,24,36,28,32,28,12,28,24,16,0,12,0,0,0,0,0,0
0,0,0,0,0,0,0,0,4,0,4,12,12,16,32,28,4,4,8,0,0,0,0,0,0,0,0,0,0,0,0,0,0,0,0,0,4,4,4,28,40,48,40,44,44,40,24,24,24,20,28,24,16,4,12,20,16,16,0,4,0,0,0,0
0,0,0,0,0,0,0,0,0,8,20,40,28,40,20,36,12,16,16,0,0,4,4,0,0,0,0,0,0,0,0,0,0,0,0,0,0,0,0,0,32,56,72,40,28,28,64,16,28,12,4,20,8,4,8,12,12,8,4,0,0,0,0,0
0,0,0,0,0,0,0,0,4,4,8,12,8,8,12,24,12,8,12,0,4,4,0,0,0,0,0,0,0,0,0,0,0,0,0,4,4,16,28,56,8,40,60,40,48,48,48,48,56,40,20,8,8,20,8,8,12,8,4,0,0,0,0,0
0,0,0,0,0,0,0,0,8,0,8,12,8,12,8,4,0,4,4,0,4,0,0,0,0,0,0,0,0,0,0,0,0,0,0,0,0,28,4,40,40,60,76,40,56,64,44,40,24,20,20,20,24,24,28,24,20,12,12,0,0,0,0,0
0,0,0,0,0,0,0,0,4,4,4,8,8,4,12,4,4,4,4,0,0,0,0,0,0,0,0,0,0,0,0,0,0,0,0,0,0,12,12,24,44,52,56,36,48,28,36,32,28,28,24,20,24,20,12,16,12,12,8,0,0,0,0,0
0,0,0,0,0,0,0,0,0,4,12,12,8,16,12,4,8,4,4,0,0,0,0,0,0,0,0,0,0,0,0,0,0,4,0,0,8,8,16,52,44,16,48,68,48,48,44,32,40,12,12,12,12,12,12,16,12,4,0,0,0,0,0,0
0,0,0,0,0,0,0,0,0,4,8,0,12,8,4,8,20,0,0,4,0,0,0,0,0,0,0,0,0,0,0,0,0,0,0,4,4,8,28,4,56,20,24,40,40,40,40,48,36,24,32,12,28,16,8,16,4,8,4,0,0,0,0,0
0,0,0,0,0,0,0,0,8,0,12,16,8,28,20,20,0,24,4,4,12,8,4,0,0,0,0,0,0,0,0,0,0,0,0,8,0,4,8,36,32,64,68,32,36,16,56,40,32,28,32,12,24,8,20,16,12,8,4,4,0,0,0,0
0,0,0,0,0,0,0,4,0,12,4,8,12,12,12,4,12,4,0,4,0,0,4,4,4,0,0,0,0,0,0,0,8,4,0,8,8,12,24,48,12,52,56,20,44,44,20,32,24,24,20,28,28,4,12,8,8,12,4,0,0,0,0,0
0,0,0,0,0,0,0,0,0,4,0,4,0,12,0,0,0,4,0,0,0,0,0,0,4,0,0,0,0,0,0,0,0,0,4,0,0,12,16,4,24,24,16,24,24,28,16,12,16,12,12,8,8,8,4,8,8,0,4,4,0,0,0,0
0,0,0,0,0,0,0,0,0,4,8,4,4,12,0,0,8,0,4,0,4,4,0,0,0,0,0,0,0,0,0,0,0,4,0,4,4,8,24,12,20,24,32,40,20,36,36,44,24,16,20,20,20,8,12,4,12,12,8,0,0,0,0,0
0,0,0,0,0,0,0,0,0,4,0,8,4,16,20,20,4,0,4,4,0,0,0,0,0,4,0,0,0,0,0,0,0,0,4,12,4,4,8,4,24,36,32,40,32,28,20,28,16,4,20,16,20,4,12,4,12,4,4,0,0,0,0,0
0,0,0,0,0,0,0,0,4,4,12,4,4,8,4,4,4,4,0,0,0,0,4,4,0,0,0,0,0,0,0,0,0,0,0,0,0,0,4,12,20,16,32,32,40,44,28,32,24,20,20,12,16,16,12,12,4,4,0,0,0,0,0,0
0,0,0,0,0,0,0,0,0,4,4,8,0,4,12,0,0,4,0,0,0,0,0,0,0,0,0,0,0,0,0,0,0,8,0,8,12,4,8,20,20,32,32,28,36,40,28,28,28,20,12,20,8,12,12,12,12,8,4,0,0,0,0,0
0,0,0,0,0,0,0,0,0,0,4,8,4,4,4,4,4,0,0,0,4,0,0,0,0,0,0,0,0,0,0,0,0,4,8,8,12,4,12,8,44,20,56,44,40,36,32,12,16,16,20,24,20,24,16,16,12,4,4,0,0,0,0,0
0,0,0,0,0,0,0,4,4,4,12,0,4,4,4,0,4,4,0,0,0,0,0,0,0,0,0,0,0,0,0,0,0,4,4,0,4,12,12,16,20,32,12,12,24,20,32,24,16,16,12,16,12,12,8,4,12,4,0,0,0,0,0,0
0,0,0,0,0,0,0,0,0,0,4,4,4,12,8,12,4,0,0,0,0,0,0,0,0,0,0,0,0,0,0,0,0,8,8,4,12,12,8,32,8,48,32,40,28,60,20,20,20,12,4,20,4,0,4,4,0,0,4,0,0,0,0,0
0,0,0,0,0,0,0,4,0,0,12,8,20,4,0,0,4,0,0,0,0,4,0,0,0,0,0,0,0,0,0,0,0,0,4,4,4,8,8,4,16,8,28,28,12,12,28,16,8,20,12,4,4,8,4,4,16,12,0,0,0,0,0,0
0,0,0,0,0,0,0,0,0,12,4,48,4,4,0,4,0,4,0,0,4,0,0,0,0,0,0,0,0,0,0,0,0,0,0,4,8,0,4,12,12,16,16,24,20,24,32,12,4,12,4,4,8,4,4,4,0,12,0,0,0,0,0,0
0,0,0,0,0,0,0,0,4,4,8,0,0,0,4,8,4,0,4,0,0,0,0,0,0,0,0,0,0,0,0,0,0,0,0,4,12,8,16,16,20,24,56,24,32,28,28,20,12,12,20,16,12,16,12,12,16,8,4,0,0,0,0,0
0,0,0,0,0,0,0,0,0,0,4,16,8,4,12,4,4,0,0,0,0,0,0,0,0,0,0,0,0,0,0,0,0,4,0,4,4,8,12,12,16,60,48,28,24,24,32,24,24,16,28,4,4,12,12,16,0,4,4,0,0,0,0,0
0,0,0,0,0,0,0,0,0,4,4,4,4,4,0,4,0,0,0,0,0,0,0,0,0,0,0,0,0,0,0,0,0,4,4,4,8,8,8,16,28,16,28,36,20,36,24,20,28,12,20,12,16,20,20,20,0,20,0,12,0,0,0,0
0,0,0,0,0,0,4,0,4,0,4,4,4,4,4,4,4,4,0,0,0,0,0,0,0,0,0,0,0,0,0,0,4,0,0,8,8,4,12,12,28,40,28,28,28,24,20,28,20,8,12,8,0,0,4,8,12,8,4,0,0,0,0,0
0,0,0,0,0,0,0,0,0,0,12,0,4,0,12,0,4,0,0,0,0,0,0,0,0,0,0,0,0,0,0,0,0,0,4,4,8,8,12,12,12,24,32,40,48,32,20,20,24,4,24,16,20,12,12,12,0,0,0,0,0,0,0,0
0,0,0,0,0,0,0,0,0,8,4,4,0,4,4,4,0,0,0,0,0,0,0,0,0,0,0,0,0,0,0,0,0,4,0,0,4,0,4,12,40,4,48,36,28,32,28,32,16,16,4,16,8,16,12,8,4,0,0,0,0,0,0,0
0,0,0,0,0,0,0,0,0,4,4,4,8,4,4,4,0,0,0,4,0,0,0,0,0,0,0,0,0,0,0,0,0,0,4,0,8,4,20,12,24,24,24,20,36,32,36,32,28,28,12,16,20,8,20,8,4,0,0,0,0,0,0,0
0,0,0,0,0,0,0,4,8,0,16,0,0,0,8,0,0,0,0,0,0,0,0,0,0,0,0,0,0,0,0,0,0,4,4,8,0,4,12,32,8,24,36,20,44,20,28,20,20,4,8,12,8,4,12,12,8,0,0,4,0,0,0,0
0,0,0,0,0,0,0,0,0,4,12,4,4,20,4,0,4,0,0,0,0,0,0,0,0,0,0,0,0,0,0,0,0,4,4,0,0,4,12,8,24,24,56,40,36,32,32,36,24,28,36,24,28,16,20,28,16,16,12,4,0,0,0,0
0,0,0,0,0,0,0,0,0,0,4,12,12,8,4,4,0,0,0,0,0,0,0,0,4,0,0,0,0,0,0,0,0,0,4,12,12,12,32,24,32,32,44,32,56,68,44,48,40,32,36,44,24,24,20,20,20,12,0,0,0,0,0,0
0,0,0,0,0,0,0,0,12,4,0,4,0,0,4,0,0,0,0,0,0,0,0,4,0,0,0,0,0,0,0,0,0,4,4,12,0,4,12,20,44,48,60,52,44,36,36,44,24,28,28,20,24,16,12,16,20,24,4,0,0,0,0,0
0,0,0,0,0,0,0,0,4,0,4,4,8,0,4,4,4,0,0,0,0,0,0,0,0,0,0,0,0,0,0,0,0,0,4,8,8,8,12,12,40,72,36,24,60,28,32,32,20,16,24,24,8,20,12,20,4,20,4,0,0,0,0,0
0,0,0,0,0,0,0,4,0,4,4,12,4,8,4,4,0,4,0,0,0,0,0,0,0,0,0,0,0,0,0,0,0,0,0,4,4,4,0,24,72,68,28,64,60,40,28,56,20,24,4,20,12,8,4,12,12,8,4,0,0,0,0,0
0,0,0,0,0,0,8,0,0,4,12,72,4,56,8,0,4,4,0,4,0,0,0,0,0,0,0,0,0,0,0,0,4,0,0,4,4,0,0,20,4,56,24,52,68,32,36,44,20,32,24,32,20,32,24,36,28,4,16,0,0,0,0,0
0,0,0,0,0,0,0,0,0,8,4,4,4,16,0,4,0,0,0,0,0,0,0,0,0,0,0,0,0,0,0,0,0,4,0,20,12,4,16,32,32,44,56,76,36,40,40,36,40,40,28,24,24,24,20,16,12,4,0,4,0,0,0,0
0,0,0,0,0,0,0,0,0,64,0,52,0,0,0,0,0,0,0,0,0,0,0,0,0,0,0,0,0,0,0,0,0,0,0,0,0,4,12,20,40,60,40,36,40,48,44,40,40,48,28,28,28,28,28,24,20,16,8,0,0,0,0,0
0,0,0,0,0,0,0,0,0,4,4,4,4,0,4,4,0,0,4,0,0,0,0,0,0,0,0,0,0,0,0,0,4,0,8,4,12,28,8,28,40,56,28,32,64,32,28,40,28,28,28,20,20,20,12,16,8,20,8,0,0,0,0,0
0,0,0,0,0,0,0,4,0,0,4,8,8,4,0,0,0,0,0,0,0,0,0,0,0,0,0,0,0,0,0,0,0,0,8,4,8,12,12,32,40,68,68,48,80,56,36,28,28,32,24,20,16,20,16,16,8,16,12,0,0,0,0,0
0,0,0,0,0,0,0,0,4,4,4,8,8,8,8,4,0,4,4,0,0,0,0,0,0,0,0,0,0,0,0,0,0,4,8,4,4,12,12,12,20,56,60,56,68,28,28,48,20,32,12,20,16,20,28,20,16,12,20,0,0,0,0,0
0,0,0,0,0,0,0,0,64,0,0,4,4,4,0,0,0,4,0,0,0,0,0,0,0,0,0,0,0,0,0,0,0,0,4,0,8,0,8,4,8,28,32,56,28,16,40,16,12,12,16,16,32,24,20,4,4,0,0,0,0,0,0,0
0,0,0,0,0,0,0,0,0,8,8,12,4,4,4,0,0,0,0,0,0,0,4,0,0,0,0,0,0,0,0,0,0,0,0,4,4,0,4,24,56,16,24,44,24,32,40,40,40,28,28,36,28,28,16,24,20,24,8,4,0,0,0,0
0,0,0,0,0,0,56,0,0,4,0,20,4,4,4,8,4,0,0,0,0,0,0,0,0,0,0,0,0,0,0,0,0,0,8,0,4,4,52,8,24,60,64,32,40,44,12,24,32,32,28,24,20,20,16,16,12,4,12,0,0,0,0,0
0,0,0,0,0,0,0,0,4,4,4,12,4,4,12,4,4,0,0,4,0,0,0,0,0,0,0,0,0,0,0,0,0,4,8,0,4,12,32,4,48,76,20,56,20,40,20,48,16,32,20,24,12,12,8,16,4,0,0,4,0,0,0,0
