0,0,0,0,0,0,0,3,3,33,12,9,60,18,9,18,9,9,3,6,9,3,0,3,3,0,0,0,0,0,0,0,0,0,0,0,0,0,6,15,21,69,54,132,54,78,54,30,36,39,36,12,27,27,30,21,21,3,6,0,0,0,0,0
0,0,0,0,0,0,0,0,0,21,21,48,6,9,18,12,54,9,6,15,3,9,3,6,0,0,0,0,0,0,0,0,0,0,0,0,0,9,0,30,42,24,30,69,66,36,21,66,36,36,21,54,21,30,15,21,12,12,3,0,0,0,0,0
0,0,0,0,0,0,0,3,3,24,15,18,18,27,30,24,9,21,9,9,9,3,12,3,3,9,0,0,0,0,0,0,0,0,0,0,0,0,21,36,12,45,36,51,69,48,39,51,39,42,21,36,30,30,24,21,33,3,6,0,0,0,6,0
0,0,0,0,0,0,0,9,9,15,9,24,21,27,15,9,39,12,3,9,6,12,9,6,6,0,0,0,0,0,0,0,0,0,0,3,0,0,0,24,24,18,30,81,72,39,81,33,45,24,33,21,24,30,21,15,24,21,15,0,0,0,0,0
0,0,0,0,0,0,0,0,3,9,18,12,18,24,21,21,12,12,12,9,12,9,0,6,9,3,0,0,0,0,0,0,0,0,0,0,0,9,3,24,27,30,54,36,45,39,84,24,63,30,36,51,24,21,6,21,21,9,0,6,0,0,0,0
0,0,0,0,0,0,0,18,0,15,6,24,27,27,24,21,12,9,15,6,3,9,6,6,0,0,0,0,0,0,0,0,0,0,0,0,0,9,0,21,33,42,51,48,78,66,84,54,30,39,27,51,39,33,30,39,21,21,3,0,0,0,0,0
0,0,0,0,0,0,0,0,3,12,15,30,9,15,36,27,6,9,12,9,9,3,6,3,0,0,0,0,0,0,0,0,0,0,0,0,0,24,9,15,30,48,24,39,36,132,51,39,45,57,42,6,24,21,21,18,30,0,18,0,0,0,0,0
0,0,0,0,0,0,0,6,0,6,24,21,21,27,21,18,9,6,12,6,3,9,3,9,3,0,0,0,0,0,0,0,0,0,0,0,0,6,18,27,48,21,51,81,102,75,39,36,24,33,12,9,24,21,9,18,6,21,3,0,0,0,0,0
0,0,0,0,0,0,3,0,18,3,57,21,30,24,54,15,15,6,6,6,6,3,9,3,3,6,0,0,0,0,0,0,0,0,0,0,0,3,24,18,24,24,81,39,54,114,9,39,27,24,15,18,36,18,15,21,12,6,0,0,0,0,0,0
0,0,0,0,0,0,0,0,9,0,18,30,48,27,9,21,9,12,9,9,12,9,6,3,0,3,0,0,0,0,0,0,0,0,0,0,0,24,3,21,15,24,90,24,87,93,66,36,45,30,21,30,24,15,24,12,9,15,0,0,0,0,0,0
0,0,0,0,0,0,0,0,0,3,33,57,15,9,18,15,21,12,12,3,9,3,6,3,6,0,0,0,0,0,0,0,0,0,0,0,0,30,6,9,33,24,99,66,27,57,54,21,21,18,27,15,21,21,12,18,18,0,0,0,0,0,0,0
0,0,0,0,0,0,0,0,0,18,18,21,24,18,21,15,18,6,12,6,9,9,12,3,3,0,0,0,0,0,0,0,0,0,0,0,0,0,15,9,21,30,108,69,51,63,114,27,24,27,24,30,12,21,3,27,21,9,9,0,0,0,0,0
0,0,0,0,0,0,3,0,24,18,18,33,15,21,33,15,15,12,3,3,9,0,3,6,3,0,0,0,0,0,0,0,0,0,0,0,0,0,12,18,27,84,42,123,120,78,24,30,27,12,15,15,15,24,21,15,12,15,0,0,0,0,0,0
0,0,0,0,0,0,0,0,9,3,21,15,21,30,12,12,21,15,9,9,6,3,9,12,3,0,9,0,0,0,0,0,0,0,0,0,0,3,12,3,42,24,78,39,51,39,114,45,18,27,33,15,18,12,12,18,15,9,0,9,0,0,0,0
0,0,0,0,0,0,0,12,9,12,18,21,18,12,21,18,21,15,6,9,6,3,3,0,3,0,0,0,0,0,0,0,0,0,0,0,0,9,0,21,27,27,36,54,84,57,117,39,51,12,36,21,33,27,48,24,9,21,6,0,0,0,0,0
0,0,0,0,0,0,0,3,15,18,3,15,24,15,21,18,15,24,6,18,12,9,12,0,0,0,0,0,0,0,0,0,0,0,0,0,0,0,3,21,24,30,39,126,54,111,84,39,54,6,33,18,21,12,15,30,18,6,0,0,0,0,0,0
0,0,0,0,0,0,0,0,3,30,6,21,12,42,21,21,15,45,12,3,6,12,6,3,0,3,0,0,0,0,0,0,0,0,0,0,0,3,3,21,24,30,27,123,72,72,63,21,48,24,21,27,21,36,24,30,15,15,6,0,0,0,0,0
0,0,0,0,0,0,0,0,3,15,27,21,27,51,15,27,39,9,3,15,6,3,9,0,0,6,0,0,0,0,0,0,0,0,0,0,0,3,9,18,33,33,120,75,84,36,66,36,30,66,21,51,18,24,27,27,18,0,6,3,0,0,0,0
0,0,0,0,0,0,0,0,18,6,6,18,36,15,21,15,12,15,6,0,6,3,3,3,0,3,0,0,0,0,0,0,0,0,0,0,0,6,12,12,33,21,78,48,36,105,63,39,27,15,24,15,21,21,12,9,3,3,3,0,0,0,0,0
0,0,0,0,0,0,0,0,3,21,21,27,15,18,42,18,9,18,24,3,6,9,0,9,3,0,0,0,0,0,0,0,0,0,0,0,0,0,21,3,18,54,36,120,51,75,63,57,27,15,6,21,45,12,24,15,21,6,0,0,0,0,0,0
0,0,0,0,0,0,0,3,6,15,27,9,15,18,36,9,9,9,3,9,9,3,9,12,0,0,0,0,0,0,0,0,0,0,0,0,0,0,6,30,9,93,36,123,45,39,15,15,24,24,15,15,18,6,27,15,18,3,9,0,0,0,0,0
0,0,0,0,0,0,0,0,9,9,18,15,24,48,15,21,12,36,6,3,12,6,9,3,0,6,0,0,0,0,0,0,0,0,0,0,0,0,12,9,9,45,18,45,123,81,30,42,21,30,18,21,27,12,15,15,24,12,12,0,0,0,0,0
0,0,0,0,0,0,0,0,6,9,15,42,15,18,24,6,3,15,9,3,9,3,6,9,0,0,0,0,0,0,0,0,0,0,0,0,0,3,0,12,33,27,21,93,57,45,15,111,30,66,36,30,27,24,30,12,18,0,21,0,0,0,0,0
0,0,0,0,0,0,0,6,21,18,3,9,45,15,45,9,12,15,12,0,6,6,3,3,0,0,0,0,0,0,0,0,0,0,0,0,3,0,0,42,21,24,33,54,78,36,84,18,33,48,30,21,27,21,33,21,18,18,0,0,0,0,0,0
0,0,0,0,0,0,0,0,9,12,6,18,12,18,15,15,9,9,3,24,3,3,3,0,0,0,0,0,0,0,0,0,0,0,0,0,0,12,3,24,69,33,30,36,72,84,42,27,27,33,36,21,24,18,15,9,21,9,0,0,0,0,0,0
0,0,0,0,0,0,0,3,3,12,30,15,21,48,12,21,6,9,6,3,6,3,3,0,3,3,0,0,0,0,0,0,0,0,0,0,0,0,21,15,42,21,51,60,60,39,39,75,21,33,30,21,24,18,21,27,15,15,0,0,0,0,0,0
0,0,0,0,0,0,0,0,15,15,21,45,9,15,57,12,6,21,3,9,0,3,3,0,0,0,0,0,0,0,0,0,0,0,0,0,0,18,6,24,33,42,63,60,69,72,84,15,27,27,21,24,18,27,15,9,15,3,9,0,0,0,0,0
0,0,0,0,0,3,0,0,0,12,15,36,12,21,21,12,15,9,6,3,9,0,3,0,3,0,0,0,0,0,0,0,0,0,0,0,0,0,0,24,27,36,42,63,18,30,42,39,27,24,42,24,24,30,24,24,15,21,0,0,0,0,0,0
0,0,0,0,0,0,0,0,0,12,18,15,21,12,15,15,6,9,12,3,9,3,0,9,0,0,0,0,0,0,0,0,0,0,0,0,0,18,0,24,24,27,30,39,36,42,48,45,15,30,48,24,18,21,21,27,18,12,0,3,0,0,0,0
0,0,0,0,0,0,0,0,9,15,21,57,15,12,15,15,15,9,6,6,9,3,3,9,0,0,0,0,0,0,0,0,0,0,0,0,0,0,9,21,21,39,36,39,39,27,36,39,36,42,36,36,15,12,18,6,21,15,3,0,0,0,0,0
0,0,0,0,0,0,0,9,0,15,9,18,18,15,15,6,9,15,21,6,3,3,3,6,0,0,0,0,0,0,0,0,0,0,0,6,0,0,6,3,24,18,24,36,42,39,33,36,24,30,21,21,30,12,30,21,21,12,3,0,0,0,0,0
0,0,0,0,0,0,0,3,9,21,3,18,15,21,12,12,9,21,9,12,3,3,0,0,3,0,0,0,0,0,0,0,0,0,0,0,0,0,18,15,27,21,36,42,36,36,24,42,33,30,27,30,27,30,42,12,30,15,6,0,0,0,0,0
0,0,0,0,0,0,0,0,6,6,12,18,15,9,21,9,6,6,9,3,6,6,6,0,0,0,0,0,0,0,0,0,0,0,3,0,0,0,3,12,30,36,48,24,39,42,48,36,30,36,39,24,33,18,15,24,15,15,3,0,0,0,0,0
0,0,0,0,0,0,0,0,6,12,21,60,3,12,21,15,6,9,6,3,3,3,3,3,0,0,0,0,0,0,0,0,0,0,0,3,0,0,18,21,36,36,42,39,30,51,39,33,36,36,30,21,24,21,24,27,9,18,0,0,0,0,0,0
0,0,0,0,0,0,0,3,18,6,9,6,12,15,15,15,12,6,6,6,9,0,0,3,0,0,0,0,0,0,0,0,0,0,0,0,6,0,30,21,27,21,33,39,27,39,60,33,33,24,21,15,9,21,12,18,12,6,0,0,0,0,0,0
0,0,0,0,0,0,0,3,12,0,21,12,18,15,15,15,15,15,9,6,6,6,0,3,0,3,0,0,0,0,0,0,0,0,0,0,0,0,6,24,15,24,27,33,33,39,111,39,21,33,21,24,15,21,15,15,18,6,0,9,0,0,0,0
0,0,0,0,0,0,0,3,6,3,12,15,18,18,15,15,6,9,3,6,3,0,9,6,0,0,0,0,0,0,0,0,0,0,0,0,0,3,18,30,36,33,30,42,36,30,45,30,33,30,15,15,21,24,18,21,15,0,0,0,0,0,0,0
0,0,0,0,0,0,9,0,0,3,18,18,15,18,12,27,3,6,15,0,3,9,3,0,3,0,0,0,0,0,0,0,0,0,0,0,0,3,3,24,39,21,42,45,30,45,24,30,33,30,15,21,21,18,33,12,12,21,0,0,0,0,0,0
0,0,0,0,0,0,0,0,3,0,15,21,21,12,9,18,12,15,15,3,6,3,0,6,0,0,0,0,0,0,0,0,0,0,0,0,0,0,12,27,24,42,39,39,42,33,75,27,27,42,33,24,24,18,15,18,30,6,15,0,0,0,0,0
0,0,0,0,0,0,0,0,6,6,24,30,18,18,9,9,3,12,9,3,6,6,6,3,6,3,0,0,0,0,0,0,0,0,0,0,9,0,6,18,30,30,27,39,78,51,48,69,30,27,33,30,30,21,15,15,15,6,9,0,0,0,0,0
0,0,0,0,0,0,0,12,0,0,27,21,21,24,21,6,12,6,6,9,9,9,9,9,0,0,0,0,0,0,0,0,0,0,0,0,0,18,3,30,30,36,33,48,45,51,27,45,21,51,36,36,21,27,30,30,15,30,0,3,0,0,0,0
0,0,0,0,0,0,0,0,6,18,18,18,21,27,12,9,12,9,9,3,15,3,12,3,0,3,0,0,0,0,0,0,0,0,0,0,0,0,15,9,24,9,30,27,27,39,27,24,63,33,36,27,24,30,18,27,9,15,0,3,0,0,0,0
0,0,0,0,0,0,0,0,0,30,3,9,18,24,15,15,9,24,9,6,3,3,0,0,15,0,0,0,0,0,0,0,0,0,0,0,0,9,27,3,21,21,24,21,42,30,48,36,30,45,42,42,51,27,39,30,33,18,0,0,0,0,0,0
0,0,0,0,0,0,0,0,0,6,21,12,18,21,15,12,9,12,3,0,3,9,3,0,0,0,0,0,0,0,0,0,0,0,0,0,0,6,15,6,18,24,21,21,30,45,21,36,21,24,18,27,27,30,30,30,15,15,0,0,0,0,0,0
0,0,0,0,0,0,0,0,0,12,15,18,18,15,15,12,9,9,3,3,0,6,3,9,6,0,0,0,0,0,0,0,0,0,0,3,0,0,18,9,21,21,42,42,36,33,42,42,36,36,24,21,36,15,21,24,15,3,6,0,0,0,0,0
0,0,0,0,0,0,3,0,15,12,3,15,18,15,12,9,6,9,6,3,0,3,0,6,0,0,0,0,0,0,0,0,0,0,0,0,0,21,15,3,30,24,36,48,30,42,45,48,30,33,24,21,24,27,21,15,24,9,0,0,0,0,0,0
0,0,0,0,0,0,0,3,0,3,9,21,30,15,15,9,12,15,6,6,6,9,3,0,6,0,0,0,0,0,0,0,0,0,0,0,0,15,0,24,21,21,36,24,27,36,21,18,33,30,21,18,24,27,18,24,21,0,12,3,0,0,0,0
0,0,0,0,0,0,0,12,0,18,9,18,12,15,21,9,12,9,9,6,9,6,6,0,12,0,0,0,0,0,0,0,0,0,0,0,0,0,18,12,18,9,21,27,39,21,45,24,30,15,30,21,24,18,24,12,12,9,15,0,0,0,0,0
0,0,0,0,0,0,9,0,0,3,18,6,18,18,6,9,15,6,9,6,9,9,0,3,0,3,0,0,0,0,0,0,0,0,0,0,0,0,15,15,24,21,24,24,30,39,48,36,48,27,36,21,18,24,21,18,15,24,0,3,0,0,0,0
0,0,0,0,0,0,0,12,24,18,27,36,12,18,21,6,15,6,6,0,3,3,9,12,0,0,0,0,0,0,0,0,0,0,0,0,0,3,9,18,30,24,42,36,39,39,39,36,18,21,24,21,30,42,30,15,6,9,0,0,0,0,0,0
