0,0,0,0,0,6,0,48,0,18,42,24,30,18,18,18,6,0,6,0,0,0,0,0,0,0,0,0,0,0,0,0,0,0,0,0,0,6,12,48,30,48,42,36,36,36,36,36,6,30,36,0,0,6,6,6,6,0,0,0,0,0,0,0
0,0,0,0,0,0,0,6,18,6,84,12,30,24,6,6,6,6,0,0,0,0,0,0,0,0,0,0,0,0,0,0,0,0,0,12,0,6,18,18,30,30,42,60,18,12,42,42,6,42,12,18,0,0,0,6,6,0,0,0,0,0,0,0
0,0,0,0,0,6,0,0,6,6,6,18,24,18,6,12,6,6,0,0,0,0,0,0,0,0,0,0,0,0,0,0,0,0,0,0,0,0,42,48,6,48,102,48,30,18,30,6,6,30,30,30,18,30,6,0,0,0,0,0,0,0,0,0
0,0,0,0,0,6,0,0,6,6,30,6,24,24,18,6,0,0,0,0,0,0,0,0,0,0,0,0,0,0,0,0,0,0,0,0,6,18,0,30,60,42,54,72,96,60,48,48,36,6,36,0,12,0,0,0,0,0,0,0,0,0,0,0
0,0,0,6,0,6,0,0,0,12,30,60,30,12,96,6,0,48,0,0,12,0,6,0,0,0,0,0,0,0,0,0,0,0,0,0,0,6,48,24,24,42,60,78,48,54,48,48,18,6,48,12,6,0,0,0,0,0,0,0,0,0,0,0
0,0,0,0,0,6,0,0,12,18,36,30,12,18,18,6,0,6,0,0,0,6,0,0,6,0,0,0,0,0,0,0,0,0,18,0,24,0,180,24,12,60,72,60,36,72,84,30,30,6,72,6,6,0,0,6,0,12,0,0,0,0,0,0
0,0,0,0,0,0,6,6,12,18,30,6,24,18,6,6,6,6,0,6,0,0,0,0,0,0,0,0,0,0,0,0,0,0,18,6,0,42,6,54,42,18,30,42,54,60,60,12,30,12,0,0,48,0,6,6,0,0,0,0,0,0,0,0
0,0,0,0,0,0,6,6,0,18,18,30,30,18,0,18,6,0,0,6,0,0,0,0,0,0,0,0,0,0,0,0,0,0,0,0,0,24,0,12,6,60,54,24,72,18,24,18,6,6,6,0,12,6,6,0,0,6,0,0,0,0,0,0
0,0,0,0,0,6,0,6,18,24,18,12,18,18,12,6,0,0,0,0,0,0,0,0,0,0,0,0,0,0,0,0,6,0,0,0,0,0,42,60,42,72,96,72,36,18,72,108,12,6,6,0,6,6,0,0,18,0,6,0,0,0,0,0
0,0,0,0,0,0,6,18,6,90,18,18,42,24,48,60,6,6,0,6,6,0,6,6,0,0,0,0,0,0,0,0,0,0,0,0,12,6,30,42,60,48,78,24,78,30,54,36,54,36,24,12,6,6,0,0,6,0,0,0,0,0,0,0
0,0,0,0,0,0,6,12,6,24,12,24,24,18,6,12,6,0,0,6,0,6,6,6,6,0,0,0,0,0,0,0,0,0,0,0,0,6,36,54,66,66,90,72,60,72,54,72,48,6,6,0,6,6,6,48,54,0,0,0,0,0,0,0
0,0,0,0,0,0,0,6,6,12,24,24,36,18,18,6,6,0,6,0,0,0,0,0,0,0,0,0,0,0,0,0,0,0,0,0,18,42,42,60,42,66,60,78,72,72,60,48,12,42,48,54,54,54,48,6,0,0,0,0,0,0,0,0
0,0,0,0,0,0,0,6,6,12,12,30,30,30,6,18,0,6,6,0,6,0,0,0,0,0,0,0,0,0,0,0,6,0,0,0,0,0,42,42,60,54,66,48,54,48,48,42,60,48,6,6,0,0,48,30,0,0,0,0,0,0,0,0
0,0,0,0,0,0,6,12,12,18,18,24,18,12,18,6,12,0,6,0,0,0,0,0,0,0,0,0,0,0,0,0,0,0,12,0,0,42,6,18,24,48,42,66,60,48,30,12,6,6,6,18,12,12,6,0,0,0,0,0,0,0,0,0
0,0,0,0,0,0,6,12,6,6,12,90,24,12,6,24,6,6,0,0,0,0,6,0,0,0,0,0,0,0,0,0,0,12,0,30,0,24,36,18,60,72,54,78,72,66,72,60,60,66,6,6,42,0,6,6,0,0,0,0,0,0,0,0
0,0,0,0,0,0,12,6,18,18,12,42,18,12,6,0,6,6,0,6,6,0,0,0,0,0,0,0,0,0,0,0,0,0,0,0,0,0,36,42,30,48,48,66,48,48,36,48,18,18,6,0,12,6,6,0,12,0,0,0,0,0,0,0
0,0,0,0,0,0,12,6,18,12,24,30,30,48,30,24,6,6,0,0,0,0,6,6,0,0,0,0,0,0,0,0,0,0,12,0,0,30,30,18,60,36,48,48,54,42,30,6,6,12,12,6,18,0,6,0,0,0,0,0,0,0,0,0
0,0,0,0,0,0,0,6,12,60,6,54,36,18,30,6,12,0,0,0,6,6,6,0,0,6,0,0,0,0,0,0,0,0,0,0,6,6,0,18,42,42,48,48,54,18,54,60,48,24,6,12,42,6,6,6,6,6,0,0,0,0,0,0
0,0,0,0,0,6,6,6,12,12,12,24,48,30,18,6,0,6,0,6,6,6,0,0,0,0,0,0,0,0,0,0,0,0,0,0,0,18,6,48,0,48,66,54,42,60,66,48,48,42,18,42,12,6,24,18,6,0,12,0,0,0,0,0
0,0,0,0,0,0,6,6,12,24,18,36,30,18,30,24,18,12,6,6,6,6,0,6,0,0,0,0,0,0,0,0,0,0,0,0,6,0,18,54,48,48,60,54,78,18,60,72,42,42,18,18,24,12,48,0,12,0,6,0,0,0,0,0
0,0,0,0,0,0,6,6,6,30,6,12,36,24,30,30,18,6,6,18,6,6,6,0,0,0,0,0,0,0,0,0,0,0,0,6,0,6,42,42,60,54,54,54,48,48,48,72,66,48,54,18,18,18,18,18,42,0,0,0,0,0,0,0
0,0,0,0,0,0,12,6,12,18,24,36,24,18,24,12,6,18,12,6,0,6,0,6,0,0,0,0,0,0,0,0,0,0,0,0,18,36,0,66,72,78,120,72,66,78,72,12,6,66,42,30,18,30,30,12,6,6,6,0,0,0,0,0
0,0,0,0,0,0,6,0,0,24,36,54,18,24,42,24,18,18,0,6,0,6,0,0,0,6,0,0,0,0,0,0,0,0,18,0,0,0,42,54,60,42,72,60,66,48,66,114,42,30,36,60,18,18,84,30,6,18,0,0,0,0,0,0
0,0,0,0,0,6,0,6,18,18,24,30,36,36,12,18,18,12,12,0,6,6,6,0,6,0,0,0,0,0,0,0,0,0,0,0,0,0,42,30,60,60,78,72,66,60,66,48,72,78,12,30,48,6,6,24,6,0,0,0,0,0,0,0
0,6,0,0,0,0,0,6,18,12,24,18,24,30,12,24,12,12,0,0,0,0,0,0,0,0,0,0,0,0,0,0,0,0,0,18,0,6,30,42,60,18,54,102,60,48,36,48,24,18,42,12,30,30,30,18,18,0,6,0,0,0,0,0
0,0,0,0,0,0,0,0,18,30,18,30,30,72,24,18,18,6,0,0,0,0,0,0,0,0,0,0,0,0,0,0,0,0,0,0,0,18,12,60,54,36,36,54,78,48,48,48,42,30,36,36,24,12,12,18,24,0,0,0,0,0,0,0
0,0,0,0,0,0,6,12,12,36,30,42,30,48,24,36,24,18,12,0,0,0,0,0,0,0,0,0,0,0,0,0,0,0,0,0,0,6,36,36,66,54,66,72,72,48,66,48,30,60,54,30,48,54,6,54,0,24,0,6,0,0,0,0
0,0,0,0,0,0,12,0,12,18,24,24,36,12,30,6,30,6,6,6,0,6,0,6,0,0,0,0,0,0,0,0,0,0,0,0,0,18,24,36,66,72,66,72,114,78,72,54,30,36,6,18,30,42,12,48,0,0,0,0,0,0,0,0
0,0,0,0,0,0,0,54,120,42,90,24,24,30,24,24,30,36,30,30,42,54,18,0,0,0,0,0,0,0,0,0,0,0,0,0,12,36,6,60,24,48,42,18,42,48,42,42,42,42,42,18,48,36,36,6,6,0,0,0,0,0,0,0
0,0,0,0,6,0,0,6,12,12,30,24,30,18,0,0,6,6,6,0,0,6,0,0,0,0,0,0,0,0,0,0,0,0,6,12,6,150,6,48,168,60,42,42,48,54,42,72,72,72,18,42,6,30,42,48,30,0,0,0,0,0,0,0
0,0,0,0,0,0,0,12,144,12,12,6,24,30,18,6,0,6,6,6,0,0,0,0,0,0,0,0,0,0,0,0,0,0,0,0,6,6,36,24,36,138,60,114,54,36,96,42,60,54,42,96,42,12,12,6,12,0,0,0,0,0,0,0
0,0,0,0,0,0,0,0,6,18,6,6,18,18,30,18,24,6,12,0,0,0,0,0,0,0,0,0,0,0,0,0,0,0,0,0,0,0,0,18,54,72,114,72,48,60,54,54,48,30,60,30,12,12,42,42,18,6,36,0,0,0,0,0
0,0,0,0,0,66,0,0,0,36,42,42,36,24,18,60,24,6,6,12,0,0,0,0,0,6,0,0,0,0,0,0,0,0,0,0,0,18,42,36,48,114,132,102,102,84,102,114,96,54,54,84,60,30,36,48,6,18,0,6,0,0,0,0
0,0,0,0,6,0,0,6,6,18,18,36,42,24,24,18,6,6,6,6,0,0,0,0,0,0,0,0,0,0,0,0,0,0,0,0,18,12,48,12,72,60,66,72,30,96,72,72,42,54,36,66,72,72,48,6,48,0,36,6,0,0,0,0
0,0,0,0,0,0,6,114,12,12,18,30,42,30,18,12,6,0,6,6,6,0,6,0,0,0,0,0,0,0,0,0,0,0,0,0,12,18,24,6,30,66,72,60,18,54,18,54,24,24,18,36,18,6,6,12,12,6,0,0,0,0,0,6
0,0,0,0,0,72,0,12,186,174,186,234,186,144,18,12,0,6,0,6,0,0,0,0,0,0,0,0,0,0,0,0,0,0,0,12,12,0,0,6,60,48,42,30,48,36,6,18,36,24,30,18,12,12,12,6,12,0,6,0,0,0,0,0
0,0,0,0,0,0,24,0,12,12,12,24,24,30,36,12,24,6,6,6,0,0,0,0,0,0,0,0,0,0,0,0,0,0,0,0,30,18,12,6,48,30,60,42,30,12,66,18,48,36,12,12,36,18,24,12,18,6,0,0,0,0,0,0
0,0,0,0,0,0,0,138,120,114,18,156,126,48,0,12,12,0,0,0,18,0,0,0,0,0,0,0,0,0,0,0,0,0,0,0,0,0,0,120,6,84,72,30,48,72,42,66,54,30,18,12,18,24,54,0,0,18,30,0,0,0,0,0
0,0,0,0,0,0,6,18,6,30,42,24,24,18,24,18,66,54,24,54,0,0,0,0,0,0,0,0,0,0,0,0,0,0,0,12,0,0,60,66,186,102,96,84,102,24,30,84,18,12,18,6,18,12,18,6,12,0,0,0,0,0,0,0
0,0,0,0,0,0,0,6,0,12,12,0,12,6,24,12,0,0,6,6,0,0,6,0,0,0,0,0,0,0,0,0,0,0,12,0,0,30,48,0,18,18,42,24,6,0,36,48,36,30,18,18,18,6,12,18,12,6,6,0,0,0,0,0
0,0,0,0,0,0,0,66,12,6,12,18,24,6,18,18,18,0,0,0,0,0,0,0,0,0,0,0,0,0,0,0,0,0,0,0,0,6,30,6,30,36,18,36,30,48,30,78,30,18,24,18,18,18,12,24,12,18,0,0,0,0,0,0
0,0,0,0,0,0,0,6,6,6,18,18,18,36,6,18,18,18,6,0,0,0,0,0,0,0,0,0,0,0,0,0,0,0,0,0,0,18,24,48,42,42,60,54,48,24,42,66,60,60,84,60,42,24,12,36,18,0,0,0,0,0,0,0
0,0,0,0,0,0,18,0,42,90,12,24,96,42,18,18,84,0,18,0,0,0,0,0,0,0,0,0,0,0,0,0,0,0,0,6,0,30,18,48,60,60,54,72,66,48,84,66,66,48,48,36,60,42,30,12,36,18,0,0,0,0,0,0
0,0,0,0,0,0,6,6,12,30,18,18,18,30,18,0,12,0,0,6,0,0,0,0,0,0,0,0,0,0,0,0,0,0,0,0,0,0,0,24,84,42,36,30,36,42,42,30,18,36,36,18,6,18,6,6,6,54,0,0,0,0,0,0
0,0,0,0,0,6,0,0,6,96,42,18,18,42,18,24,12,18,6,6,0,0,0,0,0,0,0,0,0,0,0,0,0,0,0,0,18,0,48,30,42,30,48,42,12,36,6,6,6,6,0,18,24,12,30,30,48,0,0,0,0,0,0,0
0,0,0,0,0,0,0,12,0,6,18,12,6,12,18,12,0,0,6,0,0,0,0,0,0,0,0,0,0,0,0,0,0,0,0,0,0,0,24,48,48,54,48,72,30,30,0,6,30,12,30,18,18,6,6,12,6,0,0,0,0,0,0,0
0,0,0,0,0,0,0,6,0,18,18,12,18,18,18,6,0,0,0,6,0,0,6,0,0,0,0,0,0,0,0,0,0,0,0,0,0,6,24,12,30,12,48,36,114,30,18,30,18,6,30,18,30,24,12,6,0,0,0,6,0,0,0,0
0,0,0,0,0,0,0,0,12,24,30,6,12,0,30,6,6,0,0,0,0,0,0,0,0,0,0,0,0,0,0,0,0,0,0,0,0,0,24,48,24,48,54,48,36,108,24,12,42,24,24,12,18,0,0,24,6,6,0,0,0,0,0,0
0,0,0,0,0,0,6,0,6,30,12,18,60,24,48,60,18,18,18,6,12,0,0,0,0,0,0,0,0,0,0,0,0,0,0,0,0,18,30,30,30,30,30,30,48,6,6,30,18,12,18,0,12,12,6,6,6,0,0,0,0,0,0,0
0,0,0,0,0,0,0,18,6,66,6,30,60,36,18,24,18,6,0,0,0,6,0,0,0,0,0,0,0,0,0,0,0,0,0,0,0,0,24,42,42,48,54,54,66,42,30,54,78,12,30,18,6,0,6,42,0,36,0,0,0,0,0,0
