0,0,0,0,0,0,0,0,18,54,6,6,18,30,6,36,6,6,6,0,0,0,0,6,0,0,0,0,0,0,0,0,0,0,0,0,0,0,0,30,18,18,42,30,66,30,54,30,48,60,18,0,6,6,12,18,6,0,0,0,0,0,0,0
0,0,0,0,6,0,0,6,18,0,42,36,54,30,6,42,6,18,18,6,0,0,6,0,0,0,0,0,0,0,0,0,0,0,0,0,0,0,0,0,0,30,90,66,126,54,36,48,30,48,42,6,0,12,0,36,0,6,0,0,0,0,0,0
0,0,0,0,0,0,0,36,6,0,18,48,90,36,24,24,0,6,6,6,6,0,6,0,0,0,0,0,0,0,0,0,0,0,0,0,0,0,0,6,6,54,60,30,60,96,72,84,54,36,6,18,6,6,6,6,0,12,0,0,0,0,0,0
0,0,0,0,0,0,0,0,6,24,60,48,126,30,30,18,18,0,18,6,36,6,0,0,0,0,0,0,0,0,0,0,0,0,0,0,0,0,0,6,6,12,42,54,54,102,66,36,30,30,0,18,12,0,12,18,12,0,0,0,0,0,0,42
0,0,0,0,6,18,12,0,12,36,30,60,24,60,30,48,24,18,12,18,18,24,12,12,18,12,0,0,6,0,0,0,0,0,0,0,0,0,12,18,0,24,18,78,54,42,24,66,60,36,30,36,6,6,6,6,0,12,0,0,0,6,0,0
0,6,12,0,0,24,24,6,48,42,24,60,78,36,30,48,30,30,24,36,30,24,24,18,30,6,0,0,0,6,0,0,0,0,0,0,0,0,0,18,60,42,36,18,126,96,96,54,84,66,12,18,6,12,54,12,18,12,0,0,0,0,0,0
0,0,0,0,0,0,0,6,12,60,12,42,72,18,6,60,36,12,24,0,6,18,0,6,0,0,0,0,0,0,0,0,0,0,0,0,0,6,0,42,42,30,48,24,72,30,72,84,24,42,48,12,12,6,18,6,6,0,0,0,0,0,6,0
0,0,0,0,0,0,0,0,48,12,6,66,48,24,42,36,18,30,6,6,0,0,6,0,0,0,0,0,0,0,0,0,0,0,0,0,0,0,30,30,54,6,108,24,30,30,60,42,60,54,36,6,12,6,12,30,0,6,12,0,0,0,0,0
6,0,0,0,0,0,6,0,30,54,18,18,30,72,30,42,30,18,30,30,18,18,18,18,12,18,12,0,0,0,0,0,0,0,0,0,0,0,0,24,48,42,90,84,48,54,72,48,36,18,30,18,36,42,24,0,6,6,0,0,0,0,0,0
0,0,0,0,0,0,6,36,18,48,24,24,114,18,24,54,18,18,18,24,18,12,12,24,18,12,6,0,0,0,0,0,0,0,0,0,0,6,0,6,84,6,66,48,72,78,54,78,48,60,24,24,6,30,18,12,12,0,0,0,0,0,6,6
0,0,0,0,0,0,0,6,42,48,36,54,102,120,18,36,6,24,24,6,12,6,0,0,0,0,0,0,0,0,0,0,0,0,0,0,0,0,6,18,36,36,66,102,30,18,12,66,12,6,6,6,6,0,6,0,6,0,6,0,12,0,18,18
12,12,24,12,18,18,18,18,24,42,84,42,30,36,138,54,18,24,24,18,12,18,18,18,0,18,18,0,12,0,0,0,0,6,0,0,6,0,0,0,66,30,84,48,84,24,48,72,72,36,12,18,30,24,18,0,6,0,0,0,0,0,30,78
24,30,24,24,24,30,30,24,24,48,60,54,78,78,24,24,30,18,24,18,18,18,18,24,12,18,0,6,48,0,18,0,0,0,0,0,0,0,12,0,48,84,102,72,96,42,66,24,36,30,60,24,36,18,12,24,6,0,0,0,0,0,0,0
0,0,0,0,0,0,6,18,42,6,72,60,30,84,42,6,36,12,42,6,6,0,6,18,0,0,0,6,0,0,0,0,0,0,0,0,0,0,6,30,132,78,90,48,90,84,54,78,30,42,6,30,6,12,6,6,6,6,0,0,0,0,0,0
0,0,0,0,0,0,0,0,48,6,96,84,60,36,48,60,18,6,6,6,6,6,6,6,0,0,0,0,0,0,0,0,0,0,0,0,0,0,6,12,24,60,30,114,78,60,96,54,66,30,72,18,36,24,36,12,12,0,0,0,0,0,12,0
0,0,0,0,0,0,0,0,12,18,30,42,48,6,36,150,6,6,6,12,24,6,0,0,12,0,0,0,0,0,0,0,0,0,0,0,0,6,0,12,12,60,72,84,54,72,78,96,72,60,84,54,42,6,0,12,0,0,0,0,0,0,6,24
30,30,30,24,24,30,30,24,54,30,72,66,60,126,42,96,48,18,36,18,42,18,12,12,18,12,0,0,0,0,0,0,0,0,0,0,0,0,6,6,66,42,84,120,114,138,108,18,66,54,66,60,66,66,48,18,6,6,0,0,0,0,0,0
0,0,0,0,0,0,0,42,0,24,30,48,42,30,36,36,0,0,12,6,18,0,12,0,0,6,0,0,0,0,0,0,0,0,0,0,0,36,6,0,6,84,102,102,42,84,90,72,78,54,30,60,0,18,48,12,0,36,0,0,0,0,0,0
0,0,0,0,0,0,0,0,60,42,18,36,12,12,0,30,36,30,6,18,54,12,18,18,6,6,0,0,0,0,0,0,0,0,0,0,6,0,54,6,12,84,108,114,102,126,90,108,156,54,72,60,66,60,66,48,24,12,0,0,0,0,0,0
0,0,0,0,0,0,0,0,0,30,66,42,48,108,30,60,18,6,12,0,6,12,6,0,12,0,0,0,0,0,0,0,0,0,0,0,0,0,24,0,6,96,42,48,102,66,126,36,96,18,18,6,42,6,6,6,0,0,0,0,0,0,0,0
0,0,0,0,0,0,0,0,54,60,6,18,54,48,60,6,30,30,12,12,6,6,0,0,6,0,0,0,0,0,0,0,0,0,0,0,0,6,6,0,6,36,42,18,54,36,66,30,54,12,12,42,60,84,30,42,6,6,0,0,0,0,0,0
0,0,0,0,0,0,0,0,18,42,24,60,84,108,24,6,6,6,24,24,6,6,0,30,0,0,0,0,0,0,0,0,0,0,0,0,0,0,6,6,12,60,48,24,72,24,72,66,84,72,66,42,66,66,12,18,48,0,0,0,0,0,0,0
0,0,0,0,0,0,0,0,54,0,60,72,18,48,6,30,18,6,54,6,6,0,6,6,0,0,0,0,0,0,0,0,0,0,0,0,0,0,12,0,18,72,96,150,54,78,96,102,42,84,48,12,54,84,48,42,6,6,6,0,0,0,0,0
0,0,0,0,0,0,0,0,36,48,6,78,30,84,42,12,30,12,0,12,36,0,6,0,0,0,0,0,0,0,0,0,0,0,0,0,0,0,0,6,30,72,96,96,114,60,54,48,36,72,6,18,42,18,12,6,6,0,0,0,0,0,0,0
0,0,0,0,0,0,0,0,18,30,48,18,36,42,30,126,18,24,18,6,12,6,6,6,0,0,0,0,0,0,0,0,0,0,0,0,0,12,6,12,42,66,12,114,138,90,60,78,90,42,42,12,6,42,42,18,18,0,0,0,0,0,0,0
0,0,0,0,0,0,0,66,60,0,0,30,36,24,36,48,24,6,6,42,6,12,6,0,6,0,0,0,0,0,0,0,0,0,0,0,0,0,6,6,42,48,24,66,72,66,96,84,84,78,72,60,72,48,54,54,18,36,0,0,0,0,0,0
0,0,0,0,0,0,0,0,12,12,60,30,42,6,24,36,6,18,18,24,0,0,6,6,0,0,0,0,0,0,0,0,0,0,0,0,0,6,0,6,6,42,84,60,114,78,36,60,102,66,72,48,48,66,54,36,18,48,0,0,0,0,0,0
0,0,0,0,0,0,0,0,60,18,18,6,12,48,30,18,42,6,36,30,0,12,0,0,12,6,0,0,0,0,0,0,0,0,0,0,0,0,12,18,42,24,66,78,96,90,66,66,72,54,48,48,72,48,36,6,6,6,0,0,0,0,0,0
0,0,0,0,0,0,0,0,36,30,30,54,60,120,18,18,24,24,30,18,18,30,18,12,12,6,0,0,0,0,0,0,0,0,0,0,0,6,36,30,42,60,78,102,72,48,18,72,78,66,48,72,18,18,42,42,48,0,0,0,0,0,0,0
0,0,0,0,0,0,0,0,0,6,90,30,96,42,42,42,36,36,30,0,6,6,6,6,6,0,0,0,0,0,0,0,0,0,0,0,0,6,6,30,48,18,42,66,72,48,42,90,132,66,60,48,48,18,42,72,18,54,0,0,0,0,0,0
0,0,0,0,0,0,0,0,18,18,54,24,48,42,36,36,6,30,12,60,12,30,6,12,0,0,0,0,0,0,0,0,0,0,0,0,0,0,30,12,6,30,18,60,114,42,30,66,102,42,30,60,0,6,12,12,30,0,6,0,0,0,0,0
0,0,0,0,0,0,0,0,54,12,54,30,54,12,24,24,6,12,30,6,6,12,6,0,0,0,0,0,0,0,0,0,0,0,0,0,6,6,0,36,42,42,42,48,84,42,54,90,96,36,54,36,48,54,36,30,6,6,0,0,0,0,0,0
0,0,0,0,0,0,0,30,0,12,30,96,54,60,42,24,18,6,0,6,18,0,6,24,0,0,0,0,0,0,0,0,0,0,0,0,0,0,0,6,18,42,54,48,48,72,90,66,84,54,18,84,42,54,72,12,6,0,6,0,0,0,0,0
0,0,0,0,0,0,0,0,42,72,12,78,24,102,48,36,12,66,18,6,0,6,6,0,48,0,0,0,0,0,0,0,0,0,0,0,0,0,6,24,18,66,30,66,66,18,60,36,60,72,30,36,72,42,54,36,12,0,0,0,0,0,0,0
0,0,0,0,0,0,0,0,48,42,30,30,114,30,42,18,6,24,24,6,24,6,18,12,0,6,0,0,0,0,0,0,0,0,0,0,0,6,6,6,24,54,78,66,108,60,66,48,42,24,48,6,36,18,12,18,6,0,0,0,0,0,0,0
0,0,0,0,0,0,0,12,6,6,84,54,78,30,24,30,12,6,12,12,0,6,6,0,0,0,0,0,0,0,0,0,0,0,0,0,0,0,6,30,18,30,54,30,90,72,48,78,66,18,30,30,12,60,48,24,0,6,0,0,0,0,0,0
0,0,0,0,0,0,0,30,0,6,24,66,30,42,42,42,30,12,30,18,24,0,18,18,0,0,0,0,0,0,0,0,0,0,0,0,0,24,0,0,84,30,48,120,96,54,78,72,66,66,66,30,54,60,60,30,12,0,0,0,0,0,0,0
0,0,0,0,0,0,0,0,6,48,42,24,42,42,24,6,30,6,18,6,30,0,36,12,6,6,0,0,0,0,0,0,0,0,0,0,0,6,0,30,12,24,84,48,60,90,42,42,48,84,42,24,42,48,6,24,18,6,12,0,0,0,0,0
0,0,0,0,0,0,0,0,42,36,30,78,84,66,60,24,18,24,6,18,18,6,12,6,6,6,0,0,0,0,0,0,0,0,0,0,0,0,0,30,12,24,18,48,72,36,60,78,42,18,30,18,24,24,18,6,18,0,0,0,0,0,0,0
0,0,0,0,0,0,0,6,42,24,48,72,30,30,84,48,66,18,6,42,6,6,18,0,0,0,0,0,0,0,0,0,0,0,0,0,0,0,0,12,66,6,84,72,30,90,72,102,36,48,36,48,78,30,12,12,12,24,6,0,0,0,0,0
0,0,0,0,0,0,0,0,54,6,36,48,42,30,36,30,12,36,12,6,6,6,0,0,18,0,0,0,0,0,0,0,0,0,0,0,0,0,12,42,42,72,96,66,54,96,42,42,48,60,48,42,12,6,6,12,0,18,6,0,0,0,0,0
0,0,0,0,0,0,0,0,18,48,60,54,12,36,30,30,30,18,6,24,18,0,6,0,0,0,0,0,0,0,0,0,0,0,0,0,6,0,0,30,12,36,66,60,30,72,24,30,36,18,18,6,42,6,54,6,12,12,0,0,0,0,0,0
0,0,0,0,0,0,0,0,12,42,36,72,42,24,30,42,0,30,18,6,12,0,0,0,0,0,18,0,0,0,0,0,0,0,0,0,0,0,0,0,30,30,66,42,36,42,54,18,12,12,18,12,42,12,6,6,12,0,0,0,0,0,0,0
0,0,0,0,0,0,0,0,0,18,6,90,60,30,30,30,6,6,24,12,18,6,0,0,0,6,0,0,0,0,0,0,0,0,0,0,0,0,18,30,30,48,42,60,96,78,120,132,24,72,24,24,24,18,18,18,18,6,6,0,0,0,0,0
0,0,0,0,0,0,0,42,0,42,30,72,54,18,6,18,30,24,30,12,0,0,12,6,0,0,0,0,0,0,0,0,0,0,0,0,0,0,18,0,6,30,48,36,60,18,18,24,24,12,48,18,6,6,6,0,36,6,0,0,0,0,0,0
0,0,0,0,0,0,0,24,0,36,72,36,42,48,24,30,30,30,54,0,6,6,6,0,0,0,0,0,0,0,0,0,0,0,0,0,0,0,24,0,30,24,12,54,42,48,66,42,12,48,18,6,6,6,0,6,12,0,0,0,0,0,0,0
0,0,0,0,0,0,0,0,6,18,48,18,102,84,30,48,48,0,6,30,30,6,6,6,0,0,0,0,0,0,0,0,0,0,0,0,6,0,0,0,12,18,78,36,12,66,42,30,6,6,6,12,42,24,6,0,6,6,0,0,0,0,0,0
0,0,0,0,0,0,0,0,30,0,18,96,66,72,48,6,30,6,18,18,30,6,6,0,0,0,0,0,0,0,0,0,0,0,0,0,0,6,12,12,48,18,60,48,72,84,48,48,102,6,48,6,12,6,12,6,0,6,0,0,0,0,0,0
0,0,0,0,0,6,0,0,0,12,42,60,6,120,42,54,24,0,0,12,6,6,6,6,0,0,0,0,0,0,0,0,0,0,0,0,0,6,0,42,12,36,18,120,6,6,0,6,42,18,6,30,18,12,12,6,18,24,0,0,0,0,0,0
0,0,0,0,0,0,0,0,48,48,48,102,48,30,54,18,18,0,12,18,30,0,6,18,0,0,0,0,0,0,0,0,0,0,0,0,0,0,0,0,6,6,78,54,24,30,42,30,18,18,6,6,0,18,18,6,6,6,0,0,0,0,0,0
