0,0,0,0,0,0,8,0,64,56,24,40,32,24,24,24,8,8,0,0,0,0,0,0,0,0,0,0,0,0,0,0,0,0,0,0,0,16,8,40,64,64,56,48,48,48,48,8,48,40,48,0,0,8,8,8,0,8,0,0,0,0,0,0
0,0,0,0,0,0,0,8,24,8,112,40,32,16,8,8,8,8,0,0,0,0,0,0,0,0,0,0,0,0,0,0,0,0,0,16,0,8,24,24,40,24,56,40,80,56,16,56,8,56,16,24,0,0,0,8,8,0,0,0,0,0,0,0
0,0,0,0,0,8,0,8,0,8,8,24,32,24,8,16,8,8,0,0,0,0,0,0,0,0,0,0,0,0,0,0,0,0,0,0,0,0,64,56,8,64,40,136,64,40,24,8,40,8,40,40,24,8,40,0,0,0,0,0,0,0,0,0
0,0,0,0,0,8,0,0,8,8,8,32,40,24,32,8,0,0,0,0,0,0,0,0,0,0,0,0,0,0,0,0,0,0,0,0,0,24,40,8,56,80,128,72,96,64,80,64,48,8,48,0,16,0,0,0,0,0,0,0,0,0,0,0
0,0,8,0,8,0,0,0,0,80,16,40,128,40,16,0,64,8,0,0,16,8,0,0,0,0,0,0,0,0,0,0,0,0,0,0,0,32,32,8,56,64,64,80,64,104,72,64,24,8,64,16,8,0,0,0,0,0,0,0,0,0,0,0
0,0,0,0,0,0,8,0,16,24,40,16,48,24,24,8,8,0,0,0,0,8,0,8,0,0,0,0,0,0,0,0,0,0,0,0,24,32,32,16,240,80,48,80,96,96,112,40,96,40,8,8,8,0,8,16,0,0,0,0,0,0,0,0
0,0,0,0,0,0,8,8,16,24,8,40,24,32,8,8,8,8,0,8,0,0,0,0,0,0,0,0,0,0,0,0,0,0,0,24,8,8,24,56,72,40,56,80,56,72,80,40,16,16,64,0,0,0,8,8,0,0,0,0,0,0,0,0
0,0,0,0,0,8,0,8,24,0,24,40,40,24,24,8,0,0,8,0,0,0,0,0,0,0,0,0,0,0,0,0,0,0,0,0,0,32,16,0,8,72,96,80,32,24,24,32,8,8,8,0,8,16,8,0,8,0,0,0,0,0,0,0
0,0,0,0,0,0,8,24,32,8,24,24,16,24,16,8,0,0,0,0,0,0,0,0,0,0,0,0,0,0,0,0,8,0,0,0,0,0,96,56,80,128,96,56,48,96,24,8,144,8,16,0,8,8,0,24,0,0,0,0,8,0,0,0
0,0,0,0,0,8,0,8,24,24,120,56,24,80,32,64,8,8,8,0,8,0,8,0,8,0,0,0,0,0,0,0,0,0,0,16,0,8,56,40,80,104,32,64,104,48,40,72,48,32,72,16,8,8,0,0,0,0,8,0,0,0,0,0
0,0,0,0,0,0,8,16,8,32,32,16,32,16,24,0,8,8,0,8,0,8,8,8,0,8,0,0,0,0,0,0,0,0,0,0,0,8,48,72,88,88,96,120,80,96,72,96,64,8,8,0,8,8,8,64,72,0,0,0,0,0,0,0
0,0,0,0,0,0,0,8,8,48,16,24,32,24,8,8,32,0,0,8,0,0,0,0,0,0,0,0,0,0,0,0,0,0,0,0,24,56,56,80,56,88,80,96,96,104,80,64,64,16,56,72,72,8,72,64,0,0,0,0,0,0,0,0
0,0,0,0,0,0,0,8,8,16,16,40,40,24,40,8,0,8,8,8,0,0,0,0,0,0,0,0,0,0,0,0,8,0,0,0,0,0,56,56,72,80,88,64,64,72,64,64,56,80,8,8,40,0,0,64,0,0,0,0,0,0,0,0
0,0,0,0,0,0,8,16,24,16,24,24,32,16,24,8,16,0,8,0,0,0,0,0,0,0,0,0,0,0,0,0,0,0,0,8,16,24,0,56,32,64,56,80,64,88,40,16,8,8,24,8,16,16,8,0,0,0,0,0,0,0,0,0
0,0,0,0,0,0,8,8,8,16,16,120,32,16,32,8,8,8,0,0,0,0,0,8,0,0,0,0,0,0,0,0,0,16,0,0,24,32,48,40,96,80,72,104,96,88,96,80,80,56,88,8,8,0,8,8,0,0,0,0,0,0,0,0
0,0,0,0,0,0,16,8,24,16,24,56,24,16,8,8,0,8,8,0,0,0,8,0,0,0,0,0,0,0,0,0,0,0,0,0,0,0,48,40,56,64,64,88,64,64,48,24,64,24,0,8,8,16,8,16,0,0,0,0,0,0,0,0
0,0,0,0,0,0,8,16,24,16,32,40,40,64,32,40,8,8,0,0,0,8,0,8,0,0,0,0,0,0,0,0,0,0,0,16,0,40,40,24,64,48,80,64,56,8,72,40,8,16,16,8,24,0,0,8,0,0,0,0,0,0,0,0
0,0,0,0,0,0,0,8,16,80,8,72,48,40,24,8,0,16,0,0,8,8,8,0,0,8,0,0,0,0,0,0,0,0,0,8,0,8,0,56,24,56,64,72,64,72,80,24,64,32,8,56,16,8,8,8,8,0,8,0,0,0,0,0
0,0,0,0,0,8,8,8,16,16,16,40,64,32,8,24,0,8,8,8,0,8,0,0,0,0,0,0,0,0,0,0,0,0,0,0,0,24,8,64,0,72,64,56,80,88,88,64,56,64,56,24,16,32,24,8,8,16,0,0,0,0,0,0
0,0,0,0,0,0,8,16,8,32,24,48,40,40,24,32,24,16,8,8,8,8,0,8,0,0,0,0,0,0,0,0,0,0,0,0,8,0,72,24,64,64,72,80,24,104,56,96,80,56,24,24,64,32,16,0,16,8,0,0,0,0,0,0
0,0,0,0,0,0,8,8,8,8,40,32,16,48,40,8,40,8,24,8,24,8,0,8,0,0,0,0,0,0,0,0,0,0,0,0,8,8,56,56,72,80,72,72,64,64,64,64,96,88,24,24,72,24,24,56,24,0,0,0,0,0,0,0
0,0,0,0,0,0,8,16,16,32,24,24,48,32,32,8,16,24,0,8,0,16,8,8,0,0,0,0,0,0,0,0,0,0,0,0,24,0,48,96,88,96,104,104,160,88,16,96,8,56,40,24,88,40,40,8,8,16,0,8,0,0,0,0
0,0,0,0,0,0,8,32,0,72,48,0,56,24,32,32,24,24,0,8,8,8,0,0,0,0,0,0,0,0,0,0,0,0,0,24,0,56,72,0,56,80,96,88,80,152,64,88,40,56,48,80,24,24,112,8,40,24,0,0,0,0,0,0
0,0,0,0,0,8,0,8,24,24,32,40,48,48,16,24,24,8,16,0,8,16,8,8,0,0,0,0,0,0,0,0,0,0,0,0,0,0,56,40,80,80,104,88,96,88,80,96,64,16,104,40,64,8,8,32,0,0,8,0,0,0,0,0
0,0,8,0,0,0,0,8,24,32,32,16,40,24,16,16,32,16,0,0,0,0,0,0,0,0,0,0,0,0,0,0,0,0,0,0,24,40,56,8,24,80,72,136,80,64,48,64,32,56,16,24,40,40,24,40,0,24,8,0,0,0,0,0
0,0,0,0,0,0,0,0,24,40,24,40,96,40,32,24,24,8,0,0,0,0,0,0,0,0,0,0,0,0,0,0,0,0,0,0,0,24,72,16,48,80,48,72,104,64,64,64,56,40,48,32,24,48,16,16,32,0,0,0,0,0,0,0
0,0,0,0,0,0,16,8,16,40,56,40,48,64,32,48,32,24,16,0,0,0,0,0,0,0,0,0,0,0,0,0,0,0,0,0,8,0,48,72,48,88,96,88,96,64,88,40,64,80,40,72,64,72,72,8,32,8,0,0,0,0,0,0
0,0,0,0,0,0,0,16,16,24,48,32,32,40,40,8,16,8,0,8,0,8,8,8,0,0,0,0,0,0,0,0,0,0,0,0,0,24,32,88,48,96,88,152,96,96,104,72,40,24,48,40,8,16,64,56,0,0,0,0,0,0,0,0
0,0,0,0,0,0,0,72,56,32,160,120,32,40,32,32,48,40,40,40,72,56,24,0,0,0,0,0,0,0,0,0,0,0,0,0,8,16,32,80,56,48,64,24,56,64,56,56,56,56,56,24,64,48,48,8,8,0,0,0,0,0,0,0
0,0,0,0,0,0,8,8,16,16,32,40,40,0,24,0,8,8,8,8,0,0,0,0,0,0,0,0,0,0,0,0,0,0,8,16,8,8,200,224,80,56,64,56,72,64,56,24,96,96,96,8,56,40,64,40,56,0,0,0,0,0,0,0
0,0,0,0,0,0,0,16,192,16,16,32,8,40,24,8,8,0,8,0,8,0,0,0,0,0,0,0,0,0,0,0,0,0,0,8,0,8,48,32,48,152,184,80,48,72,56,80,128,128,72,56,16,56,16,8,0,16,0,0,0,0,0,0
0,0,0,0,0,0,0,8,0,8,24,8,24,24,40,32,24,16,0,8,0,0,0,0,0,0,0,0,0,0,0,0,0,0,0,0,0,0,24,0,72,152,96,64,96,80,72,72,64,80,40,40,16,56,16,56,8,24,48,0,0,0,0,0
0,0,0,0,0,0,88,0,48,56,0,48,32,80,56,24,32,8,8,16,0,0,0,0,0,8,0,0,0,0,0,0,0,0,0,0,0,56,24,64,48,176,152,136,136,112,136,152,72,128,72,80,40,112,48,64,8,24,0,8,0,0,0,0
0,0,0,0,0,0,8,8,8,24,24,48,56,32,24,32,8,8,8,8,0,0,0,0,0,0,0,0,0,0,0,0,0,0,0,24,0,16,64,16,80,96,96,88,128,40,96,96,56,72,48,96,88,96,8,64,48,64,8,0,0,0,0,0
0,0,0,0,0,152,0,8,16,16,24,40,56,24,40,16,8,0,8,8,0,8,0,8,0,0,0,0,0,0,0,0,0,0,0,0,16,24,32,40,8,96,80,24,88,72,72,24,24,32,32,48,24,8,8,16,16,8,0,0,0,0,0,8
0,0,0,0,96,0,0,16,248,232,248,192,255,16,248,24,0,8,8,0,0,0,0,0,0,0,0,0,0,0,0,0,0,0,0,0,16,8,0,16,40,80,64,64,56,48,8,24,32,48,24,16,40,16,8,16,16,0,0,8,0,0,0,0
0,0,0,0,0,0,0,32,16,16,16,32,32,40,48,16,32,8,8,0,8,0,0,0,0,0,0,0,0,0,0,0,0,0,0,0,24,16,40,8,64,40,80,56,88,16,40,64,24,16,48,48,24,16,32,16,24,8,0,0,0,0,0,0
0,0,0,0,0,0,0,184,160,152,24,208,168,64,0,16,16,0,24,0,0,0,0,0,0,0,0,0,0,0,0,0,0,0,0,0,0,0,0,8,160,96,112,64,40,56,96,88,72,40,16,24,24,72,32,24,0,40,0,0,0,0,0,0
0,0,0,0,0,0,8,8,24,56,40,24,32,32,24,32,32,88,72,72,0,0,0,0,0,0,0,0,0,0,0,0,0,0,0,0,16,0,80,88,248,136,136,128,112,32,40,112,24,16,24,24,8,16,24,16,8,0,0,0,0,0,0,0
0,0,0,0,0,0,8,0,0,0,16,16,16,32,8,16,0,0,8,8,0,0,8,0,0,0,0,0,0,0,0,0,0,0,16,0,0,0,40,64,24,24,56,32,8,0,48,64,48,40,24,24,24,8,24,16,16,8,8,0,0,0,0,0
0,0,0,0,0,0,88,0,16,16,8,24,32,8,24,24,24,0,0,0,0,0,0,0,0,0,0,0,0,0,0,0,0,0,0,0,0,40,8,8,40,48,24,48,64,40,40,104,40,24,32,24,24,24,16,24,0,32,16,0,0,0,0,0
0,0,0,0,0,0,0,8,8,24,8,24,48,24,8,24,24,24,0,8,0,0,0,0,0,0,0,0,0,0,0,0,0,0,24,0,0,0,32,64,56,56,56,72,80,64,88,112,32,80,80,80,32,56,16,24,0,0,48,0,0,0,0,0
0,0,0,0,0,0,0,24,56,16,120,32,128,24,24,56,112,24,0,0,0,0,0,0,0,0,0,0,0,0,0,0,0,0,8,0,24,40,0,80,64,72,80,96,64,112,88,88,88,80,64,64,48,56,40,16,48,24,0,0,0,0,0,0
0,0,0,0,0,0,8,8,16,24,24,40,24,40,16,24,0,0,8,0,0,0,0,0,0,0,0,0,0,0,0,0,0,0,0,0,0,0,0,112,56,32,40,48,48,40,56,56,24,48,48,8,24,8,24,8,8,72,0,0,0,0,0,0
0,0,0,0,0,0,8,0,8,128,56,24,24,56,24,32,24,16,8,0,8,0,0,0,0,0,0,0,0,0,0,0,0,0,0,0,0,24,40,64,56,40,16,56,64,8,8,48,8,8,24,0,16,40,32,40,64,0,0,0,0,0,0,0
0,0,0,0,0,0,0,16,0,8,24,16,16,8,24,0,16,0,8,0,0,0,0,0,0,0,0,0,0,0,0,0,0,0,0,0,0,0,72,32,64,64,96,40,64,0,16,40,8,40,40,24,24,8,16,8,8,0,0,0,0,0,0,0
0,0,0,0,0,0,0,0,8,24,24,16,24,24,24,0,8,0,0,8,0,0,8,0,0,0,0,0,0,0,0,0,0,0,0,0,0,16,32,8,40,16,64,48,152,40,24,40,8,40,24,32,24,40,16,0,8,0,8,0,0,0,0,0
0,0,0,0,0,0,0,0,16,8,32,0,16,40,40,8,8,0,0,0,0,0,0,0,0,0,0,0,0,0,0,0,0,0,0,0,0,0,32,32,64,64,64,72,48,144,32,32,56,16,32,16,24,0,0,32,8,8,0,0,0,0,0,0
0,0,0,0,0,0,0,8,8,16,24,40,80,64,32,80,24,24,8,24,0,16,0,0,0,0,0,0,0,0,0,0,0,0,0,0,0,24,40,40,40,40,64,40,8,40,8,24,40,16,16,0,24,8,16,0,8,8,0,0,0,0,0,0
0,0,0,0,0,0,0,24,8,8,88,80,48,40,32,24,24,0,0,8,0,8,0,0,0,0,0,0,0,0,0,0,0,0,0,0,0,0,32,64,56,56,72,56,72,88,40,104,72,40,16,24,8,0,8,48,0,56,0,0,0,0,0,0
