0,0,0,0,0,0,0,0,0,0,10,30,0,0,0,0,255,0,0,0,0,0,0,0,0,0,0,0,0,0,0,0,0,0,0,0,0,10,0,30,0,40,50,70,70,60,100,60,40,60,50,40,50,30,80,0,0,40,0,0,0,0,0,0
0,0,0,0,0,0,0,0,0,0,0,0,40,30,0,0,0,0,0,0,0,255,0,0,0,0,0,0,0,0,0,0,0,0,0,0,0,0,0,30,0,110,40,150,50,30,40,90,60,50,70,70,50,50,60,50,50,0,0,0,0,0,0,0
0,0,0,0,0,0,0,0,0,0,10,0,40,0,40,255,0,0,0,0,0,0,0,0,0,0,0,0,0,0,0,0,0,0,0,0,0,0,0,0,0,50,50,30,50,70,60,60,50,40,50,30,20,30,30,30,0,0,0,0,0,0,0,0
0,0,0,0,0,0,0,0,0,0,0,40,0,0,50,0,50,0,0,0,0,0,0,0,0,0,0,0,0,0,0,0,0,0,0,0,0,0,0,0,20,40,50,50,50,0,60,100,0,50,50,0,50,0,0,0,0,0,0,0,0,0,0,50
0,20,10,20,10,30,0,0,20,0,0,0,30,0,70,0,0,10,255,0,20,10,30,0,0,0,10,0,0,30,0,0,0,0,0,0,0,0,0,20,0,40,60,40,30,70,60,60,0,0,60,50,50,0,0,0,70,40,0,0,0,0,0,0
0,0,0,0,0,0,0,0,0,0,0,40,0,0,0,50,0,20,30,0,0,0,0,0,0,0,0,0,0,0,0,0,0,0,0,0,0,0,0,0,190,50,30,60,60,50,50,50,120,70,50,70,40,40,0,0,50,0,0,0,0,0,0,0
0,0,0,0,0,0,0,0,0,0,0,0,50,30,0,0,0,0,0,0,0,0,0,30,0,0,0,0,0,0,0,0,0,0,0,0,0,0,0,0,30,30,70,50,60,60,70,60,0,40,40,50,50,40,90,30,30,30,0,0,0,0,0,0
0,0,0,0,0,0,0,0,0,0,10,10,10,255,0,255,0,0,0,0,0,0,0,0,0,0,0,0,0,0,0,0,0,0,0,0,0,0,0,30,40,50,140,60,30,160,70,60,140,60,40,50,30,30,80,50,20,20,0,0,0,0,0,0
0,0,0,0,0,0,0,10,0,0,0,0,20,20,0,20,0,0,0,0,0,10,10,0,0,0,0,0,0,0,0,0,0,0,0,0,0,0,10,20,0,50,50,60,40,80,60,60,90,50,50,30,50,30,30,80,30,30,0,0,0,0,0,0
0,0,0,0,0,0,0,0,0,0,0,0,20,10,0,20,30,0,0,20,10,0,0,0,0,0,0,0,0,0,0,0,0,0,0,0,0,0,0,20,0,20,20,30,50,160,50,50,30,40,30,60,110,50,50,50,0,0,50,0,0,0,0,0
0,0,0,0,0,0,0,0,0,20,0,10,0,30,10,20,255,30,0,0,0,0,10,0,0,0,0,0,0,0,0,0,0,0,0,0,0,0,0,30,0,30,30,80,30,160,20,50,60,130,30,10,0,50,40,0,90,40,0,0,0,0,0,0
0,0,0,0,0,0,0,0,0,0,0,0,40,40,255,0,0,0,0,10,0,0,10,0,0,0,0,0,0,0,0,0,0,0,0,0,0,0,0,10,250,20,60,50,30,50,80,60,110,0,50,50,0,40,50,50,0,60,0,0,0,0,0,0
0,0,0,0,0,0,0,0,0,0,20,0,0,255,0,10,150,0,0,0,0,0,0,0,0,0,0,0,0,0,0,0,0,0,0,0,0,0,0,0,30,40,0,50,50,50,50,0,80,50,30,50,40,40,40,40,0,0,0,0,0,0,0,0
0,0,0,0,0,0,0,0,0,0,0,30,0,50,0,255,0,0,0,0,0,0,0,0,0,0,0,0,0,0,0,0,0,0,0,0,0,0,0,0,0,40,50,50,30,150,120,30,80,70,90,70,10,40,30,40,0,50,0,0,0,0,0,0
0,0,0,0,0,0,0,0,0,0,20,0,50,255,40,0,10,0,0,0,0,0,0,0,0,0,0,0,0,0,0,0,0,0,0,0,0,0,0,10,40,50,40,50,30,50,70,60,50,30,30,30,40,30,30,30,40,0,0,0,0,0,0,0
0,0,0,0,0,0,0,0,0,0,20,10,255,0,30,0,255,0,0,0,0,0,0,0,0,0,0,0,0,0,0,0,0,0,0,0,0,0,0,10,255,60,40,50,40,160,80,110,100,70,90,80,70,60,60,0,0,0,0,0,0,80,0,0
10,10,0,0,0,0,0,0,0,0,0,0,0,0,0,0,0,0,0,0,0,0,0,0,0,0,50,20,0,0,0,0,0,0,0,0,0,0,0,0,20,50,60,50,50,70,50,30,50,50,0,60,50,0,50,60,100,0,0,0,0,0,0,0
0,0,0,0,0,0,0,0,0,0,0,10,10,10,10,20,10,10,0,0,10,0,0,0,0,0,0,0,0,0,0,0,0,0,0,0,0,0,0,0,0,50,60,30,80,70,50,50,150,100,50,0,0,0,0,0,50,0,0,0,0,0,0,0
0,0,0,0,0,0,0,0,0,0,0,0,40,0,255,30,0,0,255,0,10,10,10,0,10,0,0,0,0,0,0,0,0,0,0,0,0,0,0,40,255,50,50,60,50,40,70,0,0,120,70,70,0,50,120,30,50,30,0,0,0,0,0,0
0,0,0,0,0,0,0,10,0,0,0,255,20,0,0,20,0,10,0,0,0,0,0,0,0,0,0,0,0,0,0,0,0,0,0,0,0,0,0,0,30,20,30,20,10,10,50,50,50,50,40,140,50,30,30,40,0,0,0,0,0,0,0,0
0,0,0,0,0,0,0,0,0,0,10,10,40,255,0,10,20,20,10,10,0,10,0,10,0,0,0,0,0,0,0,0,0,0,0,0,0,0,0,0,50,40,0,50,130,120,110,50,60,50,50,40,30,40,50,30,20,20,0,0,0,0,0,0
0,0,0,0,0,0,0,0,0,0,0,20,0,255,0,0,0,0,0,0,0,0,0,0,0,0,0,0,0,0,0,0,0,0,0,0,0,0,0,30,0,0,30,40,140,0,50,90,40,40,30,30,100,70,40,0,40,0,0,0,0,0,0,0
0,0,0,0,0,0,0,0,0,0,0,30,255,0,0,0,10,0,0,0,0,0,0,0,0,0,0,0,0,0,0,0,0,0,0,0,0,0,0,0,0,40,30,40,30,30,40,40,90,140,40,50,80,90,30,10,20,30,0,0,0,0,0,0
0,0,0,0,0,0,0,0,0,0,0,10,255,20,0,0,0,0,0,0,0,0,10,0,0,0,0,0,0,0,0,0,0,0,0,0,0,0,0,40,30,50,50,50,30,30,40,100,40,60,100,40,40,30,40,30,30,0,0,0,0,0,0,0
0,0,0,0,0,0,0,0,0,0,0,50,10,255,0,0,0,0,0,0,0,0,0,0,0,0,0,0,0,0,0,0,0,0,0,0,0,0,0,30,0,30,50,60,50,70,30,130,70,30,30,30,70,50,50,30,30,0,30,20,0,0,0,0
0,0,0,0,0,0,0,0,0,0,0,30,0,30,255,0,0,10,0,0,0,0,0,0,0,0,0,0,0,0,0,0,0,0,0,0,0,0,0,0,30,0,30,40,50,50,50,120,80,50,60,40,0,40,70,50,40,0,0,0,0,0,0,0
0,0,0,0,0,0,0,0,0,0,10,0,255,30,0,0,0,0,0,0,0,0,0,0,0,0,0,0,0,0,0,0,0,0,0,0,0,0,0,30,20,30,50,50,40,150,40,20,70,30,40,40,40,50,30,10,40,30,0,0,0,0,0,0
0,0,0,0,0,0,0,0,0,0,0,0,30,30,0,20,30,0,0,0,30,0,0,30,0,0,0,0,0,0,0,0,0,0,0,0,0,0,0,30,30,40,30,40,40,20,120,50,40,40,10,20,40,30,10,20,50,0,20,0,0,0,0,0
0,0,0,0,0,0,0,0,0,0,10,30,0,20,0,10,255,255,0,0,0,0,0,0,0,0,0,0,0,0,0,0,0,0,0,0,0,0,0,20,40,0,60,50,140,30,160,110,60,0,30,30,100,50,20,30,0,30,0,0,0,0,0,0
0,0,0,0,0,0,0,0,0,0,0,10,20,10,10,0,30,255,0,0,0,0,0,0,0,0,0,0,0,0,0,0,0,0,0,0,0,0,0,10,20,30,20,50,50,110,120,80,80,60,60,40,50,40,20,10,30,20,0,0,0,0,0,0
0,0,0,0,0,0,0,0,0,0,10,0,0,255,0,0,0,0,0,10,0,0,0,0,0,0,0,0,0,0,0,0,0,0,0,0,0,0,80,0,10,20,20,50,170,160,30,50,70,30,60,60,30,20,30,40,30,30,0,0,0,0,0,0
0,0,0,0,0,0,0,50,0,0,100,10,30,20,20,0,255,0,0,0,0,0,10,0,0,0,0,0,0,0,0,0,0,0,0,0,0,0,0,30,30,30,60,0,140,50,150,80,120,110,60,40,40,70,30,40,50,30,0,0,0,0,0,0
0,0,0,0,0,0,0,0,0,0,0,10,30,0,0,30,30,0,30,0,20,0,0,0,10,0,0,0,0,0,0,0,0,0,0,0,0,0,0,50,0,0,40,50,50,50,90,30,90,60,60,70,50,40,20,20,60,0,30,0,0,0,0,0
0,0,0,0,0,0,0,0,0,0,10,50,30,255,0,0,0,0,0,0,0,255,0,0,0,0,0,0,0,0,0,0,0,0,0,0,0,0,0,30,50,40,220,40,170,40,120,60,100,80,60,50,0,60,40,50,0,40,0,30,0,0,0,0
0,0,0,0,0,0,0,0,20,0,0,10,20,0,255,0,0,0,0,0,0,0,0,0,0,0,0,0,0,0,0,0,0,0,0,0,0,0,0,20,0,30,40,30,40,60,40,160,90,120,90,70,60,60,50,70,30,0,0,0,0,0,0,0
0,0,0,0,0,0,0,0,0,0,0,40,20,20,0,20,0,0,0,0,0,0,0,0,0,0,0,0,0,0,0,0,0,0,0,0,0,0,0,30,40,0,50,50,50,50,70,140,30,50,50,50,50,50,100,50,30,70,0,0,0,0,0,0
0,0,0,0,0,0,0,0,0,0,0,10,20,0,30,255,0,0,0,0,0,0,0,0,0,0,0,0,0,0,0,0,0,0,0,0,0,0,0,40,10,40,60,50,30,50,160,90,60,40,60,30,30,90,50,30,70,0,60,40,0,0,0,0
0,0,0,0,0,0,0,0,0,0,0,0,255,0,0,10,0,0,10,20,0,0,0,0,0,0,0,0,0,0,0,0,0,0,0,0,0,0,0,50,0,30,50,60,110,50,50,50,50,80,50,30,40,0,30,50,0,30,0,0,0,0,0,0
0,0,0,0,0,0,0,0,0,0,0,0,10,20,30,0,0,0,0,0,0,0,0,0,0,0,0,0,0,0,0,0,0,0,0,0,0,0,0,0,30,40,60,60,50,40,50,60,30,0,120,80,50,0,50,70,0,40,0,0,0,0,0,0
0,0,0,0,0,0,0,0,0,0,0,20,0,40,20,20,0,0,0,0,30,0,0,0,0,0,0,0,0,0,0,0,0,10,0,0,0,0,0,0,10,0,10,30,30,60,50,50,40,50,140,30,50,0,120,60,40,50,0,0,0,0,10,0
0,0,0,0,0,0,0,20,0,50,70,50,30,0,20,20,40,30,40,50,50,30,20,0,0,0,0,0,0,0,10,0,0,10,0,10,10,0,10,0,20,50,0,30,50,50,50,40,50,50,120,40,40,40,40,20,30,40,10,0,0,0,0,0
0,0,0,0,0,0,0,0,0,0,20,10,70,10,20,10,30,10,20,10,0,0,0,0,0,0,0,0,0,0,0,0,0,0,0,0,0,0,0,0,20,10,50,10,30,30,160,70,100,30,30,40,30,40,40,20,20,20,0,0,0,0,0,0
0,0,0,0,0,0,0,0,0,0,0,0,20,40,0,20,30,0,30,10,0,30,0,0,0,0,0,0,0,0,0,0,0,0,0,0,0,0,0,0,10,60,20,40,40,40,70,80,120,40,40,40,40,20,30,50,100,30,0,0,0,0,0,0
0,0,0,0,0,0,0,0,0,0,10,10,10,10,0,10,10,20,10,10,0,10,10,10,0,0,0,0,0,0,0,0,0,0,0,0,0,0,0,0,0,30,60,50,140,40,100,20,70,70,30,30,30,20,40,100,30,20,10,0,0,0,0,0
0,0,0,0,0,0,0,0,0,0,0,10,0,10,0,255,0,0,0,0,0,10,0,10,0,0,0,0,0,0,0,0,0,0,0,0,0,0,30,0,20,30,30,50,60,40,150,80,20,120,100,70,110,70,40,30,50,0,30,0,0,0,0,0
0,0,0,0,0,0,0,0,0,0,30,0,255,0,0,0,0,10,0,0,0,0,0,0,0,0,0,0,0,0,0,0,0,0,0,0,0,0,0,0,20,60,0,30,40,50,50,150,60,30,50,30,50,50,30,30,40,0,30,0,0,0,0,0
0,0,0,0,0,0,0,0,0,0,10,0,20,0,0,20,20,0,20,0,30,0,0,0,20,0,0,0,0,0,0,0,0,0,0,0,0,0,0,10,0,255,10,30,140,80,30,100,20,40,80,30,100,30,50,30,50,0,0,0,0,0,0,0
0,0,0,0,0,0,0,0,0,0,0,10,20,20,70,0,30,0,20,0,0,255,20,0,0,0,0,0,0,0,0,0,0,0,0,0,0,0,0,0,20,40,50,50,160,50,50,110,30,60,30,50,40,50,30,30,30,0,0,0,0,0,0,0
0,0,0,0,0,0,0,0,0,0,10,0,0,40,50,30,30,30,30,0,0,0,30,20,0,0,0,0,0,0,0,0,0,0,0,0,0,0,0,0,30,50,30,40,40,50,130,40,40,50,50,0,0,60,0,0,0,0,0,0,0,0,0,0
0,0,0,0,0,0,0,0,0,0,10,0,255,0,20,0,255,0,0,0,0,0,0,0,0,0,0,0,0,0,0,0,0,0,0,0,0,0,0,0,40,0,50,60,20,40,50,10,60,50,20,50,0,60,0,50,0,0,0,0,0,0,0,0
