0,0,0,0,0,0,0,0,0,64,24,96,136,88,64,160,48,72,56,16,24,24,8,16,24,16,0,0,0,0,0,0,0,0,0,0,0,0,88,8,136,80,208,176,208,200,200,160,160,152,112,112,112,104,80,56,120,0,96,0,0,0,0,0
0,0,0,0,0,0,0,0,72,24,96,48,104,64,40,32,48,40,32,16,8,32,40,24,0,0,0,0,0,0,0,0,0,0,0,0,0,0,0,136,64,128,136,152,200,168,144,192,168,152,160,128,144,104,120,104,88,48,16,0,0,0,0,0
0,0,0,0,0,0,0,24,0,64,72,80,96,80,40,72,80,40,32,80,24,24,56,32,40,24,0,0,0,0,0,0,0,0,0,0,0,80,24,0,16,96,168,208,184,184,192,144,192,144,168,120,96,112,112,96,48,56,0,0,0,0,0,0
0,0,0,0,0,0,0,0,48,16,40,64,120,56,72,56,64,64,24,8,8,16,8,24,16,16,0,0,0,0,0,0,0,0,0,0,0,8,0,112,24,160,224,176,200,176,168,192,152,152,152,96,128,112,64,128,112,32,0,64,0,0,0,0
0,0,0,0,0,0,0,16,0,104,8,96,80,88,96,88,48,56,40,16,16,16,16,8,24,8,0,0,0,0,0,0,0,0,0,0,0,128,0,0,40,128,160,224,184,176,152,208,112,112,128,120,88,80,64,64,96,48,8,0,0,0,0,0
0,0,0,0,0,0,0,0,0,32,32,80,96,56,56,48,16,32,16,16,8,16,8,24,0,0,0,0,0,0,0,0,0,0,0,0,0,0,32,72,24,152,136,168,112,200,208,144,128,144,168,96,136,136,64,120,24,8,56,0,0,0,0,0
0,0,0,0,0,0,0,0,40,0,72,72,80,64,40,24,24,32,16,40,24,16,32,8,0,16,0,0,0,0,0,0,0,0,0,0,0,0,0,48,152,80,168,168,240,208,192,136,144,160,104,112,72,104,88,104,88,48,0,0,0,0,0,0
0,0,0,0,0,0,0,0,0,40,120,72,48,88,80,40,88,48,56,40,24,48,8,0,8,16,0,0,0,0,0,0,0,0,0,0,0,0,0,40,152,112,144,144,112,144,152,136,136,128,104,88,88,112,64,72,40,24,24,0,0,0,0,0
0,0,0,0,0,0,0,0,24,8,88,88,96,64,80,80,40,56,8,48,40,24,16,16,8,24,0,0,0,0,0,0,0,0,0,0,0,0,0,40,112,168,8,136,208,184,152,152,168,128,96,120,104,120,96,96,80,40,0,0,0,0,0,0
0,0,0,0,0,0,0,8,24,72,8,64,80,96,48,72,48,48,40,40,40,16,24,64,24,8,0,0,0,0,0,0,0,0,0,0,0,0,0,32,112,128,112,176,128,104,168,144,112,128,88,96,144,112,96,104,96,72,0,16,0,0,0,0
0,0,0,0,0,0,0,80,0,16,96,104,64,96,80,88,64,64,64,56,32,16,32,48,0,0,0,0,0,0,0,0,0,0,0,0,0,0,0,80,136,96,168,192,112,136,128,136,128,104,88,80,64,64,80,96,56,40,56,8,0,0,0,0
0,0,0,0,0,0,0,8,8,48,64,48,72,64,64,80,48,24,24,24,8,24,8,8,24,0,0,0,0,0,0,0,0,0,0,0,0,0,64,0,24,64,168,88,152,216,128,128,120,136,136,96,80,104,88,88,88,8,56,0,0,0,0,0
0,0,0,0,0,0,0,0,8,64,0,80,48,40,56,24,40,16,56,56,40,48,24,64,48,8,0,0,0,0,0,0,0,0,0,0,0,0,24,8,104,168,184,176,176,232,184,168,144,96,128,128,144,64,128,80,80,40,0,32,0,0,0,0
0,0,0,0,0,0,0,0,0,24,136,120,64,64,40,56,16,32,24,32,40,24,16,32,40,0,40,0,0,0,0,0,0,0,0,0,0,0,0,40,128,136,152,168,200,136,208,184,128,144,112,136,80,112,112,80,56,0,48,0,0,0,0,0
0,0,0,0,0,0,0,0,0,32,32,64,48,72,80,40,48,72,56,16,40,40,32,16,16,16,0,0,0,0,0,0,0,0,0,0,0,0,8,80,72,192,136,128,200,144,184,168,152,136,136,112,96,96,96,112,64,8,0,0,0,0,0,0
0,0,0,0,0,0,0,0,8,24,72,64,56,40,48,24,24,48,24,56,48,64,40,8,16,0,16,0,0,0,0,0,0,0,0,0,0,0,32,24,40,168,160,176,184,152,168,144,168,112,104,136,104,96,88,72,80,32,0,32,0,0,0,0
0,0,0,0,0,0,0,0,24,48,40,48,64,72,64,56,40,40,40,8,8,8,16,8,0,0,0,8,0,0,0,0,0,0,0,0,0,0,0,32,96,112,144,192,184,136,152,128,128,136,120,96,96,168,112,48,112,0,40,0,0,0,0,0
0,0,0,0,0,0,0,0,0,48,88,80,24,80,56,80,56,48,8,8,16,16,24,16,24,24,0,0,0,0,0,0,0,0,0,0,0,8,8,64,80,152,160,160,168,176,224,152,200,128,136,88,96,104,72,96,56,48,0,0,0,0,0,0
0,0,0,0,0,0,0,0,24,16,48,24,40,72,80,56,80,32,48,16,8,16,24,8,8,0,0,0,0,0,0,0,0,0,0,0,0,0,0,128,80,200,176,184,192,176,152,160,176,144,96,96,104,112,80,112,64,64,16,0,0,0,0,0
0,0,0,0,0,0,0,8,104,0,120,72,64,64,72,24,32,24,24,8,8,16,8,0,0,8,0,0,0,0,0,0,0,0,0,0,0,0,32,24,136,160,176,152,176,152,112,104,80,112,184,96,96,96,80,128,48,64,32,0,0,0,0,0
0,0,0,0,0,0,0,0,16,64,0,104,64,80,72,48,56,56,48,32,24,32,8,0,32,0,0,8,0,0,0,0,0,0,0,0,0,0,0,32,152,152,96,184,136,168,200,168,192,136,128,112,128,104,80,136,72,32,0,0,32,0,0,0
0,0,0,0,0,0,0,40,80,0,96,40,80,32,64,32,32,72,56,32,32,40,32,8,40,8,0,0,0,0,0,0,0,0,0,0,0,0,48,128,40,112,152,136,184,184,136,160,136,128,144,104,120,80,80,56,64,32,0,0,0,0,0,0
0,0,0,0,0,0,0,0,0,8,64,72,64,40,88,40,48,32,16,8,16,8,8,16,48,0,0,0,0,0,0,0,0,0,0,0,0,0,32,64,40,120,144,144,176,136,136,160,176,120,128,136,72,56,80,112,128,0,0,0,0,0,0,0
0,0,0,0,0,0,0,0,0,8,40,80,80,104,64,48,48,56,8,32,8,24,8,0,24,8,0,0,0,0,0,0,0,0,0,0,0,0,0,48,40,96,152,136,176,176,168,168,112,152,120,128,152,104,112,72,80,48,24,0,0,0,0,0
0,0,0,0,0,0,0,0,0,40,80,0,72,80,56,80,56,64,32,8,8,40,16,8,8,0,0,0,0,0,0,0,0,0,0,0,0,0,16,16,80,136,152,176,184,168,184,152,152,136,128,104,136,152,112,88,80,48,0,0,0,0,0,0
0,0,0,0,0,0,0,0,0,56,40,80,72,80,96,72,56,24,56,8,16,40,16,8,56,16,0,0,0,0,0,0,0,0,0,8,0,0,0,128,16,136,88,136,168,168,104,112,176,128,72,88,112,56,64,112,16,64,40,0,0,0,0,0
0,0,0,0,0,0,0,8,0,64,64,80,40,56,72,72,64,48,24,8,16,16,8,16,0,8,24,0,0,0,0,0,0,0,0,0,0,0,0,32,80,64,152,80,112,160,120,136,120,80,80,64,64,56,80,56,40,56,32,0,0,0,0,0
0,0,0,0,0,0,0,0,40,64,16,64,32,80,56,64,24,56,48,56,40,40,56,32,40,0,0,0,0,0,0,0,0,0,0,0,0,0,8,16,24,104,80,80,136,136,160,128,136,144,72,88,96,48,80,88,64,16,32,0,0,0,0,0
0,0,0,0,0,0,0,0,0,24,64,64,96,64,56,56,40,56,24,48,24,32,8,0,24,0,8,0,0,0,0,0,0,0,0,0,0,0,0,88,8,96,136,104,112,144,136,136,168,128,144,80,176,136,96,88,64,24,32,8,0,0,0,0
0,0,0,0,0,0,0,0,56,16,24,56,64,72,24,56,16,24,24,24,16,8,32,8,24,16,0,0,0,0,0,0,0,0,0,0,0,0,24,40,112,152,96,168,184,152,168,184,136,160,88,128,64,112,128,168,80,56,0,0,0,0,0,0
0,0,0,0,0,0,0,0,8,16,56,112,104,88,64,32,72,24,16,24,16,8,8,16,8,8,0,0,0,0,0,0,0,0,0,0,0,0,48,16,104,72,160,128,168,152,152,136,120,160,112,104,96,56,88,112,24,88,32,8,0,0,0,0
0,0,0,0,0,0,0,0,0,40,48,64,56,72,96,80,32,56,16,8,8,48,8,8,24,8,0,0,0,0,0,0,0,0,0,0,0,8,0,24,96,144,136,120,136,200,144,128,160,152,160,160,120,112,72,128,88,32,0,0,0,0,0,0
0,0,0,0,0,0,0,0,56,0,24,64,72,64,56,72,56,56,40,8,24,8,40,16,8,0,0,0,0,0,0,0,0,0,0,0,8,0,0,0,120,88,184,168,200,128,120,152,120,120,96,112,104,112,96,80,24,64,0,0,0,0,0,0
0,0,0,0,0,0,0,40,0,24,64,8,80,112,72,24,24,40,48,48,56,56,32,56,40,40,0,0,0,0,0,0,0,0,0,0,0,8,0,24,128,120,152,200,168,200,160,144,136,112,120,120,112,96,80,56,64,72,16,0,0,0,0,0
0,0,0,0,0,0,0,8,0,40,88,48,112,64,96,48,24,24,48,24,24,8,24,8,0,32,0,0,0,0,0,0,0,0,0,0,0,0,8,24,32,128,152,168,232,200,136,128,112,112,136,80,72,104,80,96,48,0,0,104,0,0,0,0
0,0,0,0,0,0,0,0,40,0,64,112,96,104,104,64,72,64,48,24,16,40,64,16,8,8,0,0,0,0,0,0,0,0,0,0,0,16,0,104,16,144,160,184,184,176,120,168,136,96,128,88,72,96,96,56,64,0,24,0,0,0,0,0
0,0,0,0,0,0,0,0,0,32,104,112,80,72,144,56,96,24,40,16,32,16,8,24,16,16,0,0,0,0,0,0,0,0,0,0,0,0,72,8,80,104,160,176,168,208,192,152,112,112,112,112,104,88,104,72,80,56,0,0,0,0,0,0
0,0,0,0,0,0,0,0,0,0,56,112,96,88,72,80,88,72,8,56,64,48,48,32,0,8,0,0,0,0,0,0,0,0,0,0,0,0,0,16,64,160,136,184,208,160,192,128,160,160,112,136,112,160,104,72,112,48,0,0,0,0,0,0
0,0,0,0,0,0,0,0,16,0,80,88,112,48,64,96,64,48,32,40,40,56,24,24,0,56,0,0,0,0,0,0,0,0,0,0,0,0,0,32,120,72,136,152,120,184,176,168,160,120,128,96,128,88,112,64,120,0,0,56,0,0,0,0
0,0,0,0,0,0,0,48,0,0,80,64,104,80,88,64,48,72,32,56,16,0,24,8,0,0,0,0,0,0,0,0,0,0,0,0,0,0,112,0,40,96,104,200,168,168,184,160,160,136,112,120,104,96,96,104,32,56,0,40,0,0,0,0
0,0,0,0,0,0,0,0,16,64,112,72,96,136,96,40,40,24,24,16,32,16,16,8,24,0,0,0,0,0,0,0,0,0,0,0,0,24,40,0,56,136,96,80,168,184,168,144,152,120,120,128,112,128,144,112,48,40,0,0,0,0,0,0
0,0,0,0,0,0,0,0,40,112,96,104,136,96,144,96,80,48,72,40,64,8,24,0,24,40,0,0,0,0,0,0,0,0,0,0,0,8,0,80,72,104,224,160,104,168,136,96,112,144,144,136,96,96,80,104,56,0,56,0,0,0,0,0
0,0,0,0,0,0,0,40,0,64,64,88,80,64,160,64,72,64,24,40,0,16,40,0,8,8,0,0,0,0,0,0,0,0,0,0,0,0,16,56,8,144,152,208,248,192,184,168,104,128,120,112,96,96,80,104,80,0,48,56,0,0,0,0
0,0,0,0,0,0,0,0,128,0,24,112,128,88,56,64,104,48,24,40,16,16,48,16,8,0,0,0,0,0,0,0,0,0,0,0,0,0,0,16,72,168,96,96,144,152,96,96,168,184,104,112,128,112,96,104,80,40,0,0,0,0,0,0
0,0,0,0,0,0,0,0,64,0,128,104,168,120,160,128,56,80,120,32,24,16,16,0,24,0,8,0,0,0,0,0,0,0,0,0,0,0,8,40,184,176,208,224,248,208,184,152,80,144,104,128,144,120,96,96,80,40,32,0,0,0,0,0
0,0,0,0,0,0,0,0,40,40,128,168,176,112,208,128,104,56,32,32,32,24,32,8,8,8,0,0,0,0,0,0,0,0,0,0,0,0,32,88,104,32,184,168,200,200,232,216,192,128,104,104,72,88,56,96,64,64,16,0,0,0,0,0
0,0,0,0,0,0,0,0,0,16,104,120,80,64,72,80,80,72,72,32,16,16,24,16,0,0,0,0,0,0,0,0,0,0,0,0,0,0,64,0,128,208,144,136,200,168,200,64,88,128,112,136,56,88,80,64,104,16,16,0,0,0,0,0
0,0,0,0,0,0,0,0,40,152,8,104,128,72,80,88,56,32,56,32,8,32,8,32,8,24,0,0,0,0,0,0,0,0,0,24,0,0,8,0,56,56,56,80,136,168,144,144,72,96,48,64,64,80,72,48,72,40,24,0,0,0,0,0
0,0,0,0,0,0,0,8,32,96,128,136,120,56,136,136,128,136,136,24,152,16,16,24,8,32,8,0,0,0,0,0,0,0,0,0,0,0,0,24,72,200,120,136,120,112,120,88,88,88,64,72,72,136,64,40,56,16,0,40,0,0,0,0
0,0,0,0,0,0,0,0,0,112,88,56,48,72,80,48,64,24,24,0,8,24,8,24,0,8,0,0,0,0,0,0,0,0,0,0,0,24,0,8,88,80,112,224,208,184,96,144,128,120,104,88,104,64,72,64,88,56,24,0,0,0,0,0
