0,0,0,0,0,0,0,2,2,2,24,28,32,38,34,22,10,14,2,2,20,20,2,2,2,0,0,0,0,0,0,0,0,0,0,0,2,14,2,12,16,20,30,20,20,26,24,24,12,10,10,8,12,10,6,6,14,6,2,0,0,0,0,0
0,0,0,0,0,0,2,0,0,32,4,32,32,30,20,20,14,16,2,20,16,4,2,2,0,0,0,0,0,0,0,0,0,0,0,0,2,8,2,10,14,30,18,22,18,22,18,22,16,20,14,22,14,16,14,14,12,6,6,2,0,0,0,0
0,0,0,0,0,0,2,0,2,2,40,24,32,28,16,28,4,16,16,24,4,2,16,2,2,2,0,0,0,0,0,0,0,0,0,2,12,2,2,10,20,22,22,28,18,22,18,30,20,20,18,16,18,20,14,18,20,16,4,0,0,0,0,0
0,0,0,0,0,0,0,0,2,2,20,10,12,10,28,28,12,16,16,2,2,2,2,2,0,0,0,0,0,0,0,0,0,0,0,0,2,2,14,10,18,20,24,22,20,20,22,22,18,18,18,20,10,14,14,16,16,16,6,0,0,0,0,0
0,0,0,0,0,0,2,2,4,0,22,22,18,28,14,30,20,2,28,2,4,2,4,6,0,0,0,0,0,0,0,0,0,0,0,0,0,2,10,16,14,16,12,42,14,18,14,20,18,20,16,18,20,20,16,10,0,12,14,4,0,0,0,0
0,0,0,0,0,0,0,2,6,0,20,16,24,28,28,28,32,6,6,4,2,2,2,6,0,0,2,0,0,0,0,0,0,2,0,0,4,0,6,12,10,22,20,18,20,20,22,22,18,20,20,18,18,18,6,14,14,14,6,0,0,4,0,0
0,0,0,0,0,0,0,2,4,10,20,26,26,30,20,28,28,14,6,4,6,2,2,2,2,2,0,0,0,0,0,0,0,0,0,2,0,14,2,8,16,20,18,22,22,20,18,22,18,16,12,16,16,16,14,14,14,4,4,0,0,0,0,0
0,0,0,0,0,0,0,2,4,2,18,44,14,16,38,32,20,20,2,4,2,2,0,2,2,2,0,0,0,0,0,0,0,0,2,2,0,2,8,6,16,12,24,16,8,24,16,20,16,20,16,14,14,16,14,12,12,20,10,0,4,0,0,0
0,0,0,0,0,0,0,0,24,2,22,34,28,36,20,28,30,24,4,6,4,2,2,6,0,2,0,2,0,0,0,0,0,0,0,6,0,2,20,12,16,18,28,32,18,26,36,20,18,14,8,16,22,16,20,16,16,10,10,0,0,0,0,0
0,0,2,0,0,0,0,2,2,4,24,34,18,32,32,4,24,30,14,4,16,0,2,2,2,2,0,0,0,0,0,0,0,0,0,0,2,4,10,10,28,24,16,22,46,20,24,20,20,20,24,16,20,20,14,20,16,16,14,0,0,0,0,0
0,0,0,0,0,0,0,0,2,6,38,14,24,22,22,30,30,14,2,2,2,2,6,4,2,0,2,0,0,0,0,0,0,0,2,0,0,2,14,4,16,20,22,24,28,26,22,20,26,18,20,20,10,10,16,14,12,12,12,0,0,0,0,0
0,0,0,4,0,0,0,2,6,8,32,18,10,10,26,26,26,16,4,4,2,2,2,2,6,0,0,0,0,0,0,0,0,0,0,0,2,10,4,14,28,16,20,24,22,26,20,28,16,12,16,20,20,18,18,18,16,12,12,0,0,0,0,0
0,0,0,0,0,2,0,0,2,14,10,28,32,30,12,28,10,28,2,2,6,4,2,0,0,2,0,0,0,0,0,0,0,0,0,4,0,2,8,24,12,18,20,16,24,20,32,18,12,18,16,20,18,18,18,6,14,12,0,0,0,0,0,0
0,0,0,0,0,0,0,0,0,6,20,32,32,22,12,34,16,10,0,26,2,2,2,2,0,2,0,0,0,0,0,0,0,0,0,0,0,4,10,16,24,20,20,16,22,22,24,18,16,10,14,18,18,16,12,12,20,10,8,0,0,0,0,0
0,0,0,0,0,0,0,0,2,4,4,34,16,22,6,24,24,2,2,24,12,2,0,2,4,2,2,0,0,0,0,0,0,0,0,0,0,4,18,8,16,16,20,20,16,18,24,20,20,22,18,16,16,16,8,20,16,16,8,4,0,0,0,0
0,0,0,0,0,0,2,2,0,12,10,22,10,16,26,22,32,2,16,12,2,2,6,2,2,0,0,0,0,0,0,0,0,0,0,0,2,10,0,14,28,20,20,28,22,34,32,20,26,20,24,16,16,18,20,18,20,8,14,0,0,0,0,0
0,0,0,0,0,0,0,2,2,2,26,8,30,16,4,14,4,16,2,10,2,2,12,0,2,2,0,0,0,0,0,0,0,0,0,0,0,4,10,16,20,26,24,24,22,24,22,24,22,20,18,14,18,20,14,16,16,12,6,0,0,0,0,0
0,0,0,0,0,0,8,0,2,2,34,26,28,30,18,2,8,18,4,4,24,4,2,2,0,0,0,0,0,0,0,0,0,0,0,0,2,6,10,14,24,20,48,36,30,36,22,24,22,24,16,20,18,20,20,18,6,16,16,0,0,0,0,0
0,0,0,0,0,0,0,0,2,4,2,12,26,12,18,26,10,2,26,6,2,0,4,4,2,4,0,0,0,0,0,0,0,0,0,0,2,6,4,16,18,26,28,28,28,20,20,36,26,20,20,18,20,18,20,10,18,16,12,0,0,0,0,0
0,0,0,0,0,0,0,2,6,6,16,12,28,30,32,30,8,8,6,2,2,2,2,2,2,0,0,0,0,0,0,0,0,0,0,0,0,0,0,16,12,24,14,24,14,18,14,10,18,20,18,24,20,20,24,20,14,10,0,14,0,0,0,0
0,0,0,0,0,0,0,2,2,4,26,24,6,16,32,10,4,14,10,4,2,4,2,0,2,2,0,0,0,0,0,0,0,0,0,0,0,2,10,20,14,12,20,24,20,22,26,22,24,16,14,16,14,18,12,10,16,14,10,2,0,0,0,0
0,0,0,0,0,0,0,4,4,8,8,10,34,20,32,20,4,32,2,2,2,4,2,0,2,0,0,0,0,0,0,0,0,0,0,0,2,4,6,12,24,14,18,20,16,18,24,20,22,16,20,16,18,16,20,14,8,14,2,0,2,0,0,0
0,0,0,0,0,0,0,2,2,2,24,20,32,32,16,36,28,12,22,20,16,2,8,2,0,0,0,0,0,0,0,0,0,0,0,0,0,8,14,6,20,24,32,26,24,28,26,30,26,24,24,20,18,14,20,16,18,16,14,0,0,0,0,0
0,0,0,0,0,0,0,2,2,24,14,14,32,24,20,24,40,6,2,12,20,20,2,4,2,0,0,0,0,0,0,0,0,0,0,0,2,2,6,16,16,20,24,28,26,24,28,26,26,20,20,18,18,16,14,16,18,8,12,0,0,0,0,0
0,0,0,0,2,0,0,0,2,6,32,12,24,24,38,12,14,12,10,2,10,14,2,2,0,0,0,0,0,0,0,0,0,0,0,0,4,4,6,10,14,22,26,26,22,24,26,26,24,24,20,20,26,20,20,16,16,16,14,0,0,0,0,0
0,0,0,0,0,0,0,0,0,16,4,28,28,26,28,8,34,2,2,24,2,2,6,2,0,0,0,0,0,0,0,0,0,0,0,0,2,6,12,16,22,14,28,24,24,22,32,28,18,22,20,16,22,16,20,16,16,16,14,0,0,8,0,0
0,0,0,0,0,0,0,0,2,6,6,40,14,32,8,36,32,24,2,20,2,0,4,0,2,2,0,0,0,0,0,0,0,0,0,0,2,8,2,10,14,24,20,28,28,26,24,22,22,30,18,20,18,18,22,16,16,10,14,0,0,0,0,0
0,0,0,0,8,0,0,2,16,2,12,8,34,38,40,28,22,26,22,2,2,4,2,2,2,2,2,0,0,0,0,0,0,0,0,0,0,6,10,12,24,18,20,26,34,32,20,16,24,16,20,22,28,20,20,16,14,8,14,4,0,0,0,0
0,0,0,0,0,0,0,0,2,2,6,10,8,28,28,30,14,20,18,2,2,2,18,2,2,2,0,0,0,0,0,0,0,0,0,6,0,10,0,16,24,24,34,16,28,24,24,26,20,20,22,20,14,18,16,24,14,14,10,0,0,0,0,0
0,0,0,0,0,0,0,2,0,4,14,28,32,40,30,6,20,14,18,2,2,12,24,4,2,10,0,0,0,0,0,0,0,0,0,0,0,4,12,8,24,18,20,36,12,30,20,26,12,14,16,12,8,4,18,8,16,8,4,0,0,0,0,0
0,0,0,0,0,2,0,2,0,2,14,16,28,42,16,28,2,26,4,0,2,2,2,2,4,0,0,0,0,0,0,0,0,0,0,0,0,4,6,14,14,14,28,16,18,18,24,20,22,26,18,16,18,20,10,20,18,6,0,18,0,0,0,0
0,0,0,0,0,0,0,0,2,8,38,6,28,10,36,16,6,2,2,2,2,4,2,0,2,2,0,0,0,0,0,0,0,0,0,0,2,4,10,20,16,20,42,28,16,24,20,28,16,26,18,14,20,20,22,18,16,14,6,0,0,0,0,0
0,0,0,0,0,0,0,0,0,14,24,28,34,24,32,34,6,2,20,6,6,2,4,2,14,0,0,0,0,0,0,0,0,0,0,0,2,6,14,10,46,16,24,32,22,24,28,20,22,20,22,22,22,24,20,20,16,16,10,0,0,0,0,0
0,0,0,0,0,0,0,0,4,30,2,38,38,34,30,16,32,16,4,24,6,2,4,2,2,0,0,0,0,0,0,0,0,0,0,0,0,0,8,18,14,14,24,18,20,30,18,28,32,26,24,20,20,20,18,22,16,16,6,0,0,0,0,0
0,0,0,0,0,0,0,0,2,4,14,32,26,8,30,30,20,24,24,20,22,0,20,0,0,0,0,0,0,0,0,0,0,0,0,2,0,4,10,20,16,20,20,20,28,20,24,20,20,22,26,18,20,18,24,18,20,18,0,2,0,0,0,0
0,0,0,0,0,0,0,2,0,2,14,28,20,28,10,14,14,24,4,0,16,2,2,0,0,0,0,0,0,0,0,0,0,0,0,0,6,0,8,14,34,16,20,20,30,18,30,28,26,22,22,18,24,18,24,22,16,0,22,0,0,0,0,0
0,0,0,0,0,0,0,0,2,10,12,14,20,32,8,34,6,6,4,16,2,22,4,2,2,2,0,0,0,0,0,0,0,0,0,0,0,6,4,20,18,28,18,36,32,22,26,14,20,16,24,16,18,20,22,20,20,18,0,0,0,0,0,0
0,0,0,0,0,0,4,2,0,2,28,4,18,10,14,10,10,22,2,4,4,2,2,2,0,2,2,0,0,0,0,0,0,0,0,0,2,8,6,20,14,28,22,26,24,32,24,22,22,20,26,24,20,14,18,18,16,14,0,14,0,0,0,0
0,0,0,0,0,0,0,0,2,6,14,16,38,34,34,28,6,12,2,4,2,12,14,0,0,0,0,0,0,0,0,0,0,0,0,0,0,8,10,10,28,18,20,32,22,18,24,18,22,24,20,16,16,14,14,18,18,16,0,10,0,0,0,0
0,0,0,0,0,0,0,0,2,4,36,8,30,34,38,32,28,22,24,22,2,20,2,2,2,0,0,0,0,0,0,0,0,0,0,0,0,4,4,8,18,20,20,30,30,46,20,18,22,22,22,16,20,14,16,18,14,18,0,10,0,0,0,0
0,0,0,0,0,0,0,0,6,0,14,24,12,32,6,30,32,26,8,16,2,0,2,2,0,2,0,0,0,0,0,0,0,0,0,0,4,2,12,10,16,18,24,42,22,18,18,16,24,20,14,16,20,16,8,18,18,14,10,4,0,0,0,0
0,0,0,0,0,0,0,0,10,2,20,10,32,40,28,22,30,28,22,6,2,18,2,4,0,2,0,0,0,0,0,0,0,0,0,0,2,2,6,12,34,16,30,32,22,14,18,22,16,18,16,18,16,20,18,20,18,14,10,0,0,0,0,0
0,0,0,0,0,0,0,2,10,32,0,32,32,8,32,32,34,28,6,24,0,0,4,2,2,0,10,0,0,0,0,0,0,0,0,0,6,6,0,12,22,24,18,22,46,26,22,16,20,18,18,18,10,14,16,16,12,18,0,12,0,0,0,0
0,0,0,0,0,0,0,0,0,6,10,24,26,30,30,10,28,26,6,18,10,2,2,2,2,0,0,0,0,0,0,0,0,0,0,0,0,2,6,12,14,22,20,16,14,16,20,16,24,14,14,18,16,20,18,16,18,12,12,0,0,0,0,0
0,0,0,0,0,0,0,0,2,8,32,32,10,34,24,26,10,34,2,6,2,0,2,6,2,0,0,0,0,0,0,0,0,0,0,0,0,6,6,14,20,26,16,38,14,32,14,14,16,14,20,20,16,14,14,16,16,12,2,6,0,0,0,0
0,0,0,0,0,0,0,2,2,8,4,36,40,40,2,36,28,28,2,24,6,2,2,2,0,0,0,0,0,0,0,0,0,0,0,0,8,0,10,10,24,22,16,22,32,26,24,20,28,18,16,16,16,14,14,14,16,16,6,10,0,0,0,0
0,0,0,0,0,0,0,2,0,2,12,40,32,38,38,28,30,24,2,2,2,18,2,4,10,2,0,0,0,0,0,0,0,0,0,2,2,0,8,18,14,22,28,20,34,14,24,18,26,28,18,24,16,16,18,10,14,12,2,12,0,0,0,0
0,0,0,0,0,0,0,0,4,2,30,26,28,32,24,24,28,28,24,24,2,16,2,20,2,0,0,0,0,0,0,0,0,0,0,2,6,2,10,12,24,20,18,32,38,20,44,24,26,20,22,16,16,16,16,24,10,10,16,6,0,0,0,0
0,0,0,0,0,0,0,0,0,6,16,28,34,10,24,30,26,26,24,24,2,2,6,2,2,2,0,0,0,0,0,0,0,0,0,2,0,4,8,8,16,22,24,18,18,16,18,22,22,10,14,18,20,18,14,20,16,12,10,0,0,0,0,0
0,0,0,0,0,0,0,0,0,0,10,34,24,30,34,30,28,22,6,2,2,2,2,2,2,0,0,0,0,0,0,0,0,0,0,0,0,4,6,14,30,16,18,16,50,16,24,22,20,24,22,16,22,22,22,18,16,18,12,0,0,0,0,0
