0,0,0,0,0,0,0,76,64,0,0,0,0,8,0,0,0,0,0,0,0,0,0,0,0,0,0,0,0,0,0,0,0,0,0,0,0,0,0,4,40,28,4,8,0,4,4,0,4,4,4,0,4,4,4,4,8,0,0,0,0,0,0,0
0,0,0,0,0,0,0,0,84,72,4,8,4,8,0,0,0,0,0,0,0,0,0,0,0,0,0,0,0,0,0,0,0,0,0,0,0,0,0,8,0,0,44,40,12,8,8,4,0,0,4,4,0,0,0,0,8,0,0,0,0,0,0,0
0,0,0,0,0,0,0,0,0,0,68,0,0,12,8,0,0,0,0,0,0,0,0,0,0,0,0,0,0,0,0,0,0,0,0,0,0,0,0,0,12,12,28,8,20,28,12,20,12,20,12,12,4,0,0,0,0,0,0,0,0,0,0,0
0,0,0,0,0,0,0,0,0,0,0,84,0,0,4,0,0,0,0,0,0,0,0,0,0,0,0,0,0,0,0,0,0,0,0,0,0,0,0,12,0,32,4,4,8,8,4,4,0,8,4,4,4,4,4,0,0,0,0,4,0,0,0,0
0,0,0,0,0,0,0,0,0,0,84,0,0,4,80,0,0,0,0,0,0,0,0,0,0,0,0,0,0,0,0,0,0,0,0,0,0,0,0,36,0,32,64,4,4,12,0,0,0,4,0,0,0,0,4,4,0,0,0,0,0,0,0,0
0,0,0,0,0,0,0,56,0,72,4,4,0,0,0,4,0,0,0,0,0,0,0,0,0,0,0,0,0,0,0,0,0,0,0,0,0,0,4,4,4,96,16,8,12,16,0,4,4,12,4,4,4,4,4,8,8,0,0,0,0,0,0,0
0,0,0,0,0,0,0,0,0,88,0,0,4,0,0,0,4,0,0,0,0,0,0,0,0,0,0,0,0,0,0,0,0,0,0,0,0,0,0,8,40,12,4,4,8,4,8,8,4,4,4,0,4,4,0,4,4,0,0,0,0,0,0,0
0,0,0,0,0,0,0,0,76,68,4,0,0,0,0,0,0,0,0,0,0,0,0,0,0,0,0,0,0,0,0,0,0,0,0,0,0,0,4,4,4,36,112,12,4,28,8,8,8,4,4,8,8,4,8,4,4,0,4,0,0,0,0,0
0,0,0,0,0,0,0,80,4,44,4,4,0,0,0,0,0,0,0,0,0,0,0,0,0,0,0,0,0,0,0,0,0,0,0,0,0,4,4,0,28,8,4,12,8,20,20,8,8,4,4,0,4,0,4,4,4,0,0,0,0,0,0,0
0,0,0,0,0,0,0,0,48,84,0,0,0,0,0,0,0,0,0,0,0,0,0,0,0,0,0,0,0,0,0,0,0,0,0,0,0,0,0,0,8,60,4,52,12,16,8,8,8,4,8,4,4,0,4,4,4,4,0,0,0,0,0,0
0,0,0,0,0,0,80,0,48,0,0,4,8,0,0,0,0,0,0,0,0,0,0,0,0,0,0,0,0,0,0,0,0,0,0,0,0,0,4,4,40,40,44,84,4,8,8,4,4,8,4,8,4,8,4,4,4,0,4,0,0,0,0,0
0,0,0,0,0,0,0,0,80,0,0,8,0,0,0,0,0,0,0,0,0,0,0,0,0,0,0,0,0,0,0,0,0,0,0,0,0,4,4,8,48,36,4,8,12,40,28,8,4,4,0,0,0,0,12,4,4,0,0,0,0,0,0,0
0,0,0,0,0,0,0,0,84,0,0,0,0,80,0,4,0,0,0,0,0,0,0,0,0,0,0,0,0,0,0,0,0,0,0,0,0,0,0,0,32,20,8,8,12,8,4,8,12,12,12,4,4,8,4,0,4,4,0,0,0,0,0,0
0,0,0,0,0,0,0,72,4,4,4,4,0,4,0,0,0,0,0,0,0,0,0,0,0,0,0,0,0,0,0,0,0,0,0,0,0,0,0,20,4,0,12,4,32,8,12,12,8,12,4,8,4,4,4,4,4,4,0,0,0,0,0,0
0,0,0,0,0,0,0,0,0,0,0,0,4,0,0,0,0,0,0,0,0,0,0,0,0,0,0,0,0,0,0,0,0,0,0,0,0,0,0,4,48,52,20,12,12,20,12,20,8,12,8,20,8,4,4,4,4,0,0,0,0,0,0,0
0,0,0,0,0,0,0,0,0,0,0,0,0,0,0,0,0,0,0,0,0,0,0,0,0,0,0,0,0,0,0,0,0,0,0,0,0,0,0,24,4,44,36,8,56,16,16,4,4,4,4,8,8,4,4,4,4,0,4,0,0,0,0,0
0,0,0,0,0,0,0,0,0,104,4,48,0,0,0,0,0,0,0,0,0,0,0,0,0,0,0,0,0,0,0,0,0,0,0,0,0,0,0,4,4,8,16,16,16,12,16,8,12,8,4,20,4,4,4,4,4,4,0,0,0,0,0,0
0,0,0,0,0,0,0,0,44,0,0,0,0,0,0,0,0,0,0,0,0,0,0,0,0,0,0,0,0,0,0,0,0,0,0,0,0,0,4,4,28,48,12,12,4,20,20,8,28,4,8,8,4,4,8,4,0,0,0,0,0,0,0,0
0,0,0,0,0,0,0,0,0,0,0,0,0,0,0,0,0,0,0,0,0,0,0,0,0,0,0,0,0,0,0,0,0,0,0,0,0,0,4,8,40,12,4,20,8,12,4,12,8,4,12,4,8,4,4,4,0,0,4,0,0,0,0,0
0,0,0,0,0,0,0,80,0,80,4,4,0,0,0,0,0,0,0,0,0,0,0,0,0,0,0,0,0,0,0,0,0,0,0,0,0,0,0,0,8,4,12,24,16,16,8,12,8,4,20,12,4,4,4,4,4,0,0,0,0,0,0,0
0,0,0,0,0,0,0,0,0,0,0,0,0,0,0,0,0,0,0,0,0,0,0,0,0,0,0,0,0,0,0,0,0,0,0,0,0,0,4,12,4,12,24,40,20,36,20,20,12,12,12,8,4,4,4,4,4,8,0,0,0,0,0,0
0,0,0,0,0,0,0,0,72,76,0,4,4,0,0,0,0,0,0,0,0,0,0,0,0,0,0,0,0,0,0,0,0,0,0,0,4,0,0,4,12,36,12,60,4,40,12,12,16,8,4,12,4,4,4,4,0,0,0,0,0,0,0,0
0,0,0,0,0,68,0,72,0,0,0,0,0,0,0,0,4,0,0,0,0,0,0,0,0,0,0,0,0,0,0,0,0,0,0,0,0,0,0,4,4,28,44,16,8,32,8,12,8,8,4,4,4,0,4,4,0,0,0,0,0,0,0,0
0,0,0,0,0,0,0,0,0,0,0,0,104,0,0,0,4,0,0,0,0,0,0,0,0,0,0,0,0,0,0,0,0,0,0,0,0,0,0,4,8,4,48,28,8,12,8,8,8,12,12,4,12,4,4,4,0,4,0,0,0,0,0,0
0,0,0,0,0,0,0,0,0,84,0,0,72,0,0,0,0,0,0,0,0,0,0,0,0,0,0,0,0,0,0,0,0,0,0,0,0,0,12,4,12,60,12,8,4,8,32,4,0,8,4,12,12,0,0,0,0,0,0,0,0,0,0,0
0,0,0,0,0,0,0,0,0,0,20,8,12,0,4,0,0,0,0,0,0,0,0,0,0,0,0,0,0,0,0,0,0,0,0,0,0,0,40,0,40,4,8,24,36,12,32,4,20,4,8,16,8,8,12,12,0,12,0,0,0,0,0,0
0,0,0,0,0,0,0,0,4,84,12,0,0,0,0,4,0,0,0,0,0,0,0,0,0,0,0,0,0,0,0,0,0,0,0,0,0,0,8,4,12,12,36,52,20,16,4,12,20,16,12,12,12,0,4,8,4,4,0,0,0,0,0,0
0,0,0,0,0,0,0,0,8,84,4,0,84,0,0,0,0,0,0,0,0,0,0,0,0,0,0,0,0,0,0,0,0,0,0,0,0,4,4,0,8,44,24,16,20,32,4,12,28,12,4,8,4,12,4,4,4,0,0,0,0,0,0,0
0,0,0,0,0,0,0,0,0,0,88,12,0,0,0,0,0,0,0,0,0,0,0,0,0,0,0,0,0,0,0,0,0,0,0,0,0,0,0,4,32,28,52,20,12,28,12,16,0,16,4,0,4,12,8,4,4,12,0,0,0,0,0,0
0,0,0,0,0,0,0,0,0,0,0,116,4,8,0,0,0,0,0,0,0,0,0,0,0,0,0,0,0,0,0,0,0,0,0,0,0,4,4,4,48,12,32,4,8,4,8,24,16,12,4,4,12,4,0,0,0,0,0,0,0,0,0,0
0,0,0,0,0,0,0,0,0,84,4,12,8,4,0,0,0,0,0,0,0,0,0,0,0,0,0,0,0,0,0,0,0,0,0,0,0,0,4,0,40,56,20,20,44,20,20,4,16,12,12,4,8,4,12,8,4,4,0,0,0,0,0,0
0,0,0,0,0,0,0,0,0,52,0,4,4,0,4,0,0,0,0,0,0,0,0,0,0,0,0,0,0,0,0,0,0,0,0,0,4,0,4,0,4,4,24,20,16,12,12,12,8,4,12,4,4,12,4,4,4,0,0,0,0,0,0,0
0,0,0,0,0,0,0,68,52,0,12,4,4,4,4,0,0,0,0,0,0,0,0,0,0,0,0,0,0,0,0,0,0,0,0,0,0,0,0,16,4,8,20,20,24,8,4,20,20,4,12,8,8,12,8,12,8,12,0,0,0,0,0,0
0,0,0,0,0,0,0,88,0,4,0,8,44,4,0,0,0,0,0,0,0,0,0,0,0,0,0,0,0,0,0,0,0,0,0,0,0,0,8,4,16,16,28,24,16,28,16,20,8,4,12,8,4,4,8,4,4,0,0,0,0,0,0,0
0,0,0,0,0,0,84,0,0,12,68,4,4,0,0,0,4,0,0,0,0,0,0,0,0,0,0,0,0,0,0,0,0,0,0,0,0,0,0,32,4,44,20,16,24,16,12,20,16,28,12,4,16,20,16,4,0,0,0,4,0,0,0,0
0,0,0,0,0,0,0,0,84,12,60,0,4,0,36,0,0,0,4,0,0,0,0,0,0,0,0,0,0,0,0,0,0,0,0,0,0,0,0,8,4,12,24,16,16,8,20,12,16,12,0,0,0,12,4,0,0,0,0,0,0,0,0,0
0,0,0,0,0,0,0,0,88,20,16,0,0,0,0,0,0,0,0,0,0,0,0,0,0,0,0,0,0,0,0,0,0,0,0,0,0,0,0,8,8,36,8,12,12,16,12,20,4,16,16,12,8,12,12,4,4,12,0,0,0,0,0,0
0,0,0,0,0,0,0,0,0,0,8,0,0,8,8,0,4,0,0,0,0,0,0,0,0,0,0,0,0,0,0,0,0,0,0,0,0,4,4,16,12,28,20,16,16,40,16,20,12,4,12,4,12,8,12,4,0,0,0,0,0,0,0,0
0,0,0,0,0,0,0,0,0,4,0,0,0,4,4,0,0,0,0,0,0,0,0,0,0,0,0,0,0,0,0,0,0,0,0,0,0,0,12,8,40,20,16,20,24,20,12,28,12,16,8,12,20,4,4,4,8,8,0,0,0,0,0,0
0,0,0,0,0,0,0,0,0,4,4,0,4,0,0,12,0,0,0,0,0,0,0,0,0,0,0,0,0,0,0,0,0,0,0,0,0,4,8,4,8,36,8,20,20,8,24,16,8,20,8,16,20,0,8,8,16,0,4,0,0,0,0,0
0,0,0,0,0,0,0,0,0,0,12,4,88,4,0,0,0,0,0,0,0,0,0,0,0,0,0,0,0,0,0,0,0,0,0,0,0,0,4,4,44,40,12,60,32,24,24,24,12,12,4,12,12,12,12,0,8,4,4,0,0,0,0,0
0,0,0,0,0,0,0,12,12,0,8,76,0,0,0,0,0,0,0,0,0,0,0,0,0,0,0,0,0,0,0,0,0,0,0,0,0,4,0,4,8,12,12,36,12,28,24,20,8,12,12,8,16,8,0,8,4,0,0,0,0,0,0,0
0,0,0,0,0,0,0,0,72,84,4,0,0,0,0,4,0,4,4,0,0,0,0,0,0,0,0,0,0,0,0,0,0,0,0,0,0,4,4,8,16,8,20,16,24,20,8,32,24,32,20,12,20,16,12,12,12,0,0,4,0,0,0,0
0,0,0,0,0,0,0,0,80,48,76,4,0,0,12,0,0,0,0,0,0,0,0,0,0,0,0,0,0,0,0,0,0,0,0,0,0,0,4,4,4,44,4,32,8,12,32,12,28,16,16,8,12,12,16,8,4,4,0,0,0,0,0,0
0,0,0,0,0,0,0,68,12,76,32,4,4,4,0,0,0,0,0,0,0,0,0,0,0,0,0,0,0,0,0,0,0,0,0,0,0,0,0,32,4,20,12,24,44,28,4,8,8,4,4,0,4,4,4,8,4,0,0,0,0,0,0,0
0,0,0,0,0,0,0,72,76,48,24,4,0,0,0,0,4,0,0,0,0,0,0,0,0,0,0,0,0,0,0,0,0,0,0,0,0,0,0,4,40,8,28,44,16,32,12,8,12,24,4,4,12,4,4,12,0,0,0,0,0,0,0,0
0,0,0,0,0,0,0,0,0,0,0,88,0,76,0,0,0,0,0,0,0,0,0,0,0,0,0,0,0,0,0,0,0,0,0,0,0,0,28,4,28,32,40,12,36,16,24,8,4,4,8,12,20,0,0,8,4,0,4,0,0,0,0,0
0,0,0,0,0,0,0,0,88,0,16,0,0,0,0,0,0,0,0,0,0,0,0,0,0,0,0,0,0,0,0,0,0,0,0,0,0,0,4,12,16,44,4,12,28,32,28,16,8,24,4,8,4,4,12,8,0,0,0,0,0,0,0,0
0,0,0,0,0,0,0,0,0,0,0,44,0,4,0,0,4,0,0,0,0,4,0,0,0,0,0,0,0,0,0,0,0,0,0,0,0,0,16,4,40,32,60,44,48,24,40,28,20,12,20,12,0,4,12,20,0,12,0,0,0,0,0,0
0,0,0,0,0,0,0,0,88,4,28,4,8,0,0,0,0,0,0,0,0,0,0,0,0,0,0,0,0,0,0,0,0,0,0,0,0,8,0,0,40,28,28,64,24,16,20,16,28,28,28,24,28,24,12,16,20,8,0,4,0,0,0,0
