0,0,0,0,0,0,0,6,6,6,72,96,84,114,66,102,42,30,60,6,60,6,6,6,6,0,0,0,0,0,0,0,0,0,0,6,0,6,42,36,48,60,90,60,72,60,78,72,36,30,24,30,36,30,42,18,18,0,18,6,0,0,0,0
0,0,0,0,0,0,0,0,6,96,12,96,90,60,96,60,42,6,48,48,60,12,6,6,0,0,0,0,0,0,0,0,0,0,0,0,6,6,30,24,42,54,54,90,66,66,54,60,66,48,66,42,42,48,42,42,36,18,6,0,18,0,0,0
0,0,0,0,0,0,0,6,6,72,6,120,96,84,48,84,12,48,72,48,12,48,6,6,6,0,6,0,0,0,0,0,0,0,6,0,6,6,30,60,36,66,66,54,66,84,54,60,90,54,60,48,54,42,60,60,54,48,12,0,0,0,0,0
0,0,0,0,0,6,0,0,6,0,60,30,36,30,84,84,36,48,48,6,6,6,0,6,6,0,0,0,0,0,0,0,0,0,0,0,6,6,42,30,54,60,72,66,60,60,66,54,66,54,54,60,42,30,42,48,48,48,0,18,0,0,0,0
0,0,0,0,0,0,6,0,6,66,12,66,54,84,42,60,6,6,90,84,6,12,18,12,0,0,0,0,0,0,0,0,0,0,0,0,0,30,6,42,48,48,126,42,36,54,42,54,54,60,48,60,60,60,48,30,42,36,0,12,0,0,0,0
0,0,0,0,0,0,0,0,6,60,48,18,72,84,84,84,96,18,18,12,6,6,18,6,0,0,0,6,0,0,0,0,0,0,0,0,6,12,30,18,36,66,54,60,60,60,66,66,54,60,60,54,54,42,54,18,42,12,42,18,0,0,0,0
0,0,0,0,0,0,0,6,30,12,78,60,78,90,60,84,84,42,18,18,6,12,6,6,6,6,0,0,0,0,0,0,0,0,0,0,6,6,24,42,60,66,48,54,66,60,66,54,54,48,36,48,48,42,48,42,42,12,12,0,0,0,0,0
0,0,0,0,0,0,0,6,12,6,54,48,132,114,42,60,60,96,12,6,6,0,6,6,6,0,6,0,0,0,0,0,0,0,0,6,6,6,24,18,48,48,72,36,24,72,48,48,60,60,48,42,42,42,36,60,48,30,36,0,12,0,0,0
0,0,0,0,0,0,0,0,6,72,66,102,84,108,84,90,60,72,12,12,18,6,6,18,6,0,6,0,0,0,0,0,0,0,0,6,0,18,48,60,36,54,54,84,108,96,60,78,54,42,24,48,48,48,60,48,66,30,0,0,30,0,0,0
0,6,0,0,0,0,0,6,6,12,72,102,54,12,96,72,96,42,90,12,48,0,6,6,6,6,0,0,0,0,0,0,0,0,0,0,6,12,30,30,48,66,84,72,60,72,138,60,60,60,72,48,60,60,60,42,48,48,0,0,42,0,0,0
0,0,0,0,0,0,0,0,6,42,18,66,114,72,66,90,6,90,42,6,6,18,12,6,6,6,0,0,0,0,0,0,0,0,0,6,0,6,12,42,60,48,72,66,84,78,60,66,78,54,60,60,30,30,48,36,42,36,36,0,0,0,0,0
0,0,12,0,0,0,18,0,6,24,54,30,78,96,30,78,48,6,12,78,6,12,6,6,0,0,18,0,0,0,0,0,0,0,0,0,6,12,30,42,60,48,84,72,66,78,84,60,36,60,48,54,48,54,60,54,48,36,36,0,0,0,0,0
0,0,0,0,0,0,0,6,42,6,30,84,96,36,90,84,84,6,30,18,6,6,0,0,12,0,6,0,0,0,0,0,0,0,0,6,0,12,36,24,72,54,96,48,60,72,60,54,36,54,60,48,54,54,54,18,36,42,0,0,0,0,0,0
0,0,0,0,0,0,0,0,18,0,96,60,96,36,102,66,48,78,30,6,0,6,6,6,6,0,0,0,0,0,0,0,0,0,0,0,0,12,48,30,72,60,48,66,66,60,72,54,30,48,42,54,54,48,36,36,30,60,0,24,0,0,0,0
0,0,0,0,0,0,0,0,6,12,12,102,48,18,66,72,72,6,6,36,72,6,0,6,6,12,0,6,0,0,0,0,0,0,0,0,0,12,48,24,54,48,60,60,48,54,72,60,60,66,54,48,48,24,48,60,48,12,48,24,0,0,0,0
0,0,0,0,0,0,0,6,6,30,36,66,48,30,96,78,6,66,6,48,36,18,6,6,0,6,0,0,0,0,0,0,0,0,0,0,6,0,42,30,60,84,84,60,66,96,102,78,72,60,60,48,60,48,54,54,60,42,24,0,0,0,0,0
0,0,0,0,0,6,0,0,6,6,78,90,48,42,24,12,48,12,6,30,36,6,0,6,6,6,0,0,0,0,0,0,0,0,0,0,0,12,30,48,60,78,72,72,66,72,66,72,60,66,42,54,60,54,42,36,48,0,48,0,18,0,0,0
0,0,0,0,0,0,0,6,6,24,78,84,102,90,6,54,24,54,12,72,6,12,12,6,0,0,0,0,0,0,0,0,0,0,0,0,6,18,42,30,60,72,144,108,90,108,66,72,72,66,48,60,60,54,60,54,48,18,48,0,0,0,0,0
0,0,0,0,0,0,0,0,6,6,12,36,36,78,78,54,30,6,6,78,0,18,12,12,12,6,0,0,0,0,0,0,0,0,0,0,6,12,18,54,48,78,84,84,60,84,60,108,78,60,54,60,60,60,54,54,36,30,48,0,0,0,0,0
0,0,0,0,0,0,6,0,18,48,18,84,90,96,36,90,24,18,24,6,6,6,6,6,0,6,0,0,0,0,0,0,0,0,0,0,0,0,0,48,72,42,36,54,72,42,42,30,54,54,60,72,60,72,60,60,42,42,30,0,0,0,0,0
0,0,0,0,0,0,0,6,6,72,78,12,48,18,96,30,42,12,12,6,30,6,6,12,6,0,0,0,0,0,0,0,0,0,0,0,0,6,42,30,60,60,36,78,72,60,66,66,72,42,48,48,30,42,54,36,48,30,6,42,0,0,0,0
0,0,0,0,0,0,0,12,12,24,24,96,102,30,60,96,60,6,12,6,6,6,6,12,0,0,0,0,0,0,0,0,0,0,0,12,0,6,18,36,42,72,54,48,60,54,60,72,66,48,48,60,54,48,60,42,42,24,6,6,0,0,0,0
0,0,0,0,0,0,6,0,6,6,72,60,96,48,96,84,108,66,60,36,48,6,24,6,0,0,0,0,0,0,0,0,0,0,0,0,0,24,18,42,72,96,60,78,72,84,90,78,78,72,72,42,60,54,60,48,54,48,42,0,0,0,0,0
0,0,0,0,0,0,0,6,6,42,96,72,42,60,120,72,72,18,60,36,60,6,6,6,12,0,0,0,0,0,0,0,0,0,0,0,6,18,6,48,60,72,48,84,72,78,78,78,60,84,54,42,60,48,48,54,54,24,36,0,0,0,0,0
0,0,0,0,6,0,0,0,18,6,36,96,72,72,114,36,36,42,30,6,42,6,30,0,6,0,0,0,0,0,0,0,0,0,0,0,12,12,30,18,42,66,78,78,72,66,78,78,72,72,60,60,78,48,60,60,48,48,0,42,0,0,0,0
0,0,0,0,0,0,0,0,0,12,48,84,84,84,78,102,24,6,6,72,6,6,18,6,0,0,0,0,0,0,0,0,0,0,0,0,6,18,36,48,66,42,72,84,72,96,66,66,84,60,54,48,48,66,48,60,42,48,48,24,0,0,0,0
0,0,0,0,0,0,0,0,6,18,18,120,96,42,96,108,72,24,6,60,0,12,6,0,6,6,0,0,0,0,0,0,0,0,0,0,6,6,30,24,72,42,84,84,78,72,60,66,90,66,54,54,60,66,54,48,42,48,30,0,0,0,0,0
0,0,0,0,0,0,6,6,24,48,36,24,120,102,84,114,66,66,78,6,6,12,6,6,6,6,6,0,0,0,0,0,0,0,0,0,0,18,36,54,30,72,60,78,96,102,48,72,60,66,48,60,60,84,60,48,42,12,42,24,0,0,0,0
0,0,0,0,0,0,0,0,6,30,6,18,84,24,84,60,90,42,54,6,6,54,6,6,6,6,0,0,0,0,0,0,0,0,0,0,18,0,30,72,48,72,48,102,72,84,72,60,78,66,60,60,42,54,48,72,42,42,0,30,0,0,0,0
0,0,0,0,0,0,0,6,0,12,42,96,84,120,18,90,42,60,54,6,72,6,36,12,6,30,0,0,0,0,0,0,0,0,0,0,0,24,12,36,72,54,60,108,90,60,36,78,48,36,24,42,36,54,24,48,24,12,12,0,0,0,0,0
0,0,0,0,0,0,6,6,6,0,42,48,48,126,84,84,6,78,6,12,0,12,6,6,0,6,0,0,0,0,0,0,0,0,0,0,12,18,0,42,42,84,48,54,42,54,60,72,78,66,54,48,54,30,54,60,60,0,54,18,0,0,0,0
0,0,0,0,0,0,0,6,0,24,18,114,108,84,30,48,6,18,6,6,6,6,6,12,6,0,0,0,0,0,0,0,0,0,0,0,12,6,30,48,84,60,60,126,60,48,84,72,78,48,54,42,60,60,54,66,48,18,0,42,0,0,0,0
0,0,0,0,0,0,0,0,0,42,84,72,102,96,18,72,102,60,6,18,6,18,12,42,6,0,0,0,0,0,0,0,0,0,0,0,6,42,30,18,138,66,48,72,72,96,60,66,84,60,66,66,66,72,60,60,48,48,0,30,0,0,0,0
0,0,0,0,0,0,0,0,6,12,114,90,114,90,102,48,96,48,12,72,18,12,6,6,0,6,0,0,0,0,0,0,0,0,0,0,0,0,54,42,24,42,72,54,90,60,96,84,54,78,60,72,60,54,60,48,66,48,18,0,0,0,0,0
0,0,0,0,0,0,0,0,6,12,42,24,96,78,90,90,60,72,72,60,66,60,0,0,0,0,0,0,0,0,0,0,0,0,6,0,12,0,30,60,48,60,60,60,84,60,72,60,60,78,66,54,60,54,72,54,60,6,54,0,0,0,0,0
0,0,0,0,0,0,6,0,0,42,6,60,84,84,42,30,72,42,12,48,0,6,0,6,0,0,0,0,0,0,0,0,0,0,0,0,18,0,24,42,48,102,60,60,54,90,90,84,78,66,72,54,66,54,66,72,66,48,0,0,0,0,0,0
0,0,0,0,0,0,0,0,6,30,42,36,96,60,24,102,48,18,18,66,12,6,12,6,6,6,0,0,0,0,0,0,0,0,0,0,18,0,60,12,54,84,54,66,78,108,96,42,60,48,48,72,60,54,66,60,60,54,0,0,0,0,0,0
0,0,0,0,0,0,0,6,6,12,12,84,54,30,30,42,30,66,6,12,12,6,6,6,6,0,6,0,0,0,0,0,0,0,0,0,6,18,24,60,84,42,66,96,78,72,66,72,66,60,72,78,54,60,42,54,48,42,42,0,0,0,0,0
0,0,0,0,0,0,0,6,0,42,114,18,48,102,102,18,84,12,36,6,6,36,0,42,0,0,0,0,0,0,0,0,0,0,0,0,24,0,30,30,60,54,96,84,66,54,54,72,72,66,60,48,54,42,48,42,54,30,0,0,48,0,0,0
0,0,0,0,0,0,0,0,12,6,90,108,24,96,102,114,84,66,72,66,6,60,6,6,6,0,0,0,0,0,0,0,0,0,0,0,0,12,12,24,60,54,60,90,90,138,66,54,60,66,66,60,48,54,42,54,48,42,30,0,0,0,0,0
0,0,0,0,0,0,0,0,0,42,18,72,36,18,96,90,96,78,48,24,0,6,6,6,6,0,0,0,0,0,0,0,0,0,0,0,12,36,6,30,48,54,72,126,66,54,54,48,72,60,42,60,48,48,24,54,42,54,12,30,0,0,0,0
0,0,0,0,0,0,0,0,6,30,30,120,60,96,84,66,90,84,66,6,18,54,12,6,6,0,0,0,0,0,0,0,0,0,0,0,6,18,6,36,102,90,48,96,42,66,66,48,54,54,54,48,48,60,54,54,60,42,30,0,0,0,0,0
0,0,0,0,0,0,0,6,0,30,96,24,96,96,96,96,102,84,72,18,0,0,12,6,6,30,0,0,0,0,0,0,0,0,0,0,0,18,36,18,66,72,66,66,54,138,78,48,60,54,54,54,30,48,42,48,36,54,36,0,0,0,0,0
0,0,0,0,0,0,0,0,0,18,30,72,90,30,78,90,78,84,54,18,30,6,6,6,6,0,0,0,0,0,0,0,0,0,0,0,0,6,36,18,42,60,66,42,48,48,60,42,48,72,54,48,60,48,42,54,54,36,36,0,0,0,0,0
0,0,0,0,0,0,0,0,6,96,30,24,96,102,72,102,78,30,18,6,6,6,0,18,6,0,0,0,0,0,0,0,0,0,0,0,0,18,18,42,60,78,42,48,96,114,42,42,48,60,60,48,42,42,42,48,48,36,18,6,0,0,0,0
0,0,0,0,0,0,0,6,6,24,12,108,120,84,120,6,108,84,72,6,18,6,6,6,0,0,0,0,0,0,0,0,0,0,0,0,0,24,30,48,30,72,66,78,96,66,72,84,60,48,54,48,48,42,42,42,48,48,30,0,18,0,0,0
0,0,0,0,0,0,0,0,6,36,120,6,114,96,90,114,72,84,6,6,12,54,6,30,6,0,6,0,0,0,0,0,0,0,0,0,6,6,24,42,54,84,66,60,102,42,84,72,54,78,72,54,54,48,30,48,42,36,36,6,0,0,0,0
0,0,0,0,0,0,6,0,0,12,90,78,96,84,72,72,84,84,72,72,6,48,6,60,6,0,0,0,0,0,0,0,0,6,0,0,30,18,36,6,54,72,60,114,96,60,78,132,72,60,48,66,72,48,48,30,48,48,30,18,0,0,0,0
0,0,0,0,0,0,0,0,0,18,48,102,84,30,72,78,90,78,72,72,6,6,18,6,6,6,0,0,0,0,0,0,0,0,0,0,6,24,12,24,72,48,54,66,54,54,48,66,66,30,42,54,54,60,60,42,48,30,36,0,0,0,0,0
0,0,0,0,0,0,0,0,0,0,30,102,72,102,90,84,66,90,6,18,6,6,6,0,6,6,0,0,0,0,0,0,0,0,0,0,0,12,18,42,90,48,54,48,72,150,48,60,66,66,72,48,66,66,54,66,54,48,36,0,0,0,0,0
