0,0,0,0,0,7,28,7,42,49,98,105,112,133,98,70,63,63,70,49,49,49,35,21,42,49,28,0,0,0,0,0,0,0,0,0,0,14,70,63,84,203,217,255,252,255,252,238,217,231,182,161,147,147,98,154,119,63,70,0,0,0,0,0
0,0,0,0,0,0,21,14,35,63,49,119,119,119,112,112,98,56,21,63,35,35,35,49,49,14,0,0,0,0,0,0,0,0,0,0,0,49,0,91,112,189,245,255,252,255,217,252,154,133,210,168,147,112,105,91,133,91,35,0,0,0,0,0
0,0,0,0,0,0,21,35,35,49,77,98,77,91,98,70,84,49,70,49,63,49,56,49,63,14,56,0,0,0,0,0,0,0,0,0,0,14,91,238,56,140,42,231,182,231,210,238,203,147,161,147,119,140,98,98,84,0,63,7,0,0,0,0
0,0,0,0,0,0,7,28,49,28,119,70,98,98,98,77,70,56,63,70,63,56,42,35,35,21,0,21,0,0,0,0,0,0,0,0,0,21,70,70,245,140,98,196,189,224,196,238,175,154,119,112,133,105,56,63,77,49,105,0,0,0,0,0
0,0,0,0,0,0,7,35,49,49,91,84,98,105,84,70,84,49,56,35,49,77,35,35,42,28,0,0,0,0,0,0,0,0,0,0,0,0,70,77,98,63,147,126,182,203,217,189,161,112,147,133,119,84,119,84,70,91,0,0,0,0,0,0
0,0,0,7,0,0,21,28,28,70,112,63,133,154,105,77,119,35,42,49,70,63,42,35,7,28,42,0,0,0,0,0,0,0,0,0,0,0,56,105,63,154,147,245,210,255,217,252,182,168,126,119,133,105,119,105,77,0,70,84,0,0,0,0
0,0,0,0,7,0,14,14,28,77,70,119,140,84,84,56,84,49,49,63,49,21,35,49,49,21,0,0,21,0,0,0,0,0,0,0,28,0,49,63,70,147,196,231,196,196,210,203,210,175,133,112,112,119,119,77,63,70,63,0,0,0,0,0
0,0,0,0,0,0,21,35,70,42,63,105,126,105,105,98,112,70,70,70,56,49,49,42,49,28,0,0,0,0,0,0,0,0,0,7,0,7,77,70,84,133,196,245,245,210,217,210,196,175,133,126,98,105,105,77,56,70,0,70,0,0,0,0
0,0,0,0,0,0,0,63,70,126,112,77,112,98,70,84,77,70,56,70,63,56,63,49,42,35,21,0,0,0,0,0,0,0,0,0,0,0,70,70,56,182,231,161,203,245,196,196,182,161,147,133,105,98,98,84,77,28,0,0,0,0,0,0
0,0,0,0,0,0,21,56,42,70,84,84,84,105,126,98,126,49,63,84,49,70,70,42,56,21,0,14,0,0,0,0,0,0,0,0,7,21,77,42,77,154,224,252,238,231,245,238,203,189,161,112,147,133,105,119,77,70,0,0,0,0,0,0
0,0,0,0,0,0,0,28,35,98,63,98,91,91,98,77,84,49,70,42,70,56,35,49,35,42,7,0,0,0,0,0,0,0,0,0,56,0,7,63,84,161,196,224,224,217,255,224,196,182,119,161,133,126,133,98,63,35,0,105,0,0,0,0
0,0,0,0,0,7,7,21,56,91,63,98,112,133,112,91,70,56,56,63,49,49,49,28,35,7,42,0,0,0,0,0,0,0,0,0,28,7,28,70,77,231,168,255,255,255,196,231,203,161,161,126,112,154,112,112,70,63,42,0,0,0,0,0
0,0,0,0,0,0,21,21,56,70,112,105,98,112,84,56,98,63,63,42,49,35,49,63,49,21,0,21,0,0,0,0,0,0,0,0,0,7,28,119,63,168,217,255,255,224,238,161,210,175,147,98,98,112,119,56,77,63,56,0,0,0,0,0
0,0,0,0,0,7,28,14,56,84,133,105,133,119,70,98,84,84,63,63,49,21,42,56,42,35,28,0,0,0,0,0,0,0,0,0,0,56,70,7,210,105,161,252,196,203,217,182,119,126,112,112,77,91,84,98,84,21,70,0,0,0,0,0
0,0,0,0,0,0,28,0,35,98,70,98,84,91,70,70,70,63,56,42,56,42,49,42,35,0,14,0,0,0,0,0,0,0,0,0,0,77,7,49,84,133,203,231,196,210,210,203,203,189,154,112,154,133,112,98,119,0,0,70,0,0,0,0
0,0,0,0,0,0,0,21,35,70,112,98,112,70,84,119,42,77,84,63,70,56,49,28,35,42,0,28,0,0,0,0,0,0,0,0,0,7,56,112,70,224,175,175,224,245,210,210,175,175,154,112,119,91,91,126,56,84,0,0,0,0,0,0
0,0,0,0,0,0,0,7,70,28,91,84,133,119,70,98,49,70,56,63,49,56,35,49,63,28,0,0,21,0,0,0,0,0,0,0,0,14,63,56,70,147,112,175,210,224,196,224,147,126,154,105,98,105,119,70,7,84,0,0,0,0,0,0
0,0,0,0,0,0,0,35,56,70,119,140,63,119,98,84,63,56,63,42,42,42,63,35,42,49,0,0,0,0,0,0,0,0,0,0,0,0,70,63,70,147,224,189,217,203,231,196,175,161,112,112,112,91,98,84,70,84,0,35,0,0,0,0
0,0,0,0,21,0,28,0,56,77,98,91,119,98,77,84,70,112,56,77,70,84,70,70,56,42,21,0,7,0,0,0,0,0,0,7,56,0,70,21,112,98,175,210,238,189,210,182,182,147,175,126,112,119,105,77,91,0,35,0,0,0,0,0
0,0,0,0,0,0,0,35,70,49,126,63,84,84,56,112,56,49,70,49,56,49,63,63,49,35,21,0,0,0,0,0,0,0,0,0,0,0,49,70,112,49,175,210,224,203,182,196,147,126,119,112,84,70,70,77,77,63,0,0,0,0,0,0
0,0,0,0,0,0,0,98,21,56,49,133,126,91,63,42,70,56,49,35,56,42,49,49,28,28,0,0,0,0,0,0,0,0,0,0,0,35,70,56,126,175,70,224,231,224,203,175,154,119,154,119,112,98,119,112,77,35,0,0,0,0,0,0
0,0,0,0,0,14,7,21,21,91,63,119,63,84,84,70,70,98,56,49,56,42,35,49,7,49,35,0,0,0,0,0,0,0,0,0,0,0,84,42,77,112,196,161,217,210,217,217,182,112,147,98,119,119,147,98,21,63,77,0,0,0,0,0
0,0,0,0,0,0,21,35,28,91,70,84,119,119,105,84,84,70,91,42,56,56,42,56,28,35,0,0,0,0,0,0,0,0,0,0,7,0,56,84,91,112,133,161,189,231,210,196,189,161,140,112,126,119,98,84,112,84,14,0,0,0,0,0
0,0,0,0,0,28,7,7,49,28,70,112,98,77,112,77,98,56,70,84,56,56,56,70,21,42,7,0,0,0,0,0,0,0,0,0,0,63,28,21,84,140,231,175,245,161,231,210,203,161,147,126,112,105,91,105,77,84,49,0,21,0,0,0
0,0,0,0,0,7,21,35,49,56,70,70,70,105,98,98,98,49,56,56,56,28,42,49,42,0,0,0,0,0,0,0,0,0,0,0,7,0,77,63,84,147,182,224,224,252,231,147,210,168,126,98,84,77,105,84,56,35,0,63,0,0,0,0
0,0,0,0,0,7,14,70,35,119,49,105,91,112,70,56,98,49,56,35,56,49,35,35,21,35,7,0,0,0,0,0,0,0,0,0,14,56,0,56,77,147,175,224,196,224,210,203,105,147,112,98,105,77,77,112,70,77,77,21,0,0,0,0
0,7,0,21,42,28,42,35,56,42,98,112,112,112,98,133,70,98,49,35,56,56,56,56,0,49,35,0,0,0,0,0,0,0,0,0,0,35,70,42,84,203,147,231,210,210,210,203,189,175,91,98,119,119,119,105,77,56,35,0,0,0,0,0
21,7,14,21,28,35,35,49,42,77,91,105,84,70,112,91,91,98,49,98,42,35,35,42,35,42,21,0,0,0,0,0,0,0,0,0,0,7,77,84,126,84,210,245,203,217,210,196,182,161,140,112,126,126,105,112,70,0,49,56,0,0,0,0
0,0,0,0,0,0,0,28,42,77,84,98,77,126,70,56,112,91,49,56,56,77,63,42,56,21,0,0,0,0,0,0,0,0,0,0,0,7,56,70,154,203,84,238,231,224,196,196,182,175,147,98,133,98,77,84,0,77,42,42,0,0,0,0
0,0,0,0,0,0,14,42,21,63,84,91,77,77,133,91,56,49,56,70,42,56,42,35,35,42,7,0,0,0,0,0,0,0,0,0,0,7,63,63,70,140,182,224,210,196,231,224,140,147,119,126,126,98,98,91,56,70,0,56,0,0,0,0
0,0,0,0,0,0,14,63,28,63,140,98,98,126,91,98,84,56,77,56,63,35,70,42,28,0,14,0,0,0,0,0,0,0,0,0,7,0,56,35,84,119,203,231,224,217,196,168,196,119,140,126,140,133,119,112,84,84,63,0,0,0,0,0
0,0,0,0,0,0,21,35,28,35,112,112,140,112,112,119,56,49,35,35,56,49,42,49,56,7,0,0,0,0,0,0,0,0,0,0,0,21,84,49,91,133,189,217,217,224,210,189,168,140,119,140,112,112,98,140,63,98,14,42,0,0,0,0
0,0,0,0,0,0,35,7,56,63,63,56,84,133,112,112,119,63,63,49,49,56,35,35,7,56,0,28,0,0,0,0,0,0,0,0,0,35,77,56,70,210,147,175,224,210,196,182,224,203,147,161,84,105,98,98,112,49,49,0,0,0,0,0
0,0,0,0,0,0,21,35,35,49,77,105,126,98,112,91,70,98,42,56,56,49,63,49,42,35,14,0,0,0,0,0,0,0,0,0,0,35,49,84,70,91,210,203,231,168,217,217,189,147,140,126,84,112,98,105,77,63,56,0,0,0,0,0
0,0,0,0,0,0,0,49,84,35,63,63,105,105,112,84,91,119,49,70,42,35,35,35,49,0,0,14,0,0,0,0,0,0,0,0,0,21,84,56,70,126,182,217,231,210,168,175,119,168,133,84,112,112,98,70,91,56,98,0,0,0,0,0
0,0,0,0,0,0,0,21,49,49,112,112,98,133,84,63,56,70,63,84,56,77,49,42,42,35,7,0,0,0,0,0,0,0,0,0,7,35,63,35,105,70,154,189,168,175,175,182,119,168,77,112,84,70,84,105,98,70,56,0,0,0,0,0
0,0,0,0,0,7,7,42,28,98,21,91,112,112,105,112,70,77,56,49,56,42,63,49,35,35,7,0,0,0,0,0,0,0,0,0,0,14,49,77,147,84,182,189,203,224,168,168,98,196,119,98,84,105,98,119,98,70,56,0,0,0,0,0
0,0,0,0,0,7,0,28,70,35,98,112,77,84,98,84,84,98,56,70,56,42,56,28,42,21,0,0,0,0,0,0,0,0,0,0,7,77,0,70,98,70,175,224,175,161,147,175,161,147,119,112,98,98,70,105,98,105,49,0,0,0,0,0
0,0,0,0,0,0,0,28,35,77,112,70,112,84,98,84,98,63,49,63,35,49,70,42,56,35,0,0,0,0,0,0,0,0,0,0,0,70,77,35,84,196,210,133,210,210,196,196,168,175,140,119,112,112,119,105,84,63,49,0,0,0,0,0
0,0,0,0,0,7,0,49,35,91,98,98,77,91,84,70,70,56,70,56,42,77,49,49,35,28,14,0,0,0,0,0,0,0,0,0,0,21,49,77,133,84,168,189,217,231,203,238,189,168,161,133,126,119,77,112,91,49,49,0,0,0,0,0
0,0,0,0,0,7,0,35,49,49,63,91,91,84,112,91,42,98,91,49,35,49,42,35,35,21,0,0,0,0,0,0,0,0,0,0,7,0,70,21,84,189,196,147,203,196,196,196,133,182,98,133,119,126,105,98,91,56,35,21,0,0,0,0
0,0,0,0,0,7,0,63,7,56,84,84,70,119,119,105,105,63,98,49,56,56,35,56,21,21,14,0,0,0,0,0,0,0,0,0,21,0,77,56,84,119,189,217,210,245,196,154,182,140,98,105,154,133,77,91,91,77,0,0,49,0,0,0
0,0,0,0,0,0,7,35,21,105,84,84,84,105,105,91,49,105,70,42,49,49,49,49,49,7,35,0,0,0,0,0,0,0,0,0,21,0,77,84,70,175,126,203,203,203,203,189,196,140,133,126,112,84,98,105,91,56,35,0,21,0,0,0
0,0,0,7,0,0,0,21,49,49,77,105,112,119,105,140,91,56,63,49,70,49,49,42,35,21,0,0,0,0,0,0,0,0,0,0,0,0,49,70,98,112,231,175,210,189,196,203,175,133,126,154,119,126,56,112,119,63,70,0,0,0,0,0
0,0,0,0,7,0,0,28,21,63,56,98,98,70,70,84,70,63,63,63,70,49,42,56,35,42,7,0,0,0,0,0,0,0,0,0,49,0,14,56,91,84,161,161,182,210,196,189,175,98,112,161,112,112,105,119,84,70,0,56,0,0,0,0
0,0,0,0,0,0,14,21,49,49,77,98,84,112,126,70,84,49,49,70,63,56,56,49,56,42,0,7,0,0,0,0,0,0,0,0,0,7,35,98,77,98,154,168,196,189,217,189,168,210,112,133,119,112,105,105,112,84,0,21,0,0,0,0
0,0,0,0,0,14,0,49,49,21,63,98,63,56,77,70,77,49,42,49,63,35,14,42,49,0,21,7,0,0,0,0,0,0,0,0,0,49,35,70,70,105,210,224,231,245,175,217,182,140,119,105,133,91,112,98,84,63,0,42,0,0,0,0
0,0,0,0,0,0,21,14,35,56,70,98,84,105,70,98,63,49,49,63,42,56,56,35,49,21,0,0,0,0,0,0,0,0,0,0,0,7,56,70,210,63,105,231,210,224,231,182,231,168,112,119,126,105,98,112,35,84,77,0,0,0,0,0
0,0,0,0,0,0,14,21,56,112,35,84,56,98,112,112,56,56,70,35,35,63,70,49,35,14,14,0,0,0,0,0,0,0,0,0,0,0,56,70,84,238,182,133,175,210,182,112,140,133,105,98,112,119,91,105,77,77,35,0,0,0,0,0
0,0,0,0,0,0,21,7,84,91,49,91,105,105,112,119,56,63,70,49,49,49,42,49,28,35,7,0,0,0,0,0,0,0,0,0,0,28,42,56,70,112,154,217,203,196,217,245,182,161,140,126,147,112,105,77,84,42,0,35,0,0,0,0
