0,0,0,0,0,0,0,24,40,96,120,112,128,104,104,112,88,64,56,48,88,80,32,64,40,16,0,0,0,0,0,0,0,0,0,0,0,0,48,144,16,216,40,200,255,240,240,255,232,216,240,184,224,184,160,72,152,56,0,0,0,0,0,0
0,0,0,0,0,0,16,0,40,64,104,120,112,128,80,144,80,96,56,56,64,56,64,40,40,16,0,0,0,0,0,0,0,0,0,0,0,0,0,80,120,208,232,208,248,240,224,208,176,255,200,168,176,72,136,184,0,152,0,0,0,0,0,0
0,0,0,0,0,0,0,0,40,48,96,104,96,128,112,112,80,64,72,48,40,64,88,32,32,32,0,0,0,0,0,0,0,0,0,0,8,0,16,120,64,240,184,255,224,208,224,176,208,216,224,176,0,40,0,48,0,56,0,0,0,0,0,0
0,0,0,0,0,0,40,40,0,80,72,88,136,72,96,64,112,80,48,64,40,64,80,48,40,24,0,0,0,0,0,0,0,0,0,0,0,0,48,80,176,216,152,232,208,160,208,200,176,144,176,168,144,144,24,96,136,0,80,0,0,0,0,0
0,0,0,0,0,0,0,24,32,80,96,96,96,96,120,104,96,40,48,64,40,40,48,72,40,0,0,8,0,0,0,0,0,0,0,0,8,48,0,80,16,96,96,128,200,96,152,192,136,120,112,168,160,176,144,96,112,0,0,0,0,0,0,0
0,0,8,0,0,0,40,0,56,136,56,120,152,128,120,96,80,128,64,40,64,40,48,48,0,56,24,0,0,0,0,0,0,0,0,0,0,0,64,0,160,104,248,200,208,248,216,176,128,232,152,160,184,200,168,112,0,128,0,0,0,0,0,0
0,0,0,0,0,0,0,8,48,104,56,144,120,136,96,96,48,56,64,64,56,40,40,48,40,8,56,0,0,0,0,0,0,0,0,0,0,64,0,64,120,168,192,176,168,208,232,224,72,192,80,128,88,96,104,0,56,48,0,0,0,0,0,0
0,0,0,0,0,0,0,16,56,72,120,128,136,144,112,144,96,64,56,72,56,48,64,40,64,32,0,0,0,0,0,0,0,0,0,0,0,64,0,88,144,168,176,64,200,192,128,176,80,104,88,112,72,72,112,56,48,0,0,0,0,0,0,0
0,0,0,0,0,0,24,8,48,40,96,128,128,128,104,104,136,96,88,64,56,40,56,32,8,32,0,0,0,0,0,0,0,0,0,0,0,16,24,72,64,96,40,88,160,224,144,232,160,200,144,112,32,48,80,40,64,8,0,0,0,0,0,0
0,0,0,0,0,0,8,64,96,24,56,136,104,96,112,128,96,56,24,72,48,40,40,0,48,16,40,0,0,0,0,0,0,0,0,0,0,8,0,8,136,16,56,184,136,255,232,144,184,208,208,56,144,104,120,56,120,0,0,0,0,0,0,0
0,0,0,0,0,40,0,8,16,96,48,152,144,136,104,112,64,72,48,40,72,56,80,56,0,24,0,0,0,0,0,0,0,0,0,0,0,24,40,64,88,200,168,184,232,216,160,184,152,168,152,144,112,144,120,80,48,96,0,0,0,0,0,0
0,0,0,0,0,0,8,24,56,128,64,104,96,96,120,104,104,88,56,80,56,64,96,72,56,32,0,0,0,0,0,0,0,0,0,0,0,40,56,8,120,168,200,168,128,176,200,184,152,152,120,72,128,80,136,88,40,32,0,24,0,0,0,0
0,0,0,0,0,0,16,32,40,80,88,144,152,64,104,72,128,64,88,80,64,64,96,32,0,0,0,0,0,0,0,0,0,0,0,16,0,8,40,56,40,80,88,96,112,152,160,152,200,152,184,128,128,96,128,128,152,56,0,0,0,0,0,0
0,0,0,0,8,0,0,24,40,64,136,104,136,128,96,128,88,40,80,48,40,64,72,56,48,40,0,0,0,0,0,0,0,0,0,0,0,0,56,72,112,216,160,200,184,200,136,208,200,144,176,152,152,184,56,152,0,128,0,0,0,0,0,0
0,0,0,0,0,0,0,40,40,80,112,128,104,120,120,96,128,112,112,88,48,72,48,0,64,32,0,0,0,0,0,0,0,0,0,0,8,56,112,8,136,184,255,176,208,240,224,168,208,216,184,208,160,104,128,80,168,0,0,0,0,0,0,0
0,0,0,0,0,0,24,0,40,64,72,104,112,120,64,112,96,104,56,72,64,8,40,40,0,32,0,0,0,0,0,0,0,0,0,40,0,0,64,96,72,176,184,136,200,184,255,216,184,216,184,184,192,96,208,128,152,0,0,0,0,0,0,0
0,0,0,0,0,0,0,48,24,80,128,104,104,120,88,88,80,56,104,56,96,56,40,24,72,0,56,0,0,0,0,0,0,0,0,0,8,0,56,48,184,128,232,232,240,255,200,96,192,255,255,184,64,0,112,128,0,0,0,0,0,0,0,0
0,0,0,0,0,0,0,0,40,64,88,96,128,80,96,56,112,96,56,40,72,40,40,40,24,0,40,0,0,0,0,0,0,0,0,0,0,0,128,0,0,216,120,255,255,255,240,240,216,200,232,184,184,176,160,56,64,56,0,0,0,0,0,0
0,0,0,0,0,0,8,40,24,64,96,104,104,96,72,112,144,88,56,48,88,64,96,64,32,32,0,0,0,0,0,0,0,0,0,0,0,0,64,48,152,224,224,200,255,224,216,255,168,208,208,184,56,160,152,120,128,0,0,0,0,0,0,0
0,0,0,0,0,0,8,32,40,56,120,136,120,144,104,112,80,64,64,96,32,40,80,24,0,40,0,0,0,0,0,0,0,0,0,0,0,0,32,112,136,208,184,232,200,224,240,255,232,192,192,144,152,168,136,168,120,0,0,0,0,0,0,0
0,0,0,0,0,0,0,8,40,80,96,160,120,112,112,136,88,72,48,56,56,40,48,64,40,0,0,0,0,0,0,0,0,0,0,0,0,112,8,160,0,192,240,240,224,208,255,184,160,168,160,104,152,0,200,48,0,0,0,0,0,0,0,0
0,0,0,0,0,0,16,8,32,80,96,80,112,128,104,120,64,56,40,40,56,56,40,48,32,32,16,0,0,0,0,0,0,0,0,0,8,0,0,80,64,40,176,216,184,255,255,184,232,200,136,128,112,152,152,120,24,104,0,0,0,0,0,0
0,0,0,0,0,0,8,0,56,112,40,80,96,96,64,112,64,88,80,64,88,40,40,32,24,0,16,0,0,0,0,0,0,0,0,0,0,0,8,16,168,216,200,168,200,208,200,168,200,168,176,72,128,168,152,168,48,0,0,0,0,0,0,0
0,0,0,0,0,0,8,0,32,80,112,64,136,80,104,72,88,64,24,48,88,40,64,48,0,0,24,0,0,0,0,0,0,0,0,0,0,16,24,16,160,64,200,184,216,255,208,232,56,136,152,152,96,112,112,64,0,0,0,0,0,0,0,0
0,0,0,0,0,0,0,16,56,152,72,64,128,96,144,96,72,96,120,56,88,64,40,48,32,24,0,0,0,0,0,0,0,0,0,0,0,24,0,56,152,176,208,168,152,176,176,200,216,112,184,168,144,72,136,128,0,0,0,0,0,0,0,0
0,0,0,0,0,0,0,32,16,72,136,128,128,144,88,104,96,56,72,48,56,88,48,24,32,8,0,0,0,0,0,0,0,0,0,0,0,8,0,32,88,96,128,224,240,216,208,208,224,224,168,176,136,0,128,168,56,104,0,0,0,0,0,0
0,0,0,0,0,8,0,40,0,96,48,112,112,152,112,104,56,96,48,80,64,72,48,48,0,40,0,0,0,0,0,0,0,0,0,0,0,0,0,88,40,192,96,232,232,248,184,216,208,152,216,144,216,176,72,0,48,56,0,0,0,0,0,0
0,0,0,0,0,0,8,24,48,56,96,112,120,88,112,48,56,96,56,96,40,96,88,40,48,0,0,24,0,0,0,0,0,0,0,0,0,120,0,0,48,136,208,240,208,255,232,200,208,192,64,152,168,120,112,128,40,0,0,0,0,0,0,0
0,0,0,0,0,0,40,0,80,40,96,112,112,104,120,96,64,88,56,40,56,32,88,56,0,40,0,0,0,0,0,0,0,0,0,0,0,24,8,104,88,168,136,120,176,120,128,176,120,168,168,208,168,144,48,152,0,0,0,0,0,0,0,0
0,0,0,0,0,0,8,32,24,64,80,88,96,136,80,96,56,56,64,56,40,64,56,56,0,40,0,0,0,0,0,0,0,0,0,0,32,0,24,40,104,144,176,208,224,176,240,248,144,208,184,152,120,176,136,8,96,144,0,0,0,0,0,0
0,0,0,0,0,0,8,40,24,136,64,104,112,104,112,120,96,88,56,56,96,72,40,0,32,32,0,0,0,0,0,0,0,0,0,0,0,16,8,56,120,184,160,184,80,176,152,176,64,112,56,40,136,88,104,64,8,8,0,0,0,0,0,0
0,0,0,0,0,0,8,16,40,56,112,112,136,120,96,104,72,120,64,64,40,32,56,24,40,24,0,0,0,0,0,0,0,0,0,0,8,0,40,40,128,168,168,128,128,192,192,176,144,120,56,112,80,40,64,16,104,72,0,0,0,0,0,0
0,0,0,0,0,0,16,24,40,64,80,96,112,104,88,120,56,96,104,24,48,56,48,24,40,40,0,0,0,0,0,0,0,0,0,0,0,32,0,8,80,72,72,136,184,176,160,240,192,176,200,152,144,144,104,96,40,56,16,0,0,0,0,0
0,0,0,0,0,0,24,0,40,48,96,104,112,112,128,120,136,96,48,48,48,56,40,72,40,0,0,0,0,0,0,0,0,0,0,0,0,24,40,80,136,112,255,176,168,216,224,80,96,168,104,48,160,152,40,56,24,8,0,0,8,0,0,0
0,0,0,0,0,0,40,0,24,48,96,96,96,112,152,96,56,96,48,48,40,128,64,32,32,40,0,0,0,0,0,0,0,0,0,0,0,8,40,32,48,128,112,192,136,208,152,184,200,104,136,56,152,40,56,80,120,8,0,0,0,0,0,0
0,0,0,0,0,0,8,32,40,48,104,136,96,104,112,96,96,72,32,64,88,48,56,32,40,32,0,0,0,0,0,0,0,0,0,0,8,0,16,8,40,192,152,168,232,136,168,160,208,176,152,184,184,192,8,16,32,104,0,0,0,0,0,0
0,0,0,0,0,0,0,0,88,40,96,120,128,136,136,128,64,104,64,48,32,40,56,32,40,0,0,40,0,0,0,0,0,0,0,0,24,0,80,0,16,56,144,168,240,200,184,168,208,104,232,128,168,104,112,64,160,8,0,0,0,0,0,0
0,0,0,0,0,0,0,24,40,56,88,120,160,96,80,112,80,80,40,40,40,64,40,48,24,0,16,0,0,0,0,0,0,0,0,0,0,48,0,88,128,176,160,240,216,240,200,192,192,136,152,184,80,88,136,112,112,0,0,0,0,0,0,0
0,0,0,0,0,8,0,32,40,72,104,96,112,80,136,112,80,104,56,56,88,0,40,80,24,24,0,0,0,0,0,0,0,0,0,0,0,0,56,0,144,72,192,168,192,184,216,208,152,208,184,128,112,144,80,136,128,0,64,0,0,0,0,0
0,0,0,0,0,0,16,32,40,48,136,104,136,112,96,64,128,72,80,32,80,64,40,40,72,0,24,0,0,0,0,0,0,0,0,0,0,24,48,0,120,152,160,232,160,160,184,208,184,160,184,112,112,136,112,128,104,0,0,0,0,0,0,0
0,0,0,0,0,0,0,24,32,128,112,40,136,152,96,136,128,72,56,40,48,56,88,96,0,32,0,0,0,0,0,0,0,0,0,0,0,24,48,152,64,192,128,255,224,208,240,224,208,64,128,152,80,152,136,88,144,0,0,0,0,0,0,0
0,0,0,0,0,0,24,0,40,64,136,96,88,128,128,96,40,136,104,40,40,48,40,72,0,0,24,0,0,0,0,0,0,0,0,0,0,0,48,0,192,152,200,208,208,168,192,136,208,128,160,184,136,112,152,120,0,112,0,0,0,0,0,0
0,0,0,0,0,0,0,32,32,40,56,104,160,104,136,104,64,80,72,56,48,40,40,32,40,32,0,0,0,0,0,0,0,0,0,0,0,0,56,104,96,176,232,192,200,208,184,192,200,192,136,168,184,144,96,104,48,0,0,0,0,0,0,0
0,0,0,0,0,0,0,16,48,104,40,80,104,112,120,128,80,64,72,128,40,48,0,48,48,0,0,0,0,0,0,0,0,0,0,0,0,16,0,128,64,152,184,240,224,192,192,216,224,200,192,128,16,120,152,48,120,128,0,0,0,0,0,0
0,0,0,0,0,0,0,0,48,56,112,112,120,152,104,104,128,96,64,56,128,40,56,0,40,0,40,0,0,0,0,0,0,0,0,0,0,24,8,72,72,128,255,184,216,216,200,208,232,184,224,168,96,176,192,184,112,120,0,0,0,0,0,0
0,0,0,0,0,0,8,40,0,96,128,104,128,176,104,120,96,64,24,136,64,104,40,40,56,0,32,0,0,0,0,0,0,0,0,0,8,8,8,32,40,208,208,255,208,255,184,200,192,152,88,136,168,136,152,96,24,88,0,0,0,0,0,0
0,0,0,0,0,8,0,0,48,96,48,128,152,104,104,104,104,96,40,56,56,64,80,32,0,0,0,0,0,0,0,0,0,0,0,0,16,0,32,56,144,192,224,208,224,168,240,240,72,144,176,200,184,152,48,152,0,120,0,0,0,0,0,0
0,0,0,0,0,0,16,32,72,56,96,112,104,168,128,80,56,56,64,72,64,48,48,56,32,40,0,0,0,0,0,0,0,0,0,0,0,0,104,0,112,104,216,240,152,224,176,248,144,168,176,56,128,120,120,120,136,0,0,0,0,0,0,0
0,0,0,0,0,8,0,32,56,144,64,96,104,112,112,96,48,72,40,56,40,40,56,32,32,24,0,0,0,0,0,0,0,0,0,0,0,32,24,32,176,224,72,200,216,168,184,200,168,208,168,168,112,128,80,120,0,128,0,0,0,0,0,0
0,0,0,0,0,0,16,88,40,16,88,152,120,88,120,80,80,56,48,56,72,56,40,56,0,0,32,0,0,0,0,0,0,0,0,0,0,32,48,160,112,200,192,255,216,208,232,216,160,176,200,64,136,152,208,112,96,56,0,0,0,0,0,0
