0,0,0,0,0,0,0,0,0,8,0,8,8,0,0,0,0,0,0,0,0,0,0,0,0,0,0,0,0,0,0,0,0,0,0,0,8,8,16,24,80,40,32,40,40,40,32,48,40,24,32,40,40,32,32,32,24,24,0,0,0,0,0,0
0,0,0,0,0,0,0,0,0,8,0,8,8,8,0,0,16,0,0,0,0,8,0,0,0,0,0,0,0,0,0,0,0,0,0,8,16,0,8,32,40,48,192,48,40,40,40,40,24,48,48,40,32,40,24,24,32,24,8,8,0,0,0,0
0,0,0,0,0,0,0,0,0,0,8,0,0,0,0,8,8,0,0,0,0,0,0,0,0,0,0,0,0,0,0,0,0,0,0,8,0,0,24,88,64,32,40,96,40,128,24,40,32,48,8,24,40,24,24,24,32,24,0,16,0,0,0,0
0,0,0,0,0,0,0,0,0,8,0,8,0,0,0,0,0,0,0,0,0,0,0,0,0,0,0,0,0,0,0,0,0,0,8,16,8,16,24,24,24,56,40,120,40,56,32,40,24,24,32,32,48,40,40,40,32,24,8,0,0,0,0,0
0,0,0,0,0,0,8,0,0,8,8,0,0,8,8,0,0,0,0,0,0,0,0,0,0,0,0,0,0,0,0,0,0,0,8,0,16,24,16,40,32,104,24,64,88,48,40,40,32,24,24,40,32,24,16,8,24,16,0,0,0,0,0,0
0,0,0,0,0,0,0,0,8,0,0,8,8,0,0,0,0,0,0,0,0,0,0,0,0,0,0,0,0,0,0,0,0,0,16,0,0,16,24,56,40,48,16,48,40,32,24,40,40,40,32,24,48,8,24,16,16,32,0,8,0,0,0,0
0,0,0,0,0,0,0,0,0,0,8,24,0,0,0,8,0,0,0,0,0,0,0,0,0,0,0,0,0,0,0,0,0,0,0,0,0,24,16,24,32,24,112,120,24,24,40,40,32,40,40,32,40,8,32,32,8,24,16,0,0,0,0,0
0,0,0,0,0,0,0,0,0,0,0,0,0,0,0,0,0,0,0,0,0,0,0,0,0,0,0,0,0,0,0,0,0,0,0,0,0,16,24,40,16,32,96,32,40,40,16,48,32,32,40,32,32,24,24,16,8,24,0,8,0,0,0,0
0,0,0,0,0,0,0,0,0,0,0,0,0,0,0,0,0,0,0,0,0,0,0,0,0,0,0,0,0,0,0,0,0,0,0,0,0,8,24,24,40,200,32,40,40,40,32,48,24,24,40,32,40,32,32,16,8,8,0,8,0,0,0,0
0,0,0,0,0,0,0,0,0,0,0,0,0,0,0,0,0,0,0,0,0,0,0,0,0,0,0,0,0,0,0,0,0,0,0,8,0,8,32,24,80,40,40,96,48,40,8,40,32,40,24,32,40,32,16,32,16,8,8,0,0,0,0,0
0,0,0,0,0,0,0,0,0,0,8,0,0,8,0,0,0,0,0,0,0,0,0,0,0,0,0,0,0,0,0,0,0,0,0,8,0,24,8,8,32,24,16,32,40,32,40,40,40,16,40,24,8,8,24,8,8,0,0,0,0,8,0,0
0,0,0,0,0,0,0,0,0,0,0,0,0,0,0,0,0,0,0,0,0,0,0,0,0,0,0,0,0,0,0,0,0,0,0,0,0,16,8,88,16,24,96,40,72,40,40,32,16,32,24,16,24,16,24,40,16,8,8,0,0,0,0,0
0,0,0,0,0,0,0,0,0,0,8,0,0,0,0,0,0,0,0,0,0,0,0,0,0,0,0,0,0,0,0,0,0,0,0,8,0,16,8,24,8,104,16,96,24,32,40,40,24,24,40,40,24,32,24,48,24,32,8,0,0,0,0,0
0,0,0,0,0,8,0,0,8,0,0,8,8,8,0,0,8,0,0,0,0,0,0,0,0,0,0,0,0,0,0,0,0,0,0,16,8,0,32,8,32,120,40,72,96,40,40,32,16,24,48,24,8,24,40,24,24,16,16,0,0,0,0,0
0,0,0,0,0,0,0,0,0,8,0,0,0,0,0,0,0,0,0,0,0,0,0,0,0,0,0,0,0,0,0,0,0,0,0,8,0,8,24,88,8,24,40,96,56,40,40,40,16,32,24,56,24,16,48,32,8,16,0,8,8,0,0,0
0,0,0,0,0,0,0,0,0,8,0,0,8,8,0,0,0,0,0,0,0,0,0,0,0,8,0,0,0,0,0,0,0,0,0,0,0,24,24,16,56,24,24,24,32,48,40,24,24,40,40,40,32,32,24,40,32,32,8,0,0,0,0,0
0,0,0,0,0,0,0,0,0,0,8,8,0,0,0,0,0,0,0,0,8,0,0,0,0,0,0,0,0,0,0,0,0,0,0,0,8,0,16,80,8,56,40,24,48,32,40,40,32,40,24,32,40,24,24,40,56,24,8,16,0,0,0,0
0,0,0,0,0,0,0,0,0,0,8,8,0,8,0,0,8,0,0,0,0,0,0,0,0,0,0,0,0,0,0,0,0,0,8,0,8,16,32,80,24,56,40,48,40,48,56,40,24,32,32,32,48,40,48,24,24,8,24,0,0,0,0,0
0,0,0,0,0,0,0,0,8,0,32,8,0,8,8,0,0,0,8,0,0,0,0,0,0,0,0,0,0,0,0,0,0,0,0,0,0,8,16,40,8,32,32,96,56,40,40,40,48,40,32,24,40,48,16,16,16,16,40,0,0,0,0,0
0,0,0,0,0,0,0,0,0,0,8,0,16,0,16,0,0,0,0,0,0,0,0,0,0,0,0,0,0,0,0,0,0,0,0,8,0,8,32,40,40,40,56,32,48,24,40,48,24,40,32,40,40,40,64,40,24,24,8,0,32,0,0,0
0,0,0,0,0,0,0,8,8,8,0,0,0,0,0,0,0,0,0,0,0,0,0,0,0,0,0,0,0,0,0,0,0,0,0,8,8,24,8,32,88,32,40,24,24,24,24,32,40,32,24,32,32,8,16,24,16,16,0,0,0,0,0,0
0,0,0,0,0,0,0,0,0,0,0,0,0,8,0,0,0,0,0,16,0,0,0,0,0,0,0,0,0,0,0,0,0,0,0,0,0,8,24,32,24,32,40,32,40,40,40,24,32,24,24,16,40,32,24,16,24,8,0,0,0,0,0,0
0,0,0,0,0,0,0,0,0,0,0,0,8,0,0,8,8,0,0,0,0,0,0,0,0,0,0,0,0,0,0,0,0,0,0,16,8,8,0,24,56,144,32,24,24,40,32,16,24,16,40,32,40,32,24,24,32,16,8,0,0,0,0,0
0,0,0,0,0,0,0,0,0,8,0,8,0,0,0,0,0,0,8,0,0,0,0,0,0,0,0,0,0,0,0,0,0,0,0,0,0,16,16,24,48,24,40,40,48,32,24,40,40,40,40,40,24,32,24,32,32,0,24,8,0,0,0,0
0,0,0,0,0,0,0,136,0,0,0,16,24,8,0,0,0,0,0,0,0,0,0,0,0,0,0,0,0,0,0,0,0,0,0,8,0,16,24,24,32,48,40,48,88,40,56,56,32,48,48,40,24,40,24,24,40,0,32,0,0,0,0,0
0,0,0,0,0,0,0,8,0,0,16,8,8,8,8,0,0,0,0,0,0,0,0,0,0,0,0,0,0,0,0,0,0,0,0,0,8,8,24,16,48,72,56,48,88,32,32,40,40,40,40,40,24,48,24,24,24,24,16,0,0,0,0,0
0,0,0,0,0,0,0,0,0,8,8,16,0,0,8,0,0,0,0,0,0,0,0,0,0,0,0,0,0,0,0,0,0,0,0,8,24,8,24,24,32,24,40,24,40,32,32,24,16,24,24,24,40,32,32,24,32,0,0,8,0,0,0,0
0,0,0,0,0,0,0,0,0,8,8,0,16,8,0,0,8,0,8,0,0,0,0,0,0,0,0,0,0,0,0,0,0,0,8,8,8,16,32,24,32,56,56,40,56,40,40,48,24,32,24,32,40,40,24,40,40,24,0,8,0,0,0,0
0,0,0,0,0,0,0,0,0,0,8,0,8,0,0,0,0,0,0,0,0,0,0,0,0,0,0,0,0,0,0,0,0,0,0,8,8,24,24,16,32,120,24,64,96,40,24,24,24,40,16,16,40,40,40,24,40,8,8,16,0,0,0,0
0,0,0,0,0,0,0,0,0,0,8,8,8,8,0,0,0,0,0,0,0,0,0,0,0,0,0,0,0,0,0,0,0,0,0,0,8,8,40,16,40,24,16,32,32,24,32,40,32,40,40,40,32,24,40,24,32,8,8,24,0,0,0,0
0,0,0,0,0,0,0,0,0,0,0,0,0,0,0,0,0,0,0,0,0,0,0,0,0,0,0,0,0,0,0,0,0,0,0,8,16,16,16,24,88,40,40,40,24,48,32,32,40,24,48,32,32,40,40,32,32,24,16,8,0,0,0,0
0,0,0,0,0,0,0,0,0,0,0,8,0,0,0,0,0,0,0,0,0,0,0,0,0,0,0,0,0,0,0,0,0,0,16,8,16,24,16,56,32,72,40,112,88,80,40,24,40,32,24,40,32,24,40,16,40,8,8,0,0,0,0,0
0,0,0,0,0,0,0,0,0,0,136,0,8,8,8,0,0,0,0,0,0,0,0,0,0,0,0,0,0,0,0,0,0,0,0,8,24,8,8,24,56,24,24,24,32,24,32,32,32,24,40,24,32,24,32,32,40,0,8,0,0,0,0,0
0,0,0,0,0,0,0,0,0,0,0,0,0,0,0,0,0,0,8,0,0,0,0,0,0,0,0,0,0,0,0,0,0,8,0,0,8,16,24,64,40,88,32,120,24,88,32,40,32,40,40,32,24,24,40,40,32,16,0,0,8,0,0,0
0,0,0,0,0,0,0,0,0,0,0,0,0,0,0,0,0,0,0,8,0,0,0,0,0,0,0,0,0,0,0,0,0,0,8,8,16,8,24,24,40,32,96,88,80,32,80,16,40,40,40,24,40,56,40,40,32,16,16,0,0,0,0,0
0,0,0,0,0,0,0,0,0,0,88,80,8,0,0,0,0,0,0,0,0,0,0,0,0,0,0,0,0,0,0,0,0,0,0,16,24,8,16,24,24,40,40,24,32,24,16,32,24,40,32,24,24,32,40,32,16,8,24,0,0,0,0,0
0,0,0,0,0,0,0,0,0,0,0,8,8,8,0,0,0,0,0,0,0,8,0,0,0,0,0,0,0,0,0,0,0,0,0,0,24,0,24,40,64,24,24,24,24,24,40,16,32,40,32,24,32,8,16,8,8,8,0,0,0,0,0,0
0,0,0,0,0,0,0,0,0,0,8,0,8,8,0,8,8,0,0,0,0,8,0,0,0,0,0,0,0,0,0,0,0,8,0,8,8,40,56,24,24,32,96,104,40,96,48,40,24,24,8,24,16,8,8,24,8,0,8,0,0,0,0,0
0,0,0,0,0,0,0,0,0,8,0,8,0,8,8,8,0,8,0,0,0,0,0,0,0,0,0,0,0,0,0,0,0,0,0,0,0,8,32,16,8,24,16,32,24,24,32,16,24,24,32,16,16,8,8,24,24,0,24,0,8,0,0,0
0,0,0,0,0,0,0,0,0,0,8,0,0,0,0,0,8,0,0,0,0,0,0,0,0,0,0,0,0,0,0,0,0,0,0,0,8,16,16,32,40,72,32,128,40,72,40,40,24,40,24,16,24,16,24,16,16,24,24,0,0,0,0,0
0,0,0,0,0,0,0,0,0,0,8,8,0,8,24,8,0,0,0,0,0,0,0,0,0,0,0,0,0,0,0,0,0,0,0,24,0,16,24,24,24,80,32,32,32,24,32,48,32,32,16,24,24,24,24,40,16,16,32,8,0,0,0,0
0,0,0,0,0,0,0,0,0,16,0,32,0,0,0,0,8,0,0,0,0,0,0,0,0,0,0,0,0,0,0,0,0,0,0,8,16,0,32,16,48,32,88,88,48,40,40,80,40,40,32,32,32,32,32,24,8,0,24,0,0,0,0,0
0,0,0,0,0,0,0,0,0,0,0,8,8,0,8,0,0,0,0,0,0,0,0,0,0,0,0,0,0,0,0,0,0,0,0,0,0,24,8,40,16,104,40,32,88,40,40,32,40,32,32,40,16,40,40,32,32,32,8,0,0,0,0,0
0,0,0,0,0,0,0,0,0,0,0,8,0,0,8,0,0,0,0,0,0,0,0,0,0,0,0,0,0,0,0,0,0,0,0,16,8,8,32,32,40,24,48,40,32,32,48,24,16,40,32,24,32,24,16,40,32,8,24,0,0,0,0,0
0,0,0,0,0,0,0,0,0,0,0,0,0,0,0,0,0,0,0,0,0,0,0,0,0,0,0,0,0,0,0,0,0,0,0,0,8,8,16,24,56,88,32,32,32,24,24,24,24,40,32,32,24,8,40,16,24,16,24,0,0,0,0,0
0,0,0,0,0,0,0,0,0,0,8,0,0,0,8,0,0,0,0,0,0,0,0,0,0,0,0,0,0,0,0,0,0,0,8,8,8,24,24,24,24,40,40,32,40,40,16,32,24,24,32,16,24,16,24,32,8,8,0,0,0,0,0,0
0,0,0,0,0,0,0,0,0,8,8,8,0,0,0,0,0,0,0,8,0,0,0,0,0,0,0,0,0,0,0,0,0,0,0,8,8,24,32,32,24,24,16,16,32,48,40,32,40,40,32,24,40,16,16,32,16,16,0,8,0,0,0,0
0,0,0,0,0,0,0,0,0,8,0,8,0,0,0,0,24,0,0,0,0,0,0,0,0,0,0,0,0,0,0,0,0,0,8,8,24,24,8,24,80,24,32,32,40,24,56,32,24,16,32,24,24,24,16,16,24,24,16,0,0,0,0,0
0,0,0,0,0,0,0,0,0,0,8,0,0,0,0,0,0,0,0,0,0,0,0,0,0,0,0,0,0,0,0,0,0,0,0,8,0,8,32,16,64,32,40,40,40,24,24,16,24,24,16,16,24,32,16,40,8,8,8,0,0,0,0,0
0,0,0,0,0,0,0,0,0,0,8,8,8,0,0,0,8,0,0,0,0,0,0,0,0,0,0,0,0,0,0,0,0,0,0,0,0,24,16,16,40,16,32,24,32,24,40,16,24,32,24,24,24,24,16,24,16,24,8,0,0,0,0,0
