0,0,0,0,0,10,10,40,60,70,150,140,160,100,190,140,90,90,100,70,70,70,60,40,50,70,30,0,0,0,0,0,0,0,0,0,0,90,20,100,120,255,255,255,255,255,255,255,255,255,255,230,210,210,220,140,170,90,100,0,0,0,0,0
0,0,0,0,0,0,30,20,50,70,90,170,170,160,170,140,160,80,30,90,50,50,50,70,70,20,0,0,0,0,0,0,0,0,0,0,0,70,0,130,160,255,255,255,255,255,255,220,255,190,240,255,190,210,150,160,130,130,0,50,0,0,0,0
0,0,0,0,0,0,30,50,70,50,110,110,140,140,130,100,120,70,100,70,90,80,70,90,70,80,20,0,0,0,0,0,0,0,0,0,0,20,80,130,60,200,255,255,255,255,210,255,255,255,230,210,170,200,120,140,90,140,10,0,0,0,0,0
0,0,0,0,0,0,10,40,40,70,100,170,140,140,140,110,90,80,100,100,90,80,50,50,60,30,30,0,0,0,0,0,0,0,0,0,30,0,100,140,100,200,255,255,255,255,255,255,250,220,190,170,160,150,150,80,90,110,0,70,0,0,0,0
0,0,0,0,0,0,10,50,70,70,120,130,140,150,100,120,120,70,110,80,70,50,50,50,40,0,0,60,0,0,0,0,0,0,0,0,0,100,110,0,90,140,180,210,255,255,255,230,255,160,210,170,170,120,190,100,120,0,0,130,0,0,0,0
0,0,0,0,0,10,30,40,100,40,190,160,90,220,170,110,150,60,100,70,50,90,60,50,40,10,60,0,0,0,0,0,0,0,0,0,0,0,80,90,150,220,255,210,255,255,255,255,255,240,170,180,190,150,170,150,120,100,110,0,0,0,0,0
0,0,0,0,10,0,20,20,40,110,170,100,200,120,120,120,70,80,70,90,70,70,30,50,30,70,30,0,0,0,0,0,0,0,0,0,0,70,40,90,210,100,255,255,255,255,255,255,255,190,250,160,160,170,90,170,110,100,0,90,0,0,0,0
0,0,0,0,0,0,30,50,60,100,90,180,150,150,140,100,150,160,100,70,100,80,70,70,60,40,0,0,0,0,0,0,0,0,0,0,10,10,100,110,255,190,120,255,255,255,255,255,255,250,180,150,190,150,140,80,110,100,0,100,0,0,0,0
0,0,0,0,0,0,0,100,110,180,90,160,140,160,110,100,100,120,100,80,90,80,90,70,50,60,0,30,0,0,0,0,0,0,0,0,0,0,100,80,100,230,255,255,255,255,255,255,255,210,230,190,140,150,120,140,110,40,0,0,0,0,0,0
0,0,0,0,0,30,0,100,80,120,60,120,150,120,180,140,180,90,70,120,100,70,100,80,20,60,30,0,0,0,0,0,0,0,0,0,30,10,60,110,220,110,255,255,255,255,255,255,255,230,160,255,210,190,150,170,100,110,0,0,0,0,0,0
0,0,0,0,0,0,0,40,50,90,140,140,130,110,130,140,120,70,100,100,60,80,50,70,50,60,10,0,0,0,0,0,0,0,0,0,0,80,10,90,120,255,230,255,255,255,255,255,255,255,230,170,190,180,190,140,150,90,0,50,0,0,0,0
0,0,0,0,0,10,30,80,10,90,130,160,140,190,160,130,80,100,80,70,90,70,70,50,40,60,10,0,0,0,0,0,0,0,0,0,40,10,100,40,110,240,255,255,255,255,255,255,255,230,180,230,160,220,160,160,90,100,60,0,0,0,0,0
0,0,0,30,0,0,0,30,80,100,160,140,150,120,160,80,140,90,90,70,60,70,50,70,90,0,30,30,0,0,0,0,0,0,0,0,0,10,170,40,90,240,255,255,255,255,255,255,230,250,210,140,170,140,110,160,80,80,0,0,90,0,0,0
0,0,0,0,0,10,40,20,120,80,150,170,190,190,140,120,100,90,70,120,30,90,60,60,80,50,40,0,0,0,0,0,0,0,0,0,10,0,80,100,150,230,255,255,255,255,180,255,255,160,170,160,130,120,110,140,120,100,30,0,0,0,0,0
0,0,0,0,0,40,0,0,50,100,140,140,120,130,100,100,100,90,80,60,80,60,60,70,50,20,0,0,0,0,0,0,0,0,0,10,70,0,0,110,120,190,255,255,255,255,255,255,255,255,220,160,220,190,170,160,140,100,0,0,0,0,0,0
0,0,0,0,0,0,50,0,30,100,160,100,160,140,170,120,60,120,110,90,80,40,100,70,60,50,40,0,0,0,0,0,0,0,0,0,0,10,80,100,160,250,250,255,255,255,255,250,255,250,220,160,170,130,180,130,80,120,0,0,0,0,0,0
0,0,0,0,0,0,0,10,100,40,190,130,120,170,140,100,70,100,90,80,80,70,70,50,90,40,30,0,0,0,0,0,0,0,0,0,0,20,80,100,90,160,210,250,255,255,255,255,210,220,180,150,150,140,170,100,120,0,10,0,0,0,0,0
0,0,0,0,0,0,50,0,80,100,170,200,90,170,140,120,90,80,90,60,60,60,90,50,70,60,0,0,0,0,0,0,0,0,0,0,0,0,100,90,100,255,210,255,255,255,255,255,250,230,160,160,130,160,120,120,140,50,100,0,0,0,0,0
0,0,0,0,0,0,80,40,30,110,130,170,110,140,140,120,100,160,110,120,80,100,100,100,60,80,30,0,0,10,0,0,0,0,0,10,0,80,30,100,140,160,250,255,255,255,255,255,255,250,210,180,170,160,150,110,130,0,50,0,0,0,0,0
0,0,0,0,0,0,0,50,100,70,90,120,120,80,180,100,160,80,70,70,70,80,90,90,70,50,30,0,0,0,0,0,0,0,0,0,0,0,70,70,100,160,250,255,255,255,255,255,210,180,170,100,160,120,100,110,110,90,0,0,0,0,0,0
0,0,0,0,0,0,0,30,70,140,80,190,130,180,90,60,80,100,70,50,80,60,70,70,40,40,0,0,0,0,0,0,0,0,0,0,0,50,100,100,80,180,250,255,255,255,255,250,220,170,220,160,170,140,170,50,160,110,0,0,0,0,0,0
0,0,0,0,0,10,30,20,30,90,130,90,170,120,120,100,140,100,80,80,70,60,50,70,70,50,10,0,0,0,0,0,0,0,0,0,0,120,0,230,60,110,255,160,255,255,255,255,255,160,210,140,170,170,210,140,90,30,110,0,0,0,0,0
0,0,0,0,0,0,40,30,100,50,130,120,170,170,120,150,120,100,130,60,80,80,80,60,40,50,0,0,0,0,0,0,0,0,0,0,0,80,10,130,120,160,190,230,255,255,255,255,255,230,200,160,170,180,160,140,20,120,120,0,0,0,0,0
0,0,0,0,0,10,10,40,70,100,40,160,140,160,110,140,110,80,100,80,120,80,80,100,60,30,10,0,0,0,0,0,0,0,0,0,0,40,30,90,120,200,250,230,255,255,255,255,255,210,230,180,160,150,150,130,120,110,70,30,0,0,0,0
0,0,0,10,0,30,50,0,70,80,100,150,100,140,100,140,140,70,80,80,40,80,70,60,0,60,0,0,0,0,0,0,0,0,0,0,90,0,10,120,110,210,255,255,255,255,255,255,240,210,140,180,120,150,110,120,80,50,90,0,0,0,0,0
0,0,0,0,0,10,20,70,100,50,170,130,160,150,100,140,80,70,80,50,80,70,50,50,50,30,0,10,0,0,0,0,0,0,0,0,20,0,80,80,110,210,250,255,255,255,255,150,160,255,210,150,140,110,110,100,160,110,110,30,0,0,0,0
0,0,30,10,40,50,60,60,80,140,60,160,160,160,140,190,100,140,70,80,80,50,80,80,70,50,0,0,0,0,0,0,0,0,0,0,0,100,50,120,255,60,210,255,255,255,255,255,250,255,130,140,170,170,150,170,110,0,80,50,0,0,0,0
10,20,30,30,40,50,50,60,150,70,110,130,160,120,100,130,130,140,140,60,60,70,50,50,50,30,60,0,0,0,0,0,0,0,0,0,10,0,120,110,120,180,255,255,255,255,255,255,230,255,200,180,150,160,180,160,100,70,80,0,0,0,0,0
0,0,0,0,0,0,0,40,60,110,110,120,140,180,100,70,80,160,130,110,80,90,80,60,80,30,0,0,0,0,0,0,0,0,0,0,80,0,10,120,100,220,255,255,255,255,255,255,255,250,210,190,140,140,120,110,110,0,60,0,60,0,0,0
0,0,0,0,0,30,0,20,90,60,110,120,130,110,80,190,130,70,100,80,80,60,60,60,50,10,50,0,0,0,0,0,0,0,0,0,0,90,10,90,200,255,100,255,255,255,255,255,210,200,180,170,180,140,140,100,130,80,80,0,0,0,0,0
0,0,0,0,0,0,20,40,90,90,140,200,140,130,180,140,80,90,120,110,80,100,50,60,40,0,20,0,0,0,0,0,0,0,0,0,10,0,50,80,120,170,255,255,255,255,255,255,200,240,170,200,160,180,190,170,120,120,90,0,0,0,0,0
0,0,0,0,0,30,0,50,40,50,160,160,160,200,160,170,70,80,50,50,80,60,70,70,80,10,0,0,0,0,0,0,0,0,0,30,0,0,70,120,130,190,255,255,255,255,255,255,240,200,200,170,160,160,200,140,140,90,60,20,0,0,0,0
0,0,0,0,10,0,0,80,50,90,160,90,80,120,190,160,170,90,90,70,70,80,50,80,50,40,10,0,0,0,0,0,0,0,0,0,50,0,80,110,100,210,250,255,255,255,255,255,255,230,255,120,210,150,140,160,140,70,70,0,0,0,0,0
0,0,0,0,0,0,50,30,50,110,150,70,180,160,140,130,140,100,60,80,80,90,70,60,70,50,0,20,0,0,0,0,0,0,0,0,0,50,120,70,100,130,255,255,255,255,255,240,255,210,120,200,180,140,160,110,150,90,0,80,0,0,0,0
0,0,0,0,0,0,0,50,70,120,90,150,90,150,160,170,130,120,100,70,50,60,50,50,20,70,0,0,0,0,0,0,0,0,0,0,0,30,80,120,100,255,180,255,255,240,255,250,170,240,190,160,120,160,140,130,80,140,0,100,0,0,0,0
0,0,0,0,0,0,0,30,70,70,160,160,80,140,120,190,90,90,100,120,110,60,80,10,70,60,50,0,0,0,0,0,0,0,0,0,10,50,50,100,90,150,240,255,220,250,250,255,240,170,110,160,120,120,140,100,150,100,80,0,0,0,0,0
0,0,0,0,10,0,10,60,40,30,140,130,160,150,160,160,70,110,80,100,80,90,60,70,50,50,0,0,10,0,0,0,0,0,0,0,0,20,70,120,110,210,255,255,255,240,255,255,240,170,140,140,150,120,140,140,170,100,0,80,0,0,0,0
0,0,0,0,0,10,0,50,40,100,140,120,140,160,110,120,120,80,140,80,100,60,80,60,40,30,0,0,0,0,0,0,0,0,0,0,10,0,100,110,100,250,140,255,250,210,230,230,170,250,210,160,140,140,100,140,150,150,0,70,0,0,0,0
0,0,0,0,0,0,0,40,50,110,160,160,100,120,140,120,140,90,70,90,70,100,50,60,80,0,50,0,0,0,0,0,0,0,0,0,50,0,100,110,190,120,255,255,255,255,255,255,250,240,200,160,170,160,170,150,70,120,0,90,0,0,0,0
0,0,0,0,0,0,10,50,140,70,130,140,110,130,120,100,100,80,100,80,110,60,70,70,40,50,20,0,0,0,0,0,0,0,0,0,0,30,120,70,110,240,190,255,255,255,255,255,255,240,230,180,190,170,130,160,110,70,0,70,0,0,0,0
0,0,0,0,0,10,0,130,50,70,70,130,90,160,140,130,120,60,130,70,50,70,60,50,50,0,0,30,0,0,0,0,0,0,0,0,0,10,30,120,100,255,210,255,255,255,255,255,255,190,140,170,190,180,150,140,130,80,50,30,0,0,0,0
0,0,0,0,0,0,10,10,90,80,100,120,120,170,170,150,150,90,140,70,80,50,80,80,30,30,0,20,0,0,0,0,0,0,0,0,0,30,110,80,120,170,255,255,255,255,255,220,200,140,255,150,220,190,110,110,130,130,70,0,0,0,0,0
0,0,0,10,0,0,50,0,30,120,120,120,150,130,150,100,150,70,150,70,60,70,70,70,50,70,10,0,0,0,0,0,0,0,0,0,0,30,120,110,100,180,250,255,255,255,255,255,255,200,190,160,180,150,120,140,130,80,30,50,0,0,0,0
0,0,0,0,10,30,0,0,70,70,110,150,170,160,130,150,200,80,90,100,70,70,60,70,30,50,0,0,0,0,0,0,0,0,0,0,0,0,100,70,140,255,160,250,255,255,255,220,255,250,180,190,180,170,170,100,160,80,0,90,0,0,0,0
0,0,0,0,0,10,0,30,40,90,80,140,140,100,100,120,100,90,90,90,100,80,70,60,60,50,10,0,0,0,0,0,0,0,0,0,0,20,70,80,120,130,230,230,255,255,255,255,250,140,230,160,160,170,160,150,100,120,0,80,0,0,0,0
0,0,0,0,0,0,20,30,70,70,110,120,120,140,180,160,100,70,100,70,90,80,80,70,80,60,0,10,0,0,0,0,0,0,0,0,0,10,50,110,140,220,140,240,255,255,255,255,255,190,240,160,170,150,160,160,150,120,30,0,0,0,0,0
0,0,0,0,0,0,20,70,30,90,70,140,90,110,80,100,110,70,90,70,60,50,70,20,30,10,60,0,0,0,0,0,0,0,0,0,100,0,50,100,70,255,150,255,255,255,255,250,255,200,190,150,170,160,130,120,90,140,60,0,0,0,0,0
0,0,0,0,0,30,0,20,50,80,150,100,100,140,120,140,70,90,90,70,60,50,80,80,70,30,0,0,0,0,0,0,0,0,0,0,0,80,10,100,90,150,255,255,255,255,255,255,255,240,170,180,160,150,160,140,110,120,0,50,0,0,0,0
0,0,0,0,0,0,30,20,80,50,80,160,120,140,160,160,80,100,80,50,90,100,70,50,50,20,20,0,0,0,0,0,0,0,0,0,0,0,100,80,120,190,255,255,250,255,255,190,200,160,140,150,170,160,110,150,130,50,110,0,0,0,0,0
0,0,0,0,30,0,0,10,70,120,130,130,150,160,170,150,90,100,70,80,70,60,40,70,70,50,0,10,0,0,0,0,0,0,0,0,0,60,40,100,80,160,220,255,255,255,255,255,230,255,200,210,160,180,150,120,110,60,0,50,0,0,0,0
