0,0,0,0,0,10,0,0,0,120,160,100,170,130,140,180,190,180,100,130,20,120,70,50,0,20,0,0,0,0,0,0,0,0,0,0,10,10,30,70,100,230,230,200,240,250,255,150,190,190,160,120,160,140,110,130,100,70,30,0,0,0,0,0
0,0,0,0,0,0,0,20,20,90,170,120,170,180,140,100,160,160,140,100,40,80,30,80,10,10,0,0,0,0,0,0,0,0,0,0,0,30,100,30,170,210,255,230,255,220,230,255,240,190,210,150,90,100,130,60,120,60,20,0,0,0,0,0
0,0,0,0,0,0,0,20,50,160,80,130,80,100,170,100,160,120,90,160,80,100,110,30,30,10,10,0,0,0,0,0,0,0,0,0,0,30,50,110,140,240,210,240,255,240,150,110,255,150,240,170,110,250,150,90,110,70,0,0,0,0,0,0
0,0,0,0,0,0,0,20,20,10,140,150,90,170,140,190,150,170,70,20,30,70,110,10,10,10,0,0,0,0,0,0,0,0,0,0,10,60,0,240,50,190,240,255,255,255,255,255,210,240,160,230,180,110,220,170,190,120,0,20,0,0,0,0
0,0,0,0,0,0,30,0,0,120,140,190,120,80,180,90,110,90,60,50,40,10,30,20,10,10,0,0,0,0,0,0,0,0,0,0,0,0,0,230,100,250,255,240,240,250,150,220,255,160,255,120,190,110,110,140,190,70,140,0,0,0,0,0
0,0,0,0,0,0,0,20,90,30,180,140,140,220,100,140,160,120,50,100,10,50,10,30,40,10,0,0,0,0,0,0,0,0,0,0,0,10,40,130,160,255,255,250,255,255,255,230,255,240,210,250,220,180,200,210,190,140,0,0,60,0,0,0
0,0,0,0,0,0,30,0,40,90,140,120,210,130,160,140,110,120,50,50,70,20,20,20,130,0,0,0,0,0,0,0,0,0,0,0,0,10,60,40,220,160,255,240,255,240,180,150,240,230,240,190,210,220,240,70,140,50,120,0,0,0,0,0
0,0,0,0,0,0,0,0,100,40,120,130,120,140,100,140,160,170,100,30,30,50,60,20,0,30,0,0,0,0,0,0,0,0,0,0,0,0,0,150,170,230,220,255,255,255,255,255,255,240,200,210,150,170,160,210,170,140,70,0,0,0,0,0
0,0,0,0,0,0,10,0,120,70,140,210,120,210,110,30,150,150,80,40,40,50,20,80,10,0,0,0,0,0,0,0,0,0,0,0,0,20,60,140,230,220,255,255,255,255,255,255,255,255,230,230,170,80,210,160,130,30,130,0,0,0,0,0
0,0,0,0,0,0,0,0,40,130,140,200,110,200,190,100,170,120,50,50,30,40,20,0,30,0,0,0,0,0,0,0,0,0,0,0,0,60,20,160,20,255,120,255,230,255,255,255,140,255,120,200,100,200,250,140,150,170,0,80,0,0,0,0
0,0,0,0,0,0,0,30,80,120,170,190,220,130,190,150,190,130,40,120,30,100,30,20,0,0,0,0,0,0,0,0,0,0,0,0,10,10,80,70,230,255,190,255,255,255,110,255,250,130,140,140,120,80,80,150,120,50,10,10,0,0,0,0
0,0,0,0,0,0,0,120,10,40,160,30,120,200,160,170,160,90,10,80,20,30,30,10,20,0,0,0,0,0,0,0,0,0,0,10,10,40,70,80,210,170,70,255,255,255,255,255,255,220,230,210,190,120,100,170,0,80,80,0,0,80,0,0
0,0,0,0,0,0,30,0,0,80,170,190,70,170,100,100,30,190,120,30,20,30,30,130,10,0,0,0,0,0,0,0,0,0,0,0,0,20,30,80,200,255,255,255,255,255,255,255,255,255,255,230,240,210,200,210,140,140,50,0,0,0,0,0
0,0,0,0,0,0,0,0,40,100,140,190,90,200,70,90,140,100,80,10,60,20,50,80,80,0,0,0,0,0,0,0,0,0,0,0,0,30,130,40,230,255,255,170,255,255,255,250,255,250,240,230,150,255,200,160,160,70,30,0,0,0,0,0
0,0,0,0,0,0,0,30,90,70,50,170,140,190,70,140,160,70,10,140,50,10,10,20,0,50,0,0,0,0,0,0,0,0,0,0,40,0,50,110,160,255,210,230,255,255,255,255,255,160,160,160,100,190,140,140,160,70,40,0,0,0,0,0
0,0,0,0,0,0,0,40,100,30,130,100,160,160,150,140,80,120,80,150,10,50,20,70,50,0,0,0,0,0,0,0,0,0,0,0,0,10,90,10,210,90,120,255,180,255,255,255,210,190,240,180,60,100,190,200,170,70,130,0,0,0,0,0
0,0,0,0,0,0,0,0,20,80,150,90,110,170,100,180,210,170,170,150,80,120,90,20,0,10,10,0,0,0,0,0,0,0,0,0,0,20,30,100,220,255,240,160,255,255,255,200,210,210,250,200,210,200,230,150,170,170,60,0,20,0,0,0
0,0,0,0,0,0,0,20,60,140,190,210,120,200,100,20,190,140,40,120,140,0,110,0,10,20,0,0,0,0,0,0,0,0,0,10,0,30,30,100,210,255,255,255,240,255,170,150,255,240,210,190,220,220,210,210,220,70,100,0,0,0,0,0
0,0,0,0,0,0,0,0,160,140,0,170,140,210,170,130,70,90,10,90,60,120,0,100,0,0,10,0,0,0,0,0,0,0,0,0,0,60,30,90,180,190,255,255,255,255,255,220,140,150,70,80,230,230,190,80,160,110,30,0,0,0,0,0
0,0,0,0,0,0,30,10,90,0,110,120,210,100,110,170,190,140,80,50,40,10,20,40,10,0,0,0,0,0,0,0,0,0,0,0,0,30,120,20,210,210,255,220,255,240,150,255,255,255,150,70,140,120,60,140,90,160,0,10,0,0,0,0
0,0,0,0,0,0,0,30,60,140,210,170,170,100,130,140,90,50,100,60,30,50,80,140,30,0,0,30,0,0,0,0,0,0,0,0,0,0,30,110,30,150,170,170,170,220,255,150,190,80,180,120,230,180,120,160,160,150,80,20,0,0,0,0
0,0,0,0,0,0,0,20,30,160,100,170,140,160,150,80,20,90,70,60,10,100,50,40,10,10,0,0,0,0,0,0,0,0,0,0,0,40,100,80,160,255,255,240,180,210,255,255,180,220,170,90,90,170,190,120,90,100,30,0,0,0,0,0
0,0,0,0,0,0,0,30,30,120,140,120,140,150,110,190,80,130,110,170,40,30,100,30,20,0,0,0,0,0,0,0,0,0,0,0,0,10,60,30,150,160,200,250,200,250,240,240,200,220,170,80,60,180,160,190,130,110,0,50,0,0,0,0
0,0,0,0,0,0,0,10,10,210,150,190,210,180,170,170,160,30,150,10,40,120,0,10,0,0,0,0,0,0,0,0,0,0,0,0,20,10,70,60,190,255,255,255,255,255,255,255,255,255,255,170,220,250,230,230,160,180,50,0,0,0,0,0
0,0,0,0,0,10,0,0,70,120,120,110,140,60,80,150,210,120,100,100,140,70,10,90,20,0,0,0,0,0,0,0,0,0,0,0,0,20,110,100,150,200,190,230,240,230,255,255,255,255,255,220,255,255,220,170,100,200,70,0,0,0,0,0
0,0,0,0,0,0,0,30,30,100,120,80,170,100,80,160,80,10,40,120,40,40,20,0,10,0,0,0,0,0,0,0,0,0,0,0,0,30,255,50,120,255,190,255,255,255,255,240,255,250,120,255,190,230,255,160,170,120,50,0,20,0,0,0
0,0,0,0,0,0,0,50,0,80,100,220,160,140,30,50,220,170,80,0,0,80,20,20,100,0,0,0,0,0,0,0,0,0,0,0,0,40,200,50,255,150,255,230,255,255,255,255,255,200,250,250,140,170,120,190,150,100,0,60,0,0,0,0
0,0,0,0,0,0,30,60,0,110,150,30,170,170,160,70,110,80,0,50,0,120,70,0,50,0,0,0,0,0,0,0,0,0,0,30,0,0,50,160,90,255,255,255,255,255,255,255,255,255,190,255,255,200,200,150,190,120,30,0,0,0,0,0
0,0,0,0,0,0,0,20,160,80,140,200,120,110,150,50,110,70,160,20,30,90,80,40,10,0,0,0,0,0,0,0,0,0,0,0,10,0,70,120,250,200,230,255,255,255,255,210,255,210,250,120,100,130,160,200,80,120,40,0,20,0,0,0
0,0,0,0,0,0,0,130,50,120,60,70,100,130,60,130,140,30,10,130,100,30,40,0,20,0,0,0,0,0,0,0,0,0,0,0,0,0,60,140,255,255,255,255,255,255,255,255,255,255,255,250,255,170,240,150,150,110,0,0,0,0,0,0
0,0,0,0,0,0,0,30,180,70,110,150,150,140,230,110,140,70,40,110,10,30,140,10,0,0,0,0,0,0,0,0,0,0,0,0,0,30,70,180,80,70,255,255,250,255,255,240,170,190,190,100,190,170,180,180,180,90,0,0,30,0,0,0
0,0,0,0,0,0,20,0,10,80,150,160,210,70,220,130,140,100,100,80,10,90,30,20,50,0,10,0,0,0,0,0,0,0,0,0,0,10,40,140,180,255,240,255,240,255,230,255,160,170,170,170,130,240,170,180,30,0,70,140,20,0,0,0
0,0,0,0,0,0,0,0,60,100,90,110,100,30,150,40,30,80,100,90,10,110,40,30,30,0,0,0,0,0,0,0,0,0,0,0,10,40,30,140,240,255,255,240,230,255,255,250,190,250,190,80,180,130,230,240,210,140,30,0,0,0,0,0
0,0,0,0,0,0,0,50,130,130,70,100,120,140,100,120,80,70,0,70,20,50,10,50,30,10,0,0,0,0,0,0,0,0,0,0,0,90,30,70,255,255,230,255,255,190,150,255,255,140,170,255,100,110,140,100,30,240,40,0,0,0,0,0
0,0,0,0,0,0,20,0,40,120,80,140,100,110,90,120,170,100,10,20,10,30,150,30,10,0,0,0,0,0,0,0,0,10,0,0,0,40,10,190,150,240,255,255,255,180,255,255,255,200,130,230,140,150,100,170,120,100,30,20,0,0,0,0
0,0,0,0,0,0,0,0,90,100,80,190,200,110,90,150,80,100,20,80,90,130,20,20,20,10,0,0,0,0,0,0,0,0,0,0,40,20,90,20,150,255,255,200,220,240,255,230,240,150,240,120,180,130,120,150,80,40,20,10,0,0,0,0
0,0,0,0,0,0,0,10,60,150,110,160,120,150,120,120,100,200,120,80,30,30,30,20,10,30,0,0,0,0,0,0,0,0,0,20,0,10,30,100,210,130,220,240,255,255,255,180,190,160,160,160,190,60,100,255,70,60,50,0,0,0,0,0
0,0,0,0,0,0,0,30,130,20,80,110,90,50,170,50,90,170,20,120,30,30,30,10,0,30,0,0,0,0,0,0,0,0,0,0,0,20,50,110,255,255,160,240,220,190,220,90,230,230,255,140,255,200,140,130,60,50,60,0,0,0,0,0
0,0,0,0,0,0,0,0,120,100,90,80,80,70,80,190,100,100,20,50,120,10,0,10,10,30,0,0,0,0,0,0,0,0,0,10,0,30,30,50,200,160,230,250,255,230,250,255,255,190,240,100,120,140,130,140,50,150,40,0,0,0,0,0
0,0,0,0,0,0,0,30,100,100,150,80,100,160,110,80,140,40,100,80,10,10,30,30,0,0,10,0,0,0,0,0,0,0,0,10,30,0,10,230,60,250,255,255,255,210,210,250,255,230,230,200,210,100,80,80,210,190,0,0,0,0,0,0
0,0,0,0,0,0,0,10,40,100,100,120,160,70,50,180,80,120,90,20,60,140,10,80,0,10,0,0,0,0,0,0,0,0,0,0,10,210,30,100,80,255,255,255,230,255,120,255,255,240,255,230,220,240,210,170,70,50,0,50,0,0,0,0
0,0,0,0,0,0,0,20,30,190,160,140,210,90,120,170,110,60,120,150,10,40,10,0,30,0,0,0,0,0,0,0,0,0,0,0,0,0,40,50,255,170,250,240,255,230,160,210,170,160,130,140,130,230,220,230,130,80,80,0,0,0,0,0
0,0,0,0,0,0,0,30,100,20,120,100,160,100,110,100,80,100,120,10,0,50,40,30,0,0,0,10,0,0,0,0,0,0,0,0,0,30,100,120,210,250,255,255,255,255,255,255,255,255,240,210,250,130,255,80,220,70,120,0,0,0,0,0
0,0,0,0,0,0,0,20,30,160,140,200,80,170,90,80,80,140,50,70,160,30,60,0,20,0,0,0,0,0,0,0,0,0,0,0,0,40,110,50,255,255,255,255,255,255,255,130,255,200,160,120,250,170,150,80,210,160,30,0,0,0,0,0
0,0,0,0,0,0,0,20,100,180,110,100,70,100,140,80,80,160,10,160,10,10,0,30,30,0,0,0,0,0,0,0,0,0,0,0,0,30,30,150,200,250,255,220,255,255,255,255,255,255,255,255,250,240,210,170,210,50,130,0,0,0,0,0
0,0,0,0,0,0,0,70,40,70,100,70,120,100,80,180,10,140,0,80,20,30,0,80,0,10,0,0,0,0,0,0,0,0,0,0,0,40,50,140,230,255,255,255,255,140,190,230,140,190,230,230,140,240,220,200,50,140,0,80,0,0,0,0
0,0,0,0,0,90,0,0,0,30,70,160,100,120,80,120,70,110,80,120,10,70,50,0,0,10,0,0,0,0,0,0,0,0,0,10,0,20,100,140,230,255,200,255,200,255,255,255,240,240,240,255,250,190,210,110,110,180,50,0,0,0,0,0
0,0,0,0,0,0,0,10,160,120,230,170,170,180,70,140,80,110,10,150,10,70,30,20,0,80,0,0,0,0,0,0,0,0,0,0,0,30,160,60,255,255,255,255,255,250,180,255,230,255,255,250,80,160,190,160,110,40,0,10,0,0,0,0
0,0,0,0,0,0,0,0,100,30,110,80,170,130,100,100,140,100,60,60,80,10,10,10,40,0,10,0,0,0,0,0,0,0,0,0,20,10,20,70,150,255,190,255,255,255,255,255,190,255,240,250,180,180,220,130,70,50,0,0,0,0,0,0
0,0,0,0,0,0,0,30,30,70,80,100,90,100,80,120,100,90,10,20,10,0,70,80,30,0,20,0,0,0,0,0,0,0,0,0,0,10,30,255,130,150,250,255,255,255,230,255,230,240,230,110,140,190,190,220,150,120,100,0,0,0,0,0
