0,0,0,0,0,0,0,2,23,32,26,25,26,19,25,16,10,13,14,11,7,16,17,14,13,4,2,0,0,0,0,0,0,0,0,0,12,18,16,20,23,22,21,23,24,23,23,24,29,23,23,26,19,26,15,25,21,0,18,7,0,0,0,0
0,0,0,0,0,0,1,17,5,13,5,10,8,13,14,12,7,13,17,13,8,12,12,7,4,1,8,0,0,0,0,0,0,12,0,0,16,27,32,26,24,22,27,22,26,26,24,27,23,26,23,25,21,19,16,22,19,16,0,0,0,0,0,0
0,0,0,0,0,0,1,2,15,5,8,15,14,15,12,9,12,10,12,11,12,10,9,8,9,4,6,0,0,0,0,0,0,0,0,0,0,0,3,19,17,9,22,20,23,20,25,20,23,21,25,21,12,25,25,12,18,18,7,0,0,0,0,0
0,0,0,0,0,0,0,0,40,5,33,30,21,23,10,10,11,16,13,11,15,13,8,8,3,0,4,0,0,0,0,0,0,0,0,0,0,0,0,13,19,17,10,26,24,26,25,21,20,26,21,27,19,23,19,10,15,21,0,0,0,0,0,0
0,0,0,0,0,0,0,10,0,6,14,9,7,9,13,13,13,11,10,12,12,14,11,4,10,5,1,0,0,0,0,0,0,0,0,0,0,0,1,1,25,25,21,24,25,26,22,31,30,17,25,19,17,19,18,17,19,21,0,0,0,0,0,0
0,0,0,0,0,0,0,3,6,15,8,14,14,13,14,15,11,9,14,14,10,8,7,7,5,8,2,0,0,0,0,0,0,0,0,0,0,0,0,22,22,26,27,25,26,21,24,30,28,23,27,14,16,20,26,8,14,21,0,0,0,0,0,0
15,0,0,0,0,0,0,21,17,7,31,17,8,9,9,15,9,8,7,7,13,14,10,12,14,5,0,0,0,0,0,0,0,0,0,0,18,0,21,18,20,26,30,27,31,25,26,25,23,26,26,26,28,23,19,22,9,17,0,0,0,0,0,0
0,0,0,0,0,0,0,0,16,10,42,31,26,19,26,10,12,15,16,18,15,12,17,16,0,6,2,0,0,0,0,0,0,0,0,0,21,0,14,28,24,21,18,25,27,26,20,25,28,18,23,23,25,23,24,11,20,21,7,0,0,0,0,0
0,0,0,0,0,0,1,21,19,31,28,32,24,26,13,18,16,12,15,9,11,17,14,14,10,5,12,0,0,0,0,0,0,0,0,0,0,1,19,5,16,20,25,22,24,29,23,24,25,27,22,27,25,21,20,21,21,17,0,0,0,0,0,0
0,0,0,0,0,0,1,3,9,21,18,9,13,10,16,13,12,11,14,7,13,12,10,14,4,2,0,0,0,0,0,0,0,0,0,0,0,0,17,1,26,14,27,20,27,19,26,33,29,25,21,22,25,22,17,24,8,8,0,0,0,0,0,0
0,0,0,0,0,0,0,1,12,3,31,9,12,16,10,15,15,12,12,12,10,13,11,12,0,3,6,0,0,0,0,0,0,0,0,0,0,1,6,20,25,16,24,14,29,25,24,28,25,15,27,20,22,16,23,23,0,0,0,13,0,0,0,0
0,0,0,0,0,0,0,3,8,9,14,11,14,15,12,14,11,13,10,13,12,8,7,14,9,0,0,2,0,0,0,0,0,0,0,0,0,1,3,9,21,24,24,28,30,23,23,26,23,30,23,26,20,25,22,16,21,7,16,0,0,0,0,0
0,0,0,0,0,0,1,0,5,7,16,9,14,9,16,9,11,13,11,10,8,10,8,17,5,3,0,0,0,0,0,0,0,0,0,0,0,0,0,7,19,23,20,24,24,26,25,28,22,19,16,19,17,16,25,13,25,17,21,0,0,0,0,0
0,0,0,0,0,1,0,2,5,15,8,12,10,12,10,12,12,9,12,14,14,16,14,12,3,2,8,0,0,0,0,0,0,0,0,0,0,2,7,0,25,10,23,23,27,24,30,27,23,27,16,23,16,20,17,17,15,12,5,0,0,0,0,0
0,0,0,0,0,0,1,3,5,8,13,8,7,10,14,9,13,11,12,9,12,13,14,16,10,6,0,0,0,0,0,0,0,0,0,0,0,0,2,9,17,24,26,16,27,18,32,28,25,30,25,26,23,15,23,23,17,7,16,0,0,0,0,0
0,0,0,0,0,0,1,0,5,12,15,14,14,12,13,10,14,16,12,11,12,12,14,10,4,1,0,10,0,0,0,0,0,0,0,0,0,0,0,28,3,30,27,20,23,22,31,16,18,23,26,21,22,23,22,10,19,11,0,0,0,0,0,0
0,0,0,0,0,0,0,1,5,8,9,11,15,17,17,10,49,4,12,8,7,5,10,5,2,2,1,0,0,0,0,0,0,0,0,0,0,0,0,14,3,28,27,29,18,21,17,21,21,21,19,17,21,19,21,14,16,0,8,0,0,0,0,0
0,0,0,0,0,0,1,32,43,23,8,8,10,8,7,7,14,12,12,8,8,7,6,11,9,3,0,0,0,0,0,0,0,0,0,0,0,0,0,30,30,17,19,17,24,18,20,20,16,23,18,16,21,17,24,18,18,12,11,0,0,0,0,0
0,0,0,0,0,0,0,37,33,43,32,33,10,27,18,21,7,9,10,8,10,5,5,3,9,3,1,0,0,0,0,0,0,0,0,0,0,0,0,3,21,18,17,20,22,22,20,21,19,15,21,17,19,19,17,17,15,16,0,0,0,0,0,0
0,0,0,0,0,0,0,0,12,19,5,7,9,15,16,11,12,7,8,7,9,5,9,5,3,5,0,0,0,0,0,0,0,0,0,0,0,0,0,11,4,18,21,22,27,25,19,23,15,26,16,19,21,21,19,17,16,15,9,0,0,0,0,0
0,0,0,0,0,0,3,0,3,3,8,13,7,15,15,9,10,12,9,14,16,12,13,15,11,2,2,0,0,0,0,0,0,0,0,0,0,1,0,17,22,19,14,23,26,23,22,18,22,21,22,18,19,20,21,17,13,7,7,0,0,0,0,0
0,0,0,0,0,0,1,1,3,15,14,8,10,14,14,15,10,14,8,14,9,7,7,7,4,5,2,0,0,0,0,0,0,0,0,0,0,0,0,1,18,23,25,23,19,27,21,20,25,21,13,21,20,13,17,20,0,2,13,0,0,0,0,0
0,0,0,0,0,0,0,2,2,3,5,14,12,10,11,9,10,14,13,7,7,7,5,4,5,3,0,0,0,0,0,0,0,0,0,0,0,0,4,11,13,8,17,20,21,22,21,26,21,24,21,20,17,18,19,21,9,13,0,0,0,0,0,0
0,0,0,0,0,0,0,1,2,5,7,14,9,11,8,10,9,9,4,10,8,8,4,8,3,2,1,0,0,0,0,0,0,0,0,0,0,3,0,15,8,17,21,23,19,25,23,23,16,21,20,20,22,16,5,20,0,13,1,0,7,0,0,0
0,0,0,0,0,0,1,1,3,12,4,10,8,10,12,12,11,9,9,10,9,14,8,6,3,1,0,0,0,0,0,0,0,0,0,0,0,0,5,3,14,16,22,19,23,27,14,23,19,16,22,12,17,15,20,16,18,0,0,0,0,0,0,0
0,0,0,0,0,0,0,0,1,9,9,10,9,10,12,9,16,8,8,8,13,8,13,9,7,3,1,0,0,0,0,0,0,0,0,0,0,0,0,5,17,18,21,23,28,17,25,25,19,20,22,17,16,17,18,10,17,8,7,0,0,0,0,0
0,0,0,0,0,0,0,6,3,6,10,11,12,15,13,11,14,9,10,10,9,9,11,3,7,7,0,6,0,0,0,0,0,0,0,0,0,0,6,15,1,17,16,22,24,18,21,27,21,21,19,19,16,14,17,19,16,0,0,0,0,0,0,0
0,0,0,0,0,0,0,3,3,8,9,8,12,9,11,12,13,8,14,12,8,8,9,14,14,1,3,0,0,0,0,0,0,0,0,0,0,0,8,0,23,15,19,25,17,22,23,29,22,17,22,22,5,16,23,9,14,15,0,0,0,0,0,0
0,0,0,0,0,0,0,3,5,9,11,12,14,16,11,16,16,11,11,12,10,8,10,7,10,6,1,0,0,0,0,0,0,0,0,0,0,0,0,13,23,16,24,25,19,20,25,17,26,21,21,15,16,16,13,0,20,10,0,0,0,0,0,0
0,0,0,0,0,0,1,0,4,9,10,11,12,17,17,15,16,13,12,12,14,9,12,13,11,0,4,0,0,0,0,0,0,0,0,0,0,0,2,8,16,13,25,23,24,20,26,27,25,22,24,23,19,14,10,20,22,13,8,0,0,0,0,0
0,0,0,0,0,0,0,1,5,9,15,10,8,16,12,12,13,12,11,12,10,11,11,12,11,4,1,0,0,0,0,0,0,0,0,0,0,0,7,2,17,18,19,21,18,25,17,19,19,25,15,1,21,23,0,14,18,8,0,0,0,0,0,0
0,0,0,0,0,0,1,4,1,9,13,12,14,11,16,10,12,13,12,10,10,10,7,9,0,5,2,0,0,0,0,0,0,0,0,0,1,0,0,0,12,18,17,18,22,26,20,27,21,23,22,17,23,18,21,10,17,12,0,0,0,0,0,0
0,0,0,0,0,0,4,0,4,8,7,13,13,11,11,14,14,14,15,13,12,10,15,12,10,4,0,3,0,0,0,0,0,0,0,0,0,2,1,9,16,15,18,23,28,20,25,19,16,22,15,23,21,15,18,17,19,12,12,0,0,0,0,0
0,0,0,0,0,0,0,1,8,6,13,14,13,14,11,10,15,12,9,11,10,9,12,4,9,5,0,0,0,0,0,0,0,0,0,0,0,0,5,1,17,14,22,19,24,19,26,25,27,17,18,17,10,0,16,21,0,0,0,0,0,0,0,0
0,0,0,0,0,0,3,0,4,5,17,21,12,17,15,12,10,13,16,14,11,13,17,5,9,0,0,0,0,0,0,0,0,0,0,0,0,0,10,4,7,17,15,18,25,22,23,26,25,14,15,7,20,16,0,18,21,0,15,0,0,0,0,0
0,0,0,0,0,0,0,1,5,10,12,17,13,12,13,14,12,13,15,13,12,12,10,5,12,12,0,0,0,0,0,0,0,0,0,0,0,0,1,16,3,18,23,23,23,10,24,24,17,25,18,1,0,19,0,17,19,0,13,0,0,0,0,0
0,0,0,0,0,0,0,3,3,11,12,15,12,15,11,17,14,13,15,10,7,10,10,14,8,5,7,0,0,0,0,0,0,0,0,0,0,0,7,2,15,21,22,16,23,24,22,19,26,20,17,22,18,18,14,11,15,0,0,0,0,0,0,0
0,0,0,0,0,0,0,3,9,4,10,13,12,15,15,14,15,11,14,8,14,11,7,9,8,0,3,0,0,0,0,0,0,0,0,0,0,0,3,0,14,15,19,21,24,24,16,24,26,10,17,0,16,9,4,0,0,0,0,0,0,0,0,0
0,0,0,0,0,0,3,0,2,9,17,13,8,12,15,18,14,10,13,11,7,8,16,11,7,8,2,0,0,0,0,0,0,0,0,0,0,0,0,0,16,21,21,23,16,22,23,22,26,19,5,22,20,17,16,17,8,15,0,0,0,0,0,0
0,0,0,0,0,0,0,1,3,15,13,15,12,14,14,15,13,10,14,9,12,10,8,12,5,7,0,0,0,0,0,0,0,0,0,0,0,0,7,1,17,20,17,28,19,20,25,21,18,25,1,15,20,0,15,19,10,1,0,1,0,0,0,0
0,0,0,0,0,0,1,1,4,15,8,13,20,17,10,14,11,12,13,10,14,17,14,9,8,5,2,2,0,0,0,0,0,0,0,0,0,10,0,4,23,14,23,22,21,22,30,21,26,18,15,21,14,16,19,18,0,16,0,0,0,0,0,0
0,0,0,0,0,0,1,0,5,16,7,15,16,13,13,14,8,12,11,10,10,10,11,7,9,5,7,0,0,0,0,0,0,0,0,0,0,0,8,14,0,18,18,21,19,12,26,21,17,16,20,21,18,0,17,19,9,1,0,0,0,0,0,0
0,0,0,0,0,0,0,2,3,8,17,12,16,14,18,12,17,12,9,13,10,11,7,17,7,7,0,0,0,0,0,0,0,0,0,0,1,1,0,9,16,15,19,24,21,23,23,21,23,12,25,17,10,20,19,20,1,17,0,0,0,0,0,0
0,0,0,0,0,3,0,0,4,5,17,12,19,13,13,17,17,9,19,11,6,12,9,10,0,9,1,0,0,0,0,0,0,0,0,0,0,0,0,0,16,19,22,22,21,20,20,21,27,23,20,20,18,10,20,20,5,9,0,0,0,0,0,0
0,0,0,0,0,0,0,13,1,13,14,16,14,15,17,14,11,12,12,9,9,10,15,9,7,0,0,0,0,0,0,0,0,0,0,0,0,0,0,11,17,20,23,23,27,22,25,10,26,8,17,20,21,19,22,19,18,16,0,0,0,0,0,0
0,0,0,0,0,0,0,1,3,11,13,14,12,12,16,13,16,13,12,14,11,10,11,10,6,5,2,0,1,0,0,0,0,0,0,0,0,0,0,7,16,18,23,26,21,26,24,21,24,19,21,0,21,23,17,16,5,17,0,0,3,0,0,0
0,0,0,0,0,0,2,0,12,3,12,13,12,12,12,14,10,13,9,12,9,13,7,12,9,11,1,2,0,0,0,0,0,0,0,0,0,0,7,8,17,20,27,21,19,23,20,22,24,22,25,22,18,17,23,19,19,14,12,0,0,0,0,0
0,0,0,0,0,0,0,2,8,3,12,13,13,16,10,20,12,18,10,15,14,9,12,11,7,1,1,0,0,0,0,0,0,0,0,0,0,1,8,3,16,17,24,25,21,21,18,24,21,21,11,23,9,18,17,0,12,5,0,0,0,0,0,0
0,0,0,0,0,0,0,1,24,14,12,15,19,14,17,17,16,15,14,12,12,8,14,10,12,6,0,0,0,0,0,0,0,0,0,0,0,0,4,10,14,21,18,17,25,22,27,21,17,18,24,16,21,17,20,17,18,15,3,10,0,0,0,0
0,0,0,0,0,0,0,2,4,12,7,12,16,17,16,16,16,16,14,16,13,13,10,12,4,10,5,0,0,0,0,0,0,0,0,0,0,0,2,16,9,15,17,19,22,25,19,12,24,21,20,23,23,23,19,13,17,17,10,0,0,0,0,0
