0,0,0,0,0,0,141,0,0,126,0,0,0,0,0,0,0,0,0,0,129,0,0,0,3,0,0,0,0,0,0,6,0,0,0,0,75,0,0,45,0,0,0,3,0,3,0,0,0,0,0,0,0,0,3,0,0,0,0,0,0,0,0,6
0,0,87,0,0,0,0,0,105,0,0,0,0,0,0,0,0,135,0,0,0,0,0,0,0,0,0,0,0,0,9,3,3,0,0,3,12,9,6,36,3,3,0,0,0,0,0,0,0,3,0,0,0,0,0,0,0,0,0,0,0,6,0,42
0,9,0,0,3,0,0,0,111,0,0,0,0,0,0,0,0,0,0,0,0,0,0,0,0,0,0,0,0,9,0,3,0,3,0,0,0,3,3,9,6,0,0,0,0,3,0,0,0,0,0,0,0,0,0,0,0,0,3,0,0,0,15,0
0,3,0,0,0,0,0,0,0,96,120,132,0,0,0,0,0,0,0,0,0,0,9,0,0,0,0,0,3,0,0,0,3,0,0,3,0,111,69,45,0,51,3,36,0,0,0,33,0,0,0,0,0,0,3,0,0,0,0,0,0,0,0,0
0,0,0,0,3,87,0,63,0,144,0,0,0,0,0,0,0,0,0,0,0,0,0,0,0,0,0,0,3,0,3,3,0,0,0,3,0,54,6,24,9,54,0,0,3,0,0,0,0,3,0,0,0,0,102,0,0,0,0,0,0,0,0,9
0,0,0,0,0,0,0,114,0,102,0,120,0,0,0,0,0,0,0,0,0,0,0,0,0,0,0,0,0,0,3,0,3,0,0,6,21,6,6,3,33,0,0,0,0,9,0,123,0,0,0,0,0,0,0,0,0,0,0,0,9,0,0,0
0,0,0,0,0,0,90,132,111,0,0,0,0,0,0,0,0,0,0,0,0,0,0,0,0,0,0,0,0,3,3,3,3,0,0,3,0,12,6,15,3,0,0,0,0,0,0,126,0,0,0,0,0,0,0,0,0,0,0,0,0,0,0,0
9,0,0,0,0,0,3,0,141,0,108,0,0,0,0,0,0,0,0,3,0,0,138,0,0,0,0,0,0,9,0,0,0,0,3,0,3,3,0,42,0,120,0,6,3,0,0,0,0,0,0,0,0,0,0,0,0,0,0,0,0,0,0,0
3,0,0,0,9,0,0,129,0,144,6,0,0,0,0,0,0,0,0,0,0,0,0,0,0,0,0,0,0,9,0,0,0,24,0,12,3,3,9,9,90,3,3,3,141,126,0,0,0,0,0,0,0,0,0,0,0,0,0,3,0,0,0,0
0,0,3,0,0,0,141,126,39,99,3,0,0,0,0,0,0,0,0,0,0,0,0,0,0,0,0,0,0,6,0,0,0,0,0,0,3,102,3,3,48,0,3,0,3,141,0,0,0,0,0,0,3,0,0,0,0,0,0,0,0,0,0,0
0,0,0,0,0,132,0,123,0,96,141,0,0,0,0,0,0,0,9,0,3,0,0,0,0,0,0,0,0,0,3,0,0,3,0,6,9,0,0,87,48,48,0,0,0,0,129,0,0,0,0,3,0,0,0,0,0,0,0,0,0,0,0,3
9,0,0,30,0,0,0,84,0,0,90,0,0,0,3,0,0,0,0,99,0,0,0,0,0,0,0,0,0,12,0,0,0,0,3,9,3,9,48,87,3,0,0,0,3,0,0,0,0,0,0,0,0,138,0,0,0,0,0,9,0,0,3,0
0,78,0,0,0,0,0,30,0,96,0,0,0,0,0,0,0,0,0,0,0,0,0,0,0,0,0,0,3,0,0,3,0,0,3,3,3,0,15,117,0,0,0,0,0,0,0,0,0,0,0,0,3,0,0,0,0,0,0,0,0,3,0,27
0,0,0,0,0,3,0,102,0,0,0,0,0,0,138,0,0,0,0,3,0,0,0,0,0,0,0,0,0,3,6,3,3,21,9,0,0,9,3,93,3,0,60,30,0,0,0,0,0,0,0,0,0,0,0,0,0,0,0,0,0,0,0,0
3,0,0,0,0,0,0,0,90,126,0,0,0,0,0,135,0,0,0,0,0,0,0,0,0,0,0,0,3,0,0,6,0,0,0,0,9,9,123,6,3,141,57,0,0,0,0,0,0,0,0,0,0,0,0,0,0,0,9,0,3,0,3,0
0,0,0,0,0,0,0,0,120,105,0,0,0,144,0,0,132,0,0,0,0,0,0,0,0,0,0,0,3,0,24,0,0,0,0,15,0,3,96,42,126,0,0,0,3,0,0,0,141,0,0,0,0,0,3,0,0,0,0,0,0,0,0,0
0,0,0,0,105,0,0,0,138,0,0,0,0,0,0,0,0,0,0,3,0,0,0,0,0,0,0,0,3,0,9,0,0,0,3,0,3,6,3,96,60,0,0,3,3,0,0,0,9,0,0,0,0,0,0,0,0,0,0,0,0,0,6,0
3,0,0,0,0,0,3,0,138,0,0,0,0,9,0,126,0,0,0,0,0,0,0,0,0,0,0,0,0,9,0,0,0,0,0,0,0,6,105,18,0,138,0,9,0,0,0,0,0,0,0,0,0,0,0,0,0,0,0,0,3,0,9,0
0,0,0,0,0,0,0,0,0,111,0,0,0,0,0,0,129,0,0,0,0,0,0,0,3,0,0,0,0,0,3,3,15,3,0,0,0,3,6,0,114,0,45,0,0,0,0,0,0,0,0,129,0,3,0,0,0,0,0,0,0,3,0,0
0,0,0,0,0,0,0,3,123,0,0,0,0,0,0,0,0,0,0,3,0,0,0,0,0,0,0,0,0,0,0,0,3,9,0,6,0,9,3,6,9,0,3,0,0,0,129,0,0,0,9,0,0,0,0,0,0,0,0,0,3,0,0,0
0,0,0,0,0,0,0,0,111,0,0,0,0,0,51,0,0,0,0,0,0,0,15,0,0,0,0,0,0,3,0,0,3,12,0,6,0,0,105,48,3,3,6,0,3,69,0,0,0,0,0,0,0,3,0,0,0,0,3,0,0,0,0,15
0,0,0,21,0,0,0,0,0,102,0,0,0,0,0,0,0,30,0,0,0,0,0,0,0,3,0,3,0,0,0,0,0,0,0,0,6,102,3,9,0,0,36,0,0,0,0,0,0,0,0,0,0,0,3,0,0,0,0,0,0,0,0,0
0,0,0,0,9,3,0,3,0,102,108,0,0,0,0,0,0,126,3,0,0,0,0,0,0,0,0,0,0,3,0,15,3,9,0,0,9,0,36,3,6,6,0,3,0,0,0,0,0,0,0,0,0,0,0,0,0,0,0,0,0,0,9,3
3,0,0,0,0,0,0,0,0,102,0,0,135,0,0,3,0,0,126,0,0,0,0,0,0,0,0,0,0,0,0,9,3,3,0,6,0,63,96,60,0,3,3,0,0,0,0,0,0,0,0,0,0,0,0,0,0,0,0,3,0,0,9,0
0,0,0,0,0,0,0,138,0,84,3,0,0,0,0,0,0,0,0,0,120,0,0,9,0,0,0,0,0,9,3,3,0,0,0,0,6,0,102,54,3,6,141,0,3,0,0,0,0,0,0,0,0,0,0,0,3,0,0,0,0,0,0,3
0,0,0,0,9,129,12,0,3,96,0,0,0,0,0,0,0,0,123,0,0,0,0,0,0,0,0,0,0,0,3,0,3,0,0,9,0,3,12,93,6,3,0,132,0,0,0,0,0,9,0,0,0,0,0,0,0,0,0,0,0,0,0,0
9,0,0,0,3,0,9,0,102,0,0,132,0,0,0,0,0,0,0,0,0,0,0,0,0,0,0,0,0,12,0,0,0,3,0,0,0,3,3,123,3,51,0,0,12,0,0,0,0,0,0,0,0,0,0,0,0,0,0,0,3,0,0,0
0,0,0,0,0,0,63,0,102,141,0,0,0,0,0,0,0,0,0,0,0,0,0,0,3,0,0,0,0,3,0,0,0,0,0,0,0,3,3,39,57,0,3,0,0,138,6,0,0,0,0,0,0,0,3,0,0,0,0,0,0,0,0,0
0,0,0,0,51,3,0,0,0,99,0,126,0,0,0,0,0,0,0,3,0,0,0,0,0,0,0,0,0,0,3,6,0,0,0,9,15,3,15,12,54,0,0,3,0,0,0,3,30,9,0,0,0,0,0,87,0,0,0,0,0,0,3,12
0,30,0,0,90,0,3,0,3,0,3,105,0,126,0,0,0,0,0,0,0,0,0,0,0,0,0,0,3,3,0,3,0,0,0,0,0,3,123,9,6,15,0,0,3,0,0,63,0,0,0,0,0,0,0,0,0,0,0,3,0,0,0,0
0,0,0,3,0,3,0,27,0,84,3,0,0,144,0,0,0,0,0,0,0,0,0,0,3,0,0,0,0,0,3,3,3,3,0,3,3,3,3,48,0,0,0,0,0,0,0,0,96,0,0,0,0,0,9,0,138,0,0,0,0,0,0,0
63,0,0,0,0,9,0,126,0,0,0,0,0,0,0,0,0,0,138,0,0,0,0,0,0,0,0,0,0,0,3,0,0,0,3,0,0,6,51,3,3,6,0,0,129,135,0,0,0,12,123,0,0,0,0,0,0,0,0,0,0,0,0,0
0,78,0,0,0,24,126,0,0,0,0,0,0,0,0,0,0,0,0,0,0,0,3,0,0,0,0,0,0,12,3,9,0,0,0,3,0,21,6,3,42,6,0,0,9,0,0,0,126,0,0,0,0,0,0,0,0,0,3,0,0,0,3,3
0,0,0,0,48,0,0,0,0,96,0,0,0,0,141,0,0,0,0,0,0,0,0,0,3,0,0,0,9,0,0,3,0,0,3,9,3,63,0,12,48,0,0,0,0,0,9,0,0,0,0,0,0,0,0,0,0,0,0,0,0,0,0,3
0,0,0,0,3,99,0,0,0,0,90,0,0,0,0,0,0,123,0,0,0,0,0,0,0,0,0,0,0,0,0,0,0,0,3,0,3,3,3,3,3,0,3,0,0,0,0,0,0,0,0,0,0,0,0,0,0,0,0,0,0,0,6,3
6,0,0,0,0,54,6,0,0,90,0,0,0,3,0,0,0,0,0,0,0,0,0,0,0,0,0,0,0,15,0,0,0,0,3,0,6,15,9,6,63,0,3,3,0,6,138,0,0,0,0,0,0,0,0,0,69,0,0,3,0,21,0,0
0,0,0,0,54,0,0,9,93,3,0,0,0,0,0,0,0,0,0,0,0,0,0,0,9,0,0,0,6,0,0,0,0,0,0,12,0,3,0,51,15,0,117,0,114,0,0,0,0,0,0,0,0,0,0,0,0,0,0,0,0,15,0,0
0,0,0,0,9,6,132,0,0,102,0,0,0,0,0,0,0,0,0,0,0,0,0,0,0,0,0,0,0,0,0,3,3,0,0,0,9,3,9,78,105,0,0,0,3,0,129,0,0,0,0,0,0,0,0,0,0,0,0,0,0,0,0,9
3,0,0,0,3,0,126,0,0,0,0,87,0,0,0,0,0,0,0,0,0,0,0,0,0,0,0,0,0,6,0,0,3,6,0,9,0,6,3,6,138,3,0,0,3,0,0,129,0,0,0,0,0,0,0,0,0,0,0,3,0,6,0,0
3,0,0,0,0,54,0,0,0,138,0,0,0,0,0,0,0,0,0,0,0,96,0,9,0,0,0,0,0,3,0,0,0,0,0,33,9,0,6,9,3,141,3,0,3,0,0,0,0,0,0,0,0,0,3,0,0,0,0,0,0,0,0,0
0,0,0,3,3,0,0,0,0,141,96,0,0,0,0,0,0,0,0,0,0,0,0,0,0,0,0,0,0,0,3,3,0,0,0,0,0,9,138,6,60,3,0,0,0,0,0,0,0,3,0,0,0,0,0,126,0,0,0,0,0,0,9,0
0,0,0,0,3,0,0,0,0,90,0,0,129,0,9,0,0,0,0,0,0,0,0,129,0,0,0,0,9,0,15,6,0,0,0,0,0,12,6,138,63,6,0,3,3,0,0,0,0,0,0,0,0,0,0,0,0,3,0,0,0,6,3,0
0,0,0,0,3,0,0,0,9,75,129,0,0,0,0,0,0,0,0,0,0,0,0,0,9,0,0,0,0,0,6,0,3,0,6,102,0,12,0,9,60,0,0,0,0,0,0,0,30,0,0,0,0,0,3,96,0,0,0,0,0,3,0,0
9,60,0,0,0,3,0,0,0,102,0,0,48,0,0,0,0,0,0,3,0,0,0,0,0,126,0,0,0,9,0,66,0,9,0,0,9,3,9,9,63,30,3,0,0,0,0,0,0,0,3,0,0,0,0,0,0,96,0,0,0,0,0,9
0,3,0,3,0,6,0,0,138,99,144,0,0,0,111,0,0,0,0,0,0,0,0,0,0,0,0,0,0,0,3,3,30,0,0,3,3,3,27,126,63,0,0,132,3,0,0,0,0,0,0,0,0,0,0,0,0,0,0,0,0,0,0,0
0,0,0,0,0,0,0,0,144,3,0,0,0,0,0,0,0,135,0,0,0,0,0,3,0,0,0,0,0,3,0,0,3,12,0,6,6,0,9,141,6,27,0,0,0,0,0,0,0,0,0,0,0,0,3,0,0,0,0,0,3,0,0,21
0,0,0,0,0,3,3,45,105,0,108,0,144,0,0,0,0,0,0,3,0,0,0,0,0,0,0,0,0,0,0,0,3,0,3,9,0,3,57,129,6,3,0,3,138,0,0,0,0,0,0,0,0,0,0,0,0,0,0,0,0,0,0,9
0,0,0,0,0,0,78,141,0,0,99,0,0,0,0,0,0,0,0,0,0,0,0,0,0,0,0,0,9,0,0,9,0,6,0,51,0,114,9,0,63,3,3,0,6,33,0,15,0,0,0,0,0,0,0,0,0,3,0,0,0,3,0,0
0,0,0,0,138,0,0,0,0,0,102,0,0,0,0,0,0,0,0,0,0,0,0,0,9,0,0,0,0,3,6,0,0,3,0,36,9,3,6,3,66,60,0,0,0,0,0,0,0,0,0,138,0,3,9,0,0,0,0,0,0,0,0,6
0,0,84,0,0,3,3,0,0,0,0,0,0,0,0,0,0,0,0,0,0,0,0,0,0,0,0,0,0,3,0,0,9,3,0,0,3,3,9,3,57,75,138,132,3,0,0,0,0,0,0,0,0,0,0,0,0,0,0,0,3,0,9,6
