0,0,0,255,182,84,255,63,42,255,0,0,0,0,0,133,105,0,21,0,0,0,0,255,0,0,0,0,0,140,21,0,0,189,0,98,70,196,56,84,255,35,0,255,84,98,0,0,0,91,0,14,0,0,0,0,0,0,0,0,0,0,0,0
0,255,0,168,0,0,56,255,196,0,0,224,98,255,0,0,0,0,231,0,0,0,21,70,0,0,0,0,0,0,0,224,255,84,0,0,0,119,0,255,0,231,0,70,147,147,0,255,0,0,189,0,0,0,0,0,0,0,0,0,0,0,255,0
0,14,119,0,0,255,210,98,255,7,231,7,0,7,255,140,0,0,0,0,0,255,0,0,0,0,0,133,0,0,0,7,0,238,0,224,0,255,91,0,255,0,255,21,84,255,224,0,0,0,0,0,0,7,0,0,0,0,0,0,0,0,0,0
255,0,0,0,133,255,0,252,84,0,231,105,0,0,0,210,112,0,231,0,0,0,0,255,0,0,0,0,0,0,49,255,0,0,0,112,0,56,161,0,14,255,14,0,0,252,0,119,0,0,0,0,0,0,119,0,0,0,0,0,0,0,0,0
0,0,0,0,0,0,255,255,255,70,255,21,255,0,0,0,119,0,0,0,0,0,0,0,0,0,0,0,0,0,0,161,7,7,0,255,0,175,0,175,238,255,255,255,91,255,0,91,0,0,0,0,0,175,0,0,0,0,0,0,0,0,21,255
0,0,112,126,0,98,168,140,7,140,255,0,0,147,255,14,0,0,0,0,0,0,0,0,0,0,0,0,0,0,161,255,147,0,255,0,0,0,161,0,255,0,35,255,245,0,196,119,0,0,0,0,0,0,147,0,0,0,0,0,0,0,0,0
0,255,255,0,35,255,0,255,49,0,0,255,0,147,154,70,255,0,0,0,255,0,0,0,0,0,0,0,0,0,0,0,255,0,0,56,0,255,182,140,105,0,255,255,0,0,0,255,0,70,0,0,0,0,0,0,0,0,0,0,0,0,0,0
0,0,255,0,154,0,255,70,7,255,255,255,255,175,91,0,245,0,0,0,0,0,0,0,0,0,0,0,0,0,0,0,112,63,255,105,0,0,42,255,255,35,0,182,14,0,0,255,0,0,0,0,0,0,0,0,0,0,0,0,0,0,0,182
0,0,0,0,0,255,203,14,147,210,119,255,196,0,255,0,231,0,0,0,0,0,0,0,0,0,0,0,0,0,0,133,0,0,0,0,147,35,119,0,231,255,98,63,0,14,0,0,49,0,0,0,196,7,0,0,0,0,0,0,0,0,0,0
0,255,0,0,21,168,255,255,0,255,0,21,0,255,0,126,0,0,0,224,0,0,0,0,0,0,0,0,0,0,0,35,0,0,224,0,0,255,255,0,84,0,255,0,255,255,231,0,0,0,0,0,0,0,0,0,0,0,0,0,0,0,0,0
0,0,0,182,0,210,0,255,91,0,133,0,21,0,0,0,0,0,0,255,56,0,0,21,0,0,0,0,0,0,255,28,161,0,0,0,154,0,56,255,255,0,255,0,35,196,0,0,0,0,0,0,0,0,0,0,0,0,0,0,0,0,0,255
0,0,0,0,0,161,252,56,238,84,255,255,154,0,0,84,0,91,0,0,0,255,0,56,0,0,0,0,0,0,0,255,255,0,0,0,255,0,63,49,98,255,210,255,0,255,0,0,0,0,0,21,0,0,0,0,0,0,0,0,0,0,196,0
0,0,0,0,14,255,255,255,7,0,98,0,255,42,56,0,255,0,28,0,0,255,0,0,0,0,0,0,0,35,0,42,0,161,0,0,0,189,255,255,168,255,255,224,112,255,224,0,0,0,28,0,0,0,0,0,0,0,0,0,0,0,0,0
255,0,119,0,224,0,28,14,70,7,21,255,255,0,7,0,70,0,0,0,0,161,255,0,0,0,0,0,21,0,0,255,0,0,0,175,231,0,255,182,203,182,14,0,42,0,245,0,0,28,0,0,0,255,0,0,0,0,0,0,0,0,0,255
0,182,0,0,0,161,91,49,7,0,224,255,255,42,255,252,0,0,0,0,0,0,0,0,0,0,0,0,0,0,0,119,0,0,0,161,0,112,42,112,255,70,21,49,255,0,161,0,0,0,0,0,0,0,0,0,0,0,0,0,0,210,0,0
0,0,196,0,0,70,0,255,7,255,21,0,119,255,0,255,0,224,0,0,0,0,0,0,0,0,0,0,0,0,0,224,0,0,0,182,147,255,84,255,49,245,63,255,255,0,0,210,0,0,0,0,0,0,252,0,0,0,0,0,0,0,0,0
0,255,0,0,255,126,112,77,84,0,255,7,0,63,255,0,0,0,0,0,0,0,0,0,0,0,0,0,0,0,0,28,35,0,255,217,0,231,0,255,255,21,255,112,7,255,0,0,21,7,0,0,161,0,0,0,0,0,0,0,0,0,0,255
255,0,0,231,0,119,245,0,196,35,0,147,255,0,255,255,210,0,0,0,255,0,245,0,0,0,0,0,0,0,0,255,0,255,7,0,0,0,224,255,182,255,70,210,255,49,0,42,0,0,0,0,0,0,0,0,0,0,14,0,0,0,0,217
0,0,0,0,231,0,154,14,255,126,49,255,7,0,0,0,210,189,0,0,0,0,0,0,84,0,0,0,0,0,0,0,0,175,255,14,0,0,14,255,0,0,255,21,255,255,70,0,255,0,0,0,0,0,0,0,0,0,0,0,0,0,0,0
255,0,255,210,168,56,0,28,140,140,255,21,0,255,0,255,0,255,0,0,252,0,0,0,0,0,0,0,161,0,77,0,0,63,0,28,0,168,147,210,0,0,21,255,255,255,56,0,0,0,0,0,0,7,0,0,0,0,0,0,0,0,0,0
0,0,0,255,0,0,0,35,255,14,91,196,14,0,255,255,0,0,0,0,231,0,0,0,0,0,0,0,0,0,255,0,70,210,0,133,182,49,231,231,119,0,14,84,255,255,255,0,112,252,0,0,0,0,0,0,0,0,0,0,0,0,0,0
255,0,0,252,255,255,224,7,112,0,91,0,28,182,0,0,0,0,203,255,0,0,0,0,0,0,0,0,0,0,0,255,0,0,0,133,0,0,35,7,255,255,14,105,0,245,14,0,0,0,0,0,0,154,0,0,0,0,0,0,0,0,0,147
0,0,231,0,189,0,255,35,255,147,7,14,14,0,112,0,0,0,0,189,91,35,0,0,0,0,0,0,0,0,77,0,49,182,0,0,35,224,21,255,84,255,255,7,133,255,224,0,7,0,0,0,0,0,0,182,0,0,0,0,0,0,0,0
0,133,112,255,0,255,238,0,0,35,119,231,0,196,255,0,154,0,0,255,0,0,161,0,0,21,0,0,0,0,91,105,0,140,0,0,189,49,224,70,0,231,21,84,0,252,175,255,0,0,0,0,196,0,255,0,0,0,0,0,0,0,0,0
0,217,0,210,98,7,56,255,210,231,0,255,91,0,0,255,112,0,196,28,0,0,0,0,0,0,0,0,0,245,0,0,0,245,0,91,189,84,0,126,255,255,147,7,255,0,14,0,182,21,0,255,35,0,0,0,0,0,0,0,0,0,0,0
0,0,255,196,0,0,255,255,91,119,7,70,255,0,0,0,217,0,0,0,0,0,0,0,0,0,0,0,0,0,70,0,0,14,154,0,112,42,77,255,175,255,21,49,252,7,0,84,0,0,0,0,0,21,28,0,0,0,84,0,0,0,0,252
0,0,0,0,0,255,0,255,63,255,0,255,0,126,0,0,0,119,49,0,182,0,0,0,0,0,0,0,0,0,0,203,84,0,63,0,98,112,0,168,224,255,21,56,14,255,0,0,255,255,0,0,0,0,0,0,203,0,0,0,0,0,0,161
0,0,0,217,231,255,0,252,7,255,154,0,168,0,0,0,255,210,0,0,0,0,0,0,0,0,0,0,0,0,35,147,49,0,21,14,0,112,161,0,255,245,255,0,119,0,0,217,0,245,49,0,0,7,0,0,0,0,0,0,0,0,0,0
0,0,0,0,255,119,252,0,255,35,217,255,255,0,0,182,224,0,0,0,0,0,0,0,0,0,0,0,0,0,0,0,245,0,0,0,0,0,224,161,255,255,91,112,140,245,0,255,0,0,0,0,0,0,0,0,0,0,0,0,0,0,0,119
0,0,217,49,0,0,255,77,42,182,0,255,0,154,255,0,0,0,255,255,0,0,0,0,0,0,0,0,0,0,0,105,0,126,0,0,0,255,182,0,255,175,0,56,252,245,0,28,0,0,21,0,0,0,0,0,0,0,0,0,0,0,0,0
245,182,0,255,0,56,14,255,35,14,255,0,255,49,255,147,0,0,133,0,255,0,0,0,0,0,0,0,0,0,70,255,0,0,0,238,255,0,14,224,245,133,182,42,7,255,0,0,255,0,0,0,0,0,0,0,0,0,0,0,0,0,0,0
0,210,255,126,255,0,0,255,255,217,0,56,0,0,0,91,231,0,0,0,0,255,0,0,0,0,0,0,0,0,0,0,175,119,0,189,147,147,105,0,21,255,0,0,0,255,255,0,0,217,0,0,0,0,42,0,0,0,0,0,0,0,0,0
112,0,0,0,0,217,255,0,255,84,49,0,224,0,0,255,0,0,196,0,0,0,0,0,0,0,0,0,0,0,42,0,182,0,0,70,7,0,133,140,255,21,255,255,14,0,0,7,0,0,0,0,0,0,0,0,0,35,0,0,0,0,0,0
182,0,0,0,133,0,255,255,35,0,255,49,42,35,0,0,0,0,238,0,0,0,0,0,0,21,0,0,0,0,0,0,14,0,255,0,63,0,49,255,0,255,56,255,0,255,133,28,0,0,0,35,0,0,0,0,0,0,0,0,0,0,0,0
0,0,255,210,133,21,255,203,189,56,0,21,49,0,0,255,0,0,0,0,140,56,0,0,0,0,0,0,0,0,140,35,0,42,0,35,0,112,126,255,238,91,28,255,28,105,21,0,255,0,0,0,255,0,0,0,0,0,0,0,0,0,0,0
0,0,255,0,255,0,0,255,182,147,14,21,35,255,0,0,255,7,0,0,0,0,0,0,0,0,0,0,0,0,255,0,70,0,0,0,0,98,0,91,255,42,255,14,255,119,0,0,0,126,0,0,0,0,0,0,0,0,0,0,0,0,0,0
0,0,255,0,133,0,255,255,91,14,245,255,147,0,0,161,0,255,255,0,0,0,0,0,0,0,0,0,0,0,0,168,112,77,0,0,0,147,0,255,119,255,7,0,70,255,0,0,14,0,0,0,0,0,119,0,0,0,0,0,0,0,0,0
255,175,0,0,255,0,255,133,119,119,255,7,0,0,7,0,0,0,0,255,0,0,0,0,0,0,0,0,0,0,0,0,98,0,91,56,49,161,255,0,255,140,255,14,105,0,0,21,0,255,0,0,28,0,0,0,0,0,0,0,0,0,0,0
0,0,255,203,203,0,175,28,14,255,0,7,42,0,105,0,0,217,255,0,0,0,255,0,14,0,0,0,0,14,231,84,0,255,0,0,21,0,161,77,28,7,255,255,255,0,0,0,217,0,255,0,0,0,91,0,0,0,0,0,0,0,0,189
0,0,0,0,255,0,224,28,255,105,42,0,255,255,0,0,0,0,49,0,147,0,56,0,0,0,0,0,0,0,255,0,182,182,0,196,0,255,255,70,255,112,255,133,7,49,0,0,0,0,0,0,0,0,0,0,0,0,0,0,0,0,0,0
0,255,0,0,161,255,182,35,255,255,255,161,255,0,0,0,0,0,0,0,0,0,0,0,0,0,0,0,0,0,0,238,0,0,0,21,0,112,255,255,0,238,255,7,14,255,0,255,0,0,0,0,0,0,0,0,0,0,0,0,0,0,0,0
0,49,14,255,0,0,0,0,255,14,35,255,255,0,0,255,0,0,0,0,0,0,0,14,0,0,0,0,0,0,0,140,255,0,133,49,0,147,112,182,255,0,255,0,255,231,28,0,0,14,0,0,133,0,0,0,0,0,0,0,0,0,0,0
0,255,0,0,196,0,203,255,21,133,255,0,161,0,0,0,0,0,255,0,0,0,0,0,161,0,0,0,0,105,0,0,70,70,175,0,0,84,0,126,21,21,255,210,0,0,0,0,255,0,14,0,0,0,0,0,0,0,0,0,0,0,0,0
0,182,0,0,140,175,21,161,21,255,0,7,7,255,21,35,0,0,0,0,0,0,175,0,0,0,0,0,0,0,0,255,0,112,35,0,0,196,0,224,70,0,255,255,7,14,91,0,0,7,0,0,0,0,0,0,0,140,0,0,0,0,0,0
182,0,175,0,140,0,14,255,28,7,255,28,0,0,0,0,63,0,161,0,0,0,0,56,0,0,0,0,0,14,0,210,0,0,0,255,0,119,0,63,255,255,7,255,0,0,84,0,98,0,112,0,0,0,0,0,0,0,0,35,0,0,0,175
0,0,0,0,175,255,56,255,210,255,0,7,0,98,0,63,0,175,0,0,0,0,0,0,0,0,0,0,0,28,0,231,0,98,70,0,0,28,126,0,21,255,255,7,0,0,21,147,0,0,0,0,0,0,0,0,0,0,0,0,0,0,0,0
0,0,255,0,210,0,255,196,255,7,0,0,0,0,0,147,0,0,0,189,0,0,196,0,0,0,0,0,0,0,0,255,0,255,0,0,0,0,91,168,105,255,255,255,0,56,0,0,0,0,0,0,42,0,35,0,0,0,0,0,0,0,0,255
0,0,182,0,0,255,161,7,255,21,0,21,0,0,255,0,245,0,0,0,56,210,0,0,0,0,0,0,0,0,245,255,0,0,238,0,0,70,98,98,203,28,255,255,49,0,217,224,14,161,0,0,0,0,0,0,0,0,0,0,0,0,0,0
0,203,0,0,0,0,255,255,255,0,112,224,0,0,255,0,255,0,133,0,0,0,7,0,0,0,0,0,0,0,0,0,0,0,0,196,70,0,210,70,255,154,77,255,0,0,182,255,0,0,0,0,0,210,0,0,0,0,0,0,0,0,0,0
161,0,0,182,0,0,161,255,0,255,231,0,255,255,0,0,133,0,0,0,0,0,0,0,0,0,0,0,0,0,0,70,210,255,7,203,28,0,140,245,255,7,255,7,35,7,255,0,0,119,0,0,140,0,0,0,0,0,0,0,0,0,0,0
