0,9,0,12,0,0,144,102,3,0,93,0,0,6,0,0,0,48,0,0,0,0,0,0,0,0,0,0,0,0,0,9,0,3,60,0,0,12,0,3,60,15,3,6,0,0,138,0,0,138,0,0,0,27,0,0,0,0,0,0,0,0,0,0
6,0,0,0,0,24,117,6,144,3,0,0,0,42,0,0,0,0,0,135,0,0,0,0,0,0,0,0,0,0,0,0,6,3,99,0,0,12,6,12,9,0,6,0,141,3,0,0,0,123,0,0,0,0,0,0,0,0,0,0,0,0,0,3
0,0,0,138,0,105,0,105,3,0,90,0,144,0,0,0,0,0,0,0,0,24,0,105,0,0,0,0,0,0,0,135,3,30,0,0,0,0,9,51,3,3,57,0,12,9,138,0,0,0,0,117,0,0,0,0,0,0,0,0,0,0,0,0
0,93,0,0,99,0,0,3,9,138,0,90,0,144,0,0,0,0,0,0,0,138,0,0,0,0,0,0,0,0,0,3,90,108,0,0,0,0,24,9,9,138,24,144,0,0,36,0,0,117,0,0,0,0,0,0,0,21,0,0,0,0,0,0
0,0,0,0,144,15,0,114,0,144,0,0,144,0,0,0,0,0,0,0,0,0,57,0,0,0,0,0,0,54,0,3,24,18,0,3,0,3,6,138,141,126,3,0,0,0,27,120,0,0,0,0,0,0,0,0,0,0,0,0,0,0,15,0
0,141,0,0,96,0,135,3,0,0,90,144,0,129,0,0,0,0,0,0,0,0,0,36,0,0,0,0,0,0,0,57,57,0,0,0,0,3,6,99,15,30,141,60,0,0,0,0,0,0,0,0,0,0,0,0,0,0,24,0,0,0,0,90
15,0,0,3,15,0,36,129,144,141,99,0,0,21,0,0,0,0,0,0,0,0,0,0,0,0,0,0,0,0,0,0,0,0,0,114,0,0,24,0,0,141,3,57,0,0,9,6,0,0,0,0,0,0,0,0,0,0,0,0,0,0,0,6
0,60,0,0,0,0,0,0,6,0,144,0,105,0,144,0,0,0,0,51,0,0,0,0,0,0,0,0,0,75,0,0,3,0,78,0,9,0,6,9,144,141,0,3,6,0,3,0,0,0,0,0,0,0,0,0,0,0,0,0,0,0,0,15
0,15,0,0,75,3,0,144,21,0,3,141,0,0,0,0,0,90,0,0,0,0,0,0,0,0,0,0,0,0,0,3,9,66,0,33,0,3,6,102,141,12,3,3,141,0,36,0,0,0,0,0,0,0,0,0,0,0,0,0,0,0,0,3
0,0,0,27,9,0,0,144,3,144,0,0,96,0,0,129,0,0,0,0,0,0,0,0,0,0,0,0,0,0,0,0,0,0,0,66,0,15,0,6,138,3,141,3,108,0,0,0,0,0,0,0,0,0,0,0,0,6,0,0,0,0,0,0
3,12,0,0,0,0,105,138,0,6,144,0,0,108,0,39,0,0,0,0,0,0,0,0,0,0,0,0,0,0,3,0,0,0,0,0,9,9,9,0,3,141,123,9,0,0,0,48,0,120,0,0,0,0,0,0,0,0,0,0,21,0,0,0
0,3,0,0,0,6,129,9,144,3,9,111,0,0,0,0,0,0,0,0,0,0,0,0,0,0,60,0,0,0,0,9,3,75,3,69,0,0,9,3,84,129,9,0,0,138,0,120,0,0,0,0,0,0,0,0,0,0,0,0,0,0,0,0
3,0,0,0,105,0,108,0,3,144,6,0,102,0,0,0,72,0,0,0,33,0,0,0,0,0,0,0,0,0,0,27,21,3,54,3,138,6,3,30,3,63,6,132,117,6,21,0,0,0,0,0,0,111,0,0,0,0,0,0,0,0,0,9
0,0,0,0,0,93,3,144,0,6,84,0,0,9,39,0,0,0,0,0,0,0,0,0,0,27,0,0,0,0,0,9,6,3,3,0,0,3,9,123,0,81,3,144,0,6,39,0,0,0,0,0,0,0,0,0,0,0,0,0,0,0,0,0
0,24,0,3,108,0,9,144,3,0,99,0,0,0,126,0,0,0,0,0,12,0,0,0,0,0,0,0,0,0,3,15,0,0,0,0,3,21,51,144,27,63,0,0,0,141,0,6,135,0,0,0,0,0,3,0,0,0,0,0,0,0,0,0
0,0,0,0,0,0,132,144,0,0,138,102,0,0,0,0,0,105,0,0,0,66,0,0,0,0,0,0,0,0,0,21,3,0,144,0,0,0,6,3,60,15,78,0,3,0,0,0,99,0,135,0,0,0,0,0,0,0,0,24,0,0,0,15
9,0,0,0,81,99,0,0,3,0,0,0,117,0,21,0,144,114,0,0,0,0,0,0,78,0,0,0,0,0,129,3,0,3,0,63,6,3,78,24,9,78,87,0,0,3,141,0,0,0,0,0,0,0,0,0,0,0,0,0,0,0,0,0
0,0,0,0,0,132,9,144,138,0,0,0,0,111,0,0,0,0,0,0,0,0,0,0,0,66,0,0,0,0,0,0,0,9,57,0,0,0,6,114,6,3,9,138,0,138,0,42,3,0,81,117,0,0,0,0,0,0,0,0,0,0,0,0
6,0,141,3,63,0,123,111,0,0,0,0,0,144,0,0,0,0,0,0,0,84,0,0,0,0,21,0,0,0,0,9,3,141,0,69,45,3,30,36,0,105,0,0,138,0,0,114,0,0,0,0,0,0,9,36,0,0,0,0,0,0,0,0
0,0,48,0,90,0,3,0,138,144,3,0,0,0,0,39,90,0,117,0,0,0,0,0,0,0,0,0,0,0,6,3,36,72,0,0,0,75,45,6,6,3,105,144,0,0,0,0,138,0,0,0,0,0,0,0,0,0,0,0,0,0,0,0
0,0,141,0,9,117,6,0,138,6,0,6,144,0,0,3,111,3,0,0,3,3,3,0,108,0,0,0,0,0,0,123,0,0,0,3,0,84,30,3,24,6,24,141,3,0,6,0,0,141,0,0,0,0,0,0,0,30,3,0,0,0,3,0
9,0,0,0,117,114,144,0,0,0,0,69,36,0,0,0,0,0,0,0,0,0,114,0,0,0,0,0,0,0,0,6,0,105,0,0,6,12,18,144,0,3,3,102,0,138,0,0,0,0,0,0,0,0,0,0,0,0,0,0,0,0,0,0
9,0,0,0,0,81,0,24,0,141,12,0,3,0,0,0,0,0,0,0,0,0,51,0,0,0,0,0,0,0,0,3,12,0,3,0,0,75,0,0,12,138,9,144,0,36,0,0,138,0,0,0,0,0,0,0,0,0,0,0,0,0,0,0
0,0,15,6,144,0,9,9,0,0,0,0,0,3,0,0,0,0,123,0,0,0,3,0,0,0,0,0,0,0,3,21,6,3,0,0,3,3,144,36,3,6,138,0,0,0,0,30,0,0,51,123,0,0,0,0,0,21,0,0,0,0,0,15
15,0,6,0,114,84,9,0,135,0,3,3,3,0,0,144,0,0,42,0,0,0,0,0,36,0,0,0,0,0,0,138,18,0,0,0,117,9,3,24,6,144,0,0,3,6,0,0,0,0,123,21,0,0,120,0,0,0,0,0,0,30,0,0
0,0,0,99,48,84,3,144,0,0,0,0,0,3,0,0,0,99,0,0,0,0,123,0,0,6,0,0,0,0,0,3,9,0,15,0,117,0,3,3,144,3,30,108,0,0,0,0,0,0,123,132,0,0,0,0,24,0,0,0,0,0,0,0
6,3,0,108,99,6,0,138,0,0,0,6,0,0,0,54,63,129,0,0,0,0,0,0,0,0,0,0,0,0,0,0,3,0,105,0,24,120,30,3,114,9,138,0,0,0,0,0,0,30,0,0,0,0,0,0,0,0,0,0,0,0,9,0
3,0,12,0,0,0,0,123,144,3,0,3,18,0,0,0,0,0,123,0,135,0,0,0,0,0,0,0,0,0,6,0,0,0,51,0,117,96,3,132,51,63,3,0,0,30,0,0,0,0,0,0,0,126,21,0,0,0,0,0,0,0,9,0
0,138,0,99,0,9,0,0,0,0,0,0,0,144,30,105,123,0,0,0,120,0,0,0,0,0,0,0,0,0,90,21,3,0,0,3,21,3,6,30,117,123,141,3,3,6,0,0,9,0,0,0,0,0,0,0,0,0,0,0,0,0,0,0
6,0,0,0,0,0,0,144,138,0,0,3,0,0,141,0,0,0,0,138,0,0,0,0,117,0,0,0,0,0,0,132,15,0,9,0,108,0,0,15,3,0,27,6,141,0,0,0,0,3,0,0,0,0,0,0,0,0,0,0,0,0,0,135
0,0,0,0,117,99,9,0,0,0,0,0,0,0,0,0,0,0,0,0,45,0,123,0,0,0,0,0,0,0,0,3,48,12,57,96,141,12,3,9,18,0,3,111,9,0,0,132,0,0,0,111,0,0,0,0,0,0,0,0,0,0,0,0
0,0,6,0,111,144,0,0,138,9,0,54,0,0,0,0,0,0,0,0,0,0,0,123,0,0,0,0,0,0,0,0,15,0,0,0,129,6,0,18,3,9,0,0,138,0,0,0,120,0,0,126,0,0,0,0,0,0,0,0,0,0,0,3
0,0,0,0,144,0,105,0,0,0,3,0,12,144,0,0,0,0,0,0,18,0,0,0,0,78,0,0,0,0,45,3,51,21,78,0,3,0,0,15,6,3,66,3,0,0,0,117,138,126,0,0,0,0,0,0,0,0,0,0,0,0,0,6
0,90,63,0,102,0,0,0,0,0,0,0,3,0,0,144,90,141,0,0,0,0,0,0,0,0,0,0,0,0,0,0,63,48,0,9,0,9,21,129,9,144,0,0,36,123,0,126,0,0,0,0,0,0,0,51,0,0,0,0,0,0,0,0
0,3,0,0,3,141,6,0,3,0,0,0,0,144,0,0,0,96,0,0,0,0,0,27,0,0,0,0,0,84,0,0,0,6,0,6,75,3,12,6,0,33,144,0,0,0,0,0,0,90,0,0,0,0,0,0,0,0,0,0,0,0,0,6
0,0,24,72,3,144,126,6,0,0,0,0,0,0,0,90,132,0,0,0,141,0,0,0,0,0,0,0,0,0,0,0,141,0,0,0,0,93,9,3,30,141,3,117,3,0,3,0,0,0,0,138,0,0,0,0,0,0,0,0,0,0,0,6
0,0,108,3,6,0,6,138,138,3,0,0,0,0,0,129,0,0,0,0,0,0,0,0,0,0,0,0,0,0,0,0,3,9,0,0,141,24,3,3,3,138,138,0,0,0,0,0,0,0,0,45,0,0,0,0,0,0,0,0,0,0,0,0
0,6,0,0,144,0,105,45,0,141,0,0,0,0,0,0,0,0,0,0,0,0,0,111,0,0,0,0,0,0,0,0,0,0,9,105,9,0,3,9,81,96,138,0,36,12,0,0,0,0,0,135,0,0,0,0,0,0,0,0,0,0,0,0
0,0,9,3,117,0,0,6,0,141,138,0,0,0,132,0,0,0,0,0,0,0,0,0,0,0,0,0,0,0,0,0,18,0,51,33,6,0,18,9,3,129,138,0,0,0,3,141,0,0,0,0,0,0,0,0,0,0,0,0,0,0,0,0
15,0,0,0,135,42,0,0,144,54,0,3,33,84,0,0,0,0,0,0,0,0,0,0,0,0,0,0,0,0,3,0,0,0,0,3,0,141,24,123,0,3,3,0,0,141,21,0,0,0,0,0,0,0,0,0,0,0,0,0,0,0,0,0
0,6,0,144,0,78,141,9,0,0,0,3,144,138,0,0,0,72,0,0,0,0,0,0,0,0,0,0,0,0,0,3,0,144,0,0,0,9,9,105,0,132,0,3,0,141,0,33,0,0,0,0,0,0,3,0,0,0,0,0,0,0,0,0
0,9,0,0,12,3,138,39,0,0,144,0,0,0,0,0,132,0,54,0,0,0,0,0,0,0,0,0,0,3,0,12,0,0,3,3,66,3,78,21,144,3,0,21,0,141,0,0,0,84,0,0,0,0,0,0,0,0,0,0,0,0,0,3
3,54,0,108,0,105,0,0,3,0,144,0,0,0,0,0,0,0,0,0,0,129,0,0,0,0,0,0,0,0,0,0,9,3,0,0,84,0,3,144,99,3,72,18,0,90,0,0,0,0,0,0,0,0,0,0,123,0,0,0,0,0,0,24
0,0,141,0,0,0,0,3,0,138,144,0,0,0,126,0,0,0,0,0,0,0,126,0,0,0,0,0,0,0,0,0,0,3,141,0,123,9,0,129,3,3,0,135,0,21,129,3,0,0,0,0,0,0,0,0,0,0,0,0,0,0,0,0
0,0,123,0,9,0,144,3,0,138,0,0,0,0,75,0,0,0,0,0,108,0,96,0,0,0,0,0,0,0,0,9,12,0,0,0,0,3,9,3,126,6,0,0,3,0,96,0,0,30,0,105,0,0,0,0,0,0,0,0,0,0,3,0
0,27,12,0,3,144,6,6,0,0,9,0,0,0,114,144,0,0,0,0,0,0,0,57,0,0,75,0,0,0,75,3,3,0,90,0,3,3,15,12,12,138,15,0,0,0,123,0,0,0,0,0,45,126,0,0,0,0,0,0,0,0,3,0
3,0,0,0,138,0,0,0,0,0,144,0,0,0,0,0,69,117,0,0,0,0,0,0,0,0,0,0,0,0,3,3,141,60,60,0,0,3,75,81,12,9,75,3,0,0,0,0,0,0,105,0,0,0,0,0,0,0,0,0,0,0,0,0
0,0,0,102,0,0,0,135,0,3,144,9,0,0,3,0,0,0,0,0,0,0,0,0,0,0,0,0,0,0,0,9,6,0,129,0,0,15,3,141,3,3,0,0,144,0,0,30,129,0,0,0,0,0,0,0,0,0,0,0,0,0,3,0
0,0,0,9,0,93,144,0,0,3,0,123,27,0,0,0,0,36,54,0,0,0,0,30,0,0,0,0,0,0,0,0,0,3,0,0,57,126,12,12,9,9,141,0,33,0,12,0,0,72,0,0,0,0,0,0,0,0,0,0,0,0,0,0
9,3,0,0,75,144,9,9,3,0,6,0,0,0,0,0,90,0,0,111,0,135,0,0,0,0,0,0,0,0,0,126,3,0,0,57,3,120,24,3,3,6,9,0,51,0,138,0,0,0,0,0,0,0,0,0,0,0,0,45,0,0,0,0
