108,0,255,0,0,0,255,90,255,144,255,255,255,0,0,255,0,0,0,252,0,18,0,0,255,0,0,0,0,0,0,225,0,255,0,0,255,153,0,0,255,255,255,0,0,153,255,0,144,0,0,45,0,255,72,99,0,90,0,0,0,0,126,0
0,0,0,255,0,0,255,0,255,255,255,0,255,0,126,207,45,252,0,0,0,0,0,0,0,0,0,0,0,0,0,234,0,27,255,0,0,0,255,90,255,153,255,255,90,255,72,255,99,255,0,0,0,0,0,162,0,0,0,0,0,0,0,0
243,0,0,0,255,0,108,0,153,0,255,0,0,255,0,90,0,255,0,9,0,0,255,0,0,0,0,0,0,0,72,0,0,207,0,72,0,0,99,255,234,243,0,153,255,255,255,0,0,0,0,255,0,0,0,0,189,0,0,0,0,0,0,0
198,0,0,255,171,0,18,0,255,0,144,255,0,63,63,0,0,255,255,0,0,0,0,171,0,153,0,0,0,0,0,255,255,0,0,255,252,0,255,255,255,234,162,153,0,54,63,0,0,0,0,171,255,0,27,0,63,0,0,0,0,0,0,0
0,0,255,0,255,234,0,255,255,255,0,198,255,117,255,0,0,0,0,0,255,36,0,108,0,0,0,0,0,0,0,0,0,255,0,0,198,90,153,255,90,255,9,255,171,9,255,0,0,0,255,0,0,0,162,108,0,0,0,0,0,0,0,0
162,0,171,0,255,0,0,0,255,255,0,0,99,255,0,0,0,180,0,255,0,0,0,0,0,0,0,0,0,0,0,0,234,255,153,0,36,63,0,153,255,255,255,54,63,0,255,81,0,255,153,0,0,0,45,0,0,0,0,0,0,0,0,0
0,207,0,255,225,0,0,255,255,0,255,255,198,0,117,207,0,234,0,0,0,36,0,0,0,0,0,0,0,0,0,0,0,72,0,171,180,0,153,99,255,255,255,255,153,0,0,0,0,255,0,189,180,0,0,180,0,0,0,0,0,0,0,0
0,0,255,0,0,0,135,255,255,0,255,255,45,0,255,255,117,0,0,0,0,0,0,0,0,0,0,0,0,255,0,0,0,0,90,0,0,255,198,255,255,255,255,153,255,255,0,27,0,0,0,0,171,0,0,0,0,0,171,0,0,0,0,0
0,0,255,0,207,0,255,225,255,255,0,0,9,198,255,0,18,255,153,0,0,0,0,0,0,0,0,0,0,0,0,255,144,0,153,0,0,0,255,90,0,99,255,255,18,0,0,255,0,0,252,153,171,207,0,0,0,0,0,0,0,0,0,0
243,0,0,0,0,144,0,255,255,0,255,255,255,0,255,255,0,255,0,0,0,108,0,0,0,0,0,0,0,0,0,189,255,207,0,255,0,0,153,63,153,255,117,255,255,63,0,0,255,0,0,0,99,0,0,0,0,27,0,0,0,0,0,0
0,0,255,0,255,0,255,255,18,0,255,108,255,255,9,255,255,0,54,9,0,0,0,0,0,0,0,0,0,0,0,255,0,171,0,0,207,0,0,255,180,255,255,36,108,0,0,45,0,243,135,0,0,0,0,0,255,0,162,0,0,0,0,0
0,255,0,225,255,255,255,27,0,0,0,255,18,0,0,189,255,27,0,0,0,189,255,255,0,0,0,0,0,0,0,0,171,255,0,255,0,0,90,255,234,255,255,0,0,0,225,0,234,0,0,255,0,0,0,0,0,0,0,0,0,0,0,0
0,0,0,255,189,0,0,255,0,255,255,255,0,189,0,255,255,9,72,0,255,0,0,0,0,0,0,0,0,0,0,189,108,255,0,255,162,0,255,0,255,162,255,255,255,27,0,72,0,0,9,0,0,0,0,0,0,0,0,0,0,0,0,0
243,0,0,135,0,252,189,0,255,255,0,90,255,0,255,0,162,255,27,0,0,0,0,0,0,0,0,0,0,0,0,0,255,0,255,0,0,171,255,255,255,0,81,255,9,0,255,90,255,0,0,0,0,162,0,0,0,0,0,0,0,0,0,243
162,0,0,0,0,135,225,255,9,90,255,255,0,234,135,0,0,0,0,45,0,0,0,171,0,0,0,0,0,0,0,144,0,198,135,9,45,0,255,0,255,255,117,0,0,252,117,0,0,0,27,0,0,0,0,0,0,0,0,0,0,0,0,0
255,255,0,0,255,255,0,9,225,0,255,255,0,144,0,0,255,0,0,0,0,0,144,0,0,0,0,0,0,0,255,0,0,0,0,0,255,0,0,255,255,255,45,0,255,255,0,0,0,0,0,0,0,0,0,0,255,0,0,0,0,0,0,0
0,255,255,0,45,0,216,0,255,255,255,0,234,255,9,255,0,81,0,0,255,0,0,0,45,0,0,0,0,0,255,0,90,198,0,0,36,0,255,255,255,255,255,108,45,18,99,0,126,27,255,0,0,0,0,0,0,0,0,0,0,0,0,0
0,255,255,0,0,0,255,234,63,0,255,255,0,0,255,0,0,0,255,0,0,0,0,0,0,0,0,0,0,0,0,255,0,255,0,252,0,171,255,108,255,0,255,0,27,0,255,0,255,27,0,0,0,255,0,0,0,0,0,0,0,0,0,0
255,0,0,252,255,0,255,0,255,255,135,45,255,54,0,255,255,54,0,0,225,0,255,255,0,0,0,0,0,0,0,63,171,0,0,255,0,180,144,255,255,171,45,255,0,255,153,9,0,72,0,0,36,0,0,0,255,0,27,0,0,0,0,0
0,255,255,255,180,0,18,255,252,0,0,255,36,255,126,0,255,255,255,0,0,0,0,0,234,0,0,0,0,0,0,0,255,0,144,126,153,0,255,180,255,72,225,0,255,117,255,0,0,0,0,255,0,0,0,63,0,0,0,0,0,0,0,0
255,0,0,0,108,255,255,0,255,153,0,0,189,0,90,81,0,0,0,0,255,0,189,0,0,0,0,0,0,0,0,126,255,255,0,0,0,117,108,54,255,255,255,255,0,108,255,0,234,0,171,0,0,0,0,0,81,0,0,0,0,0,0,0
255,0,0,0,0,255,0,126,255,0,255,0,255,0,9,54,108,0,144,0,255,0,0,0,0,0,0,0,0,0,0,54,0,207,198,180,153,255,0,255,255,0,135,108,0,255,108,162,0,0,0,255,0,255,0,0,0,0,0,0,0,0,0,0
0,0,0,0,255,0,255,9,255,225,255,255,0,0,0,117,0,198,255,0,255,0,0,0,0,0,0,0,0,0,180,36,153,0,0,0,0,0,216,255,189,255,99,255,0,255,90,255,0,0,0,0,0,0,0,0,0,0,0,0,0,0,0,0
0,255,0,189,252,255,0,63,255,0,0,255,0,255,255,0,117,0,9,255,0,0,0,0,0,0,0,0,0,0,0,0,255,0,0,0,144,9,0,252,255,180,0,255,0,90,0,255,0,0,45,0,0,207,0,0,0,27,0,0,0,0,0,0
9,81,0,0,255,189,255,0,255,108,255,0,255,0,0,255,171,0,0,0,36,255,0,0,0,45,0,0,0,0,0,255,126,0,0,27,0,27,108,234,255,63,189,63,255,0,255,0,27,0,0,0,0,126,0,0,0,0,0,0,0,0,0,0
0,255,9,0,108,0,255,0,255,255,255,225,0,0,0,255,0,0,0,90,0,54,0,0,0,0,0,0,0,0,0,54,225,0,0,0,0,255,207,162,99,27,0,255,255,255,0,243,0,0,45,0,0,0,0,0,0,0,0,0,0,0,0,0
255,0,0,255,0,0,255,255,0,255,255,0,255,9,0,255,255,0,0,0,0,0,0,0,255,9,0,0,0,0,0,255,144,63,0,0,180,0,0,99,255,0,225,0,255,0,255,255,0,0,81,0,0,36,0,0,0,0,0,0,0,0,0,0
255,0,0,0,255,255,255,255,255,255,243,81,0,0,0,0,0,0,0,255,0,108,0,0,0,0,0,0,0,0,135,0,198,72,0,0,255,255,0,198,225,108,162,255,255,0,135,0,255,0,0,0,225,0,0,0,9,0,0,0,0,0,0,0
255,0,0,243,153,255,255,0,54,0,9,255,255,0,90,255,0,255,0,0,0,255,0,0,0,0,0,0,0,0,0,0,255,126,0,0,0,0,126,216,255,63,255,255,0,108,0,18,0,255,234,0,153,0,0,0,0,0,0,0,0,0,0,0
255,0,0,0,255,255,0,0,0,255,0,255,54,0,234,255,0,255,0,0,0,216,0,0,0,0,0,0,0,0,0,252,27,0,0,117,0,255,255,18,255,255,0,180,0,0,255,0,162,0,0,0,0,255,0,0,0,0,0,0,0,0,0,255
0,0,0,0,0,0,0,255,0,255,0,27,255,0,0,0,0,216,0,0,63,0,0,0,9,153,0,0,0,0,0,171,0,126,0,255,90,0,0,255,0,135,255,255,255,0,0,255,81,0,0,0,0,0,0,0,0,0,0,0,0,0,0,0
0,0,0,0,0,243,255,27,255,255,255,0,0,0,0,126,0,0,207,255,0,0,216,63,0,0,0,0,0,0,0,0,255,0,0,0,0,255,255,255,255,255,255,255,0,0,0,153,0,0,0,0,63,0,0,0,0,0,0,0,0,0,0,0
255,0,0,0,9,0,207,9,255,255,255,0,189,255,9,0,0,255,0,0,0,0,0,0,0,0,0,0,0,0,45,99,0,117,0,0,0,63,72,255,189,255,252,255,255,0,0,54,90,126,108,0,0,0,0,0,0,0,0,0,0,0,0,0
255,0,0,255,0,0,255,255,255,0,27,9,0,255,0,255,0,225,0,0,0,0,0,0,0,0,0,0,0,0,0,36,0,255,0,0,0,0,72,144,255,0,0,255,0,252,0,255,0,27,63,207,0,0,0,0,0,0,0,0,0,0,0,0
0,0,0,255,0,0,255,255,255,255,255,255,255,144,0,0,0,0,27,255,0,0,0,0,0,0,0,0,0,0,0,0,252,0,255,0,255,255,135,0,0,255,0,0,255,54,255,99,0,243,0,0,0,0,0,0,0,0,0,0,0,0,0,0
255,216,171,0,0,255,255,255,0,9,0,81,0,0,255,45,0,255,0,0,255,0,0,0,99,0,0,0,0,0,0,0,243,0,207,0,189,0,27,0,255,255,189,255,0,255,36,0,255,255,255,171,0,0,0,0,0,0,0,0,0,0,0,0
207,0,0,0,255,0,255,45,234,0,255,0,255,0,0,0,255,0,0,255,0,0,0,0,0,0,0,0,0,0,0,18,255,0,0,255,0,162,144,255,180,255,255,0,0,255,0,0,162,180,0,0,255,198,0,36,0,0,0,0,0,0,0,0
255,0,0,0,255,0,243,255,0,255,255,135,0,255,0,0,0,0,255,0,0,0,0,0,255,0,0,0,0,0,36,255,0,0,135,0,126,108,0,255,255,255,255,63,255,0,0,162,0,216,0,255,216,0,0,0,0,0,0,0,0,0,0,0
255,0,0,0,0,255,0,255,255,255,0,0,255,0,0,135,0,252,0,9,0,0,0,0,0,153,0,0,0,0,180,0,255,0,0,0,0,72,255,225,255,255,255,255,18,126,90,255,0,0,72,0,0,0,0,0,0,0,0,0,0,0,0,0
0,0,255,255,0,255,255,0,255,0,255,255,0,255,18,0,255,0,0,0,0,0,0,0,126,0,0,0,0,0,0,81,255,0,0,0,0,0,27,0,255,255,171,0,255,255,0,243,0,0,0,255,0,0,9,0,0,0,0,0,0,0,0,0
0,0,0,255,0,0,255,255,255,0,0,255,0,0,0,9,0,0,0,0,0,0,0,0,255,0,0,0,0,0,0,255,0,0,27,0,0,180,0,0,255,255,135,255,255,255,171,0,0,126,0,0,0,0,0,0,0,0,0,0,0,180,0,0
0,0,0,0,0,0,255,243,255,255,255,255,198,255,0,108,0,54,0,0,9,0,0,0,0,0,0,0,0,0,0,0,0,0,255,0,0,255,45,255,255,255,255,0,0,255,0,90,9,153,0,0,198,0,0,0,0,0,0,0,0,0,0,0
255,0,0,255,0,255,198,255,255,255,0,27,255,255,255,0,0,0,54,0,0,0,0,0,0,0,0,0,0,0,0,0,255,0,108,0,63,117,0,126,171,255,0,255,255,255,255,0,153,9,0,0,0,0,0,0,0,0,0,0,0,0,0,0
255,0,153,0,252,171,0,0,255,255,255,9,0,255,255,255,0,0,0,0,0,0,0,36,0,0,0,0,0,0,0,255,99,225,0,0,0,225,72,0,243,171,135,255,0,0,255,255,255,0,27,0,0,0,9,0,0,0,0,0,0,0,0,0
0,0,0,0,255,207,0,117,255,0,0,255,255,0,0,255,255,162,0,144,0,0,0,0,0,0,0,0,0,0,0,153,72,0,0,0,198,0,0,255,0,255,255,0,234,255,255,255,0,0,0,0,0,72,0,0,0,0,0,0,0,0,252,0
0,0,0,255,243,162,255,0,0,255,9,255,255,0,0,63,255,9,126,0,0,108,255,9,0,0,0,0,0,0,0,225,0,255,0,0,0,0,255,0,255,255,255,225,108,255,0,255,0,0,0,0,0,255,0,0,0,0,0,0,0,0,0,0
255,0,0,255,0,0,255,198,255,27,9,0,255,255,153,117,255,0,0,0,0,255,0,0,243,0,0,0,0,0,0,255,99,0,0,255,18,255,255,0,189,0,255,153,90,216,0,255,0,255,0,255,9,0,0,0,243,0,0,0,0,0,0,99
0,255,0,0,255,207,255,63,255,255,255,255,0,0,255,255,0,207,0,0,54,255,0,189,0,0,0,0,0,0,27,0,0,255,0,255,0,9,255,63,252,255,0,54,0,0,171,0,255,54,0,0,0,243,0,0,0,255,0,0,0,0,36,0
255,0,255,255,0,180,27,252,9,0,255,255,0,255,0,144,9,0,255,255,0,255,9,0,0,0,0,0,0,0,0,0,243,36,255,252,90,45,153,255,153,198,18,255,45,0,255,0,0,0,255,63,216,0,255,0,0,0,0,0,0,0,0,0
0,255,0,144,255,0,45,255,180,72,108,255,0,255,0,0,72,63,225,153,18,0,0,0,0,0,0,0,0,0,0,63,90,9,108,255,0,126,0,0,255,255,255,255,216,0,0,81,0,207,0,9,0,255,0,0,0,0,0,0,0,0,0,72
