0,0,0,0,255,255,255,255,0,255,70,255,255,0,255,0,255,0,90,0,0,240,0,0,0,0,0,0,0,0,0,255,0,110,0,0,0,255,250,190,255,10,10,255,50,255,0,255,0,0,0,255,80,160,0,0,0,180,0,0,0,0,0,0
0,160,255,90,0,210,255,0,140,255,60,255,20,255,255,230,0,255,0,0,0,0,0,100,0,0,0,0,0,0,0,0,230,255,0,0,0,255,0,250,0,255,140,255,40,255,255,255,0,0,0,40,0,0,0,0,0,0,0,0,0,0,0,0
255,0,255,0,0,255,0,255,255,255,255,255,255,180,160,150,0,255,130,20,0,0,0,0,0,0,0,0,0,0,230,0,255,0,0,80,0,255,255,255,160,255,255,255,40,0,0,255,0,0,120,0,0,0,0,0,0,0,0,0,0,0,0,0
255,0,0,0,0,0,255,90,255,255,0,255,255,200,0,255,255,255,120,50,0,0,0,70,0,0,0,0,0,0,0,255,0,0,70,0,255,255,230,0,255,255,200,255,100,0,255,0,0,255,255,0,0,0,140,0,170,0,0,0,0,0,0,0
170,0,0,0,255,255,0,0,0,255,200,0,0,255,255,0,0,0,0,0,160,0,0,0,10,0,0,0,0,0,0,0,230,0,255,0,210,0,190,0,220,255,30,255,60,0,0,180,255,0,0,10,60,250,0,120,0,0,0,0,0,0,0,0
0,255,255,0,0,255,0,0,190,255,255,0,80,255,250,255,60,0,30,0,0,0,0,20,0,0,0,0,0,0,0,0,255,0,255,60,150,0,255,170,120,255,255,0,90,0,255,0,0,0,30,0,0,120,0,0,0,190,0,0,0,0,0,0
255,255,160,0,0,0,255,255,255,0,80,0,0,255,100,255,0,0,190,0,0,0,0,0,0,0,0,0,0,0,0,0,255,0,0,0,255,255,0,255,255,150,255,255,10,255,255,230,0,0,70,0,0,0,110,0,230,0,0,0,0,0,0,0
0,255,255,0,255,170,255,255,160,30,255,255,255,255,0,0,0,20,190,0,250,0,80,0,0,0,0,0,0,0,0,170,255,0,90,0,0,50,0,255,255,220,255,0,0,255,0,0,255,0,255,0,0,0,0,130,0,0,0,10,0,0,0,0
255,0,0,255,0,255,10,110,255,120,140,0,255,160,0,220,20,0,255,255,0,255,70,50,0,160,0,0,0,0,0,255,100,255,0,170,80,40,90,30,255,255,255,220,50,190,0,0,0,255,0,10,0,120,120,255,0,0,0,0,0,0,0,0
255,0,90,255,0,0,240,255,255,255,240,0,255,20,0,210,50,255,0,0,255,0,0,0,0,0,0,0,0,0,0,0,255,190,0,0,0,160,230,110,255,0,255,255,210,40,0,0,140,0,255,0,0,0,255,0,0,0,0,0,0,0,0,0
255,0,0,0,255,230,255,255,255,0,0,255,0,100,255,160,0,0,250,0,0,255,0,0,0,0,0,0,0,0,0,255,255,0,0,0,255,0,190,100,90,255,160,50,180,0,100,0,0,255,0,0,0,0,255,0,0,0,0,0,0,0,0,0
255,0,255,150,0,0,120,200,0,10,255,255,180,255,0,0,10,210,0,0,0,130,0,0,0,0,0,0,0,0,0,0,200,0,80,150,160,255,0,255,0,255,160,90,0,255,220,0,0,0,0,255,0,0,0,0,20,0,0,0,0,0,0,0
0,0,120,0,0,0,190,255,255,0,255,90,255,100,10,160,0,255,0,0,0,0,50,0,110,0,0,0,0,0,0,255,0,0,0,240,80,255,0,250,255,0,130,255,10,240,255,255,0,120,0,0,0,0,160,20,30,0,0,0,0,0,0,0
255,0,0,100,160,0,210,255,255,220,140,255,0,0,40,20,0,0,190,255,0,10,0,0,0,0,0,0,0,0,0,0,0,250,0,0,0,0,60,150,255,40,140,255,255,255,0,255,255,160,0,0,150,170,0,0,0,0,0,0,0,0,0,0
255,255,0,0,230,255,255,255,0,255,255,255,255,170,60,0,255,0,0,255,0,0,0,0,0,0,0,0,0,0,0,0,0,255,150,0,0,255,240,100,0,255,100,100,170,10,255,255,110,255,0,0,0,10,0,200,120,0,0,0,0,0,0,0
0,0,0,0,255,255,255,40,250,180,255,130,140,255,80,0,0,210,0,0,255,20,0,0,0,0,0,0,0,0,255,0,50,150,0,230,0,0,255,255,10,255,0,30,170,255,200,0,0,255,0,10,0,0,190,0,0,170,0,0,0,0,0,0
255,140,60,0,0,200,0,0,0,255,100,255,180,160,150,0,0,255,0,0,255,0,40,0,0,0,0,0,0,0,0,0,250,0,0,20,255,230,130,255,255,190,255,255,0,255,0,0,0,0,0,0,0,0,0,0,0,10,0,0,0,0,0,0
0,160,0,0,180,255,255,255,0,0,255,0,160,255,0,0,0,255,0,255,255,0,80,0,0,0,0,0,0,0,0,0,30,0,10,80,240,0,0,250,255,255,0,255,255,255,255,0,255,0,0,0,140,0,0,0,0,10,0,0,0,0,0,0
255,0,0,0,0,0,255,255,255,130,40,200,0,170,10,255,0,110,0,0,10,0,0,0,0,0,0,0,0,0,0,255,160,255,0,0,0,0,170,0,255,0,255,0,140,255,255,255,0,0,0,10,80,0,0,170,0,0,0,0,0,0,0,0
0,255,0,0,255,0,255,0,255,255,0,255,0,180,70,200,255,0,230,0,70,220,0,0,0,60,0,0,0,0,0,0,255,0,30,255,0,255,30,0,255,0,100,80,230,255,255,0,255,0,20,0,0,0,255,0,0,160,10,0,0,0,0,0
255,0,255,0,30,0,255,255,255,0,10,255,0,210,0,0,20,255,0,0,0,0,255,0,0,0,0,0,0,0,0,30,255,0,0,0,50,255,0,255,10,255,0,10,0,0,255,255,255,0,0,255,160,255,0,0,150,0,0,0,0,0,0,0
255,255,0,0,130,255,190,255,0,255,0,0,255,0,255,0,0,250,140,0,0,0,0,90,0,0,0,0,0,0,0,140,210,255,0,0,0,0,255,0,70,170,255,255,10,255,0,0,0,255,0,0,20,160,100,0,0,0,0,0,0,0,0,0
0,0,0,0,0,255,255,255,255,255,255,255,0,0,190,0,255,230,110,0,0,0,0,0,0,0,0,0,0,0,0,0,255,0,0,0,0,0,110,255,120,255,255,10,180,180,0,255,255,0,0,0,0,0,210,0,0,0,0,0,0,0,0,0
255,0,0,0,0,140,0,255,255,255,220,0,255,0,90,255,10,120,255,0,0,0,0,10,0,170,0,0,0,0,0,50,20,140,0,255,0,140,110,210,100,255,255,255,50,255,0,255,20,0,0,0,0,0,0,10,0,0,0,0,0,0,0,0
255,0,0,255,0,0,255,255,255,150,255,255,0,0,0,90,255,0,0,0,0,0,0,0,0,0,0,0,0,0,0,0,0,120,0,130,0,190,80,90,255,255,255,255,130,255,200,70,0,0,0,0,0,0,0,0,0,0,0,0,0,0,0,0
0,255,0,220,60,255,0,10,255,255,30,255,0,0,150,0,110,255,0,0,0,0,0,255,0,0,0,0,0,0,0,0,0,210,0,0,255,0,0,255,170,255,255,255,255,210,0,0,0,170,130,60,0,0,0,0,0,0,0,0,0,0,0,0
0,0,0,0,0,255,255,255,255,255,0,255,0,0,0,255,20,0,0,0,170,10,90,180,0,100,0,0,0,0,0,0,255,160,0,0,255,0,255,255,210,255,130,255,255,250,0,255,160,0,255,0,20,0,0,0,0,0,0,0,0,0,0,0
255,255,0,0,0,255,255,0,255,255,0,255,255,170,0,0,0,0,255,90,0,70,0,110,0,0,0,0,0,0,0,255,40,240,0,200,0,210,50,255,255,0,0,255,130,255,255,0,0,110,0,0,0,0,255,0,0,0,0,0,0,0,0,0
0,0,0,220,0,255,50,255,0,255,255,255,100,0,0,255,0,0,0,0,0,0,80,0,255,0,0,0,0,0,0,0,0,255,255,50,0,255,255,255,0,255,0,80,200,255,255,255,0,0,140,255,210,0,255,0,0,0,0,0,0,0,90,0
0,0,255,0,255,0,255,255,140,0,0,0,140,0,250,255,255,0,0,0,0,0,0,100,0,0,0,0,0,0,0,0,255,255,0,190,0,180,0,230,20,0,255,10,0,255,10,0,255,255,0,0,255,0,0,255,130,0,0,0,0,0,0,0
255,0,0,0,255,220,0,170,0,255,255,255,70,120,255,255,0,0,220,250,0,10,0,0,0,150,0,10,0,0,0,20,255,0,0,255,255,255,70,0,255,100,255,20,0,255,250,90,210,0,0,0,0,0,0,0,0,0,0,0,0,0,0,0
0,255,0,100,0,255,170,255,255,255,0,255,255,100,255,0,0,0,230,0,255,20,0,20,0,0,0,0,0,0,0,0,255,0,0,0,255,200,170,255,60,255,255,160,255,10,0,0,0,0,0,10,130,0,255,170,60,0,0,0,0,0,0,0
255,0,0,130,255,0,255,190,255,10,0,255,210,0,255,0,210,220,0,0,0,110,0,0,0,0,0,0,0,0,0,40,0,255,0,210,0,90,60,255,255,255,255,255,0,140,255,20,0,170,0,0,0,0,20,0,0,0,60,0,0,0,0,0
255,0,255,0,0,0,255,0,0,255,255,0,0,160,0,0,150,255,200,0,0,0,0,0,0,0,0,0,0,0,0,0,160,255,255,0,0,0,0,255,0,255,0,255,255,255,0,60,0,255,0,0,0,0,0,0,0,0,0,0,0,0,0,0
255,255,0,0,255,170,255,90,255,255,255,255,255,120,0,80,0,255,0,50,0,0,60,0,0,0,0,0,0,0,0,0,250,255,0,0,0,255,255,250,255,255,255,0,255,40,40,0,0,0,0,0,0,160,0,0,0,0,0,0,0,0,0,0
0,0,255,0,0,0,0,255,255,255,255,255,255,0,255,60,255,0,0,100,0,0,0,0,60,0,0,0,0,0,0,0,0,80,0,255,0,0,0,0,255,255,255,255,190,30,0,0,190,0,0,0,0,0,0,0,0,0,0,0,0,0,0,0
0,255,0,170,255,255,10,0,255,255,255,255,50,140,250,255,0,0,0,60,0,60,0,0,0,0,0,0,0,0,0,0,255,0,0,0,0,220,200,255,255,255,255,255,50,255,20,0,170,0,0,0,0,0,0,0,0,30,0,0,0,0,0,0
255,0,0,0,0,255,255,0,255,255,210,255,255,255,80,0,190,0,0,0,0,0,160,0,0,255,0,0,0,0,140,0,255,0,0,0,0,0,255,255,255,255,255,255,0,150,210,255,50,0,0,0,0,0,0,0,160,0,0,0,0,0,0,0
255,0,170,255,0,0,140,0,0,255,255,255,255,50,180,255,160,0,0,0,0,0,0,0,80,0,0,0,0,0,0,150,160,0,255,0,255,0,0,255,60,190,255,255,255,0,255,0,0,255,255,10,0,0,30,190,0,0,0,0,0,0,0,0
255,0,0,255,255,0,0,0,255,255,255,255,180,0,140,255,0,255,220,255,0,0,110,0,0,0,0,0,0,0,0,0,0,150,255,255,255,0,0,255,255,240,255,0,0,255,0,20,0,170,0,0,0,250,160,0,0,0,50,0,0,0,0,0
255,0,170,255,0,0,255,0,255,20,255,255,255,0,90,0,255,255,0,0,0,0,0,0,255,0,0,0,0,0,0,0,255,255,255,0,0,120,90,0,255,70,255,0,255,190,255,255,0,255,0,0,0,30,0,0,0,0,0,0,0,0,0,0
70,255,255,0,0,255,255,0,255,255,255,255,0,255,255,255,170,0,10,150,80,0,0,0,0,0,0,0,0,0,0,255,0,255,140,0,190,255,0,255,0,255,0,255,0,255,255,255,255,160,20,0,0,0,50,0,0,0,0,0,0,0,0,0
255,50,0,255,0,0,0,255,70,255,0,255,250,255,255,170,255,255,0,0,0,90,0,0,0,0,0,0,0,0,0,0,240,10,0,0,255,80,255,255,70,10,255,90,255,0,255,120,255,0,255,0,0,0,0,0,0,0,0,0,0,255,0,0
150,255,0,255,0,0,0,255,255,255,255,80,255,255,100,0,0,70,0,0,210,0,0,0,0,0,0,0,0,0,0,0,230,0,0,190,30,255,0,255,255,0,50,210,255,255,255,60,0,255,0,0,170,0,0,0,50,0,0,0,0,0,0,0
255,0,0,255,0,255,255,30,0,255,255,0,250,150,0,190,0,255,0,0,0,255,240,0,70,0,0,0,0,0,0,110,160,255,0,255,0,180,0,0,255,255,255,0,255,0,0,0,255,0,255,70,40,0,0,0,0,0,0,0,0,0,0,0
0,0,255,0,120,255,255,255,0,255,170,255,255,0,0,255,0,170,255,0,0,0,255,0,0,190,0,0,0,0,0,170,0,10,10,70,180,180,30,120,170,255,255,255,160,255,255,0,100,250,0,0,0,0,0,0,0,0,0,0,0,0,0,0
255,0,0,210,255,0,0,0,255,255,255,0,255,0,130,0,0,160,190,255,0,20,0,0,0,0,0,0,0,0,0,190,255,160,0,0,220,0,0,80,255,255,255,230,120,140,0,100,0,0,0,0,0,0,70,0,250,0,0,0,0,0,0,0
0,255,0,30,255,0,255,0,255,255,150,100,255,255,180,0,0,240,30,0,0,0,255,60,0,0,0,0,0,0,0,255,0,0,255,0,20,0,0,255,255,255,255,210,255,255,10,30,30,0,0,0,0,250,0,0,0,0,0,0,0,0,0,0
0,255,0,0,190,0,255,255,0,255,255,30,0,255,0,0,180,255,0,0,150,0,0,0,0,0,0,0,0,0,0,0,255,255,120,0,0,10,170,80,230,255,255,255,255,255,30,0,120,30,0,0,0,0,30,0,0,0,0,0,0,0,0,0
255,0,0,255,0,190,0,0,255,255,0,255,30,255,255,0,70,255,0,0,0,160,0,30,0,0,0,0,0,0,0,255,230,10,10,230,0,0,0,255,255,0,255,255,255,0,0,100,0,0,0,120,0,10,20,0,0,0,0,0,0,100,0,0
