195,10,0,50,240,0,220,70,0,230,195,0,240,235,0,85,150,0,0,0,185,0,0,0,0,0,0,0,0,95,10,25,0,155,0,0,150,20,180,175,230,160,85,25,185,185,95,155,215,0,105,0,0,0,205,0,0,0,0,0,0,0,0,0
0,200,240,70,140,0,0,35,65,225,240,195,30,0,165,0,215,0,75,0,0,0,205,0,0,0,0,0,0,0,215,0,220,150,0,0,0,190,80,75,195,235,160,50,235,105,0,0,80,0,0,0,0,0,30,0,0,0,0,0,0,0,0,0
200,0,0,0,15,100,220,80,240,220,235,0,215,220,0,0,0,0,0,0,0,0,0,0,20,0,0,10,0,0,0,0,150,65,0,0,80,55,70,0,130,225,130,145,80,0,10,185,0,0,0,0,0,205,0,0,40,0,0,0,0,0,0,0
180,0,105,0,0,45,0,160,5,155,225,240,80,0,160,0,215,0,0,0,0,0,0,0,25,0,0,0,0,0,35,0,0,185,0,230,0,120,0,25,220,110,150,240,50,0,0,215,0,115,85,10,0,0,0,0,0,0,25,0,0,0,0,0
0,225,0,240,0,0,0,215,230,160,20,195,240,0,5,230,110,0,65,0,0,0,50,0,0,0,0,0,0,0,0,0,95,25,50,60,0,5,35,180,15,40,140,205,215,65,0,160,55,0,0,0,0,75,0,15,0,0,0,0,0,0,0,0
10,0,0,0,195,0,115,0,65,100,0,195,0,240,215,5,0,0,95,15,0,0,0,0,0,20,40,0,0,40,85,0,80,0,30,70,10,170,180,110,240,155,105,105,125,230,0,130,0,0,0,0,0,30,0,0,0,0,0,0,0,0,0,0
0,220,0,0,0,90,240,0,230,80,100,30,200,0,0,240,0,230,95,0,0,0,0,0,0,0,0,0,0,0,115,0,105,15,0,0,15,80,235,85,150,150,0,50,95,0,215,105,20,0,0,0,0,230,175,0,0,0,0,0,0,0,0,0
0,235,190,150,0,80,0,215,0,155,20,10,0,240,220,130,0,75,0,0,0,0,0,0,0,190,0,0,0,0,70,30,0,125,0,15,0,95,0,90,85,30,205,230,235,0,175,45,0,0,0,40,5,0,0,0,0,0,0,0,0,0,0,0
125,0,0,0,0,0,160,240,0,125,30,40,95,195,90,130,0,0,0,0,0,0,0,50,30,0,0,0,0,0,0,0,20,240,0,0,90,5,90,95,115,230,150,195,0,0,85,235,125,0,0,110,0,0,35,0,0,0,0,0,0,0,0,0
225,0,0,0,65,240,235,25,115,0,0,195,160,220,130,85,0,0,225,0,240,0,0,45,0,0,0,0,0,0,235,0,0,0,0,0,120,30,95,0,185,230,50,235,5,115,235,185,0,0,0,0,0,0,0,0,0,0,0,0,0,0,0,0
160,0,0,0,0,230,220,220,0,175,230,200,0,0,80,0,105,0,0,0,0,25,0,0,0,0,0,0,0,85,0,0,0,15,75,0,130,0,240,0,205,160,25,230,0,50,0,140,0,5,35,0,0,5,0,0,0,0,0,0,0,0,0,0
210,0,130,85,35,215,0,130,190,5,0,0,230,70,35,0,165,0,0,0,20,0,160,0,0,0,0,0,0,105,0,130,0,180,130,0,55,35,30,230,15,0,235,155,230,0,0,90,35,30,165,0,0,0,75,0,0,0,0,0,0,0,0,0
0,155,0,145,140,0,125,0,240,85,55,5,10,0,0,180,210,65,30,70,165,0,0,0,0,0,0,0,0,0,0,0,215,50,0,10,75,85,0,80,240,160,0,95,50,0,80,0,220,95,0,25,0,0,0,0,0,0,0,0,0,0,0,0
230,0,30,0,90,120,140,5,240,225,100,0,115,60,15,115,40,35,0,0,175,0,0,105,0,0,0,0,0,0,0,0,0,175,170,0,135,0,95,165,230,50,75,240,30,190,155,65,35,35,0,0,0,0,10,0,0,0,0,0,0,0,40,0
0,0,0,240,115,0,0,150,75,125,0,210,10,0,220,0,0,0,240,0,25,165,0,0,0,0,0,0,0,0,0,70,205,0,0,0,75,0,205,130,95,165,175,85,0,235,35,200,0,0,0,0,25,0,0,0,0,0,0,0,0,0,0,0
0,0,0,235,235,145,15,55,235,20,160,205,120,110,0,0,0,0,0,50,0,0,0,0,80,105,0,0,0,0,25,0,235,70,0,0,0,80,175,60,165,230,220,100,95,205,0,35,90,30,165,0,0,0,0,170,0,0,0,0,0,0,0,0
0,35,0,0,235,10,20,60,240,230,240,145,140,205,0,0,0,85,35,0,0,0,0,0,0,0,0,0,0,0,0,0,0,55,110,0,230,205,180,125,225,150,210,5,165,0,0,140,230,35,0,0,0,0,0,0,0,0,0,0,0,0,0,0
0,0,0,230,240,140,0,150,145,135,80,80,0,0,230,0,130,0,0,0,0,30,240,125,0,0,0,0,0,0,205,0,110,90,70,0,140,5,0,165,240,0,190,165,165,35,0,50,70,30,0,0,0,225,145,0,0,0,0,0,0,0,0,15
0,0,210,0,50,0,150,0,85,235,240,20,200,15,195,235,230,0,0,25,80,0,0,0,0,195,0,0,0,0,155,5,10,0,150,105,0,225,85,205,155,5,235,70,75,170,0,0,0,85,0,0,0,0,10,0,0,0,0,0,0,0,0,0
0,0,0,230,0,0,15,155,240,235,230,220,30,225,0,30,125,0,0,0,0,0,0,0,0,0,110,0,0,0,0,0,40,0,0,0,0,0,125,105,215,85,240,60,0,0,135,230,0,0,90,0,0,0,15,0,0,0,0,0,0,0,0,0
0,170,70,0,35,240,0,100,70,0,235,40,200,230,0,200,30,235,0,0,0,0,0,0,0,0,0,0,0,0,65,0,230,205,0,85,100,0,95,220,165,0,185,0,70,0,175,140,0,0,35,0,155,50,0,230,0,0,0,0,0,0,0,105
50,0,0,230,0,200,0,240,165,0,95,230,140,115,15,235,230,30,0,0,0,25,0,0,0,0,0,0,0,0,0,25,80,35,20,220,0,110,55,95,100,225,220,240,160,150,0,230,0,30,0,0,0,0,0,175,0,0,0,0,0,0,0,5
120,75,0,240,120,0,205,175,85,230,25,115,10,240,115,0,215,0,115,0,0,0,0,0,0,0,0,0,0,0,50,0,100,230,0,0,0,0,145,180,0,65,0,205,0,0,225,160,0,35,0,0,0,15,10,0,0,0,0,0,0,0,15,0
0,0,130,0,50,100,140,185,240,40,0,0,70,200,0,0,0,100,190,95,25,0,230,0,0,0,0,0,0,0,0,0,0,235,0,0,165,0,0,75,230,210,215,40,140,0,145,25,240,0,20,0,0,0,0,0,0,0,0,0,0,0,0,0
85,0,240,35,0,110,0,210,0,80,0,20,225,120,0,240,0,75,200,25,165,0,0,0,0,0,0,0,0,0,0,220,75,0,0,30,0,0,105,0,195,240,230,10,235,0,0,120,0,0,0,0,75,0,0,0,0,0,0,0,0,0,0,0
25,0,0,225,0,0,0,115,220,240,210,100,0,50,0,205,25,0,230,0,0,0,0,0,65,0,0,0,0,0,0,20,80,0,125,0,0,80,0,115,215,220,180,200,55,240,0,0,0,10,35,185,0,0,0,0,0,0,0,0,0,0,0,0
0,10,135,235,0,195,0,235,40,45,100,190,0,0,0,45,55,0,0,0,0,0,70,0,0,0,0,0,0,0,0,215,235,0,0,0,15,195,75,20,15,175,15,230,0,30,70,5,0,0,225,30,35,0,0,0,0,0,0,0,0,0,0,0
0,95,0,0,70,0,220,240,15,65,20,230,0,0,120,0,0,235,70,175,235,0,0,70,0,0,40,0,0,0,0,210,225,0,0,0,0,35,0,210,65,0,20,115,230,0,90,0,80,0,0,30,0,0,0,0,0,0,0,0,0,0,0,0
0,0,0,235,240,0,0,185,5,0,0,120,190,240,0,15,115,30,80,170,0,0,0,0,0,0,0,0,0,0,0,0,235,155,0,70,160,170,0,0,180,170,225,0,225,125,230,20,75,230,30,0,40,0,10,0,0,0,0,0,0,0,0,0
180,0,0,0,0,190,235,240,85,0,195,0,80,0,0,30,0,65,70,235,95,0,0,0,0,0,0,0,0,0,0,150,175,0,15,125,0,0,240,30,140,225,115,185,0,0,0,0,230,0,0,30,0,45,0,0,0,0,0,0,0,0,60,0
0,0,0,0,230,160,235,135,60,0,190,220,0,115,0,30,0,205,30,165,0,0,0,0,0,0,0,0,0,0,230,5,240,0,0,20,0,0,235,135,60,0,240,225,0,15,205,0,0,0,0,0,0,230,0,0,0,0,0,0,0,0,0,0
0,0,0,230,210,240,175,45,175,20,0,0,205,230,205,0,0,70,160,0,235,10,0,0,0,95,0,0,0,0,0,0,225,225,0,40,165,0,60,65,5,165,175,240,0,15,220,0,35,190,0,65,25,0,0,0,0,0,0,0,0,0,0,0
0,235,145,0,0,130,0,0,230,0,160,235,0,100,175,5,0,0,240,225,30,0,0,70,0,0,0,0,0,0,0,25,10,70,0,20,10,0,130,220,0,165,190,230,230,0,0,170,170,125,235,0,40,0,0,0,0,0,0,0,0,0,0,0
0,40,240,0,0,220,0,160,105,80,0,200,90,0,150,210,240,0,145,0,35,0,0,0,40,0,0,0,0,0,0,130,70,0,75,200,20,70,15,70,90,20,180,230,120,0,0,235,0,35,0,0,0,0,0,200,0,0,0,0,0,0,0,0
140,0,240,130,0,0,230,5,200,230,195,205,0,60,0,0,0,180,0,0,170,0,0,0,0,0,220,0,0,0,0,0,0,230,15,95,0,230,0,230,0,220,0,220,0,0,0,235,0,240,0,45,35,0,0,0,0,0,0,0,0,0,0,55
235,0,115,0,0,140,95,190,235,0,50,0,0,120,5,0,235,45,0,205,10,0,0,0,0,0,0,0,0,0,0,60,0,5,0,225,0,150,20,0,190,105,210,0,230,175,0,0,0,130,0,0,0,0,0,25,0,0,0,0,0,0,0,0
0,0,0,235,75,0,240,0,0,235,105,65,0,85,0,0,0,35,155,0,0,0,135,0,160,0,0,0,0,40,0,0,0,115,30,165,120,0,25,220,240,185,95,0,75,25,220,95,40,0,0,0,0,0,0,15,0,0,0,0,0,0,0,100
0,35,0,0,0,15,15,240,235,175,0,205,195,0,130,0,0,25,0,0,40,0,0,0,0,0,0,0,0,0,70,0,0,175,0,5,155,155,40,75,50,100,110,50,225,0,0,0,210,180,30,0,30,0,0,0,0,0,0,0,0,0,0,0
0,215,235,0,180,0,0,120,235,40,225,150,185,140,0,0,0,0,240,70,0,25,0,130,0,0,10,0,0,0,0,235,100,0,0,20,85,0,165,55,35,145,175,235,0,5,160,230,0,30,0,0,0,110,0,20,0,0,0,0,0,0,0,0
0,230,125,0,0,145,0,0,220,240,240,190,0,0,190,105,35,0,120,0,0,0,0,50,0,155,0,0,0,0,0,0,145,0,25,5,165,50,15,80,240,210,220,0,0,230,0,0,0,0,0,30,30,60,0,0,0,0,0,0,0,0,0,0
125,10,0,235,220,15,0,230,105,210,100,5,200,10,240,205,25,0,0,170,0,0,0,0,0,0,0,0,0,160,75,0,0,0,70,150,0,105,65,240,0,130,235,125,0,155,0,0,195,195,30,0,0,0,0,0,0,0,0,0,0,0,0,0
145,0,135,0,235,0,110,235,90,230,15,0,0,125,115,0,0,35,20,0,0,0,0,0,0,0,0,0,0,220,0,0,0,75,140,40,0,60,45,160,0,215,165,15,240,0,205,230,0,175,15,0,0,0,0,0,0,0,0,0,0,0,0,0
0,0,0,0,0,235,240,135,45,165,200,25,135,230,205,0,0,5,0,30,0,0,0,0,0,240,0,0,0,0,0,0,105,35,205,0,0,30,125,45,80,155,160,220,0,205,10,0,35,145,0,230,0,0,0,0,0,0,0,0,0,0,0,0
0,235,0,235,0,0,140,75,0,185,0,80,215,10,100,230,235,85,0,30,150,0,0,35,0,0,0,0,0,0,0,0,235,230,130,0,0,0,0,150,135,235,180,200,80,0,185,15,230,160,0,0,0,0,0,0,0,0,210,0,0,0,0,0
0,115,215,0,105,0,235,140,20,225,25,160,215,0,5,195,0,0,200,0,0,0,0,235,0,0,0,0,0,0,0,215,0,0,205,105,160,0,95,0,130,240,230,210,0,205,5,0,0,0,15,120,25,0,0,0,0,0,0,0,0,0,0,0
205,0,195,225,120,0,0,210,105,190,0,200,0,65,0,170,135,0,0,240,0,0,0,0,135,0,0,0,0,235,0,0,155,0,165,0,0,0,120,215,0,225,225,10,5,0,0,0,0,0,160,0,35,0,0,0,0,5,0,0,0,0,0,0
0,175,0,0,0,60,95,15,240,0,25,235,180,220,30,105,175,0,0,0,0,0,0,0,0,0,0,0,0,0,70,0,130,0,0,0,0,5,0,140,240,0,215,80,180,230,225,180,0,0,0,0,30,0,0,0,0,0,0,0,0,0,60,0
0,0,230,45,0,180,0,235,60,240,220,230,0,0,105,210,105,0,0,85,0,0,0,0,0,0,0,0,0,0,0,0,105,0,0,0,0,0,75,195,240,105,0,220,0,130,180,80,80,225,0,0,45,0,0,40,0,0,0,0,0,0,0,0
230,0,0,0,0,0,235,230,0,235,115,130,230,30,0,0,35,0,0,0,0,0,0,0,0,0,0,0,0,0,0,130,0,0,45,0,0,175,85,240,5,65,165,0,30,240,235,180,0,0,30,0,0,0,0,0,0,0,0,0,0,0,0,0
175,5,130,0,240,0,115,0,80,195,0,0,150,115,230,0,0,175,185,0,0,0,0,0,0,0,0,0,0,0,0,0,200,0,100,40,150,0,205,15,160,240,140,235,0,160,35,0,210,0,0,0,0,0,0,0,105,0,0,0,0,0,0,0
