0,0,0,0,29,0,0,4,1,0,0,0,0,0,0,0,0,0,0,0,0,0,25,0,0,0,0,0,0,0,0,1,0,0,1,0,1,1,35,32,0,3,1,0,1,0,0,0,0,0,0,0,0,1,0,0,0,0,0,0,0,0,0,0
0,0,0,0,1,0,0,0,0,0,48,39,0,42,45,0,0,0,0,0,0,0,0,0,0,0,0,0,0,0,1,2,1,0,0,0,1,32,38,1,1,4,0,0,0,0,0,0,0,0,0,0,0,0,0,0,0,0,0,0,0,0,0,0
0,0,0,0,0,0,8,0,0,0,0,0,0,0,37,39,33,0,0,0,0,0,0,0,0,0,0,0,2,0,1,2,5,0,0,1,0,28,28,0,3,0,7,43,0,0,0,0,0,0,0,0,0,0,32,0,0,0,0,0,0,0,0,1
0,0,0,24,0,2,0,0,47,0,0,0,0,0,0,0,0,0,0,0,0,29,0,0,1,0,0,0,1,0,10,0,1,1,1,0,0,3,35,0,2,34,2,0,0,0,0,0,0,0,7,0,0,0,0,0,0,0,0,0,0,0,0,0
0,0,0,38,0,30,0,0,1,46,0,0,0,0,0,37,0,0,0,0,0,0,0,0,0,0,0,0,0,0,2,3,0,0,0,0,1,2,11,1,1,0,26,0,0,0,0,0,41,0,0,0,0,0,0,0,0,0,0,0,0,0,1,1
0,0,0,0,39,0,0,28,0,0,0,0,43,0,0,0,0,0,0,0,0,0,26,0,0,0,0,0,0,0,0,0,2,0,29,1,0,0,19,1,5,25,0,0,0,1,42,0,0,0,0,0,0,0,0,0,0,0,0,0,0,0,3,8
0,0,0,0,32,0,0,0,0,0,48,0,0,0,46,38,0,0,0,0,0,0,0,23,0,0,0,0,0,1,3,3,3,0,1,0,21,1,0,1,0,47,1,0,0,0,0,44,0,0,0,0,0,0,0,0,0,0,0,0,0,0,0,0
0,0,0,0,1,28,0,0,47,0,48,0,0,0,0,0,0,0,0,0,1,0,26,0,0,0,0,0,0,1,3,0,0,0,0,0,1,0,30,3,25,1,46,0,1,0,0,0,0,0,0,0,0,0,0,0,0,0,0,0,0,0,2,0
1,0,0,0,0,0,12,45,0,0,45,0,0,40,0,0,0,0,0,0,0,0,0,0,0,0,0,0,1,0,0,1,3,0,0,3,8,1,2,3,2,1,9,2,45,0,47,0,0,0,0,0,0,0,0,0,0,0,0,0,0,0,0,0
0,0,0,0,0,35,44,0,0,0,47,0,0,0,0,0,0,0,0,0,0,0,0,6,0,0,0,0,0,2,1,1,0,0,0,0,1,19,2,0,0,0,4,0,0,0,0,0,0,0,0,0,0,0,0,0,0,0,0,0,1,0,0,1
0,0,0,0,0,0,20,0,0,0,0,0,0,42,0,46,0,0,0,0,0,0,0,0,0,0,0,0,0,5,0,1,0,1,0,0,11,30,1,1,1,39,0,1,0,0,30,0,0,0,0,0,0,0,0,0,0,0,0,0,0,0,3,0
0,0,0,0,0,2,2,0,43,0,0,0,0,0,0,0,0,0,0,0,0,0,0,0,0,0,0,0,0,1,1,0,1,0,1,1,0,0,14,2,0,46,0,1,0,0,0,0,0,34,0,0,0,0,0,0,0,0,1,0,0,2,0,0
2,0,0,27,0,0,0,0,0,0,0,47,0,0,0,41,0,0,0,0,0,0,29,0,0,0,0,0,2,0,4,1,0,0,1,0,0,12,0,1,3,3,0,42,0,0,0,0,0,0,0,0,0,0,0,0,0,0,0,0,0,0,0,1
0,0,0,0,0,15,46,46,0,0,0,0,0,0,0,0,0,0,0,0,0,24,0,0,0,0,0,0,0,0,0,0,0,1,0,0,0,1,13,1,1,46,1,0,0,43,0,0,1,0,0,0,0,0,0,46,0,0,0,0,0,0,0,17
0,0,3,0,0,0,44,0,0,0,0,0,0,0,0,0,0,0,0,26,0,0,0,46,0,0,0,0,0,2,4,25,0,1,0,0,0,13,24,7,1,1,46,0,1,0,3,0,0,0,0,0,0,0,0,0,0,0,0,0,0,0,1,0
0,0,7,0,0,41,0,0,47,0,0,0,0,0,0,0,38,0,0,0,0,0,0,0,0,0,0,0,0,0,1,0,1,1,0,8,8,1,1,1,2,0,3,1,48,45,0,0,0,0,0,0,0,1,0,0,0,0,0,0,0,0,0,0
0,0,0,0,0,34,46,0,0,0,0,0,0,0,0,0,0,0,0,0,0,0,0,0,0,0,0,0,0,1,0,1,1,0,0,0,0,1,1,5,0,1,0,0,0,0,0,42,47,0,0,0,0,0,0,0,0,0,0,0,0,0,0,1
1,0,34,0,0,32,0,0,0,0,0,0,0,0,0,0,0,0,0,0,0,0,0,0,0,0,0,0,0,0,0,0,0,0,0,3,0,0,0,2,1,1,1,1,0,0,0,0,7,0,33,0,0,0,0,0,0,0,0,0,0,3,0,0
0,0,0,0,0,25,0,0,0,0,0,19,0,0,0,0,0,0,0,0,28,0,0,0,0,0,0,0,4,0,0,0,6,0,0,0,0,1,1,1,3,0,48,46,0,0,0,0,0,0,0,0,0,32,0,0,0,0,0,0,0,0,1,0
0,0,0,3,0,0,37,0,0,47,0,0,0,0,0,0,0,0,29,0,0,0,0,0,0,0,0,0,1,0,1,1,1,1,0,0,3,2,27,1,1,0,0,35,47,0,0,0,0,0,14,0,0,0,0,0,0,0,0,0,0,1,0,0
0,0,0,0,0,6,46,45,0,0,0,0,0,0,0,39,0,0,0,0,0,0,0,0,0,0,0,0,1,2,0,1,0,1,0,0,19,1,1,2,0,1,1,46,0,47,0,0,0,0,0,0,0,0,0,0,0,0,0,0,0,1,4,0
0,0,1,0,0,0,0,0,0,0,0,0,0,0,0,0,0,0,0,0,31,0,0,1,0,0,0,0,0,1,1,0,0,1,0,0,3,1,35,1,2,35,2,0,0,0,0,0,0,0,0,0,46,0,0,0,0,0,0,0,0,0,0,2
0,0,0,0,0,0,0,0,0,0,0,0,0,40,45,0,0,0,0,0,0,0,0,0,0,0,0,0,0,1,0,5,1,1,0,0,1,2,0,33,2,2,0,46,0,0,0,0,0,0,0,0,0,0,0,0,0,0,0,0,0,0,0,1
0,0,0,0,0,0,0,40,0,0,0,41,0,47,0,0,0,0,0,0,0,0,0,0,0,0,0,0,0,2,0,2,0,0,1,0,2,10,1,32,17,0,0,2,0,0,0,0,39,2,0,0,0,0,0,0,0,0,0,0,0,1,0,0
0,0,0,0,33,13,0,0,0,0,0,47,0,0,0,0,0,0,0,0,0,0,0,0,0,0,0,0,1,0,1,3,3,0,0,0,0,0,27,1,37,37,3,0,0,0,0,0,0,0,0,0,0,1,0,0,0,0,0,0,0,0,0,1
0,0,0,0,0,0,0,0,0,48,0,0,0,47,0,0,0,0,1,0,0,0,0,0,0,0,0,0,0,1,2,1,0,1,0,1,0,14,2,44,1,32,0,0,0,0,0,0,0,0,0,0,37,0,0,0,0,0,0,0,0,0,2,2
0,0,31,0,0,0,0,0,0,47,0,0,0,46,39,0,0,0,0,0,0,0,0,0,0,0,0,0,0,0,0,0,0,7,1,5,0,1,1,2,23,1,0,0,0,0,0,0,0,0,0,0,0,0,0,0,0,0,1,0,0,0,0,0
0,0,0,0,0,0,0,39,0,0,0,0,0,0,0,0,0,0,0,0,0,0,37,0,0,0,1,5,0,1,1,0,0,0,0,0,0,28,2,3,0,0,7,0,44,0,0,0,0,0,0,0,0,0,0,0,0,0,0,0,0,0,0,0
0,0,0,0,0,37,0,0,0,48,0,0,0,0,39,0,0,0,0,0,0,0,0,0,0,0,0,0,0,0,0,1,0,1,0,2,0,3,38,47,35,1,47,0,0,0,0,0,0,0,0,0,0,0,0,0,0,0,0,0,0,0,0,0
0,0,0,0,0,0,0,0,0,0,41,48,0,46,0,0,0,0,0,0,0,0,0,0,0,0,0,0,0,0,0,0,1,1,0,1,0,32,24,2,0,1,0,47,0,0,0,0,0,0,0,0,0,0,0,0,0,0,0,0,0,0,0,0
0,0,0,0,0,0,41,0,0,1,0,0,0,0,0,0,39,0,0,0,0,0,0,0,0,0,0,0,0,1,0,0,0,0,0,0,0,27,34,0,0,5,1,0,0,47,0,0,0,0,0,0,0,0,0,0,0,0,0,0,0,0,0,0
0,0,0,0,0,42,0,0,0,43,0,0,0,0,0,40,39,0,0,0,0,0,0,0,0,0,0,0,0,0,3,2,0,1,0,24,1,23,1,1,0,1,19,0,0,0,0,0,0,0,0,0,0,0,0,0,0,0,0,0,0,3,0,0
0,0,0,0,0,33,0,32,0,0,0,0,0,0,0,0,0,30,0,0,0,0,0,0,0,0,0,0,0,1,0,2,0,0,0,7,2,0,3,1,2,0,1,45,0,0,44,0,0,0,0,0,0,0,0,0,44,0,0,0,2,0,0,0
18,0,0,0,0,33,0,0,0,0,0,0,0,0,0,0,0,0,0,0,0,0,0,0,0,0,0,0,0,0,1,1,0,0,0,0,0,1,3,0,5,1,0,47,0,1,0,0,0,0,0,0,0,0,0,0,0,0,0,0,0,0,0,0
0,0,0,0,41,0,0,1,0,0,0,0,0,0,0,0,0,0,0,0,0,0,0,0,0,0,0,0,1,0,1,0,2,0,0,2,1,0,3,5,0,0,34,1,0,43,0,0,0,0,0,0,0,0,0,0,0,0,0,0,0,0,1,0
1,0,0,0,35,0,32,1,0,0,0,0,0,0,0,0,0,0,0,0,0,0,0,0,0,0,0,0,0,1,0,0,0,1,0,1,0,4,3,3,3,0,0,0,0,0,0,0,0,0,0,0,0,0,0,28,0,0,0,0,0,0,0,1
0,0,0,0,32,1,0,1,0,0,46,0,0,0,0,0,0,0,0,0,0,0,0,31,0,0,0,0,0,0,1,0,0,5,0,0,0,0,30,0,20,2,0,2,0,0,0,0,0,0,0,0,0,0,0,0,0,0,0,0,0,0,0,0
0,0,0,0,0,0,0,20,0,0,0,0,0,0,46,0,0,0,0,0,0,0,0,0,0,0,0,0,0,1,1,0,0,0,0,0,1,2,1,5,14,1,46,2,0,0,0,0,0,0,0,0,0,0,0,0,0,0,0,0,0,0,0,0
0,0,0,0,1,1,40,0,2,46,0,0,0,38,1,0,0,0,0,0,0,0,0,0,0,0,0,0,0,1,1,2,0,0,0,0,0,23,2,1,0,0,1,46,0,0,13,0,0,0,0,0,0,0,0,0,0,0,0,0,0,0,3,0
0,0,0,0,0,30,32,0,0,0,0,0,0,0,0,0,29,0,0,0,0,0,0,0,0,0,0,0,0,2,0,1,2,0,0,2,0,16,2,1,1,1,0,0,0,0,0,0,38,0,0,0,0,0,0,0,0,0,0,0,0,0,0,3
0,0,0,0,0,0,0,0,0,40,0,0,0,0,0,0,0,0,0,0,0,0,0,0,17,0,0,0,0,1,0,4,6,0,0,0,1,2,18,2,1,0,0,0,6,2,0,0,0,0,0,0,0,0,0,0,0,0,0,0,0,1,0,1
0,0,0,0,23,0,1,0,47,0,0,0,0,0,0,0,0,0,0,0,33,0,0,0,0,0,0,0,0,3,1,0,0,14,0,3,21,1,1,1,1,47,1,1,1,0,44,0,0,0,0,0,0,0,0,0,0,0,0,0,0,0,0,0
0,0,0,0,0,0,0,47,12,0,0,0,0,0,0,0,0,0,0,0,0,0,0,1,0,0,0,0,0,1,1,2,0,0,1,0,0,1,1,17,1,1,2,0,3,0,0,0,0,0,39,0,35,0,0,0,0,0,0,0,0,0,0,3
0,0,0,26,1,0,0,1,0,0,46,0,0,0,0,0,0,0,26,1,0,0,0,0,28,0,0,0,0,0,1,3,0,1,0,5,1,30,2,1,1,3,11,0,0,0,0,0,0,0,0,0,0,0,0,0,0,0,0,0,0,0,2,0
0,0,0,0,0,0,0,23,0,47,0,0,0,0,0,0,0,0,0,0,0,0,0,0,0,0,0,0,0,2,1,2,1,0,0,3,0,13,23,1,3,44,2,1,1,0,0,0,0,0,0,0,0,0,0,0,0,0,0,0,0,0,0,0
0,0,0,29,0,0,1,32,1,0,0,0,0,0,0,35,0,0,0,0,0,0,28,0,0,0,0,0,0,0,1,0,0,2,19,0,17,0,3,1,1,0,2,0,47,0,0,0,39,0,0,0,0,0,0,0,0,0,0,0,0,0,3,0
0,0,0,31,0,24,0,0,4,0,0,0,0,0,0,0,0,0,27,0,0,0,0,0,0,0,0,0,0,0,1,0,0,0,0,0,2,1,2,33,1,0,0,43,0,1,0,0,0,0,2,0,0,0,0,0,0,0,0,0,1,0,0,1
0,0,20,0,0,0,0,1,0,0,0,0,0,0,0,0,36,0,0,0,0,0,0,0,0,0,0,0,1,3,0,10,0,0,0,0,0,1,1,35,42,1,0,1,0,46,0,0,0,0,0,0,0,0,0,0,0,0,0,0,0,0,2,0
0,1,0,0,0,37,0,0,1,46,0,0,42,0,0,0,0,0,0,0,0,0,0,0,0,0,0,0,0,1,0,1,0,0,0,0,1,7,3,31,1,1,1,0,0,0,0,41,0,0,0,0,0,0,0,0,0,0,0,0,0,0,6,0
0,0,0,0,0,37,0,1,0,0,0,0,0,0,41,0,0,0,1,0,0,0,0,0,0,0,0,0,0,0,1,0,1,1,3,0,3,1,19,3,1,1,0,0,0,41,0,18,0,0,0,0,0,0,0,0,0,0,0,0,0,0,0,0
