0,0,0,0,41,38,42,1,0,25,0,0,12,0,0,0,1,1,1,0,1,0,1,1,0,0,0,0,0,0,0,2,24,0,0,0,3,47,0,13,0,3,0,0,40,0,46,0,0,0,0,0,0,0,0,15,0,0,0,0,0,0,6,0
1,0,0,0,0,40,10,40,5,0,0,19,48,0,0,0,1,0,1,0,0,0,1,0,0,0,0,0,0,0,0,0,3,0,48,0,0,1,3,3,8,1,0,2,0,46,0,46,7,0,0,41,48,0,0,1,0,0,0,0,0,0,0,0
47,0,0,0,23,29,46,0,0,3,0,0,0,0,48,12,0,0,17,0,1,1,0,0,22,0,0,0,0,0,32,1,1,0,24,19,38,6,1,2,3,6,5,0,48,0,0,1,0,0,0,0,0,0,0,0,0,0,0,0,0,0,6,0
0,1,0,0,48,0,0,0,47,0,27,0,6,1,0,1,0,0,0,0,0,1,44,0,0,0,0,0,0,0,36,0,1,0,0,0,0,0,2,1,1,48,1,0,1,46,0,0,0,0,1,0,0,0,0,2,0,34,0,0,0,0,0,1
0,0,0,0,0,0,35,47,0,0,46,0,0,0,11,0,0,0,0,0,0,0,0,0,0,0,0,0,0,0,0,6,1,0,0,0,24,1,3,6,45,32,1,8,1,0,0,0,0,41,1,1,1,0,0,0,12,0,0,0,0,0,0,0
0,0,0,0,0,35,3,3,48,1,0,47,0,1,1,1,0,1,1,0,14,14,0,0,0,1,0,0,0,0,16,1,8,0,11,10,1,0,46,3,0,1,0,0,7,0,38,4,7,0,0,0,0,0,0,0,0,17,0,0,0,0,0,0
0,0,47,0,0,28,1,47,0,0,6,0,10,0,0,8,48,0,0,0,0,0,0,0,0,0,0,0,0,0,0,0,47,21,0,1,0,12,16,3,17,1,1,0,2,30,0,39,0,0,0,26,1,8,0,0,0,0,0,0,0,0,0,0
0,0,0,0,33,48,0,9,0,0,19,1,14,0,0,0,26,0,0,0,0,0,0,0,0,0,0,0,0,0,1,0,0,39,0,5,0,3,3,1,3,0,17,14,48,28,0,0,0,0,0,0,7,0,0,0,0,0,0,0,0,0,0,4
0,48,0,0,23,40,0,3,0,0,47,7,48,0,1,0,23,0,1,0,0,0,0,0,0,0,0,0,0,0,1,0,47,0,0,26,2,1,44,0,47,0,5,0,4,0,0,0,1,0,1,1,0,0,13,0,0,0,0,0,0,4,0,0
0,0,3,0,0,0,0,3,47,47,0,1,33,1,0,0,1,0,0,1,1,3,1,0,0,0,0,0,0,0,1,0,1,0,1,2,0,2,1,0,2,10,3,0,0,15,0,48,0,0,39,0,0,0,0,0,0,0,0,0,0,0,0,0
0,0,0,0,0,39,30,47,0,0,0,0,0,48,0,1,1,0,28,0,1,1,0,0,0,0,0,0,0,0,45,0,0,0,0,0,1,3,3,25,33,37,1,1,3,47,0,42,5,0,0,0,0,0,0,2,0,0,0,0,0,0,0,2
46,0,0,0,34,0,46,47,0,7,0,0,0,0,0,1,0,46,3,0,0,0,1,1,14,0,0,0,0,0,44,6,3,0,0,0,4,0,3,0,46,3,48,0,42,0,0,0,11,0,0,0,0,0,0,0,23,0,0,0,0,0,7,0
0,0,0,0,0,1,39,42,48,0,48,0,0,0,0,0,0,19,0,0,0,0,0,0,0,0,0,0,0,0,0,0,2,0,0,0,1,0,0,3,47,29,3,0,1,1,1,0,0,0,5,0,0,0,0,0,0,0,0,0,0,0,0,0
7,0,0,0,0,1,35,0,0,0,6,0,48,0,0,0,45,0,47,10,0,0,0,0,0,0,0,0,0,0,47,0,1,22,23,1,0,2,46,4,2,0,16,1,0,0,0,34,0,0,0,12,0,0,0,0,0,0,0,0,0,0,0,1
2,0,0,25,47,0,0,48,0,1,16,1,2,0,1,0,26,0,0,0,0,0,0,0,0,0,0,0,0,0,2,1,0,0,0,0,0,1,3,17,0,0,0,0,0,0,0,0,46,0,44,0,0,0,0,0,16,0,0,0,0,0,1,0
0,0,0,2,33,46,0,0,0,0,48,0,0,0,0,1,0,0,3,0,0,0,1,0,0,0,0,0,0,0,1,1,1,0,47,2,0,1,3,3,14,7,43,37,0,41,0,0,0,0,0,0,0,0,0,23,0,0,0,0,0,1,0,0
0,12,33,0,0,35,7,47,48,0,0,0,0,24,0,1,0,17,1,1,0,0,0,0,0,0,0,0,0,0,0,0,1,0,0,2,25,1,1,12,2,0,48,0,0,0,1,1,0,2,0,0,0,0,32,0,0,0,0,0,0,0,0,22
0,1,0,30,0,0,0,44,47,1,0,0,0,1,0,23,0,0,0,0,0,0,0,0,0,0,0,0,0,0,2,3,0,0,0,48,30,1,1,7,3,47,17,46,0,0,1,0,0,0,48,0,3,0,0,0,0,0,0,0,0,0,0,0
1,0,48,22,0,5,0,43,0,47,0,0,0,0,0,0,34,0,0,1,0,0,1,0,0,0,0,0,0,0,0,0,1,18,0,36,2,4,0,20,0,32,0,47,0,0,45,0,0,1,0,0,1,0,0,0,0,0,0,0,0,0,0,1
0,18,1,0,1,0,0,45,48,0,0,0,1,0,0,0,1,0,0,0,0,0,0,0,0,0,0,0,0,0,0,5,0,23,0,0,2,2,0,48,0,47,46,10,0,0,0,0,0,0,0,0,0,3,0,0,0,0,0,0,0,0,0,1
4,0,0,0,0,30,0,0,0,48,1,0,0,6,0,1,13,0,0,41,0,0,0,0,0,0,0,0,0,0,1,40,0,0,0,0,1,8,42,0,26,21,1,0,1,0,0,0,11,0,0,0,0,0,0,0,0,0,0,0,0,1,0,0
1,10,0,0,48,5,41,0,8,0,0,1,1,0,0,47,48,6,0,0,0,0,0,0,0,0,0,0,0,0,0,1,47,1,32,0,0,1,1,23,14,19,2,0,0,0,0,0,46,9,0,1,0,0,45,0,1,0,0,0,0,0,0,0
0,0,0,48,32,5,1,4,0,0,0,47,0,0,4,1,0,0,0,48,0,0,0,0,0,0,0,0,0,30,2,5,0,2,0,10,0,0,42,0,0,0,1,35,0,0,0,0,0,0,0,0,38,1,0,0,0,0,0,0,0,0,0,0
1,5,0,0,0,46,3,1,0,47,48,0,1,1,0,0,0,1,0,0,0,0,22,0,7,0,0,0,0,0,0,0,0,0,0,0,0,47,2,40,42,4,1,42,0,3,0,0,4,46,15,0,0,0,0,1,0,0,0,0,0,0,4,0
0,9,0,0,0,33,4,1,0,0,9,47,1,0,1,0,0,0,1,0,0,48,0,1,0,0,0,0,0,0,0,47,9,0,1,0,0,0,37,0,11,47,4,46,0,1,47,0,1,0,0,0,0,0,0,0,0,0,0,0,0,0,0,4
0,4,0,0,0,44,46,48,0,7,0,0,0,0,1,0,0,0,0,0,0,0,0,0,0,0,0,0,0,0,2,0,0,0,1,0,1,46,0,1,1,1,9,0,47,1,47,0,1,1,1,0,0,1,0,14,0,0,0,0,0,0,0,0
0,0,48,0,0,1,44,46,0,0,12,0,1,1,1,0,48,0,0,0,0,0,0,0,0,0,0,0,0,0,0,47,0,0,18,0,0,0,0,2,8,2,0,48,0,45,46,0,33,1,1,0,0,1,0,0,0,0,0,0,0,0,0,0
0,0,0,0,27,48,47,0,0,8,0,1,0,0,0,1,0,33,0,0,0,0,0,16,47,0,0,0,0,0,0,0,3,0,25,0,0,0,3,3,37,47,3,0,1,40,0,0,1,1,2,1,1,0,0,0,0,0,0,0,0,0,2,0
5,7,24,0,39,0,1,0,1,48,0,0,0,0,0,0,0,1,0,0,0,0,0,0,0,0,0,0,0,0,47,1,0,1,1,2,1,47,8,35,2,2,1,42,0,1,1,0,0,1,0,0,0,0,0,0,0,15,0,0,0,0,0,0
0,2,1,48,0,42,0,0,0,0,0,0,0,48,0,42,0,0,0,0,0,0,48,0,0,0,0,18,0,0,1,0,47,2,2,24,0,0,46,1,16,1,0,0,0,13,48,42,1,33,1,14,0,0,0,0,0,0,0,0,0,0,0,46
0,0,0,0,1,22,33,0,0,1,7,0,48,1,1,30,47,0,0,0,0,0,0,0,12,0,0,0,0,0,0,1,6,48,0,0,30,43,0,3,33,7,47,1,32,0,0,0,31,1,0,0,0,0,0,0,0,0,22,0,0,0,0,0
3,9,0,0,0,36,5,2,1,0,0,0,1,12,0,0,0,0,46,0,0,0,0,0,0,0,0,0,0,0,0,2,1,0,0,1,0,2,7,1,3,1,48,0,44,0,0,37,0,0,0,40,1,0,0,0,0,0,0,0,0,3,0,2
2,0,0,34,30,46,0,0,10,0,3,0,1,0,0,0,0,0,47,0,0,14,0,1,0,0,0,0,0,0,0,48,1,0,0,1,0,1,2,26,4,42,0,37,1,0,48,0,0,23,0,20,0,0,0,0,0,0,0,0,0,0,0,47
0,2,0,0,27,0,0,47,46,0,0,0,0,0,0,0,0,25,0,0,0,0,0,0,0,0,0,0,0,0,14,0,4,0,0,0,0,2,8,44,1,1,0,41,0,0,0,0,0,0,47,0,0,0,13,0,0,0,0,0,0,0,0,3
0,0,48,0,0,36,1,3,0,0,8,0,0,48,12,0,0,0,0,0,0,0,0,0,3,0,0,0,0,0,39,0,0,0,2,0,0,0,35,17,2,6,0,10,1,0,0,7,0,46,0,0,0,15,0,0,0,0,0,0,0,0,0,0
1,2,0,0,0,42,0,2,48,2,0,13,0,46,0,0,46,0,0,0,0,0,0,0,0,0,0,0,0,0,0,3,43,20,2,0,5,0,1,48,36,36,0,31,0,0,1,17,1,0,0,43,0,13,0,0,0,0,0,0,0,0,0,0
0,3,39,0,0,40,41,4,38,1,0,1,0,0,13,0,0,0,48,0,0,0,2,24,0,0,0,0,0,0,0,3,1,0,1,0,48,0,36,2,1,1,0,48,1,0,39,0,0,0,0,0,1,1,0,0,11,0,0,0,0,0,0,0
0,0,32,0,0,33,0,48,0,0,4,0,0,0,46,0,1,0,0,0,0,0,45,0,0,0,0,0,0,0,0,14,0,0,5,0,0,23,41,33,4,1,0,0,0,32,0,19,0,1,48,1,0,3,0,0,0,0,0,0,0,0,0,0
0,0,48,0,27,0,40,1,0,2,0,31,0,0,0,0,0,0,0,0,0,0,0,0,0,0,0,0,0,0,0,4,1,0,0,0,0,1,44,4,0,48,2,0,14,26,0,1,0,0,42,1,0,17,0,0,0,0,0,0,0,0,0,7
0,0,0,0,48,1,0,0,4,7,0,0,0,0,1,0,47,0,0,0,0,0,0,0,0,0,0,0,0,0,1,0,2,0,22,0,0,37,1,1,4,48,1,41,34,0,38,0,0,2,0,0,0,0,0,0,0,0,0,0,0,0,0,0
0,0,0,0,0,0,25,47,0,0,0,0,47,0,0,0,23,0,0,0,0,0,0,0,0,0,0,0,0,0,0,4,0,0,4,0,0,2,32,13,3,8,0,2,1,3,0,0,24,0,0,0,0,21,0,0,0,0,0,0,0,0,1,0
0,0,3,29,0,0,48,1,5,0,0,0,4,0,0,0,47,0,0,19,0,0,0,0,0,0,0,0,0,0,2,0,20,5,0,0,1,1,1,1,14,0,0,2,44,0,43,0,0,47,0,0,34,0,0,7,0,0,0,0,0,0,1,0
18,0,0,0,25,0,40,1,0,0,0,0,0,0,0,0,29,47,0,0,0,0,0,0,0,0,0,0,0,3,0,0,0,19,0,39,1,0,45,1,2,25,0,3,0,0,0,39,2,0,45,0,46,0,0,0,0,0,0,0,0,0,0,0
1,47,2,0,27,0,3,5,0,0,0,0,0,48,0,0,0,0,0,0,0,0,0,0,0,0,0,12,0,0,0,2,47,1,18,2,0,0,2,42,1,1,46,0,39,0,0,0,46,0,2,0,0,0,0,0,0,0,0,0,0,0,0,7
1,0,0,0,0,41,40,2,0,46,0,0,48,0,0,0,0,0,0,4,0,0,0,0,0,0,0,0,0,0,0,1,1,35,0,0,33,1,4,0,14,1,45,0,39,0,1,10,0,0,17,42,0,0,0,0,0,0,0,0,0,0,0,1
0,0,30,47,0,37,0,1,0,46,7,1,0,0,0,0,0,0,0,0,48,0,44,0,0,0,0,0,0,0,45,4,0,0,0,28,2,0,5,5,23,44,0,8,1,0,0,46,0,0,0,41,0,0,0,0,12,0,0,0,0,0,0,0
4,0,0,2,0,43,0,48,1,1,19,0,0,0,0,10,0,0,0,0,0,0,0,0,0,0,0,0,0,0,3,0,30,1,0,0,0,0,7,42,16,0,3,36,1,1,1,0,0,45,0,0,0,0,0,0,0,0,0,0,0,0,0,0
0,0,0,0,1,0,1,1,44,4,13,48,0,0,0,0,0,0,0,0,0,0,0,2,0,0,0,0,0,0,0,30,0,0,0,0,1,2,0,2,2,32,1,2,0,46,0,47,0,0,0,0,0,19,0,0,0,0,0,0,0,0,0,2
0,0,0,0,43,0,0,48,0,0,8,0,46,0,0,0,0,0,0,0,0,0,0,3,0,0,0,0,0,0,0,5,0,2,1,16,1,0,10,0,3,1,1,0,0,48,30,0,0,46,0,0,1,16,1,0,0,0,0,0,0,0,3,0
0,0,0,48,41,0,0,1,44,19,0,0,0,0,10,0,0,0,0,0,0,0,0,0,1,0,0,0,0,1,2,0,0,0,1,0,0,47,2,2,3,46,11,0,0,0,0,12,0,46,0,0,0,0,0,0,0,0,0,0,0,0,0,0
