20,0,164,0,0,0,8,184,12,180,100,28,0,0,0,0,0,0,0,0,164,0,0,0,0,0,0,0,0,8,0,176,0,152,8,0,4,8,28,64,188,40,0,184,0,4,60,172,0,0,0,0,0,0,172,0,0,0,0,0,16,0,0,0
0,0,0,84,0,0,0,0,4,192,100,4,0,140,0,0,0,0,0,0,0,0,0,0,0,0,28,0,0,0,0,4,132,4,68,72,184,0,108,0,8,4,80,0,4,188,20,0,4,0,176,0,0,0,0,0,28,0,0,0,0,0,0,0
0,40,0,80,0,4,192,0,180,0,4,0,0,0,32,148,0,0,0,0,0,0,0,8,0,100,0,0,0,0,0,28,8,104,0,0,0,0,36,52,16,0,0,188,0,184,0,0,0,92,0,0,0,168,0,0,0,0,0,28,0,0,0,4
0,12,0,0,160,8,188,0,112,0,168,0,0,0,0,0,0,0,0,0,0,0,140,0,0,0,0,0,0,20,188,0,64,128,4,0,0,0,52,56,24,0,172,8,4,12,0,0,156,0,0,0,0,0,0,0,0,0,28,0,0,0,0,0
0,0,8,0,0,0,188,16,4,76,0,0,192,0,168,0,0,0,0,56,0,0,0,0,0,0,28,0,0,0,0,0,12,12,0,76,0,4,132,68,24,88,0,4,156,0,4,0,0,0,0,16,0,0,0,0,0,0,28,0,0,0,0,0
4,0,4,0,76,0,4,0,0,4,80,192,0,0,16,144,0,0,0,0,0,0,0,0,132,28,0,0,0,0,4,24,32,184,0,0,0,12,8,12,68,68,164,0,0,0,96,0,0,0,0,0,0,0,0,0,0,28,0,0,0,0,0,0
0,136,4,96,0,4,192,0,12,12,100,0,0,0,156,0,0,0,0,0,184,0,0,0,0,0,0,0,0,0,0,4,0,116,0,80,16,0,24,8,8,64,184,0,40,52,0,0,0,0,0,0,32,0,0,0,0,0,0,0,0,0,0,168
0,0,0,0,0,88,0,0,4,192,112,0,0,0,0,192,0,0,0,0,0,100,0,8,0,0,0,0,0,0,0,16,188,12,52,0,0,4,44,72,16,188,192,4,52,0,156,0,0,0,0,0,0,0,0,0,0,0,0,0,0,0,0,0
0,0,4,84,0,0,0,188,192,188,0,112,0,0,0,152,0,0,0,0,0,0,0,20,0,0,0,0,0,20,84,0,8,4,0,4,0,4,172,8,32,12,188,152,0,92,0,4,0,0,0,0,4,0,0,0,0,0,0,24,0,0,0,0
0,0,0,0,12,0,132,192,4,32,0,0,12,0,0,188,0,0,0,0,0,0,0,0,0,16,28,0,0,0,16,0,8,136,0,64,0,8,12,12,128,4,4,0,180,4,56,24,136,0,0,0,0,0,0,0,0,24,0,0,0,0,0,0
188,24,0,0,0,112,0,188,0,8,0,192,0,0,0,16,0,0,0,48,56,0,0,0,0,0,0,28,0,0,4,4,0,0,64,0,0,0,180,20,76,4,4,192,0,88,0,0,0,156,0,0,0,0,0,0,20,0,0,0,24,0,0,12
0,0,0,92,156,76,192,0,0,0,108,0,0,0,0,0,0,0,0,0,0,0,0,168,28,0,0,0,0,4,0,0,8,0,12,4,0,4,120,16,108,12,20,0,0,0,184,0,0,0,124,0,0,0,100,0,0,0,0,0,12,0,12,0
0,24,0,88,156,148,0,4,0,0,192,0,148,0,136,0,0,0,0,0,0,172,0,0,0,0,0,0,0,0,20,12,0,84,0,0,8,108,172,48,12,68,12,0,184,4,4,164,0,4,32,0,0,0,0,0,0,0,0,0,0,0,0,0
0,4,0,164,0,0,192,4,0,20,0,108,0,164,152,4,0,0,0,0,64,0,0,0,148,0,0,0,0,0,0,20,0,120,0,96,0,12,0,52,0,156,172,4,0,0,36,0,0,28,184,0,0,0,0,140,4,0,0,0,0,0,0,12
0,0,0,84,0,0,4,12,4,188,0,104,0,140,176,0,0,0,0,0,0,0,0,0,0,0,0,0,0,0,0,0,8,4,4,8,0,104,184,16,192,68,4,4,152,0,0,0,0,0,0,0,120,0,0,0,0,0,0,0,0,0,0,0
0,0,0,88,8,176,4,8,0,0,192,0,0,0,0,144,0,0,0,0,0,0,0,0,32,28,0,0,0,0,0,12,16,40,0,4,188,0,184,28,76,32,0,188,4,0,168,100,52,0,0,0,0,0,128,32,0,0,0,0,0,0,0,0
32,12,0,160,68,0,168,4,192,0,112,0,0,0,144,0,0,0,0,176,0,0,0,36,0,28,0,0,0,0,0,0,16,128,0,68,72,4,0,4,104,192,132,8,4,0,0,156,0,0,0,0,0,0,0,0,0,0,0,0,0,24,0,4
0,0,0,84,0,168,8,0,4,192,104,0,0,0,132,0,0,0,0,88,0,0,0,0,0,32,0,0,0,0,4,0,36,12,76,0,0,8,176,20,84,0,160,0,188,4,40,0,0,0,0,156,180,0,0,0,0,0,0,0,20,0,0,32
0,84,132,0,0,40,192,0,0,0,188,0,0,0,0,136,0,0,0,0,0,180,0,0,0,0,0,0,0,0,20,56,12,0,0,84,0,12,8,108,188,188,188,28,0,0,0,52,0,0,0,132,0,0,0,0,0,0,0,0,0,0,0,0
0,8,64,0,4,0,0,192,188,20,0,124,0,0,0,0,24,0,0,0,0,0,0,0,0,0,0,0,0,0,0,0,4,0,0,4,8,8,20,144,88,4,4,168,188,0,0,12,0,0,0,0,0,0,0,0,0,0,0,0,0,0,0,20
0,148,0,0,92,4,8,8,160,192,0,120,0,24,0,0,0,0,100,0,0,0,176,0,0,0,0,0,0,0,0,0,28,0,0,0,84,0,12,0,84,140,4,12,4,12,0,180,0,0,0,0,0,0,128,32,0,0,0,0,0,0,0,0
28,0,48,0,0,0,0,184,8,132,24,192,0,0,0,140,0,0,0,0,0,0,0,0,0,0,0,0,0,0,0,8,4,0,0,4,96,4,96,4,4,68,12,0,0,12,184,0,0,0,0,0,80,0,128,0,0,0,0,0,0,0,0,0
0,40,0,80,0,192,20,12,152,0,104,0,0,0,0,192,0,0,0,0,0,0,40,0,0,0,0,0,0,0,0,20,44,0,0,4,100,28,0,28,0,16,168,72,192,0,0,0,0,136,0,0,0,0,80,0,0,0,0,0,0,0,0,164
0,0,0,0,88,56,4,188,188,96,0,0,0,0,0,0,140,0,0,0,0,0,0,0,0,0,0,0,24,0,0,0,28,0,8,4,192,4,16,68,12,4,68,192,0,184,48,4,188,0,0,0,0,0,0,0,0,0,28,0,0,0,0,0
0,0,0,80,0,192,24,8,0,0,24,108,0,0,124,0,0,0,0,0,0,0,0,0,0,0,0,24,0,0,0,12,188,40,0,0,0,12,0,4,72,160,4,156,168,0,0,0,0,0,0,184,0,68,0,0,0,28,0,0,0,0,0,8
4,0,0,64,152,12,0,12,188,0,20,192,0,28,0,0,0,0,152,0,0,0,0,0,156,0,28,0,0,0,0,88,0,16,188,4,8,0,40,12,136,100,0,4,188,0,0,16,192,0,0,0,0,0,40,0,0,0,0,24,0,0,0,16
0,0,0,4,80,0,12,184,8,188,0,192,0,0,0,0,0,0,128,0,0,0,0,0,0,0,28,0,0,0,4,0,12,4,0,188,0,8,40,0,4,168,160,192,0,184,0,0,0,0,0,64,0,0,0,0,0,0,0,4,0,0,0,0
184,0,0,0,0,0,148,0,16,0,192,0,4,0,0,0,192,0,0,0,0,0,48,0,0,0,0,0,12,4,0,4,84,8,0,0,0,16,100,64,20,188,0,8,0,192,0,4,0,0,0,112,0,0,0,0,0,0,12,0,0,0,0,140
0,12,28,4,0,0,0,4,4,0,112,0,192,184,176,0,0,0,0,0,0,4,0,0,0,0,0,0,20,0,0,8,188,52,0,68,0,12,56,4,4,120,0,100,100,16,0,24,0,0,0,0,0,48,28,0,0,0,0,0,0,0,0,0
0,12,0,0,4,0,192,0,0,188,0,104,24,0,0,0,164,0,0,0,128,0,0,0,0,0,0,0,0,4,0,4,60,0,0,0,12,0,36,0,192,8,88,16,0,0,0,20,168,0,0,0,0,0,0,0,0,0,0,0,0,0,0,0
4,0,0,0,0,0,176,8,176,188,0,104,4,0,0,20,0,0,0,0,0,0,0,0,0,0,0,0,0,0,0,4,4,180,0,0,0,12,4,168,0,164,0,4,4,0,192,0,0,0,0,0,0,0,32,0,0,0,0,0,0,0,0,12
188,0,0,0,0,0,156,0,0,12,0,0,4,0,0,0,184,4,0,0,0,16,0,0,0,0,0,0,0,0,0,140,0,12,128,0,4,32,32,12,100,20,132,32,0,4,0,0,0,184,0,0,0,0,40,28,0,0,0,0,0,8,0,0
0,0,0,4,184,96,0,192,0,4,188,120,0,0,28,0,0,0,136,0,0,0,0,44,0,0,0,0,0,0,0,0,0,44,0,0,8,60,180,20,128,184,40,184,0,0,0,4,160,100,0,0,0,0,0,0,28,0,0,0,0,0,0,16
20,0,0,0,172,4,192,4,188,0,0,184,0,0,0,0,0,0,0,0,0,0,0,0,92,0,20,0,0,0,4,4,0,100,0,0,16,108,88,60,80,184,0,8,0,0,0,0,0,16,0,0,40,0,0,0,28,0,0,0,0,0,12,0
4,0,0,188,0,4,0,0,4,92,188,0,160,0,0,0,0,0,0,192,0,0,0,0,0,0,0,0,0,0,28,8,16,4,4,0,0,48,20,24,188,188,188,4,0,0,100,0,0,0,0,20,28,0,0,0,0,0,0,0,0,0,0,36
4,0,0,0,0,0,12,0,156,192,188,192,0,0,4,0,0,0,0,0,0,0,0,0,0,0,0,0,0,0,4,4,0,4,0,16,52,0,0,0,184,80,180,0,0,4,0,0,0,0,0,24,20,0,0,0,0,0,0,4,0,0,0,4
0,12,0,0,24,0,0,144,188,0,0,192,4,16,24,0,0,0,0,0,0,0,0,0,0,0,0,0,0,0,0,20,4,0,0,124,0,12,12,20,0,188,168,184,188,40,0,0,0,0,0,0,0,0,0,0,0,28,0,0,0,0,0,0
8,0,44,0,0,0,184,36,188,4,112,0,0,0,0,0,0,192,0,0,0,0,0,0,0,0,0,0,0,0,0,8,0,4,0,0,64,0,44,188,32,156,112,0,188,4,0,156,4,32,4,0,0,0,0,0,0,0,0,0,0,0,0,20
0,0,88,192,0,0,0,4,188,192,0,0,0,144,0,0,0,4,0,192,0,0,0,0,28,0,0,0,0,0,8,4,32,8,0,84,4,4,4,28,4,192,12,188,0,0,0,0,0,0,0,0,0,0,0,12,0,0,0,0,0,0,4,0
0,28,76,0,0,0,8,4,188,192,0,0,0,188,0,0,148,0,0,0,0,0,0,0,0,0,4,0,0,0,0,0,12,0,4,12,104,4,24,4,192,48,0,188,180,0,0,0,0,0,0,0,0,0,0,0,0,0,0,0,0,0,0,0
12,0,4,64,0,12,0,188,84,188,0,192,0,0,0,0,4,132,0,0,0,0,0,0,0,24,0,0,0,0,0,112,4,0,0,0,4,12,0,24,92,64,192,4,188,180,0,4,0,0,4,0,0,0,0,0,0,0,0,0,0,0,0,0
168,36,0,24,0,0,184,0,0,100,0,44,0,188,0,0,128,0,0,0,0,0,0,0,0,0,0,0,20,0,0,64,164,0,72,0,140,0,4,16,28,188,96,0,0,0,0,0,0,0,140,0,0,0,0,0,0,28,0,0,4,0,0,20
0,0,0,36,0,156,0,4,124,0,192,28,4,0,32,0,8,0,0,36,0,0,0,28,0,4,0,0,0,0,0,12,8,64,60,0,124,8,192,0,44,96,20,0,4,4,0,0,140,0,148,0,0,0,32,0,172,0,32,0,0,0,0,0
12,0,8,192,156,12,4,12,0,0,0,112,0,0,0,144,0,140,0,0,192,0,0,24,0,132,0,0,0,0,108,12,8,4,112,0,72,8,24,68,168,40,0,60,28,0,0,0,184,0,0,56,0,0,0,0,120,0,0,0,0,0,4,0
4,184,0,0,0,16,0,0,4,4,88,0,0,184,0,140,0,192,0,0,0,0,0,20,0,0,0,0,0,0,0,8,188,0,0,0,76,12,4,156,120,12,16,4,0,0,0,0,0,0,40,0,0,172,0,0,0,0,0,0,0,0,0,0
0,0,0,0,188,156,148,156,4,8,100,12,0,0,60,0,0,0,0,0,0,48,192,0,0,0,12,0,0,0,188,0,4,0,0,0,80,4,32,148,176,188,40,4,4,0,0,148,0,0,0,52,0,0,0,4,0,0,0,0,20,0,0,8
0,0,4,0,168,0,0,132,192,104,0,0,24,0,184,0,0,0,0,24,0,4,0,0,0,0,0,0,0,0,0,0,0,4,76,64,152,60,16,4,64,28,0,0,0,192,0,0,24,0,0,0,0,0,0,116,120,0,0,0,0,0,0,12
0,4,120,188,0,0,0,0,12,0,188,0,4,0,148,0,184,0,0,0,192,0,0,0,0,32,0,0,0,0,12,64,72,8,72,0,28,4,16,0,168,184,20,44,24,4,0,88,0,0,188,0,0,0,0,0,24,0,0,0,0,0,0,0
0,188,92,128,0,8,0,20,4,0,104,192,0,0,0,0,140,0,0,0,0,0,0,0,0,0,4,0,0,0,0,32,4,68,188,0,0,180,8,28,184,12,4,0,4,4,28,0,164,0,0,0,0,0,0,0,0,0,0,0,0,0,0,52
0,40,0,168,96,0,4,0,0,192,92,188,0,132,0,0,0,0,0,0,4,0,0,0,0,108,0,0,0,0,0,4,0,36,0,0,116,16,20,184,192,0,12,32,0,100,0,176,0,0,0,0,164,0,0,0,0,0,0,0,0,0,0,28
