0,0,0,0,2,94,0,80,0,0,0,0,0,0,0,0,0,0,0,0,0,0,0,0,0,0,0,0,0,0,2,0,2,0,0,0,2,2,2,2,2,92,2,94,0,0,0,0,0,0,0,0,0,0,0,0,58,0,0,0,0,0,2,2
0,0,4,0,6,0,0,92,0,0,0,0,0,88,0,0,0,74,0,0,0,0,0,0,0,0,0,0,0,2,2,0,2,0,2,0,0,6,68,62,40,92,2,0,0,0,60,0,0,0,0,0,0,0,0,0,0,2,0,0,0,0,0,16
0,0,0,0,80,0,0,0,0,94,0,0,0,0,0,0,0,0,0,0,0,0,0,0,0,0,0,0,0,2,0,0,0,2,0,2,0,0,4,86,2,82,0,0,94,0,0,0,0,0,0,0,0,0,0,0,0,0,0,0,0,0,0,0
0,0,0,6,0,2,68,2,0,0,96,0,0,0,0,0,0,0,0,0,0,0,0,0,0,0,0,0,2,0,0,0,0,0,0,10,2,4,76,82,88,2,2,2,92,0,0,0,0,0,0,0,0,0,0,0,0,0,0,0,0,0,2,0
0,0,0,0,12,74,0,0,2,0,6,0,2,2,0,0,0,0,0,0,0,0,0,0,0,0,0,0,0,0,2,2,0,0,0,8,0,0,70,2,4,2,2,0,84,2,0,0,50,0,0,0,0,92,0,0,0,0,0,0,0,0,0,2
0,0,0,0,24,0,54,32,0,0,0,0,90,0,0,0,0,0,0,0,0,0,0,0,0,0,2,0,0,0,0,38,0,4,0,0,0,2,2,2,10,92,84,2,0,0,0,92,0,0,0,0,0,0,0,0,0,0,0,0,0,0,0,0
0,0,4,0,0,0,88,0,8,0,0,0,0,0,0,0,0,0,0,0,0,0,0,0,0,0,0,0,0,0,0,2,2,2,0,0,4,0,4,2,88,2,6,94,2,0,0,0,0,0,0,0,0,0,0,0,0,0,0,0,0,0,0,0
0,0,0,4,0,20,70,94,0,0,0,34,0,0,0,0,0,0,0,0,0,66,0,0,0,0,0,0,0,0,2,0,0,32,0,0,12,6,2,2,2,94,0,0,0,0,0,86,0,0,0,0,54,0,0,0,0,0,0,0,0,0,0,16
0,0,0,0,0,0,0,0,96,0,0,0,0,0,0,0,0,0,0,0,66,10,2,0,0,0,0,0,0,0,0,0,0,0,0,2,2,0,88,90,82,2,0,0,0,0,0,0,0,0,0,0,0,0,0,0,0,0,0,0,0,0,0,2
0,0,0,6,0,0,0,0,0,18,0,0,0,0,0,0,96,0,0,0,0,0,0,0,0,0,0,0,0,0,4,0,0,48,4,24,2,0,70,66,2,0,0,10,0,0,0,0,0,0,0,0,0,0,0,0,0,0,0,0,0,0,4,0
0,0,0,0,0,0,86,32,2,0,0,0,0,0,0,0,0,0,0,0,0,0,0,0,0,0,0,0,0,0,2,2,0,0,2,2,2,2,0,2,0,0,6,0,0,0,0,0,0,0,0,0,0,0,0,0,0,0,0,0,0,0,0,0
0,0,0,0,2,2,94,34,0,0,0,0,0,0,0,0,0,0,0,0,0,0,0,0,0,0,0,0,0,0,4,0,2,0,0,2,0,4,2,0,84,0,4,0,0,0,0,0,0,0,0,0,0,0,0,0,0,0,0,0,0,0,0,0
0,0,0,0,0,14,0,0,0,0,0,0,0,40,0,0,0,0,0,0,0,0,0,0,0,0,0,0,0,0,0,0,2,0,36,4,0,0,4,86,0,0,2,0,0,0,0,0,84,0,0,0,0,0,0,0,0,0,0,0,0,0,0,16
0,0,0,0,0,0,0,0,36,0,80,0,0,0,0,0,0,0,0,0,0,0,0,0,0,0,0,0,0,0,2,2,0,2,0,0,0,16,2,2,2,82,2,0,0,0,0,0,0,10,0,0,90,0,0,0,2,0,0,0,0,0,4,0
0,0,50,0,30,0,6,8,0,0,34,0,0,0,0,0,0,0,0,0,0,0,0,0,0,0,0,0,0,0,0,18,2,2,0,0,6,0,0,2,4,0,0,82,0,2,0,0,0,0,0,0,0,0,0,0,0,0,0,0,0,0,10,12
0,0,2,0,0,4,0,42,0,0,0,0,0,0,0,0,0,0,0,0,0,0,0,0,0,0,0,0,0,0,0,2,0,0,0,0,10,2,2,4,6,0,2,0,0,0,0,86,0,0,0,0,0,0,0,0,0,0,0,0,0,2,0,0
0,0,0,0,82,0,20,0,0,90,0,0,0,0,0,26,0,0,0,0,0,0,0,0,0,0,0,0,0,0,0,0,0,0,0,0,52,6,6,0,2,96,2,0,2,0,0,0,0,80,0,0,0,0,0,0,0,0,0,0,0,6,0,16
0,0,0,0,0,0,0,26,2,0,96,0,0,0,0,0,0,0,0,0,0,0,0,0,0,0,0,0,0,2,2,0,2,0,0,0,6,2,0,92,2,2,2,0,0,0,0,0,66,0,0,0,0,0,0,0,0,0,0,0,0,0,8,20
0,0,0,0,0,0,90,0,8,0,0,0,0,0,0,0,0,94,0,0,0,0,0,0,0,0,0,0,2,0,4,4,40,0,38,0,4,0,2,2,2,0,2,0,0,0,0,0,0,78,0,92,0,0,0,0,0,0,0,0,0,0,0,0
0,0,58,2,0,0,0,26,0,94,0,0,0,0,0,0,0,0,0,0,0,0,0,0,0,0,0,0,0,2,2,0,0,0,4,6,0,4,0,0,90,92,0,0,0,0,0,0,0,0,0,0,0,0,0,0,0,0,0,0,0,0,2,0
0,0,0,4,0,0,0,0,0,94,0,0,0,0,0,0,0,0,0,0,0,0,0,0,0,0,0,0,0,2,0,2,2,4,4,0,0,8,2,0,0,0,2,0,0,24,0,0,0,0,0,0,0,0,0,0,0,0,0,0,0,0,2,10
0,0,0,0,0,2,82,0,0,0,0,0,2,0,0,0,0,0,0,0,0,0,0,0,0,0,0,0,2,0,0,0,0,0,0,0,2,2,2,2,36,0,0,0,0,94,2,0,0,0,0,0,0,0,0,0,0,0,0,0,0,0,0,0
0,0,0,0,0,0,74,38,0,0,0,0,0,0,0,0,0,0,0,0,0,0,0,0,0,0,0,0,0,2,0,0,0,0,0,8,2,4,0,0,74,42,2,0,0,0,0,0,0,0,0,0,0,0,0,0,0,0,0,0,0,0,0,0
2,0,0,0,0,20,0,84,0,0,0,0,0,0,0,0,0,0,0,0,0,0,0,0,0,0,0,0,0,0,2,20,0,0,0,0,4,2,0,2,0,4,92,92,0,0,0,0,0,0,0,0,0,0,0,0,0,0,0,0,0,0,4,0
0,0,0,0,0,0,0,44,94,0,0,0,0,0,0,0,0,0,0,0,0,0,0,0,0,0,0,0,0,0,4,0,2,0,0,4,0,2,46,2,2,0,2,94,2,0,0,0,0,0,0,0,0,0,0,0,0,0,0,2,0,0,4,4
2,0,0,0,0,0,0,94,70,0,0,0,0,0,0,0,0,0,0,0,0,0,0,0,0,0,2,0,0,2,0,0,6,0,0,2,0,0,4,78,4,2,0,18,0,0,0,0,0,0,0,0,0,0,0,0,0,0,0,0,0,0,0,0
0,0,0,0,0,0,2,94,0,0,0,0,0,0,0,0,0,0,0,0,0,0,0,0,0,0,0,0,0,0,0,0,0,0,0,0,0,4,0,4,0,0,88,0,0,0,0,0,0,0,0,0,0,0,0,0,0,0,0,0,0,0,0,0
0,6,0,0,0,2,4,0,92,0,0,0,0,0,0,0,0,0,0,0,0,0,0,0,0,0,0,0,0,0,2,0,4,0,4,6,2,2,2,58,8,2,0,2,0,84,0,0,0,0,0,0,0,0,0,0,0,0,0,0,0,6,0,16
0,0,0,0,0,0,0,0,34,0,90,0,0,0,0,0,0,0,0,0,0,0,0,0,0,0,0,0,0,2,4,4,0,2,0,2,2,0,6,88,2,84,2,0,0,0,0,0,0,0,0,0,0,0,0,0,0,0,0,0,0,0,4,0
0,0,0,0,6,0,0,0,0,0,36,0,0,0,0,0,94,0,0,0,0,0,0,0,0,0,0,0,0,6,0,2,0,0,0,2,20,0,6,0,4,0,0,2,0,32,2,0,0,0,0,0,0,0,0,0,0,0,0,0,0,0,2,0
0,0,14,0,0,0,0,0,0,56,0,0,0,0,0,30,0,0,0,0,0,0,0,0,0,0,0,0,0,0,0,2,0,0,0,0,20,4,6,0,2,0,0,0,0,0,0,0,0,70,0,0,0,0,0,0,0,0,0,0,0,2,8,0
0,0,0,0,0,0,0,18,0,0,0,0,0,0,0,0,0,0,0,0,0,0,0,0,0,0,0,0,0,4,0,2,0,0,0,2,4,0,0,74,0,6,0,2,0,0,0,0,0,0,0,0,0,0,0,0,0,0,0,0,0,0,0,0
0,0,0,0,0,0,2,0,0,0,46,0,0,0,0,0,0,0,0,0,0,0,0,0,0,0,0,0,0,0,0,4,0,14,2,18,2,2,6,4,2,0,2,0,0,0,86,0,0,0,0,0,0,0,0,0,0,0,0,0,0,0,14,2
0,0,0,0,0,0,0,48,46,0,0,0,0,0,0,0,0,0,0,0,0,0,0,0,0,0,0,0,0,6,0,4,2,0,0,0,2,0,6,80,2,8,2,0,0,92,0,0,0,0,0,0,0,0,0,52,0,0,0,0,0,0,0,0
0,0,0,0,0,14,16,90,0,0,0,34,0,0,0,0,0,0,0,0,0,0,0,0,0,0,0,0,2,0,0,2,0,0,28,0,2,8,2,4,6,2,0,88,0,0,90,0,0,0,0,0,0,0,0,0,0,0,0,0,14,0,0,0
0,0,4,0,0,0,4,0,80,0,72,0,0,0,0,66,0,0,0,0,0,0,0,0,0,0,0,0,0,0,2,2,0,0,54,34,0,0,6,2,2,2,0,82,2,2,0,0,0,0,66,0,0,0,0,0,0,0,0,0,0,0,0,20
0,0,0,0,0,0,0,0,52,0,0,0,82,0,0,0,0,0,0,0,0,0,0,0,0,0,0,0,0,0,2,2,0,0,0,0,0,2,2,4,94,4,2,0,0,0,0,0,0,86,0,0,0,0,0,0,0,0,0,0,0,0,0,2
0,0,0,0,0,18,34,0,0,0,82,0,0,0,0,0,0,0,0,94,0,0,0,0,0,0,0,0,0,2,0,2,34,0,0,48,0,0,2,2,0,0,0,0,0,0,0,0,0,72,0,0,0,0,0,0,0,0,0,0,0,2,0,12
2,0,0,0,66,0,0,26,0,0,0,0,0,0,0,0,0,0,0,0,0,0,0,0,0,0,0,0,2,2,0,2,0,0,2,0,4,2,2,10,2,0,88,0,0,0,0,0,0,0,0,0,0,0,0,0,0,0,0,0,2,0,0,0
0,0,0,0,12,4,0,0,0,4,0,0,0,0,0,0,0,0,0,0,0,0,0,0,0,0,0,0,0,2,2,0,2,0,0,26,0,58,2,2,10,2,0,0,0,0,0,0,0,0,0,0,0,0,0,0,0,0,0,0,0,0,0,0
0,0,0,2,0,4,0,0,0,66,0,0,0,0,0,0,0,0,0,0,0,0,0,0,0,0,0,0,0,0,2,0,0,0,4,0,2,20,6,66,6,0,0,0,0,0,0,84,0,0,0,80,0,0,0,0,0,0,0,0,0,0,0,24
52,0,0,0,0,0,2,0,70,50,0,0,0,0,0,94,0,0,0,0,0,0,0,0,0,0,0,0,0,0,2,2,0,0,14,0,2,2,0,86,6,0,4,88,0,0,0,0,0,0,0,0,0,0,0,0,0,0,0,0,0,2,0,0
0,6,0,0,0,26,0,94,2,0,0,0,0,42,0,0,0,0,0,0,0,0,0,0,0,0,0,0,0,0,4,2,0,0,0,0,50,4,4,76,4,0,2,2,2,2,0,0,0,0,0,0,0,94,0,0,0,0,0,0,0,6,0,0
26,52,0,0,0,0,2,0,44,0,0,0,0,0,0,0,0,0,0,0,0,0,0,84,0,0,0,0,0,0,2,2,0,0,0,0,12,32,0,4,2,4,0,0,0,78,0,0,0,0,0,2,0,0,58,0,0,0,0,0,0,0,0,20
0,0,0,6,0,0,0,0,36,0,0,0,10,0,0,0,0,0,56,0,0,0,0,0,0,0,0,0,0,0,0,0,0,0,2,0,0,0,56,78,82,0,2,2,0,0,0,0,0,0,0,0,0,0,0,0,0,0,0,0,0,0,0,0
0,0,0,0,2,0,0,0,0,0,0,0,82,0,0,0,0,0,84,0,0,0,0,0,0,0,0,0,0,0,0,12,0,0,14,0,6,2,6,56,2,0,88,2,0,0,0,0,0,0,0,0,0,0,0,0,0,0,0,0,0,0,0,2
0,20,0,0,12,0,0,0,94,50,0,0,0,82,0,0,0,0,0,0,0,0,0,0,0,0,0,0,0,0,2,0,2,0,0,0,6,0,40,4,2,6,0,2,0,0,0,0,0,0,0,76,0,0,0,0,0,0,0,0,0,4,0,0
0,0,10,0,0,0,0,0,56,0,0,0,0,0,0,0,0,0,94,0,0,0,0,0,0,0,0,0,2,0,6,32,0,0,2,0,2,2,4,0,90,2,2,2,0,0,0,0,0,0,0,0,0,0,0,0,0,0,0,0,0,0,6,0
2,0,0,0,10,90,8,6,0,0,0,0,82,0,0,0,0,0,0,0,0,0,0,0,0,0,0,0,0,2,2,0,0,0,0,2,0,60,52,6,2,2,0,86,0,0,0,0,92,0,0,0,0,0,0,0,0,0,0,0,2,0,4,22
0,68,0,0,10,0,0,0,0,0,58,0,0,0,0,0,0,0,0,68,0,0,0,0,0,0,0,0,0,0,6,0,2,0,0,0,6,50,8,78,4,2,0,20,0,0,2,0,0,0,0,0,0,0,0,0,0,0,0,0,0,0,4,6
