0,9,0,0,0,0,0,0,0,108,0,0,141,0,0,0,0,0,0,0,0,0,0,0,0,0,0,0,0,0,3,3,0,0,15,0,0,3,3,6,138,72,3,0,0,30,0,0,0,0,0,0,0,0,0,0,0,0,0,0,0,0,6,0
0,0,3,0,0,0,0,0,99,141,0,0,0,0,0,0,0,0,0,0,0,0,0,0,0,0,0,0,0,0,3,3,3,0,0,27,0,0,3,132,72,0,6,0,0,0,0,0,0,0,0,0,0,0,0,0,0,0,0,0,0,0,0,0
0,0,0,0,0,0,0,0,0,114,0,0,141,0,0,0,0,0,0,0,0,0,0,0,0,0,0,0,0,0,36,0,3,0,0,0,3,0,0,0,63,3,0,0,0,0,0,0,129,0,0,0,0,0,0,0,0,0,0,0,0,0,0,0
0,0,0,66,0,0,0,0,87,0,0,0,0,0,0,141,0,0,0,0,0,0,105,0,0,0,0,0,0,3,0,0,0,3,3,0,0,3,9,3,12,63,3,0,63,132,0,0,0,0,0,0,0,0,0,0,0,0,0,0,0,3,0,0
0,0,12,0,84,0,0,0,0,0,0,0,0,0,0,0,0,0,0,0,0,0,0,24,0,0,0,0,0,0,0,3,0,6,0,0,0,0,3,6,87,0,3,0,0,0,0,0,0,0,0,27,0,0,0,0,0,0,0,0,0,0,0,0
0,0,0,63,0,0,0,0,108,6,0,0,0,0,0,0,0,0,0,0,0,102,0,0,0,0,0,0,3,3,0,0,0,0,3,3,66,9,0,3,3,0,69,0,0,0,0,0,0,0,0,0,0,0,0,0,0,0,0,0,0,0,0,0
0,0,57,0,0,0,0,9,0,114,0,0,0,0,0,0,0,0,0,0,108,0,0,0,0,0,0,0,0,3,0,0,0,0,0,96,0,0,3,63,6,3,0,117,0,0,0,0,0,0,0,0,0,0,0,0,0,0,0,0,0,0,0,0
0,0,0,81,0,0,0,0,0,105,0,0,0,0,0,27,0,0,0,0,0,0,0,0,0,0,0,0,0,0,6,0,0,3,15,0,9,0,3,3,66,0,3,3,0,66,0,0,0,0,0,0,0,0,0,0,0,0,0,0,0,0,0,0
12,0,57,0,0,0,0,3,0,0,0,0,99,0,0,0,0,0,0,0,114,0,0,0,0,0,0,0,0,0,0,0,3,0,0,0,96,0,3,3,102,0,0,78,0,0,0,0,0,0,0,0,0,0,0,0,0,0,0,0,0,0,0,0
0,0,0,0,0,0,0,0,0,0,0,0,0,0,0,0,0,126,0,0,0,0,0,0,0,0,0,30,0,0,6,0,0,0,0,0,15,0,3,0,0,3,84,0,0,0,0,0,21,0,0,0,0,0,0,0,0,0,0,0,0,0,0,0
0,15,0,0,0,129,0,0,0,105,0,0,0,0,0,0,0,0,0,0,0,0,0,0,0,0,0,0,0,0,3,3,0,0,0,0,0,3,6,3,21,81,3,0,138,0,0,0,0,0,0,0,0,0,0,0,0,0,0,0,0,0,6,0
0,0,0,0,78,0,0,0,0,114,0,0,0,0,0,0,0,0,0,0,0,0,0,0,0,0,0,0,0,3,0,0,0,3,9,3,0,0,0,3,57,0,90,0,3,0,0,0,0,0,0,0,0,0,0,0,0,0,0,0,0,0,0,3
0,0,0,0,0,0,0,141,141,0,111,0,0,0,0,0,0,0,0,0,0,0,0,0,0,0,0,0,0,0,3,0,6,0,0,0,0,3,0,9,60,3,108,6,0,0,0,126,0,0,0,0,0,0,0,0,0,0,0,0,0,0,0,0
0,0,0,0,96,0,0,105,0,102,75,0,0,0,0,0,0,117,0,0,0,0,0,0,0,0,0,0,0,0,0,0,3,57,0,0,21,75,3,3,36,3,87,0,0,0,0,0,0,0,0,0,0,0,0,0,66,0,0,0,0,0,0,0
0,0,60,0,0,0,0,99,0,0,0,0,144,0,141,0,0,0,0,0,0,96,0,0,0,0,0,0,0,0,3,0,15,0,45,0,3,6,9,126,0,9,72,0,0,0,0,30,0,126,0,0,0,0,0,0,0,0,0,0,0,0,0,0
0,0,0,69,0,0,135,0,0,0,0,0,0,0,0,0,0,0,0,0,0,0,0,93,0,0,0,0,0,3,0,15,0,0,0,0,3,0,6,3,36,6,129,84,3,138,0,0,0,0,0,0,0,0,0,0,0,0,0,0,0,0,0,0
0,0,0,0,84,0,141,0,0,0,0,0,0,0,0,0,0,0,0,0,0,0,0,0,0,0,0,0,0,0,0,3,0,0,0,0,0,0,0,3,6,3,69,0,111,132,0,0,0,0,0,0,0,0,0,0,0,0,0,0,0,0,0,0
0,0,0,15,0,0,96,0,141,0,0,0,0,0,0,0,0,0,0,0,0,0,0,0,0,0,0,0,0,0,3,3,0,0,0,3,0,0,87,15,0,0,57,0,0,0,0,0,144,0,0,0,0,0,0,0,0,0,0,0,0,0,0,0
0,0,0,0,99,0,0,0,0,0,0,0,0,0,0,0,0,138,0,0,0,0,0,102,0,0,0,0,0,0,3,0,3,0,0,21,51,3,3,6,9,75,0,0,0,54,0,0,0,0,108,0,0,0,0,0,0,0,0,0,0,0,3,0
0,0,0,0,90,0,0,0,0,141,0,0,0,0,0,96,0,0,0,0,0,0,0,0,0,0,0,0,0,3,9,0,0,0,0,0,0,105,9,6,3,0,0,141,0,0,0,0,0,0,0,111,0,0,0,0,0,0,0,0,0,0,0,0
0,0,0,81,0,0,0,141,0,105,0,0,0,0,0,0,0,0,0,0,0,0,0,0,0,0,0,0,0,0,0,0,0,6,3,57,6,69,6,0,6,69,0,141,0,0,0,0,0,0,0,99,0,0,0,0,0,0,0,0,0,0,0,0
57,0,0,63,0,0,6,0,0,0,0,114,0,0,141,0,0,0,0,0,96,0,0,0,0,0,0,0,0,3,6,0,9,0,0,0,3,3,3,6,3,3,0,96,0,0,3,0,0,0,0,0,0,0,0,0,0,0,0,0,0,0,0,0
0,0,0,0,72,0,0,141,105,0,0,0,0,0,0,0,0,0,0,0,0,0,0,99,0,0,0,0,0,0,0,6,0,42,0,0,6,6,6,6,63,0,0,141,3,0,0,0,0,0,0,0,0,0,0,0,0,0,0,0,0,0,0,3
0,0,0,0,0,0,93,141,0,0,0,111,0,0,0,0,0,0,0,0,0,0,0,0,0,0,0,0,0,0,0,3,0,0,0,3,3,0,3,3,3,78,141,0,0,0,0,0,0,0,0,0,0,0,0,0,0,0,0,0,0,0,0,0
0,0,0,0,0,15,138,0,87,0,0,0,0,0,0,0,132,0,0,0,0,3,0,0,0,0,0,0,0,3,0,0,60,0,0,3,18,0,9,12,3,66,0,138,138,0,0,0,0,0,0,0,0,0,0,0,0,0,0,0,3,0,0,0
0,0,0,0,0,0,138,144,0,90,0,0,0,0,0,0,0,0,0,0,0,0,0,0,0,0,0,0,0,0,0,0,0,6,0,0,0,6,3,36,3,3,138,0,0,0,0,138,0,0,0,0,0,0,0,0,0,0,0,0,0,0,0,0
0,0,0,0,0,90,0,0,141,0,0,0,0,0,0,0,0,0,0,0,0,0,0,0,72,0,0,0,0,0,3,3,0,36,0,27,3,45,0,15,3,6,75,45,0,0,0,0,120,0,0,0,0,0,0,0,0,0,0,0,0,0,0,3
0,0,0,0,0,141,129,84,105,0,0,0,0,0,0,0,0,0,0,0,0,0,0,87,0,0,0,0,0,0,0,21,0,0,0,0,3,0,3,9,3,138,138,0,0,0,0,0,0,0,0,0,0,0,0,0,0,0,0,0,0,0,0,3
3,0,0,0,0,111,3,0,108,141,0,0,0,0,0,0,0,0,0,0,0,0,0,0,0,0,0,0,0,0,0,6,3,0,0,0,0,3,27,3,123,0,3,0,0,0,0,132,0,0,0,0,0,0,0,0,0,0,0,0,0,0,0,9
0,0,0,0,66,0,0,0,0,0,102,144,0,0,0,0,0,0,0,0,0,0,0,0,0,0,0,0,0,0,6,0,0,39,0,6,0,3,3,3,9,0,105,0,0,0,0,0,0,0,0,0,0,0,0,0,0,0,0,0,0,0,3,0
0,0,0,0,0,0,0,0,0,0,144,0,0,0,0,0,0,0,0,0,0,0,0,0,0,0,0,0,0,3,0,0,0,0,0,0,6,3,0,3,96,3,0,87,0,0,0,0,0,0,0,0,0,0,0,0,0,0,0,0,0,0,3,0
0,0,0,0,0,0,0,105,3,141,0,141,0,0,0,0,0,0,0,0,0,0,0,0,0,0,0,0,0,0,0,6,6,0,0,0,0,0,126,0,3,6,84,0,0,0,0,0,0,0,0,0,0,0,0,0,0,0,0,0,0,0,0,3
0,0,0,0,0,0,0,0,99,0,0,0,0,141,0,0,0,0,0,0,0,0,0,0,0,0,0,0,0,0,0,3,3,0,0,6,0,0,114,0,3,0,0,0,84,135,0,0,0,0,0,0,0,0,0,0,0,0,0,0,0,3,0,0
0,0,0,0,135,0,0,0,0,0,0,0,0,0,0,138,0,0,0,0,0,0,0,0,0,0,0,0,0,3,0,0,3,0,0,0,81,3,12,0,72,0,75,0,0,0,0,0,0,0,0,0,0,0,102,36,0,0,0,0,0,0,0,0
0,0,0,72,0,27,0,96,0,0,0,0,0,144,0,3,0,0,0,0,96,0,0,0,0,0,0,0,3,0,0,9,0,0,0,69,0,72,3,3,9,126,78,0,0,0,0,0,0,0,0,0,105,0,0,0,0,0,0,0,0,0,0,9
0,0,0,0,0,0,0,0,105,0,0,0,144,0,0,0,0,0,0,0,0,0,0,0,0,0,0,0,0,3,3,0,3,0,48,0,63,3,0,117,15,96,66,0,0,0,0,0,0,123,0,0,0,0,0,0,0,0,0,0,0,3,0,0
0,0,0,0,78,0,0,0,141,114,0,144,0,0,0,0,0,0,0,0,0,0,0,0,0,0,0,0,0,0,0,0,0,0,3,0,24,6,9,6,3,87,6,0,3,141,0,15,0,0,0,0,105,0,0,0,0,0,0,0,0,3,0,0
0,0,0,60,0,0,3,0,0,114,0,0,0,0,0,0,0,0,0,0,0,0,105,0,0,0,0,0,0,0,0,3,30,0,0,0,3,0,9,0,0,0,138,0,0,0,135,0,0,0,0,0,0,0,0,0,0,0,0,0,0,0,0,0
0,0,0,0,90,0,0,57,144,0,0,0,0,0,0,0,0,0,0,0,0,0,0,0,0,0,0,0,0,3,0,0,3,15,0,0,0,3,9,6,0,0,138,0,0,0,0,0,0,0,0,108,0,0,0,0,0,0,0,0,0,0,6,0
0,0,3,78,0,0,0,0,141,0,111,0,0,0,0,0,0,0,0,0,0,0,96,0,0,0,0,0,0,0,0,0,0,0,0,0,3,0,3,57,36,69,3,0,3,0,0,0,0,0,0,0,0,0,0,0,0,0,0,0,0,0,3,0
0,21,0,0,0,0,0,3,0,105,0,144,0,0,0,0,0,0,141,0,0,0,0,0,0,0,0,0,0,3,3,33,3,30,0,0,15,3,9,3,63,3,84,0,3,0,0,0,0,0,0,0,0,12,0,0,0,0,0,0,0,0,3,0
0,0,0,0,0,0,0,0,0,0,105,141,0,0,0,0,0,0,0,0,0,0,0,0,0,0,0,0,0,3,3,6,0,0,0,0,0,12,0,3,132,51,84,0,0,0,0,0,0,0,0,0,0,0,78,0,0,0,0,0,0,0,6,0
12,0,0,0,3,0,0,0,0,111,144,141,0,0,0,0,0,0,0,0,0,0,0,0,0,0,0,0,0,3,0,3,24,0,6,0,0,3,9,3,3,144,69,3,0,0,0,0,0,0,0,0,0,0,0,0,0,0,0,3,0,0,0,0
0,0,0,0,99,15,0,0,0,0,105,0,0,0,0,0,0,0,0,0,0,0,0,0,0,0,0,0,0,0,3,0,3,0,0,0,3,0,69,9,63,6,3,0,0,0,0,0,111,0,0,0,0,0,0,0,0,0,0,0,0,3,0,0
0,0,0,0,87,0,0,0,0,108,0,0,0,0,0,129,0,0,0,0,0,96,0,0,0,0,0,0,0,0,0,0,0,0,3,66,9,0,39,6,3,3,0,0,0,0,0,0,0,33,0,0,0,0,0,96,0,0,0,0,0,0,0,0
0,9,0,0,0,3,0,0,0,96,0,6,0,0,0,0,0,0,105,0,0,0,0,0,0,0,0,0,0,0,0,3,39,0,0,0,6,6,6,9,3,78,0,0,0,0,132,0,0,0,0,0,0,0,0,0,0,0,0,3,0,0,0,0
0,0,0,0,93,0,0,0,87,0,0,0,0,0,0,0,0,135,0,0,0,0,0,0,0,0,0,0,0,0,3,6,6,3,0,0,24,0,0,6,66,0,102,0,0,6,0,0,0,0,0,108,0,0,0,0,0,0,0,0,0,0,0,3
0,9,0,0,72,0,0,0,0,0,0,105,0,0,0,0,0,0,0,0,51,0,0,0,0,0,0,0,0,0,3,3,0,0,0,0,24,6,9,3,138,9,0,3,0,0,0,0,0,0,0,0,102,0,18,0,0,0,0,0,0,0,0,3
0,6,0,78,0,0,0,0,99,0,21,0,0,0,0,0,0,0,0,0,0,0,90,0,0,0,0,0,0,0,3,0,51,0,0,12,3,84,0,0,0,3,102,0,0,0,0,0,0,0,0,0,0,0,0,0,0,0,0,0,0,0,0,0
0,0,0,75,0,0,0,0,0,138,0,0,0,0,0,0,0,0,0,0,0,96,0,0,0,0,0,0,0,0,0,3,3,0,0,0,69,3,0,3,0,138,0,126,0,0,0,0,0,0,0,0,0,0,0,0,0,0,0,0,0,0,0,0
