0,0,144,12,0,184,128,24,192,0,4,0,20,0,0,0,0,0,0,108,0,0,84,0,0,0,0,0,0,0,28,0,76,0,4,0,12,0,20,24,24,184,4,192,0,4,0,188,0,56,0,0,0,0,0,0,0,0,0,0,0,0,188,0
0,0,0,172,0,48,92,180,0,0,0,0,0,0,192,0,0,0,132,0,0,0,0,0,0,0,0,0,0,0,32,20,0,0,148,0,28,36,4,56,192,4,0,0,0,0,0,0,144,180,0,0,0,0,0,0,0,0,0,0,0,0,60,0
0,184,0,0,160,0,8,192,12,4,0,0,12,0,0,0,0,136,0,0,0,0,0,0,120,0,0,0,0,0,0,20,140,4,0,140,4,32,8,84,12,184,156,20,0,192,0,172,0,0,48,48,0,0,0,0,0,0,0,0,0,184,0,32
0,0,112,0,156,0,188,4,0,4,0,0,0,0,0,0,0,140,0,0,0,0,0,0,0,20,0,0,0,0,0,164,0,68,0,84,0,32,28,168,164,0,8,124,12,0,0,0,0,0,0,0,0,0,0,0,0,0,0,0,0,0,0,28
0,0,40,0,4,176,16,192,0,104,192,0,0,0,0,0,0,0,0,0,0,0,0,0,0,0,0,0,0,0,60,8,0,48,4,0,148,24,192,48,180,4,4,184,0,4,0,0,184,0,0,0,0,0,0,0,0,0,0,0,0,0,0,44
0,0,0,0,148,184,164,116,0,0,0,4,4,0,0,0,0,0,0,0,0,0,0,0,0,0,0,0,0,68,0,8,0,0,0,12,68,4,0,184,8,8,0,0,184,0,0,24,184,0,0,0,0,0,0,0,0,0,0,0,0,0,8,0
44,0,12,132,52,4,184,0,0,0,92,0,0,0,0,0,0,0,0,0,92,0,0,0,0,0,0,0,0,8,0,0,0,148,0,0,120,12,16,88,12,136,28,188,168,0,0,0,0,0,0,0,0,0,0,0,0,0,0,0,0,0,0,48
0,0,92,0,116,124,0,28,0,4,0,192,48,0,0,0,0,168,0,188,0,0,0,0,0,0,0,0,0,0,56,12,92,16,0,96,0,56,164,32,8,144,12,0,0,0,0,0,0,0,0,0,0,0,24,0,0,0,0,0,0,0,0,80
0,48,0,0,0,192,136,0,4,112,192,0,16,0,0,0,0,0,0,60,0,0,0,0,0,0,0,0,0,0,68,0,4,92,108,8,24,48,32,192,28,8,144,0,0,4,176,56,0,0,0,0,128,0,0,0,0,0,0,0,0,0,32,0
0,0,68,112,120,0,72,4,124,8,0,4,20,0,0,0,0,0,0,0,100,0,0,0,0,0,0,0,0,0,76,0,16,12,88,96,0,16,28,192,20,12,84,188,0,0,156,0,0,0,28,0,0,0,0,0,0,0,0,0,0,0,0,68
0,0,0,168,24,0,188,0,0,16,116,4,0,0,0,0,0,164,4,92,0,0,0,0,0,0,0,0,0,4,0,0,12,0,0,16,0,36,36,68,144,12,188,188,176,0,0,0,0,0,0,0,0,0,124,0,0,0,0,0,0,0,16,0
0,12,188,0,108,52,0,28,116,0,0,0,0,152,136,0,0,0,0,0,0,0,192,0,0,0,0,0,0,168,0,0,0,44,84,100,0,12,136,40,20,52,4,12,0,0,0,188,176,0,0,0,0,0,0,108,0,0,0,0,0,0,0,52
0,28,0,112,132,184,76,0,0,0,116,192,0,4,0,0,20,0,0,116,0,0,0,0,28,0,0,0,0,0,36,16,0,0,0,0,76,68,0,80,20,4,164,0,0,0,188,0,0,0,0,0,0,0,0,0,0,0,0,0,0,0,0,0
0,0,0,0,184,168,4,0,192,0,20,0,88,0,172,0,0,0,108,0,0,0,0,0,0,0,0,0,0,0,36,4,68,0,40,140,64,128,76,40,12,8,120,184,4,0,0,0,0,0,0,0,0,0,0,0,0,0,0,0,0,28,32,0
80,0,104,4,132,192,188,8,124,0,8,4,188,0,0,0,76,0,0,92,0,0,0,0,0,0,0,0,0,36,0,68,12,0,92,0,0,4,16,168,144,4,8,4,0,188,160,4,0,0,0,0,0,128,0,40,0,0,0,0,0,0,0,12
24,0,104,116,0,188,32,4,12,4,192,4,164,0,0,0,128,132,0,0,0,0,0,0,0,0,0,0,0,0,156,36,0,68,124,0,8,32,28,52,12,8,116,8,0,0,184,0,0,0,0,0,0,0,0,0,0,0,0,0,0,0,4,176
44,4,0,180,0,0,0,188,40,4,0,0,164,0,0,0,192,0,0,0,0,0,0,0,0,0,40,0,0,0,56,188,0,0,0,0,88,16,32,12,172,8,192,16,0,112,0,176,0,0,0,0,0,0,0,0,0,0,0,0,0,0,0,0
0,28,0,104,188,192,0,16,188,0,0,0,144,0,0,0,0,0,0,0,0,0,0,0,0,0,0,0,0,160,0,40,84,0,0,20,0,96,128,20,32,0,0,112,0,28,148,188,0,0,0,0,0,0,0,0,0,0,0,0,0,0,0,0
0,48,0,128,192,184,32,20,0,20,0,8,0,0,0,156,0,0,0,0,0,0,0,0,92,128,0,0,0,0,4,16,36,0,116,0,8,4,8,20,184,32,20,0,0,0,0,0,0,164,0,0,56,0,0,0,0,0,0,0,0,0,0,32
0,0,68,0,108,4,12,4,192,0,124,96,192,0,0,0,168,128,0,0,0,0,0,0,0,0,0,0,0,0,60,72,0,0,0,72,0,180,24,24,28,8,0,28,116,4,0,0,0,140,0,140,0,0,0,0,0,0,0,0,0,0,32,0
0,40,108,176,112,0,24,192,0,12,0,0,0,0,0,0,0,0,0,0,0,0,0,0,148,0,0,0,0,0,0,16,28,148,20,16,84,0,32,192,36,28,184,0,4,0,0,0,0,0,0,0,0,0,0,0,0,0,0,0,0,0,0,44
0,0,28,0,168,0,184,0,44,12,4,4,12,0,0,192,0,0,0,0,0,164,0,8,0,0,0,0,0,0,48,40,12,192,148,4,8,0,24,8,40,168,140,0,0,0,0,0,0,0,0,0,0,0,0,0,0,0,0,0,0,0,0,0
12,0,0,12,124,4,0,184,100,192,0,0,0,0,0,0,0,0,0,0,0,0,0,0,64,0,0,0,0,0,32,68,12,64,0,0,20,16,44,156,192,188,4,0,12,0,0,0,0,0,128,0,0,0,0,0,0,0,0,0,0,0,44,0
0,0,184,12,0,28,12,0,188,188,0,0,0,0,0,0,0,0,192,0,0,0,0,0,0,0,0,0,0,0,168,72,0,0,36,4,28,4,188,32,192,84,8,0,0,4,0,0,0,0,0,148,0,0,0,0,0,0,0,0,0,0,0,0
0,172,108,0,0,0,160,20,0,188,0,0,0,0,0,0,0,0,192,84,0,0,0,0,0,0,0,0,0,88,56,44,40,0,4,0,12,44,52,192,20,4,188,96,40,0,4,0,0,0,0,0,20,0,0,0,0,0,0,0,0,0,28,0
0,68,0,0,40,132,20,12,192,0,192,116,0,0,0,0,0,0,0,0,0,0,52,0,0,0,0,0,0,0,4,44,0,68,0,0,12,180,16,28,0,32,4,168,192,0,0,0,0,0,0,140,76,0,0,0,0,0,0,0,0,8,0,0
0,52,0,108,112,192,0,120,8,4,0,0,0,188,0,60,0,0,0,0,0,0,0,0,0,0,0,0,0,0,4,192,4,0,0,96,176,32,28,68,188,0,4,0,0,0,0,0,0,0,0,0,0,16,0,60,0,0,0,0,0,0,32,0
16,0,0,192,96,24,12,164,8,112,0,4,0,0,0,0,0,124,192,0,0,0,0,0,0,0,0,0,56,0,0,4,64,0,0,60,176,0,52,4,12,4,12,180,8,28,0,88,0,0,0,0,0,4,0,0,0,0,0,0,0,0,4,24
0,188,0,104,0,188,0,20,104,0,140,0,16,0,0,0,0,0,184,96,0,0,0,0,0,0,0,0,0,20,0,40,0,44,0,156,100,16,168,0,28,8,4,0,100,164,0,8,0,0,0,0,176,0,0,0,0,0,0,0,0,0,4,0
16,92,0,28,188,184,0,40,28,4,116,0,0,0,0,0,0,0,0,0,0,136,0,0,0,0,0,0,0,0,44,0,40,0,0,160,0,4,4,184,20,4,0,68,4,168,0,0,0,0,0,0,0,0,0,0,0,0,0,0,0,0,0,68
76,0,0,0,28,12,40,0,40,184,0,192,0,0,0,0,0,0,148,0,0,184,0,0,0,0,0,0,0,0,8,0,0,8,188,152,0,32,36,12,4,8,188,164,184,8,0,0,0,28,0,0,0,0,0,0,0,0,0,0,0,0,136,0
0,96,0,128,8,188,68,112,0,0,0,0,0,192,0,0,0,0,0,0,128,0,0,0,0,0,0,0,0,0,0,0,0,64,104,88,64,40,36,12,24,12,12,184,4,0,0,4,0,0,0,0,108,0,0,0,0,0,0,0,0,0,0,0
0,4,192,0,184,0,0,180,12,100,0,12,0,0,0,0,0,0,120,0,0,192,0,0,0,0,0,0,0,0,12,8,16,0,0,72,24,12,24,0,184,12,140,4,0,188,0,0,0,0,0,0,0,0,120,0,0,0,0,0,0,12,0,32
0,0,0,52,4,0,0,0,184,12,0,8,0,0,184,0,0,0,0,0,0,156,0,0,0,0,0,0,0,0,40,100,16,0,0,100,0,0,8,116,20,28,192,8,0,0,0,0,0,0,0,0,0,0,0,0,0,0,0,0,0,0,0,0
0,0,188,0,0,16,180,188,4,112,0,0,0,0,156,0,0,0,192,0,0,0,0,0,0,0,0,0,0,20,0,188,0,0,56,108,4,12,40,4,16,192,188,0,0,124,0,0,0,0,0,0,0,0,0,0,0,0,0,0,0,44,0,0
0,0,100,16,100,192,40,188,12,36,0,0,184,0,0,0,188,0,0,128,0,0,0,140,0,0,0,0,0,0,36,16,188,0,0,72,0,20,52,160,28,28,188,144,0,4,180,0,0,0,0,0,0,0,0,0,0,0,0,0,0,0,80,0
84,0,0,112,0,0,0,32,40,0,192,0,0,0,0,0,0,156,0,0,0,128,0,0,0,0,0,0,0,0,92,40,0,0,4,0,112,48,44,140,60,8,16,128,12,4,0,0,0,0,0,0,0,0,0,0,0,0,0,0,0,0,36,0
0,0,0,0,4,160,144,4,0,184,4,132,0,0,4,0,0,0,0,0,0,0,0,0,0,0,0,0,0,0,0,28,92,4,0,188,0,16,0,40,160,8,188,12,180,0,0,0,0,0,160,0,0,0,0,0,0,0,0,0,0,0,76,0
0,0,192,116,80,184,28,184,4,0,0,0,12,0,0,0,0,0,0,0,96,0,192,0,0,0,0,0,0,0,180,40,0,20,12,0,8,36,48,8,184,16,16,4,0,180,0,188,0,0,0,0,0,0,0,0,0,0,0,0,0,0,0,36
0,136,124,0,92,20,0,120,192,4,184,8,0,0,0,0,0,0,0,0,92,0,0,0,0,0,0,0,0,0,28,0,184,0,160,0,20,0,4,32,188,12,8,0,12,0,0,0,0,0,0,0,48,0,0,0,0,0,0,0,0,0,0,48
0,0,0,92,0,8,0,188,192,8,120,0,0,0,0,0,0,116,0,0,0,0,0,0,0,0,0,0,4,0,0,0,0,32,12,0,112,192,36,28,184,8,188,100,8,4,0,0,0,0,0,0,0,0,0,0,0,0,0,0,0,0,0,0
0,0,0,28,192,176,0,112,0,188,52,4,0,0,0,0,64,0,0,128,0,0,0,0,192,0,0,0,0,0,172,0,0,76,64,0,12,88,52,64,184,16,0,68,0,0,0,0,184,176,0,0,0,0,0,0,0,0,0,0,0,4,0,0
0,192,156,0,0,0,20,28,188,100,0,4,0,0,0,0,192,0,0,0,0,0,0,68,0,0,0,0,0,44,0,188,60,0,164,0,0,12,4,36,180,164,0,8,192,12,0,0,0,0,0,0,0,0,0,140,0,0,0,0,0,0,0,72
0,0,132,192,4,20,116,148,188,0,0,4,0,0,0,0,0,0,0,0,168,0,0,0,0,0,0,0,0,0,4,20,8,164,0,4,0,32,32,28,188,8,8,4,0,0,0,0,0,0,0,0,0,0,0,0,0,0,0,0,0,0,0,0
0,68,0,104,0,32,0,0,24,192,0,0,0,0,0,0,60,0,176,0,0,0,0,76,0,0,0,0,0,4,0,0,92,0,4,168,112,36,20,180,56,92,0,0,64,0,0,0,0,0,0,0,0,0,0,0,0,0,0,0,0,0,0,56
0,48,0,4,0,172,84,136,192,12,0,0,4,0,0,0,0,8,184,0,0,0,0,0,0,0,0,0,0,0,56,4,0,64,76,0,4,4,176,4,160,8,0,4,0,48,0,0,0,0,0,0,0,0,0,0,0,0,0,0,0,0,0,0
12,0,0,0,140,104,192,0,4,0,104,0,0,0,188,0,0,0,0,0,0,88,0,0,0,0,0,0,0,0,12,0,36,0,0,0,180,12,68,52,20,4,48,176,4,4,0,0,0,156,0,0,0,0,0,0,0,0,0,0,0,0,20,0
8,0,0,112,4,192,4,112,0,8,172,0,4,0,0,0,0,188,0,0,116,0,0,152,0,0,0,0,0,0,48,28,0,44,0,0,176,140,72,184,4,8,4,160,164,0,4,0,0,0,0,0,0,60,0,0,0,0,0,0,0,0,0,44
48,4,0,120,20,16,144,4,8,20,108,192,0,0,0,0,0,0,0,184,0,88,0,0,0,0,0,0,0,24,0,152,4,0,104,4,24,164,20,192,36,28,4,12,4,0,0,12,0,0,0,0,68,0,0,156,0,0,0,0,0,0,52,0
60,0,0,108,8,12,8,16,176,0,0,0,0,16,0,0,0,0,72,192,0,0,0,0,148,0,0,0,0,0,188,0,48,8,0,0,84,164,12,8,28,180,0,4,36,0,48,0,0,0,0,0,0,0,0,0,0,0,0,0,0,0,72,0
