0,0,0,0,0,0,2,92,96,0,0,0,0,0,0,0,0,0,0,0,0,0,0,0,0,0,0,0,0,0,0,0,0,0,0,4,2,0,10,6,0,4,74,0,0,94,0,0,0,0,0,0,0,0,0,0,0,0,0,0,0,0,0,0
0,0,0,0,0,94,0,92,0,0,0,0,0,0,0,0,0,6,0,0,0,0,0,0,0,0,0,0,0,6,2,2,2,0,0,0,2,0,2,94,52,92,2,0,0,0,0,0,0,0,32,0,0,0,0,0,0,0,0,0,0,6,0,0
0,0,0,0,0,0,0,0,0,90,0,94,0,0,0,0,96,0,0,0,0,0,0,0,0,0,0,0,0,0,2,0,42,2,0,0,44,2,2,18,4,92,0,0,0,0,10,0,0,0,0,0,0,0,0,0,0,0,0,0,0,0,0,0
0,0,0,4,0,0,2,88,2,0,0,0,0,0,96,0,80,0,0,0,0,0,0,0,0,0,0,0,0,0,0,6,0,0,0,60,2,0,72,6,90,0,0,0,0,0,0,0,0,0,0,0,6,0,0,0,0,0,0,0,0,8,0,2
0,0,6,0,0,4,0,0,78,0,96,0,0,0,0,0,0,0,0,0,0,0,0,0,0,0,0,0,0,0,0,0,0,0,0,0,2,10,92,6,88,4,0,2,0,0,0,0,0,0,0,0,0,0,0,0,0,0,0,0,0,0,0,0
0,0,0,0,0,0,80,0,0,94,0,0,6,0,0,0,0,0,0,0,0,0,0,0,0,6,0,0,2,2,4,6,0,0,0,2,0,2,84,8,0,2,94,0,0,0,0,0,90,0,0,0,0,0,0,0,0,0,0,0,0,0,0,0
0,0,0,0,0,82,0,0,0,88,0,0,0,0,0,0,0,0,0,0,0,0,0,0,0,0,0,0,0,0,2,0,2,0,4,0,2,2,2,90,4,2,0,6,0,0,94,0,88,0,0,0,0,0,0,0,0,0,0,0,0,0,0,2
2,0,0,0,0,92,0,0,0,0,0,94,0,0,0,0,0,0,0,0,0,0,0,0,0,0,0,0,2,6,0,4,2,0,0,0,4,10,6,4,2,0,6,0,16,0,0,0,0,0,0,0,0,70,0,86,0,0,0,6,0,0,2,0
0,0,0,0,14,0,84,0,0,0,0,0,0,0,92,0,0,0,0,0,0,0,0,0,0,0,0,0,0,0,0,6,2,52,0,0,2,4,4,0,0,0,0,0,0,0,32,0,0,0,92,0,0,0,0,0,0,0,0,0,0,0,0,0
0,0,0,66,0,0,0,14,0,0,0,0,0,0,0,0,0,0,0,0,0,0,0,0,0,0,0,0,2,0,2,0,0,2,0,2,6,2,0,62,2,2,2,12,0,0,0,0,0,0,0,82,0,0,0,0,0,0,0,0,0,0,0,0
0,6,0,0,0,0,86,0,0,0,0,0,0,0,0,0,0,0,0,0,0,24,0,0,0,0,0,0,0,2,0,6,4,0,0,0,4,2,2,78,26,4,0,0,0,0,0,90,0,0,0,0,24,0,0,0,0,0,0,0,0,0,6,0
2,0,0,0,0,0,82,0,0,0,0,0,0,96,0,0,0,0,0,0,0,0,0,0,0,0,0,0,2,4,0,4,0,0,0,0,4,0,90,2,8,6,2,0,2,0,36,0,0,86,0,14,0,0,0,0,0,0,0,0,0,0,2,4
0,0,68,44,0,0,0,0,0,0,0,0,0,0,20,0,0,0,0,0,0,68,0,0,0,0,0,0,0,0,0,0,0,0,0,14,0,32,2,78,2,0,0,2,0,0,0,0,0,0,0,0,6,10,0,0,0,0,0,0,0,0,2,0
0,0,6,0,0,2,0,0,0,0,0,0,0,34,0,92,0,0,0,0,0,0,0,0,0,0,0,0,0,6,4,6,16,0,0,0,2,2,2,4,8,0,2,22,0,0,0,0,0,0,0,86,0,0,0,0,0,0,0,0,0,2,0,0
0,0,0,2,0,6,0,0,94,0,0,0,2,0,0,50,0,0,76,0,0,0,0,0,0,0,0,0,0,0,2,2,2,0,0,2,58,2,6,6,0,82,0,0,0,0,0,0,0,0,0,0,0,84,0,0,0,0,0,0,0,0,0,0
0,0,0,0,2,0,0,80,0,0,0,0,0,0,0,0,0,0,34,0,74,0,0,0,0,0,0,0,4,0,6,4,2,0,0,2,0,4,2,2,2,74,2,0,0,0,92,0,0,0,0,0,0,0,0,0,0,0,0,0,0,0,0,0
34,0,2,0,10,0,0,0,0,0,74,0,0,0,0,28,4,0,0,4,0,0,0,0,0,0,0,0,0,0,0,0,2,0,0,0,10,80,0,2,0,76,2,0,0,0,0,4,0,0,0,0,0,0,0,0,0,0,0,0,0,0,0,0
0,0,0,0,0,0,0,0,0,0,0,0,0,0,0,0,92,0,0,0,0,0,0,0,0,0,4,0,0,4,2,0,10,0,2,4,0,4,34,6,0,94,0,0,0,0,0,0,0,0,0,90,0,0,0,0,0,0,0,0,0,2,0,0
2,0,0,0,0,0,0,0,0,88,0,96,0,0,0,0,0,0,0,0,0,4,0,0,0,0,0,0,0,0,0,0,0,0,0,0,0,10,2,92,2,4,0,0,0,0,0,0,0,0,86,4,0,0,0,0,0,0,0,0,0,4,0,0
0,4,0,2,70,0,0,0,0,54,0,0,0,0,0,0,0,0,0,20,94,0,0,0,0,0,0,0,0,2,2,2,0,2,50,0,0,24,6,2,6,2,0,0,2,0,0,0,0,0,0,10,0,0,0,0,0,0,0,0,0,0,0,0
0,0,0,0,10,0,0,0,92,0,0,0,0,0,0,0,0,0,0,18,0,0,0,0,0,0,4,0,0,0,0,4,2,2,0,0,14,4,2,2,6,0,4,0,92,0,20,0,0,0,0,0,0,0,0,0,0,0,0,0,0,0,8,0
0,0,0,6,0,68,2,0,2,0,0,0,0,0,0,0,0,0,0,0,2,0,0,0,0,0,0,0,0,2,2,2,2,0,0,0,38,0,0,4,6,0,78,2,0,0,0,0,0,0,0,0,0,0,0,0,0,0,0,0,0,0,2,0
0,0,0,0,0,0,0,0,0,20,2,0,0,0,0,0,0,0,0,0,0,0,0,0,0,0,0,0,0,0,0,2,0,0,6,0,2,2,6,8,88,2,2,0,0,92,0,0,0,0,0,0,0,0,0,0,0,0,0,0,0,0,6,0
0,0,0,0,0,0,0,86,74,0,0,4,78,0,0,0,0,0,0,0,0,0,0,0,0,0,0,0,0,2,0,6,2,0,0,0,84,6,2,0,0,2,4,0,0,0,0,0,0,88,0,0,0,0,0,0,0,0,0,0,0,0,2,0
0,0,0,0,0,4,84,26,58,0,0,0,0,0,0,0,0,0,0,0,0,0,0,0,0,0,0,0,0,2,2,0,0,0,0,0,0,6,4,0,94,94,92,0,0,0,0,0,0,0,0,0,0,0,0,0,0,0,0,0,0,0,4,0
2,0,0,0,2,0,66,2,0,0,92,8,0,0,0,0,0,0,0,0,0,0,0,0,0,0,0,0,0,6,0,4,0,0,0,0,16,0,6,6,2,0,6,0,0,0,0,16,0,94,0,0,0,0,0,0,0,0,0,0,0,0,2,0
0,0,0,64,0,0,0,0,0,0,0,0,0,0,0,0,0,0,0,0,0,0,0,84,0,0,0,0,0,0,2,0,0,2,0,0,0,8,6,4,2,4,0,0,0,0,0,92,0,0,0,64,0,0,0,0,0,0,0,0,0,0,0,8
0,0,46,6,90,0,0,0,0,2,0,0,0,0,0,76,0,0,0,0,0,0,0,0,0,0,0,0,0,0,8,10,2,0,2,0,2,4,2,10,10,4,2,94,0,0,0,0,0,0,0,0,0,0,0,0,0,0,0,0,0,0,0,8
0,0,0,0,0,2,66,4,0,0,0,10,0,0,0,82,0,2,0,0,0,0,0,0,0,0,0,0,0,0,2,2,0,0,0,2,78,2,2,2,2,0,0,76,0,0,0,0,0,0,0,0,0,0,0,0,0,0,0,0,2,0,0,0
0,0,0,0,0,0,32,0,0,0,94,0,0,0,0,0,0,0,0,0,0,0,0,0,0,0,0,0,0,2,6,2,0,0,0,0,2,2,2,6,2,94,0,92,0,0,0,0,0,0,0,0,0,0,0,0,0,0,0,0,0,0,6,0
0,0,0,0,22,0,0,86,0,0,0,20,0,0,0,0,0,0,0,0,0,2,0,0,0,0,0,0,0,6,0,2,0,0,0,0,0,2,2,94,2,0,2,0,0,0,0,0,0,0,0,0,0,0,0,0,0,0,0,0,0,0,0,4
0,0,0,34,0,0,0,6,2,0,0,0,0,0,0,2,0,0,78,0,0,0,0,0,0,0,0,0,0,0,0,0,0,0,0,0,0,2,88,8,6,2,0,94,0,0,0,0,86,0,0,0,0,0,0,0,0,0,0,0,2,0,0,0
0,0,0,0,84,0,32,0,0,0,0,0,0,0,92,0,0,0,0,0,0,0,0,0,0,0,2,0,0,0,0,2,2,0,0,44,0,2,0,2,4,0,82,88,0,0,0,0,0,0,0,0,0,0,0,0,0,0,0,0,0,0,2,0
0,0,0,4,0,30,4,0,96,0,0,0,0,0,0,0,0,0,0,0,62,0,0,0,0,0,0,0,0,2,0,0,2,0,36,0,0,2,78,2,4,2,6,84,0,0,0,0,0,0,32,0,0,0,0,0,0,0,0,0,0,0,0,2
0,0,0,0,0,74,2,2,0,0,0,2,0,0,0,0,0,0,2,0,0,0,0,0,0,0,0,0,0,0,0,2,0,46,0,0,46,2,4,6,2,2,2,0,0,0,90,0,0,0,0,82,0,0,0,0,0,0,0,0,0,0,0,0
0,0,0,0,84,72,0,0,0,0,46,0,0,0,0,0,0,0,0,0,0,0,0,0,0,0,2,0,0,0,2,2,0,2,8,0,4,2,6,4,28,0,0,0,0,0,0,0,0,0,0,48,0,0,0,0,0,0,0,0,0,0,2,0
0,0,0,0,6,0,0,0,0,0,0,94,0,0,0,0,0,0,0,0,0,0,0,0,0,0,0,0,0,2,0,0,0,0,0,2,2,4,2,4,2,2,94,0,0,0,0,0,0,0,0,2,0,0,0,0,0,0,0,0,0,0,6,0
0,0,0,0,0,0,0,0,0,90,70,94,0,0,0,0,0,0,0,0,0,0,0,0,0,0,0,0,0,0,2,4,0,0,2,2,0,2,6,94,4,94,0,0,0,0,0,0,0,0,0,0,0,0,0,0,0,0,0,0,0,0,0,0
0,0,0,0,0,0,0,0,0,94,94,0,0,0,84,0,0,0,0,0,0,0,0,0,0,0,0,0,0,0,4,4,2,0,52,0,0,2,74,2,2,2,0,2,0,0,0,0,0,0,0,0,88,0,0,0,0,0,0,0,0,0,0,0
24,0,0,0,0,2,0,0,0,0,0,0,0,92,90,0,0,0,0,0,0,0,0,0,0,0,0,0,2,0,8,2,0,0,4,0,0,2,0,6,6,38,92,0,2,92,0,0,0,0,0,0,0,0,0,0,0,0,0,0,0,0,8,34
0,0,0,0,0,4,2,38,0,0,0,0,0,0,0,0,92,0,0,0,0,0,0,0,0,0,0,0,0,0,6,0,2,2,0,0,2,88,2,10,2,90,2,0,0,2,0,0,0,0,0,0,2,0,0,0,0,0,0,0,0,0,0,2
2,0,0,0,0,0,0,0,0,0,0,0,0,0,0,94,0,0,0,0,0,0,0,0,0,0,0,0,0,0,4,0,14,0,0,0,2,4,0,2,0,70,0,0,0,0,0,0,0,0,0,0,0,0,0,0,0,0,0,0,0,0,2,6
0,0,0,0,0,2,0,94,86,0,0,0,0,0,0,0,0,0,0,0,0,0,0,0,0,0,0,0,0,0,0,0,0,0,0,0,0,4,2,4,6,6,0,0,0,0,0,0,0,88,0,0,0,0,0,0,0,0,0,0,0,2,0,0
0,0,0,0,2,78,0,4,2,0,0,72,0,0,0,0,0,0,0,0,0,0,0,0,0,0,0,0,0,6,0,0,0,0,0,0,4,0,68,42,4,0,0,0,0,0,0,0,0,0,0,0,0,0,0,0,0,0,0,0,0,0,0,2
0,0,0,0,0,0,0,2,0,94,0,0,0,84,0,0,0,0,0,0,0,0,0,0,0,0,0,0,6,0,2,0,0,0,0,0,0,40,2,90,2,4,0,0,0,0,4,0,0,0,0,0,0,0,0,0,0,0,0,0,0,0,14,0
0,0,0,0,0,0,0,92,0,0,0,0,0,0,0,0,0,0,0,0,0,0,0,88,0,0,0,0,0,0,2,0,2,0,0,0,0,8,2,10,2,0,0,0,94,0,0,0,0,0,0,0,0,0,0,0,0,0,0,0,0,0,0,8
0,0,0,0,0,0,0,94,0,0,0,0,94,0,0,0,0,2,0,0,0,0,0,0,0,0,0,0,0,0,2,0,16,0,0,0,2,4,2,4,2,2,0,94,0,0,0,0,0,0,0,88,0,0,0,0,0,0,0,0,2,0,0,0
0,0,0,0,0,6,4,0,94,0,0,0,0,0,0,0,18,0,0,0,0,0,80,0,0,0,2,0,0,0,0,16,0,2,0,0,0,24,4,2,4,0,0,0,0,0,0,0,0,0,94,0,0,0,0,0,0,0,0,0,0,2,4,0
0,0,0,0,66,0,0,0,0,0,0,94,0,0,0,0,0,0,0,0,0,0,0,0,0,0,0,0,0,0,0,4,0,0,0,0,4,0,2,6,2,0,2,0,0,0,0,0,0,0,0,0,0,0,0,0,0,0,0,0,0,0,0,0
0,0,0,0,0,90,74,0,0,0,0,0,0,0,94,0,0,0,0,0,0,0,0,0,0,0,0,0,0,0,2,0,0,0,0,0,0,2,4,2,8,42,0,2,2,0,0,92,0,0,0,0,0,0,0,0,0,0,0,2,0,0,2,30
