255,0,222,0,0,255,0,234,255,234,0,255,0,0,0,6,0,240,0,96,0,0,0,0,0,0,0,0,0,0,48,72,30,255,126,0,0,132,120,66,12,255,0,255,0,255,144,0,54,0,0,180,0,0,0,0,36,0,0,0,0,0,0,0
0,0,255,30,126,0,240,255,222,255,42,84,24,6,96,138,0,12,255,0,0,96,6,0,0,0,0,0,0,0,42,90,78,0,0,0,255,0,78,114,255,144,210,6,126,246,0,78,0,0,0,0,255,255,6,0,0,0,36,0,0,0,0,255
0,0,198,0,0,210,255,240,12,255,255,96,150,72,0,0,0,246,0,255,0,0,18,0,0,0,0,0,0,255,0,150,0,30,6,0,0,228,156,0,126,222,255,60,0,0,255,228,0,0,0,0,255,0,0,0,0,0,0,0,0,0,0,0
255,6,0,0,138,54,0,255,210,255,162,48,114,0,6,0,72,255,0,0,0,18,0,0,0,0,0,0,0,0,0,0,96,42,138,0,0,78,0,102,6,255,255,132,0,78,60,0,255,255,0,0,0,0,18,66,0,0,0,0,0,0,0,0
0,0,0,0,216,252,246,162,255,255,42,42,84,0,0,0,0,0,0,0,0,120,0,0,0,0,0,0,0,0,0,138,0,255,0,30,0,72,255,0,255,36,255,48,18,0,0,0,234,255,0,0,0,0,0,0,0,0,0,0,0,0,0,0
255,0,0,18,255,0,255,255,192,255,162,255,255,6,0,0,240,0,24,12,0,0,0,246,30,0,0,0,0,0,0,96,0,255,222,18,0,0,78,255,0,0,255,186,90,228,0,36,0,0,198,84,216,0,0,0,0,0,0,0,0,0,66,0
0,0,0,216,0,102,120,198,255,255,108,0,6,96,255,0,168,0,255,24,0,0,0,0,0,0,0,0,0,0,18,126,255,0,72,0,0,42,0,84,12,255,255,255,255,198,108,0,30,0,0,36,255,0,0,0,0,0,0,0,0,0,0,252
0,6,234,126,210,252,222,150,252,0,246,234,255,42,228,12,0,0,108,0,0,66,150,6,18,0,0,0,0,0,0,42,120,96,0,0,126,0,255,132,240,255,144,84,255,96,0,174,255,0,216,0,0,0,0,0,0,0,0,0,0,0,0,0
255,6,0,210,240,255,246,0,0,186,255,210,255,6,0,255,0,0,0,90,6,0,0,0,0,0,0,0,0,90,0,0,42,96,84,0,156,0,255,132,252,255,12,30,60,0,0,255,255,0,0,0,0,0,0,0,54,0,0,0,0,0,0,0
0,0,0,132,222,0,0,255,255,48,114,0,255,0,72,0,0,12,0,126,0,18,0,0,114,0,0,0,0,0,6,255,0,0,168,0,30,255,156,0,0,255,255,0,0,126,36,0,0,0,156,0,0,0,0,0,0,0,0,0,0,0,0,0
234,0,138,180,0,96,0,0,0,255,255,252,255,0,48,204,0,84,150,198,0,0,162,0,0,0,0,0,24,0,0,0,120,90,108,192,240,84,18,0,30,114,255,18,216,48,216,240,255,0,0,0,0,0,72,30,0,0,0,0,0,0,0,0
0,0,120,255,0,0,255,156,0,30,0,255,0,0,96,0,0,102,246,0,42,0,156,0,252,0,0,0,0,0,0,255,0,48,66,30,210,90,252,114,255,255,18,24,36,0,18,0,0,120,0,0,0,0,0,30,0,0,0,0,0,0,0,0
0,222,6,24,234,222,0,0,0,255,255,0,255,6,0,0,138,255,42,0,168,0,0,0,0,0,0,0,0,0,0,30,255,0,0,0,12,0,126,180,156,0,255,255,255,144,255,0,186,0,0,0,42,0,204,0,24,0,0,0,0,0,0,0
255,0,210,60,48,0,180,30,252,255,0,0,138,0,60,0,0,138,0,0,0,162,0,0,0,0,0,0,0,0,0,228,0,0,162,30,108,246,0,108,246,255,138,12,0,0,30,255,0,0,0,18,0,0,0,0,0,0,0,0,0,0,0,0
240,0,156,54,0,0,255,138,144,255,246,60,192,114,0,6,0,6,144,0,0,0,0,0,0,0,0,0,42,0,0,192,84,18,0,126,48,255,0,102,255,246,126,24,192,6,18,255,0,66,114,0,0,0,192,0,0,0,0,0,0,0,90,0
0,0,126,0,255,0,6,126,0,255,255,0,255,255,18,72,0,0,0,0,0,0,0,0,0,0,0,0,0,0,0,0,255,0,102,0,0,66,255,0,255,126,255,222,255,0,150,30,84,0,0,228,0,0,18,0,0,0,0,0,0,0,0,0
204,0,255,138,0,0,30,174,255,0,255,0,255,0,0,150,255,222,0,6,102,0,180,0,0,0,0,0,0,0,222,96,0,0,162,0,42,120,96,222,162,255,222,255,102,0,0,96,0,0,0,6,24,0,0,255,0,0,0,0,0,0,255,0
234,0,0,0,0,114,255,126,255,255,36,255,48,0,0,255,198,138,0,0,0,0,0,6,0,0,0,0,0,0,0,0,180,18,0,156,0,0,0,234,255,192,78,0,186,96,255,0,255,0,0,0,255,0,0,0,0,0,0,0,0,0,0,90
0,108,255,120,0,0,114,0,0,252,156,255,18,255,0,0,0,0,0,114,0,138,0,0,0,0,198,0,0,0,156,0,0,255,0,48,138,24,255,30,255,255,252,0,60,255,0,0,255,0,0,0,12,0,0,0,0,0,0,0,0,0,0,0
0,255,222,0,180,114,0,156,216,255,0,255,6,36,126,0,255,0,0,192,0,0,72,0,0,0,0,0,0,12,108,0,102,54,6,0,66,0,126,150,255,255,120,255,255,0,6,0,0,162,126,0,0,0,0,0,0,0,0,0,0,0,0,0
0,90,108,255,255,210,204,0,6,255,255,255,0,0,0,0,0,30,0,114,168,0,0,6,0,0,0,0,0,0,84,234,102,0,0,0,78,0,132,255,66,78,255,255,42,0,0,0,0,0,0,0,0,0,0,0,0,0,0,0,0,216,0,0
0,0,60,0,150,60,150,246,0,255,255,255,96,114,36,54,255,0,0,0,0,0,0,0,0,0,0,0,0,0,96,60,255,0,0,78,0,192,72,138,255,114,0,102,255,222,0,0,0,0,0,0,0,0,0,0,0,0,0,0,0,0,0,0
24,0,0,144,255,246,240,216,12,0,78,255,144,255,222,0,6,42,255,0,36,54,18,0,0,0,0,0,0,0,0,234,0,234,0,0,252,96,138,252,156,255,0,60,0,0,6,255,0,12,0,0,255,0,78,0,0,24,0,0,0,0,0,0
84,234,0,0,96,204,0,0,255,255,180,162,0,255,0,0,0,0,12,108,0,12,0,0,0,0,0,0,0,78,0,0,30,138,255,0,0,255,132,72,255,0,255,0,0,0,0,198,0,0,0,0,0,0,0,0,0,42,0,0,0,0,0,0
255,0,0,0,216,84,60,0,255,255,0,255,255,255,0,0,0,132,0,18,0,36,0,0,0,0,0,0,0,0,0,0,180,174,0,0,255,0,0,138,114,255,255,255,255,60,0,6,234,0,0,0,0,0,120,0,0,0,0,0,0,0,0,0
0,255,246,0,102,0,255,255,0,0,255,255,255,255,0,0,255,30,0,6,150,132,0,150,0,0,0,0,0,0,0,0,0,120,18,0,198,255,12,0,156,150,255,255,255,0,114,255,0,0,255,0,30,0,0,0,0,0,0,0,0,0,0,0
255,0,255,0,246,0,252,252,6,255,0,255,0,18,255,12,0,0,0,6,255,0,0,0,0,0,0,0,0,0,0,246,255,42,0,0,0,132,0,180,198,114,255,255,255,255,18,174,255,0,6,0,0,0,0,0,0,0,0,0,0,0,0,0
255,0,0,204,255,18,156,255,42,255,0,234,96,42,84,168,0,0,0,0,0,168,0,0,0,0,12,0,0,0,0,192,222,0,0,0,48,0,0,255,228,255,255,114,255,240,48,0,0,0,246,150,0,0,0,0,0,0,0,0,0,255,0,0
0,255,0,0,234,174,0,138,255,255,198,255,0,18,0,0,255,0,0,162,0,66,0,0,0,0,0,0,0,0,0,0,255,0,126,0,72,0,255,132,255,168,96,255,0,0,0,30,192,0,0,0,42,18,0,0,0,0,0,0,0,0,0,84
0,0,0,222,0,150,0,255,246,255,255,0,192,0,0,24,0,0,0,0,162,0,30,0,0,0,0,0,0,0,255,156,0,0,0,168,18,0,108,0,0,204,210,255,30,234,0,240,0,42,0,0,0,12,0,0,0,0,0,0,0,0,0,0
246,255,0,0,252,246,6,0,255,255,255,198,0,18,0,255,0,255,0,0,150,0,72,0,0,0,0,0,0,0,42,255,150,18,84,0,0,180,72,240,144,60,255,108,255,0,72,0,18,174,0,0,0,0,0,0,0,0,0,0,0,0,138,0
0,0,204,0,255,150,30,0,90,12,255,255,255,0,210,6,0,0,6,0,0,0,0,0,0,0,0,0,0,255,0,54,60,72,0,0,255,72,36,168,36,252,126,60,255,48,234,24,252,126,144,6,0,0,0,0,0,0,0,0,0,0,0,186
0,0,0,114,252,255,192,0,255,84,255,0,255,0,12,0,255,18,96,0,0,0,120,0,6,0,6,0,0,255,0,0,0,0,90,228,132,162,168,204,0,12,0,30,90,0,114,0,0,42,0,210,0,24,0,0,0,0,0,0,0,0,0,0
0,198,114,0,255,216,0,90,150,240,66,42,255,6,0,0,0,0,204,0,255,156,48,0,0,0,0,0,0,0,240,120,0,252,192,0,126,246,0,0,255,174,138,12,72,222,0,255,252,48,255,0,0,6,0,0,0,0,0,0,0,0,138,0
0,0,102,0,255,255,36,126,102,6,132,48,0,255,0,0,255,0,0,0,0,66,180,0,0,0,0,0,0,0,0,255,0,0,0,12,18,114,252,132,0,210,0,30,18,102,0,0,0,0,0,0,0,0,0,0,0,0,0,0,0,0,0,0
255,180,0,210,0,102,0,162,240,252,0,255,0,66,0,66,0,0,90,0,180,246,0,0,0,42,0,0,0,0,255,0,0,96,0,0,30,102,255,150,72,255,0,120,0,0,0,0,180,0,54,246,0,0,0,0,36,60,0,0,0,0,30,84
0,0,18,255,255,198,210,96,150,0,0,255,234,255,0,0,0,180,0,0,0,114,240,0,0,0,0,0,0,0,126,255,156,0,0,0,168,0,6,234,255,0,255,0,6,255,192,0,54,60,255,0,0,0,255,0,0,0,0,0,0,0,0,0
120,0,0,0,255,0,255,255,102,0,255,102,18,255,0,6,48,0,0,0,228,0,0,0,0,0,0,0,0,0,0,204,255,0,0,0,210,0,168,246,222,255,102,255,54,48,0,234,156,30,0,0,0,0,0,0,24,0,0,0,0,0,0,0
0,0,255,0,0,90,0,234,255,0,255,0,255,84,255,36,0,0,0,0,0,0,18,12,0,0,0,0,0,0,0,0,0,255,138,0,210,0,48,0,252,0,0,198,255,48,66,0,0,0,0,0,0,24,0,0,0,0,0,0,0,0,0,30
0,150,0,0,255,252,255,210,102,36,255,126,0,0,24,0,252,0,120,0,108,6,144,0,0,0,0,0,0,0,18,0,255,234,0,0,180,0,36,192,246,108,255,246,0,0,0,255,228,6,0,0,0,0,0,0,0,0,0,0,0,0,18,0
255,0,0,255,0,0,255,255,150,246,108,255,0,54,192,210,60,0,0,0,0,0,72,0,0,0,0,0,0,12,0,0,60,0,84,255,0,0,0,150,192,222,0,255,255,0,0,60,0,255,0,0,0,30,0,0,72,0,0,0,0,0,0,0
255,0,0,222,0,255,255,0,246,255,66,0,0,0,114,0,0,0,96,246,6,0,108,0,0,0,0,0,0,0,0,255,6,0,0,6,120,48,246,138,255,246,0,42,255,252,0,18,0,0,0,0,0,0,0,6,0,66,0,0,0,0,0,0
150,0,0,0,255,198,0,108,0,0,30,126,255,60,12,255,222,0,0,0,198,30,0,0,0,0,0,0,0,0,0,108,54,0,255,156,0,0,0,255,48,186,42,144,252,78,102,0,0,0,6,0,0,0,0,0,0,0,0,0,0,0,0,0
255,0,0,255,198,0,0,246,255,0,255,252,0,0,96,255,0,0,0,0,0,18,0,0,0,0,0,0,168,72,0,0,168,0,0,96,0,30,96,255,0,252,0,255,252,0,0,216,0,6,42,0,132,0,0,0,0,0,0,0,0,0,0,255
228,102,0,210,0,0,255,240,255,252,0,255,0,18,90,0,18,126,0,0,0,0,0,6,0,0,0,0,0,0,156,0,240,114,0,0,0,255,102,0,0,255,180,0,108,255,252,18,114,228,0,6,0,0,0,0,0,0,0,0,0,0,120,0
0,0,54,246,0,234,0,0,234,255,255,0,255,12,0,0,0,0,0,84,72,0,0,126,0,102,0,0,0,0,0,255,132,0,0,132,0,0,126,108,228,255,84,0,255,246,42,255,162,0,0,0,0,0,0,0,42,0,0,0,0,0,0,252
0,0,0,0,0,255,204,228,6,144,240,6,0,30,0,0,126,0,0,0,0,0,0,0,0,0,0,0,0,0,0,198,0,0,255,0,108,0,126,84,138,255,240,42,0,255,0,255,0,0,0,0,0,132,0,0,30,0,0,0,0,0,0,0
255,234,0,84,168,0,252,198,24,234,108,255,84,255,126,0,234,0,0,0,0,0,0,0,0,0,0,0,0,0,0,30,0,60,0,255,198,0,48,0,255,255,255,18,252,0,255,36,36,0,0,0,0,0,0,12,0,0,0,0,0,0,12,0
0,255,0,0,150,6,0,222,255,255,255,255,0,0,0,102,0,246,0,204,42,0,6,0,0,0,0,0,0,0,252,0,150,0,0,0,198,126,222,138,168,36,255,0,0,0,192,0,72,0,0,0,0,0,0,0,0,0,0,0,0,114,0,0
0,150,0,114,0,0,255,132,255,255,255,0,0,255,255,0,0,180,162,0,0,84,0,0,0,0,0,0,0,0,0,255,0,42,0,54,204,126,0,126,108,138,255,0,102,6,0,0,0,192,6,108,0,0,24,6,0,0,0,0,0,0,0,204
