255,20,255,255,60,255,255,170,255,255,255,255,10,190,255,255,0,0,0,0,0,255,255,255,0,0,0,0,255,50,70,90,240,10,255,30,130,50,255,70,255,255,255,255,255,255,255,0,0,0,0,0,0,255,0,0,0,0,0,0,0,60,90,0
200,10,0,255,255,255,255,255,255,200,255,255,255,180,255,255,0,255,0,0,0,255,0,80,0,0,0,50,0,255,80,40,240,30,30,255,60,210,255,255,20,230,255,210,255,255,255,0,40,255,255,0,240,240,0,0,0,0,0,0,0,20,50,0
0,210,0,255,255,255,255,255,255,255,255,255,0,255,255,255,0,0,0,0,0,0,0,255,0,0,0,0,40,80,70,255,180,40,30,190,40,160,255,255,255,255,210,255,255,255,0,0,255,170,0,0,0,0,0,0,0,0,0,210,0,20,30,20
140,230,0,255,255,10,50,255,255,0,255,255,255,255,0,0,250,0,255,255,0,0,0,0,0,0,0,0,30,100,60,100,230,10,255,10,255,255,210,240,80,255,150,255,255,255,255,0,255,0,255,0,0,110,0,0,0,0,0,60,0,0,20,30
255,255,10,255,20,255,255,255,0,170,230,255,255,255,255,0,255,0,0,0,0,255,0,0,250,0,0,0,255,30,40,50,60,255,250,160,30,160,255,255,250,255,255,255,255,255,10,255,0,255,0,255,255,0,0,0,0,0,0,0,0,10,40,100
0,80,255,255,0,255,255,40,255,255,190,255,255,255,80,255,0,255,0,0,0,255,70,0,210,0,0,0,30,70,70,70,255,130,255,255,40,50,70,255,255,255,50,255,10,255,255,0,100,255,0,190,0,255,0,0,0,0,0,0,0,30,30,50
40,10,0,255,255,170,255,255,255,255,255,255,0,50,255,255,0,0,120,0,0,255,60,0,0,0,0,0,10,110,255,100,80,20,240,255,50,150,255,255,130,255,100,255,255,0,255,0,60,255,0,0,10,0,0,0,0,0,0,0,90,0,70,50
80,0,160,255,255,255,255,70,255,255,255,255,255,255,0,255,0,0,0,80,255,0,0,0,0,30,0,0,0,50,60,30,255,20,80,30,70,255,255,255,40,200,255,255,255,255,255,40,170,0,90,255,0,0,0,0,0,0,0,0,40,0,40,70
0,255,10,255,255,255,10,255,255,200,120,0,255,220,0,0,255,255,0,255,0,0,0,0,0,0,0,0,20,50,50,80,50,10,30,40,255,180,190,140,255,255,255,255,255,150,255,255,0,0,0,0,0,0,0,70,0,0,0,0,0,70,100,30
10,10,255,0,10,10,255,255,255,0,190,255,255,255,220,0,255,255,255,0,0,0,0,0,0,0,0,0,50,255,60,50,100,20,40,255,255,60,180,255,255,255,230,10,230,255,0,255,0,255,0,255,0,0,0,255,0,0,0,0,70,0,20,40
0,190,30,255,255,255,255,255,255,255,230,255,255,0,0,0,255,0,0,0,0,0,255,0,0,0,255,30,0,255,80,230,255,20,80,50,30,210,230,255,255,255,255,255,50,255,0,0,255,0,0,0,0,0,0,0,0,0,0,0,70,0,30,50
255,10,10,0,90,0,255,255,30,255,70,255,255,255,255,0,255,210,150,0,0,0,0,0,0,0,0,0,60,20,90,120,40,255,255,30,60,40,50,255,255,255,255,255,255,255,255,255,0,140,0,0,0,0,0,0,0,0,0,0,0,40,50,140
0,255,140,0,0,0,255,255,255,255,255,0,255,40,255,255,255,255,255,0,0,255,255,0,255,0,0,50,60,0,255,50,255,210,40,130,80,70,70,255,255,230,255,255,0,255,0,230,0,0,0,0,0,255,255,0,0,0,0,0,0,40,20,80
0,140,0,0,10,120,255,255,255,255,255,255,255,0,255,0,0,0,0,50,0,0,0,0,0,0,0,0,60,30,60,60,80,255,50,220,170,130,180,200,255,180,255,255,255,255,10,255,0,0,0,0,0,0,0,0,0,0,80,0,20,60,10,30
10,0,0,0,255,255,0,255,180,255,255,0,170,0,255,0,0,0,0,0,170,0,0,0,0,0,0,0,10,70,80,40,30,10,20,40,60,70,120,255,255,255,30,255,255,110,255,255,0,255,0,0,0,0,0,0,0,0,0,0,0,50,30,0
200,0,60,255,255,90,255,255,0,255,255,255,0,255,255,0,0,0,255,0,0,0,255,0,0,0,0,0,70,30,100,100,50,140,230,90,80,190,170,255,255,30,255,255,255,255,255,0,10,0,0,0,0,0,0,0,0,0,0,0,0,60,160,20
255,120,0,0,255,255,20,255,255,255,210,140,50,255,255,0,255,0,50,40,0,0,0,0,0,0,0,0,20,60,50,180,255,30,90,255,60,60,255,255,255,255,255,255,20,255,0,0,0,100,170,0,0,0,0,0,0,0,0,0,0,60,80,20
10,255,255,0,20,100,255,255,255,255,210,80,255,30,255,0,0,255,255,0,0,0,0,0,0,0,0,50,60,0,60,130,255,255,255,30,200,170,255,240,30,220,255,255,255,255,0,255,255,0,0,0,0,0,0,0,0,0,0,0,0,70,50,255
0,40,10,40,150,70,255,255,255,255,255,255,0,50,0,0,255,0,0,0,0,0,255,0,0,0,0,40,0,255,60,20,100,30,255,160,255,100,255,255,255,110,255,255,255,255,255,0,140,0,80,0,0,255,0,0,0,0,0,0,0,70,60,60
10,255,0,0,30,255,255,255,255,255,210,255,0,50,255,230,0,255,0,0,0,255,20,0,0,0,0,0,70,80,50,70,150,50,10,170,255,60,190,255,230,255,255,255,190,0,255,255,255,0,0,0,255,0,0,0,0,0,0,0,0,50,50,0
0,30,10,255,255,255,255,255,210,255,10,255,30,0,0,0,60,0,0,255,0,0,0,0,255,0,20,0,0,80,220,150,70,255,240,80,230,120,70,255,255,255,255,200,255,255,0,255,0,10,10,255,0,0,0,0,0,0,0,0,0,50,50,255
255,255,255,255,10,60,255,255,200,210,30,0,255,40,0,0,255,255,0,0,255,255,0,140,0,0,0,0,150,20,50,30,40,255,255,255,255,255,170,255,50,255,210,255,255,255,255,250,80,255,255,0,0,255,0,0,0,0,0,0,70,0,80,255
0,0,255,0,255,255,255,250,255,255,255,255,120,255,0,180,255,0,0,0,0,0,0,0,0,0,0,0,50,40,70,50,130,255,30,20,220,255,255,110,255,255,255,30,255,255,30,255,240,0,0,0,0,0,255,130,0,0,0,0,0,60,70,60
0,10,0,20,190,255,255,80,255,255,255,255,140,255,0,0,80,255,0,0,0,0,0,0,0,0,0,0,20,100,50,130,90,230,120,30,170,70,110,140,255,255,240,255,10,255,255,255,0,0,240,0,0,0,0,0,0,0,0,0,0,30,60,30
20,255,0,255,10,120,0,255,255,255,255,255,0,0,255,0,0,0,0,255,0,0,0,0,0,0,0,0,50,60,255,30,50,20,255,40,20,255,100,255,255,255,255,230,255,255,0,0,0,60,0,0,0,0,0,0,0,0,0,0,80,10,255,0
10,220,0,60,255,30,255,255,255,200,255,190,255,30,255,0,255,0,0,0,0,0,0,0,0,0,0,0,30,220,80,50,255,50,50,255,140,230,255,255,255,255,255,255,230,20,255,255,0,255,0,0,0,0,0,0,0,0,0,0,10,70,10,20
10,255,0,0,0,255,60,255,255,140,255,0,255,255,255,10,0,0,0,0,0,0,0,0,255,0,0,0,50,50,50,60,40,10,255,10,60,255,255,255,255,255,50,255,190,255,0,110,255,0,0,0,0,0,0,0,255,0,0,0,0,40,50,100
250,0,0,0,255,160,255,255,255,255,255,210,0,0,255,255,0,0,0,0,0,0,255,0,0,0,0,60,0,210,80,255,130,0,255,40,30,140,120,140,255,255,255,255,255,20,140,255,255,0,255,0,255,0,0,0,0,0,0,0,0,30,50,10
10,0,0,255,230,255,255,255,255,255,190,255,0,0,10,0,0,255,255,0,0,0,0,0,255,0,0,0,70,70,140,210,50,240,250,255,50,255,230,255,255,255,190,255,160,255,0,0,255,0,160,0,0,0,0,0,0,0,0,0,50,0,10,50
30,255,255,10,250,255,255,255,170,255,255,0,255,255,255,0,0,0,230,255,0,0,0,0,0,0,50,0,140,0,70,80,20,140,255,255,70,110,70,255,255,255,255,220,255,130,0,90,255,255,0,0,0,0,0,0,0,0,0,0,0,20,50,10
10,0,255,255,255,255,10,255,255,255,10,255,160,255,255,0,255,210,255,255,0,255,0,0,0,0,0,0,50,140,70,40,255,255,60,210,70,255,100,255,255,210,110,255,50,255,10,10,0,0,0,0,255,0,255,255,0,0,0,0,80,0,0,30
0,10,255,255,255,0,10,255,255,255,255,255,50,255,255,255,0,0,0,0,0,0,255,0,0,0,0,80,60,70,70,255,50,255,20,255,30,255,255,220,255,255,210,255,255,255,255,0,0,0,0,0,255,0,0,0,0,0,0,0,0,60,30,10
220,0,210,0,0,255,255,255,190,255,255,255,255,180,255,0,0,0,120,0,0,0,0,0,0,0,0,0,70,140,70,50,60,30,255,30,110,255,230,150,120,255,40,255,255,0,30,0,255,255,180,0,10,0,255,0,0,0,255,0,0,10,40,20
255,0,200,0,70,255,255,255,10,255,255,160,255,190,70,0,255,255,0,255,255,20,0,0,0,0,0,40,0,70,60,210,255,30,140,30,130,110,100,240,255,210,255,255,200,255,0,60,255,0,0,0,0,140,0,0,0,0,0,0,0,60,30,50
10,0,0,10,255,30,255,255,255,255,255,255,255,0,255,0,0,0,0,0,0,0,0,0,0,0,0,0,100,50,70,50,210,255,250,20,255,255,255,255,40,255,160,255,10,50,255,140,255,240,0,0,0,0,0,0,0,0,0,0,60,0,40,0
180,20,170,255,0,70,255,255,255,255,190,10,255,255,0,255,0,0,0,255,0,0,0,255,0,200,0,0,30,255,100,60,30,255,10,70,110,30,80,255,50,20,255,255,250,10,255,170,255,10,0,0,200,0,255,0,0,0,0,0,40,0,40,60
10,10,10,255,255,160,0,180,190,255,255,0,255,0,255,0,0,0,255,255,0,0,0,255,0,0,0,80,0,90,255,60,255,0,220,50,110,255,190,255,255,255,40,255,255,255,0,255,0,100,0,0,0,0,0,0,0,0,0,0,0,50,10,80
0,100,0,255,255,0,255,180,40,255,30,255,0,0,255,255,0,0,255,0,0,0,0,0,0,0,0,30,210,60,100,30,20,40,10,255,255,60,60,255,60,255,255,255,255,10,90,0,40,0,0,0,0,0,0,0,255,0,0,0,0,50,20,120
10,0,255,0,255,10,255,255,255,255,255,255,0,255,255,160,170,255,20,0,255,255,0,0,0,0,0,0,70,50,70,30,60,255,255,170,200,255,140,255,255,255,200,255,255,255,255,0,255,0,0,0,0,255,0,0,0,0,0,0,0,0,50,10
170,255,0,255,180,255,10,255,0,10,255,0,255,255,255,140,0,0,0,0,0,150,0,0,0,0,0,255,40,40,70,50,255,255,30,70,50,255,210,80,255,140,255,255,250,0,255,0,220,190,255,255,0,0,0,0,90,0,0,0,0,20,50,40
0,255,0,0,255,10,255,240,10,255,210,255,255,255,255,0,0,0,0,30,0,0,0,0,255,0,0,0,50,100,100,210,255,20,255,180,255,50,190,190,255,255,255,255,30,255,30,0,0,255,0,0,0,0,0,0,0,0,0,10,0,30,10,20
255,160,10,255,255,255,255,150,255,255,255,210,255,0,0,0,0,130,255,0,0,255,0,250,255,0,0,80,50,20,255,120,230,240,10,40,30,255,200,255,255,255,255,190,40,0,255,0,255,0,255,160,0,0,0,0,0,255,0,0,0,30,20,30
40,255,255,10,0,0,210,10,255,255,255,0,255,255,0,255,255,0,250,0,255,0,0,0,255,0,0,0,50,50,50,255,100,230,20,60,255,255,255,255,40,255,255,255,255,255,210,0,0,0,10,0,30,0,0,0,0,0,0,0,10,0,0,30
120,0,50,0,0,0,255,255,255,255,255,140,10,255,255,80,0,255,0,0,0,0,240,0,0,0,0,0,30,50,60,160,140,240,140,255,30,255,100,255,70,255,255,160,10,255,230,255,100,70,0,0,170,0,0,0,0,0,0,0,20,0,20,40
190,0,255,10,0,70,255,255,255,255,255,255,0,255,0,0,160,255,0,0,0,0,0,0,0,0,0,0,40,70,50,255,70,120,30,0,255,200,50,180,255,255,10,255,255,100,255,0,255,0,0,0,0,0,0,0,0,0,0,0,0,50,60,30
255,130,10,255,130,10,255,255,0,255,255,210,255,255,255,255,0,0,0,255,0,140,0,255,0,0,0,30,60,0,90,255,255,210,40,255,20,255,90,50,255,255,255,10,255,255,0,0,255,0,0,0,0,0,0,0,0,255,0,0,0,30,80,70
0,20,255,10,50,255,255,255,255,255,255,255,120,255,0,255,255,0,0,0,0,0,0,0,0,0,0,0,50,80,30,110,70,30,50,255,255,255,255,70,255,255,230,255,255,255,30,0,0,0,255,255,0,255,0,0,0,0,0,10,0,70,30,10
30,255,255,0,255,255,30,180,255,255,0,255,110,255,255,0,255,160,0,0,10,0,0,0,0,0,0,0,255,30,80,40,50,30,80,120,255,100,100,250,240,255,255,255,255,255,140,255,255,30,255,0,0,0,0,0,0,0,0,180,0,60,50,10
110,10,0,255,255,255,255,255,255,255,255,255,255,255,255,170,0,255,0,0,0,0,0,0,0,0,0,0,20,255,40,40,170,20,255,40,230,255,70,70,255,255,255,255,255,255,10,0,110,0,0,255,0,0,255,0,255,0,0,0,10,20,50,80
30,0,255,0,255,255,255,255,20,255,255,170,30,255,255,0,0,0,0,0,0,180,0,0,0,0,0,0,20,70,70,80,255,220,20,120,30,60,70,250,255,255,255,255,255,255,200,0,0,110,0,0,0,0,0,0,0,0,0,0,30,0,255,80
