0,0,84,0,0,182,7,255,147,0,0,0,0,255,0,0,0,203,0,0,0,0,0,0,0,0,0,0,14,49,56,49,42,7,0,14,14,49,255,231,35,91,255,161,7,0,14,0,0,0,0,70,0,161,0,0,0,0,0,0,14,0,28,35
0,0,189,0,7,154,7,21,7,147,255,255,112,0,0,0,0,255,0,0,0,0,0,0,0,0,0,0,49,35,28,28,210,21,21,7,91,42,231,56,21,84,255,255,7,255,203,0,0,0,0,0,0,0,0,0,0,0,0,0,14,21,21,0
0,14,255,0,7,84,0,7,255,255,0,0,7,0,0,161,255,0,0,0,0,0,0,0,0,0,0,0,49,42,35,28,35,14,35,21,28,147,255,161,126,42,56,168,0,245,0,0,0,255,70,0,0,0,0,0,0,0,0,0,0,14,7,14
14,0,255,224,28,255,21,255,255,0,7,105,7,0,0,255,0,0,0,0,0,0,0,70,0,0,0,0,28,21,35,0,49,28,28,14,28,49,255,35,245,14,42,161,255,42,255,0,0,0,0,0,0,0,0,0,0,0,0,7,0,7,84,49
0,21,21,0,7,0,255,7,140,255,255,0,0,0,0,255,0,255,0,0,255,0,0,0,0,0,0,0,14,49,35,35,7,7,84,21,14,49,42,35,255,84,217,255,161,7,0,0,0,0,0,0,0,255,0,0,0,0,0,0,0,0,7,7
112,112,0,0,0,7,252,255,140,7,0,189,255,0,0,255,255,0,0,175,0,0,0,0,0,0,0,0,49,21,28,28,77,7,70,28,7,217,231,42,28,255,210,112,175,0,0,21,255,0,7,0,0,0,0,0,0,0,0,0,0,14,7,7
0,84,0,255,0,255,0,255,77,14,0,0,84,0,0,0,0,255,105,0,0,0,0,0,0,0,0,0,0,21,70,35,14,28,7,14,35,255,35,49,255,49,14,255,14,255,0,0,0,255,0,0,0,0,0,0,0,0,0,21,0,21,7,7
0,84,42,0,28,255,0,154,255,255,0,98,255,0,0,0,0,0,0,0,0,0,0,0,0,0,0,0,35,21,35,42,21,112,7,21,28,35,196,28,21,255,28,28,255,42,28,0,7,49,0,0,0,0,0,0,0,0,0,0,0,21,21,7
21,14,0,7,255,7,77,224,140,28,255,0,0,0,0,255,224,0,0,0,0,0,0,255,0,0,0,0,21,35,35,35,7,238,7,14,14,168,28,147,203,255,255,175,7,238,21,182,0,0,0,0,0,0,0,0,0,0,0,0,0,7,7,7
0,28,70,0,7,255,7,255,224,0,255,0,0,0,255,0,0,0,0,0,0,0,0,0,0,0,0,0,42,21,35,28,255,35,14,21,77,63,14,189,42,255,255,175,255,255,77,0,7,0,255,0,0,0,0,0,0,0,0,0,0,21,70,0
14,0,35,0,0,0,255,255,255,0,255,0,0,0,0,0,245,0,0,0,0,0,0,0,0,0,0,21,0,28,56,35,35,14,35,49,14,21,42,21,255,70,189,21,255,255,0,7,0,0,0,0,231,0,0,0,0,0,0,0,14,0,14,0
0,0,7,0,7,7,0,255,255,140,0,0,0,0,255,0,0,0,224,0,0,42,0,0,0,0,0,21,0,35,21,14,35,7,14,21,255,49,35,252,255,28,28,255,98,0,0,0,0,0,0,0,0,0,0,0,0,0,0,0,0,28,21,14
0,182,0,0,0,0,0,42,255,0,7,0,0,0,0,0,255,0,0,0,0,0,56,0,0,0,0,0,21,14,14,35,21,7,14,7,42,133,35,255,147,35,28,255,175,0,21,0,0,0,0,0,0,0,0,0,0,0,0,0,0,0,21,7
35,98,0,0,0,0,35,140,255,7,182,0,0,0,0,0,0,0,0,255,255,0,0,0,0,0,0,0,21,42,42,77,28,7,7,255,42,84,21,91,255,35,21,161,7,0,224,0,0,0,0,0,255,0,0,0,0,0,0,0,28,0,14,21
7,0,0,217,189,35,0,217,255,255,0,255,0,0,0,0,0,0,0,0,0,0,0,0,0,0,35,0,0,35,28,21,28,21,231,7,35,21,35,63,42,255,255,255,7,7,7,255,56,0,255,0,0,0,0,0,0,0,0,0,0,0,49,7
210,0,7,7,0,0,224,7,140,255,255,0,255,0,0,0,0,0,0,0,255,0,0,0,0,0,0,28,0,7,28,84,14,21,7,35,56,119,56,49,63,255,255,168,14,0,0,0,255,0,0,0,0,0,0,0,0,0,0,0,0,7,0,7
42,0,56,56,0,255,21,217,255,140,0,0,0,77,255,7,0,0,0,0,0,0,255,0,0,0,0,14,0,21,35,14,28,21,21,231,182,21,35,49,63,49,255,161,7,0,0,7,0,0,21,255,0,0,0,0,0,0,0,0,7,0,0,56
35,0,0,49,255,21,0,210,147,255,0,255,0,0,0,0,0,0,0,0,0,0,0,0,0,0,0,0,14,14,49,21,14,56,28,14,35,21,49,49,35,35,255,161,255,21,255,0,0,0,0,0,0,0,0,0,0,0,0,0,0,21,7,7
0,7,0,0,49,28,14,147,0,255,255,7,63,0,0,84,0,0,0,0,0,0,0,0,0,0,0,0,35,21,56,14,21,21,196,7,35,42,35,49,112,255,255,255,161,0,0,35,0,0,0,0,0,0,0,0,0,0,0,0,14,0,14,7
7,0,7,0,0,7,21,175,255,0,255,0,255,0,0,255,0,0,0,0,0,0,0,0,0,0,0,0,56,21,28,35,14,147,7,126,28,56,42,35,255,255,161,21,252,77,0,0,245,0,0,0,255,0,0,0,0,0,0,0,7,7,21,14
7,0,119,0,7,255,0,255,147,0,255,255,0,0,0,0,0,0,0,0,255,0,0,0,0,0,0,0,21,35,42,42,28,42,21,35,7,147,56,255,28,255,255,147,84,7,7,0,255,0,0,0,0,255,0,0,21,0,0,0,35,0,7,14
0,154,255,42,0,245,7,0,14,255,7,0,0,0,0,255,0,0,0,0,0,0,0,0,0,0,0,0,21,21,35,14,7,7,126,7,42,35,42,255,126,147,28,7,56,0,255,0,0,245,0,0,0,0,0,0,0,7,0,0,0,0,7,7
21,0,0,255,0,0,49,70,255,0,0,0,0,0,0,0,0,35,0,0,0,0,0,0,0,0,0,21,0,49,35,35,21,14,7,28,21,63,49,35,21,255,77,255,7,161,0,49,0,0,0,0,0,0,0,0,0,0,0,0,0,14,35,28
42,0,0,0,14,7,14,255,255,255,7,255,0,0,119,0,0,0,0,0,0,0,0,0,0,0,0,0,28,21,42,21,21,7,7,28,35,21,255,245,255,255,21,161,14,7,14,255,0,0,0,0,0,0,0,0,0,0,0,0,7,7,0,7
35,0,0,7,7,0,255,77,231,7,0,0,0,0,0,0,0,255,0,0,0,255,0,0,0,0,0,255,42,14,28,21,49,14,14,21,35,217,154,49,56,255,35,168,77,255,0,255,0,0,0,0,0,255,0,0,0,0,0,0,0,7,21,7
35,21,0,255,0,0,49,255,98,255,7,0,255,0,98,0,0,0,0,0,0,0,0,0,0,0,35,0,7,35,28,42,28,14,21,7,35,255,21,84,28,255,133,161,35,14,119,0,0,0,0,0,0,126,0,0,0,0,0,0,0,21,7,14
35,0,0,14,0,196,255,0,147,255,0,0,0,0,255,0,0,255,0,0,0,0,0,0,0,49,0,0,21,35,35,42,77,28,255,28,7,42,255,210,63,189,168,231,7,14,0,0,0,0,0,0,0,0,0,0,0,0,0,0,0,7,14,28
0,0,7,0,0,0,0,147,0,7,7,14,255,0,0,0,255,0,0,0,0,0,0,0,77,0,0,0,7,35,28,7,35,7,35,154,98,14,224,35,70,21,175,21,14,255,49,7,0,0,0,0,0,0,0,0,0,0,0,0,0,7,7,7
0,0,14,0,7,70,255,7,154,7,0,0,77,255,210,0,0,0,0,0,0,0,0,0,0,0,0,0,14,42,21,35,98,21,14,14,49,255,28,35,35,196,14,7,28,255,7,0,0,105,0,154,0,14,0,63,0,0,0,0,14,42,0,42
0,0,0,0,70,0,7,7,140,7,0,0,0,0,255,0,0,0,0,0,0,0,0,0,0,0,0,0,35,35,42,14,28,91,21,21,21,84,35,49,126,35,84,7,14,255,0,0,224,0,0,0,0,0,0,0,0,0,0,0,0,28,0,105
0,105,0,0,112,7,255,0,140,0,0,0,0,0,0,0,0,0,84,175,0,0,0,0,0,0,0,7,0,35,14,28,70,14,42,7,42,49,255,168,91,21,35,175,98,70,0,91,0,255,0,0,0,0,0,0,0,0,0,0,7,0,7,7
0,112,0,255,210,7,14,255,154,0,0,0,0,0,0,21,0,0,0,0,175,0,84,0,0,161,0,0,35,49,14,28,119,7,28,21,84,14,28,161,21,56,255,168,0,42,0,255,0,0,0,0,0,0,0,0,0,0,0,0,0,28,7,42
56,112,0,0,255,7,255,7,147,7,0,175,0,0,255,255,0,0,0,0,0,0,0,0,0,0,0,0,14,21,21,14,35,28,7,105,42,35,168,35,35,35,255,0,255,14,0,70,0,0,0,0,0,0,0,0,0,0,0,0,21,0,7,21
49,7,0,0,0,0,7,255,7,7,7,255,255,0,238,0,0,0,255,0,70,0,0,0,0,0,0,0,21,35,28,21,35,7,105,21,35,119,49,35,255,28,112,14,49,7,0,0,0,0,0,0,0,0,0,0,0,0,0,0,0,7,7,28
7,0,0,0,0,7,21,7,255,203,0,0,255,0,0,0,255,0,0,255,0,0,0,0,0,0,0,0,21,21,49,21,35,21,14,0,21,255,49,255,21,56,255,14,255,35,0,0,0,7,0,0,0,0,0,0,0,0,0,0,21,0,28,14
0,0,0,0,7,0,0,7,255,0,255,7,0,0,0,0,0,0,0,0,0,0,0,0,0,0,0,0,14,35,49,77,21,42,14,21,28,35,49,49,255,21,28,14,255,0,0,255,0,14,0,0,0,0,0,0,0,0,0,0,0,0,42,7
14,49,0,0,7,255,21,255,147,0,0,255,0,0,0,0,0,0,0,0,0,0,0,0,0,0,0,7,0,28,28,21,14,7,7,7,119,56,56,28,84,14,255,7,14,255,0,0,63,119,0,0,0,0,0,0,0,0,0,0,0,0,14,14
0,0,7,0,0,255,0,7,0,147,0,0,0,154,0,0,0,0,0,175,255,0,0,0,0,0,0,0,7,35,35,21,77,7,28,14,255,63,77,63,28,35,14,7,49,7,255,0,0,0,0,255,0,0,0,0,255,0,0,0,0,14,21,14
7,112,0,28,133,7,245,255,255,147,0,189,0,0,7,0,0,0,0,0,168,0,0,0,0,0,0,0,49,14,42,35,28,7,14,42,140,35,84,77,49,77,161,255,7,255,255,0,0,255,0,0,0,255,0,0,0,0,0,0,0,14,21,49
0,7,7,14,175,7,255,182,147,0,255,0,255,0,0,0,0,0,0,0,0,0,0,0,0,0,0,0,14,35,35,42,21,14,7,21,21,255,35,35,49,182,77,0,168,7,255,0,0,0,0,0,0,255,0,0,0,0,0,0,0,7,21,7
0,14,126,0,196,35,7,0,7,255,147,255,0,0,0,0,0,0,0,0,0,0,0,0,0,0,0,0,28,56,35,28,70,0,0,7,21,42,49,255,42,35,161,255,21,14,7,0,0,0,0,0,0,0,0,0,0,0,0,21,7,0,7,56
0,0,0,14,0,238,7,21,7,147,255,0,0,255,0,0,0,0,0,255,0,0,0,0,0,133,0,0,28,35,28,42,224,14,7,21,28,35,255,63,42,175,255,14,255,255,49,0,0,0,0,21,0,0,0,0,0,0,14,0,21,0,0,0
35,0,119,0,210,14,14,7,147,0,255,255,255,255,0,0,0,0,0,0,0,0,0,0,0,0,0,14,0,42,35,35,7,35,7,133,28,49,255,35,224,245,7,42,14,0,0,7,0,42,0,0,91,0,0,0,0,0,0,0,0,7,21,42
0,0,56,0,14,255,0,14,168,255,0,0,0,255,255,0,0,0,0,0,0,0,0,0,0,0,0,0,21,35,35,21,21,7,28,119,56,21,245,182,56,238,21,84,21,0,255,0,0,0,0,0,0,0,0,0,0,0,0,0,0,7,0,84
42,84,0,7,0,35,133,255,0,0,255,0,255,255,0,0,0,0,0,0,0,0,0,0,0,0,0,0,28,42,21,28,35,7,0,21,133,63,42,196,224,231,14,7,161,255,7,0,0,0,0,0,0,0,0,0,0,0,0,0,0,7,14,35
0,0,0,0,0,84,175,245,0,0,0,255,255,255,0,255,0,0,0,0,0,0,0,0,0,0,0,14,0,35,35,28,91,21,252,119,7,224,49,63,133,255,105,175,147,63,255,0,0,255,0,0,0,0,0,0,255,0,0,0,0,14,7,21
0,0,119,255,133,0,14,0,0,255,0,0,0,0,255,0,255,0,63,0,161,0,0,0,0,0,0,0,21,49,42,21,7,14,7,147,255,35,140,21,42,21,21,255,231,56,0,255,255,0,0,0,0,0,0,0,0,0,0,0,7,0,105,21
0,35,0,140,0,255,7,255,147,255,0,255,0,0,0,0,0,133,0,0,0,0,0,154,196,0,14,0,0,63,35,35,42,14,7,21,28,28,70,140,56,49,7,161,255,255,245,0,0,0,0,0,0,0,0,0,0,0,0,0,0,14,14,0
7,112,0,0,245,189,0,255,14,91,255,91,0,0,0,0,255,0,0,0,175,0,0,0,0,0,0,0,35,7,35,35,21,119,21,35,35,49,42,245,28,21,196,255,112,7,255,255,0,0,0,0,119,0,56,0,0,0,0,0,0,21,28,7
0,119,255,0,84,245,255,7,255,14,21,0,0,0,255,0,0,0,0,0,0,0,0,0,0,0,0,0,21,35,42,35,21,7,35,0,14,224,35,56,255,49,21,14,7,70,0,255,0,0,0,0,0,255,0,0,0,0,0,0,0,7,35,21
