0,0,0,0,0,0,8,16,8,0,255,8,0,0,0,0,0,0,0,0,0,0,0,0,0,0,0,0,0,16,48,24,56,8,8,16,16,48,24,32,24,255,40,255,8,0,32,0,8,0,0,0,0,0,0,0,0,0,0,0,8,0,8,8
8,0,0,0,0,8,16,24,0,8,0,255,0,0,0,0,0,0,0,0,0,0,0,0,0,0,0,0,0,56,32,40,24,8,8,8,24,24,40,32,40,255,56,8,40,24,0,16,0,0,0,0,0,0,0,0,0,0,0,0,0,24,8,8
0,0,0,40,0,0,0,0,8,8,0,0,0,0,255,0,0,0,0,0,0,0,0,0,0,0,0,0,0,24,48,24,8,32,8,8,32,16,48,40,255,16,24,24,0,8,0,0,0,0,0,0,0,0,0,0,0,0,0,0,0,24,8,0
0,0,0,0,8,0,0,16,0,0,0,0,0,0,8,0,0,0,0,0,255,0,0,0,0,0,0,0,40,0,32,16,32,16,16,8,8,16,64,24,48,40,24,8,24,0,0,224,0,0,0,0,0,0,0,0,0,0,0,0,0,0,8,16
16,0,0,0,72,0,8,0,16,255,0,0,0,0,0,0,0,0,0,0,0,0,0,0,0,0,0,0,0,24,32,8,16,8,8,8,16,64,40,48,56,32,24,16,16,8,0,0,0,0,0,0,0,0,0,0,0,0,0,0,0,0,8,40
0,0,0,0,0,0,0,0,255,8,0,0,0,0,0,0,0,0,0,0,0,0,0,0,0,0,0,64,0,40,40,40,24,16,8,24,16,24,40,64,32,160,24,40,16,16,0,0,0,0,0,0,0,0,0,0,0,0,0,0,0,8,16,0
0,0,0,0,0,0,255,24,0,0,8,0,0,0,0,0,0,0,0,0,0,0,0,0,0,0,0,0,0,16,48,16,24,40,16,8,16,24,32,40,56,40,40,40,24,8,0,8,8,0,0,0,0,128,0,0,0,0,0,0,0,0,24,8
8,0,0,0,24,0,0,56,8,0,255,0,0,8,0,0,0,0,0,0,0,160,0,0,0,0,0,0,0,32,24,48,16,16,32,0,24,32,40,48,48,152,24,32,0,72,8,0,0,8,0,0,0,0,0,0,0,0,0,0,0,8,8,0
0,0,0,0,0,56,8,16,0,0,8,0,0,0,0,0,0,0,255,0,0,0,0,0,0,0,0,0,0,48,24,48,16,8,8,16,48,8,40,16,208,24,24,16,24,0,8,0,0,0,0,0,0,0,0,0,0,0,0,0,0,0,0,0
24,0,0,0,32,0,8,0,0,16,0,0,255,224,0,0,0,0,0,0,0,0,0,0,0,0,0,56,0,0,24,24,48,16,8,24,40,24,40,64,224,40,24,40,24,24,0,0,0,0,0,0,0,255,0,0,0,0,0,0,0,0,8,8
0,0,0,8,0,255,0,64,8,0,0,8,0,0,0,0,0,0,0,0,0,0,0,0,0,0,0,0,0,40,32,24,16,24,8,8,8,40,32,48,32,40,40,24,8,8,0,8,0,0,0,0,0,0,0,0,0,0,0,0,0,8,8,16
0,0,0,0,0,8,8,0,16,8,8,216,8,0,0,0,0,0,0,0,0,0,0,0,0,0,0,0,0,16,32,16,16,8,8,24,16,24,40,64,32,144,24,8,8,8,0,0,0,0,0,0,0,0,0,0,0,0,0,0,0,24,16,8
8,0,0,0,0,0,8,0,40,0,16,0,0,0,0,0,0,216,0,0,0,0,0,0,0,0,0,0,0,32,16,24,24,24,16,24,8,24,40,120,56,24,48,40,8,0,8,0,0,0,0,0,0,0,0,0,0,0,0,0,0,0,8,8
0,0,0,8,0,0,0,8,8,8,0,0,0,0,0,0,0,0,0,0,0,184,0,0,0,0,0,0,0,40,56,24,40,40,8,16,24,48,40,112,40,32,16,24,16,16,0,0,0,0,0,0,0,0,0,0,0,0,0,0,0,0,16,0
8,0,0,0,0,0,8,0,8,0,0,0,8,0,0,0,0,0,0,0,0,0,0,0,0,0,0,0,0,48,8,32,40,8,8,8,32,24,40,255,40,16,40,56,8,16,0,0,0,0,0,0,0,0,96,0,0,0,0,40,0,16,0,0
0,0,0,16,0,40,232,8,8,8,0,0,0,0,0,0,0,0,0,0,0,0,0,0,0,0,0,0,0,24,24,32,24,24,24,8,40,24,56,40,40,40,40,8,24,8,8,0,0,0,0,0,0,0,0,0,0,0,0,0,0,0,24,0
16,0,0,0,0,0,0,16,0,255,0,8,0,0,0,0,0,0,0,0,0,0,0,0,0,0,0,0,0,24,24,48,8,8,16,0,16,24,40,32,40,32,255,16,24,8,0,16,0,0,0,0,0,0,0,0,0,0,0,0,0,8,8,8
8,0,0,0,16,0,16,0,8,32,0,0,0,0,255,0,0,0,0,0,0,0,0,0,0,0,0,0,0,16,40,40,16,16,16,24,24,32,40,48,40,255,24,24,16,0,8,0,0,0,0,0,0,0,0,0,0,0,0,0,8,0,8,0
8,0,0,0,0,0,8,8,0,0,0,8,0,0,0,0,0,0,0,0,0,0,255,0,0,0,0,0,0,16,24,16,24,40,16,16,8,32,40,40,255,16,24,16,8,8,0,0,0,0,0,8,0,0,0,0,0,0,0,0,0,0,8,0
0,16,0,0,200,16,8,0,8,0,0,8,0,0,0,0,0,0,0,0,0,0,0,0,0,0,0,0,0,32,56,24,24,24,0,0,16,64,56,56,32,24,24,255,8,8,0,0,8,0,0,0,0,0,0,0,0,0,0,0,0,0,24,0
0,8,0,0,0,24,0,0,8,8,0,16,0,0,0,0,0,0,0,0,0,0,0,0,0,0,0,0,24,0,32,24,24,16,16,24,48,16,248,40,40,40,24,24,0,0,16,0,0,0,0,0,0,0,0,0,0,0,0,0,0,0,0,0
8,0,0,0,0,0,16,0,0,0,16,0,0,255,0,0,0,0,0,0,0,0,0,0,0,0,0,0,0,32,24,24,32,24,8,8,16,16,40,56,40,48,0,255,24,16,8,0,0,0,0,0,0,0,0,0,0,0,0,0,0,8,0,0
0,0,0,0,16,16,0,128,0,0,0,0,0,0,0,0,0,0,0,0,0,0,0,0,0,0,0,0,24,32,24,40,24,16,24,8,32,8,40,40,56,8,24,8,8,0,0,0,0,0,0,0,0,0,0,0,0,0,0,0,0,0,16,0
8,0,0,0,0,0,8,8,8,8,0,0,0,0,0,0,0,0,0,0,0,0,0,0,0,0,0,0,0,40,24,40,16,16,40,8,32,16,40,32,24,40,48,24,8,8,0,0,0,0,0,0,0,0,0,0,0,120,0,0,0,0,8,24
0,0,8,0,0,0,8,0,0,0,0,0,255,0,0,0,0,0,0,0,0,0,0,0,0,0,0,0,0,8,24,56,16,32,16,128,16,32,32,40,64,40,24,8,168,8,8,8,0,0,0,0,0,0,0,0,0,0,0,0,0,8,0,8
8,0,0,8,112,0,8,8,8,0,0,255,8,0,0,0,0,0,0,0,0,0,0,0,0,0,0,0,24,0,40,40,24,40,0,24,24,40,64,56,24,72,56,16,8,16,8,0,0,0,0,0,0,255,255,0,0,0,0,0,0,0,8,32
8,0,24,0,0,208,0,8,216,8,0,0,8,0,0,0,0,0,0,0,0,0,0,216,0,0,0,0,32,0,16,40,24,8,8,168,24,32,255,24,64,40,48,32,8,0,255,0,0,0,0,0,0,0,0,0,0,0,0,0,0,0,8,8
32,0,0,0,0,8,0,248,255,255,0,0,0,0,0,0,0,0,0,0,0,0,0,0,0,0,0,0,32,48,32,24,8,8,32,24,16,16,184,72,40,24,32,255,0,8,8,0,0,0,0,0,0,0,0,0,0,0,0,0,8,0,0,0
0,0,0,0,0,0,40,16,8,0,255,0,0,0,0,0,0,255,0,0,0,0,0,0,0,0,0,0,0,40,56,24,24,16,96,24,24,8,56,24,32,16,255,40,255,8,8,0,240,0,0,0,0,0,0,0,0,0,0,0,0,0,8,8
64,0,0,0,0,8,8,0,0,16,8,255,0,255,0,0,0,255,0,0,0,0,0,0,0,0,0,0,0,40,16,24,24,88,104,8,16,56,48,40,48,24,40,255,32,8,0,0,255,0,0,0,0,0,255,0,0,0,0,0,0,8,0,8
8,80,0,0,0,200,8,24,8,8,0,255,0,0,0,0,0,0,0,0,0,224,0,0,0,0,104,0,32,0,24,32,80,16,8,8,8,40,136,56,48,48,48,16,16,255,255,8,0,0,0,0,0,0,0,0,0,0,0,0,0,8,8,0
8,0,88,0,0,0,0,8,40,8,255,0,255,0,0,0,0,0,0,0,0,0,0,0,0,0,0,0,0,40,40,16,24,24,8,8,24,48,24,32,32,255,24,0,24,24,0,0,0,255,0,0,0,0,0,0,0,0,0,0,0,16,8,8
0,8,0,0,0,0,16,0,0,8,0,255,0,0,0,0,255,0,0,0,0,0,0,0,0,0,0,0,24,0,32,16,16,32,24,8,32,112,48,255,40,24,16,8,8,0,8,0,88,8,0,0,0,0,0,0,0,0,0,0,0,0,0,8
0,0,0,88,0,0,0,255,40,0,16,8,0,0,0,0,0,0,0,0,0,0,0,0,0,0,8,0,0,32,16,32,40,24,88,8,8,16,40,32,32,255,32,16,8,8,0,0,0,0,0,0,0,0,0,0,0,0,0,0,0,8,0,24
0,0,0,0,0,0,8,8,0,0,0,0,0,0,0,0,255,0,255,0,0,0,0,0,0,0,0,0,0,16,32,40,24,24,48,8,16,24,48,255,40,8,32,8,8,0,0,8,0,0,136,0,0,0,0,0,0,0,0,0,0,0,8,16
0,0,0,16,16,255,0,16,16,0,0,8,0,8,0,0,0,255,0,0,0,0,0,0,0,0,0,0,0,24,32,32,24,16,24,24,40,32,192,48,32,24,24,16,16,8,0,0,0,0,0,0,0,0,0,255,0,0,0,0,0,0,0,8
0,0,0,0,216,0,32,0,8,16,0,0,0,0,0,0,0,0,0,0,0,0,0,0,0,0,0,0,0,24,24,32,24,32,16,24,64,8,48,40,32,56,40,8,8,8,0,0,0,0,0,255,0,0,0,0,0,0,0,0,0,0,0,0
0,0,0,0,8,24,16,8,8,0,0,32,0,0,0,0,0,0,0,0,0,0,0,0,0,0,0,0,16,0,32,40,24,8,24,8,8,40,48,32,48,24,24,255,8,8,0,0,0,0,0,0,0,0,0,0,0,0,0,0,0,8,8,24
0,0,0,0,0,16,80,0,0,0,8,255,0,0,0,0,0,0,0,0,0,0,0,16,8,16,0,0,40,8,16,24,16,24,8,40,8,32,56,32,56,40,40,24,8,24,0,8,0,0,0,0,0,0,0,0,0,0,0,0,0,0,16,8
0,0,8,0,8,0,192,8,0,0,0,0,0,0,0,0,0,0,0,0,0,0,0,0,0,255,0,0,24,24,40,24,8,8,8,24,32,48,40,24,40,24,255,16,8,0,8,0,0,0,0,0,0,0,0,0,0,0,0,0,32,8,0,0
8,0,0,0,0,8,0,16,24,0,8,0,255,0,0,0,0,0,0,0,0,0,0,0,0,0,0,0,0,40,40,16,24,48,16,24,16,56,32,24,40,255,24,8,8,24,0,0,8,0,0,255,0,0,0,0,0,0,0,0,8,0,0,0
0,0,48,0,0,0,0,8,0,8,24,0,0,255,0,0,0,0,0,0,0,0,0,0,0,0,0,0,0,24,40,24,24,8,16,8,24,32,48,40,255,24,32,40,16,8,0,0,0,0,0,0,0,0,0,0,0,0,0,0,0,24,0,8
0,48,0,8,8,8,8,8,0,0,8,0,0,0,248,0,0,0,0,0,0,0,0,0,0,0,0,0,0,24,40,40,16,96,24,8,24,24,40,40,24,16,32,40,0,8,8,248,0,0,0,0,0,0,0,0,0,0,0,0,0,8,8,0
0,64,0,0,8,8,8,0,8,0,0,0,8,0,0,0,0,232,0,0,0,0,0,0,0,0,0,8,0,8,32,40,88,32,24,40,16,16,48,48,136,24,24,0,16,8,8,0,0,0,0,0,0,0,0,0,0,0,0,0,8,0,8,0
0,0,0,0,0,0,16,8,8,255,16,0,0,0,0,0,0,0,0,0,0,0,0,0,0,0,0,0,24,48,40,16,8,16,16,32,56,40,48,40,255,24,16,16,80,0,0,0,0,0,0,0,0,0,0,0,0,0,0,0,0,8,8,0
0,0,0,0,8,8,8,0,8,0,0,0,255,0,0,0,0,0,255,0,0,0,0,0,0,0,0,0,0,32,32,16,16,24,8,16,0,40,88,96,56,72,24,16,24,16,0,8,255,0,0,0,0,0,0,0,0,0,0,0,0,0,8,8
0,0,0,0,8,0,8,255,0,0,0,0,0,8,0,0,0,0,0,0,0,0,0,0,0,0,0,0,0,40,24,32,8,40,8,32,8,24,32,32,40,40,24,48,16,16,0,0,0,0,0,0,0,0,0,0,0,0,0,0,0,0,8,16
0,0,0,0,0,0,16,0,0,16,8,0,0,0,0,0,0,0,0,0,0,0,0,0,0,0,0,0,0,24,56,40,16,8,8,8,24,40,32,80,56,40,48,8,16,0,0,8,0,0,0,0,0,160,0,0,0,0,0,0,0,0,8,0
0,0,0,0,0,0,8,8,8,16,0,0,0,255,0,0,0,0,0,0,0,0,0,0,0,0,0,0,0,32,24,24,32,72,0,16,40,32,24,88,24,40,40,8,8,0,8,0,8,255,255,0,0,0,0,0,0,0,0,0,0,16,8,0
0,0,16,0,0,8,0,0,8,0,8,8,0,0,0,0,0,0,0,0,0,0,0,0,0,0,255,0,0,32,48,40,88,24,8,16,24,16,48,24,40,40,40,16,8,0,255,0,0,255,0,0,0,0,0,0,0,0,0,0,0,0,8,8
