18,234,0,246,6,255,255,255,78,0,114,255,6,0,255,255,0,0,255,0,0,255,0,0,0,0,48,0,72,6,186,168,120,138,120,156,255,42,198,255,48,234,255,150,255,255,0,132,255,0,0,0,0,255,0,0,0,0,0,0,0,24,42,30
18,255,12,6,255,255,6,216,138,255,255,42,6,12,0,255,0,0,0,0,0,168,0,0,0,0,0,0,18,60,72,54,78,255,255,18,6,54,84,252,72,186,255,138,255,255,0,255,138,255,0,0,0,0,0,0,0,0,0,0,12,0,36,6
180,255,240,255,132,255,0,255,255,90,255,42,0,24,255,0,255,255,0,0,0,0,0,216,0,0,0,78,36,12,72,255,132,198,18,240,252,108,48,255,36,255,255,12,255,198,255,0,90,255,0,0,54,0,0,0,0,0,0,0,0,42,54,18
0,132,255,255,30,114,255,228,132,234,0,255,6,255,0,255,255,0,0,255,0,0,222,0,174,0,0,0,66,78,60,255,246,108,78,72,30,36,120,126,255,255,255,255,255,234,6,150,0,0,0,0,0,0,0,0,0,0,0,0,0,48,84,126
0,198,90,222,0,36,114,255,255,144,255,255,168,255,18,0,192,0,0,255,0,0,138,0,0,108,0,0,18,36,60,36,24,180,132,255,120,138,102,132,255,198,255,60,252,255,108,255,252,162,0,0,0,0,0,114,0,0,0,0,0,84,255,78
24,0,102,255,18,255,255,255,255,255,255,0,255,0,0,255,180,156,0,0,0,0,0,0,0,0,0,0,6,78,72,156,36,66,18,12,180,216,42,222,255,255,6,120,18,255,6,96,210,0,255,0,0,0,0,0,0,0,48,0,0,0,42,18
6,168,156,255,255,240,255,255,186,0,255,156,255,192,0,255,0,0,0,0,0,0,0,0,120,0,222,54,0,60,60,24,6,228,162,42,12,72,255,255,255,255,255,210,18,6,0,255,0,0,0,255,0,0,0,0,0,0,0,0,0,186,6,42
18,0,255,198,168,18,255,255,255,255,132,255,174,120,0,0,0,0,0,0,0,0,0,84,222,0,0,0,0,60,60,60,30,255,102,18,36,204,66,255,255,162,66,144,255,0,255,78,255,0,0,0,255,0,234,0,0,0,0,0,66,0,66,18
12,132,168,255,222,255,18,168,255,255,96,144,198,255,174,255,0,216,228,0,0,0,255,0,0,0,0,0,18,48,36,84,108,72,42,96,204,48,72,255,174,255,234,24,255,255,72,162,126,255,0,120,0,204,0,0,0,0,0,0,0,42,84,42
255,6,42,54,0,255,255,255,255,255,18,255,255,0,30,108,0,0,0,126,0,210,0,6,0,0,0,0,66,30,78,60,114,24,186,30,48,255,48,192,255,156,150,255,0,255,180,0,246,255,0,255,255,0,0,0,0,0,0,0,0,54,60,66
24,246,6,12,255,255,108,255,255,255,255,210,48,0,0,255,252,0,255,0,0,216,0,0,0,0,0,0,30,24,48,255,60,138,198,60,18,180,255,255,252,90,255,54,255,180,0,0,210,0,0,255,0,0,0,0,0,78,0,0,0,30,30,120
0,255,6,12,234,66,255,255,255,255,255,255,204,0,0,0,0,255,0,0,0,0,255,255,0,0,0,24,0,42,72,156,36,60,108,144,108,216,54,255,138,246,42,198,162,162,6,168,96,0,0,210,0,0,0,0,0,0,0,0,0,48,30,18
186,6,216,0,30,126,255,255,126,255,255,0,246,255,255,0,0,156,0,0,0,0,255,255,0,0,0,0,36,150,222,30,42,72,150,246,222,168,66,255,96,255,255,255,255,255,6,150,90,0,0,0,0,0,0,0,0,0,0,0,84,0,30,30
108,30,0,0,255,255,255,255,240,255,6,255,72,255,255,0,0,0,0,0,126,255,0,210,0,0,0,0,54,144,60,36,72,30,204,42,102,204,255,102,180,255,255,255,6,156,255,12,0,0,18,0,0,18,0,0,0,0,0,0,0,30,102,42
30,156,0,0,255,255,234,255,252,255,198,102,255,204,255,0,0,0,255,0,0,222,0,0,144,0,0,0,210,60,18,42,174,174,252,24,18,36,255,255,255,78,174,255,6,255,216,6,255,255,96,0,0,222,0,255,0,0,0,0,60,0,24,42
0,162,0,222,255,24,84,234,255,234,252,255,255,192,144,0,0,0,0,0,0,255,0,180,252,0,0,0,18,54,222,48,108,198,12,186,30,84,174,42,255,255,234,180,66,0,255,255,255,0,0,0,0,0,255,0,0,0,0,0,0,18,246,30
12,156,0,12,255,255,255,255,30,234,255,0,180,0,255,0,0,114,255,0,0,0,0,0,0,0,255,0,18,30,60,66,24,66,90,84,36,255,168,138,255,255,255,255,126,18,0,6,0,6,0,0,0,0,0,0,0,0,0,24,0,6,30,12
108,6,180,108,168,0,255,255,255,162,204,186,255,144,102,255,246,255,0,255,255,0,255,0,0,0,0,0,162,18,126,120,18,90,102,12,255,48,60,255,210,255,255,72,198,150,234,156,0,0,0,0,0,255,222,12,0,0,0,0,0,60,30,54
210,72,96,0,222,6,255,255,210,255,12,255,252,180,108,0,255,222,255,0,222,0,255,0,0,0,0,0,174,30,54,30,84,180,156,162,18,36,72,255,255,255,255,255,204,0,255,0,0,6,0,42,0,0,216,0,0,0,0,0,0,30,24,24
0,255,255,18,240,0,6,255,255,255,255,255,156,0,180,255,0,255,0,0,0,0,0,48,0,0,0,0,246,18,48,72,255,24,0,255,132,42,228,102,255,255,255,234,255,255,0,0,42,42,0,0,0,0,0,0,0,0,0,0,0,24,48,36
6,255,6,255,108,72,18,255,255,255,255,246,255,156,0,168,0,255,0,0,0,0,150,0,0,0,0,0,18,66,42,48,18,84,18,48,192,246,216,255,192,255,255,222,114,6,126,192,246,255,0,255,144,0,0,42,0,0,0,0,0,66,30,84
6,168,12,252,246,255,18,18,255,255,246,255,255,255,0,255,255,0,192,255,255,0,0,255,0,0,0,42,0,108,54,66,30,6,30,228,255,138,228,246,210,252,255,192,246,234,0,0,96,255,0,0,0,180,0,0,0,0,0,0,0,36,102,24
255,48,0,0,255,156,108,255,255,255,255,192,0,255,246,0,255,0,156,255,0,228,0,0,255,0,0,0,42,30,174,168,42,84,84,234,36,240,255,180,192,192,222,192,255,156,54,234,255,96,0,0,0,240,90,0,0,0,0,0,0,36,72,48
6,6,0,255,255,255,255,60,255,255,255,234,255,84,210,0,0,255,0,0,0,0,0,0,18,0,0,0,30,108,60,30,150,255,6,120,24,114,204,138,30,255,255,255,12,255,255,0,36,150,0,0,0,0,0,0,234,0,0,0,0,36,84,6
12,180,6,12,198,255,255,255,96,255,6,222,255,0,0,234,255,255,0,0,255,210,0,0,0,0,0,0,144,24,30,255,90,150,30,228,114,60,255,216,246,240,255,180,234,180,0,6,156,255,234,0,0,0,0,0,0,0,0,0,0,90,48,0
114,84,255,102,72,255,114,252,255,168,192,228,48,255,0,0,255,255,0,0,120,0,0,0,0,0,0,0,36,42,42,36,90,42,126,102,180,60,132,138,204,84,255,6,255,234,228,0,48,0,174,0,255,0,6,0,0,0,0,30,0,12,0,72
234,0,255,114,255,228,255,255,120,255,255,255,0,0,255,162,0,0,0,255,0,180,48,255,66,0,0,0,6,36,90,132,66,210,12,216,216,120,114,255,222,228,255,30,30,108,255,255,0,0,0,0,0,0,0,0,0,0,0,0,30,0,24,0
12,0,0,255,72,255,255,255,255,255,255,0,246,0,0,255,0,0,0,96,0,192,0,0,0,0,0,0,36,72,156,36,30,252,174,18,36,168,255,48,255,222,180,252,255,0,0,6,246,6,150,108,0,0,0,240,0,0,0,0,6,0,42,6
6,0,198,6,6,36,255,174,255,255,12,255,0,66,0,0,0,255,0,0,90,0,0,0,0,0,0,0,18,48,150,48,18,255,48,66,18,72,114,255,255,255,48,255,255,6,150,6,0,0,156,0,0,0,0,0,114,0,0,0,0,54,36,24
210,0,0,216,108,255,255,102,255,12,255,255,0,84,255,0,255,255,0,0,255,240,150,0,42,0,0,12,0,54,60,255,42,246,18,18,72,144,30,255,255,114,252,42,255,255,144,228,0,234,255,0,162,222,0,0,0,0,0,0,0,18,36,114
48,150,168,255,60,255,60,168,12,255,90,90,255,255,0,0,30,255,255,120,0,255,0,0,0,0,0,0,30,138,36,36,18,180,42,228,36,42,180,252,168,24,6,240,255,255,255,18,0,0,0,0,12,0,0,0,0,0,0,78,0,0,12,54
12,54,0,210,255,255,24,252,156,6,255,180,192,192,0,0,255,0,0,216,255,0,0,0,0,0,0,0,48,6,255,36,42,168,18,24,222,60,78,204,120,255,255,255,150,6,255,30,255,255,0,0,42,0,0,0,0,0,0,0,0,30,84,30
0,255,144,216,192,6,255,255,96,54,255,255,0,0,0,198,255,0,0,0,0,0,0,48,0,0,0,0,36,30,90,60,90,18,210,30,48,126,114,255,90,255,255,246,0,18,48,0,255,6,6,255,0,0,0,0,72,0,0,0,0,48,24,42
0,48,174,246,6,114,255,255,96,42,0,180,255,255,0,0,0,216,255,204,0,255,204,0,0,0,0,0,12,108,54,72,255,36,18,240,42,36,192,72,255,255,255,222,255,252,255,255,255,0,0,0,255,0,0,102,0,255,0,0,6,36,102,30
0,0,255,252,255,54,54,162,255,255,255,96,138,255,162,255,0,255,0,0,255,0,0,0,18,0,0,102,84,48,42,42,246,144,96,192,186,132,90,180,255,255,255,255,84,60,0,0,255,0,12,18,0,102,0,0,0,0,0,0,0,66,72,12
240,246,42,252,84,18,255,255,255,255,192,255,255,0,255,18,255,255,0,180,0,0,0,0,0,0,0,30,0,126,108,54,48,6,18,36,255,108,78,192,240,255,42,12,255,255,0,12,255,252,0,0,0,0,0,0,0,0,0,60,0,54,66,6
42,0,204,6,255,18,24,246,255,255,255,204,255,192,246,255,96,126,255,255,255,0,0,0,0,0,0,0,30,36,42,162,222,24,18,126,24,255,240,102,180,255,48,48,255,222,0,18,252,0,0,0,0,0,0,0,0,0,0,0,0,42,42,12
0,255,18,0,255,255,90,48,18,255,255,0,255,255,150,0,255,255,255,0,255,0,0,0,30,0,0,42,30,132,114,54,150,198,24,102,255,252,255,204,255,255,60,42,255,186,0,0,222,0,78,0,24,204,0,0,0,0,0,48,0,0,12,72
0,6,168,0,36,255,174,255,198,255,192,255,0,255,0,255,78,0,0,0,0,0,192,12,0,0,0,36,36,138,54,36,30,186,192,6,246,156,255,114,255,84,255,162,222,0,18,255,222,60,126,0,42,0,18,0,0,0,0,6,0,12,42,30
0,120,222,6,255,255,168,60,255,255,198,255,255,255,150,0,0,0,48,255,0,0,0,216,0,0,0,0,36,42,54,234,255,12,18,24,228,246,252,255,138,102,216,255,180,192,0,255,150,0,42,0,0,255,0,168,0,0,0,0,24,0,6,66
174,192,0,255,162,255,255,255,192,0,255,252,0,255,0,255,0,0,240,0,0,0,216,36,0,0,0,18,0,72,102,252,108,162,192,234,84,240,126,255,48,255,114,255,186,255,6,6,150,6,255,240,0,0,0,6,0,0,0,0,0,30,30,54
126,234,255,228,30,240,222,255,0,255,255,255,6,255,255,255,255,0,0,0,0,0,0,0,0,0,0,0,54,48,30,72,42,96,240,30,30,234,255,255,234,255,255,255,255,192,255,48,0,150,0,180,0,0,0,0,0,0,0,0,0,30,180,144
0,210,18,0,6,126,255,222,255,18,210,255,0,156,0,255,255,144,255,0,0,180,255,0,0,0,0,0,48,36,90,84,198,60,204,114,246,108,150,255,90,255,255,255,6,255,255,0,174,150,0,255,246,0,0,0,0,0,0,0,72,0,18,30
168,174,198,6,180,255,255,255,120,255,42,168,138,255,0,0,255,0,0,0,255,210,0,0,0,0,0,12,150,30,0,48,72,255,252,192,72,108,228,255,102,48,255,234,114,126,150,0,255,60,192,0,0,0,0,0,0,0,0,0,30,0,150,48
0,255,198,150,255,6,24,255,96,255,255,0,0,0,0,228,114,240,255,0,210,255,0,0,0,0,0,0,12,252,72,72,204,246,30,18,30,255,156,78,228,255,255,255,0,228,0,90,255,0,210,0,6,0,0,0,0,0,0,0,0,60,42,186
12,0,18,6,255,210,24,255,222,174,0,0,255,0,255,255,255,0,255,192,0,0,0,0,30,0,0,0,30,72,54,30,18,144,72,192,42,255,48,84,255,255,252,252,0,255,255,150,42,255,0,0,0,0,0,0,222,0,0,0,0,42,144,102
12,168,255,246,30,24,12,255,255,255,255,255,255,0,0,255,0,255,0,192,0,204,0,0,0,0,0,246,0,54,255,48,255,6,210,84,168,42,252,90,36,210,210,255,255,0,0,0,162,255,0,18,0,0,0,0,0,0,0,0,0,66,24,42
90,255,102,144,90,234,255,180,30,222,255,0,255,255,0,0,255,0,0,228,0,0,0,0,0,0,255,0,0,54,24,18,255,36,18,18,30,255,84,84,255,216,255,255,255,42,174,174,0,0,0,0,0,0,114,0,48,0,0,0,0,36,156,12
0,12,0,228,222,222,120,255,12,255,255,255,255,216,255,0,0,126,0,0,0,0,90,0,0,0,0,0,36,30,255,222,18,6,84,234,240,18,246,204,36,255,255,255,0,255,162,0,0,30,0,228,192,0,0,0,0,0,0,0,18,0,36,18
144,0,6,204,216,255,246,138,198,255,192,0,255,255,132,255,0,255,240,0,0,0,0,0,0,0,0,0,60,48,54,42,114,210,90,36,30,234,102,204,240,255,255,12,255,132,0,255,0,0,0,0,234,255,0,0,18,0,0,0,0,66,24,42
