16,0,8,28,184,64,144,92,64,188,188,168,188,184,0,0,48,176,168,0,76,104,0,0,0,0,0,0,4,28,56,24,112,48,184,188,128,176,56,188,76,104,172,68,60,188,0,188,0,28,40,0,0,0,0,176,0,0,0,0,0,20,52,40
0,96,184,184,64,140,56,180,180,0,188,0,132,180,164,64,188,156,0,0,0,136,0,188,0,0,32,0,4,28,28,16,100,188,104,12,44,44,88,176,124,60,188,144,176,184,156,180,184,176,0,0,0,76,180,0,0,0,0,0,0,28,24,24
68,100,184,0,172,4,184,184,168,188,136,24,0,184,184,12,88,188,0,0,40,0,108,0,156,0,0,0,0,120,44,76,56,140,12,120,24,184,56,72,184,184,184,188,104,4,172,188,40,16,0,0,0,0,0,0,0,0,0,0,0,32,36,28
0,180,48,168,188,20,156,184,188,128,128,0,184,0,188,188,0,0,184,100,120,188,0,120,0,0,0,12,0,28,52,44,64,120,136,12,20,164,32,40,100,100,184,188,184,0,104,188,0,0,76,76,0,0,0,0,0,0,0,0,0,40,176,4
0,0,76,188,144,20,184,184,4,188,188,184,188,0,80,168,0,188,184,0,0,0,0,0,0,0,0,0,24,36,44,32,184,4,96,16,152,20,184,116,168,172,20,124,184,76,184,188,0,0,0,156,0,84,0,0,0,0,0,0,0,32,12,16
32,144,28,8,136,8,104,124,188,188,184,92,84,0,188,184,184,0,0,148,0,184,0,0,0,104,0,8,0,16,28,184,16,60,8,84,28,92,24,84,184,108,80,180,188,32,64,184,176,168,168,8,0,184,0,52,0,0,0,0,0,20,60,20
100,128,120,140,188,44,188,188,40,188,188,92,148,184,180,0,184,0,0,0,0,124,120,0,0,0,0,0,12,52,92,64,68,56,120,12,20,76,124,188,184,124,48,152,72,188,112,84,16,184,168,0,132,0,0,0,4,0,0,0,0,184,4,20
4,120,124,0,12,180,188,188,184,184,32,180,96,188,0,56,160,0,0,0,0,0,188,0,0,0,0,132,20,0,52,60,8,12,128,44,156,28,68,176,188,156,20,164,8,92,96,0,0,0,0,0,0,0,128,184,0,0,0,0,0,12,28,0
0,68,36,20,4,152,172,60,188,172,188,188,0,184,76,0,0,0,184,0,188,0,188,0,0,0,0,4,0,24,96,180,56,76,140,60,20,128,92,188,176,188,184,84,180,188,0,168,56,0,0,152,0,0,0,0,0,0,0,0,4,36,40,40
156,64,4,76,0,12,12,12,188,148,104,188,188,0,0,184,188,188,0,184,156,124,0,0,0,0,0,0,56,184,20,28,44,188,136,56,168,20,28,184,164,188,184,100,0,0,0,0,136,184,0,176,0,0,0,0,0,0,140,0,0,44,20,4
0,4,28,96,152,12,60,108,188,184,188,40,184,48,72,184,0,0,140,0,184,176,0,0,0,0,0,0,16,24,32,40,28,120,152,132,152,64,100,184,28,152,140,184,148,172,176,120,100,0,0,0,0,0,128,184,0,0,0,0,0,36,60,24
16,8,156,184,164,184,180,92,184,188,176,4,184,188,0,0,0,188,152,180,0,184,0,28,0,0,0,0,40,4,184,184,28,120,140,136,44,24,156,156,32,188,184,188,184,188,0,0,84,0,24,52,0,0,0,0,0,0,0,0,0,20,92,16
4,0,108,0,32,176,56,188,188,184,32,188,188,0,112,104,180,184,0,0,0,0,0,0,0,8,0,176,0,24,184,12,80,24,4,16,104,32,152,124,36,172,180,184,28,24,156,184,0,0,56,0,188,0,0,0,184,0,0,0,0,36,20,8
52,0,188,176,184,96,92,188,188,36,124,48,96,184,0,116,0,0,0,0,0,0,0,128,0,0,0,0,16,52,16,156,40,36,20,44,160,92,44,132,188,188,180,180,184,12,0,156,0,164,0,0,176,0,0,0,0,0,0,0,0,20,80,32
8,24,8,152,176,172,184,188,0,188,188,144,184,0,72,176,184,0,0,0,124,0,24,0,0,0,0,0,8,48,20,112,28,112,136,140,16,92,164,188,180,176,84,180,84,4,184,56,176,0,0,0,0,0,0,0,0,0,56,0,0,32,56,24
116,140,4,0,184,4,96,176,188,28,132,188,120,184,188,0,188,76,0,184,0,176,0,0,0,0,0,0,12,48,44,28,20,48,168,40,64,20,184,176,116,184,184,12,100,4,4,68,0,48,0,0,0,0,0,0,0,0,0,0,24,0,52,8
4,184,140,116,52,68,184,180,184,64,188,188,144,0,188,184,0,0,0,0,184,0,136,0,0,0,0,0,12,32,44,44,48,108,12,12,20,180,136,184,168,104,180,76,12,176,0,4,0,0,52,0,188,184,180,0,0,0,0,0,0,20,32,20
184,132,0,0,44,116,172,176,184,36,108,56,188,76,108,0,184,0,184,132,0,0,0,0,0,0,0,0,20,32,40,44,12,12,164,140,8,176,116,184,188,188,52,180,180,0,0,176,4,0,168,0,0,0,0,0,0,0,0,0,32,12,24,24
40,112,0,4,12,4,188,76,100,184,0,0,188,112,52,0,0,168,0,0,84,0,0,184,184,0,0,0,0,44,184,152,132,28,92,172,116,88,116,100,156,76,84,68,164,0,188,0,0,28,0,0,0,0,0,0,152,0,0,0,0,44,28,88
4,184,0,0,16,176,172,180,180,188,184,184,72,188,108,188,64,0,0,0,0,168,0,140,0,0,0,0,128,8,32,184,52,16,12,0,72,36,120,184,188,184,184,8,188,76,184,0,8,0,0,0,0,0,136,0,0,0,0,0,0,32,72,12
4,144,0,4,48,188,184,172,16,188,184,180,188,188,0,0,0,0,0,0,0,0,0,136,0,0,0,36,0,16,64,40,40,184,28,148,64,76,112,104,76,188,60,164,4,0,184,188,0,64,0,0,24,132,0,0,0,0,0,0,28,4,16,36
12,112,24,188,12,112,164,184,140,4,188,112,100,188,188,4,184,188,108,188,184,0,0,0,0,60,0,0,32,28,180,36,32,112,52,24,104,72,176,188,184,16,180,116,88,0,0,176,0,0,0,104,0,0,0,0,184,0,0,0,0,20,28,12
24,132,32,156,4,24,184,188,188,64,116,188,92,56,0,0,100,0,0,0,0,0,0,0,0,0,0,0,20,28,48,20,20,140,120,132,12,88,80,56,144,168,148,16,188,148,0,4,0,0,0,0,0,0,0,0,0,0,0,0,16,0,44,36
12,184,0,4,128,4,40,84,184,120,188,120,188,112,0,0,0,0,0,144,0,0,0,0,0,0,0,0,12,184,40,16,184,36,60,124,160,24,184,84,168,104,180,76,92,168,0,180,0,40,0,184,0,0,0,0,0,0,0,16,0,0,48,0
4,0,0,96,184,172,32,176,4,188,104,188,188,184,188,0,0,0,0,0,188,0,0,0,0,0,0,44,8,0,168,24,20,56,12,24,88,128,116,184,188,180,188,184,84,0,180,0,48,0,16,0,0,24,0,168,0,0,0,0,0,20,56,88
4,132,0,136,92,188,44,188,28,188,144,188,184,112,0,188,176,184,184,28,0,140,0,0,0,0,0,0,144,8,44,40,44,20,124,68,132,156,184,188,128,152,92,48,8,184,188,60,116,0,0,92,72,0,0,0,0,0,0,0,0,12,20,128
184,120,128,156,36,56,120,184,112,188,100,184,16,188,188,164,0,188,160,0,0,132,0,0,0,64,0,0,80,48,16,176,20,128,8,16,28,36,100,100,88,184,188,128,184,0,164,156,0,0,0,184,0,0,0,0,0,0,0,0,0,28,76,52
16,56,188,148,176,176,188,184,184,140,188,148,188,0,4,188,172,0,148,0,112,0,0,0,0,0,0,0,0,24,32,184,184,12,152,168,28,40,112,92,160,180,184,176,176,184,188,0,184,0,0,0,0,0,0,0,0,0,0,0,0,80,20,72
128,8,32,8,12,188,184,184,184,16,188,188,188,184,140,0,8,0,144,0,0,0,0,0,0,0,0,0,12,32,36,184,116,8,12,24,16,136,104,180,132,188,140,180,20,164,176,188,0,0,104,180,76,0,0,0,0,0,0,0,0,44,24,20
20,68,136,0,8,156,188,188,188,108,188,0,0,132,184,0,0,48,128,0,0,0,0,0,0,0,0,16,0,44,32,36,52,164,144,24,24,36,116,44,104,184,180,188,0,188,4,0,0,0,172,0,0,0,0,0,0,0,0,0,20,0,24,4
144,0,52,60,160,12,184,12,188,184,128,4,188,0,100,0,184,0,0,0,0,184,0,0,0,0,0,12,168,40,32,40,20,28,148,140,40,52,184,108,116,184,184,172,180,96,0,92,148,0,168,0,48,0,0,0,0,0,0,0,0,24,12,92
0,100,8,132,136,188,184,4,64,136,184,188,0,188,0,72,0,104,188,184,0,184,0,164,0,0,0,0,12,40,180,108,12,48,132,8,144,100,176,64,184,180,48,168,172,44,84,188,0,84,0,0,0,4,0,0,0,0,32,0,0,28,28,32
20,12,0,4,60,160,188,168,188,188,108,184,184,184,172,0,0,0,184,0,0,0,52,0,0,0,0,0,28,20,128,32,24,4,136,84,28,100,188,84,188,128,180,0,180,172,156,72,184,0,0,68,0,0,0,0,0,0,0,0,12,0,36,108
8,64,148,4,4,188,180,184,108,32,84,188,108,188,188,112,0,0,0,0,0,0,0,0,0,0,0,0,8,32,156,36,184,96,8,156,88,68,16,184,152,184,188,28,180,184,184,176,100,108,0,0,16,8,0,0,0,0,0,20,0,28,184,0
0,0,0,140,4,72,180,188,8,184,184,0,188,44,0,0,108,0,168,88,0,188,0,0,0,0,0,0,32,40,20,32,24,80,188,8,16,28,92,120,144,184,188,184,180,60,4,0,0,20,4,0,156,0,0,0,160,0,0,0,40,0,76,4
4,184,28,112,0,188,148,72,120,184,92,184,188,0,0,188,104,0,0,0,0,0,0,0,140,0,0,16,0,36,68,176,56,144,12,40,128,28,36,104,184,188,180,184,0,8,68,48,0,28,0,0,0,0,0,0,0,0,0,0,0,20,40,32
4,24,12,32,0,188,184,188,188,120,184,0,184,40,0,52,184,0,0,0,0,0,0,0,0,0,0,0,8,28,48,20,188,48,4,32,48,92,164,144,116,168,184,120,80,188,188,184,76,144,0,0,0,0,0,0,112,0,0,0,20,0,32,112
184,188,0,136,12,112,184,188,96,76,0,104,44,0,184,0,188,0,188,0,28,0,0,0,0,100,0,0,24,72,56,28,44,60,8,188,132,96,64,184,36,180,184,184,4,0,84,0,0,0,0,20,0,0,0,148,0,0,0,0,0,28,84,44
180,4,48,164,124,52,68,144,184,184,188,188,160,20,188,0,0,0,0,184,0,0,0,184,0,0,0,20,0,32,56,184,20,128,28,12,16,68,104,96,164,140,136,188,120,116,128,24,0,0,0,0,0,0,92,0,176,0,0,0,0,40,180,8
116,88,4,0,100,24,28,188,184,188,188,188,0,104,0,0,0,184,0,0,140,0,0,0,0,0,0,8,0,40,24,92,4,48,92,132,84,104,36,72,160,20,188,188,4,84,184,188,0,0,0,176,0,0,0,0,0,0,0,0,0,20,60,48
4,0,12,4,140,20,184,184,88,188,188,8,0,188,100,20,88,0,0,0,0,0,88,92,180,0,0,24,0,176,36,32,40,28,104,164,184,32,96,92,116,20,184,184,184,0,176,184,0,0,0,0,144,184,0,0,0,0,184,0,44,20,0,120
4,0,0,164,152,180,140,184,48,184,184,188,0,108,0,0,0,0,140,0,188,0,92,0,0,0,56,52,0,24,172,84,168,120,4,20,32,92,32,100,188,184,184,96,4,184,132,104,172,0,28,168,0,0,0,0,52,0,0,0,0,20,40,20
28,80,132,148,12,76,64,180,108,184,188,116,184,188,0,0,184,152,84,0,0,0,0,0,96,0,0,0,16,32,36,92,12,132,156,20,120,104,92,184,40,88,148,188,184,0,168,0,176,160,0,0,0,56,0,0,0,0,0,0,0,24,44,20
184,156,0,12,12,88,8,188,188,12,40,168,184,188,188,188,0,156,188,0,112,0,0,0,0,0,0,0,20,180,20,88,4,24,44,156,24,44,148,148,188,188,180,12,184,64,4,0,48,184,0,0,0,0,0,0,0,0,0,0,0,128,60,44
8,0,8,4,152,24,188,184,188,188,188,0,96,184,132,104,0,0,0,188,0,0,0,0,64,0,32,0,40,20,92,28,88,104,20,32,40,92,96,184,160,184,172,184,188,60,164,16,0,0,68,168,0,184,0,0,0,0,0,0,0,16,40,16
0,60,184,88,188,168,184,184,188,188,0,80,0,100,112,184,0,0,0,0,188,0,0,0,0,0,0,0,4,32,52,64,128,184,20,12,76,28,136,40,184,28,184,44,128,176,0,80,0,0,184,0,0,148,64,0,0,0,0,0,0,12,12,64
124,20,76,0,80,140,184,108,68,188,188,60,0,0,140,0,0,0,0,0,0,160,188,184,0,0,0,0,24,28,24,104,156,112,112,28,32,64,112,168,68,184,120,68,4,168,184,184,172,0,184,0,0,0,0,0,0,0,0,0,0,52,48,28
8,4,132,132,4,168,176,176,64,188,184,188,124,0,156,188,0,144,104,0,0,0,0,112,0,0,0,0,12,60,40,20,36,112,140,120,24,32,104,160,80,176,140,12,188,104,0,4,0,188,0,180,0,0,184,0,0,0,0,0,0,32,20,28
48,188,120,0,92,0,0,24,184,4,184,184,8,0,188,0,188,0,0,188,0,0,0,156,184,0,0,44,0,32,184,184,64,120,28,156,32,44,132,176,120,184,176,188,84,4,184,112,0,28,0,0,0,24,0,0,0,0,0,0,28,0,12,28
12,0,188,140,184,156,188,116,184,184,160,184,188,108,28,0,188,0,188,0,0,124,0,0,172,0,0,0,36,20,144,32,184,56,60,136,172,40,116,148,184,184,188,92,72,108,188,0,0,0,168,176,0,0,0,0,0,0,0,0,20,0,164,112
