160,240,255,100,255,255,255,255,255,255,255,255,255,255,255,255,255,0,255,255,0,0,110,0,0,0,0,0,0,255,255,255,255,255,255,255,255,255,255,255,255,255,255,255,255,180,255,255,255,255,255,255,0,0,0,0,0,20,170,80,0,100,140,90
255,255,255,160,255,255,255,255,255,255,255,255,255,0,255,255,255,255,255,180,255,255,0,230,0,110,0,0,255,255,0,255,255,255,140,190,255,255,255,255,255,255,255,255,255,255,255,200,255,0,60,0,130,0,0,255,0,0,0,0,0,20,80,0
10,255,255,255,255,255,60,255,255,255,255,255,255,10,255,255,255,0,0,255,255,200,0,0,70,10,0,0,0,255,255,255,255,255,0,255,210,255,255,255,255,255,255,255,255,190,255,0,255,255,0,255,0,130,0,255,0,0,0,0,170,0,130,250
255,140,255,140,255,255,255,255,220,255,255,255,255,255,255,255,255,255,0,255,70,255,0,255,0,0,0,0,0,255,255,255,255,210,255,190,255,255,255,255,255,255,255,255,255,255,200,255,0,0,255,20,80,0,130,0,0,0,0,0,0,240,240,130
255,255,255,255,255,255,50,255,255,255,255,255,255,255,255,0,255,0,140,255,130,0,0,0,0,0,0,0,255,255,255,0,255,255,255,180,255,255,255,255,255,255,255,160,255,255,255,255,255,255,120,20,255,140,0,0,0,0,0,0,60,255,90,100
255,10,255,120,255,255,255,255,255,255,255,255,255,255,255,255,255,0,255,0,240,255,0,0,0,0,0,0,0,255,150,255,255,130,90,190,255,160,255,255,255,255,255,255,255,255,255,170,255,190,0,60,0,255,0,0,255,170,0,0,20,200,150,160
210,255,255,0,255,255,110,255,255,255,255,255,255,255,0,255,0,255,255,255,0,0,0,220,0,250,210,90,60,255,255,255,150,250,255,255,255,255,255,255,255,255,255,240,255,255,255,255,0,0,210,40,255,0,0,0,0,140,0,0,0,230,255,250
255,170,200,255,255,255,255,255,255,255,255,170,255,255,255,120,0,255,255,220,255,0,255,0,0,0,0,150,0,255,255,255,255,255,255,255,200,220,255,255,255,255,255,255,255,255,210,255,120,255,0,0,0,120,50,255,220,0,190,0,0,120,230,170
255,210,240,255,150,255,255,255,255,255,255,200,255,255,255,255,0,230,255,255,0,230,0,0,0,0,0,0,0,255,210,150,255,0,150,255,255,255,255,255,255,255,255,255,255,255,255,255,0,40,130,0,0,0,0,0,0,0,0,250,100,0,0,255
255,255,255,255,255,255,50,255,255,255,255,255,255,255,70,255,255,255,0,0,255,255,0,0,10,0,0,0,0,255,200,250,255,255,180,160,255,255,255,255,255,255,255,255,255,255,255,255,250,255,230,130,0,0,50,0,40,0,0,0,150,0,80,140
255,255,170,70,255,255,255,255,255,255,255,255,255,180,255,255,255,230,0,0,10,255,0,0,0,0,0,0,255,0,255,255,255,255,210,220,255,255,255,255,255,255,255,255,255,255,255,255,0,190,0,255,30,0,0,0,0,0,0,0,50,255,0,70
100,255,150,190,255,255,255,255,255,255,255,255,255,255,255,0,255,255,70,200,0,0,0,255,0,0,0,0,255,0,200,255,255,255,150,255,210,230,255,255,255,255,255,210,255,255,255,0,190,255,0,255,0,50,0,255,0,0,0,0,0,120,210,100
255,255,170,255,230,255,255,210,255,255,255,255,240,0,0,210,255,190,0,255,0,110,180,0,0,0,0,255,220,0,255,255,255,220,140,255,255,255,250,255,255,255,255,255,255,255,90,255,255,0,255,0,40,255,0,0,0,255,0,0,0,50,255,10
100,190,210,255,160,255,255,255,255,255,0,255,255,255,255,255,255,255,255,220,190,0,255,50,0,0,0,255,0,10,250,255,140,180,255,255,255,255,255,255,255,255,255,255,255,255,255,0,0,255,0,255,255,0,10,0,0,0,0,0,240,0,180,255
90,40,255,255,0,255,255,255,255,255,255,255,255,255,255,255,210,255,255,0,0,0,0,0,90,0,0,0,0,255,255,255,255,160,0,255,255,255,255,255,255,255,255,255,255,255,160,255,255,220,0,110,0,255,40,0,0,0,30,0,0,100,255,255
0,250,130,255,220,255,255,255,255,255,255,255,255,255,190,255,0,255,255,0,255,255,200,0,255,200,0,0,0,255,250,255,255,220,230,255,70,250,255,240,255,255,255,255,255,255,0,255,255,0,0,0,0,0,0,0,0,0,0,0,0,255,170,210
255,150,255,160,250,255,255,255,255,255,80,255,255,255,255,255,255,255,255,210,255,20,0,0,140,0,0,0,10,240,255,255,255,240,90,255,160,220,255,255,255,255,255,255,255,255,255,40,255,190,0,0,0,210,240,0,0,0,0,0,0,160,110,120
230,90,190,255,255,255,255,50,255,255,255,255,255,255,255,255,255,210,0,255,30,0,0,0,0,10,0,0,0,255,100,255,210,80,30,255,255,255,255,255,255,255,255,255,255,255,255,255,255,0,210,0,0,0,0,255,0,0,0,0,190,0,255,200
0,190,180,255,255,255,255,255,255,255,255,255,255,255,220,255,0,255,255,250,0,255,0,0,0,0,0,0,255,0,255,250,210,255,80,255,240,255,255,255,255,255,255,255,255,0,255,255,0,255,190,255,255,0,0,30,30,0,0,0,0,120,255,255
255,250,230,255,255,210,255,255,255,255,255,255,160,255,255,0,255,255,255,255,0,0,0,255,0,0,0,0,0,255,255,255,255,255,250,255,255,255,250,150,255,255,255,255,255,255,255,80,255,0,0,255,255,30,0,255,0,0,0,0,0,210,255,140
160,255,255,255,255,255,255,255,255,190,255,255,255,255,170,255,200,255,255,255,110,0,0,0,0,0,0,0,0,255,255,255,255,200,230,255,255,255,255,255,255,255,255,255,255,255,255,220,150,0,0,200,0,100,0,255,0,0,0,0,0,70,255,210
255,20,255,230,255,255,255,255,255,160,255,255,255,255,0,255,0,255,0,0,0,255,0,255,0,0,0,210,0,150,160,180,255,255,170,255,255,255,255,255,255,255,255,255,255,170,255,255,255,255,0,255,0,30,0,120,255,0,0,0,0,160,230,255
255,0,190,255,255,255,255,255,255,255,255,255,255,255,255,255,255,10,210,250,255,10,210,0,0,0,0,0,240,40,255,255,255,80,90,160,255,255,255,255,255,255,255,255,255,255,70,255,0,10,255,255,100,255,255,0,0,80,0,0,40,160,255,255
255,150,255,255,10,255,255,255,255,255,255,255,255,255,255,0,0,255,255,0,0,0,255,0,0,0,0,0,0,255,255,255,255,180,170,90,255,255,255,255,255,255,255,180,255,255,255,255,255,0,210,255,255,255,255,255,0,255,0,0,0,210,70,255
10,120,255,255,255,255,255,255,255,255,255,255,40,160,255,0,255,0,255,0,0,0,210,220,0,0,0,0,0,10,160,120,210,255,255,210,255,255,255,255,255,255,255,255,240,80,255,255,255,0,180,0,255,0,0,0,0,0,0,0,0,170,180,250
255,110,255,0,220,255,255,170,255,255,20,255,255,255,255,255,255,0,255,0,250,0,160,50,0,0,0,0,0,230,255,255,170,255,255,200,255,255,255,255,255,255,255,255,255,255,170,255,130,0,20,210,70,255,0,0,0,0,190,0,0,190,255,255
190,255,230,130,255,255,255,255,255,255,255,255,255,255,255,255,0,255,0,230,10,200,0,150,0,0,0,0,250,0,255,255,240,255,255,255,190,210,255,250,255,255,230,255,255,255,255,255,255,0,0,10,130,30,0,0,0,0,0,0,0,255,255,255
255,140,255,255,255,255,255,255,255,255,255,255,255,255,200,255,255,255,0,255,255,255,0,0,0,0,0,0,0,210,255,255,255,10,255,0,255,255,255,255,255,255,255,255,255,255,50,255,255,180,0,0,255,0,130,0,0,0,0,0,170,255,0,150
160,255,255,255,255,255,255,255,255,255,255,255,255,60,255,255,230,170,0,0,0,0,0,0,255,110,0,0,0,255,255,250,255,60,255,255,255,255,255,255,255,255,255,255,255,255,255,255,130,0,0,160,100,0,190,0,0,0,0,0,255,10,255,0
120,255,140,255,255,255,255,250,255,255,255,255,255,10,255,255,20,120,250,255,180,255,0,0,0,0,0,80,0,250,255,255,255,255,80,190,255,255,255,255,255,255,130,255,255,255,110,255,250,255,0,255,255,0,0,0,0,100,0,0,0,250,230,255
180,255,255,255,255,160,255,255,255,255,255,255,255,255,255,255,210,230,230,255,0,0,0,240,0,0,0,0,0,255,255,255,210,80,10,250,255,255,255,255,255,255,255,255,255,255,170,255,255,0,140,0,0,0,0,0,0,0,0,190,0,140,255,255
255,40,255,250,255,255,255,255,255,255,255,255,255,255,255,255,0,0,255,255,0,120,0,255,0,0,0,0,0,250,255,110,250,255,255,130,70,255,230,255,255,255,255,255,255,255,255,255,255,0,255,0,255,0,0,0,90,0,0,0,190,0,220,210
255,140,255,255,255,255,255,110,255,255,255,255,255,255,255,230,0,255,0,80,0,190,0,0,0,255,0,0,0,240,255,190,255,255,190,255,255,170,255,255,255,255,255,255,255,255,0,255,255,255,0,0,40,0,0,0,0,0,0,0,0,220,220,255
0,255,255,255,140,255,255,255,255,255,255,255,255,255,0,255,255,0,0,255,0,0,255,0,0,255,0,0,240,0,255,220,255,255,160,200,250,255,255,255,255,255,255,255,250,255,255,255,255,0,255,0,0,10,0,210,0,255,0,80,0,80,255,70
190,255,255,255,255,100,255,255,255,255,255,255,255,255,255,255,255,0,255,0,180,0,255,0,255,0,0,0,0,255,255,255,255,180,120,30,255,255,255,255,255,255,255,180,255,255,255,0,255,0,0,255,255,0,100,0,10,0,0,0,170,255,210,40
160,0,255,255,255,255,255,255,255,255,255,255,255,255,255,80,255,255,255,0,220,255,0,0,0,0,0,0,0,255,255,255,170,250,255,255,240,255,160,255,255,255,255,255,255,255,255,255,255,255,255,0,100,0,0,0,0,0,0,0,0,255,255,255
70,255,255,230,255,255,250,255,255,255,255,255,255,0,255,0,255,200,255,255,0,0,255,255,0,0,0,0,0,255,255,180,255,255,120,255,190,255,255,230,255,255,255,255,255,255,255,255,255,0,0,255,190,0,30,0,0,120,0,0,0,50,255,255
0,255,255,170,255,210,255,255,255,255,255,160,255,255,0,255,0,255,255,0,30,255,0,0,160,210,0,0,0,150,100,255,255,255,255,255,255,255,255,255,210,255,255,255,255,255,255,255,255,0,0,255,0,255,0,0,0,0,0,255,0,0,160,100
255,0,250,255,255,255,255,255,255,255,255,20,0,255,255,255,255,0,255,0,255,0,0,190,0,0,0,0,230,0,170,255,255,190,240,250,210,255,250,255,170,255,255,255,255,255,255,255,0,10,255,255,0,255,255,0,0,0,0,0,160,120,0,255
255,160,255,160,255,255,255,140,255,255,255,255,255,255,140,255,255,255,255,255,0,0,210,255,140,0,0,0,255,255,10,255,120,110,255,150,255,255,255,255,255,120,255,0,255,210,10,255,0,0,255,120,0,0,255,0,0,0,10,0,0,160,255,255
210,140,255,160,255,160,255,255,255,255,255,255,255,255,0,0,255,100,255,190,230,190,255,0,0,0,0,0,0,255,200,160,255,255,190,255,255,255,255,255,255,255,255,255,255,255,0,255,255,255,0,255,0,0,0,120,0,0,0,0,0,70,255,255
40,255,255,200,80,255,255,255,180,255,255,255,255,255,255,255,0,0,255,255,0,0,0,0,0,0,0,0,30,255,255,255,255,255,180,255,255,255,255,255,255,255,255,255,255,255,120,255,70,0,255,0,0,255,0,0,0,0,0,0,20,255,140,210
240,255,255,255,255,255,255,255,255,255,255,220,255,0,255,255,0,170,255,0,255,0,0,0,0,0,0,0,110,255,255,255,220,160,255,0,255,255,255,255,255,255,255,255,255,255,255,60,255,255,100,0,0,60,0,70,0,0,0,0,0,255,255,180
255,0,90,40,255,255,255,255,255,255,255,255,170,255,255,255,255,255,0,0,255,150,255,0,0,0,0,0,0,255,255,255,255,170,160,70,255,255,255,255,255,255,255,255,255,255,210,255,255,255,255,140,0,0,255,255,0,0,0,0,0,70,255,255
230,255,220,255,255,255,50,255,255,255,255,255,255,255,255,255,255,255,255,0,0,90,0,0,0,0,0,0,0,255,230,210,255,250,250,170,190,255,255,240,255,255,255,255,255,255,255,255,255,0,250,120,30,0,0,0,0,0,0,0,0,80,140,230
255,255,255,250,170,255,255,255,255,255,255,255,255,40,255,255,255,240,255,0,220,0,255,0,255,0,0,0,0,255,240,170,255,0,255,230,255,255,255,140,255,255,255,255,255,255,255,250,50,255,0,0,0,60,0,0,0,0,0,0,0,200,255,140
255,255,255,110,255,255,255,210,255,255,250,255,255,255,255,255,0,255,0,0,255,255,0,160,0,0,10,0,230,255,0,255,190,220,255,150,255,255,255,255,255,255,255,255,255,80,255,255,100,0,0,255,0,0,0,0,255,0,0,0,20,80,160,255
255,255,255,255,220,255,255,255,255,255,255,255,255,255,255,255,255,255,255,255,255,0,0,0,0,170,0,0,0,250,255,210,255,255,160,255,255,255,255,255,255,255,255,255,255,255,255,255,255,255,0,0,255,0,100,0,255,0,0,0,0,220,20,0
140,140,255,190,60,255,255,255,255,255,190,255,255,255,255,255,255,0,190,220,255,255,0,0,0,0,0,0,220,0,250,220,255,255,255,110,220,255,255,255,255,255,255,255,255,255,255,255,255,255,0,20,0,0,0,0,130,0,0,0,0,255,190,60
70,190,255,255,130,255,255,255,255,190,255,255,255,255,255,0,255,255,0,230,0,250,90,0,160,0,0,0,0,255,255,255,190,255,140,255,255,255,255,255,255,255,255,255,255,255,170,250,40,255,0,0,0,0,255,210,0,0,0,0,0,240,190,255
