24,32,84,0,8,0,50,0,92,40,92,94,0,0,0,92,0,0,0,0,10,0,0,0,0,0,0,0,6,8,14,10,6,48,4,2,8,24,70,90,10,10,44,90,28,0,2,92,0,0,0,0,0,0,0,0,0,0,0,0,0,8,32,2
0,38,66,2,0,90,46,4,88,94,52,0,0,0,0,0,0,0,0,0,0,0,76,0,0,0,0,0,14,8,8,10,8,76,8,84,4,10,12,88,68,40,42,6,84,22,88,76,0,0,0,0,0,0,0,0,0,84,0,0,0,8,4,6
34,32,70,0,14,4,6,2,0,40,94,92,0,0,0,0,0,0,94,0,46,0,0,0,0,0,0,0,10,10,14,10,46,0,6,38,42,8,88,92,10,92,46,82,2,0,94,2,0,0,0,0,0,0,0,0,0,0,0,0,0,12,10,10
0,46,32,0,14,0,94,78,40,0,92,76,92,92,0,0,0,0,0,0,0,0,0,0,0,0,0,0,10,2,10,6,14,0,4,8,76,10,48,52,8,10,92,2,2,30,0,0,0,0,0,0,0,0,8,0,0,72,0,0,0,6,6,2
0,0,0,32,86,24,92,2,40,0,2,94,2,70,0,0,92,0,0,62,0,0,2,0,0,0,74,0,8,14,18,12,16,6,6,24,14,90,10,14,80,68,50,94,2,10,0,0,0,0,90,0,0,0,0,0,0,0,0,0,0,4,14,2
30,0,56,30,0,74,0,92,2,40,92,0,2,0,0,94,0,0,0,0,0,0,44,0,0,0,0,0,14,6,14,4,14,2,6,2,10,8,84,92,92,28,72,92,2,2,0,0,0,0,0,92,0,0,0,0,0,0,0,0,0,4,8,2
34,10,0,0,0,94,34,2,0,0,92,0,94,0,94,70,0,0,0,0,0,0,0,0,0,0,0,0,4,14,18,10,2,4,52,78,16,14,80,16,16,56,76,6,2,76,70,92,0,0,92,0,0,0,0,0,0,0,0,84,6,0,6,28
2,0,30,52,66,24,92,8,4,42,0,0,92,94,0,0,4,0,0,0,0,44,0,0,0,0,0,0,12,10,10,6,6,34,4,6,14,14,14,92,88,46,6,20,8,92,0,4,0,0,84,0,92,0,0,0,0,0,0,0,0,14,16,16
48,6,0,60,0,4,6,94,92,42,0,0,0,0,0,0,92,0,0,0,0,0,0,0,0,0,0,0,8,12,10,10,22,4,6,8,10,88,12,16,90,60,4,94,32,0,94,0,16,0,0,0,0,0,68,0,0,0,28,0,0,4,2,12
6,52,2,2,2,4,80,92,92,82,94,70,0,50,0,0,0,0,0,0,0,0,0,0,0,0,0,0,6,14,12,14,6,8,4,4,46,72,8,84,6,90,94,6,4,92,4,20,0,0,0,0,0,0,0,0,0,0,0,0,6,0,6,2
0,14,2,4,2,0,2,88,92,2,94,0,80,0,0,0,0,0,0,92,0,0,0,0,0,0,0,0,12,8,6,10,14,6,4,42,4,60,56,10,92,42,94,4,2,28,0,4,38,0,64,0,80,0,0,18,0,0,0,0,0,8,16,8
18,6,0,10,0,92,74,4,40,32,94,20,0,92,58,0,94,0,0,0,0,0,0,0,0,0,0,0,10,8,8,14,8,0,26,8,34,10,94,12,92,70,66,2,8,32,0,70,0,0,82,0,46,0,0,0,0,0,0,0,12,0,4,6
0,28,92,16,44,8,92,4,92,92,0,0,92,92,0,0,0,0,0,48,38,0,0,0,0,0,0,0,6,16,8,16,22,26,2,8,6,52,14,14,92,92,2,0,74,74,2,2,0,0,0,0,0,0,0,0,0,0,0,0,0,16,4,14
2,30,32,0,8,30,2,0,90,92,2,0,0,0,0,0,10,92,0,50,0,0,0,0,0,4,0,0,8,0,10,10,28,6,4,6,22,10,84,90,62,26,52,2,92,90,2,0,0,82,0,2,92,0,0,0,0,0,6,0,0,6,0,10
0,70,82,72,28,2,74,6,92,92,0,0,92,0,0,0,0,0,0,0,0,24,92,0,0,88,0,8,0,14,8,8,26,38,4,6,66,14,14,8,92,90,6,78,66,0,0,88,0,0,0,50,0,0,0,78,0,0,0,0,0,4,4,8
10,32,0,0,68,24,88,46,82,92,2,0,0,0,0,0,68,0,0,0,8,42,0,0,0,0,0,0,6,12,4,10,22,6,42,2,2,14,14,90,48,50,22,6,2,16,74,0,0,0,0,92,0,84,0,0,0,0,0,0,0,0,16,2
34,0,0,32,24,70,86,4,94,42,94,84,0,0,0,0,0,0,0,0,0,44,78,0,0,0,0,10,0,12,10,14,34,6,2,4,14,90,6,92,14,92,52,88,90,2,90,0,0,10,0,46,0,0,0,0,0,0,0,0,0,10,34,0
74,6,28,0,0,2,84,2,92,70,0,92,6,92,94,0,0,0,0,92,0,0,0,0,0,0,0,0,2,12,6,8,54,16,20,74,66,84,10,92,92,52,82,2,94,4,92,0,60,0,80,0,0,0,0,0,0,0,0,0,0,8,14,4
0,0,26,64,0,20,84,4,92,0,86,0,0,0,0,20,10,0,0,86,0,0,0,0,0,0,0,0,6,10,8,6,20,34,6,6,14,38,54,68,10,92,6,66,8,2,76,0,0,0,0,0,0,0,0,0,0,0,0,0,4,0,36,2
0,0,0,38,6,34,0,4,94,6,56,0,0,0,0,70,92,0,0,0,0,0,94,0,0,0,0,0,10,16,6,10,22,50,10,6,64,8,14,10,92,12,10,82,84,46,0,74,0,30,0,0,0,0,0,0,0,0,0,0,0,8,2,10
30,0,18,32,12,2,86,18,92,40,94,0,92,92,0,94,56,0,0,0,0,0,0,0,0,0,0,0,6,10,16,6,8,30,2,4,88,80,90,78,76,92,34,52,0,4,0,66,12,54,90,0,0,0,0,0,58,0,0,0,0,4,12,2
0,30,0,2,48,84,2,2,44,92,92,2,0,92,0,0,0,92,0,48,0,0,0,0,0,0,0,0,2,14,2,12,10,16,2,6,8,92,92,88,94,18,32,92,4,0,74,0,0,0,0,0,0,0,70,0,0,0,0,0,2,2,6,26
6,0,32,0,70,0,92,4,2,92,0,94,0,0,92,0,0,88,0,0,48,0,0,90,0,94,0,0,14,4,12,8,30,36,8,28,12,82,82,92,20,92,46,88,0,2,0,0,0,90,0,0,74,0,0,0,0,0,0,0,0,6,6,6
0,24,10,68,80,4,90,90,92,94,94,90,0,0,0,0,0,50,0,0,0,0,0,0,0,0,0,6,0,10,10,4,8,2,6,50,6,42,24,78,22,94,4,72,92,92,92,0,20,0,0,0,0,0,0,0,0,0,0,0,0,10,2,8
0,0,66,0,68,2,92,92,2,42,0,0,0,0,0,88,0,0,92,0,0,92,0,0,0,0,0,0,2,14,10,10,2,30,30,60,16,84,10,10,46,34,64,44,92,2,0,68,0,0,0,0,0,0,0,0,0,0,0,0,0,2,2,10
26,0,0,2,0,42,92,92,2,92,0,0,94,0,48,0,76,0,0,0,0,0,0,0,0,0,0,0,4,6,14,6,2,20,4,4,14,68,12,46,22,88,46,10,92,92,0,2,6,0,0,0,0,0,92,0,0,0,0,0,0,6,4,20
24,0,72,0,80,2,40,2,86,4,76,0,92,0,92,0,0,0,0,0,0,0,0,0,0,0,0,0,6,2,16,10,4,4,10,8,48,42,10,90,90,46,6,4,6,88,2,90,0,0,0,0,0,0,0,0,0,0,0,0,0,4,8,2
0,42,38,14,74,44,2,2,92,94,92,24,0,0,0,0,0,0,0,0,0,0,2,0,0,12,0,0,0,6,4,10,56,10,2,8,14,20,10,92,64,8,46,68,14,56,0,6,0,0,0,0,0,0,60,0,0,0,0,0,0,8,46,6
0,0,30,0,82,0,92,0,92,40,0,92,92,0,0,0,92,0,0,0,0,44,0,0,0,0,0,8,0,10,20,8,8,26,4,2,14,12,78,88,92,12,6,44,2,0,92,72,32,0,0,0,0,0,0,0,0,0,0,0,2,10,0,2
42,16,0,0,0,0,90,0,48,2,92,0,0,0,0,92,0,0,0,0,0,44,0,0,0,0,0,0,8,12,10,20,28,6,2,6,14,8,8,6,92,66,24,2,76,2,92,6,0,0,0,0,82,0,0,0,0,0,0,0,0,6,2,8
0,14,60,0,0,8,0,92,92,34,0,92,0,92,0,0,0,0,0,0,0,0,0,0,0,0,0,0,10,10,10,4,4,58,6,26,10,6,66,10,92,88,10,90,2,92,28,0,0,0,0,0,0,0,0,0,0,0,0,0,2,0,10,2
0,0,22,0,2,8,88,92,58,94,92,92,0,2,0,0,0,0,0,0,0,0,0,0,0,0,0,0,4,8,10,10,2,6,2,76,72,30,88,92,4,76,2,46,16,50,2,0,88,0,0,0,0,0,0,0,0,18,0,0,2,0,0,14
0,0,10,84,84,0,92,90,38,2,92,0,0,0,0,0,0,0,0,92,0,0,0,70,0,0,2,0,0,12,10,8,36,2,6,6,6,14,42,92,8,92,8,26,0,2,0,44,0,0,0,0,0,0,0,0,84,0,0,0,10,0,8,10
2,0,2,2,0,72,2,92,92,18,92,0,0,0,94,2,92,0,0,0,0,0,0,0,0,0,0,0,6,8,10,8,30,6,6,38,14,10,86,24,92,88,46,66,68,28,0,0,8,0,0,0,0,0,0,0,0,0,0,0,0,2,6,8
0,6,2,2,78,54,28,0,58,24,92,2,0,0,92,0,0,6,0,0,94,0,0,0,0,0,0,10,0,4,14,6,4,36,4,12,2,92,6,16,8,74,94,6,86,90,0,0,84,14,0,0,0,0,0,0,0,0,0,0,0,10,0,16
28,0,0,0,2,86,44,0,92,0,94,0,0,0,0,0,0,92,64,0,0,0,0,0,0,0,0,0,18,8,10,8,6,8,4,14,10,80,56,92,90,70,74,2,84,2,2,0,82,0,0,0,0,0,84,0,0,0,0,0,0,8,2,6
22,30,6,58,4,0,92,40,92,46,92,0,0,92,0,0,0,0,0,0,0,0,0,0,0,0,0,0,2,8,10,12,8,24,6,8,76,16,12,88,12,88,8,70,72,24,0,0,0,0,0,0,52,0,0,0,70,0,0,0,0,8,8,6
2,2,64,0,2,82,0,60,92,2,42,92,0,0,0,0,0,0,0,0,0,46,0,0,0,0,0,0,4,10,16,6,26,2,4,16,8,10,90,84,24,4,46,12,92,0,8,2,92,0,0,64,0,0,0,0,0,0,0,0,4,0,4,32
0,0,26,0,68,2,92,92,40,92,0,92,0,0,0,40,0,0,0,0,0,0,0,0,0,0,0,0,6,16,2,10,10,4,6,6,14,88,14,58,68,92,28,92,28,6,0,0,0,0,0,0,0,0,0,0,0,0,0,0,0,8,2,0
0,0,2,0,0,88,10,92,92,80,0,0,0,0,0,0,92,0,92,0,0,0,0,0,0,0,0,0,6,4,12,2,40,12,36,6,20,72,20,10,44,8,90,82,26,90,2,0,0,0,0,78,64,0,0,0,0,0,0,0,4,0,6,12
30,0,32,0,16,82,0,92,94,2,0,0,2,0,0,0,72,0,0,0,0,0,0,0,0,0,0,10,0,14,14,12,24,4,4,46,28,8,16,64,50,92,92,44,92,4,0,16,0,0,0,0,0,0,0,0,0,0,0,2,0,0,2,2
0,32,4,0,50,8,2,4,94,0,92,0,0,94,0,0,0,0,48,0,0,0,0,0,0,0,0,0,6,8,12,10,22,2,2,6,2,38,84,32,94,92,6,46,16,6,82,0,0,0,0,0,22,0,0,0,0,0,0,0,0,8,4,16
2,18,32,0,0,6,72,92,4,0,6,0,92,34,0,0,0,0,94,46,0,0,0,0,0,0,0,6,14,0,14,14,46,6,68,22,6,10,10,12,12,6,92,78,70,94,0,92,0,0,0,0,0,0,86,0,0,0,0,0,0,4,10,26
8,24,70,2,2,0,2,4,40,94,94,0,0,0,0,0,0,0,0,0,0,44,0,0,0,0,0,0,8,16,14,10,10,2,4,6,6,8,46,92,74,10,6,92,2,70,6,28,0,0,0,0,0,0,12,0,0,0,0,0,2,0,6,4
10,0,0,0,0,2,76,40,92,84,0,0,92,92,0,0,0,0,0,0,46,0,0,0,0,0,0,10,0,10,10,30,18,6,2,10,6,40,78,14,92,8,46,36,92,0,74,6,0,0,0,0,0,0,0,26,0,0,0,0,20,0,2,4
4,0,0,0,0,44,0,94,92,6,0,92,0,0,0,0,0,0,0,0,0,2,0,0,0,38,0,0,8,16,6,16,10,8,4,10,46,32,86,8,92,8,4,70,22,82,0,0,0,0,0,0,0,0,0,0,0,0,0,0,0,6,4,6
6,32,14,2,38,2,84,92,80,2,90,92,0,0,0,0,2,0,0,0,0,4,0,0,0,0,0,0,10,8,14,12,16,6,32,78,30,14,12,8,92,6,78,92,2,0,72,0,0,16,60,0,0,0,0,0,0,0,0,0,0,2,4,4
22,32,0,2,10,30,90,88,42,92,2,94,0,0,0,0,0,0,58,0,48,0,0,0,0,0,0,0,6,10,12,16,12,2,2,10,10,20,20,8,92,94,92,2,14,8,0,0,2,0,0,0,0,0,0,0,0,0,0,0,0,2,18,20
2,12,34,0,8,8,0,92,4,40,94,18,82,0,0,0,0,0,0,0,0,0,0,92,0,0,0,0,2,12,10,18,28,2,2,28,4,80,60,8,92,8,92,44,74,78,0,0,28,0,0,0,0,0,0,0,0,0,0,0,0,6,6,6
16,0,0,0,78,2,48,90,38,2,94,82,94,0,0,0,0,0,0,0,0,0,0,0,0,0,0,10,0,12,6,8,8,30,4,72,50,24,52,10,6,90,92,16,88,24,66,0,0,2,0,0,0,0,0,0,0,0,0,0,0,8,24,4
