0,0,45,9,9,0,3,0,0,141,0,0,0,0,0,0,0,66,117,0,0,0,0,0,0,0,0,0,15,15,6,12,3,51,6,3,30,21,24,33,21,48,3,9,138,0,0,0,0,0,0,0,0,0,0,0,0,0,0,0,0,12,6,3
0,0,3,3,3,6,6,141,138,69,0,0,0,0,138,0,0,0,0,0,0,0,0,0,0,0,0,6,0,15,24,6,12,9,3,12,9,9,18,84,135,9,9,6,9,0,138,141,0,0,0,0,12,0,0,0,0,0,0,0,0,9,6,0
0,0,0,0,0,6,3,141,0,0,0,0,0,60,0,0,0,0,0,0,0,0,0,0,0,0,0,0,6,18,21,9,6,9,3,6,69,9,12,84,24,12,15,138,9,141,3,0,0,0,0,0,0,0,0,0,0,0,0,0,3,6,3,0
3,0,0,0,3,0,138,69,138,3,0,0,0,0,0,0,0,0,0,0,0,0,0,0,0,0,0,0,9,12,15,3,9,9,3,12,15,18,9,15,12,18,9,9,0,3,138,0,0,0,0,0,0,0,0,0,0,0,0,0,6,3,9,3
0,0,3,3,24,3,0,69,3,3,0,0,0,0,0,0,0,0,0,0,0,0,0,0,0,0,0,0,9,21,18,15,6,3,3,12,3,21,15,12,54,12,84,6,6,3,0,3,0,0,0,0,135,48,0,0,0,0,0,0,0,0,6,3
0,0,3,0,63,3,21,0,66,0,0,0,0,0,0,0,141,0,0,0,0,0,0,0,0,0,0,0,18,18,9,6,30,3,3,3,9,15,12,15,9,9,141,87,3,111,0,0,0,0,0,0,0,0,0,0,0,0,0,0,3,0,3,9
0,3,0,3,0,0,9,69,138,141,0,0,0,0,3,0,0,0,0,0,0,0,0,0,0,0,0,12,0,9,15,21,0,12,3,9,15,12,18,18,111,21,87,6,36,6,0,0,0,0,0,0,0,0,0,0,0,0,0,0,0,3,9,3
6,0,0,3,0,3,9,0,3,0,0,141,0,0,138,0,0,0,0,0,0,0,0,0,0,0,0,0,12,15,12,30,6,15,3,123,3,9,12,15,6,6,6,27,123,3,3,0,138,0,0,0,0,0,0,0,0,0,0,0,0,3,9,3
36,0,3,3,0,3,114,3,141,3,0,0,0,0,0,0,0,0,0,0,0,0,0,0,0,0,9,0,0,24,21,3,9,3,6,3,12,12,12,15,21,15,84,3,0,141,0,135,63,0,0,0,0,0,0,0,0,0,0,3,0,0,9,33
6,0,0,0,0,0,6,135,66,0,0,0,0,0,0,0,0,0,0,0,0,0,0,0,0,0,0,0,12,21,3,15,9,9,3,3,12,21,24,9,12,12,9,84,3,0,9,51,0,0,0,0,0,135,0,141,0,0,0,0,3,6,0,0
36,0,120,0,57,3,15,0,0,6,0,0,0,0,0,0,0,0,0,0,0,0,0,0,0,0,0,18,0,18,12,21,3,9,3,12,9,21,15,21,12,15,15,9,129,0,3,0,0,0,0,0,0,0,0,0,0,0,0,3,9,0,0,9
0,0,0,0,0,0,27,0,21,84,0,0,0,0,0,0,0,0,0,0,0,0,0,0,0,0,0,0,15,12,15,12,3,3,9,9,9,15,6,18,21,33,9,84,0,12,0,0,0,0,0,0,0,0,0,138,0,90,0,0,0,3,3,9
0,0,3,123,24,0,3,69,6,0,138,0,0,0,0,0,0,0,0,0,0,0,0,0,0,0,0,0,15,9,6,9,9,3,9,18,15,15,42,12,9,27,12,84,18,0,132,0,0,0,0,0,0,0,0,0,0,0,0,0,0,3,0,3
0,0,6,0,9,0,3,138,0,141,0,0,0,0,0,141,0,0,0,0,0,0,0,0,0,0,0,0,9,12,15,9,6,3,36,12,3,12,21,45,12,12,18,141,9,0,0,0,0,0,0,0,0,0,0,0,0,0,0,0,0,9,3,18
3,6,0,0,3,3,21,0,69,141,0,3,0,0,0,0,0,0,0,0,0,0,0,0,0,0,0,0,9,9,15,18,15,6,3,12,9,27,18,15,54,132,12,87,3,9,0,0,0,126,0,0,0,0,0,0,0,0,0,0,6,6,3,0
0,0,12,0,3,0,129,3,0,69,0,3,0,0,138,0,0,0,0,0,0,0,0,0,0,0,0,12,0,15,12,12,6,3,54,6,3,12,15,21,9,21,15,87,6,3,0,0,0,0,0,0,0,0,0,0,0,0,0,0,0,3,15,9
0,0,0,0,0,6,0,69,138,0,138,0,0,0,0,0,0,0,0,0,0,0,0,0,0,0,0,0,9,21,12,12,9,6,6,3,9,18,36,18,12,6,15,87,87,0,3,0,0,0,0,0,0,0,0,0,0,0,0,0,0,15,12,9
0,0,15,0,0,0,0,69,138,141,0,138,0,0,0,0,0,0,0,0,0,0,0,0,0,0,0,0,15,12,9,9,6,15,6,6,99,12,15,138,42,15,3,15,3,138,0,0,0,0,0,0,0,0,0,0,0,0,0,0,0,3,0,3
0,0,0,0,0,12,0,0,138,0,0,0,0,0,0,0,0,0,0,0,0,0,0,0,0,0,0,0,6,12,15,9,6,6,3,6,9,9,87,54,15,12,6,18,60,15,0,0,0,0,0,21,0,0,129,0,0,0,0,0,0,0,3,3
0,0,0,3,90,0,138,0,0,141,69,0,0,0,0,0,0,138,0,0,0,0,0,0,0,0,0,0,9,9,15,6,6,6,12,9,9,18,18,9,87,39,138,3,6,0,0,0,141,0,0,0,0,0,0,0,0,0,0,0,0,3,0,3
3,3,0,0,0,0,0,0,0,3,69,141,141,0,0,0,0,0,0,0,0,0,0,0,0,0,0,0,3,15,15,6,9,42,3,9,3,21,135,15,87,15,9,3,42,6,0,0,0,0,0,0,0,0,0,0,0,0,0,0,3,0,9,21
0,0,0,0,66,0,3,141,0,69,0,0,0,0,0,0,0,0,138,0,0,0,111,0,0,0,0,0,6,9,21,9,27,3,3,12,3,45,15,84,12,123,21,3,0,0,0,3,0,0,0,141,0,0,0,0,0,0,0,0,0,6,0,3
0,3,3,0,0,6,138,69,3,0,138,0,0,0,0,141,0,0,0,0,0,0,0,0,0,0,0,0,15,12,9,15,36,9,6,3,117,15,15,21,51,84,6,21,3,0,3,0,0,0,0,0,0,0,0,0,0,0,0,0,0,3,3,3
0,0,0,0,0,27,3,0,69,0,0,0,0,0,0,0,0,0,0,141,0,0,0,0,0,0,0,3,0,12,9,6,30,6,3,15,12,27,27,18,15,9,3,84,3,6,0,0,0,0,0,0,0,0,0,0,0,0,0,0,0,3,3,0
0,6,0,0,3,21,117,3,69,0,0,0,0,0,0,0,0,0,0,0,0,0,0,0,0,12,0,0,0,12,12,15,3,6,15,6,12,15,117,15,81,12,102,3,3,0,3,0,0,0,0,0,0,0,0,0,0,0,0,0,3,0,6,3
0,0,0,0,6,0,129,6,0,138,0,0,0,0,0,0,0,0,0,0,0,0,0,0,126,0,0,0,15,9,12,9,0,21,6,6,15,9,93,129,12,12,84,9,3,12,99,0,0,3,0,0,141,0,0,0,0,0,0,0,0,9,0,3
0,3,102,0,0,117,3,0,3,0,0,0,0,138,0,117,0,0,0,0,0,0,0,0,0,0,0,0,9,21,12,12,3,0,102,9,9,12,15,60,36,6,12,87,138,6,3,0,0,0,0,0,0,0,0,0,0,0,0,0,9,3,9,0
3,0,0,0,6,0,69,9,0,0,141,0,0,3,138,0,0,0,0,0,75,0,0,0,0,0,0,0,3,12,15,15,24,3,3,9,15,15,102,21,9,21,18,138,84,0,0,0,0,0,0,0,0,0,0,0,0,0,0,0,15,0,0,9
3,0,0,63,0,0,69,30,42,6,3,0,0,0,0,0,0,0,0,0,0,138,0,0,0,0,0,0,9,15,15,9,15,9,3,9,12,15,21,21,24,9,6,6,87,138,3,0,0,0,0,0,108,0,0,0,0,0,0,0,15,0,6,6
0,0,0,0,3,3,66,27,138,3,0,0,0,0,0,0,0,111,0,0,0,0,0,0,0,0,0,0,9,9,15,9,15,3,3,15,15,3,12,138,9,15,9,132,93,3,120,0,0,0,0,0,0,0,111,0,0,0,0,42,0,12,3,3
0,0,3,0,0,0,69,6,12,138,0,0,138,57,0,0,0,0,0,0,0,0,0,0,0,0,0,0,3,12,9,9,9,9,6,3,21,15,108,15,138,15,96,75,6,141,0,9,0,0,0,0,0,0,0,0,0,0,0,0,6,0,6,6
0,0,108,0,0,0,132,3,0,0,0,117,0,0,9,141,0,0,0,0,0,0,0,0,0,0,0,0,6,12,15,3,9,12,84,0,9,9,15,129,15,15,84,12,3,138,138,0,0,0,0,0,0,39,69,0,0,0,0,0,0,9,0,0
0,0,0,0,0,0,36,69,141,138,3,3,0,138,141,0,0,0,0,0,0,0,0,0,0,0,0,0,21,9,15,12,9,9,6,9,9,33,18,24,9,66,138,6,54,3,6,0,0,57,0,0,0,0,12,0,108,0,0,0,0,3,3,6
0,0,0,0,0,3,0,69,138,138,0,0,0,0,0,141,0,0,0,0,0,0,0,138,0,0,0,0,15,12,9,15,6,3,3,126,6,15,12,114,15,87,15,0,138,132,6,0,6,0,108,0,0,0,0,0,132,0,0,12,6,0,6,3
15,0,0,3,0,0,3,0,69,141,0,0,0,0,51,0,0,0,0,0,0,0,0,0,0,0,0,0,15,9,15,3,24,3,3,9,15,108,15,18,18,3,84,90,3,141,0,0,0,84,0,0,0,0,0,0,0,0,0,0,0,3,0,3
0,3,0,27,0,0,138,0,0,138,0,0,0,0,33,0,0,0,0,0,0,0,0,0,0,0,0,0,9,9,15,9,3,9,6,9,9,141,15,138,12,3,9,87,3,0,15,0,0,0,0,0,0,0,0,0,0,0,0,0,3,3,9,3
3,0,0,0,123,0,3,3,0,0,66,0,3,0,0,0,3,0,0,0,30,0,0,0,0,0,0,6,0,15,18,9,6,6,42,18,3,18,18,24,24,84,9,0,3,0,3,0,0,120,0,135,0,0,0,0,0,0,0,0,0,9,3,3
0,0,0,0,0,96,33,0,0,69,0,0,0,0,0,0,0,0,138,0,0,54,0,0,0,0,6,0,0,12,15,3,21,39,6,6,18,15,15,12,12,15,87,6,0,114,0,0,0,0,111,0,0,90,0,0,0,0,0,0,0,0,3,3
0,0,0,12,0,54,69,129,69,21,0,0,0,0,0,0,0,141,0,0,0,0,0,0,0,0,0,0,9,12,12,12,84,3,6,15,12,24,30,90,18,6,9,3,6,12,0,3,129,0,0,0,0,0,0,0,0,0,0,6,0,0,3,3
0,0,3,3,0,0,0,126,0,69,3,0,0,0,0,0,138,0,0,0,0,0,0,0,0,0,0,0,9,12,15,15,12,6,3,3,63,15,33,15,75,90,21,6,3,3,0,0,0,0,0,0,0,0,0,63,0,0,0,0,0,3,6,9
9,0,0,3,0,0,0,3,0,69,0,0,138,3,0,0,0,138,0,0,0,0,0,0,0,0,0,6,0,12,12,18,9,27,6,123,3,105,15,12,9,18,33,9,12,0,0,0,0,0,0,0,0,0,0,0,0,0,0,0,0,3,3,18
0,3,0,0,0,0,9,0,3,141,0,0,0,138,0,0,0,0,0,0,0,0,0,0,0,0,0,0,6,12,6,15,6,6,9,42,15,21,18,99,15,90,93,12,9,9,6,0,0,0,0,0,0,0,0,0,0,0,0,0,0,0,0,6
0,0,0,0,0,0,132,69,0,0,138,0,0,0,0,0,0,0,0,0,0,0,0,0,0,0,0,6,0,12,12,6,3,3,3,30,9,15,15,18,63,9,24,12,3,0,12,3,0,0,0,0,0,0,0,0,0,0,0,0,0,9,3,3
0,0,0,0,0,0,69,0,0,12,0,0,138,0,0,0,141,0,0,0,0,0,0,0,0,0,0,0,15,24,12,12,12,6,3,54,9,30,15,36,24,87,15,3,0,3,0,0,111,0,0,0,0,0,0,0,0,0,0,0,0,3,3,0
15,0,0,0,0,3,126,0,69,0,0,0,0,0,0,0,138,0,0,0,0,0,0,0,0,0,0,15,0,15,15,15,3,36,12,3,21,12,12,15,54,84,9,9,0,0,0,0,0,0,0,0,0,0,0,0,0,0,0,0,0,6,3,3
0,0,6,0,0,0,3,9,72,0,0,141,0,0,0,0,0,0,0,0,138,0,0,0,0,0,0,0,9,15,15,9,12,9,30,15,18,12,12,15,12,105,63,0,3,3,0,0,0,0,21,0,0,0,0,0,0,0,0,0,6,6,0,0
9,0,0,0,3,9,0,0,72,90,0,0,138,141,0,0,0,0,0,0,0,0,0,0,0,0,0,6,0,15,12,12,3,3,3,60,6,111,9,15,21,15,6,12,0,93,0,0,0,0,0,0,0,0,0,0,0,0,0,0,0,3,0,6
12,0,0,3,0,0,15,0,69,138,0,0,0,0,0,0,0,0,0,0,0,42,0,0,0,0,0,0,15,21,12,12,3,3,6,9,12,21,15,12,15,24,33,6,138,0,12,135,0,0,0,0,0,0,0,0,0,0,9,0,0,0,0,3
0,6,0,63,3,6,9,141,3,69,0,0,66,0,0,0,0,0,0,0,0,0,0,0,0,0,0,0,9,9,15,15,12,42,6,3,9,33,18,90,24,9,3,6,3,0,0,0,0,84,0,0,0,0,141,0,0,0,0,0,9,3,3,3
0,0,0,0,3,0,138,0,0,3,69,0,0,0,0,0,0,0,138,0,0,0,0,0,0,0,0,0,9,12,18,3,3,27,3,6,9,18,18,9,21,123,129,3,12,0,0,0,3,0,0,0,0,0,0,0,0,0,0,0,0,6,9,3
