189,0,0,0,108,0,9,255,255,0,255,255,0,0,255,252,0,0,0,0,0,0,0,0,0,0,0,0,9,45,63,63,9,225,255,9,135,255,153,72,255,255,255,108,18,0,255,0,171,255,0,0,153,0,0,180,0,0,0,0,0,27,72,18
0,117,36,0,81,9,255,255,180,63,255,255,255,0,0,234,0,0,0,0,0,0,0,0,0,0,0,0,27,63,90,135,207,126,255,9,255,243,54,99,255,153,27,255,63,0,255,0,0,45,54,0,0,0,255,0,0,0,0,0,0,27,18,18
108,198,255,0,198,9,180,9,255,255,0,0,0,27,255,255,0,0,0,0,0,0,0,0,0,234,0,0,45,45,54,27,144,255,63,36,153,36,63,45,255,198,255,189,9,255,0,0,18,0,0,0,0,99,0,255,0,0,0,0,0,18,18,9
108,135,0,0,0,9,255,255,255,255,0,255,0,0,225,0,0,0,0,0,0,0,0,0,0,0,0,0,18,45,27,27,255,9,18,45,255,99,27,255,255,255,255,255,0,255,90,18,0,0,0,0,255,0,0,0,0,0,0,0,0,27,63,9
9,27,255,9,0,9,255,255,255,9,0,255,255,18,0,0,0,0,225,0,0,0,0,0,0,0,0,45,0,63,90,36,27,18,18,27,108,162,234,255,108,36,255,27,255,0,0,255,252,72,0,255,0,0,0,0,0,0,0,0,0,18,9,36
54,0,0,234,144,72,9,255,255,255,255,0,0,0,255,45,0,207,0,0,0,0,0,0,0,0,0,0,63,36,36,9,72,27,9,54,63,225,255,207,255,255,9,255,36,0,0,63,255,0,0,0,0,0,0,0,0,0,0,0,0,0,18,45
0,126,144,255,9,207,255,255,255,27,0,255,0,0,255,0,255,0,0,0,0,0,0,0,0,0,0,0,45,18,45,54,27,18,27,63,18,255,45,63,255,198,18,255,9,9,0,0,0,0,0,0,0,0,0,0,0,0,0,36,0,0,27,36
63,0,0,18,0,255,255,255,255,255,255,0,0,0,0,255,0,0,0,255,0,0,0,0,0,0,0,0,45,9,36,45,153,255,54,27,9,36,255,45,36,54,255,255,255,0,9,9,0,0,255,0,0,0,0,0,0,0,0,0,0,36,9,108
255,135,0,0,18,255,255,255,81,255,0,0,0,255,0,0,0,0,0,0,0,255,0,0,0,0,0,0,63,54,45,255,27,0,252,255,45,45,117,27,108,255,255,255,255,255,0,255,0,0,0,0,0,0,0,0,0,0,0,0,18,0,27,18
0,9,255,0,0,255,0,255,255,0,207,0,255,255,255,0,0,198,0,0,0,0,0,0,0,0,0,0,27,54,45,126,27,9,255,9,36,255,27,81,126,255,153,171,255,9,0,189,0,0,0,0,0,0,0,0,0,0,0,0,0,18,9,9
9,189,0,153,0,216,255,54,255,255,0,0,255,255,225,0,0,0,0,171,0,0,36,0,0,0,0,0,27,45,45,27,18,255,99,117,36,255,255,189,90,72,27,255,255,255,0,9,9,0,255,0,0,0,0,0,0,0,0,0,0,45,18,255
9,0,255,171,255,0,255,255,255,0,255,0,189,0,255,0,0,0,0,0,0,255,0,0,0,0,0,0,36,255,45,45,36,54,9,18,36,72,255,45,180,255,255,234,9,9,255,0,0,0,0,0,0,0,0,0,0,0,0,0,0,18,27,18
99,18,54,18,0,255,9,9,255,255,255,255,0,0,0,90,0,0,0,0,0,0,0,0,0,0,0,0,18,45,63,45,255,207,63,54,63,63,255,255,63,255,189,255,0,255,9,0,0,45,0,0,0,0,0,0,0,0,0,0,0,72,54,45
126,0,189,0,255,9,255,255,171,189,255,0,255,0,255,0,255,0,255,0,0,0,0,0,0,0,0,0,54,45,36,255,9,243,126,45,72,36,54,255,27,255,18,144,126,255,0,0,0,0,0,0,0,0,162,0,0,0,0,0,9,18,27,18
144,0,207,216,9,18,9,255,27,255,207,0,255,0,0,0,225,0,255,0,0,0,0,0,0,135,0,0,36,9,54,108,255,45,72,255,108,90,63,63,255,252,180,27,27,0,81,255,0,0,0,0,0,255,0,0,0,0,0,0,0,27,0,9
243,117,81,18,0,9,9,255,255,255,0,0,0,0,0,0,18,0,0,0,255,0,0,0,0,0,171,0,18,81,45,54,27,255,255,45,117,9,216,234,255,27,189,45,9,117,255,0,0,0,255,9,0,0,0,0,0,0,9,0,0,0,45,63
9,0,255,255,255,252,0,255,255,255,0,27,0,0,0,63,0,0,0,0,0,0,0,0,255,0,0,0,45,63,45,27,90,153,255,45,45,45,27,189,72,180,255,9,9,9,255,0,0,0,0,255,0,0,0,0,0,0,0,0,18,0,0,9
0,81,0,0,252,0,9,9,18,255,255,0,255,0,243,0,234,255,0,255,0,0,0,0,0,0,0,0,27,54,45,27,255,144,27,18,144,255,252,153,255,255,255,189,255,45,0,255,0,0,255,0,0,0,0,0,0,0,0,0,0,9,81,27
9,126,0,162,255,9,255,18,255,255,0,0,0,0,0,234,255,0,0,0,0,0,255,108,0,0,0,0,18,45,45,180,45,255,9,27,243,45,81,180,255,252,63,27,9,9,255,0,0,0,0,0,0,126,0,0,0,0,54,0,9,0,45,27
0,9,144,18,0,99,180,255,255,255,0,189,9,0,0,0,216,0,255,0,0,0,9,0,0,0,0,0,18,54,36,126,27,117,27,27,45,255,255,255,255,162,36,9,255,255,18,0,255,0,0,0,0,0,0,0,0,0,0,0,0,27,9,72
27,135,126,255,9,0,255,255,252,255,216,0,255,255,0,0,225,0,0,0,0,0,0,0,0,0,0,0,45,63,9,63,27,135,18,255,45,36,171,255,18,255,36,255,0,0,255,255,0,0,0,0,0,255,0,0,0,0,0,0,0,27,27,9
63,198,63,0,0,255,36,180,72,255,255,0,255,255,255,0,0,207,0,216,0,0,0,0,0,0,0,0,27,27,117,18,27,255,234,36,171,63,255,45,198,45,255,255,9,255,0,0,9,0,0,0,0,0,0,255,0,0,0,0,0,9,27,0
180,135,0,0,18,243,255,108,36,255,255,0,255,255,0,0,0,255,0,0,0,255,0,0,0,0,0,0,54,9,45,207,27,126,207,27,54,255,45,255,255,198,255,255,9,255,18,0,0,63,0,0,0,90,0,0,0,234,0,0,0,18,9,0
0,0,126,135,162,255,0,18,255,36,255,0,9,0,255,0,0,0,0,0,0,0,0,0,0,0,0,0,18,45,63,27,234,207,153,54,27,90,255,81,255,216,198,255,255,0,255,0,0,0,0,0,0,0,0,0,0,0,0,0,0,27,45,54
9,0,54,36,207,36,207,255,255,255,255,0,0,0,0,0,0,255,0,153,0,0,255,0,0,0,0,0,54,81,63,45,18,27,27,255,255,36,255,153,72,255,255,255,255,117,9,0,0,0,0,0,153,0,0,0,0,0,0,0,0,27,45,9
18,0,0,180,9,255,63,255,255,255,0,81,255,0,0,0,0,0,0,0,0,0,0,0,0,0,18,0,0,36,81,72,27,0,9,189,117,54,243,126,207,45,255,0,27,255,255,0,0,255,0,18,0,0,0,0,0,0,0,0,9,9,0,18
0,9,0,153,255,144,255,90,162,255,0,0,0,0,0,0,45,0,189,0,180,0,0,0,0,144,0,18,0,72,18,45,255,0,27,9,27,153,255,255,207,255,234,216,9,0,255,255,255,0,255,0,0,0,0,0,0,0,0,9,18,0,45,9
0,255,171,27,0,255,9,255,255,216,0,0,243,255,99,216,0,0,0,255,0,0,0,135,0,0,0,0,9,216,54,18,117,36,36,27,45,255,45,252,255,255,255,255,36,255,99,0,153,0,0,0,0,0,0,0,0,0,0,18,0,18,36,45
162,234,135,0,0,0,126,255,18,255,255,255,9,255,0,0,0,0,255,0,0,0,0,0,0,0,0,0,36,63,45,255,117,198,36,99,36,144,255,126,225,27,9,99,255,0,9,0,198,0,0,90,0,0,0,0,0,0,0,0,0,9,72,171
0,255,0,0,9,255,225,255,0,0,255,255,0,0,0,255,0,255,0,0,0,0,0,255,0,0,0,0,54,54,36,45,27,117,255,36,144,255,54,90,207,207,162,255,255,255,9,0,0,0,0,0,0,0,144,0,0,0,0,0,0,9,54,18
9,144,0,0,9,108,255,9,255,0,0,255,0,0,0,225,0,234,27,0,0,0,0,0,0,0,0,0,9,36,36,45,243,18,9,54,198,63,255,108,216,255,189,255,9,144,0,0,0,0,0,0,0,0,0,72,0,0,0,0,0,54,9,9
36,36,162,189,255,243,9,255,54,0,255,0,255,9,0,255,0,243,0,0,153,0,0,0,0,0,0,0,36,72,45,72,9,144,18,54,99,63,255,72,255,189,255,27,255,255,0,0,0,0,0,0,0,0,0,0,0,0,255,0,0,9,27,72
0,9,0,0,255,255,216,255,0,255,27,0,255,255,243,126,0,0,0,0,0,0,0,0,0,0,0,0,36,45,45,63,126,171,9,45,27,255,255,207,45,36,255,255,0,9,0,0,90,0,0,0,108,0,45,255,0,0,0,0,27,0,27,9
81,255,207,0,216,63,81,45,171,9,0,243,255,0,255,255,0,0,0,0,0,255,0,234,0,0,0,0,9,45,72,255,45,108,198,9,255,27,36,255,255,255,207,255,108,9,9,126,117,0,0,0,0,255,0,0,0,225,0,0,0,27,18,0
255,144,0,198,171,27,255,180,255,255,0,252,255,0,0,255,0,0,0,0,0,0,252,0,0,0,90,63,0,18,99,63,72,9,255,45,36,117,255,63,255,255,45,9,255,0,255,0,0,171,0,0,0,0,0,255,0,0,0,0,0,18,54,9
255,153,0,0,255,171,225,255,171,255,255,27,255,9,255,0,0,0,0,255,0,255,0,0,0,0,0,255,36,36,54,207,45,18,9,99,36,255,135,117,144,252,255,18,255,27,234,0,144,255,0,0,0,0,0,0,0,0,0,0,36,0,0,63
0,0,117,198,255,0,255,18,255,180,0,255,255,0,0,255,0,255,207,63,0,0,0,255,0,0,0,36,0,36,45,117,117,9,162,255,45,255,63,255,72,255,189,0,252,255,255,0,180,0,0,0,0,0,0,0,0,0,0,0,18,0,9,27
0,252,72,0,9,9,255,255,171,255,0,36,0,0,255,0,255,0,0,0,0,255,0,255,0,0,135,18,0,72,54,27,255,63,255,27,45,54,255,189,255,36,255,18,108,9,255,0,0,0,0,0,0,0,0,0,0,0,0,0,0,18,81,255
36,135,117,0,9,9,0,27,255,180,0,255,255,255,243,255,0,0,255,0,0,0,180,255,0,0,0,0,27,255,54,45,9,144,27,198,255,63,255,54,117,36,255,225,9,9,207,9,0,0,255,0,0,0,36,0,0,0,0,0,0,99,63,9
63,0,255,255,189,0,9,180,255,255,0,9,0,255,255,0,0,0,0,0,0,0,255,0,0,0,0,18,0,45,45,255,63,9,27,255,27,81,255,36,27,255,255,255,255,0,255,9,0,0,0,0,0,0,0,0,0,0,0,27,0,0,9,9
255,255,255,0,18,153,153,255,255,255,9,0,0,255,0,0,0,0,255,198,153,0,0,0,0,0,0,54,0,18,45,255,18,9,18,9,162,153,63,36,255,54,255,255,45,255,0,0,90,72,0,0,0,0,0,0,0,0,0,0,0,54,0,9
0,255,0,9,9,255,45,255,255,0,255,0,0,0,0,0,207,0,0,0,162,0,0,255,0,0,255,0,18,63,54,63,27,90,54,54,252,54,63,90,72,255,255,255,0,0,255,255,0,0,0,45,0,0,0,0,0,0,0,0,0,18,36,27
255,36,144,255,90,0,0,255,255,36,0,0,0,0,0,255,255,0,0,255,0,0,0,0,0,0,0,0,27,45,45,54,255,144,9,18,162,255,117,72,255,255,243,36,198,0,81,0,0,0,18,0,0,0,72,0,252,0,0,0,0,9,18,54
0,0,144,255,0,255,0,255,9,255,255,0,180,255,153,255,0,225,0,0,0,0,0,0,255,0,0,0,27,36,72,90,9,45,45,9,255,126,255,255,162,63,255,108,9,0,234,45,180,45,0,126,0,0,0,0,0,0,0,0,0,27,18,36
36,0,126,234,9,255,255,27,180,9,255,255,255,0,0,0,0,255,255,0,0,255,0,0,0,0,0,0,63,18,162,27,54,126,9,216,54,36,234,255,255,255,18,255,117,0,0,126,0,0,255,0,0,0,0,0,0,0,0,0,9,0,90,9
9,255,0,0,27,255,255,180,255,45,225,255,0,0,255,0,0,255,0,0,0,0,0,0,0,0,0,0,9,225,45,36,18,27,255,255,216,45,207,255,63,255,255,171,27,0,0,255,255,45,0,0,0,0,0,0,0,0,0,0,0,27,18,90
0,0,0,0,153,171,9,255,255,9,255,162,0,0,243,0,255,0,255,126,0,0,0,0,252,0,0,0,54,36,108,255,18,45,18,243,36,207,99,255,255,126,255,255,9,189,36,255,255,162,18,0,0,0,0,0,0,0,0,0,0,27,0,9
9,255,9,9,198,255,18,255,27,252,36,255,0,72,27,0,0,0,0,0,0,255,0,0,0,234,0,9,0,45,63,63,90,9,27,18,255,207,255,255,225,255,18,255,0,255,0,0,0,0,0,0,255,0,0,0,0,0,9,0,0,36,18,9
27,0,0,171,18,0,9,225,225,0,255,0,255,255,255,255,255,99,0,0,0,0,99,0,0,0,0,0,45,9,45,72,171,45,72,171,54,72,255,153,207,255,18,90,255,9,0,255,0,0,18,0,0,0,0,0,0,0,0,0,0,90,9,45
0,0,9,255,0,255,54,255,180,255,255,255,135,255,0,0,0,255,0,0,171,0,0,0,0,0,0,18,0,45,45,90,198,255,9,36,54,255,117,63,255,45,255,255,117,9,0,0,171,0,0,0,0,0,0,0,0,0,0,0,0,9,36,81
