0,40,0,45,0,175,15,60,0,235,0,0,0,0,0,0,0,0,0,0,0,0,0,0,0,0,0,0,15,20,35,35,10,10,5,20,15,105,40,20,15,230,170,230,5,5,0,0,0,0,0,0,0,175,0,0,0,0,0,0,0,15,5,15
30,15,20,5,0,5,15,105,150,5,0,0,5,0,0,0,0,0,0,0,0,0,0,0,0,0,0,0,5,25,35,35,15,30,5,25,15,25,30,35,195,230,230,5,125,200,5,0,0,0,0,0,0,0,0,0,0,0,0,0,0,15,5,5
0,5,0,5,0,0,0,0,195,100,0,225,5,0,0,0,0,0,0,0,0,0,0,0,0,0,0,0,25,20,20,20,40,65,5,35,10,20,30,25,230,190,215,10,230,0,155,0,0,0,220,0,0,0,0,0,0,0,0,0,0,0,0,5
5,10,0,5,0,0,5,0,235,0,235,0,0,0,0,0,230,0,0,0,0,0,175,0,0,0,25,0,0,35,20,20,15,15,10,5,180,25,25,25,25,25,235,40,15,0,0,0,0,0,0,0,0,175,0,0,0,0,0,0,0,5,5,5
15,5,0,5,140,0,10,35,235,0,0,0,0,235,0,0,0,0,0,0,0,0,0,0,0,0,0,5,0,30,25,60,15,10,15,10,15,25,30,25,195,25,235,15,180,40,5,0,0,0,0,0,0,0,0,0,0,0,0,0,0,5,10,0
15,25,0,0,0,5,70,5,5,0,235,0,235,0,0,0,195,0,0,0,0,0,0,0,0,0,0,0,5,35,20,5,15,25,20,5,10,20,30,30,185,10,235,105,110,0,0,0,0,0,0,0,0,0,0,0,0,0,0,0,20,0,25,0
15,30,0,0,0,5,90,60,230,0,0,205,95,0,0,220,0,235,0,0,0,0,0,0,0,0,0,0,30,25,40,10,10,0,20,175,20,30,205,30,175,25,205,160,5,5,230,0,0,85,0,0,0,0,0,0,0,0,0,0,0,10,5,25
25,5,15,0,0,220,15,15,15,0,215,5,0,235,0,0,0,0,230,225,0,0,0,0,0,0,0,0,5,25,25,25,25,10,85,85,15,20,130,25,15,20,10,210,230,0,0,0,0,0,0,0,195,0,0,0,0,0,0,0,0,10,5,25
0,90,20,0,0,85,25,0,10,5,85,200,235,195,0,0,0,0,0,0,0,0,0,0,0,0,0,10,0,30,20,15,15,90,5,10,25,25,215,35,230,15,15,75,185,125,0,0,0,0,0,0,0,0,0,0,0,0,0,0,0,10,15,20
35,0,0,10,0,5,20,5,5,230,0,0,0,0,230,0,0,0,0,0,0,0,0,0,0,0,0,0,35,20,30,10,35,5,50,0,10,100,25,25,25,30,55,185,170,0,0,0,0,0,0,0,0,0,0,0,80,0,0,0,20,0,15,50
0,0,0,0,0,5,5,235,190,5,235,0,0,230,180,0,0,0,0,0,0,0,0,0,0,0,0,0,10,20,15,25,15,5,15,20,25,40,25,230,125,180,20,215,5,5,0,0,65,0,0,0,0,0,0,0,30,0,0,0,0,15,25,10
5,25,0,0,5,15,5,10,105,0,5,235,0,235,0,205,0,0,0,0,0,0,0,230,0,0,0,0,35,15,20,35,10,25,5,10,25,25,45,30,125,110,125,25,180,5,190,0,0,195,0,0,0,0,0,0,0,0,0,0,0,0,0,10
5,50,0,90,5,205,5,75,10,235,0,0,0,235,0,0,0,0,170,0,0,0,0,0,0,0,0,0,15,20,30,15,25,5,15,30,15,25,30,90,25,25,160,10,10,0,0,0,0,0,0,220,0,0,0,0,0,0,0,0,0,10,25,5
30,0,0,80,0,5,25,205,15,85,205,0,0,0,0,0,0,0,0,0,0,0,0,0,0,0,0,20,0,15,20,35,20,0,5,25,20,30,150,25,40,5,140,50,125,190,0,0,0,0,0,0,0,0,0,0,0,0,0,0,0,15,0,5
0,0,0,0,155,110,5,5,235,90,0,0,0,0,0,0,0,0,0,0,0,0,0,0,0,0,0,0,15,15,10,15,30,5,5,175,10,15,20,95,235,25,15,25,5,135,5,0,0,0,0,0,0,0,0,0,0,0,0,0,0,5,10,0
15,5,10,0,0,10,0,15,230,0,0,210,0,0,0,160,0,0,0,0,0,0,0,0,0,230,0,0,25,15,20,20,5,5,95,10,25,25,30,20,40,10,235,10,15,230,0,0,0,0,0,0,0,0,0,0,0,0,0,0,5,10,0,10
5,0,30,5,0,0,130,230,235,0,0,0,0,0,0,0,0,0,0,0,0,0,0,0,0,0,0,0,25,15,30,10,5,20,15,20,20,35,35,45,30,210,15,5,10,0,0,0,0,0,0,0,0,0,0,0,0,0,0,0,5,0,0,5
75,15,0,0,5,15,0,5,5,0,185,210,0,0,0,0,210,0,0,0,0,0,0,0,0,235,0,15,0,25,40,15,25,5,75,5,160,35,50,50,25,205,60,205,10,5,0,0,175,0,0,0,195,0,0,0,0,0,0,0,0,5,15,0
15,80,0,0,0,5,175,5,10,5,235,0,0,0,0,150,0,0,0,0,0,0,0,0,0,0,0,15,0,15,25,35,5,5,10,10,25,35,25,25,185,195,235,10,140,235,0,65,0,0,0,0,0,0,0,0,0,0,0,0,0,5,5,30
0,60,10,0,0,0,35,85,235,235,0,0,0,150,0,0,0,205,0,0,0,0,0,0,0,0,0,0,25,20,15,20,50,10,15,5,15,20,75,25,235,15,15,10,235,0,230,0,0,0,0,0,0,0,0,0,0,0,0,0,0,5,15,5
20,0,0,10,125,5,10,5,40,230,0,0,0,0,0,0,0,0,0,0,0,0,0,0,0,0,0,0,10,25,20,20,20,80,5,5,25,20,25,175,235,25,20,140,0,5,95,10,0,0,0,205,0,0,0,0,0,0,0,0,0,0,20,25
5,0,0,0,0,200,0,20,90,235,0,210,0,0,0,0,0,0,0,0,0,0,0,0,0,0,0,0,10,25,20,15,30,15,10,15,15,155,25,25,235,25,15,100,5,5,10,0,0,0,0,0,0,0,0,80,0,0,0,0,0,20,5,5
0,0,5,0,0,5,135,15,235,0,0,0,0,0,0,0,0,0,0,0,0,0,0,0,0,0,0,0,10,25,5,30,20,5,5,10,30,10,155,15,235,25,115,15,60,5,0,0,0,0,225,0,0,0,0,0,0,0,0,0,30,0,10,20
0,15,0,5,55,5,210,15,0,0,0,235,0,0,0,0,0,0,0,0,0,0,0,210,0,0,200,0,15,20,20,15,10,80,10,20,10,120,30,230,110,10,140,40,10,10,225,0,5,0,0,0,0,0,0,0,0,0,10,0,0,0,5,40
85,0,5,0,110,5,10,225,5,0,90,0,0,230,0,0,235,0,0,0,0,0,0,0,0,0,0,0,10,15,25,15,85,15,130,10,25,15,35,235,170,10,15,0,135,0,0,230,235,0,0,0,0,0,0,0,0,0,0,0,0,5,5,5
10,0,0,0,220,70,15,5,25,215,0,235,0,0,0,0,0,0,0,0,0,0,0,205,0,0,0,0,25,20,20,15,95,30,10,20,10,25,35,175,155,25,10,25,135,215,0,0,0,0,0,0,0,0,0,0,0,0,0,0,5,0,10,20
15,0,5,0,10,175,0,5,230,15,210,90,5,0,0,0,235,0,0,0,0,230,0,0,0,0,0,30,0,35,15,35,25,70,5,150,25,30,115,25,25,15,160,0,155,0,5,215,0,0,0,0,0,0,0,0,0,0,0,0,0,0,15,5
0,15,0,25,105,0,225,5,235,25,0,0,0,0,0,5,0,0,0,0,0,0,0,0,0,0,0,0,25,20,25,35,25,15,5,10,35,15,160,20,35,45,110,15,70,0,0,0,230,235,0,0,0,0,0,0,0,0,0,0,10,0,10,15
0,0,105,0,95,0,0,220,235,0,0,0,0,0,0,0,230,0,0,0,0,0,0,0,0,0,0,0,20,15,20,15,30,5,10,15,20,25,20,30,35,30,15,15,0,5,0,0,0,235,0,125,220,0,0,0,0,0,0,0,0,5,0,35
0,15,0,0,10,80,230,0,5,115,0,210,210,0,0,0,0,0,0,0,0,0,0,0,0,0,0,0,15,30,20,25,25,15,40,0,15,15,115,40,35,40,15,105,10,10,0,0,0,0,0,0,0,0,0,0,0,0,0,0,15,25,0,0
0,0,0,10,0,0,5,0,165,55,0,0,0,0,0,0,0,0,0,0,0,0,0,0,0,0,0,0,15,25,25,35,0,15,10,5,25,15,30,25,30,60,210,230,0,115,10,0,0,0,0,0,0,0,0,0,0,0,0,0,0,5,5,5
90,0,0,15,35,0,205,15,10,95,0,235,235,0,0,0,120,235,0,0,0,0,0,0,0,0,0,10,0,35,20,20,15,35,5,5,25,35,230,230,25,25,10,5,160,15,0,0,5,0,225,0,0,0,0,0,0,0,0,0,5,0,5,25
10,80,0,0,20,5,5,5,15,5,100,0,0,235,0,0,0,0,130,0,0,0,0,0,150,0,0,0,20,10,20,10,20,10,5,10,15,70,25,230,25,5,15,5,100,0,0,0,0,0,0,0,0,0,210,0,0,0,0,0,0,5,10,25
0,0,60,0,85,150,0,0,5,105,0,230,0,150,0,0,0,0,0,0,0,0,0,0,0,0,0,0,10,25,40,15,15,15,105,25,50,10,140,25,35,35,15,115,5,0,15,0,0,0,0,0,0,0,0,0,0,0,0,0,0,10,25,5
5,20,0,0,0,10,0,5,100,0,10,235,150,0,0,0,0,220,0,0,0,0,0,0,0,0,0,0,15,15,25,20,15,5,25,10,50,100,25,20,20,35,10,80,10,125,0,0,0,0,0,0,0,0,0,0,0,0,0,0,15,10,10,25
10,0,0,0,5,235,5,25,105,165,0,0,0,0,235,0,175,0,0,0,0,0,0,0,0,0,0,0,10,35,30,20,10,10,5,5,20,15,150,25,20,180,15,15,5,10,0,0,0,0,0,0,0,0,0,0,0,0,0,0,0,15,15,5
15,0,15,0,0,5,230,10,150,95,0,5,0,0,0,0,0,0,0,0,0,160,0,0,0,0,0,0,25,30,40,20,20,5,95,5,50,15,40,35,25,35,100,215,5,0,5,0,140,0,0,0,0,0,0,230,0,0,0,0,0,15,5,20
0,25,0,0,230,25,35,235,0,105,0,195,0,0,0,0,0,0,0,0,0,0,0,0,0,0,0,15,0,25,5,40,5,5,15,5,0,135,30,60,10,25,85,235,5,235,5,0,0,0,0,0,0,0,0,0,0,0,0,0,10,20,0,30
5,0,35,5,0,20,5,0,110,235,0,5,0,0,0,0,0,0,230,0,0,0,0,0,0,0,0,0,15,20,15,35,60,10,20,15,15,45,25,20,25,195,235,125,120,15,0,160,0,0,0,0,0,230,0,0,0,0,0,0,0,15,20,5
0,0,25,0,180,5,230,235,200,10,0,230,0,0,0,0,0,0,0,0,0,0,0,0,0,0,0,0,20,15,15,30,20,15,0,10,30,50,15,35,185,15,235,10,105,0,0,0,235,0,0,0,0,0,0,0,0,0,0,0,0,10,35,25
30,0,0,0,0,15,5,10,235,235,0,0,230,0,0,0,0,0,0,0,0,0,0,0,0,0,0,0,0,25,30,10,30,5,0,10,25,25,30,175,230,15,235,5,120,175,0,5,0,0,0,0,0,0,0,0,0,0,0,230,0,5,5,0
15,5,10,0,0,5,230,5,5,0,230,205,0,0,0,0,230,0,0,0,0,0,0,0,0,0,0,15,0,45,15,15,50,5,15,65,25,20,20,25,25,230,5,15,20,15,10,0,110,170,0,0,0,0,0,0,0,0,0,0,0,10,5,20
0,0,80,0,5,0,5,230,95,0,235,0,0,0,235,0,0,0,0,0,0,0,0,0,0,0,0,0,15,20,20,65,20,5,135,15,15,25,35,25,10,235,0,15,235,5,0,0,0,0,0,0,0,0,0,0,0,0,0,0,5,10,0,45
0,0,0,0,0,0,5,0,230,235,0,235,0,0,0,0,0,0,0,0,0,0,0,0,0,0,0,25,0,25,20,15,15,5,5,60,25,20,20,235,230,220,20,15,145,0,0,0,0,0,0,0,0,0,0,0,0,0,0,0,0,20,30,35
0,0,0,0,0,0,5,10,85,210,5,235,0,0,230,135,0,0,0,0,0,0,0,0,0,0,0,15,200,15,45,15,85,25,15,10,15,20,235,220,160,25,15,5,120,0,0,0,0,0,0,0,0,0,0,0,195,0,0,0,0,5,10,45
50,0,5,0,115,5,10,5,5,5,205,0,235,0,235,0,0,0,190,0,0,0,0,0,0,0,0,0,10,15,15,25,10,125,20,90,25,20,15,230,230,15,15,110,5,0,5,0,225,0,0,0,0,0,0,0,0,0,0,0,5,0,5,35
0,0,0,0,0,5,0,230,195,0,235,0,0,0,0,0,0,0,0,0,0,0,0,0,0,0,0,0,20,30,15,15,15,5,10,5,15,30,40,30,105,15,10,35,230,115,0,0,0,0,0,0,0,0,0,0,0,0,0,85,0,30,10,30
15,5,0,5,5,0,20,205,5,110,5,210,50,0,0,0,0,0,0,0,230,0,0,0,0,0,0,0,15,30,45,10,5,105,80,20,10,60,150,25,10,35,15,100,5,210,10,0,0,0,0,0,0,0,0,215,0,0,0,0,5,5,15,5
0,5,0,0,0,15,5,25,230,10,105,10,200,5,0,0,0,0,0,0,0,0,0,0,0,0,0,0,25,35,25,15,25,5,10,15,20,30,50,30,30,35,10,15,170,0,0,0,0,0,0,0,150,0,0,0,0,0,0,0,5,0,0,0
70,0,0,30,0,0,5,230,5,5,0,0,235,0,0,0,0,0,130,0,0,0,0,0,0,0,0,15,0,30,25,15,15,70,5,85,25,10,25,35,35,90,165,30,10,10,0,0,0,0,0,0,0,0,230,0,0,0,0,0,0,5,5,15
