88,4,92,12,84,34,82,92,94,2,86,78,60,38,86,0,92,0,0,0,62,94,0,54,0,0,0,0,10,14,18,86,66,2,48,6,26,92,10,14,94,92,90,92,0,94,92,68,0,0,0,0,0,68,0,0,0,0,0,0,0,18,12,0
40,2,0,88,84,92,70,94,94,40,88,62,92,36,90,92,0,92,0,0,16,0,94,0,0,0,0,10,0,16,88,8,48,6,94,90,6,12,42,46,94,96,4,42,68,70,8,90,0,82,78,48,0,48,0,0,0,0,0,0,0,4,0,10
0,42,0,82,94,74,92,92,60,94,94,94,92,0,54,94,0,0,0,0,0,0,92,0,0,0,0,8,0,16,14,36,92,8,8,32,38,6,94,72,76,60,42,86,84,94,0,34,0,92,0,0,0,0,0,0,0,0,42,0,0,4,6,4
28,46,0,88,94,2,94,10,0,94,90,92,58,0,54,50,0,0,92,0,84,0,0,0,0,0,0,6,20,0,12,20,46,2,66,68,2,16,60,48,92,30,42,78,90,92,0,92,82,92,0,0,0,0,0,22,0,0,0,0,0,4,12,6
92,2,74,84,94,4,0,92,94,34,46,94,72,54,0,94,92,0,0,0,0,0,60,0,50,0,0,6,8,0,88,12,10,50,58,32,6,94,90,32,50,92,84,78,92,68,2,0,92,90,0,0,86,54,0,0,0,0,0,2,0,0,20,8
0,16,60,0,90,74,90,92,8,94,38,82,94,76,92,0,78,16,0,0,0,0,94,14,42,0,0,0,6,14,14,14,26,72,74,8,60,14,10,78,90,10,94,92,2,78,84,20,0,92,0,38,0,74,0,0,0,0,0,0,0,6,6,10
8,2,0,86,72,94,34,92,94,94,92,94,0,92,10,90,0,0,0,24,94,0,12,0,0,0,0,0,2,22,78,20,16,4,64,30,48,10,92,90,26,92,20,94,92,76,12,0,0,84,0,0,0,0,2,0,0,0,0,0,0,18,14,10
16,32,74,0,92,92,14,94,92,80,94,92,94,92,72,0,0,0,0,16,52,0,0,0,0,0,0,0,6,92,12,10,4,6,16,14,6,62,84,8,94,40,92,88,82,92,80,34,8,0,18,92,0,0,0,0,0,0,0,0,0,8,14,8
0,94,2,84,86,2,92,94,40,92,24,0,78,44,72,0,0,0,60,94,0,0,0,0,0,0,0,0,4,10,16,10,10,2,6,8,80,36,28,92,38,76,94,78,94,68,92,30,0,0,0,0,0,0,0,0,14,0,0,0,0,14,20,6
2,92,2,2,88,0,2,92,94,38,0,86,86,94,94,44,92,0,0,84,0,0,0,0,0,0,0,0,10,12,88,10,4,20,74,8,12,36,92,56,46,74,92,46,2,94,0,78,76,0,0,88,0,0,0,88,0,0,0,0,0,4,14,8
38,0,6,52,92,78,92,94,70,46,82,0,94,92,0,0,94,0,0,0,0,0,90,0,0,0,92,6,0,62,4,16,46,52,6,16,10,46,92,94,42,92,92,94,68,10,0,0,0,92,0,0,0,0,0,0,0,0,0,0,0,14,10,6
74,2,2,0,18,0,92,92,6,94,14,94,80,94,92,82,42,0,30,0,0,0,0,0,0,0,0,0,4,18,12,8,24,6,92,94,8,10,12,70,92,74,92,94,70,94,94,92,0,28,0,0,0,0,0,0,0,0,0,0,8,0,10,28
0,92,0,28,0,90,0,92,94,92,94,60,0,8,94,72,92,82,66,0,94,0,70,0,92,0,0,0,10,12,80,10,84,42,8,16,26,14,94,14,92,46,94,0,92,46,70,0,0,0,0,0,0,88,56,0,0,0,0,0,8,16,4,0
28,0,0,0,24,2,72,94,88,92,92,90,94,94,0,0,0,0,0,0,0,10,0,0,0,0,0,0,12,6,12,12,92,10,16,44,26,34,36,40,36,84,94,92,94,70,92,2,0,0,0,0,0,0,0,0,0,0,0,16,4,12,6,2
2,0,0,0,60,92,0,94,94,36,94,0,34,0,74,0,0,0,0,0,0,34,0,0,0,0,0,0,14,2,16,6,2,8,4,12,8,14,24,52,68,92,6,94,92,92,22,0,92,0,92,0,0,0,0,0,0,0,0,0,6,0,10,0
40,0,12,84,18,72,92,90,0,94,92,94,0,74,62,0,0,94,0,0,0,0,82,0,0,0,0,0,14,20,6,46,20,10,28,18,34,16,92,38,92,6,56,52,92,94,94,2,0,0,0,0,0,0,0,0,0,0,0,0,0,12,32,4
24,66,0,86,0,4,94,94,94,42,92,28,92,72,94,10,0,0,10,0,0,8,0,0,0,0,0,0,4,10,12,36,6,56,94,18,12,12,62,60,84,84,92,94,4,0,0,92,0,20,34,0,0,0,0,0,0,0,0,0,16,0,12,4
2,92,78,0,4,20,88,94,92,42,94,16,92,6,78,72,0,0,0,94,0,0,0,0,0,0,0,0,10,12,26,12,92,94,66,6,34,48,40,6,56,44,88,94,88,68,0,92,90,0,0,0,0,0,0,0,0,0,0,10,0,0,14,92
0,2,8,8,14,92,30,94,94,94,94,94,0,0,10,82,0,0,0,0,0,0,0,88,0,0,0,0,8,12,88,4,6,20,20,72,70,32,60,74,56,22,94,94,88,92,68,0,16,0,28,0,0,70,0,0,0,0,0,0,0,12,14,12
94,2,0,6,0,84,94,94,92,42,92,10,94,94,0,46,0,0,92,0,84,4,0,0,0,0,0,0,16,14,10,14,30,10,34,2,12,84,38,94,70,46,94,38,94,0,92,86,92,0,0,92,0,0,0,0,0,0,0,0,10,0,10,0
0,6,2,82,94,94,90,92,90,94,42,2,6,0,0,92,0,0,12,0,0,0,0,0,80,0,0,0,4,16,44,14,46,30,52,48,24,16,14,62,72,70,40,92,94,84,0,84,0,2,2,84,0,0,0,0,0,0,0,0,0,10,10,64
90,54,64,58,2,12,92,6,40,92,0,42,94,8,0,0,94,94,0,0,92,68,0,28,0,0,0,4,0,30,10,6,8,72,56,90,92,90,34,54,10,92,42,58,68,90,92,80,50,16,92,0,0,0,0,0,90,0,0,0,14,0,16,92
0,0,0,82,80,72,88,94,50,94,94,92,74,36,24,0,92,0,0,0,0,0,0,0,0,0,0,0,10,8,14,10,26,94,4,6,84,44,60,22,92,66,6,92,68,74,72,6,48,0,0,0,0,88,0,0,26,0,0,0,12,0,14,12
2,0,0,4,38,94,16,94,94,94,94,52,94,28,0,16,0,86,0,0,0,0,0,0,0,0,0,0,4,20,26,24,10,18,6,46,34,14,22,94,28,88,48,2,84,94,94,92,0,0,0,48,0,0,0,0,0,0,0,0,12,0,6,6
92,4,92,0,2,24,0,94,94,94,90,0,94,52,0,0,0,0,0,0,94,0,0,0,0,0,0,0,10,12,10,88,6,94,4,4,20,8,84,74,92,84,46,94,94,94,12,0,0,0,0,0,0,0,0,0,0,0,0,2,0,16,90,0
2,44,0,12,52,6,92,92,40,92,38,92,94,94,6,0,94,0,0,0,0,0,0,0,0,0,0,0,6,44,16,10,54,10,10,84,28,46,52,94,76,62,4,94,46,70,94,64,92,0,0,0,0,0,0,0,0,0,0,2,0,2,14,4
0,94,2,0,0,12,94,92,94,28,92,94,0,94,94,2,0,0,0,0,0,0,0,0,0,94,0,0,10,10,10,8,12,2,92,94,2,92,12,90,58,92,10,38,92,92,70,0,0,22,0,0,0,0,0,0,88,0,0,0,8,0,10,20
50,0,0,92,0,94,92,32,94,92,92,42,0,0,92,0,92,0,0,0,0,0,88,0,0,0,0,12,0,16,42,82,0,26,6,60,8,28,92,24,28,92,4,94,92,92,76,28,52,94,0,0,0,92,0,0,0,0,0,0,0,6,10,2
2,0,0,80,92,46,94,92,0,94,38,94,0,2,92,0,0,94,92,0,0,0,0,0,0,82,0,0,14,14,28,10,48,42,50,58,10,46,90,90,76,92,38,92,32,92,0,0,0,94,0,32,0,0,0,0,0,0,0,0,0,10,2,10
6,94,2,72,94,50,34,86,94,60,92,0,94,92,0,0,94,0,94,0,46,0,0,0,0,0,0,10,0,14,16,4,28,28,64,14,70,14,66,94,22,64,82,44,94,26,0,18,92,82,0,0,0,0,0,0,0,0,0,0,4,0,10,2
2,0,92,74,92,88,2,92,92,2,70,94,84,54,32,52,0,42,84,0,92,52,0,0,0,0,0,0,10,28,14,56,8,12,60,42,20,14,94,42,94,70,92,22,10,90,2,0,2,0,0,0,84,0,92,0,90,0,0,0,0,16,6,0
2,0,62,2,84,78,0,94,94,92,92,10,94,90,92,0,94,0,0,0,0,0,0,56,0,0,0,12,16,14,56,14,10,4,88,74,6,86,84,44,72,92,42,78,92,92,92,0,0,0,0,92,0,0,0,0,0,0,0,0,0,12,2,6
0,44,42,0,0,92,92,92,38,92,60,80,94,36,88,0,0,0,24,0,0,0,0,0,0,0,0,14,0,14,10,28,12,6,6,92,22,92,46,30,24,92,8,92,6,78,0,0,52,94,0,36,82,2,0,0,0,0,88,0,0,2,8,4
88,0,40,0,92,14,92,2,92,74,94,38,32,14,74,92,0,94,54,0,92,4,0,0,0,0,0,0,8,12,14,92,6,42,28,6,22,26,20,48,66,42,84,92,40,70,0,12,0,92,0,28,0,0,0,0,0,0,0,0,0,6,12,10
2,0,0,6,82,88,2,90,92,94,90,92,92,0,74,0,0,0,0,0,0,0,0,0,0,0,0,0,10,20,14,10,42,78,50,78,4,90,84,8,92,32,92,92,2,10,74,28,94,0,48,0,0,0,0,0,0,0,0,12,0,0,8,0
4,36,34,94,14,92,0,92,58,38,92,2,94,74,0,94,0,0,94,0,0,0,0,90,40,6,0,0,0,12,56,20,6,94,2,6,14,22,16,10,4,84,92,50,92,84,2,90,34,2,0,40,0,82,0,0,0,0,0,0,0,8,8,12
2,2,94,2,92,32,0,90,38,36,86,0,92,0,0,0,94,92,0,94,0,0,0,60,0,0,0,0,16,18,12,58,92,0,44,10,90,22,38,90,94,66,8,88,92,56,84,0,0,20,0,0,0,0,0,0,0,0,0,0,0,16,10,2
20,0,0,0,94,86,90,8,94,36,92,6,0,0,94,74,0,0,54,0,0,0,0,0,0,0,42,0,20,6,12,8,4,6,2,62,94,12,12,92,94,12,92,2,86,0,94,18,8,0,0,0,0,0,92,0,0,0,0,10,0,0,4,24
2,0,60,0,94,2,92,92,92,94,0,94,60,92,74,32,4,34,54,92,0,0,0,72,0,0,0,10,14,14,0,6,12,92,72,40,34,54,28,90,80,92,84,40,94,70,0,74,0,74,0,0,0,0,0,0,92,0,0,0,0,0,10,2
34,0,92,36,76,92,94,2,0,2,94,0,94,64,94,28,0,0,0,0,0,30,0,0,0,0,0,56,8,8,92,14,10,56,6,14,10,84,16,42,28,92,94,92,50,0,68,0,44,38,76,0,88,0,0,18,0,0,0,0,8,0,10,4
0,0,84,60,0,2,92,48,2,42,94,94,94,94,72,0,0,0,0,0,6,0,0,0,58,0,0,10,20,0,20,42,92,4,94,36,38,82,10,38,68,94,92,90,6,84,6,0,0,0,94,0,0,0,0,0,0,0,0,0,2,4,2,6
92,2,82,32,54,30,92,92,90,60,92,94,42,0,0,0,0,62,26,0,0,50,92,0,86,0,0,4,16,10,90,46,48,24,6,2,8,94,62,40,94,92,38,84,8,70,0,0,92,0,32,0,76,0,0,0,0,70,0,0,0,4,6,6
94,8,2,94,0,0,42,2,92,80,92,92,0,94,94,0,92,50,0,0,94,0,0,0,52,0,0,0,10,20,10,10,92,46,4,68,92,90,12,84,8,90,92,92,92,42,70,0,2,0,6,0,0,0,0,0,0,0,0,0,0,2,6,0
24,0,10,0,0,82,0,94,94,94,92,2,28,16,94,92,90,0,0,0,0,0,48,0,0,0,0,0,6,12,32,28,10,28,48,6,80,64,92,14,20,92,92,32,92,2,94,20,0,46,0,14,0,0,34,0,0,0,0,0,0,4,4,8
38,0,82,2,0,14,56,94,94,66,90,82,0,94,0,32,66,0,0,0,0,0,0,0,0,0,0,0,8,10,14,24,90,0,14,6,92,40,36,10,94,92,2,92,70,20,54,92,0,0,0,0,0,0,0,0,0,0,0,0,0,12,10,6
60,26,84,2,26,2,92,72,0,92,94,42,92,90,90,92,0,0,80,0,28,0,0,92,0,0,0,0,6,18,12,52,8,66,42,84,84,4,10,18,94,94,62,92,86,2,0,0,72,0,0,0,0,0,0,0,0,92,0,0,6,0,16,14
0,4,52,2,10,94,90,88,94,92,78,72,72,24,90,92,0,0,0,0,0,0,0,0,0,0,0,10,22,0,16,14,10,78,6,6,94,82,90,14,80,82,46,84,92,70,6,92,0,0,88,0,0,78,0,0,0,0,0,0,14,2,2,6
92,6,0,92,36,76,6,94,86,82,94,0,22,90,32,72,82,0,0,0,2,0,0,0,0,0,0,0,16,6,76,6,8,10,24,54,16,20,50,20,48,92,94,94,76,88,28,94,70,6,88,0,0,0,0,0,0,0,0,0,36,12,2,10
0,2,22,78,94,94,88,82,94,84,94,94,94,56,90,34,0,64,0,0,0,0,0,0,0,0,0,0,8,80,4,8,4,34,8,66,94,14,46,14,58,90,76,66,84,70,2,0,0,22,0,0,92,78,0,0,90,0,0,0,4,2,10,16
6,80,0,0,92,84,56,4,92,92,34,92,6,60,94,0,0,0,0,0,0,36,0,0,0,0,0,0,4,14,16,14,92,44,24,4,6,50,14,12,94,94,94,92,56,0,86,40,0,0,22,0,0,0,0,0,0,0,0,0,0,6,16,70
