0,0,0,0,0,230,10,10,230,0,0,0,0,0,0,0,0,0,0,0,0,0,0,0,0,0,0,0,10,15,25,10,15,10,5,5,15,25,50,15,195,10,25,220,0,230,0,0,0,0,0,0,0,0,0,0,0,0,0,0,0,15,0,10
5,0,0,0,0,5,230,0,210,0,235,0,0,0,0,0,0,0,0,0,0,0,0,0,0,0,0,15,0,20,20,20,5,10,15,20,15,50,55,40,220,45,10,5,105,0,5,0,0,0,0,0,0,0,0,0,0,0,0,0,0,5,5,35
0,10,0,0,5,0,210,230,220,5,0,0,0,0,0,0,0,0,0,0,0,0,0,0,0,0,0,0,15,25,15,15,10,5,5,15,15,25,45,40,15,25,105,230,0,225,0,0,0,0,0,0,0,0,0,0,0,0,0,0,10,5,15,0
0,5,0,0,0,10,200,10,235,5,0,0,0,0,0,0,0,0,0,0,0,0,0,0,0,0,0,15,0,10,15,15,20,5,5,15,10,70,15,35,40,15,15,5,0,5,0,0,0,0,0,0,0,0,0,0,0,0,0,0,0,10,30,5
10,0,10,0,0,230,10,5,5,0,0,0,0,0,0,0,0,0,0,0,0,0,0,230,0,0,0,0,15,25,25,10,20,95,15,20,30,35,40,40,20,25,15,0,5,0,0,0,0,0,0,0,0,0,0,0,0,185,0,0,0,15,10,0
0,0,0,5,5,115,210,5,15,5,0,0,0,5,0,0,0,0,0,0,0,0,0,0,0,0,0,0,10,15,15,20,15,0,15,5,35,15,25,25,15,205,5,5,0,5,0,0,0,205,0,0,0,0,0,0,0,0,0,0,0,0,5,5
0,0,0,0,30,10,220,10,25,0,5,0,235,0,0,0,0,0,0,0,0,0,0,0,0,0,0,25,0,20,25,20,15,0,5,5,15,25,25,230,15,35,225,15,15,0,0,0,0,225,0,0,0,0,0,0,0,0,0,10,0,15,0,10
0,0,0,5,0,10,5,215,10,5,5,230,0,0,0,0,0,0,0,0,0,0,0,0,0,0,0,15,0,15,20,20,25,10,15,85,25,30,25,35,25,25,30,5,220,5,5,0,0,0,0,0,0,0,0,0,0,0,0,0,0,10,10,5
0,0,0,0,10,0,0,5,210,230,0,0,0,0,0,0,0,0,0,0,0,0,0,0,0,0,0,0,20,15,20,10,15,15,0,15,15,15,45,30,225,20,10,5,0,5,0,0,5,0,0,0,0,0,0,0,0,0,0,0,5,0,0,5
10,0,0,5,0,170,5,0,5,0,0,0,230,0,0,0,0,0,0,0,0,0,0,0,0,0,0,0,25,25,20,25,5,10,5,105,5,170,15,40,25,15,15,10,5,5,0,5,0,0,0,0,0,0,0,0,0,0,0,0,0,5,0,5
10,0,0,0,5,10,0,5,5,0,0,0,235,0,0,0,0,0,0,0,0,0,0,0,0,0,0,0,15,15,25,30,0,55,10,15,130,20,25,50,20,40,20,5,10,5,0,0,0,125,0,0,0,0,0,0,0,0,0,0,0,5,5,15
5,0,0,0,165,15,170,210,0,0,0,5,0,0,0,0,0,0,0,0,0,0,0,0,0,0,0,15,35,15,0,10,5,60,5,10,20,20,40,55,25,15,20,5,5,0,5,0,0,205,0,0,0,0,0,0,0,0,0,5,0,5,0,0
0,5,0,0,5,0,5,5,230,0,210,0,0,0,0,0,0,0,0,0,0,0,0,0,0,0,0,0,25,25,5,20,5,0,0,50,5,25,20,50,50,15,25,15,5,5,225,0,0,0,0,0,0,0,0,220,0,0,0,0,10,5,10,0
10,0,0,0,10,95,230,25,210,10,0,0,0,0,0,0,0,0,0,0,0,0,0,0,0,0,0,0,10,20,20,10,0,5,10,5,15,15,35,35,15,185,15,30,5,40,0,0,0,0,0,0,0,0,0,0,0,0,0,0,0,0,15,15
0,0,0,0,5,0,5,5,0,0,230,0,0,0,0,0,0,0,0,0,0,0,0,0,0,0,0,0,10,25,25,10,20,5,10,20,20,40,200,35,105,20,10,55,10,10,0,0,0,0,0,0,0,0,0,0,0,0,0,0,0,5,5,5
0,0,0,0,0,165,0,5,0,0,235,0,0,235,0,0,0,0,0,0,0,0,0,0,0,0,0,0,15,30,15,15,10,5,10,0,130,35,150,35,15,25,5,20,0,5,0,0,0,0,0,195,0,0,0,0,0,25,0,0,0,5,5,10
0,0,0,0,165,0,5,10,210,0,230,0,0,0,0,0,0,0,0,0,0,0,0,0,0,0,0,15,0,25,15,15,15,5,15,15,20,25,150,25,10,20,10,15,30,5,205,0,0,0,0,0,0,0,0,0,0,0,0,0,5,10,10,5
0,0,5,10,0,0,210,230,5,15,0,0,225,0,0,0,0,0,0,0,0,20,0,0,0,0,0,0,15,20,20,10,10,10,5,25,25,145,20,25,35,20,215,0,5,0,0,180,0,0,0,0,0,0,0,0,0,0,0,0,5,0,5,5
0,0,0,0,0,5,200,225,5,0,0,0,0,235,0,0,0,0,0,0,0,0,0,0,0,0,0,0,20,15,15,15,10,15,10,5,30,25,35,30,230,40,230,0,5,55,0,0,0,0,0,0,0,0,0,0,0,0,0,0,0,5,5,20
0,0,0,0,10,0,10,205,5,235,0,0,0,0,0,0,230,0,0,0,0,0,0,0,0,0,20,0,25,0,20,25,10,5,15,5,40,15,25,20,230,30,10,5,15,0,0,5,0,60,0,0,0,50,0,0,0,0,0,0,5,0,5,5
10,0,5,0,5,0,15,0,220,0,190,230,0,0,0,130,0,0,0,0,0,0,0,0,0,0,0,15,0,40,15,10,25,60,15,5,15,30,35,35,185,130,15,5,20,175,0,0,0,0,0,0,0,0,0,0,0,0,0,0,0,0,10,15
0,0,0,0,30,0,230,20,5,220,5,0,0,0,0,230,0,0,0,0,150,0,0,0,0,0,0,0,20,40,25,25,5,0,10,10,25,25,195,30,20,115,235,20,5,5,5,0,0,0,0,0,0,0,0,0,0,0,0,0,0,5,15,0
0,0,0,120,0,10,5,175,225,25,110,0,0,0,0,0,0,0,0,0,0,0,0,0,0,0,0,0,25,15,10,25,5,5,10,10,15,40,15,30,200,5,220,15,185,0,230,0,0,0,0,0,0,0,0,0,0,0,0,0,0,10,5,0
0,0,0,0,40,0,0,5,0,0,0,230,70,0,0,0,0,0,0,0,0,0,0,0,0,0,0,0,5,30,15,10,20,5,10,5,25,140,30,125,50,20,0,85,5,5,0,0,80,0,0,150,0,0,0,0,0,0,0,0,0,0,5,45
15,0,5,0,15,0,10,210,5,0,0,0,160,0,235,5,0,0,0,115,0,0,0,0,0,0,0,0,15,25,15,5,55,10,5,5,25,25,205,15,40,15,10,175,0,80,0,75,0,0,0,0,0,0,95,0,0,0,0,0,10,5,5,10
5,70,0,160,10,10,0,35,5,0,0,105,0,0,230,0,0,0,0,0,0,0,0,0,0,0,0,0,15,20,20,55,20,5,10,15,10,25,40,30,85,95,200,15,45,0,5,0,0,0,0,0,0,0,0,0,0,70,0,5,0,5,0,0
0,0,0,10,0,5,10,0,0,0,235,225,150,0,25,0,0,0,0,0,0,130,0,0,0,0,0,0,10,15,10,15,60,5,65,5,15,140,185,45,20,20,15,220,0,5,5,10,0,0,65,160,0,0,0,0,0,0,0,0,0,15,5,40
5,50,0,0,0,0,230,5,210,0,5,105,0,85,150,0,0,0,0,0,0,0,0,0,0,0,0,0,15,30,15,65,20,10,10,25,5,25,25,170,40,125,15,5,0,230,180,0,0,0,0,0,0,0,0,0,0,0,0,0,0,15,10,0
0,70,5,0,0,0,230,0,230,0,0,0,0,0,0,0,0,0,0,0,0,0,0,0,0,0,0,0,40,20,30,20,0,5,15,5,15,25,40,45,75,25,25,15,5,155,0,0,0,230,0,0,0,0,0,0,0,0,0,0,0,10,0,0
0,0,5,0,0,5,225,5,0,125,0,0,0,5,0,0,0,0,0,0,0,85,0,0,0,0,0,0,25,25,15,35,0,10,25,10,25,10,100,95,195,20,165,105,10,0,5,0,0,0,0,0,0,0,0,0,0,0,0,0,10,0,5,5
0,0,65,5,0,5,20,210,0,5,0,0,235,235,0,0,0,0,0,0,0,0,0,0,0,0,0,0,15,25,15,30,120,15,5,35,30,5,20,230,15,20,125,5,0,5,0,0,230,0,0,0,0,0,0,0,0,0,0,0,5,0,5,5
5,0,0,0,175,10,5,0,0,145,5,0,0,0,0,0,0,0,230,0,0,95,0,0,0,115,0,0,20,20,40,10,5,5,15,10,20,35,205,25,105,5,10,5,185,0,10,5,0,0,0,0,0,0,40,0,0,0,0,0,0,15,0,10
10,0,5,0,0,230,40,10,5,0,5,0,0,0,0,0,75,0,0,0,0,140,0,0,0,0,0,10,0,35,20,20,15,95,15,5,10,125,25,40,15,125,10,230,15,0,0,0,0,0,0,70,0,5,0,0,0,0,0,0,0,0,0,0
10,5,0,5,20,0,0,0,0,230,0,0,0,0,0,0,0,0,140,0,0,0,0,0,0,0,0,0,15,25,20,10,10,10,5,20,5,65,45,30,20,30,10,10,0,0,200,0,0,0,0,35,0,0,0,0,0,0,0,0,5,0,15,10
10,0,0,0,0,220,5,0,230,225,5,0,0,0,0,140,0,0,0,0,0,0,0,0,0,0,0,0,5,25,20,25,5,5,5,5,25,20,35,35,190,25,230,5,5,5,0,0,0,230,0,0,0,0,0,0,0,0,0,0,0,5,15,5
0,0,0,0,15,200,0,5,0,110,0,225,0,0,0,0,0,0,0,0,0,0,0,0,0,0,0,0,10,15,15,15,10,10,35,15,30,20,10,35,25,25,110,175,0,0,0,0,0,0,0,225,0,0,0,0,0,0,120,0,0,5,5,0
0,0,0,0,0,200,5,85,0,225,0,0,200,0,0,0,0,0,0,0,0,0,0,0,0,0,0,0,20,15,15,25,10,0,5,15,15,85,80,45,45,195,15,5,5,5,0,20,0,0,0,0,0,0,0,0,0,0,0,0,0,15,15,15
0,5,0,0,0,170,10,5,5,0,15,0,0,235,0,0,235,0,0,0,0,0,0,0,0,0,0,15,0,30,25,30,15,5,5,20,25,145,20,25,15,220,25,10,0,0,15,0,0,0,0,0,205,0,0,0,0,0,0,0,0,0,0,0
0,0,0,0,0,15,0,0,0,5,220,235,0,0,0,0,0,0,0,0,0,0,0,0,0,0,0,0,5,25,25,10,5,5,0,25,30,75,15,30,30,15,85,5,5,0,0,0,0,0,0,0,0,0,0,0,0,0,0,0,0,0,15,5
0,0,0,0,10,0,5,0,0,230,0,0,235,0,0,0,0,0,0,0,0,0,0,0,0,0,0,0,25,20,25,20,5,15,0,15,15,30,205,20,210,35,15,10,5,15,0,0,0,45,0,0,0,0,0,0,0,0,0,0,10,0,30,5
0,0,0,0,0,205,5,0,0,0,0,235,0,0,0,0,50,0,0,0,0,0,0,0,0,0,0,30,0,15,25,20,5,5,5,30,10,15,30,30,30,230,100,5,5,5,0,0,0,0,0,0,0,0,205,0,0,0,0,0,0,5,0,5
0,0,0,75,0,5,5,210,5,5,235,0,0,0,230,0,0,0,0,0,0,0,0,0,0,0,0,0,15,20,15,10,10,15,15,75,85,125,45,25,20,25,5,15,5,0,0,0,0,0,205,0,0,0,0,0,0,0,0,0,0,5,10,15
0,0,0,0,0,0,195,230,5,230,0,0,0,0,0,0,0,0,0,0,0,0,0,0,0,0,0,0,25,20,10,5,5,25,15,15,10,25,35,185,15,25,15,0,140,0,5,0,0,0,0,0,0,0,220,0,0,0,0,0,10,10,10,5
5,0,0,0,5,95,0,15,190,0,0,0,0,0,230,0,0,0,0,0,0,0,0,0,0,0,0,0,25,10,25,25,5,5,5,5,15,35,215,35,35,230,165,10,15,5,0,185,0,0,0,0,0,0,70,0,0,0,0,0,5,5,0,5
5,0,0,140,0,0,60,220,230,0,0,0,0,0,195,0,0,0,0,0,0,0,0,0,0,0,0,0,15,20,15,5,20,15,5,5,35,35,25,15,20,15,10,230,0,0,5,0,0,0,230,0,0,0,0,0,0,0,0,0,0,0,40,0
0,0,0,0,0,0,190,215,5,5,0,0,0,0,0,0,0,0,0,0,0,125,0,0,0,0,0,0,20,20,15,35,10,5,5,15,15,25,50,40,10,20,10,10,70,0,225,0,0,0,95,195,0,0,0,0,0,0,0,0,0,0,5,0
0,65,0,0,65,175,5,230,0,5,0,0,0,0,0,0,0,220,0,0,0,0,0,0,0,0,0,15,0,25,25,10,55,10,15,15,15,20,105,30,25,15,20,5,210,5,5,0,0,0,0,0,0,0,0,0,0,0,0,0,5,5,0,5
0,0,0,0,0,175,0,220,0,0,40,0,0,0,125,0,0,0,0,0,0,0,0,0,0,0,0,10,0,20,15,25,15,15,25,10,25,15,35,200,25,15,25,15,55,0,0,0,0,0,205,0,0,0,0,0,0,0,0,0,0,5,30,20
0,0,0,0,200,5,0,15,175,0,0,0,0,0,0,0,0,0,230,0,0,0,0,0,0,0,225,0,10,10,20,10,20,5,50,25,5,185,190,20,10,30,15,85,5,220,5,5,0,0,0,0,185,0,0,0,0,85,0,0,0,5,5,5
0,0,0,20,0,10,10,230,15,25,0,0,0,0,0,0,0,0,0,0,95,0,0,0,0,0,0,15,0,15,20,15,15,10,10,25,10,25,10,15,85,15,230,205,5,230,0,0,0,0,0,0,0,0,0,0,0,0,0,0,0,0,5,10
