0,0,0,130,15,165,230,230,235,235,235,235,35,70,35,35,30,195,220,0,30,30,175,25,25,20,5,15,40,10,40,220,15,15,30,25,30,210,235,225,230,230,230,120,175,175,165,220,230,35,30,30,230,30,175,0,0,0,20,0,0,5,15,15
5,165,105,0,220,235,135,235,15,175,230,35,235,195,35,220,235,35,30,30,25,235,25,25,20,15,5,0,30,115,25,35,95,40,5,40,70,90,40,220,230,35,230,105,185,175,235,220,0,25,50,25,25,25,230,185,210,0,0,0,0,15,25,95
0,75,5,235,225,110,235,195,220,230,115,195,35,235,35,230,235,35,65,30,30,25,30,25,105,15,0,10,10,40,165,35,15,205,210,175,50,35,40,210,235,230,95,205,175,225,80,35,30,60,25,170,25,25,25,110,25,15,0,0,10,0,10,10
50,100,0,5,165,5,230,235,230,220,235,190,35,140,35,35,105,0,175,30,120,30,30,25,50,20,10,0,10,40,25,65,140,40,160,5,235,215,45,165,225,225,150,85,205,210,30,230,230,30,25,25,225,25,0,25,0,20,0,10,0,5,30,0
30,5,235,0,195,55,235,230,40,175,230,180,230,195,235,35,35,185,235,35,55,25,195,25,25,15,5,0,5,160,25,30,25,135,150,205,105,60,195,145,115,235,90,220,235,230,0,225,230,0,0,5,210,35,15,45,0,215,5,0,0,25,15,35
235,160,0,150,235,0,230,15,30,230,235,35,230,235,230,35,190,80,30,175,30,225,25,80,0,0,0,0,15,25,225,50,15,185,190,25,35,65,145,185,230,185,235,140,230,230,140,0,15,0,230,175,5,30,0,25,0,0,185,0,0,25,10,10
10,75,190,15,140,235,230,225,40,105,235,35,230,235,230,235,175,235,35,200,25,145,0,0,0,0,0,0,35,15,160,20,150,165,15,50,35,30,230,235,235,230,10,235,230,75,0,195,215,200,10,220,40,55,20,0,15,5,20,0,0,35,25,5
5,25,135,170,190,210,230,195,225,235,235,235,235,30,25,130,95,105,30,0,150,0,195,0,235,0,0,0,105,5,90,95,185,50,10,75,50,185,35,235,45,230,230,235,90,220,235,230,235,230,0,0,30,0,90,0,0,0,0,0,0,15,15,5
105,0,165,185,225,5,235,230,230,105,230,50,235,135,0,90,0,80,155,0,0,0,225,0,0,0,0,0,25,20,35,45,155,20,20,20,20,25,155,235,235,230,230,225,15,35,5,220,95,0,30,0,0,0,10,230,0,5,0,0,0,5,15,65
15,0,235,220,225,155,225,55,235,105,115,235,235,235,230,60,235,230,0,0,230,230,0,0,0,0,0,0,25,200,25,30,225,110,25,15,225,80,225,25,195,225,230,160,175,230,215,25,220,0,230,20,25,5,15,5,220,0,5,0,0,20,40,10
235,0,215,0,225,0,105,230,15,235,25,25,235,185,235,230,230,20,235,20,20,165,150,10,10,10,0,5,15,50,15,20,235,135,60,150,210,130,40,15,130,190,235,235,175,20,65,15,15,230,5,10,200,0,0,0,5,5,5,0,0,35,25,25
55,0,70,235,230,205,95,230,230,235,25,230,230,230,235,20,30,20,235,30,20,25,125,10,15,5,10,95,0,225,35,25,55,35,25,200,5,120,175,230,230,235,185,235,25,230,120,0,230,0,230,0,0,0,230,0,0,0,0,0,0,30,55,5
0,5,0,190,195,230,230,115,5,205,235,225,235,25,185,100,25,35,115,30,25,230,20,15,5,20,35,0,0,170,35,20,25,235,25,15,20,210,215,190,95,215,230,235,235,225,225,45,145,230,20,25,230,25,15,20,15,5,0,0,15,0,60,0
0,235,230,210,5,15,235,215,25,235,120,230,235,180,35,30,230,235,25,25,25,25,230,20,15,10,5,0,40,25,25,225,160,5,170,25,85,25,15,165,140,235,235,180,160,230,0,225,25,25,25,20,220,55,20,175,15,0,5,5,0,5,25,35
10,0,185,0,5,110,15,235,200,235,50,215,235,235,190,60,235,30,25,230,20,20,185,20,10,10,5,0,25,30,70,55,20,20,220,100,35,195,130,235,145,85,215,180,230,40,180,25,25,25,15,15,170,15,10,15,5,10,0,85,5,20,5,30
0,0,230,230,75,180,225,225,230,235,105,25,180,230,235,235,15,235,135,25,25,15,185,15,15,0,65,0,10,35,230,50,30,15,15,135,120,90,40,215,230,230,225,230,70,175,15,25,175,15,50,230,20,20,15,15,10,0,5,0,0,25,15,10
0,70,215,40,185,230,10,230,195,170,235,235,85,225,25,230,25,40,20,60,235,15,175,0,0,0,5,5,15,40,25,35,20,210,150,5,230,120,110,105,185,230,230,210,40,30,80,50,230,25,15,25,20,15,15,195,10,5,0,0,0,15,10,5
10,0,230,10,125,10,5,230,195,210,235,230,235,25,185,175,225,25,25,25,15,15,20,15,15,0,5,0,20,35,55,25,15,165,30,25,230,225,40,230,225,230,230,175,175,230,65,30,30,20,235,95,20,65,0,0,0,0,0,0,0,25,35,10
10,0,230,10,5,205,0,225,30,165,235,235,200,235,185,25,20,0,230,25,5,0,75,5,85,0,0,15,0,30,25,100,235,15,185,25,40,170,20,140,230,170,235,225,235,195,195,0,230,5,0,10,0,0,210,0,0,0,25,0,10,0,15,5
80,205,0,180,0,65,235,115,10,230,235,235,235,235,235,0,0,0,0,140,160,0,15,0,10,85,0,0,35,25,190,190,60,70,55,165,185,105,60,110,40,215,230,230,200,230,120,75,5,220,0,0,15,0,5,85,5,0,0,0,0,10,10,15
15,235,0,60,215,200,215,235,230,0,225,195,230,75,235,230,0,0,0,60,15,0,15,15,15,5,0,0,20,25,35,20,10,140,0,25,25,215,80,175,175,165,115,220,230,20,205,25,235,15,55,210,25,25,115,0,15,0,0,0,0,10,40,5
0,60,0,0,0,0,225,175,25,225,140,225,30,140,185,235,25,235,30,25,20,15,25,5,105,0,0,0,10,35,35,40,230,35,10,20,160,205,205,225,220,165,220,235,90,185,30,25,20,195,70,230,20,15,20,15,200,5,5,0,25,0,25,0
15,0,185,235,145,230,235,130,230,230,190,25,235,140,185,30,25,230,25,20,35,190,20,20,25,5,5,0,35,35,40,80,25,90,5,85,205,235,50,100,50,190,235,125,25,235,230,20,85,130,20,190,20,20,95,15,15,10,0,0,0,15,15,35
50,0,85,0,0,220,120,210,235,235,235,220,220,80,25,235,235,15,25,15,0,0,0,0,5,5,0,10,0,20,215,10,50,45,0,10,70,225,55,45,230,205,235,225,175,90,25,195,20,15,15,200,20,15,15,20,5,10,0,0,0,35,35,10
20,25,0,195,35,235,220,230,10,235,35,235,235,70,105,140,95,5,25,75,20,20,80,15,15,10,5,0,10,35,30,20,25,15,5,160,235,50,230,35,130,225,160,210,235,230,20,175,40,95,10,130,10,10,70,15,10,10,0,0,40,25,0,235
50,5,0,10,70,230,50,235,100,235,230,45,235,140,20,185,110,225,30,20,125,15,200,10,15,5,5,0,20,85,35,30,15,30,45,195,5,45,230,100,230,230,230,220,175,170,195,35,20,35,30,25,20,205,20,215,70,10,5,0,0,10,5,50
0,0,235,10,210,10,235,230,235,205,25,130,230,235,235,20,25,30,20,20,15,215,15,15,15,10,0,5,10,180,35,35,20,140,150,65,95,35,180,215,235,230,230,175,75,30,30,35,105,20,15,230,15,5,15,15,10,0,5,25,25,0,30,25
60,125,0,220,0,75,25,115,235,235,40,230,235,235,185,35,230,235,230,30,175,55,15,20,140,10,5,5,50,210,10,125,30,55,90,235,200,190,40,55,190,230,230,225,175,215,75,225,10,25,20,30,15,15,15,15,5,10,0,0,0,40,15,5
10,0,5,25,175,235,115,80,230,230,210,235,235,25,185,230,25,25,20,25,205,25,15,15,20,10,5,0,20,120,15,20,15,135,35,25,135,210,55,40,155,235,125,225,190,235,25,25,225,20,25,15,5,15,45,115,0,175,5,0,35,0,15,140
0,15,0,160,190,50,95,10,235,235,25,235,215,60,185,230,25,20,20,25,165,165,15,20,230,5,0,15,0,25,30,30,110,35,145,80,60,140,150,230,40,230,235,185,230,215,20,230,25,20,105,15,225,215,15,25,0,5,10,0,0,15,15,50
55,230,175,50,5,80,195,10,235,235,60,235,200,30,185,235,35,125,30,25,120,170,230,0,0,0,0,25,0,35,175,55,230,15,135,105,115,30,35,190,225,235,230,30,215,180,120,195,85,20,20,5,150,20,15,15,10,5,15,0,20,0,5,15
5,235,5,0,150,105,225,230,20,230,230,40,25,235,235,230,130,25,20,20,15,15,15,15,5,10,0,0,5,35,25,125,30,5,125,50,50,85,210,220,225,235,230,25,85,175,30,220,230,15,200,75,20,185,15,15,5,10,5,85,0,25,230,5
0,70,10,205,220,205,10,230,225,235,235,230,150,120,185,135,215,30,80,20,20,30,20,15,225,0,20,0,0,25,35,65,5,5,195,25,30,20,210,120,230,120,230,235,25,225,20,15,25,15,230,15,20,20,175,15,5,10,0,5,0,35,20,105
60,5,5,0,15,230,100,230,235,230,50,175,185,160,235,15,95,215,230,90,25,15,20,115,10,0,0,5,25,15,230,30,0,45,20,35,85,30,140,235,230,230,205,155,20,175,230,230,230,10,230,5,120,230,0,0,0,0,0,0,10,0,155,10
10,5,170,185,220,0,235,5,230,10,230,120,235,235,230,5,0,0,0,75,230,70,205,175,0,0,0,0,40,35,35,70,25,20,120,35,175,165,225,135,235,5,125,235,225,220,105,0,0,185,0,0,0,0,0,115,0,0,0,40,0,0,5,40
5,5,10,55,235,205,90,235,220,235,100,230,35,220,230,175,145,0,25,165,0,80,20,0,100,0,0,0,35,5,40,40,15,125,25,30,185,115,60,225,35,130,230,220,225,230,225,175,85,0,15,15,220,15,15,5,5,10,0,5,0,30,10,25
0,5,0,210,215,25,30,85,205,110,230,230,235,160,185,25,25,50,25,25,0,235,20,15,140,10,0,0,20,35,60,205,185,40,0,60,225,215,110,70,210,130,130,95,215,235,20,25,25,95,25,20,20,50,20,15,180,5,0,0,0,15,25,20
0,0,0,0,40,235,225,235,35,230,230,230,220,235,35,30,25,230,20,230,235,40,15,10,20,0,15,0,15,20,40,115,20,215,90,50,205,220,100,190,235,145,90,230,70,175,0,120,55,20,15,20,0,0,0,0,0,0,0,0,0,10,40,25
0,60,205,0,20,215,230,230,125,120,230,90,230,230,210,40,230,95,30,40,20,5,115,10,10,5,0,0,15,25,70,140,45,25,60,185,20,235,35,230,230,30,225,10,230,230,230,160,10,0,55,60,35,20,15,10,10,10,0,0,0,15,15,40
15,0,175,0,0,235,110,220,10,235,235,155,25,25,40,230,230,35,230,20,20,25,230,10,15,0,0,0,20,35,20,50,95,110,40,5,30,45,195,30,25,105,230,235,235,215,0,75,10,30,205,5,5,5,10,20,120,10,0,0,0,40,15,10
0,55,0,175,5,125,230,220,220,235,25,235,185,40,230,0,25,25,15,230,15,30,0,0,0,0,0,0,30,25,150,150,0,30,35,25,70,230,200,235,25,105,230,25,230,215,25,220,215,20,60,30,230,20,0,0,115,0,0,0,45,0,10,50
15,170,0,0,210,225,235,210,235,205,25,25,25,185,80,230,25,25,25,230,0,5,0,0,170,0,0,15,0,40,30,40,100,140,175,15,175,125,50,235,235,225,115,230,10,180,230,215,85,20,230,25,20,110,15,15,15,5,10,0,10,15,15,60
0,0,0,230,205,200,130,225,235,230,230,165,30,35,40,30,155,235,25,235,120,25,20,165,10,15,0,5,0,40,55,230,105,15,130,20,185,25,230,40,60,235,225,230,210,210,235,25,25,235,0,225,15,10,20,20,15,10,10,0,0,35,120,10
0,0,0,230,80,150,15,235,45,235,235,15,85,150,175,145,20,10,25,20,0,15,0,0,0,0,0,25,0,30,40,50,200,5,5,40,120,40,100,25,235,225,85,235,235,210,125,25,85,225,15,30,0,0,5,0,0,90,0,0,0,35,20,40
5,0,235,0,55,185,225,5,230,235,235,110,235,0,0,135,0,0,10,0,0,0,0,0,0,0,0,25,0,40,25,170,20,20,5,35,65,20,60,180,235,35,230,30,5,235,235,220,0,0,0,0,0,0,0,0,55,5,0,0,0,15,25,15
0,0,195,5,0,190,230,225,110,235,5,230,0,185,230,5,20,115,0,0,0,145,105,0,15,15,0,20,0,45,40,40,15,30,220,40,15,40,140,95,25,235,235,35,115,235,55,25,0,30,0,100,10,225,0,185,0,0,0,0,0,20,50,220
230,80,65,0,220,225,205,150,220,105,40,0,70,235,0,25,235,25,115,50,55,30,145,105,120,5,0,0,40,45,20,65,230,230,155,15,35,15,200,115,230,230,235,10,225,140,85,225,225,25,140,25,25,0,20,0,10,0,0,0,0,65,10,0
0,230,105,75,235,5,160,230,80,235,40,235,235,15,185,0,0,230,225,225,0,0,5,0,0,5,0,0,30,25,230,50,35,15,5,70,25,130,35,230,35,225,220,155,0,210,115,210,0,0,70,50,0,10,220,0,80,0,5,0,0,30,30,25
0,95,0,175,230,165,235,225,205,130,95,235,235,0,15,0,0,0,0,125,0,70,0,0,235,0,0,25,0,25,120,60,10,210,165,5,115,60,30,115,55,220,95,165,225,235,210,205,185,200,5,0,0,120,0,10,5,0,0,0,0,35,15,30
235,65,170,235,5,0,185,225,230,235,235,235,0,0,0,230,225,120,0,185,0,0,65,0,0,0,0,0,5,230,20,40,35,70,150,20,40,35,140,25,235,230,20,230,190,205,160,225,45,0,5,0,230,0,0,0,0,105,0,0,15,30,110,40
