8,0,0,255,8,255,200,0,255,255,255,0,0,0,255,255,0,0,255,24,0,0,0,0,0,0,0,0,24,24,16,56,152,16,88,24,48,255,32,64,255,255,8,128,200,0,240,144,0,0,0,0,0,255,0,0,0,0,0,0,0,24,8,40
0,0,0,16,208,0,8,168,8,255,255,0,255,0,0,8,0,0,0,0,0,0,0,0,0,0,24,0,0,64,16,32,16,8,40,8,216,48,255,255,56,255,255,208,8,0,8,255,0,120,0,0,0,0,0,0,0,0,0,0,40,0,16,8
0,24,0,0,8,255,255,255,255,255,0,255,0,255,0,0,0,0,0,0,0,255,0,0,0,0,0,40,0,56,56,24,128,24,248,8,192,152,224,48,255,255,160,200,96,255,0,0,0,0,0,0,24,0,0,0,0,0,0,0,16,32,0,16
104,96,0,255,8,184,24,255,0,8,0,255,0,0,0,255,0,0,0,0,0,0,0,0,0,0,0,0,24,48,32,24,32,120,24,144,56,40,32,48,40,255,8,255,208,255,240,0,64,0,255,0,255,0,0,0,0,0,0,0,0,8,24,8
8,0,144,152,152,255,255,8,0,255,0,0,0,0,8,0,0,0,0,0,0,0,0,0,0,0,0,0,80,32,40,56,16,8,32,48,0,255,24,255,184,24,200,16,255,176,255,80,0,0,0,0,0,0,0,0,0,0,0,0,0,8,24,24
0,144,120,0,0,0,255,32,160,255,8,255,0,0,255,255,0,0,0,0,0,0,0,0,0,0,0,0,32,48,64,24,24,16,208,40,136,32,88,255,32,24,255,208,255,8,255,0,0,0,0,0,0,0,0,0,0,0,0,0,40,0,16,72
8,160,16,16,0,255,255,8,24,168,255,0,0,0,0,255,224,255,0,0,0,0,0,0,0,0,0,0,16,32,24,24,24,24,0,96,16,32,32,40,128,32,216,200,16,255,255,32,0,0,0,0,255,0,0,0,0,0,0,0,8,0,16,120
0,255,24,0,232,0,255,24,8,255,255,0,0,0,255,255,0,255,0,0,0,0,0,0,0,0,0,0,32,56,24,8,24,255,16,24,40,56,255,200,48,16,48,255,255,0,8,8,255,0,0,0,0,0,255,0,0,0,0,0,0,0,0,40
24,0,0,0,216,255,0,255,255,8,8,0,0,0,0,0,0,0,0,0,0,0,0,0,0,0,0,0,24,24,24,8,16,16,8,16,32,136,255,40,48,255,255,255,8,8,56,8,0,0,0,0,0,0,0,0,0,0,0,0,0,48,40,16
8,0,255,0,0,255,255,255,8,168,255,0,0,0,0,0,0,0,0,0,255,0,0,0,0,0,0,0,56,32,40,56,16,40,16,40,40,255,40,56,255,255,80,24,192,16,0,0,0,0,0,0,0,0,0,0,0,0,0,0,0,8,16,56
8,0,0,255,0,255,255,168,232,40,255,0,0,0,255,0,0,0,0,0,0,0,0,0,0,0,0,0,24,40,24,24,48,8,136,24,48,24,184,56,255,120,255,255,40,0,255,0,0,0,0,0,0,0,0,0,0,0,0,0,8,48,24,16
8,8,0,16,0,0,208,255,0,255,255,255,0,0,0,255,0,0,0,0,0,255,0,0,0,0,0,0,40,24,32,32,255,32,8,24,24,255,56,56,255,40,255,255,16,0,8,255,0,0,72,0,0,0,0,0,0,0,0,0,8,16,0,16
8,0,152,0,0,0,255,8,176,8,255,255,255,0,0,0,0,24,0,0,0,0,0,0,0,0,0,0,48,32,32,56,16,8,112,200,32,64,40,40,255,168,16,32,255,8,255,0,255,0,0,56,0,0,0,0,0,0,0,0,8,8,0,72
8,0,136,0,255,120,255,0,255,8,8,0,0,255,0,0,0,0,200,0,248,0,0,0,0,0,0,0,32,40,24,80,16,8,255,48,24,48,24,255,48,32,200,8,144,255,8,0,0,0,0,0,0,0,0,0,0,0,0,0,0,16,24,8
0,88,0,255,16,0,8,8,255,255,0,0,255,255,0,0,0,0,0,0,0,0,0,0,0,0,0,0,40,40,40,56,16,24,8,40,8,48,255,255,32,40,200,40,16,64,8,0,0,0,255,0,0,255,0,0,0,0,0,16,0,0,16,32
0,24,0,184,0,16,255,176,255,8,24,255,0,255,255,0,0,0,0,0,0,0,0,0,0,0,0,16,0,40,40,24,56,8,168,112,56,255,255,40,255,8,104,255,184,208,255,0,0,0,0,0,0,0,0,0,0,0,0,0,0,16,24,8
48,0,24,255,0,255,128,168,0,0,0,255,0,255,255,0,0,0,0,0,0,0,0,0,0,0,0,32,0,32,40,16,24,0,16,255,255,208,72,255,40,32,64,255,255,96,255,0,0,0,0,0,255,0,0,255,0,0,0,0,0,40,0,16
8,0,0,255,160,0,255,255,160,255,0,255,0,0,0,0,255,0,168,0,0,0,0,0,0,0,0,0,40,16,56,24,0,200,24,80,224,56,255,255,56,24,200,112,8,48,0,0,0,0,0,0,0,64,255,0,0,0,0,0,0,24,24,24
192,0,0,8,8,16,255,168,0,255,8,255,0,0,0,0,0,0,0,0,255,0,0,0,0,0,0,0,24,40,40,16,48,8,16,16,255,176,255,40,64,88,56,255,255,0,0,0,0,255,0,0,0,0,0,0,0,0,0,0,0,16,40,8
32,8,0,16,0,8,8,255,255,168,255,8,0,0,255,0,0,0,0,0,0,0,0,0,0,0,0,0,24,40,32,56,88,32,40,24,48,255,56,192,80,255,255,255,128,0,0,0,0,0,0,0,0,0,0,0,0,0,0,0,0,8,56,32
0,0,0,0,0,0,0,255,255,255,0,0,255,0,255,0,0,0,0,0,0,0,0,0,0,0,16,0,40,0,40,32,24,8,128,24,24,216,48,24,255,255,255,255,0,0,56,0,0,0,0,0,0,0,0,0,0,0,0,0,0,24,8,40
0,64,0,8,0,255,0,8,255,48,255,255,255,0,0,255,0,0,0,0,0,0,0,0,0,0,0,0,40,56,32,32,24,16,96,88,64,24,40,255,24,128,16,255,0,255,0,0,0,0,0,255,0,0,0,8,0,0,0,0,0,0,8,40
64,0,255,0,8,8,8,8,255,255,255,255,255,0,0,255,255,0,0,0,0,0,0,0,0,0,0,32,0,72,120,32,8,255,8,32,64,24,255,64,255,255,16,255,96,255,248,0,255,0,0,0,0,24,0,0,0,0,0,0,8,32,8,72
0,0,0,0,255,255,255,0,255,255,255,255,0,0,0,0,0,0,0,0,0,0,0,0,0,0,0,0,16,64,24,40,200,8,24,88,112,48,64,255,255,255,200,8,255,255,255,0,0,0,0,0,0,96,0,0,0,0,0,0,0,16,24,56
64,0,0,248,8,8,255,255,8,255,255,0,0,0,0,0,255,0,0,0,0,0,0,0,0,0,0,0,24,16,24,255,56,16,8,96,216,56,32,184,255,216,88,168,255,255,8,0,0,0,0,0,255,0,0,0,0,0,0,0,0,24,8,16
168,0,128,255,0,8,8,255,8,255,255,255,0,8,0,0,0,0,208,0,0,0,255,255,0,0,0,0,24,48,40,216,24,8,8,16,255,40,255,48,255,56,216,8,56,0,176,0,0,0,0,0,255,0,0,255,0,0,0,0,0,16,8,8
48,216,0,232,0,255,16,168,255,255,0,255,0,0,128,0,0,0,0,64,0,255,0,0,0,0,0,16,0,48,24,32,40,255,40,128,32,32,255,48,255,40,255,255,8,72,0,8,0,0,0,0,0,0,0,0,255,0,0,0,0,56,16,56
176,8,0,64,0,0,255,0,255,255,255,0,0,0,0,0,255,0,0,0,0,0,0,0,0,0,0,0,32,32,40,32,16,16,8,8,64,112,255,32,255,255,32,255,255,8,0,0,0,0,0,0,0,80,0,0,0,0,0,0,0,24,8,16
0,40,0,16,0,8,255,168,255,255,0,255,255,48,0,255,0,0,0,0,0,0,0,0,0,0,0,16,0,24,64,40,208,32,40,120,32,192,64,40,255,255,255,40,255,255,0,0,0,0,0,0,0,0,0,0,0,0,0,0,80,0,8,32
120,0,56,8,32,0,255,56,255,168,0,255,0,255,0,0,144,208,0,0,0,0,0,0,0,0,0,0,24,40,32,32,120,8,32,16,16,32,255,184,40,208,24,16,255,24,144,255,0,0,0,0,0,0,0,0,0,0,0,0,8,0,16,8
32,128,255,8,0,8,255,0,168,192,0,0,0,0,0,0,0,255,0,0,0,0,0,0,0,0,0,0,24,32,24,32,8,16,255,24,56,56,255,255,255,40,24,16,208,8,0,80,40,0,0,0,0,0,0,255,0,0,8,0,0,16,8,40
8,184,255,255,0,0,64,176,16,255,0,8,0,208,0,0,0,0,0,0,0,0,0,0,0,0,136,0,16,24,40,16,40,8,8,8,24,40,40,152,255,255,24,24,200,8,24,255,32,0,64,0,0,0,0,0,0,0,0,0,0,8,80,32
32,8,0,255,8,128,16,16,168,255,144,0,255,0,0,0,184,0,0,0,0,255,0,0,255,0,0,56,40,0,56,120,152,16,56,24,24,200,40,255,8,255,32,255,255,96,0,255,0,255,0,0,0,0,0,0,0,0,0,0,0,24,16,32
8,80,255,255,16,208,0,16,0,255,88,104,255,8,0,0,0,0,0,0,0,0,0,0,0,0,0,0,40,32,56,40,24,16,80,8,40,40,216,88,255,255,24,200,8,16,255,48,255,0,0,0,0,0,0,0,0,0,0,0,24,8,8,56
0,0,0,16,0,255,255,112,255,0,0,255,255,0,0,0,0,0,0,0,0,0,0,255,0,0,0,0,8,24,24,16,40,40,16,32,255,40,80,255,255,255,24,200,0,255,32,8,0,0,0,0,0,0,0,0,0,0,0,0,0,8,8,8
8,0,0,8,16,8,0,8,255,8,0,255,255,0,0,255,0,0,128,0,0,0,255,0,0,0,0,16,0,32,40,32,24,16,160,24,56,255,32,255,255,24,40,208,0,8,24,0,56,0,255,0,0,0,0,0,0,0,0,0,0,8,40,16
96,0,0,0,0,96,8,255,255,255,0,255,0,8,255,0,0,0,0,0,0,0,0,0,0,0,0,0,32,24,24,56,16,40,8,24,40,72,32,255,88,255,192,16,255,16,0,0,0,0,0,0,0,0,0,0,0,0,0,8,0,8,64,16
32,168,8,0,8,0,0,56,255,192,255,0,0,0,255,255,0,0,0,0,0,0,0,0,0,0,0,0,8,24,56,24,24,112,112,24,24,64,255,255,255,255,80,200,255,8,8,255,16,0,216,0,0,0,0,0,0,255,0,0,0,16,8,200
104,255,0,0,0,24,8,200,255,144,255,255,255,0,8,255,0,0,255,0,0,0,0,0,0,0,0,0,16,40,48,40,24,24,136,40,16,255,255,32,255,40,40,208,0,255,0,0,104,0,0,255,0,0,0,0,0,0,0,0,0,8,16,8
8,255,136,0,8,8,255,255,8,168,0,0,0,255,255,255,0,255,0,0,0,0,0,0,0,0,0,0,40,48,32,56,168,48,64,24,24,40,56,240,255,56,255,8,255,240,72,0,255,0,0,0,0,0,0,0,0,0,0,0,8,24,8,8
96,0,248,0,168,255,0,32,160,255,255,0,0,255,255,0,255,0,0,0,0,0,0,0,0,0,0,0,184,48,64,80,40,8,16,24,255,8,96,255,32,16,200,40,0,8,0,0,255,112,0,0,0,0,0,0,0,0,0,0,16,16,16,0
160,16,0,255,0,0,255,8,255,168,255,255,255,0,0,0,255,0,0,0,0,0,0,0,0,0,0,0,40,40,56,32,32,8,224,255,48,168,255,48,32,40,72,255,255,0,0,0,0,0,255,0,96,0,0,0,0,0,0,0,0,16,8,24
32,0,255,0,8,8,104,8,255,0,255,0,255,255,0,0,255,152,0,224,0,0,0,0,0,0,0,0,32,40,32,176,24,32,255,8,32,40,255,192,255,255,24,200,104,0,0,0,255,0,0,0,0,0,255,0,0,0,0,0,0,32,16,48
255,0,48,64,216,240,8,8,240,255,255,0,0,0,255,255,255,0,0,0,0,0,0,255,0,0,0,0,72,8,64,48,48,24,32,255,96,48,255,255,255,48,255,255,16,8,56,8,255,0,0,0,0,0,0,0,0,0,0,0,40,0,24,24
255,24,0,0,176,16,8,240,255,8,255,255,0,255,0,0,0,0,0,0,255,0,0,0,0,0,0,0,48,16,48,40,24,32,24,24,255,40,240,255,255,255,24,200,8,255,8,255,0,0,0,0,0,0,0,0,0,0,0,0,0,24,24,24
0,0,0,72,255,255,0,0,176,0,255,8,255,0,255,0,0,255,0,0,0,0,0,0,0,0,0,0,32,24,16,72,32,16,24,136,40,56,184,255,255,255,255,208,32,8,0,8,0,0,0,0,0,0,0,0,0,0,0,0,8,24,40,16
56,0,0,0,224,8,0,255,255,255,0,255,255,0,0,0,0,0,0,0,0,0,0,0,0,0,0,0,24,16,40,80,24,56,160,24,24,56,32,255,255,255,16,0,255,96,255,0,255,0,0,0,0,0,255,0,0,0,0,0,0,16,24,8
176,0,0,0,0,255,8,8,255,8,8,0,192,0,0,0,0,0,24,255,0,0,0,0,0,0,0,32,0,48,40,48,72,16,255,16,16,24,56,255,16,255,255,48,48,8,0,255,0,0,0,0,0,0,0,255,0,0,0,0,0,8,32,40
96,232,0,255,8,24,255,8,0,255,0,0,0,255,255,255,0,0,255,0,0,0,0,0,0,0,0,32,0,64,72,40,40,8,112,24,255,32,56,255,255,255,88,8,16,255,0,0,0,0,0,0,0,0,56,0,0,0,0,0,0,16,8,16
40,0,248,72,0,255,8,255,168,96,255,255,0,0,0,0,0,0,0,0,0,0,0,0,0,0,0,0,8,32,16,32,40,16,16,48,24,56,255,255,255,255,192,40,0,8,0,0,0,0,0,0,0,0,0,0,0,0,0,0,0,16,0,48
