0,0,255,0,0,9,255,216,180,255,27,0,9,0,255,234,255,0,0,0,0,0,0,0,0,0,0,0,54,27,72,63,117,255,36,36,36,45,255,72,255,27,243,255,126,0,255,0,0,0,108,0,0,0,255,0,0,0,0,0,0,36,27,27
54,0,144,153,0,255,0,18,255,255,0,255,0,0,0,255,255,216,0,0,0,0,0,0,0,0,0,0,54,54,27,255,36,144,9,135,45,72,81,255,153,255,255,255,255,255,225,0,0,0,255,0,0,0,0,0,0,0,0,0,0,9,36,27
0,0,144,255,9,9,216,255,255,255,255,0,0,0,0,216,255,0,0,0,0,0,0,0,0,0,0,0,27,36,36,27,27,126,9,27,255,72,99,255,255,255,198,255,255,255,0,255,0,0,0,0,0,0,0,0,0,0,0,0,0,27,36,9
255,252,135,0,255,45,255,255,171,255,18,255,0,0,255,0,255,0,255,0,0,0,0,0,0,0,0,0,18,63,90,27,54,108,9,45,45,45,36,255,45,255,255,255,255,0,255,0,0,0,0,0,0,0,0,0,0,0,0,0,0,9,81,0
63,0,0,0,153,255,27,255,36,255,255,0,0,0,255,0,255,0,0,0,0,153,0,0,0,0,0,0,72,63,72,255,90,9,45,9,255,27,255,81,255,45,27,255,0,255,0,255,0,0,0,0,0,0,0,0,0,0,0,0,0,36,9,0
255,9,18,0,0,54,255,117,255,255,255,255,9,0,255,0,0,198,0,0,0,0,0,0,0,0,0,9,0,27,45,36,99,63,9,198,27,36,72,45,189,252,255,255,255,255,0,234,0,0,9,0,0,0,0,0,0,0,0,0,36,0,72,27
0,9,0,135,27,9,9,189,45,255,255,0,255,0,255,189,0,0,255,0,0,0,0,0,0,0,0,0,27,81,45,255,126,9,27,207,45,255,255,108,255,255,180,255,18,255,0,0,0,0,255,0,0,0,0,0,0,0,0,0,0,36,27,63
255,0,0,135,162,9,255,255,252,0,0,255,36,180,0,255,0,0,255,0,0,0,0,0,255,0,0,0,27,54,45,126,18,171,18,63,189,255,63,255,255,255,27,255,255,0,255,0,0,0,0,0,0,0,0,0,0,0,0,0,0,18,18,0
72,255,18,0,9,27,255,255,0,255,0,255,255,0,255,0,225,0,0,0,255,0,0,0,0,0,0,0,72,63,27,36,27,255,72,63,45,255,255,72,255,255,255,198,255,255,135,9,0,0,0,255,0,0,0,0,0,0,0,0,0,18,36,18
153,9,0,9,255,0,18,255,255,0,255,255,255,255,0,0,216,0,0,0,0,0,0,0,0,0,0,0,63,255,72,54,117,90,153,255,252,108,54,90,90,255,255,255,255,255,153,0,81,0,18,0,0,0,0,0,0,255,0,0,0,45,36,18
0,0,144,0,0,45,255,0,255,255,255,0,255,255,0,216,0,0,0,0,0,18,0,126,0,0,0,0,27,255,36,45,153,27,18,81,63,144,255,36,255,255,255,255,255,255,0,0,225,0,0,0,0,0,255,0,0,0,0,0,0,54,54,27
0,9,0,243,0,255,255,225,255,255,0,255,0,0,255,255,0,225,0,255,0,0,0,0,0,0,9,45,0,18,90,54,144,108,255,108,144,255,162,171,153,252,255,255,27,9,9,225,9,0,0,0,0,0,45,0,0,0,0,0,0,45,54,9
0,135,255,0,0,255,0,153,255,255,9,45,0,9,255,225,0,255,255,243,0,0,0,0,0,0,0,0,45,45,27,45,81,117,255,9,36,45,63,255,243,255,189,255,27,0,0,255,0,27,0,0,0,0,0,0,0,0,0,0,0,36,9,54
0,0,72,144,255,72,9,255,255,54,0,9,255,255,255,255,216,0,0,45,0,0,0,0,0,0,255,0,27,63,72,45,72,255,45,135,135,162,108,255,126,243,135,255,255,189,144,0,255,0,0,0,0,0,0,0,0,0,0,0,0,36,54,0
9,72,9,153,99,0,255,255,255,255,9,234,255,0,0,255,0,0,255,0,162,0,0,0,0,0,0,18,36,0,72,63,18,255,36,27,18,45,255,255,198,27,255,255,18,255,9,0,108,255,0,0,90,0,0,0,0,0,0,0,0,36,36,0
255,9,144,0,0,9,0,255,255,255,255,255,0,0,255,255,216,0,0,0,0,0,0,0,255,0,0,0,18,36,255,36,108,126,108,198,234,144,255,45,63,255,234,171,255,0,255,0,117,0,0,0,0,255,0,0,0,0,0,27,0,255,0,27
0,0,9,0,153,255,0,255,189,255,255,180,255,255,9,255,0,255,0,0,255,0,144,0,0,0,0,45,9,0,45,255,207,18,126,144,36,243,72,255,27,255,255,255,255,255,0,0,9,0,0,0,0,0,0,0,0,0,0,0,9,0,144,45
0,0,0,153,18,189,255,255,255,255,153,0,0,0,255,255,207,0,180,0,255,0,0,255,0,0,0,0,27,9,207,54,36,9,255,153,45,54,216,162,255,255,45,255,27,0,255,81,36,255,45,0,0,0,0,0,0,225,0,0,0,45,18,63
255,0,0,9,144,117,9,255,255,255,0,255,0,255,255,255,0,255,0,0,171,0,0,0,0,0,0,0,72,255,18,54,90,72,207,45,45,63,255,72,225,255,255,255,255,0,162,27,99,0,0,0,0,0,0,0,0,0,0,0,27,9,27,18
0,0,36,153,0,9,9,171,255,255,0,255,0,255,0,0,0,0,0,180,0,0,0,0,0,0,0,18,81,0,45,27,54,255,117,54,126,45,54,255,54,54,255,255,180,255,255,189,0,0,0,0,0,0,0,0,0,0,0,0,27,0,18,45
45,0,0,0,255,27,0,255,0,255,9,255,255,0,0,216,0,0,0,0,0,0,0,0,0,0,0,0,18,27,45,72,27,9,9,255,72,198,45,255,126,255,255,255,9,18,36,0,234,0,0,0,0,255,0,0,0,0,0,0,0,0,63,9
18,117,0,255,9,0,54,81,255,0,255,45,255,255,63,0,0,0,0,255,153,0,18,0,0,0,0,0,27,45,72,45,81,9,9,63,63,72,255,255,63,255,27,135,180,255,255,0,255,0,162,0,0,36,0,0,0,0,0,0,0,9,27,9
135,0,0,0,0,27,255,255,255,255,255,9,255,255,207,0,0,0,0,108,0,0,0,0,0,0,0,0,27,27,54,255,9,45,27,45,45,252,63,63,255,255,255,180,255,45,255,9,255,0,0,0,0,0,0,0,0,0,0,0,27,0,36,27
0,0,198,135,9,18,255,255,0,225,0,255,255,126,255,153,0,0,189,0,0,255,90,255,0,0,255,0,27,45,255,45,27,18,45,108,54,54,255,255,135,255,255,255,180,18,9,0,0,0,0,0,0,0,255,0,0,0,0,0,0,18,27,108
0,135,9,171,9,9,162,180,9,255,225,255,255,255,255,0,225,255,0,0,0,0,0,0,0,0,0,0,0,36,153,36,126,9,9,45,54,255,54,255,144,255,255,189,9,255,0,255,243,0,0,0,0,0,0,0,0,0,0,0,36,0,27,9
36,0,135,81,0,9,27,255,255,255,255,0,255,0,255,0,255,0,0,0,0,0,0,0,0,45,0,0,27,90,63,45,153,255,63,45,255,54,255,36,255,255,27,255,255,255,9,54,99,0,0,0,0,0,0,0,0,0,0,0,0,144,18,0
180,18,198,0,0,216,9,171,0,255,255,255,255,0,255,255,0,216,9,0,0,0,0,0,0,0,0,0,45,54,18,144,207,54,45,18,126,54,27,255,255,27,255,255,9,9,0,0,255,0,0,0,0,0,0,0,0,0,0,0,18,0,9,27
243,0,0,255,0,255,9,171,255,255,0,0,0,255,255,0,0,0,0,0,0,0,0,0,0,0,0,0,27,63,45,36,90,81,63,255,108,63,255,63,63,255,255,198,255,9,0,255,144,0,0,0,0,36,0,0,0,0,0,0,0,36,0,45
0,255,9,255,255,0,9,243,255,255,255,0,255,0,255,255,255,207,0,0,0,0,0,0,0,0,0,0,18,54,72,171,117,27,54,126,207,54,45,153,255,255,255,189,9,255,0,0,0,81,0,0,0,0,0,0,0,0,0,0,0,27,9,27
0,135,0,0,198,9,225,0,255,225,255,0,0,255,216,0,0,255,0,0,0,0,0,255,0,0,0,0,36,45,54,45,255,255,216,18,27,45,45,162,255,54,255,255,255,9,255,0,255,0,135,0,0,0,0,0,0,255,0,0,0,27,9,18
0,9,54,0,255,126,198,255,0,255,255,255,255,63,225,0,255,171,0,0,0,0,0,0,0,0,0,0,54,18,54,18,54,255,36,18,234,63,255,54,255,63,27,255,255,255,0,0,0,255,0,0,0,0,0,0,0,0,0,0,0,36,90,18
72,255,0,144,9,27,27,255,171,255,255,72,255,189,255,0,0,0,0,0,0,0,0,0,0,0,0,0,27,63,45,153,45,27,9,27,63,153,234,255,255,135,255,255,255,255,255,0,0,0,0,0,0,255,0,0,0,0,0,0,0,9,18,9
81,0,255,9,0,255,255,9,255,255,27,0,255,255,0,0,0,0,0,0,0,0,0,0,0,0,0,0,27,63,54,27,225,207,117,36,45,81,255,153,255,255,252,255,0,126,0,0,243,9,0,0,0,0,0,0,0,0,0,0,0,27,0,9
126,27,0,0,90,0,27,255,255,0,255,255,0,255,0,0,255,0,0,0,0,0,0,0,0,0,0,0,9,72,72,45,90,255,9,36,18,72,255,255,180,255,255,180,9,255,0,0,81,0,207,0,153,0,0,0,0,0,0,0,9,18,9,27
9,255,27,0,18,18,255,225,234,255,0,255,255,0,243,255,0,0,0,255,0,0,0,255,0,0,0,0,9,45,36,255,18,255,9,9,255,162,162,255,255,153,255,189,255,255,0,0,0,0,255,0,0,0,0,0,0,0,0,0,0,9,99,36
0,0,243,0,255,126,255,171,255,0,0,255,0,255,255,0,216,0,0,0,0,0,0,0,0,0,0,27,0,54,45,45,45,255,27,54,45,81,216,255,207,243,255,255,9,255,0,0,0,144,0,99,0,0,0,0,0,0,0,0,18,27,45,9
255,117,144,45,36,255,9,63,9,0,0,255,255,255,255,0,0,255,255,0,255,0,0,0,0,0,0,0,36,72,45,18,36,255,9,90,108,255,255,255,255,135,255,108,18,0,27,0,255,0,0,36,126,0,99,0,0,0,0,0,0,18,36,63
18,255,255,27,81,72,9,255,255,81,255,255,171,255,0,255,0,0,0,0,0,0,255,0,255,0,207,0,9,45,45,189,72,9,117,225,255,90,171,162,255,255,27,255,0,255,9,0,27,0,0,45,0,0,0,0,0,0,0,0,18,0,45,9
9,0,9,9,9,63,54,18,255,207,255,255,255,255,255,255,0,252,0,90,0,0,0,0,0,0,0,0,72,36,54,36,27,255,234,54,18,153,255,255,255,198,255,255,255,207,9,0,0,255,0,0,0,255,0,0,0,0,0,0,45,0,72,0
99,0,255,9,0,54,171,255,18,255,255,0,108,0,255,0,0,255,36,171,0,255,126,0,0,0,0,0,45,18,207,45,216,117,108,27,45,45,255,255,255,255,255,18,9,255,99,126,0,0,0,0,9,0,0,0,0,0,0,0,0,63,18,9
0,9,255,9,0,255,255,9,255,171,9,255,255,255,0,255,255,255,0,0,0,162,0,0,0,0,0,0,27,9,90,198,45,18,144,207,63,255,255,255,255,255,225,18,255,0,0,0,27,0,0,255,255,0,0,0,0,0,0,0,0,225,9,72
0,0,0,171,27,180,255,255,255,255,135,255,0,255,0,255,0,0,0,0,0,0,0,0,0,0,0,0,27,45,27,45,18,255,189,27,180,63,255,255,45,171,255,255,90,0,0,27,255,0,99,0,0,0,0,0,0,0,0,0,0,27,63,27
234,0,0,72,255,189,9,255,255,153,0,255,255,255,108,144,0,0,0,0,0,0,0,0,0,0,0,0,18,45,72,255,45,180,9,252,18,45,255,45,255,255,255,255,255,255,255,0,0,0,0,0,0,0,0,0,0,0,0,0,0,27,9,45
9,0,45,18,255,255,18,255,255,9,0,255,255,0,0,255,0,0,0,0,0,126,0,0,0,0,36,0,0,27,36,36,108,9,9,45,255,234,255,45,225,255,63,255,18,255,0,255,81,0,0,0,0,0,0,0,0,0,0,0,27,0,198,18
144,0,9,108,0,255,72,18,171,9,27,0,0,0,255,255,255,0,0,0,0,0,0,0,0,0,0,54,0,27,45,63,117,255,126,36,36,255,255,255,117,255,27,255,255,9,0,0,0,255,255,0,255,0,0,0,0,0,0,0,0,9,27,9
255,0,0,63,72,255,0,255,255,225,255,255,255,0,255,0,255,0,0,255,0,0,54,0,0,0,0,0,45,27,162,90,255,72,18,9,126,63,255,54,255,252,54,255,255,255,0,9,255,255,0,0,0,0,0,0,0,0,0,0,0,18,63,36
117,255,0,0,255,0,72,255,252,255,255,0,255,0,255,255,0,0,0,0,0,255,0,0,0,0,0,0,27,63,255,18,54,90,18,18,198,27,255,255,255,234,255,9,252,0,255,0,0,255,0,180,0,9,255,0,0,0,0,0,9,18,0,9
45,255,0,0,234,255,9,255,255,255,255,0,0,255,117,255,0,0,0,0,0,0,189,0,0,0,0,0,18,45,45,90,36,72,18,27,225,255,255,255,27,27,255,189,27,255,126,0,0,0,0,0,0,0,0,0,0,0,0,0,0,9,9,72
72,162,144,9,18,234,255,255,171,0,255,0,126,0,255,0,0,0,0,255,0,144,0,255,0,0,0,0,27,36,54,36,153,27,63,27,243,255,255,117,255,90,255,198,255,255,0,81,255,153,45,0,0,0,0,0,0,0,0,0,0,27,18,0
0,255,63,0,9,255,9,9,0,255,255,255,0,0,0,0,255,108,255,255,0,0,0,0,0,0,0,0,45,108,63,171,9,18,27,72,207,255,144,255,36,255,207,252,0,255,255,18,0,0,255,0,0,45,0,0,255,0,0,9,0,9,9,27
