48,0,184,144,84,188,184,184,188,152,0,120,120,188,0,68,176,0,0,0,0,0,0,0,84,0,0,0,12,48,20,96,28,12,112,184,76,40,40,168,76,72,172,172,108,164,184,112,180,0,0,164,0,0,184,0,0,0,0,0,0,52,16,12
0,184,0,156,0,188,184,16,156,0,0,184,136,144,188,0,0,188,188,0,68,0,0,0,0,0,0,0,12,24,104,40,56,24,0,12,28,180,148,128,188,184,180,80,180,104,0,184,44,0,28,0,0,0,0,0,0,0,0,0,24,0,24,4
8,0,0,28,24,12,96,180,188,160,72,0,96,128,0,188,184,0,0,0,0,0,184,0,0,0,0,0,20,56,20,72,12,4,32,24,4,28,56,176,96,128,184,112,188,32,4,40,0,0,0,0,184,0,188,0,0,0,0,0,8,0,8,72
4,84,184,0,4,4,164,188,20,184,188,184,148,0,0,0,92,0,0,0,188,0,184,0,0,0,0,0,20,12,28,88,120,20,8,24,184,36,116,28,184,28,68,184,184,184,4,0,60,180,0,172,0,0,180,0,0,0,0,0,0,4,40,16
180,0,136,64,148,188,8,184,184,188,184,156,180,0,0,0,0,188,40,0,0,0,0,0,0,0,132,12,0,20,32,4,160,4,20,104,16,164,160,48,184,184,132,156,184,4,20,36,144,60,0,156,0,0,0,0,0,0,0,0,16,12,0,44
0,120,164,176,0,0,188,184,180,140,100,188,0,188,136,188,0,0,0,104,0,0,0,0,0,0,0,0,24,8,32,12,16,12,184,20,144,76,100,164,188,188,12,36,180,0,76,0,0,0,0,0,0,0,0,0,0,0,0,120,0,12,24,8
56,0,0,180,184,4,84,176,68,80,188,188,128,140,0,0,188,0,188,0,0,0,0,172,0,84,0,0,8,20,16,40,8,12,12,20,156,100,176,68,188,128,184,180,76,4,184,168,0,0,0,0,0,0,0,172,0,0,0,0,0,16,40,16
0,0,184,0,184,184,188,184,32,8,188,76,124,0,128,0,0,0,140,0,180,0,184,0,0,0,0,0,24,16,92,32,184,8,4,84,156,120,20,156,84,4,164,184,104,4,172,0,0,156,56,184,0,0,184,184,0,0,0,4,0,0,4,68
4,64,0,72,140,188,44,188,184,156,84,104,180,148,0,112,0,0,0,0,92,0,184,0,0,84,0,8,0,28,20,104,20,184,52,12,16,152,184,128,32,68,184,184,184,100,188,0,132,0,0,0,0,0,48,0,0,0,0,0,0,4,16,4
4,0,4,120,184,180,164,188,188,4,88,184,100,148,12,0,16,0,0,144,0,0,188,92,0,0,0,12,0,36,24,12,44,12,4,148,32,152,184,16,168,148,128,8,148,184,184,188,0,184,180,0,0,0,0,148,0,0,52,0,0,12,12,8
112,184,0,36,0,184,184,184,128,188,88,168,0,152,88,160,184,0,0,0,104,0,0,0,0,0,0,0,8,36,28,92,96,28,136,48,48,20,184,16,152,104,84,0,40,168,76,84,188,0,0,184,0,0,184,0,44,0,0,0,0,12,40,4
4,184,144,4,176,184,188,188,164,160,92,48,188,0,12,160,112,60,0,0,184,168,0,0,0,0,0,4,0,36,84,80,8,12,12,12,92,100,92,184,172,184,116,80,176,140,168,0,0,188,0,60,0,0,0,0,0,0,0,0,0,32,12,4
52,24,100,16,184,184,4,180,24,8,188,188,152,124,36,0,0,0,0,0,0,0,184,0,0,0,0,0,24,24,20,184,84,32,56,72,184,12,88,80,168,116,88,180,0,184,8,0,184,184,0,156,0,0,0,0,0,0,0,0,0,12,12,24
28,0,8,184,152,28,188,184,48,188,88,0,0,184,64,0,0,0,0,0,0,0,0,0,0,0,0,0,24,12,28,40,20,24,172,64,32,60,96,184,112,88,20,184,184,4,20,180,108,0,0,168,0,0,0,0,48,140,0,0,0,20,8,16
4,4,128,184,0,4,184,188,188,104,124,104,180,60,112,0,0,176,164,164,0,0,0,0,0,0,12,0,36,80,28,20,20,32,56,12,144,112,84,100,184,76,164,184,20,8,148,20,0,0,0,0,0,0,0,0,0,0,0,0,0,4,32,12
120,0,0,8,4,0,92,184,188,184,188,188,184,92,92,188,0,0,0,0,188,0,0,0,0,0,0,0,8,20,64,12,12,76,108,152,164,20,176,184,44,184,88,180,100,188,176,0,0,0,0,0,0,148,176,0,0,0,0,0,0,8,0,32
116,88,0,72,0,80,188,8,184,188,180,164,124,28,188,0,176,0,0,0,144,168,188,0,0,52,0,0,4,68,40,24,148,8,184,96,152,92,20,60,176,100,184,48,64,0,68,184,0,40,168,48,0,0,68,0,0,0,0,0,0,4,16,12
40,0,168,144,20,188,4,188,80,188,20,156,188,176,184,84,184,100,0,0,0,0,100,0,0,0,0,0,12,28,56,16,104,60,148,44,160,72,184,100,184,180,92,132,12,184,4,60,36,0,0,0,0,184,0,184,0,0,0,0,0,24,12,12
180,156,148,4,12,68,184,64,184,184,188,188,156,172,184,68,184,0,0,0,0,0,0,76,0,0,0,0,0,20,24,16,120,164,44,16,28,132,28,132,188,116,12,180,12,4,0,48,64,0,168,0,0,0,176,0,180,0,0,0,0,12,0,8
12,0,0,176,56,132,4,4,188,164,180,0,0,188,184,188,184,0,0,0,0,0,0,0,0,0,0,0,12,24,20,4,84,56,68,148,60,184,112,132,100,140,184,40,4,184,96,64,0,0,52,144,0,184,0,0,0,0,0,0,12,0,20,80
4,0,20,148,0,180,184,188,188,0,188,188,176,180,0,128,0,0,184,100,0,0,0,152,0,0,0,0,20,20,56,16,28,120,36,176,44,184,148,28,124,88,156,144,4,148,100,48,0,0,0,172,0,0,4,0,0,0,0,0,0,16,12,12
8,0,28,188,152,188,20,56,4,12,88,4,188,120,188,0,188,0,0,0,0,0,168,0,0,0,0,0,8,84,12,24,40,12,108,104,56,24,104,108,28,120,188,76,8,0,116,188,188,0,0,180,0,32,0,0,0,28,0,0,4,12,12,28
0,180,120,4,20,92,188,184,188,88,24,4,124,188,0,132,0,0,0,188,0,0,0,0,0,0,0,0,4,32,28,40,12,136,84,156,12,28,40,184,140,144,180,188,80,0,0,0,168,0,0,0,0,32,0,140,0,0,0,4,0,20,8,8
120,4,56,4,0,0,160,188,0,4,188,0,184,92,60,172,0,0,0,0,92,176,0,188,0,0,0,0,4,20,60,20,116,4,32,8,188,44,184,20,156,56,80,188,184,0,4,0,0,0,0,0,180,0,0,0,0,0,0,0,4,12,20,8
184,4,8,0,0,184,188,188,24,184,156,184,0,184,88,0,0,0,188,108,0,0,0,0,0,0,0,8,0,44,20,24,8,4,104,164,24,184,112,32,184,140,8,0,188,144,184,0,0,0,184,164,0,72,156,0,0,0,0,0,0,12,12,0
4,116,120,184,64,184,132,188,184,184,188,188,0,0,128,108,0,168,44,0,156,0,0,0,0,0,0,16,0,20,12,136,16,56,148,16,32,100,184,100,184,20,180,12,48,188,0,48,176,48,0,0,0,0,44,0,0,0,0,44,0,12,8,20
128,0,4,92,188,176,184,184,188,184,84,136,68,0,52,176,140,168,108,0,0,0,56,0,0,0,0,0,24,28,16,20,8,0,72,24,24,152,28,188,176,20,184,180,12,184,164,0,0,0,12,112,0,0,0,0,140,0,0,0,0,20,12,0
0,92,4,4,148,184,184,48,188,184,188,0,84,188,100,0,172,0,0,0,0,0,0,68,0,0,0,0,40,8,24,16,184,4,8,8,20,28,176,80,20,184,184,168,168,188,0,0,0,0,0,0,0,172,0,0,0,0,0,0,0,12,12,84
0,0,0,4,0,8,184,188,8,188,184,176,76,112,0,80,184,132,184,0,0,144,0,0,0,0,0,0,12,20,28,24,4,16,132,100,168,20,32,180,64,176,132,116,184,188,188,104,0,0,0,88,0,0,100,0,0,0,0,0,0,16,40,28
156,108,52,4,180,152,184,188,180,100,0,0,188,112,164,0,188,0,188,40,0,0,0,0,0,0,0,0,12,28,12,172,92,16,72,4,12,88,56,144,124,88,184,60,12,8,184,44,0,40,172,184,88,0,0,0,0,0,0,0,4,16,24,184
20,148,0,136,4,188,108,8,180,188,188,12,84,152,120,0,8,188,0,0,0,0,0,72,0,0,80,0,8,88,16,36,4,12,72,8,44,92,56,32,108,188,184,16,168,188,0,72,64,32,0,0,36,0,0,184,144,0,0,0,0,4,16,20
0,12,0,88,0,4,180,184,184,188,188,188,188,0,0,0,0,0,0,0,0,0,0,0,64,0,0,0,12,20,28,180,92,8,4,12,24,160,136,40,148,116,180,180,188,160,48,8,4,0,0,0,0,188,0,0,0,0,0,0,12,0,12,28
0,68,148,188,0,4,160,188,72,184,184,96,0,128,0,0,0,140,0,0,0,0,0,0,0,120,0,0,12,20,24,12,92,8,4,136,24,116,120,48,96,176,188,184,12,156,0,76,4,0,36,0,0,0,0,0,0,0,0,0,8,0,20,20
0,56,4,184,184,4,92,184,132,184,180,188,0,188,188,0,0,0,0,92,0,0,0,0,0,0,0,0,8,28,28,148,16,12,8,184,16,176,184,104,184,180,88,12,184,76,120,0,0,0,0,184,0,40,0,160,60,0,0,0,0,12,40,8
12,56,132,4,184,184,188,8,172,184,124,72,188,0,184,188,0,168,0,0,0,0,0,0,0,0,0,8,28,0,84,76,8,4,4,112,24,44,176,88,180,156,172,184,104,0,4,36,188,0,0,0,0,0,0,0,0,0,0,0,8,4,12,4
20,8,0,188,188,152,12,188,176,180,188,12,0,188,0,112,184,0,0,0,188,0,0,0,0,0,120,0,28,12,28,100,184,12,104,20,36,52,184,160,144,148,180,120,168,188,0,0,0,36,140,176,0,0,0,0,0,0,0,0,0,12,12,4
4,0,60,0,8,128,188,180,188,184,12,180,120,148,0,96,188,0,0,0,0,0,0,0,0,0,0,0,36,8,20,104,12,112,36,8,80,184,184,132,16,164,48,180,52,0,0,0,160,0,0,0,36,144,12,0,0,0,0,0,0,12,4,4
20,44,4,184,8,184,180,12,164,188,96,180,188,116,188,0,184,0,0,52,120,0,0,0,0,0,0,0,24,12,20,12,76,64,36,184,168,112,24,184,28,184,184,156,172,184,116,0,12,0,0,0,0,0,0,0,0,0,0,0,4,0,12,32
4,52,0,0,32,4,184,184,188,164,188,184,108,120,0,0,92,0,0,0,0,0,156,0,0,0,0,0,20,20,40,104,24,116,60,144,24,188,140,100,156,84,88,184,64,84,164,112,56,0,0,0,0,0,0,184,0,0,0,0,0,16,8,12
12,4,0,156,12,184,188,184,184,92,184,40,104,136,188,8,0,0,0,0,0,0,0,0,0,0,0,0,20,20,20,28,184,16,36,188,20,108,28,184,184,184,84,184,176,8,84,164,184,0,0,0,0,4,0,0,0,0,0,0,0,20,32,16
4,0,12,4,48,188,184,188,84,188,0,188,184,0,188,0,0,120,0,0,0,0,188,0,76,0,0,0,4,36,100,32,8,80,16,52,16,52,176,76,152,120,180,152,140,12,188,164,0,48,168,172,172,0,0,0,0,0,0,0,4,8,16,24
0,0,0,188,184,184,176,180,0,0,184,24,60,0,120,88,0,0,184,188,188,0,0,0,100,0,0,24,0,16,12,112,16,32,16,20,72,180,104,112,156,184,188,152,16,4,0,36,0,40,112,0,0,20,0,0,0,0,0,0,8,16,16,4
0,0,0,48,0,164,188,188,184,188,36,0,188,0,0,184,184,0,0,0,0,0,0,0,0,0,0,0,32,16,20,24,164,32,8,40,40,100,28,32,188,184,180,180,112,8,0,0,40,0,176,0,0,0,56,76,0,0,184,0,0,4,16,8
36,20,92,4,144,4,188,104,188,0,172,32,12,168,0,104,0,184,0,0,0,100,0,80,120,0,0,0,40,24,32,28,20,40,12,16,60,88,188,52,124,188,140,12,156,116,4,60,0,0,188,0,0,0,52,0,0,0,0,0,8,0,20,4
0,0,24,172,48,148,32,80,0,188,188,184,0,188,180,48,152,0,68,0,0,0,0,0,0,0,0,16,0,92,28,8,8,12,108,48,164,28,124,88,124,124,152,188,12,92,0,148,0,184,44,0,32,0,0,0,0,0,0,0,0,8,16,4
184,0,0,0,8,24,188,188,0,0,188,188,168,0,0,0,0,0,0,104,0,44,0,0,0,0,0,0,24,20,16,184,20,8,4,4,40,184,32,188,140,188,188,176,4,188,0,112,0,0,0,0,152,0,28,0,0,0,0,0,12,4,0,4
4,0,0,8,176,68,20,184,188,168,188,0,188,188,88,188,0,176,0,0,0,0,0,0,0,0,0,0,12,44,28,12,140,108,32,8,80,80,20,140,160,56,92,188,0,0,188,0,0,0,184,0,0,0,0,0,4,0,0,0,0,20,8,20
4,0,0,80,172,52,188,0,84,0,188,184,0,0,32,0,144,0,0,0,0,84,4,0,0,0,180,0,24,28,36,116,28,36,12,92,24,100,80,176,100,64,96,184,68,160,188,156,0,0,0,184,0,0,0,0,0,0,0,0,0,20,32,32
4,12,4,20,164,184,184,188,188,180,188,44,0,144,0,0,0,128,0,0,100,0,0,184,0,0,0,0,24,20,16,168,24,12,4,12,20,96,176,128,100,152,92,112,188,188,0,28,0,64,0,0,0,184,0,44,0,0,0,0,0,16,16,16
4,20,64,0,188,148,168,40,4,80,160,184,0,0,136,0,168,188,0,0,0,0,0,184,0,0,0,0,8,48,36,32,76,20,8,8,148,180,188,184,184,32,96,20,4,84,184,80,88,56,44,0,12,0,4,0,0,140,0,0,20,0,24,32
