255,16,255,255,255,48,136,255,255,255,8,255,240,152,255,0,255,0,0,0,255,248,216,0,0,0,0,0,40,56,255,192,72,8,24,104,255,40,255,56,255,255,255,255,255,255,255,0,0,0,0,0,255,0,0,0,0,0,0,0,0,0,48,72
0,160,255,8,255,255,255,255,160,255,255,255,144,248,255,255,0,255,0,0,0,64,255,0,0,0,0,40,64,0,255,32,192,24,255,24,255,48,168,184,255,16,255,168,255,255,255,32,0,255,255,0,192,0,0,192,0,0,0,0,0,16,40,0
0,168,255,0,255,255,255,255,255,255,240,255,255,0,216,0,255,0,0,0,0,0,0,0,255,0,0,0,32,64,144,255,32,56,24,32,128,152,255,255,255,240,168,255,255,255,0,0,136,255,0,0,0,0,0,0,0,0,168,0,0,16,24,16
112,184,255,0,255,8,255,40,255,0,255,216,255,232,0,200,0,255,0,255,0,0,0,0,0,0,0,0,24,80,48,80,184,8,255,8,255,64,240,168,255,192,120,255,255,0,255,255,255,255,0,0,0,0,88,0,0,0,0,0,0,48,16,24
255,8,255,16,255,255,255,255,0,136,184,255,255,216,255,0,0,255,0,0,0,0,240,0,0,200,0,24,0,32,255,40,48,200,232,128,24,255,128,255,255,255,200,255,255,8,255,0,255,255,0,255,0,216,0,0,0,0,0,0,0,32,8,80
0,64,0,240,255,255,255,255,255,32,152,255,255,255,255,0,64,255,0,0,0,0,168,255,56,0,0,24,0,56,56,56,104,255,240,255,32,40,56,255,255,255,40,255,8,255,255,80,0,0,152,255,0,255,0,0,0,0,0,0,0,24,24,40
32,8,0,136,255,255,255,255,255,255,255,255,0,40,255,255,0,0,96,0,0,255,0,48,0,0,8,0,0,88,255,80,64,16,192,255,40,120,255,255,80,104,255,255,255,0,255,48,255,0,0,0,0,0,0,8,0,0,0,0,0,72,56,40
64,0,128,255,255,255,56,255,255,255,255,255,255,0,255,255,0,0,0,0,64,208,0,0,0,0,0,0,24,40,48,24,255,16,64,255,24,56,248,255,32,160,255,255,255,255,32,255,136,255,0,72,0,0,0,0,0,0,0,0,0,32,32,56
0,255,8,255,255,8,255,255,255,160,96,0,176,255,255,0,0,240,255,0,0,0,0,0,0,0,0,40,0,16,40,64,8,40,24,32,255,112,144,152,255,255,255,255,255,120,255,255,0,0,0,0,0,0,0,56,0,0,0,0,56,0,80,24
8,8,255,8,0,8,255,255,255,152,0,255,255,255,176,255,0,255,255,0,0,0,0,0,0,0,48,0,0,40,40,255,80,16,255,32,48,144,224,255,255,184,255,184,8,0,255,255,255,0,255,0,0,255,0,0,0,0,0,0,16,0,56,32
152,0,208,255,24,255,255,255,255,255,184,255,0,255,0,0,0,255,0,0,0,0,255,0,0,255,0,0,24,248,64,184,208,16,24,64,40,184,255,168,255,255,255,255,40,0,255,0,255,0,0,0,0,0,0,0,0,0,0,0,0,56,40,24
0,255,8,8,72,0,255,255,24,255,56,255,255,255,255,255,0,168,0,120,0,0,0,0,0,0,0,16,0,32,72,96,48,255,24,255,32,48,255,40,255,255,255,255,255,255,255,255,0,112,0,0,0,0,0,0,0,0,0,0,0,40,112,32
0,255,112,0,255,0,0,255,255,255,255,0,32,240,255,255,255,255,255,0,255,255,0,0,255,0,0,0,40,48,255,40,168,255,32,64,104,56,56,255,255,184,255,255,0,0,255,184,0,0,0,0,0,255,224,0,0,0,0,0,0,32,64,16
112,0,0,0,96,8,255,255,255,255,255,255,255,255,0,0,0,0,0,0,40,0,0,0,0,0,0,0,24,48,48,48,255,40,64,136,176,104,144,160,255,144,255,255,255,255,8,255,0,0,0,0,0,0,0,0,0,0,0,64,48,16,24,8
0,8,0,0,240,255,0,255,255,144,255,0,136,0,0,255,0,0,136,0,0,0,0,0,0,0,0,0,8,56,64,32,24,16,8,32,48,56,208,96,255,255,24,255,255,255,88,255,255,0,0,0,0,0,0,0,0,0,0,0,0,40,0,24
160,48,0,72,255,255,0,255,255,255,255,255,0,255,248,0,255,0,0,0,0,0,255,0,0,0,0,24,0,56,80,80,40,184,112,72,64,136,255,152,24,255,224,208,255,255,255,8,0,0,0,0,0,0,0,0,0,0,0,0,0,48,16,128
96,255,0,0,255,16,255,255,255,255,112,168,40,255,255,255,0,0,0,32,40,0,0,0,0,0,0,0,16,40,48,224,144,24,255,48,72,48,248,255,255,240,255,255,16,255,0,0,0,0,136,0,80,0,0,0,0,0,0,0,48,0,64,16
8,255,0,255,16,80,255,255,255,255,64,168,255,255,24,255,0,0,0,255,0,0,0,0,0,0,0,0,48,40,104,48,255,255,255,24,136,160,192,224,24,255,255,176,255,255,0,255,255,0,0,0,0,0,0,0,0,0,0,40,0,0,56,255
0,8,32,32,56,120,255,255,255,255,255,255,40,0,0,0,255,0,0,0,0,0,255,0,0,0,0,0,32,48,255,16,24,255,80,128,80,255,240,224,255,88,255,255,255,255,0,255,112,64,0,0,0,255,0,0,0,0,0,0,0,56,48,48
8,255,0,0,255,24,255,255,255,168,255,255,0,255,40,0,184,255,0,0,0,255,16,0,0,0,0,0,56,64,40,56,120,8,40,136,152,48,255,255,255,255,184,152,255,255,255,0,255,0,0,255,0,0,0,0,0,0,0,0,0,40,40,0
24,0,8,255,255,255,255,255,255,168,255,8,0,24,0,0,48,0,255,0,0,0,0,0,255,0,0,0,16,64,176,120,56,208,184,96,192,64,56,248,255,255,160,255,255,255,0,255,8,0,8,255,0,0,0,0,0,0,0,0,40,0,40,255
255,255,216,232,255,8,160,48,24,168,255,0,255,32,0,0,255,255,0,0,255,255,0,0,112,0,0,0,16,120,40,24,32,224,255,255,255,255,136,216,40,255,168,232,255,255,200,255,255,64,255,0,0,255,0,0,0,0,0,0,0,56,64,255
0,0,255,0,255,255,200,255,255,255,255,255,255,96,0,144,255,0,0,0,0,0,0,0,0,0,0,0,40,40,32,56,104,255,16,24,176,88,240,255,255,255,255,24,255,255,255,192,24,0,0,0,255,0,104,0,0,0,0,0,0,56,48,48
8,0,0,16,152,255,255,64,255,255,255,208,255,0,112,0,64,255,0,0,0,0,0,0,0,0,0,16,0,40,104,80,72,96,24,184,56,136,88,112,255,255,255,192,8,255,255,0,255,0,0,0,192,0,0,0,0,0,0,0,0,48,24,24
255,16,255,0,96,8,0,255,255,255,255,0,255,208,0,0,0,0,0,255,0,0,0,0,0,0,0,0,40,48,40,255,16,24,255,16,32,80,255,255,255,255,184,255,255,255,0,0,48,0,0,0,0,0,0,0,0,0,0,8,0,64,0,255
176,8,0,48,24,208,255,255,255,160,255,152,255,24,255,255,0,0,0,0,0,0,0,0,0,0,0,0,24,64,176,40,40,216,40,112,184,255,255,248,208,255,255,184,255,16,255,255,255,0,0,0,0,0,0,0,0,0,0,56,0,8,16,8
0,8,255,0,0,255,48,255,112,255,255,0,255,255,255,8,0,0,0,0,0,0,0,0,0,255,0,0,40,40,40,48,32,8,255,255,8,48,255,255,255,232,40,255,152,88,255,0,0,255,0,0,0,0,0,0,255,0,0,0,32,0,80,40
200,0,0,0,255,255,255,128,255,255,255,0,255,0,168,0,255,0,0,0,0,0,255,0,0,0,0,0,48,64,168,255,104,0,24,240,32,112,96,255,112,255,255,16,255,255,255,112,208,255,0,0,0,255,0,0,0,0,0,0,0,24,40,8
8,0,184,0,255,255,255,255,255,152,255,255,0,0,0,8,0,255,255,0,0,0,0,0,0,255,0,0,56,112,56,168,192,40,200,232,40,255,184,255,255,255,152,255,128,255,0,0,0,255,128,0,0,0,0,0,0,0,0,0,0,40,8,40
24,255,8,200,255,255,255,136,255,255,240,0,255,0,255,255,0,0,255,184,0,0,0,0,0,0,0,0,40,64,56,112,112,16,56,255,255,88,255,56,255,255,255,176,255,104,0,255,255,72,0,0,0,0,0,0,0,0,0,0,0,16,40,8
8,0,255,255,255,255,8,255,8,255,255,255,128,255,208,0,216,168,255,0,255,208,0,0,0,0,0,0,56,40,32,112,224,48,240,168,56,80,255,255,255,88,168,255,40,255,8,8,0,0,0,255,0,0,255,0,255,0,0,0,0,24,64,0
248,8,0,255,255,0,8,255,255,255,255,40,255,255,255,0,255,0,0,0,0,0,0,224,0,0,0,64,56,48,40,56,224,255,24,255,16,255,255,176,255,255,168,255,255,255,0,0,255,0,255,0,0,0,0,0,0,0,0,0,0,48,24,8
176,0,0,168,0,255,255,152,255,255,255,240,144,255,255,0,0,0,96,0,0,0,0,0,0,0,0,0,56,112,56,40,48,24,24,255,88,255,184,96,120,255,24,32,255,255,0,208,0,255,144,0,8,255,0,0,0,0,0,0,255,8,16,32
0,255,0,160,56,255,8,255,255,255,255,152,128,56,255,255,0,0,255,255,216,16,0,0,0,0,0,0,32,48,255,56,168,24,112,104,24,88,80,192,255,168,255,160,255,255,0,48,0,255,0,0,0,112,0,0,0,0,0,0,0,24,48,40
8,0,0,8,255,255,255,24,255,255,255,255,0,255,255,0,0,0,0,0,0,0,0,0,0,0,0,0,40,56,40,80,255,168,200,255,16,255,255,255,128,32,255,8,255,255,40,112,255,192,0,0,0,0,0,0,0,0,0,0,0,32,48,0
16,144,136,255,0,56,255,255,232,255,152,8,255,0,255,255,0,0,255,0,0,0,0,255,0,160,0,0,224,24,48,80,24,255,8,24,56,64,88,255,40,255,16,255,200,255,8,136,8,255,0,160,255,0,0,0,0,0,0,0,0,32,32,48
8,8,255,8,128,255,0,152,255,144,255,0,255,255,0,0,255,0,0,0,255,240,0,0,0,0,0,0,64,72,48,232,255,176,0,255,40,88,152,255,255,255,32,255,255,255,0,224,0,80,0,0,0,0,0,0,0,0,0,0,40,0,64,8
80,0,0,0,255,255,255,255,32,144,255,24,0,0,255,255,0,0,216,0,0,0,0,0,0,0,0,24,168,24,80,32,48,8,248,16,48,255,48,48,255,255,255,255,8,255,72,0,32,0,0,0,0,0,0,255,0,0,0,0,0,40,16,96
8,0,0,240,255,255,8,255,255,255,255,0,240,255,255,128,136,216,16,255,0,0,255,0,0,0,0,40,0,56,56,24,48,255,255,160,136,216,255,112,255,255,160,255,255,255,0,255,255,0,0,0,0,255,0,0,0,0,0,0,0,0,8,40
255,136,0,255,144,255,255,8,0,8,255,255,0,255,255,112,0,0,0,0,0,0,120,0,0,0,0,224,32,32,56,40,255,56,224,24,255,40,168,64,112,255,200,255,0,255,255,0,176,152,255,0,255,0,0,0,72,0,0,0,0,32,16,40
240,0,0,0,255,8,192,255,8,168,255,255,255,255,255,0,0,24,0,0,0,0,0,232,0,0,0,0,40,80,80,168,255,255,16,144,152,255,40,255,152,255,255,24,255,255,24,0,255,0,0,0,0,0,0,0,0,0,0,16,8,24,0,8
255,128,8,255,255,216,120,255,255,240,255,0,168,255,0,0,0,248,0,104,0,255,200,0,0,255,0,64,40,16,184,255,96,192,32,8,24,255,160,255,255,248,255,32,152,255,0,0,255,128,0,255,0,0,0,0,0,255,0,0,0,16,24,24
0,32,8,255,255,8,0,168,255,255,255,0,255,255,0,200,255,255,0,0,255,0,0,208,0,0,0,40,0,80,40,40,184,16,48,255,255,255,255,255,255,32,255,255,168,255,255,0,0,8,24,0,0,0,0,0,0,0,0,0,0,8,0,24
96,0,0,40,0,0,255,255,255,255,8,255,255,112,255,64,255,0,0,0,0,192,0,0,0,0,0,0,40,48,24,128,112,112,192,255,24,255,255,80,56,255,255,8,128,255,0,255,80,184,0,56,0,0,0,0,136,0,0,0,0,16,16,32
0,152,255,0,8,224,56,255,255,255,255,255,255,0,0,128,255,0,0,0,0,0,0,0,0,0,0,0,56,32,40,255,96,56,24,0,255,144,160,40,255,255,8,255,255,80,216,255,0,0,0,0,0,0,0,0,0,0,0,0,0,48,24,40
240,104,8,255,104,8,255,255,0,255,255,255,168,255,255,255,0,0,255,0,255,0,112,0,0,0,0,24,0,48,208,72,255,32,168,255,16,40,255,72,255,255,248,255,8,255,0,0,0,0,0,255,0,0,0,0,0,0,255,0,0,64,24,56
16,0,208,8,40,255,255,255,255,255,255,255,96,255,255,0,0,255,0,0,0,0,0,0,0,0,0,0,40,88,64,56,40,24,24,255,255,255,255,255,255,56,255,255,184,255,24,0,0,255,0,255,0,0,255,0,0,0,0,0,8,24,8,56
24,255,255,255,0,255,144,24,255,255,255,0,88,255,255,0,255,128,0,0,8,0,0,0,0,0,0,0,24,64,255,32,40,24,216,96,80,64,80,192,255,200,255,255,255,255,112,24,255,255,255,0,0,0,0,0,0,0,0,144,0,48,40,8
8,88,0,255,255,255,255,255,255,255,255,255,224,255,255,0,136,0,255,0,0,0,0,0,0,0,0,0,32,16,255,16,32,255,136,184,32,255,56,56,255,255,232,255,255,255,8,88,0,0,0,0,255,255,0,0,255,0,0,0,8,16,64,40
24,255,0,0,224,255,16,255,255,136,255,255,24,240,255,0,0,0,0,0,0,144,0,0,0,0,0,0,16,64,56,255,56,176,16,96,24,48,200,56,255,255,255,255,160,224,255,0,0,88,0,0,0,0,0,0,0,0,0,0,24,0,64,255
