0,84,0,0,0,0,6,84,255,0,255,0,0,0,0,0,0,0,0,0,0,0,0,0,0,0,0,0,30,18,30,42,0,6,6,6,30,30,42,42,42,255,12,18,6,0,6,0,255,0,0,0,0,120,0,0,0,0,0,0,0,18,30,30
0,12,0,0,0,6,252,138,6,0,12,0,255,0,210,0,0,0,0,0,0,0,0,0,0,0,0,0,12,24,42,72,12,12,0,12,30,18,42,72,30,42,102,0,6,6,0,126,0,0,0,0,0,255,0,0,0,0,0,0,6,6,18,6
0,0,0,240,12,198,6,12,6,234,0,0,0,255,0,0,144,0,0,0,0,0,0,0,0,0,0,0,18,12,6,12,36,18,6,18,36,24,60,30,36,24,216,6,30,0,0,18,0,0,0,0,0,0,0,0,0,0,0,6,12,6,0,6
0,0,0,0,42,255,156,0,6,6,114,6,0,0,6,0,0,0,72,0,0,0,0,0,0,0,0,0,24,36,42,12,30,12,36,18,12,18,72,42,144,30,156,72,0,30,0,228,0,0,0,0,0,0,0,0,0,0,0,6,0,0,6,6
90,0,0,0,6,6,0,6,0,6,0,255,0,0,255,0,0,0,0,0,0,0,0,0,0,0,0,0,18,42,42,18,24,12,6,24,18,180,90,48,42,18,12,24,6,114,138,255,0,0,0,0,0,0,0,0,0,0,0,0,0,12,12,6
0,84,114,0,0,6,255,6,6,0,0,0,0,0,0,0,0,0,0,0,0,0,0,0,222,0,0,0,12,12,18,18,18,18,0,12,18,30,18,42,78,114,240,12,6,0,0,0,0,0,0,0,0,0,0,0,0,0,0,0,0,18,6,0
18,0,0,0,0,96,6,12,0,12,255,0,255,0,0,0,0,0,0,0,0,0,0,0,0,0,0,18,0,42,30,18,18,18,6,42,42,24,30,42,255,255,6,18,6,96,0,0,0,0,0,0,0,0,0,0,0,0,0,0,6,12,6,18
0,90,0,0,0,36,0,18,6,0,255,0,0,0,0,0,0,0,0,0,255,0,0,0,0,0,0,0,12,36,30,30,24,6,24,6,156,24,48,18,36,30,12,114,12,0,12,6,0,0,0,150,0,0,0,0,0,0,0,0,6,18,18,0
6,102,0,0,0,204,0,6,0,6,0,6,144,0,0,0,0,0,0,0,0,0,0,0,0,0,0,0,18,30,24,18,18,6,6,18,24,24,18,36,36,60,30,12,12,0,0,168,0,0,0,0,0,0,0,0,0,0,0,0,0,24,12,0
84,0,0,12,0,0,90,24,12,0,0,0,6,0,0,0,0,0,0,0,0,0,0,0,0,0,0,0,18,30,18,30,18,12,12,12,18,18,42,30,24,36,24,84,6,0,18,0,0,0,0,0,0,0,0,0,0,0,0,0,0,6,18,12
0,36,0,108,0,102,0,30,0,0,0,0,0,0,0,0,0,0,0,0,0,120,0,0,0,0,0,6,0,24,42,36,18,30,18,18,12,30,24,42,42,36,18,6,96,6,0,0,0,0,0,0,0,0,0,6,0,0,0,24,0,18,0,6
0,96,0,0,18,18,6,0,0,0,0,0,0,0,0,0,0,0,0,0,0,0,0,0,0,0,0,30,24,0,18,6,42,24,18,18,18,30,42,24,18,18,78,24,6,0,6,0,0,0,0,0,0,0,0,0,0,0,0,0,18,0,6,0
0,42,0,12,6,0,6,12,6,156,12,0,0,0,0,0,0,0,0,0,0,0,0,0,0,0,0,0,42,18,30,24,6,18,18,18,36,24,30,24,66,30,48,6,12,6,0,18,0,0,0,0,0,0,0,0,0,0,0,0,0,0,6,6
72,0,0,6,0,120,0,60,0,6,0,0,0,0,0,0,180,0,0,0,0,0,0,0,0,0,0,18,0,12,30,12,60,6,18,30,24,24,36,84,78,24,30,18,18,12,0,6,0,0,0,0,0,0,0,0,0,0,0,0,0,12,12,0
0,0,0,0,24,0,24,12,255,0,180,0,0,0,255,0,0,0,0,0,0,0,0,0,0,0,0,12,0,42,24,60,30,6,6,24,72,42,18,54,222,60,6,222,12,6,18,0,0,0,18,0,0,0,0,0,0,0,0,0,0,6,6,0
6,0,0,0,6,6,12,6,6,255,156,12,0,0,0,0,0,0,0,0,0,0,0,0,0,0,18,0,18,48,18,60,24,18,12,6,18,42,78,36,48,30,30,6,0,6,12,0,0,0,0,222,0,0,0,0,0,0,0,0,6,6,18,6
12,0,0,192,0,18,6,6,6,0,0,0,255,210,0,0,255,0,0,0,0,0,0,0,0,0,0,30,18,0,36,24,24,12,6,12,24,168,30,18,24,18,6,6,24,30,0,0,0,0,0,0,0,0,0,0,0,0,0,0,0,6,18,6
0,6,0,0,0,102,0,96,0,6,6,120,0,0,0,0,0,0,0,0,0,0,0,0,0,0,0,0,12,30,24,30,54,18,6,30,12,24,72,30,36,84,60,192,6,12,0,0,0,0,0,0,0,0,0,0,6,0,0,0,12,12,6,6
0,0,90,0,0,0,0,0,18,0,0,0,0,0,0,0,0,0,0,0,0,0,0,0,0,0,0,186,30,6,36,12,6,0,24,6,24,24,30,42,60,30,96,12,12,6,144,255,0,0,0,0,84,0,0,0,0,0,0,0,0,12,18,6
0,12,0,0,150,0,24,6,255,0,6,0,0,138,0,126,0,0,0,0,0,0,0,0,0,0,0,0,36,24,30,12,30,12,0,24,12,108,30,18,72,12,36,48,30,6,0,0,255,0,0,0,0,0,42,0,0,0,0,0,0,6,6,6
0,6,12,60,6,255,0,126,0,204,0,0,0,0,0,0,255,0,0,0,0,0,0,0,0,0,0,0,12,30,36,24,60,12,18,18,18,30,30,18,42,42,204,18,24,0,120,0,255,0,0,0,0,0,0,0,0,0,0,0,0,18,6,6
12,84,0,0,0,0,84,0,204,18,0,0,0,0,0,0,0,0,36,0,0,0,252,0,0,0,0,0,54,30,30,18,12,24,12,24,36,18,18,186,42,18,24,24,54,6,12,72,0,0,0,0,0,0,198,180,0,0,0,0,0,18,6,6
0,0,96,0,18,0,6,0,222,0,0,192,0,0,0,0,0,120,0,0,0,0,0,0,255,0,0,0,18,36,18,30,18,18,6,18,18,18,48,30,30,132,30,156,6,240,156,0,0,255,0,0,0,0,0,0,0,12,0,0,6,12,0,6
0,0,96,6,12,180,0,0,6,0,0,0,0,0,255,240,0,0,0,0,156,0,0,0,0,0,0,24,0,12,18,18,42,18,6,6,6,252,90,12,30,24,30,138,12,198,0,138,18,0,0,0,0,0,0,0,0,0,0,0,0,0,6,0
84,0,0,0,72,0,6,0,255,252,0,0,0,0,0,0,0,0,0,0,0,0,66,0,0,0,0,24,0,18,36,18,18,12,12,12,12,18,30,72,18,12,36,102,6,228,0,0,0,0,0,0,0,0,0,0,0,0,0,0,0,12,18,12
84,18,108,162,0,0,0,0,0,114,0,0,0,0,0,246,0,0,0,192,0,0,0,0,0,0,0,0,30,18,18,60,36,6,6,6,198,18,42,42,18,222,108,6,24,0,0,6,0,0,150,0,0,0,0,0,0,0,0,0,12,6,0,6
0,0,0,96,0,18,102,0,6,255,0,0,0,0,0,0,6,0,0,0,0,0,0,0,0,0,0,42,30,0,24,36,12,12,18,6,18,84,54,30,54,24,24,12,18,0,0,168,0,0,0,0,0,0,0,0,0,0,0,0,0,6,42,6
0,6,90,66,0,0,0,6,6,0,255,0,0,0,102,0,0,0,0,0,0,0,0,0,210,0,0,0,36,24,30,24,6,12,30,6,30,30,36,36,30,24,18,12,0,255,18,0,0,0,0,0,114,0,0,0,0,0,0,0,0,6,0,48
0,0,0,0,6,6,0,0,6,0,6,255,0,0,0,0,0,222,0,0,180,0,0,0,0,0,0,0,24,66,12,12,18,12,6,12,18,126,48,48,222,12,216,12,6,0,0,0,0,0,0,0,0,0,0,0,0,0,0,0,12,0,6,18
0,0,0,0,0,0,6,0,24,192,0,0,0,0,0,0,255,0,0,0,0,0,0,0,0,0,0,0,24,30,18,60,18,12,6,30,12,18,42,30,36,24,18,255,0,216,6,0,222,0,0,0,0,0,0,0,0,0,0,0,0,24,6,6
0,132,0,0,12,0,0,6,6,0,0,0,255,0,138,0,0,0,0,0,0,0,0,0,0,0,0,30,0,24,48,18,18,18,6,12,54,42,42,48,24,24,72,60,24,6,0,78,0,0,0,0,0,0,0,0,0,0,0,0,12,0,6,0
0,0,0,6,0,0,6,192,0,255,0,0,0,0,222,0,0,255,0,0,0,0,0,0,0,0,0,6,0,36,18,24,12,18,6,6,30,24,18,72,30,30,18,12,252,255,0,0,0,0,0,0,246,0,108,0,0,0,0,0,0,12,6,0
0,84,6,0,6,0,42,255,0,6,6,0,0,246,0,0,0,0,0,0,0,0,0,0,0,0,0,0,24,12,30,30,18,12,30,18,18,36,60,42,18,24,12,6,138,12,0,6,0,0,0,0,255,0,222,0,0,0,0,0,6,6,0,18
24,0,102,0,0,6,6,0,30,0,0,0,0,0,132,0,0,0,0,0,0,0,0,0,0,0,0,0,12,30,18,36,30,30,18,0,18,42,42,24,42,12,24,30,18,0,0,12,0,0,0,255,0,0,240,0,0,0,0,0,12,0,18,6
0,0,108,6,0,6,6,6,255,12,0,0,0,0,0,0,0,0,0,0,0,0,0,0,0,0,0,0,12,24,24,36,18,6,6,30,36,12,42,18,24,12,6,6,6,6,0,168,0,255,0,0,0,0,0,0,0,0,0,0,6,6,6,6
78,0,0,0,0,0,0,255,6,0,228,0,0,72,0,0,0,0,0,0,0,0,0,0,0,192,0,24,0,30,36,6,24,12,12,18,24,42,252,72,18,186,42,18,18,12,6,0,0,0,0,0,0,0,0,0,255,0,0,0,12,6,6,42
6,0,6,162,0,0,0,132,6,18,0,0,0,6,252,0,0,0,0,0,0,0,0,0,0,0,156,0,24,18,36,24,6,30,18,18,180,30,24,18,18,48,30,12,126,234,12,0,42,0,0,0,0,0,0,0,0,0,0,0,0,6,6,18
42,0,90,0,6,0,12,138,0,0,6,255,0,0,0,0,162,0,0,0,0,0,0,0,0,0,0,0,12,36,30,12,18,6,18,12,24,156,36,24,42,36,255,174,6,0,0,0,0,174,0,0,0,0,0,0,0,0,0,0,0,0,0,6
36,0,0,0,6,216,0,6,255,0,0,0,0,0,0,0,0,0,0,0,0,0,0,0,0,0,0,0,24,24,30,24,12,12,18,0,12,42,24,30,42,132,6,18,0,0,255,6,0,0,0,0,0,0,0,0,0,0,0,0,0,18,6,0
0,0,0,0,0,6,12,255,6,255,24,0,0,255,0,0,0,0,0,255,0,0,0,0,0,0,0,0,24,30,36,42,12,18,12,6,18,36,234,66,30,0,60,30,255,6,6,0,6,0,0,0,0,0,0,0,0,0,0,0,6,42,0,18
0,0,0,6,0,0,30,255,6,6,255,255,0,0,0,0,0,0,0,0,0,0,0,0,0,0,0,0,12,30,18,30,18,24,18,72,30,30,30,24,36,24,18,144,255,0,18,0,0,0,0,0,0,0,0,114,0,0,0,0,0,48,6,24
6,72,0,0,0,6,18,12,6,0,210,12,0,0,0,0,0,0,0,0,0,0,0,0,0,0,0,0,6,48,30,42,24,90,12,18,24,18,42,42,24,18,30,6,6,0,30,0,0,192,0,0,0,0,0,0,0,0,0,0,6,36,6,0
12,0,0,6,150,18,18,6,6,0,0,252,0,0,0,240,0,0,0,0,168,0,0,0,0,0,0,0,24,18,42,60,6,108,6,132,24,18,54,42,30,12,18,12,6,0,0,0,6,0,0,0,0,0,255,0,0,0,0,0,0,6,12,0
6,6,0,168,0,0,6,0,6,0,0,0,0,0,0,0,0,0,0,0,0,0,0,0,0,150,0,0,12,30,12,36,24,6,18,18,18,30,48,30,18,24,150,12,255,0,6,0,12,0,0,0,0,0,0,0,0,0,0,0,48,12,6,6
12,84,0,0,0,0,6,168,0,0,0,0,0,255,0,0,0,0,0,0,0,0,0,0,0,0,0,0,6,30,36,12,18,12,6,18,24,30,48,36,255,18,24,78,6,6,0,255,0,0,0,126,0,0,0,0,0,0,0,0,0,6,6,60
0,12,0,0,0,0,6,255,255,6,0,0,0,0,0,0,0,0,0,0,18,174,0,0,0,0,0,0,24,18,24,24,6,30,18,18,24,24,18,36,255,60,36,222,12,6,255,0,6,0,0,0,0,255,0,0,0,0,0,0,0,0,12,12
0,0,0,0,150,12,6,255,6,255,0,0,6,0,0,0,0,0,0,0,0,0,0,0,0,0,0,0,30,24,18,18,30,18,12,24,30,24,36,42,24,42,18,0,6,255,255,0,0,0,0,0,0,0,0,0,0,0,0,0,0,12,6,0
0,0,90,0,6,6,255,24,18,255,0,0,0,255,0,0,0,0,0,0,0,0,0,0,0,0,0,0,30,30,24,18,18,12,30,12,12,30,66,30,42,30,255,6,255,0,6,0,0,0,0,255,0,0,0,0,0,0,0,12,18,0,60,24
0,96,6,0,0,6,24,0,0,0,0,255,0,0,114,0,0,0,0,168,0,0,0,0,0,0,0,0,12,18,42,30,78,12,6,36,42,30,180,12,24,255,24,6,12,0,255,0,0,0,255,0,0,0,0,0,0,0,0,0,0,12,6,6
0,0,0,0,246,0,12,0,0,252,255,0,0,0,0,0,0,0,0,0,0,0,0,0,0,0,0,12,30,0,24,18,12,6,6,24,18,126,48,36,180,30,42,12,0,255,6,0,0,0,0,0,0,0,0,0,255,0,0,0,6,6,6,0
