255,168,0,255,208,112,255,255,255,255,255,255,80,255,255,255,0,16,0,0,144,0,0,168,0,232,0,0,255,0,88,255,255,136,32,32,32,255,255,255,208,255,255,255,255,255,8,255,0,0,0,255,0,0,0,152,0,0,0,0,0,136,56,255
112,112,255,112,255,255,255,255,255,255,255,255,255,255,144,255,255,0,0,0,0,152,0,0,255,255,0,0,255,56,255,255,255,168,176,255,255,255,255,255,224,255,152,255,255,255,255,255,255,255,0,200,0,0,48,0,0,0,0,0,0,255,200,255
0,136,64,128,255,240,255,255,255,255,255,255,255,255,255,0,255,255,0,0,176,255,0,0,0,0,0,0,0,168,255,255,255,255,184,255,80,208,255,255,255,255,255,255,80,255,255,255,152,240,0,24,0,0,0,96,0,0,0,0,0,176,16,96
200,40,255,152,255,255,255,255,88,255,255,255,255,16,255,255,0,0,248,120,255,0,0,0,8,0,255,0,0,255,255,160,96,184,208,168,160,255,255,255,255,255,176,255,48,255,255,184,255,0,96,255,255,0,0,0,0,0,0,0,0,80,240,255
255,152,255,255,160,120,255,255,255,255,255,255,255,0,255,255,144,255,0,168,255,255,168,0,0,255,0,0,0,255,248,255,255,152,128,168,255,208,255,255,255,255,255,255,160,0,255,0,200,0,255,0,0,0,255,255,0,0,0,0,0,96,128,248
104,255,16,255,255,255,255,255,216,255,255,255,255,255,112,255,224,255,255,176,0,0,0,0,0,0,0,0,0,255,255,255,255,240,255,176,144,136,255,255,255,255,255,255,255,255,255,255,0,184,80,0,255,0,0,255,0,0,0,0,152,104,16,255
255,112,255,104,80,255,255,168,255,255,255,255,255,255,255,255,200,0,40,0,0,0,0,0,0,0,0,0,184,0,255,255,255,255,0,104,255,255,255,255,240,255,255,255,216,0,255,0,255,0,255,0,248,56,0,0,24,0,0,0,0,64,200,184
136,128,255,255,255,255,255,255,240,255,255,255,255,255,224,255,0,0,255,0,255,160,8,0,0,24,0,56,0,176,255,255,255,88,96,255,200,255,232,255,255,255,255,255,255,255,40,255,255,200,0,255,0,0,0,255,0,0,0,0,0,255,255,96
192,255,255,255,136,200,255,255,255,255,255,255,255,255,56,0,255,96,48,0,255,255,255,168,0,0,0,0,255,56,200,96,255,255,112,255,112,255,255,255,255,240,255,255,255,152,255,255,0,0,184,255,0,128,0,0,0,0,80,0,0,56,255,104
255,64,104,216,255,255,255,152,192,255,255,255,255,255,255,255,0,255,255,0,64,16,0,0,0,0,0,0,255,0,255,184,56,255,32,168,152,248,200,255,255,255,255,255,255,255,255,8,255,16,176,0,80,0,160,255,0,0,136,0,0,208,152,255
232,255,48,120,255,232,255,255,255,255,255,255,0,255,255,255,255,255,0,255,255,0,0,176,0,0,0,0,0,255,160,144,255,96,152,136,255,255,216,248,240,152,255,160,255,40,255,255,160,0,200,104,16,0,184,232,200,0,0,0,136,0,56,255
255,96,255,255,176,184,160,255,255,255,255,255,80,255,192,255,255,0,255,255,0,0,224,0,0,208,0,0,0,255,255,240,112,255,120,80,255,255,168,255,255,255,255,255,255,255,184,112,255,255,64,0,240,255,176,120,0,0,0,0,168,0,255,160
136,255,240,200,255,255,160,255,255,255,255,255,255,255,0,255,0,208,0,255,0,0,255,24,0,0,0,0,255,0,255,0,8,255,136,255,255,200,255,255,216,255,255,255,255,255,255,255,0,0,0,255,120,0,0,255,152,0,0,0,64,0,255,0
144,255,80,0,168,120,255,144,255,255,255,255,0,255,255,255,255,255,0,0,255,152,0,120,0,104,0,0,0,255,255,255,24,255,224,255,88,255,200,255,255,255,255,248,255,136,255,72,255,255,0,168,0,0,0,0,0,0,0,0,96,240,0,240
128,16,208,56,255,255,255,255,255,255,255,255,184,255,255,255,176,255,0,0,96,0,0,176,0,0,0,0,0,168,255,216,255,136,80,255,255,184,176,255,255,255,255,255,176,255,255,24,0,255,216,168,104,255,0,0,0,0,0,0,0,96,144,255
0,255,200,208,255,255,255,255,255,112,255,255,255,255,255,192,64,0,255,0,0,160,0,168,224,0,0,0,24,184,224,255,255,0,104,208,255,255,128,255,200,255,255,208,255,255,255,255,255,255,200,0,64,0,0,0,0,32,0,0,0,255,128,64
112,216,104,255,255,255,255,255,255,255,255,255,0,240,32,255,255,255,0,0,255,0,255,160,112,0,0,0,88,96,104,255,248,200,255,255,80,216,255,184,255,255,232,255,255,255,255,112,80,255,248,0,255,72,255,0,0,0,0,0,0,80,32,24
240,248,8,184,255,255,152,208,255,255,255,255,255,0,144,255,0,0,255,216,184,112,255,0,0,152,0,0,0,255,255,224,88,255,176,136,255,192,192,255,255,255,255,40,255,168,255,255,8,0,255,152,0,0,8,255,80,0,0,0,0,255,208,168
255,16,112,255,224,255,255,64,255,255,255,255,255,255,255,152,112,255,208,40,184,255,255,0,0,255,0,0,0,216,255,176,168,255,160,152,255,255,255,255,255,152,255,255,255,248,255,255,0,64,104,0,120,0,0,0,104,0,0,0,0,56,184,32
255,192,255,255,255,40,255,255,255,255,255,255,255,255,160,255,0,0,0,16,255,255,104,0,0,0,0,0,0,255,216,224,255,224,136,240,255,255,255,255,255,255,255,255,255,255,168,255,80,255,0,184,56,0,0,255,0,255,0,0,160,0,160,136
255,112,255,216,104,64,255,255,224,255,255,255,255,255,255,255,0,0,0,0,0,0,168,0,0,0,0,0,0,168,255,96,255,255,112,216,255,192,160,255,255,224,255,255,128,80,255,255,255,255,255,72,0,152,0,0,0,0,0,0,0,168,80,88
255,112,0,255,255,200,255,255,255,255,255,255,255,160,255,176,0,0,0,176,0,0,0,0,0,136,0,0,0,255,152,184,152,80,255,208,88,255,240,104,232,240,255,255,255,255,255,48,255,200,200,0,255,0,0,0,128,0,0,0,144,0,255,240
255,255,0,255,136,64,255,255,255,255,255,255,200,255,255,255,0,0,168,255,0,0,0,0,0,0,96,0,0,255,255,255,255,120,144,80,184,136,255,144,255,255,255,255,255,255,144,255,255,56,136,0,0,184,0,0,0,0,152,0,0,8,255,176
255,255,255,80,136,208,255,255,255,255,255,255,255,255,255,0,255,0,0,0,255,184,0,0,0,0,0,0,0,255,216,255,56,255,168,255,152,255,255,255,255,255,255,144,255,255,255,255,40,0,208,8,0,0,255,0,0,0,0,0,0,96,255,255
80,255,168,248,168,255,255,255,255,255,255,128,255,24,0,255,0,192,80,0,112,152,216,0,0,255,0,255,0,168,224,240,255,56,184,160,216,200,255,255,255,255,255,255,255,56,200,255,255,255,0,32,0,0,0,0,136,0,0,0,0,136,255,192
56,184,176,88,255,208,255,255,255,255,255,255,255,88,144,255,255,152,255,0,255,0,0,0,0,0,0,0,24,255,255,255,128,160,96,255,248,255,224,255,255,200,255,255,255,255,136,255,255,255,8,255,0,0,255,0,64,0,0,0,112,0,255,144
200,255,255,255,255,255,144,248,255,255,255,80,255,64,255,0,255,0,0,255,255,255,255,0,0,0,0,128,255,0,255,168,152,88,136,240,56,232,176,255,232,255,255,255,152,255,255,255,0,255,216,144,0,0,64,0,0,0,0,0,0,208,224,96
248,255,255,255,152,255,255,255,144,255,255,255,255,255,0,0,160,80,0,255,0,0,255,0,152,0,0,152,0,0,255,255,112,88,168,128,255,152,192,255,255,255,255,255,255,255,255,255,255,0,255,0,0,80,0,0,0,0,0,0,208,0,255,255
240,255,255,255,255,255,255,255,88,224,255,255,136,255,255,255,255,255,255,0,0,0,16,0,0,0,0,0,0,224,255,255,255,128,255,136,224,208,255,255,200,168,255,255,255,240,255,8,168,255,80,0,255,255,232,0,0,8,0,0,0,255,152,255
160,152,176,255,255,255,255,255,255,255,255,255,88,255,255,255,216,255,255,255,24,0,0,112,255,0,0,0,152,240,255,255,192,248,80,255,144,192,184,255,255,232,248,255,255,255,255,80,0,255,255,0,8,0,0,0,0,0,0,0,0,104,136,80
232,255,24,255,128,255,255,255,255,255,255,120,255,255,255,255,255,0,255,0,16,0,0,0,0,0,0,0,16,192,176,255,144,255,255,96,96,48,255,208,255,255,255,255,255,255,255,255,184,0,255,0,0,0,32,0,0,0,0,0,184,0,255,112
255,255,255,255,200,255,255,255,255,72,255,255,255,255,255,160,255,0,224,0,255,0,0,0,0,0,0,0,0,255,255,255,120,240,80,255,112,104,255,255,184,255,255,255,255,255,255,0,255,248,255,0,0,0,255,0,0,0,0,0,0,136,152,255
136,255,255,56,80,255,152,255,255,255,255,255,255,255,255,200,255,255,80,0,208,255,0,0,0,0,0,0,0,255,255,208,255,80,88,255,224,255,255,255,255,255,255,255,168,200,136,255,255,32,0,0,96,0,0,0,128,0,0,0,0,128,0,184
8,255,255,128,224,255,255,255,255,255,255,224,128,255,255,255,255,40,0,184,0,0,255,0,120,0,184,0,0,168,200,255,184,104,40,168,32,120,224,255,255,255,255,232,255,255,255,56,168,136,8,0,0,72,0,0,0,0,0,0,0,136,88,255
0,96,112,255,255,255,255,255,255,112,255,255,255,255,255,255,255,255,192,0,0,168,255,0,0,0,0,0,255,8,255,96,255,255,255,112,255,255,255,255,255,255,255,255,248,128,16,255,255,0,0,255,0,0,0,0,0,0,0,0,0,112,255,255
104,80,8,255,255,255,112,255,255,200,255,255,255,128,255,0,0,0,48,0,144,0,200,0,136,32,0,0,192,0,208,255,192,255,184,200,255,88,255,255,255,255,255,255,255,255,255,184,255,0,128,0,0,255,0,0,0,0,0,0,0,32,184,176
255,248,255,255,255,255,255,255,255,72,255,255,255,255,255,255,255,136,208,0,0,255,80,0,0,0,0,0,255,144,255,255,80,255,88,16,184,120,255,255,255,255,255,240,255,255,255,8,255,255,0,0,0,0,0,0,0,0,0,0,8,128,152,184
8,255,248,255,255,255,255,255,255,255,240,255,255,255,64,255,255,255,255,0,0,0,0,0,0,0,0,0,255,0,255,80,255,255,255,104,128,255,255,255,255,255,255,255,255,120,255,0,168,255,0,255,136,0,32,0,0,0,0,0,240,0,168,176
112,80,8,255,0,255,255,255,255,255,255,255,255,255,255,200,152,0,0,168,152,0,0,0,128,0,0,0,0,200,160,255,88,255,255,176,144,255,255,255,255,255,255,255,224,255,136,24,184,56,255,40,0,0,0,0,0,0,0,0,0,168,152,128
255,8,255,255,255,255,152,255,255,255,255,255,152,255,255,248,255,255,0,255,255,128,255,0,0,0,0,48,0,208,255,136,255,56,88,144,255,184,255,255,255,255,255,248,255,16,0,255,255,144,0,176,255,0,0,0,0,0,0,0,0,208,128,255
255,56,216,255,40,255,255,255,255,255,255,255,255,136,255,255,255,0,0,176,0,0,0,112,0,0,0,0,32,192,8,255,136,255,144,40,192,255,128,255,255,255,255,255,255,255,0,255,136,152,0,0,0,0,0,0,0,0,0,0,0,160,255,128
80,255,0,8,144,255,255,40,255,255,255,255,255,80,255,0,255,255,0,24,0,0,0,0,64,112,0,64,0,168,232,255,255,255,255,168,208,255,255,255,255,255,255,255,248,255,255,0,144,48,128,120,0,0,0,0,0,0,0,0,208,0,184,255
168,240,255,255,40,255,255,255,255,255,255,255,255,255,255,200,0,0,255,0,0,0,0,0,0,56,0,208,120,0,255,255,80,255,255,255,255,255,255,255,255,255,255,255,136,255,104,255,128,160,152,255,208,0,0,128,0,0,0,0,168,0,136,255
255,152,24,255,255,216,152,255,240,255,255,255,255,0,255,255,255,255,240,56,136,0,0,255,0,0,0,0,224,0,136,255,255,255,176,24,255,200,224,255,255,255,255,255,255,255,152,208,88,48,0,0,0,160,0,0,0,0,0,0,0,112,0,8
136,88,120,255,136,255,255,255,255,255,255,255,255,255,255,255,0,0,0,255,255,0,0,255,112,0,0,0,0,200,240,255,104,32,255,184,255,224,255,200,255,255,255,255,255,255,255,255,0,0,0,56,80,160,136,0,0,0,0,0,0,128,255,8
255,88,64,255,184,255,255,255,255,255,255,255,255,56,0,255,255,0,176,184,0,0,8,0,0,0,56,0,255,168,208,255,216,104,96,255,255,255,255,192,255,255,255,255,255,255,255,16,255,0,176,224,0,255,112,0,0,0,0,0,255,0,255,255
8,160,104,152,255,255,255,255,255,255,255,255,255,208,255,255,255,0,88,0,0,0,24,0,0,0,0,0,32,192,184,255,128,255,80,200,255,255,192,255,255,255,255,255,72,24,255,8,255,255,255,0,0,0,0,0,0,0,0,0,0,255,224,216
96,255,248,255,184,255,255,255,255,255,255,255,255,255,136,255,255,0,255,255,0,112,0,0,24,0,0,0,0,208,224,136,216,255,168,255,96,208,255,255,255,255,255,255,255,56,255,0,168,216,160,0,0,0,0,0,0,0,0,0,128,0,120,80
168,112,255,144,255,255,255,255,255,255,255,255,255,255,255,0,255,255,192,0,0,168,176,56,0,255,0,0,232,0,255,80,200,160,255,120,216,255,255,224,144,255,255,255,255,255,255,255,255,0,255,0,0,0,0,0,0,0,0,0,0,255,255,120
24,255,255,184,255,255,128,88,255,255,255,255,255,128,255,216,0,0,96,255,240,0,96,64,0,0,0,0,0,136,255,255,88,184,144,255,224,255,255,255,255,255,255,240,168,128,255,0,0,255,255,0,0,192,88,0,0,0,0,0,0,168,152,255
