0,0,0,0,0,10,10,20,20,10,255,255,255,0,0,0,0,255,255,0,0,0,0,0,0,0,0,0,30,70,30,40,30,0,255,30,20,50,70,255,90,40,20,255,0,255,0,255,0,30,0,0,0,0,0,0,0,0,0,0,0,20,10,40
0,0,0,0,0,0,0,255,0,255,0,255,255,0,0,0,0,0,0,0,0,0,0,0,0,0,0,0,30,40,50,20,20,10,20,30,10,40,80,40,20,180,255,30,255,0,0,0,0,0,0,0,0,0,0,0,0,0,0,0,0,20,10,0
0,0,0,0,20,10,20,10,0,255,0,255,0,0,0,0,0,255,0,0,0,0,0,0,0,255,0,30,20,0,60,40,20,20,0,20,60,60,255,50,255,50,255,20,20,0,255,0,190,0,0,0,0,0,0,0,0,0,0,0,10,0,50,20
20,0,255,50,0,10,20,10,10,10,255,0,0,255,0,0,0,0,0,0,0,0,0,0,0,0,0,0,30,30,40,20,60,40,20,20,60,255,60,60,40,30,70,40,230,10,0,0,0,0,0,0,0,0,255,100,0,0,0,0,10,10,50,20
30,0,10,0,255,0,230,10,255,210,0,0,0,0,0,0,0,0,0,0,0,0,0,0,0,0,0,0,40,30,60,30,20,20,10,10,40,60,50,50,250,255,40,255,0,0,0,50,0,0,0,0,0,0,0,0,0,0,0,0,0,10,0,20
0,10,0,0,0,10,0,0,255,255,0,0,0,0,0,0,0,0,0,0,0,0,0,0,0,0,0,30,40,0,50,40,30,10,10,60,30,100,60,30,30,255,30,30,10,10,0,255,0,0,0,0,0,0,0,0,0,0,0,0,10,10,10,10
255,0,0,0,20,10,255,0,10,0,0,0,0,0,0,0,0,0,0,0,0,0,0,0,0,0,0,0,70,50,50,60,0,0,40,10,40,50,70,60,70,30,10,255,20,0,10,0,255,0,0,0,0,0,0,0,0,0,0,0,20,10,10,10
10,0,0,0,10,0,0,255,255,0,0,0,0,0,0,0,0,0,0,0,0,0,0,0,0,0,0,30,0,50,10,50,60,10,40,10,40,80,70,50,90,255,255,20,0,10,10,0,10,0,0,0,0,0,0,0,0,0,0,10,0,10,20,0
0,0,0,0,0,30,0,10,255,0,0,255,0,0,0,0,0,0,0,0,0,0,0,0,0,0,0,50,0,50,40,30,30,30,30,60,50,60,220,80,40,255,30,20,60,0,0,255,0,0,0,0,0,0,0,0,0,0,0,0,20,0,10,40
10,0,0,0,10,10,20,0,20,0,255,250,0,0,255,0,255,0,0,0,0,0,0,0,0,0,0,0,30,80,30,70,20,20,140,30,10,60,180,255,60,40,30,10,10,30,0,0,0,0,0,0,255,0,0,0,0,0,0,0,0,0,0,0
0,140,0,10,0,0,255,10,40,0,0,0,0,0,0,0,0,0,0,255,0,0,0,0,0,0,210,0,50,70,60,50,30,30,0,60,40,50,30,190,60,255,10,30,30,0,0,0,0,0,0,10,0,0,0,0,0,0,0,30,0,0,20,40
10,0,0,0,0,10,0,0,0,255,240,0,0,0,0,0,0,0,0,0,255,0,0,0,0,0,0,0,30,40,50,40,20,10,20,255,20,20,80,50,30,40,255,70,10,0,0,10,0,0,0,0,130,0,0,0,0,0,0,0,10,20,10,10
10,0,0,0,0,0,0,0,230,255,0,10,0,0,0,0,0,0,0,0,0,0,0,0,0,0,0,0,30,30,30,50,10,10,30,50,10,70,210,50,30,50,50,255,20,255,0,60,0,0,80,0,0,0,0,0,0,0,0,10,0,0,70,30
0,0,0,10,255,30,255,40,240,40,0,0,10,255,0,0,0,0,0,0,0,0,0,0,0,0,0,0,70,30,20,40,30,20,20,10,200,40,255,40,50,60,255,20,10,10,0,10,0,0,0,0,255,0,0,0,0,0,0,0,10,10,90,10
10,0,230,0,0,10,10,255,250,10,0,255,0,0,0,0,0,0,0,0,0,0,0,0,0,0,0,0,40,30,40,50,40,10,30,30,30,30,50,60,40,30,50,255,255,255,0,0,0,0,0,0,0,0,0,0,0,0,0,0,30,0,0,0
0,10,0,0,0,0,255,10,255,0,0,0,0,0,0,0,0,0,0,0,0,0,0,0,0,0,0,10,0,30,40,60,30,20,10,50,20,60,70,255,50,20,255,0,10,255,0,0,0,0,40,0,0,0,0,0,0,0,0,0,0,20,10,40
0,0,0,0,0,0,20,10,255,255,0,0,0,0,0,0,0,0,0,0,255,0,0,0,0,0,0,0,20,40,70,50,10,20,30,20,60,70,255,70,30,255,255,255,255,0,0,0,0,0,0,0,0,0,0,0,0,0,0,0,0,10,20,10
30,0,0,0,20,0,10,255,250,10,0,20,0,255,0,0,0,0,0,0,0,0,0,255,0,0,0,0,70,20,50,20,30,255,10,20,30,40,50,100,40,30,255,30,0,10,0,255,255,10,0,0,0,0,0,0,0,0,0,0,0,30,30,0
0,0,0,0,255,0,255,0,255,0,0,10,255,0,0,0,0,0,0,0,0,0,0,0,0,0,0,0,60,30,30,60,20,10,30,20,60,60,255,190,255,255,30,20,0,30,0,10,0,0,0,0,0,0,0,0,0,0,0,0,0,20,20,50
10,0,0,0,10,0,10,0,0,0,0,10,255,255,0,0,0,0,0,0,0,0,0,0,255,0,0,0,20,50,40,10,30,10,0,10,20,30,255,255,255,30,255,20,10,60,0,0,0,0,0,250,0,0,0,0,0,0,0,20,0,10,10,0
0,10,0,0,255,0,10,10,10,255,0,10,0,255,0,0,0,0,0,0,0,0,0,0,0,0,0,0,30,50,40,90,30,10,10,20,50,80,30,50,70,255,255,20,0,0,0,20,255,0,0,0,0,0,0,0,0,0,0,0,0,50,10,10
0,255,10,0,10,10,0,20,10,250,255,10,0,0,0,0,0,0,0,0,0,0,0,0,0,0,0,0,20,50,60,30,30,30,10,50,70,10,50,70,255,255,40,0,20,0,0,0,0,0,0,0,10,0,0,0,0,255,0,0,0,10,10,0
0,10,0,250,0,0,0,0,10,250,0,0,0,255,255,0,0,0,0,0,0,0,0,0,0,0,0,40,0,50,60,60,30,10,30,60,30,50,70,50,255,40,255,50,10,0,0,0,0,0,0,0,0,0,0,0,0,0,180,0,0,0,10,30
0,0,0,0,150,10,0,10,10,255,0,0,0,0,0,0,0,0,0,0,0,0,0,0,0,0,0,0,50,50,30,50,30,20,40,10,30,80,50,70,20,70,10,255,10,0,255,255,0,0,0,0,0,0,0,0,0,0,0,0,40,0,20,30
0,0,0,0,40,10,20,10,0,255,255,0,0,0,0,0,0,0,0,0,0,255,0,0,0,0,0,0,10,40,30,20,30,180,10,30,50,50,50,80,255,50,255,30,0,10,0,0,0,0,0,0,0,0,0,0,0,0,0,0,0,50,20,20
0,0,0,10,0,10,0,10,255,10,0,255,0,0,0,0,0,0,0,0,0,0,0,0,0,0,0,0,10,90,80,30,50,20,30,30,40,255,30,40,255,255,255,30,10,20,0,0,0,0,0,0,0,0,0,0,0,0,0,0,0,20,50,10
10,0,10,30,0,10,255,30,240,10,10,0,255,10,10,0,0,0,0,0,0,0,0,255,0,0,0,0,40,30,30,30,40,20,140,20,50,140,40,80,255,110,255,60,30,0,0,0,0,0,0,0,0,0,0,0,0,0,0,0,0,20,10,10
30,0,0,0,0,255,200,0,10,0,10,0,0,10,0,0,0,0,0,0,0,0,0,0,0,0,60,0,70,0,30,50,20,20,20,20,50,100,50,255,50,255,20,50,10,20,0,10,20,0,0,0,0,0,0,0,0,0,0,0,0,20,30,40
20,0,0,0,0,10,0,10,255,255,0,0,0,0,0,0,0,0,0,0,0,0,0,0,0,0,0,30,0,30,70,30,40,0,30,10,40,50,40,40,50,255,30,20,30,10,0,0,0,0,0,0,255,0,0,0,0,0,0,0,0,10,10,30
0,0,0,0,10,255,0,0,0,255,10,0,0,0,0,0,0,0,0,0,0,0,0,0,0,0,0,0,30,50,70,60,20,20,40,30,30,40,70,90,255,70,50,10,30,0,10,255,0,0,0,0,0,0,0,0,0,0,0,0,0,30,10,50
10,0,0,0,255,0,10,10,10,0,240,255,0,0,0,0,0,0,0,0,0,0,0,0,0,0,0,140,10,20,60,40,30,30,40,20,40,40,70,30,70,255,40,10,20,40,0,0,255,0,0,0,0,0,0,0,0,0,0,0,10,10,10,10
0,0,0,0,10,0,50,30,250,10,10,255,0,0,0,0,0,255,0,0,0,0,0,0,0,0,0,30,0,70,50,40,20,10,20,10,30,30,140,255,60,20,30,0,20,0,0,0,0,0,0,0,0,0,0,0,0,0,0,0,0,0,30,20
10,0,0,0,0,140,0,10,10,10,0,0,0,0,255,255,0,0,0,0,0,0,0,180,0,0,0,0,40,70,50,10,40,0,0,30,255,255,255,230,40,20,60,255,40,10,0,0,40,0,0,0,0,0,0,0,0,0,0,0,20,0,0,0
0,20,0,0,10,0,70,10,10,20,0,255,0,0,0,0,0,0,0,0,0,0,0,0,0,0,0,0,20,60,80,10,30,70,10,30,50,60,40,80,255,30,30,255,10,20,0,255,0,0,0,0,0,0,0,0,0,0,0,0,0,20,30,10
50,0,0,0,0,20,30,255,255,10,250,0,0,0,0,0,0,0,0,0,0,0,0,0,0,0,0,0,50,30,10,0,60,10,20,30,30,30,30,50,40,255,70,255,255,20,0,0,0,0,0,0,0,0,0,0,0,0,0,0,0,40,20,30
0,10,10,0,10,10,255,0,10,250,0,0,255,0,0,0,0,0,0,0,0,0,0,0,0,0,0,30,0,30,30,60,30,50,10,20,50,30,50,80,30,30,40,255,255,10,0,0,0,0,0,0,255,0,0,0,0,0,0,0,10,30,30,10
10,0,0,0,0,255,50,0,255,255,240,0,0,0,0,255,0,0,0,0,0,0,0,0,0,0,0,0,50,30,30,30,30,10,30,30,20,255,20,40,70,255,40,50,255,0,20,0,0,0,0,0,0,0,0,0,0,0,0,0,0,70,0,0
10,190,0,0,20,255,0,20,0,230,0,0,0,0,255,0,0,0,0,0,0,0,0,0,0,0,0,0,20,90,50,30,30,255,10,20,40,100,50,120,40,50,255,255,0,0,10,20,0,0,0,0,0,0,0,255,0,0,0,0,10,10,10,10
10,0,10,240,0,0,60,255,250,10,0,0,0,0,0,0,0,0,0,0,0,0,0,0,0,0,0,0,30,30,40,30,20,90,10,10,20,50,90,30,30,30,30,255,20,255,0,0,0,20,0,0,0,0,0,0,0,0,0,0,0,10,10,0
0,0,10,0,0,20,10,255,0,0,0,0,0,10,210,0,0,0,0,0,0,0,0,0,0,0,0,0,50,60,60,20,50,10,10,10,50,50,30,70,255,50,255,255,80,0,0,0,0,0,0,0,0,0,0,0,0,0,0,10,0,10,30,30
0,0,0,0,0,0,20,255,0,255,0,230,0,0,0,0,0,0,0,0,0,0,0,0,0,0,0,0,30,30,40,10,20,10,10,10,30,60,40,50,50,255,30,10,20,255,255,50,0,0,0,0,0,0,0,0,0,0,0,0,10,0,0,70
10,10,10,0,20,10,255,255,240,0,0,0,0,0,255,0,0,0,0,0,0,0,255,0,0,0,0,0,30,40,70,30,50,10,255,230,40,50,50,50,60,110,40,255,30,0,255,30,0,0,0,0,0,0,0,0,0,0,0,10,0,20,20,0
20,0,10,0,0,0,0,20,255,250,10,230,0,0,255,0,0,0,0,0,0,0,0,0,0,0,0,0,60,30,60,10,30,20,10,50,30,50,50,80,255,220,255,30,255,20,0,10,0,0,0,255,0,0,0,0,0,0,0,10,0,0,30,10
0,0,0,30,255,255,170,0,250,255,10,0,0,0,0,0,0,0,255,0,0,0,0,0,0,0,0,20,0,30,50,40,30,10,10,50,50,40,50,130,255,100,40,255,0,10,0,0,255,0,0,0,0,0,0,0,0,0,0,0,10,30,10,0
0,0,0,0,0,255,20,0,50,0,255,0,255,0,0,255,0,0,0,0,0,0,0,0,0,0,0,0,30,30,40,50,90,10,255,20,40,30,40,60,30,20,20,255,20,0,10,0,0,10,0,0,0,0,0,0,0,0,0,0,10,20,30,10
0,0,0,0,0,0,10,200,255,255,0,10,0,0,0,0,0,0,0,0,0,0,0,0,0,0,0,0,40,50,60,40,40,10,10,20,50,40,70,70,30,50,255,255,10,10,255,0,0,0,0,0,0,0,0,0,0,0,0,0,10,0,10,10
0,30,0,10,30,0,255,255,255,255,255,0,0,0,0,0,0,0,0,0,0,0,0,0,0,0,0,0,20,50,30,30,20,10,20,70,60,20,100,255,30,255,255,255,20,30,0,0,60,0,0,0,0,0,0,0,0,0,0,0,0,10,10,0
90,0,255,0,0,0,10,0,255,255,255,0,0,0,0,0,0,0,0,0,0,0,0,0,0,0,0,30,0,60,40,70,20,20,10,40,10,50,90,255,255,255,50,10,0,0,10,40,0,255,0,0,0,0,0,0,0,0,0,0,10,0,30,10
0,0,0,0,255,20,255,0,255,0,250,0,255,0,255,0,0,0,0,0,0,0,0,0,0,0,20,0,0,70,30,50,40,10,30,50,30,30,70,255,255,160,30,255,90,10,0,0,0,0,0,0,0,0,0,0,0,0,0,0,0,40,20,10
10,30,0,0,0,10,255,30,0,255,140,10,0,255,0,0,0,0,0,0,0,0,0,0,0,0,0,0,40,80,50,30,20,30,220,40,30,255,50,60,255,255,30,0,40,10,0,0,0,0,0,0,0,190,0,0,0,0,0,0,0,10,10,40
