80,175,120,50,165,225,235,130,235,235,220,200,230,175,230,230,210,230,0,235,0,0,55,0,0,0,0,0,0,185,130,230,130,175,225,135,170,165,225,185,225,235,235,220,160,90,210,230,205,230,180,180,0,0,0,0,0,10,85,40,0,70,45,50
130,230,235,215,230,80,230,235,225,230,230,235,195,0,175,205,140,235,210,235,0,150,90,115,0,55,0,0,0,215,235,230,160,230,70,210,95,175,145,135,210,170,230,235,235,130,230,205,100,0,30,0,0,65,175,0,0,0,0,0,10,40,0,0
205,5,145,30,235,230,235,185,200,240,230,235,5,235,235,200,235,0,0,185,100,230,35,0,0,0,5,0,175,0,160,230,235,165,0,175,170,140,105,145,225,220,235,95,230,165,230,0,155,230,195,0,0,65,130,0,0,0,0,0,0,85,65,125
230,70,70,235,155,155,110,230,235,235,230,180,220,235,220,205,230,230,130,0,195,0,35,175,0,0,0,0,0,225,175,225,235,140,105,95,175,210,190,230,230,230,200,235,235,100,230,225,0,0,10,225,40,65,0,0,0,0,0,0,65,0,120,120
230,225,145,235,230,185,25,230,235,230,230,230,235,130,205,235,230,70,0,0,65,0,0,0,0,0,0,0,175,0,230,235,150,225,155,90,175,180,230,180,230,80,230,180,140,230,210,205,195,235,60,10,230,70,0,0,0,0,0,160,0,50,30,45
5,175,60,230,165,220,235,230,235,165,135,235,230,230,230,130,0,230,230,0,120,150,0,0,0,0,0,0,160,0,230,75,65,230,95,45,190,80,220,215,215,235,200,185,225,210,230,85,95,230,30,0,0,0,145,85,220,0,0,0,10,80,100,75
105,0,215,230,215,150,55,235,235,240,230,230,180,0,220,205,230,0,230,140,0,110,0,0,125,0,105,45,30,150,220,75,230,125,130,170,155,200,205,220,235,230,120,150,235,155,230,0,150,0,175,105,0,20,0,0,0,70,0,0,0,115,175,125
85,230,230,165,100,190,235,235,230,140,235,220,85,235,235,60,190,0,170,110,155,0,215,0,0,0,75,0,0,205,165,230,130,225,175,100,185,230,110,235,230,170,235,225,230,230,105,185,60,230,0,0,60,25,0,160,110,0,95,0,0,115,60,85
230,105,75,120,230,235,225,215,155,235,230,100,235,230,235,235,0,165,0,115,135,115,0,0,0,0,0,0,0,105,205,0,75,150,75,210,175,150,210,160,140,235,235,235,180,170,195,230,65,0,20,0,0,0,0,0,0,0,0,0,0,125,50,230
230,230,135,225,145,220,225,25,230,235,235,215,35,235,235,230,230,140,0,210,0,235,0,0,5,0,0,0,0,125,225,170,100,230,80,90,195,155,160,225,235,230,140,230,175,130,225,230,235,115,125,65,0,25,0,0,20,0,0,0,0,70,75,40
230,230,35,85,160,215,225,235,235,235,235,235,230,235,90,175,115,230,0,5,0,230,0,0,0,0,0,0,0,190,175,235,230,190,105,110,145,235,140,215,230,225,235,225,230,235,220,180,95,0,175,0,15,0,0,0,0,0,0,0,25,135,35,0
50,160,75,95,225,210,235,225,235,235,225,235,235,150,135,210,0,225,35,100,0,0,0,0,0,195,0,0,0,220,230,215,100,75,135,195,105,115,230,235,235,235,195,105,225,225,0,235,95,0,175,205,25,0,230,0,0,0,0,0,0,60,105,50
230,85,170,115,205,235,105,190,235,230,235,230,0,0,120,200,105,0,230,95,0,90,55,0,0,0,160,0,0,110,230,195,235,70,110,185,145,200,125,225,235,185,230,145,235,170,200,185,45,0,0,165,20,0,0,145,230,0,0,0,25,0,135,5
95,50,80,105,230,235,230,230,235,230,140,230,230,0,205,230,175,220,155,110,95,0,25,0,0,230,0,5,0,130,145,125,90,70,130,185,185,150,215,235,215,195,230,175,230,235,195,0,0,165,205,195,0,0,0,5,0,0,0,0,0,120,200,90
20,45,0,235,240,130,230,235,230,230,230,235,235,230,230,225,105,0,230,0,145,0,0,0,0,45,0,0,0,230,230,230,230,80,180,0,145,200,160,230,230,200,235,235,225,150,80,225,110,175,55,0,205,20,0,0,0,0,15,0,50,0,160,230
0,125,230,65,110,190,185,210,230,230,235,140,235,235,215,95,0,235,235,0,170,100,0,130,205,0,100,0,215,0,230,125,150,110,115,35,135,125,215,230,120,230,230,235,230,230,235,0,185,0,0,0,0,0,0,0,0,0,0,0,0,220,85,105
235,75,145,235,80,125,230,230,40,235,235,235,175,215,220,160,185,235,230,105,140,10,70,0,0,0,0,0,5,120,230,170,235,120,80,45,195,110,150,180,235,230,225,230,230,235,210,170,20,0,95,0,0,120,105,0,0,0,0,0,0,80,55,60
115,45,95,230,205,210,25,235,230,230,235,235,195,235,215,185,0,135,235,105,15,0,0,0,0,5,0,0,0,215,50,225,40,105,15,130,230,185,145,235,220,235,235,225,165,205,235,230,0,230,105,0,0,0,165,0,0,0,0,0,0,205,95,100
0,95,230,90,220,230,150,230,235,235,230,235,110,235,145,235,0,225,225,125,0,230,0,0,0,0,0,0,0,170,125,165,105,135,40,120,190,210,135,230,200,215,235,235,230,0,165,225,230,95,0,140,0,190,15,0,15,0,0,0,0,60,230,230
230,125,115,215,215,105,230,235,235,235,200,235,80,225,155,235,0,225,0,0,230,225,225,0,0,0,0,0,0,140,215,220,210,195,125,150,130,205,125,75,235,230,225,225,230,235,235,40,210,0,0,155,155,15,130,0,0,0,0,0,0,105,130,70
80,235,230,230,225,220,130,130,95,235,235,220,235,235,235,85,230,100,55,235,230,0,0,0,0,0,0,0,0,225,175,230,130,115,100,225,150,205,210,225,130,230,230,205,225,230,205,75,0,110,100,0,0,50,0,0,155,0,0,0,0,230,105,35
130,10,115,180,230,215,200,235,230,235,80,235,235,235,0,170,0,225,210,0,0,0,0,150,0,0,0,0,105,75,80,90,145,165,85,220,230,130,225,180,230,215,235,235,230,85,230,225,230,175,0,165,0,15,0,185,0,60,0,0,0,115,80,220
0,235,185,95,165,230,235,235,200,235,230,205,235,220,220,230,235,5,200,125,105,5,0,105,0,0,0,0,20,120,235,220,225,40,45,185,80,205,225,190,210,235,225,235,235,230,35,230,225,0,5,180,230,50,0,215,40,0,0,0,20,185,80,150
230,195,75,190,5,235,230,235,230,215,205,235,235,230,215,0,230,205,0,0,0,0,180,0,0,0,0,160,0,0,220,155,230,90,85,45,160,150,205,225,235,230,210,195,90,200,220,230,235,105,0,180,205,165,140,0,185,220,0,0,0,35,165,105
5,185,60,230,220,230,235,230,20,235,235,235,200,225,0,80,225,140,0,0,0,110,0,0,105,0,0,0,0,5,80,60,215,135,105,155,105,185,230,195,230,235,235,40,230,120,230,170,215,0,0,165,0,90,0,0,0,0,0,0,0,90,125,85
55,0,110,155,205,235,230,85,235,235,235,10,230,225,210,0,190,210,215,0,0,125,80,0,0,25,0,0,0,190,235,85,115,215,170,100,135,195,215,235,185,210,155,235,235,190,85,225,65,0,105,10,165,35,0,0,0,0,0,0,95,95,230,210
95,230,115,65,175,225,235,235,235,230,235,235,235,230,220,180,0,0,115,230,100,5,0,75,0,0,0,0,145,0,125,120,225,135,140,140,95,105,235,215,235,125,200,115,230,230,210,230,230,0,5,0,65,0,15,0,0,0,0,0,0,185,135,130
195,230,70,235,190,210,230,225,165,235,230,235,235,235,235,195,100,235,135,235,0,210,0,0,0,0,0,0,105,0,225,175,230,5,160,0,150,215,155,235,235,220,230,235,230,235,220,25,210,90,0,0,170,0,65,0,0,0,0,0,0,160,75,85
80,135,230,210,230,230,185,200,235,210,235,235,230,30,220,235,85,115,0,0,0,0,0,165,55,0,0,0,170,0,230,170,125,235,145,30,180,130,165,190,230,210,235,235,165,195,230,230,65,0,0,80,50,0,95,0,0,0,0,5,0,140,230,0
235,60,155,205,70,230,235,235,125,235,235,230,235,5,230,60,225,10,125,185,130,90,0,0,0,0,0,0,40,125,230,165,230,40,185,95,165,155,175,230,220,130,230,65,195,230,55,230,225,125,0,0,230,200,0,0,0,50,0,0,0,125,115,180
90,235,205,220,80,230,205,220,230,235,230,210,235,235,190,225,115,0,105,115,235,0,0,120,0,0,0,0,0,155,225,235,5,105,40,125,210,140,210,225,185,230,230,235,230,230,85,230,0,230,0,70,0,0,0,0,0,95,0,0,0,135,225,70
130,20,230,230,185,125,230,230,230,235,230,235,230,235,230,175,0,0,175,230,140,60,0,0,0,0,0,0,0,125,200,125,55,160,200,35,65,115,235,225,230,235,235,180,230,220,205,230,0,195,0,135,205,0,0,45,0,0,0,0,0,95,110,105
70,230,230,230,235,180,230,185,230,230,55,235,235,235,235,235,115,0,0,40,0,95,0,0,230,0,0,0,0,120,235,140,95,185,95,165,205,85,235,160,230,235,135,205,150,230,230,210,0,0,20,230,0,0,0,0,0,0,0,0,0,110,110,230
0,175,210,70,225,210,230,230,215,230,230,235,235,235,235,0,0,150,0,135,0,0,0,210,140,0,0,0,0,160,110,120,165,100,235,80,125,170,160,230,230,235,220,235,125,150,230,230,220,0,135,0,0,5,195,0,0,105,0,0,40,40,230,35
95,130,210,190,230,50,230,235,230,190,235,235,185,235,235,230,0,205,225,90,0,0,0,230,130,0,0,0,0,165,230,145,90,60,180,15,165,135,180,230,195,235,195,90,225,225,225,0,0,230,230,160,0,0,50,5,0,0,0,0,130,85,105,20
80,0,140,230,230,230,230,200,235,235,230,225,220,235,235,170,40,235,110,230,0,220,0,0,0,0,0,0,160,0,210,130,125,195,85,220,80,150,120,220,170,185,230,235,230,195,235,190,230,235,225,0,0,50,0,0,0,0,140,0,0,0,140,230
35,130,195,230,115,230,125,235,235,235,235,170,230,235,0,175,0,100,205,0,140,0,140,180,0,0,0,0,0,130,195,235,160,180,90,60,115,95,200,220,235,235,230,230,155,235,215,195,230,0,0,0,185,15,95,60,0,0,0,0,130,25,0,140
145,85,0,105,205,220,200,235,215,235,230,165,80,190,190,0,0,235,230,0,230,15,0,0,80,105,0,0,75,50,0,235,145,180,230,170,150,210,230,230,220,105,170,230,235,170,230,225,215,0,175,225,0,0,0,0,0,0,0,0,0,190,80,50
230,125,220,0,235,230,235,140,240,235,235,10,235,0,230,170,155,0,0,165,225,0,0,95,0,0,0,0,0,135,115,225,120,85,95,125,105,125,230,180,220,85,230,235,215,230,195,225,0,230,155,5,0,205,0,200,0,0,0,0,0,60,80,230
80,230,150,80,205,235,230,130,70,230,230,230,235,230,70,200,215,135,135,205,0,105,130,0,0,0,70,5,0,220,195,140,60,235,55,75,200,140,205,60,235,200,230,220,105,0,5,230,0,200,60,0,0,155,0,0,0,5,0,0,0,80,170,230
105,165,80,70,80,180,235,235,230,235,235,230,205,230,0,0,210,230,95,50,115,140,95,0,0,0,0,0,0,80,145,100,215,145,230,210,95,180,145,230,190,135,235,230,230,230,130,0,160,230,230,0,0,0,0,60,0,0,0,35,0,0,230,230
20,230,230,100,40,235,150,230,230,90,235,235,235,230,220,225,0,0,225,140,0,0,0,0,0,0,0,0,15,135,175,235,230,135,180,90,230,180,230,175,230,230,230,235,235,235,60,225,35,230,0,0,220,0,0,0,0,0,0,0,10,140,105,70
205,120,235,165,190,195,230,230,230,235,110,235,230,235,235,0,0,185,85,195,0,0,0,0,0,0,0,0,55,230,195,230,110,160,80,0,225,205,220,230,235,225,235,230,230,220,30,230,50,235,175,0,0,30,0,35,0,0,0,0,0,90,215,230
0,140,20,45,235,235,235,235,225,235,235,85,235,235,235,175,230,0,230,135,0,195,75,0,0,0,0,0,0,225,175,220,230,85,35,195,80,160,175,225,235,230,235,235,230,105,215,210,195,230,70,155,230,0,140,0,0,0,0,0,35,0,230,220
115,165,230,110,230,235,220,25,235,235,200,235,235,220,215,170,140,175,230,0,0,45,0,0,0,0,0,220,0,0,115,105,230,125,125,85,95,185,230,150,120,230,235,210,235,190,230,230,165,125,0,60,0,15,0,0,0,0,0,0,0,40,70,115
230,230,230,125,85,230,155,235,160,235,235,230,230,20,230,230,235,120,150,110,0,0,230,0,170,0,0,0,0,120,160,185,85,0,115,230,235,185,70,230,230,230,230,130,235,225,235,125,25,230,0,0,30,0,0,0,0,0,0,0,70,0,100,230
155,230,230,145,55,230,220,105,235,230,235,220,125,235,225,235,0,0,130,230,235,0,0,0,5,80,0,0,180,115,0,230,110,95,195,75,135,225,160,230,225,235,235,40,235,235,230,0,50,175,180,0,0,0,0,0,140,0,0,0,40,10,80,230
230,165,210,235,235,110,190,135,230,230,230,230,235,235,140,205,200,140,215,235,0,160,0,0,85,0,0,0,125,0,165,230,105,140,150,80,235,165,165,200,195,140,235,200,230,230,165,225,175,200,0,0,230,50,135,0,0,0,0,0,0,110,10,0
70,220,70,95,225,30,195,235,225,235,235,95,210,205,215,230,140,95,130,0,110,0,140,0,0,0,0,0,0,110,125,110,235,145,220,55,210,110,235,145,205,230,225,230,165,200,235,145,230,135,0,10,0,0,0,0,0,65,0,0,30,0,230,95
35,95,65,230,230,235,230,220,95,230,235,235,235,235,225,0,210,220,0,115,45,0,125,0,80,0,0,0,0,95,140,155,230,230,130,70,205,160,195,185,220,230,235,175,230,230,85,125,20,130,0,0,0,0,105,150,0,0,0,0,0,120,230,95
