20,0,0,0,0,10,65,230,105,235,0,0,0,0,0,235,0,0,0,0,0,0,10,0,0,0,0,0,35,25,20,10,10,30,10,0,30,225,10,230,185,230,15,125,35,0,195,0,0,0,20,0,0,155,120,0,0,0,0,0,0,10,20,10
10,80,0,70,0,230,10,200,235,15,0,0,5,0,5,0,0,0,0,0,40,0,150,0,0,0,0,0,5,40,35,25,35,5,10,130,220,25,40,210,235,170,15,120,25,235,115,215,0,0,0,0,0,150,0,0,0,0,0,0,0,30,5,0
80,15,0,0,0,130,130,200,105,0,0,230,0,0,235,0,0,235,0,0,0,0,0,0,215,0,0,0,10,30,30,95,35,10,60,85,20,225,95,35,20,235,180,115,10,20,185,235,215,0,0,0,0,0,0,0,0,0,0,0,10,0,15,10
5,0,0,0,0,110,210,235,105,15,5,230,0,0,0,0,0,0,0,0,0,0,235,0,0,0,0,0,15,25,15,70,10,15,25,40,10,210,35,25,230,20,5,235,5,5,0,5,235,0,0,0,0,0,0,0,230,0,0,0,20,0,40,20
0,10,20,5,0,80,235,220,235,100,150,230,0,0,0,175,185,110,0,0,0,0,0,0,0,0,0,0,35,25,25,15,70,15,15,15,75,15,30,15,230,230,15,125,10,5,0,0,235,0,0,0,0,0,0,0,0,0,0,10,0,0,40,10
80,5,100,5,0,5,5,105,230,10,175,20,0,235,0,0,0,125,100,0,0,0,0,0,235,0,0,5,230,30,25,40,20,75,5,25,150,195,140,230,45,15,180,5,35,0,0,165,175,0,0,230,0,0,0,0,0,0,0,0,0,5,5,15
10,80,0,0,135,160,230,205,230,235,235,0,110,0,0,0,0,0,0,230,0,0,0,50,0,0,0,0,5,35,20,15,40,10,75,90,10,175,30,225,215,225,220,125,0,0,230,230,0,0,0,0,155,165,0,0,0,0,0,0,0,5,85,0
5,45,0,80,165,15,5,5,210,230,0,105,0,235,95,0,230,210,0,105,0,0,0,0,0,15,0,0,0,15,30,30,60,10,145,15,20,35,200,230,215,35,40,15,0,195,0,105,0,190,230,230,5,0,235,0,0,0,0,0,0,5,5,15
0,140,30,230,0,235,5,230,230,230,0,0,0,0,0,0,0,0,0,0,0,0,0,0,0,165,0,0,10,30,15,30,20,10,5,25,40,10,20,25,215,230,20,120,205,225,0,230,0,0,230,0,0,0,0,0,0,90,0,0,0,5,5,15
5,80,5,0,0,230,0,235,180,70,230,175,0,0,0,0,0,0,120,0,0,0,215,0,0,0,0,0,20,30,25,25,5,15,190,5,25,45,25,25,235,15,20,120,15,5,160,0,220,0,220,85,0,0,0,0,0,0,0,0,0,15,20,25
0,15,80,0,140,75,235,210,5,105,235,235,0,0,0,0,0,125,0,0,0,0,0,0,0,0,0,0,5,35,10,30,25,75,130,10,215,35,35,195,25,50,235,185,15,25,0,0,215,0,0,55,0,0,215,0,0,0,0,0,0,5,10,5
195,30,0,175,15,230,5,115,190,25,0,0,235,0,0,0,0,130,0,235,0,0,225,0,0,0,0,0,5,25,35,35,40,15,10,20,170,30,215,125,45,230,115,235,205,185,140,0,0,0,230,0,0,205,0,0,0,0,0,0,0,0,5,15
10,5,180,0,0,5,210,230,25,10,190,235,150,235,0,0,0,0,105,0,0,0,0,0,0,5,0,0,15,30,15,15,60,10,5,25,15,230,25,230,230,195,15,215,5,5,235,0,0,0,195,0,0,0,0,0,0,0,0,0,5,0,5,5
40,85,115,0,230,5,230,0,105,235,230,0,40,230,0,235,0,0,0,0,0,115,0,0,0,0,0,25,0,5,15,15,15,60,110,115,10,25,120,20,115,220,10,140,0,165,230,0,0,0,0,0,0,0,0,0,0,0,0,0,0,5,0,10
0,10,0,150,5,10,5,235,230,230,0,5,15,230,0,230,0,65,125,0,0,0,235,0,0,0,0,0,15,25,15,15,65,5,5,195,15,25,45,235,230,230,115,65,230,5,170,0,0,0,0,0,0,0,0,0,0,0,0,0,0,5,25,10
0,80,0,0,230,20,5,0,235,5,235,235,185,160,230,0,0,120,0,0,0,0,85,0,0,0,0,0,20,25,30,30,20,5,135,15,150,15,75,25,160,140,20,15,140,30,25,175,0,0,0,0,0,0,0,0,0,0,0,0,0,45,10,0
0,210,0,80,0,60,115,220,235,230,0,220,0,0,0,0,230,230,0,0,0,0,0,0,0,230,0,10,0,50,50,15,145,70,25,5,95,135,15,130,230,235,15,230,120,235,220,225,235,0,0,130,0,0,0,0,0,0,0,0,0,5,60,5
5,185,0,80,55,5,230,230,230,100,235,0,0,185,150,230,0,125,45,0,0,0,0,0,0,0,0,0,5,30,25,10,5,45,70,5,115,25,35,210,40,45,85,120,5,110,140,50,0,150,0,0,0,205,0,0,0,0,0,0,0,5,5,95
0,15,0,0,70,225,0,10,0,235,0,235,0,0,0,230,130,0,0,0,230,0,85,130,0,0,0,0,35,15,35,35,5,75,5,10,40,30,60,35,215,235,15,0,125,50,0,170,35,0,0,0,0,0,0,0,0,0,0,0,0,5,0,15
0,15,80,150,0,25,0,145,5,230,5,235,235,0,0,0,235,0,130,175,0,0,0,0,0,0,60,0,20,15,85,25,15,15,25,185,15,25,230,235,50,10,10,15,230,5,170,0,115,0,0,0,70,0,0,0,0,0,0,0,5,0,15,45
140,10,135,0,5,90,10,100,105,5,5,235,0,0,0,0,0,0,0,0,0,0,0,0,0,0,0,20,35,0,20,20,85,5,40,5,15,90,40,15,230,15,235,125,230,5,0,210,0,0,0,215,90,0,0,0,0,0,0,0,0,5,15,5
0,0,0,0,5,0,10,230,115,0,15,0,235,235,0,0,130,0,155,0,0,0,0,0,0,0,0,0,15,25,20,20,50,75,20,160,75,35,15,20,235,20,140,10,145,155,0,5,0,215,0,100,0,230,0,0,0,0,0,0,0,15,0,25
0,85,95,185,15,0,205,235,105,235,230,175,0,0,0,0,235,0,0,0,230,0,0,0,0,0,0,0,10,15,25,25,55,0,80,15,30,30,230,210,25,25,15,120,40,15,230,0,0,80,150,0,0,235,0,0,0,0,0,0,0,15,15,10
10,0,0,205,0,230,5,235,105,0,230,30,0,160,25,0,0,120,230,0,65,0,0,0,0,0,0,0,15,35,20,25,25,5,170,20,30,25,105,25,70,20,125,235,15,5,35,200,150,235,0,0,0,0,0,0,0,0,0,0,0,10,60,15
10,80,0,0,0,195,15,230,235,130,195,15,0,5,230,0,0,0,0,0,0,0,0,0,220,0,0,0,5,20,20,15,60,45,5,15,180,15,210,230,155,90,230,115,235,0,5,145,130,0,5,0,220,0,0,0,0,0,0,0,0,20,10,50
20,0,0,185,195,195,230,5,0,110,170,0,235,0,230,0,0,0,0,0,0,0,0,230,0,0,0,0,5,20,30,170,45,30,25,5,40,140,60,25,230,145,125,230,10,160,0,210,0,0,0,0,0,0,0,0,0,0,0,0,25,0,45,0
80,30,0,0,180,0,210,0,5,140,0,0,0,0,0,230,125,0,0,230,0,0,0,0,0,0,0,15,0,45,20,15,80,40,80,50,15,30,20,230,130,15,125,200,5,205,165,0,215,0,0,0,0,0,0,230,0,0,0,0,0,15,0,35
80,0,140,215,0,215,5,0,215,0,5,230,100,0,0,0,0,0,0,0,0,0,0,0,0,0,185,0,40,15,10,35,65,15,30,15,35,35,205,130,35,225,235,15,15,180,0,0,115,0,0,0,0,0,0,0,0,0,0,0,0,20,5,20
5,10,0,0,160,225,220,140,235,0,0,105,235,0,0,0,0,0,0,0,0,0,0,0,40,0,0,0,20,35,30,45,20,5,15,5,110,15,225,230,175,125,5,40,0,235,0,5,0,0,0,0,0,0,0,0,0,0,0,0,0,5,50,10
40,0,0,110,0,225,225,135,180,0,105,230,5,0,0,0,0,230,235,0,0,0,0,0,0,0,0,0,15,30,25,115,35,10,20,10,190,20,230,230,60,160,170,65,0,230,5,5,230,0,0,0,0,0,0,0,0,0,0,0,0,15,10,15
5,185,0,0,5,5,185,205,0,235,0,230,0,0,230,0,0,0,0,0,230,0,230,0,0,0,0,0,20,10,20,25,120,10,195,5,15,230,25,40,230,230,230,175,205,0,0,0,0,0,0,0,0,0,0,0,0,0,0,0,0,10,0,5
5,10,0,0,110,230,220,105,130,230,235,0,230,230,235,0,0,0,0,0,0,0,0,0,0,0,0,0,10,35,35,15,75,40,15,65,15,205,215,35,35,230,140,130,20,160,225,5,0,215,0,0,0,0,0,0,0,0,0,0,5,15,50,30
5,0,85,0,230,100,0,230,105,235,230,5,0,230,0,0,0,0,120,0,0,0,0,0,0,0,0,0,15,30,25,25,15,5,25,15,0,25,25,235,35,230,210,15,230,0,0,0,0,0,0,0,0,0,0,0,230,0,0,0,0,5,15,10
0,95,215,0,100,135,10,230,125,0,0,5,0,230,230,0,0,0,0,0,235,0,0,230,0,0,0,15,25,0,25,25,15,65,25,125,10,150,20,25,230,25,145,10,120,185,155,0,0,0,180,65,0,160,0,0,0,0,0,0,0,15,20,5
0,120,0,5,35,80,95,225,235,5,230,0,0,0,0,0,230,0,130,0,0,0,0,0,0,0,0,0,15,20,25,20,15,15,15,85,35,15,220,15,230,25,10,115,150,0,0,20,0,0,140,0,0,0,230,0,0,0,15,0,0,0,10,0
40,0,85,0,75,70,10,230,225,5,205,235,0,0,0,0,0,0,0,0,0,105,230,0,0,0,20,0,0,35,70,25,70,5,5,20,10,200,150,180,25,195,230,5,5,235,0,175,70,0,0,170,0,0,0,0,0,0,0,0,0,10,15,40
0,65,110,0,0,225,0,230,0,100,0,0,0,230,0,0,230,120,0,0,0,0,85,0,0,0,0,0,15,40,20,20,5,25,65,5,15,185,130,35,85,230,125,210,165,10,5,235,0,0,0,0,135,0,0,0,0,0,0,0,15,0,10,5
5,75,0,0,210,0,230,120,105,5,0,235,0,0,0,130,0,0,0,0,0,10,0,230,45,0,0,5,30,0,20,15,15,85,125,65,15,160,30,35,230,30,125,105,230,10,145,90,15,0,0,220,0,0,0,0,10,0,0,0,0,5,5,15
90,0,75,185,50,0,125,150,5,230,235,0,0,0,0,0,90,205,0,0,0,0,0,0,0,0,0,0,15,35,10,95,15,75,15,5,20,90,35,25,40,230,135,115,185,20,235,225,20,0,210,230,0,0,0,0,0,0,0,55,0,5,15,15
135,5,80,0,190,10,115,0,235,35,30,5,235,0,0,0,125,0,0,0,0,0,0,0,0,0,0,0,5,25,30,35,15,80,10,25,15,35,200,230,60,20,85,130,235,0,230,165,0,0,0,0,0,0,0,140,0,0,0,0,0,60,5,5
70,30,5,5,160,60,125,180,120,235,0,0,0,0,0,0,0,150,0,195,15,0,0,0,0,0,0,0,25,25,20,15,75,20,45,10,15,30,40,40,175,230,220,230,5,0,0,5,145,0,0,0,0,230,0,0,0,0,0,0,0,25,30,10
5,100,5,0,5,95,0,115,105,190,0,230,230,0,230,235,0,0,0,0,0,0,0,0,0,0,0,85,15,15,25,55,20,15,5,45,25,140,30,225,25,15,235,30,115,0,0,35,0,195,105,10,175,200,0,0,0,0,0,0,0,5,10,0
35,175,0,0,210,160,220,185,85,105,0,5,0,0,0,0,235,0,0,0,0,0,0,0,0,0,0,25,0,25,15,30,15,15,5,15,15,25,160,205,235,195,65,5,230,0,20,160,0,0,0,0,0,0,0,0,0,0,0,0,5,10,20,35
0,0,65,0,50,40,5,175,105,105,230,0,0,220,0,235,0,0,0,0,0,0,0,0,0,0,0,0,5,30,15,30,20,5,50,5,15,30,40,220,235,40,230,15,120,230,220,0,0,130,0,0,0,0,0,0,0,0,0,0,0,10,35,65
0,85,0,180,50,20,205,190,105,170,35,5,65,0,0,0,195,0,0,0,0,0,0,235,0,0,0,0,5,25,20,20,15,5,150,25,20,35,25,230,25,15,230,55,215,10,0,0,0,0,0,0,0,0,0,0,0,0,0,0,0,10,15,10
5,75,15,0,0,90,230,5,230,105,175,0,0,0,235,0,0,0,0,235,0,0,0,0,45,80,0,0,35,15,35,25,5,135,50,75,5,105,60,230,35,95,25,150,125,45,220,65,15,0,0,155,0,0,0,0,0,0,0,0,0,25,5,5
25,35,0,0,85,40,230,230,230,150,235,40,0,0,190,0,205,130,230,0,0,0,0,0,0,0,0,0,10,25,20,30,25,65,5,15,200,195,170,220,15,25,60,5,215,190,5,110,0,0,0,0,0,0,0,0,0,0,0,0,0,25,15,15
25,110,0,0,220,135,0,175,105,10,230,0,190,0,0,0,0,125,120,125,0,0,95,0,0,0,0,0,15,40,65,25,20,5,15,20,15,30,140,30,230,5,60,15,230,0,220,0,0,0,0,0,125,0,0,0,0,0,0,0,0,15,10,5
20,80,0,0,60,5,175,180,235,235,0,5,0,235,0,0,130,0,0,0,0,0,0,0,0,15,0,0,5,25,30,60,80,5,5,15,20,215,35,230,230,60,10,15,230,5,0,0,0,235,0,0,0,0,0,0,0,0,0,0,0,5,5,10
20,0,0,5,220,0,5,235,165,230,5,0,0,0,0,0,0,0,0,0,90,0,0,0,0,0,0,25,0,20,35,20,10,20,0,170,185,25,190,25,230,140,115,25,75,5,185,0,0,0,70,0,0,0,0,0,0,0,0,0,5,15,5,0
