36,18,0,204,0,30,0,180,255,0,0,12,0,0,0,0,0,0,255,0,0,0,0,0,0,0,0,0,36,24,30,12,186,18,12,6,42,24,42,36,255,255,36,6,252,6,30,0,0,0,0,0,0,0,0,0,0,0,0,0,6,0,12,0
0,60,0,0,0,12,6,255,180,255,0,255,0,0,0,0,0,0,0,0,0,0,0,0,0,0,0,0,24,30,12,30,6,6,18,18,24,126,30,255,36,18,6,255,6,0,0,0,0,0,0,0,0,0,0,0,0,0,0,0,0,6,6,18
18,0,0,12,6,0,0,255,6,6,0,0,0,0,0,0,0,0,255,0,255,0,0,0,0,0,0,0,12,36,42,12,18,126,18,18,6,234,48,42,30,18,255,228,6,0,0,0,0,0,0,0,0,0,0,0,0,0,0,0,0,12,12,6
42,0,54,0,0,12,156,6,255,0,0,0,0,0,0,0,255,0,0,0,0,0,0,0,0,0,0,0,18,36,18,42,24,102,24,30,150,12,18,114,42,255,18,12,6,0,0,84,0,0,0,96,0,0,0,0,0,0,0,0,0,0,0,24
6,0,6,6,0,222,12,0,255,180,0,0,0,0,0,255,0,0,0,0,0,72,0,0,0,0,0,0,6,36,12,24,30,90,6,42,84,60,12,36,42,30,255,255,0,180,0,0,0,0,0,0,0,0,0,0,0,0,0,0,6,0,18,6
0,6,0,0,126,6,102,0,255,0,0,6,255,0,0,0,0,0,0,0,0,0,0,0,0,0,0,0,36,30,36,18,0,12,18,12,30,210,198,24,72,36,6,255,24,0,255,6,0,0,0,0,0,0,0,0,0,0,0,0,12,0,6,12
0,12,0,0,126,6,72,6,0,222,255,255,0,6,0,0,0,0,0,0,0,0,0,0,0,0,0,18,0,30,18,24,12,6,36,12,102,180,150,42,72,42,234,6,6,0,42,0,0,0,0,0,0,0,0,0,0,0,0,0,0,18,54,18
0,0,78,0,0,18,162,6,30,120,255,255,0,0,0,0,0,0,0,0,0,0,0,0,0,0,0,18,0,36,30,24,36,96,96,6,30,30,246,24,24,234,24,255,240,174,0,0,0,0,0,0,0,0,0,0,0,0,0,0,6,0,0,12
6,84,0,0,42,138,6,6,255,6,255,6,0,0,0,0,0,0,0,0,0,0,0,0,0,0,0,0,6,36,30,24,24,18,0,18,18,228,30,30,30,255,30,18,6,228,66,0,0,0,0,0,0,0,24,0,0,0,0,0,0,12,18,6
0,150,144,6,0,12,0,255,186,0,0,0,174,0,0,0,0,0,0,0,0,0,255,0,234,0,0,18,0,30,18,24,120,12,6,96,42,42,18,42,66,255,18,30,6,6,0,0,42,0,0,0,252,0,0,0,0,0,0,0,0,6,6,6
0,6,0,0,180,30,162,6,6,255,6,0,0,0,0,0,72,0,0,0,0,0,0,0,0,0,0,0,30,36,18,48,48,30,12,24,90,42,42,48,60,255,180,24,0,0,0,255,0,0,0,0,0,0,0,0,0,0,0,0,0,12,0,12
6,0,0,6,0,138,12,12,255,255,6,0,0,0,0,0,0,0,0,0,0,0,0,0,0,84,0,30,36,30,30,0,12,102,18,24,18,54,36,36,255,36,255,0,12,6,6,0,0,255,0,0,0,0,0,0,0,0,0,0,6,12,24,0
30,6,30,0,0,210,6,54,216,0,255,0,0,0,255,255,0,0,0,0,0,0,0,0,0,0,0,0,6,30,30,24,18,96,6,6,12,30,222,66,24,255,24,6,54,0,0,0,0,0,0,0,0,0,0,0,0,0,0,0,0,6,0,12
18,0,12,0,12,18,0,255,0,6,6,255,0,0,0,0,0,0,0,0,0,0,0,0,0,0,0,0,42,42,54,36,18,6,18,12,30,36,30,30,204,30,255,234,0,48,255,0,0,0,0,0,0,0,0,0,0,0,0,6,0,0,18,42
6,12,0,0,255,36,12,18,255,234,6,0,0,0,0,0,0,0,0,0,0,0,0,126,0,0,0,0,48,12,30,54,12,30,18,24,30,30,198,24,42,255,126,12,0,24,12,255,0,0,0,0,0,0,0,0,0,0,0,0,0,30,6,12
18,0,0,6,12,48,12,42,0,18,0,255,0,228,0,0,0,0,0,0,0,0,0,0,0,0,0,0,18,30,30,6,30,6,18,12,30,72,42,60,216,18,24,6,24,6,0,0,0,0,0,66,0,0,0,0,0,0,0,0,18,0,30,18
54,54,0,132,6,6,6,255,162,6,0,255,0,0,0,0,0,0,0,222,0,0,0,0,0,0,0,18,0,30,24,30,24,12,6,12,12,24,156,36,255,36,222,6,222,252,0,0,42,0,0,0,0,0,0,0,0,0,0,0,0,18,6,54
6,6,0,0,0,12,12,255,6,6,255,0,0,0,0,0,0,0,0,0,0,0,0,0,0,0,0,0,24,24,18,36,24,18,6,18,30,42,24,48,255,6,252,168,42,6,0,0,0,0,0,0,0,0,0,0,0,0,0,6,0,6,12,6
0,0,18,0,0,0,0,216,6,255,0,255,0,255,255,0,0,0,0,0,0,0,0,0,0,0,0,0,6,54,48,18,36,90,6,102,36,12,36,30,18,36,18,246,24,0,228,255,0,0,0,0,0,0,0,0,0,0,0,0,0,18,6,60
60,0,60,90,6,6,18,255,6,0,150,0,0,255,0,0,255,0,0,0,0,0,0,0,0,0,0,12,0,18,30,78,18,18,42,36,84,6,42,72,24,84,30,18,6,0,210,255,18,0,0,0,0,0,0,0,0,0,84,0,6,42,6,0
30,66,0,252,0,228,0,255,255,12,12,0,0,0,0,0,0,0,0,0,0,0,0,255,0,0,0,0,24,24,24,42,18,12,12,6,24,18,30,210,18,162,18,216,0,18,252,228,0,0,0,0,0,0,0,0,0,0,0,0,12,0,6,6
24,0,6,0,0,0,246,6,0,255,234,0,0,0,0,0,0,0,0,0,0,0,255,0,0,0,0,12,0,24,18,30,132,18,6,6,24,162,66,48,255,24,6,255,60,0,0,0,0,30,0,0,0,0,210,0,255,0,0,6,0,18,18,0
0,0,108,6,0,6,156,6,0,255,0,0,0,255,0,0,0,0,210,0,0,0,255,0,0,0,0,0,6,36,30,36,18,84,6,18,18,72,255,30,30,6,24,96,18,0,30,0,0,0,0,0,0,0,0,0,0,0,0,0,0,6,6,18
0,0,0,84,18,255,6,18,240,6,0,6,255,0,0,0,0,0,0,0,0,0,0,0,0,0,0,0,24,6,30,24,18,102,6,24,24,30,24,30,216,138,18,6,6,255,234,0,0,0,0,0,0,0,255,0,0,0,0,0,0,12,18,48
0,6,96,12,30,0,222,6,12,6,6,0,0,0,0,0,0,255,0,0,0,0,0,0,0,0,0,0,18,24,30,42,18,6,6,18,18,42,42,252,54,18,204,102,18,255,0,0,0,0,0,0,0,0,0,0,0,0,0,0,6,0,18,6
0,6,0,0,6,12,255,0,255,255,6,0,255,0,0,0,0,0,0,0,0,0,0,0,0,0,0,30,0,36,18,30,6,6,24,6,30,42,24,24,198,255,18,18,0,72,0,0,0,0,0,0,0,0,0,0,0,0,0,0,0,12,6,6
6,0,0,6,0,18,0,6,255,48,240,0,0,255,0,0,0,0,0,0,0,0,0,0,255,0,0,36,0,18,60,18,6,126,204,30,18,198,30,132,42,96,12,255,6,6,0,0,0,0,0,0,0,0,0,0,114,0,0,0,0,18,6,12
6,24,0,126,6,30,0,0,12,0,6,12,255,255,0,255,0,0,0,0,0,0,0,0,0,0,0,0,18,30,30,30,30,6,12,186,12,30,255,42,54,12,255,90,18,0,0,0,0,0,0,0,0,0,0,0,0,0,0,0,0,6,6,12
36,0,42,12,0,0,156,252,12,0,255,0,255,0,0,0,0,0,0,0,0,0,0,0,0,0,0,0,18,48,24,12,24,6,18,12,24,48,48,30,30,18,30,255,6,0,0,255,0,0,0,0,0,0,0,174,0,0,0,0,0,6,30,18
12,0,0,0,120,30,255,252,0,0,0,0,0,0,0,0,255,0,0,0,0,0,0,0,0,0,0,0,30,24,42,18,6,18,12,18,18,18,234,12,72,36,12,255,48,0,6,102,0,0,0,0,0,0,0,0,0,0,0,0,24,0,6,12
0,0,0,0,6,210,0,6,6,6,12,0,0,0,0,0,0,0,0,0,108,0,0,0,0,0,18,0,0,48,24,18,36,6,90,6,18,12,30,24,18,255,72,18,6,255,0,255,0,252,0,0,0,0,0,0,0,0,0,0,0,24,18,6
0,0,6,0,255,6,246,222,30,6,6,255,0,0,0,0,0,0,0,0,0,0,0,0,0,0,0,0,18,18,18,18,6,36,0,24,30,30,18,255,102,192,18,36,48,228,0,168,255,0,0,0,0,0,0,0,0,0,0,0,0,6,24,24
18,36,0,6,0,0,48,0,255,255,0,6,255,0,0,0,0,0,0,192,0,0,48,0,0,0,0,0,6,24,24,24,18,18,108,30,30,18,30,126,18,18,255,18,6,255,0,0,30,0,0,0,0,0,0,0,0,0,0,0,0,6,30,24
6,0,36,6,0,0,6,255,240,255,255,0,0,0,0,162,0,0,0,0,0,255,0,0,0,0,0,18,0,30,36,18,84,6,0,18,48,36,198,36,102,78,36,0,255,6,6,0,0,0,0,0,0,0,0,0,0,0,0,0,0,18,42,0
24,0,0,0,0,12,0,6,255,234,6,0,0,0,0,0,255,0,0,0,0,0,0,0,0,0,0,0,42,30,6,24,30,18,12,6,18,36,210,78,255,42,36,66,78,18,0,0,0,0,0,0,0,42,0,0,0,0,0,0,0,0,18,6
0,0,0,12,0,6,90,6,255,222,6,0,0,255,0,0,0,0,0,0,0,0,0,0,0,0,0,0,42,30,42,12,18,18,18,168,30,24,60,255,24,18,0,6,255,30,6,255,6,0,0,0,0,0,0,0,0,0,0,0,0,12,12,60
0,12,0,0,12,0,12,255,240,6,0,255,0,252,0,0,0,246,0,0,0,0,0,0,0,0,0,0,18,30,24,30,12,0,6,12,24,174,30,36,255,198,12,18,0,255,255,6,0,0,0,0,0,0,0,0,0,0,0,0,0,0,12,0
18,0,0,0,0,18,42,6,0,246,255,0,0,252,0,0,0,0,0,0,0,144,0,0,0,0,0,0,12,36,36,18,6,42,6,24,114,210,144,42,18,255,255,90,0,18,0,0,0,0,246,0,0,0,0,0,0,0,0,0,0,24,18,12
30,6,0,0,255,96,246,6,6,255,0,0,0,0,0,0,0,0,0,0,0,0,0,0,0,0,0,0,12,36,48,12,30,6,6,42,18,42,48,192,24,12,216,36,6,0,6,0,0,0,0,0,0,0,0,0,0,0,0,18,0,0,30,12
12,0,0,12,0,6,60,0,0,18,246,0,0,255,0,0,0,0,0,0,0,0,0,0,0,0,0,0,30,18,30,18,12,12,12,6,30,30,222,42,54,24,12,12,18,6,0,0,0,0,0,0,0,0,0,0,240,0,0,0,0,12,18,18
6,0,6,18,126,0,0,6,192,0,6,0,0,0,0,0,0,0,0,0,0,0,0,192,204,0,0,0,30,12,24,18,18,6,6,30,30,24,246,36,72,240,255,12,6,6,0,0,0,0,0,255,0,0,0,0,0,0,0,0,0,42,6,30
6,84,0,18,0,6,30,198,78,0,255,0,0,0,0,0,0,0,0,0,210,0,0,0,0,0,0,12,0,36,12,42,18,6,18,18,30,48,96,222,255,24,84,18,18,6,0,0,255,0,0,0,0,0,0,0,0,0,0,0,0,12,48,24
0,6,0,0,0,156,240,0,198,255,48,0,0,0,0,0,0,0,0,0,0,0,0,0,0,0,0,0,36,18,30,18,18,6,12,12,30,60,60,36,36,234,42,255,6,228,0,0,255,0,0,0,0,0,0,0,0,0,0,0,6,0,6,18
72,0,0,0,0,198,198,255,12,255,0,0,0,0,0,0,0,0,0,0,0,0,0,0,0,0,0,0,18,42,36,6,12,18,12,18,30,42,42,24,36,246,12,6,255,6,42,48,0,0,0,0,0,255,0,0,0,0,0,0,12,0,6,0
0,6,0,0,138,6,255,42,204,255,0,0,0,0,0,0,138,0,0,0,0,0,0,0,0,54,0,18,0,18,24,72,12,12,18,18,24,24,126,30,168,180,12,255,84,12,0,12,0,0,0,0,0,0,0,0,0,0,0,0,42,12,18,30
18,30,0,0,6,102,255,0,0,0,0,0,0,0,0,0,0,0,0,0,6,0,0,0,0,0,0,0,30,12,48,18,42,18,12,150,18,30,132,60,222,168,198,72,0,12,0,255,0,0,0,0,0,0,0,0,0,0,0,0,0,6,12,6
66,0,0,18,18,6,0,6,0,255,0,0,0,255,255,0,0,0,96,0,0,0,0,0,0,0,0,0,6,30,42,42,24,84,192,30,18,42,210,255,30,180,162,66,240,18,0,0,246,0,0,0,0,0,0,0,0,0,0,0,18,42,18,18
18,0,0,0,0,6,150,255,6,0,0,84,255,255,0,0,0,0,0,0,0,0,0,0,0,0,0,0,18,18,54,30,18,30,174,12,114,138,30,30,36,252,24,12,222,0,0,6,126,0,0,0,0,0,0,0,0,0,0,0,6,6,12,12
0,0,48,114,0,12,6,255,6,0,0,0,0,255,255,0,0,0,0,0,0,0,0,0,0,0,0,18,0,42,24,42,30,72,12,180,42,18,30,36,36,255,48,12,6,255,0,0,0,0,0,0,0,144,0,0,0,0,0,0,0,6,6,12
18,66,0,30,144,6,255,12,192,12,0,0,0,0,0,255,0,0,0,0,0,0,0,210,0,0,0,18,36,0,12,30,12,132,132,18,30,54,48,30,90,156,255,12,162,6,6,0,0,0,0,0,0,0,0,0,0,0,0,6,0,0,6,48
