0,0,0,0,0,0,7,14,0,7,255,0,7,0,0,0,0,0,0,0,0,0,0,0,0,0,0,0,0,42,14,49,14,21,7,14,21,7,42,28,255,21,35,255,7,28,0,7,0,0,0,0,0,0,0,0,0,0,0,0,0,7,7,7
0,0,7,0,0,14,7,21,0,7,0,255,0,0,0,0,0,0,0,0,0,0,0,0,0,0,0,0,0,28,21,35,49,7,7,7,21,35,21,28,35,49,255,35,21,7,14,0,0,0,0,0,0,0,0,0,0,0,0,0,0,7,21,7
0,0,35,0,0,0,0,0,7,7,0,0,0,255,0,0,0,0,0,0,0,0,0,0,0,0,0,0,0,21,42,21,7,7,28,14,7,42,35,28,255,14,21,21,0,7,0,0,0,0,0,0,0,0,0,0,0,0,0,0,7,0,0,21
0,0,0,0,0,7,0,0,14,0,0,0,7,0,0,0,0,0,0,0,0,255,0,0,0,0,0,0,0,35,28,14,28,14,14,7,14,7,42,35,56,21,21,21,0,7,0,0,0,196,0,0,0,0,0,0,0,0,0,0,0,0,7,14
14,0,0,0,0,63,0,7,14,255,0,0,0,0,0,0,0,0,0,0,0,0,0,0,0,0,0,0,0,21,14,28,7,7,7,14,7,35,42,56,28,49,21,14,14,7,0,0,0,0,0,0,0,0,0,0,0,0,0,0,0,0,7,35
0,0,0,0,0,0,0,0,7,255,0,0,0,0,0,0,0,0,0,0,0,0,0,0,0,0,0,0,35,56,35,35,21,7,21,14,14,21,35,56,140,21,28,14,14,35,0,0,0,0,0,0,0,0,0,0,0,0,0,0,7,0,14,0
0,0,0,0,0,224,0,21,0,7,0,0,0,0,0,0,0,0,0,0,0,0,0,0,0,0,0,0,14,0,42,14,21,14,35,7,14,21,28,49,35,35,35,35,21,7,0,7,7,0,0,0,112,0,0,0,0,0,0,0,0,0,21,7
0,0,0,0,7,0,21,255,7,49,7,0,0,0,0,0,0,0,0,0,0,0,140,0,0,0,0,0,0,28,21,42,14,14,0,28,21,35,42,28,133,42,21,28,63,7,0,0,0,7,0,0,0,0,0,0,0,0,0,0,0,7,7,0
0,0,0,0,0,7,49,14,0,7,0,0,0,0,0,0,0,0,255,0,0,0,0,0,0,0,0,0,0,21,42,42,14,7,7,14,7,42,14,35,182,21,14,21,7,21,0,0,0,0,0,0,0,0,0,0,0,0,0,0,0,0,0,0
0,0,21,0,0,0,7,28,0,14,0,0,255,0,196,0,0,0,0,0,0,0,0,0,0,0,0,0,0,49,21,42,21,14,7,21,21,35,35,56,196,21,35,35,21,21,0,0,0,0,0,0,255,0,0,0,0,0,0,0,7,0,0,7
0,0,0,0,0,7,238,56,7,0,0,7,0,0,0,0,0,0,0,0,0,0,0,0,0,0,0,0,0,35,28,21,21,14,7,7,28,7,35,28,42,35,35,7,21,7,0,7,0,0,0,0,0,0,0,0,0,0,0,0,0,7,14,7
0,0,0,0,0,7,7,14,0,7,7,189,7,0,0,0,0,0,0,0,0,0,0,0,0,0,0,0,14,0,28,14,7,14,7,21,14,35,21,28,56,21,7,7,0,126,7,0,0,0,0,0,0,0,0,0,0,0,0,0,14,0,21,7
7,0,0,0,0,0,0,7,35,14,0,0,0,0,0,0,189,0,0,0,0,0,0,0,0,0,0,0,14,0,28,21,21,21,14,7,21,21,35,49,105,21,42,7,35,0,7,0,0,0,0,0,0,0,0,0,0,0,0,0,0,7,0,7
0,0,0,0,7,0,0,7,7,0,0,0,7,0,0,0,0,0,0,0,0,161,0,0,0,0,0,0,0,49,21,35,35,35,14,7,35,21,42,98,35,28,21,14,14,0,14,0,0,0,0,0,0,0,0,0,0,0,0,0,0,0,14,0
0,7,0,0,0,0,7,0,0,7,0,7,0,0,0,0,0,0,0,0,0,0,0,0,0,0,0,0,0,7,42,28,7,35,7,7,28,21,255,35,35,35,14,49,7,14,0,0,0,0,0,0,0,84,0,0,0,0,0,0,35,0,14,0
0,0,14,0,0,203,7,35,7,7,0,0,0,0,0,0,0,0,0,0,0,0,0,0,0,0,0,0,0,21,21,28,21,21,21,35,7,21,49,35,35,35,35,21,7,7,7,0,0,0,0,0,0,0,0,0,0,0,0,0,0,21,0,0
14,0,0,0,0,0,0,0,14,255,0,7,0,0,0,0,0,0,0,0,0,0,0,0,0,0,0,0,21,0,21,42,7,7,14,14,0,21,28,35,28,35,255,14,7,21,0,14,0,0,0,0,0,0,0,0,0,0,0,0,7,7,0,7
7,0,0,0,0,14,14,0,7,28,0,0,0,0,255,0,0,0,0,0,0,0,0,0,0,0,0,0,0,35,14,35,14,14,14,21,35,21,28,255,35,42,21,14,21,7,0,0,0,0,0,0,0,0,0,0,0,0,0,0,0,7,7,0
7,0,0,0,0,0,7,0,7,0,0,7,0,0,0,0,0,0,0,0,0,0,255,0,0,0,0,0,0,21,14,35,14,21,7,14,28,14,35,231,35,21,14,14,7,7,0,0,0,7,0,0,0,0,0,0,0,0,0,0,0,0,7,0
0,14,0,0,175,14,0,0,7,7,0,7,0,0,0,0,0,0,0,0,0,0,0,0,0,0,0,0,49,0,21,21,28,0,21,0,49,14,49,56,21,28,21,255,7,0,7,7,0,0,0,0,0,0,0,0,0,0,0,0,0,0,21,0
7,0,0,0,0,21,0,7,7,0,14,0,0,0,0,0,0,0,0,0,0,0,0,0,0,0,0,0,0,21,21,28,14,21,14,21,14,217,42,35,35,35,21,21,0,0,0,14,0,0,0,0,0,0,0,0,0,0,0,0,0,0,0,0
0,7,0,0,0,0,0,14,14,0,0,0,255,0,0,0,0,0,0,0,0,0,0,0,0,0,0,0,0,21,21,28,28,21,7,14,7,14,35,35,49,42,21,255,0,14,0,7,0,0,0,0,0,0,0,0,0,0,0,0,0,0,7,0
0,0,0,0,14,112,14,0,0,0,0,0,0,0,0,0,0,0,0,0,0,0,0,0,0,0,0,0,21,28,21,35,14,21,7,21,7,35,28,35,49,21,7,7,7,0,0,0,0,0,0,0,0,0,0,0,0,0,0,0,0,0,14,0
0,0,7,0,0,0,7,7,7,7,0,0,0,0,0,0,0,0,0,0,0,0,0,0,0,0,0,0,0,21,35,35,35,14,7,14,14,28,28,35,21,35,21,42,7,0,7,0,0,0,0,0,0,0,0,0,0,105,0,0,0,0,7,21
0,0,7,0,0,0,7,0,0,0,0,238,0,0,0,0,0,0,0,0,0,0,0,0,0,0,0,7,0,0,21,49,28,14,14,14,35,112,28,28,56,35,21,7,7,147,7,0,7,0,0,0,0,0,0,0,0,0,0,0,0,7,0,7
0,0,7,98,0,7,7,7,0,7,0,7,255,0,0,0,0,0,0,0,0,0,0,0,0,0,0,0,0,21,35,21,35,0,35,21,21,35,49,56,21,49,63,14,7,7,0,14,0,0,0,0,255,0,0,255,0,0,0,0,0,0,7,28
0,21,7,0,0,182,0,7,189,0,7,0,7,0,0,0,0,0,0,0,0,0,0,189,0,0,0,0,0,28,14,35,21,7,7,147,21,21,28,56,255,35,28,42,231,7,0,0,0,0,0,0,0,0,0,0,0,0,0,0,0,7,0,7
28,0,0,0,0,0,7,217,255,0,0,255,0,0,0,0,0,0,0,0,0,0,0,0,0,0,0,28,0,42,28,28,21,7,7,14,14,21,161,63,35,21,28,255,7,0,7,0,0,0,0,0,0,0,0,0,0,0,0,0,0,7,0,0
0,0,0,0,0,0,35,7,14,255,0,0,0,0,0,0,0,255,0,0,0,0,0,0,0,0,0,0,0,35,49,21,21,14,21,84,7,21,49,21,255,28,35,14,7,255,7,0,0,210,0,0,0,0,0,0,0,0,0,0,0,0,7,7
56,0,0,0,0,7,7,0,0,14,7,0,255,0,0,224,0,255,0,0,0,0,0,0,0,0,0,0,0,14,35,21,21,91,77,7,14,49,35,42,42,21,35,28,255,7,0,0,0,238,0,0,0,0,255,0,0,0,0,0,0,0,7,7
7,70,0,0,0,7,175,7,21,7,0,255,0,0,0,0,0,0,0,0,0,196,0,0,0,0,0,91,0,21,28,28,70,14,7,7,7,35,119,49,42,42,42,14,7,14,255,238,0,0,0,0,0,0,0,0,0,0,0,0,0,7,7,0
7,77,0,0,0,0,0,7,7,35,255,0,0,255,0,0,0,0,0,0,0,0,0,0,0,0,0,0,0,14,35,35,21,21,7,7,42,21,21,28,28,255,21,21,21,0,0,255,0,0,0,0,0,0,0,0,0,0,0,0,0,14,7,7
0,0,0,7,0,0,0,14,0,7,0,255,0,0,0,0,255,0,0,0,0,0,0,0,0,0,0,0,0,21,28,14,14,28,21,28,7,98,35,42,255,21,7,14,7,7,0,0,7,77,0,0,0,0,0,0,0,0,0,0,0,0,0,7
0,0,0,77,0,0,0,255,14,0,35,7,0,0,0,0,0,0,0,0,0,0,0,0,0,0,7,0,0,14,28,21,28,35,7,77,7,14,35,28,28,255,7,28,14,0,7,0,0,0,0,0,0,0,0,0,0,0,0,0,0,0,7,21
0,0,0,0,0,7,7,0,0,0,0,0,0,0,0,255,0,0,255,0,0,0,0,0,0,0,0,0,0,14,35,21,28,7,42,21,14,21,42,224,35,28,7,7,7,7,0,0,0,119,0,0,0,0,0,0,0,0,0,0,0,0,7,14
0,0,14,14,0,0,252,14,14,0,0,7,7,0,0,0,0,255,0,0,0,0,0,0,0,0,0,0,0,21,28,28,21,21,14,21,168,35,28,42,28,21,21,14,14,7,0,0,0,0,0,0,0,0,255,0,0,0,0,0,0,0,7,0
0,0,0,0,0,189,0,28,7,0,14,0,0,0,0,0,0,0,0,0,0,0,0,0,0,0,0,0,0,21,21,28,28,21,14,7,21,56,35,42,28,49,35,7,7,7,0,0,0,0,0,0,255,0,0,0,0,0,0,0,0,0,0,0
0,0,0,14,7,0,21,7,0,7,28,0,0,0,0,0,0,0,0,0,0,0,0,0,0,0,0,0,14,0,35,28,21,21,7,7,35,7,42,42,28,21,21,7,255,0,7,0,0,0,0,0,0,0,0,0,0,0,0,0,0,7,7,21
0,0,0,0,0,14,70,0,0,0,7,0,255,0,0,0,0,0,0,0,0,0,0,14,7,14,0,7,0,14,35,14,21,7,21,7,35,49,28,28,49,35,35,7,21,21,7,0,0,0,0,0,0,0,0,0,0,0,0,0,0,14,0,7
7,0,0,7,0,0,168,0,7,0,0,0,0,0,0,0,0,0,0,0,0,0,0,0,0,0,0,255,21,21,35,21,7,7,7,21,28,42,35,21,35,255,14,21,0,7,0,7,0,0,0,0,0,0,0,0,0,0,0,0,28,7,0,0
7,0,0,0,0,7,14,21,0,0,7,0,255,0,0,0,0,0,0,0,0,0,0,0,0,0,0,0,0,35,35,42,21,14,14,21,49,14,28,255,35,21,21,21,7,7,0,7,0,245,0,0,0,0,0,0,0,0,0,0,0,7,0,0
42,0,0,0,0,0,0,7,0,7,21,0,0,0,255,0,0,0,0,0,0,0,0,0,0,0,0,0,0,21,35,21,14,21,7,7,21,42,255,28,35,35,21,28,14,0,7,0,0,0,0,0,0,0,0,0,0,0,0,0,0,21,0,7
42,7,0,7,0,7,7,7,0,7,0,0,0,217,0,0,0,0,0,0,0,0,0,0,0,0,0,0,0,21,14,35,84,35,21,7,21,35,21,21,35,28,35,7,14,0,7,0,0,0,217,0,0,0,0,0,0,0,0,0,7,0,7,0
56,0,0,0,7,0,7,7,7,0,0,0,7,0,0,0,0,203,0,0,0,0,0,0,0,0,0,0,35,7,28,7,77,21,28,35,14,14,42,42,21,119,14,21,7,0,0,7,0,0,0,0,0,0,0,0,0,0,0,0,0,7,7,0
0,0,0,0,0,14,7,7,0,255,14,0,0,0,0,0,0,0,0,0,0,0,0,0,0,0,0,21,0,35,42,14,7,14,28,14,35,49,42,252,35,21,14,14,70,0,0,0,0,0,0,0,0,0,0,0,0,0,0,0,0,7,7,0
0,0,0,7,0,7,0,7,7,0,0,0,0,255,0,0,255,0,0,0,0,0,0,0,0,0,0,0,0,28,28,14,21,7,14,0,84,14,77,35,49,63,21,14,14,21,7,255,0,0,0,0,0,0,0,0,0,0,0,0,0,0,7,7
0,0,0,0,0,7,7,255,0,0,0,0,7,0,0,0,0,0,0,0,0,0,0,0,0,0,0,0,21,0,35,28,7,35,7,28,7,21,28,28,42,35,35,21,14,14,0,0,0,0,0,0,0,0,0,0,0,0,0,0,0,0,7,14
0,0,0,0,0,0,14,0,0,14,7,0,0,0,0,0,0,0,0,0,0,0,0,0,0,0,0,0,0,35,49,21,14,7,7,7,21,35,28,70,49,35,42,14,7,7,0,0,0,0,0,0,0,140,0,0,0,0,0,0,0,0,7,0
0,0,0,0,0,0,7,7,14,7,0,0,0,0,255,0,0,0,0,0,0,0,0,0,0,0,0,0,28,0,21,21,28,0,28,14,35,21,63,35,77,21,7,35,7,7,0,7,0,252,255,0,0,0,0,0,0,0,0,0,0,14,7,0
14,0,0,0,0,0,0,7,7,7,0,7,0,0,0,0,0,0,0,0,0,0,0,0,0,0,245,0,0,28,42,35,77,21,7,14,21,35,42,14,21,35,35,14,7,245,0,0,255,0,0,0,0,0,0,0,0,0,0,0,0,0,7,7
