10,255,10,10,255,255,255,255,255,255,255,255,255,255,0,0,0,0,0,255,0,0,0,0,0,0,0,0,50,100,70,60,180,10,255,255,80,40,255,255,255,255,30,255,255,255,255,20,0,50,255,0,0,0,255,0,0,0,0,180,0,0,70,40
255,0,10,100,255,255,180,40,255,255,255,255,255,255,255,255,0,255,0,255,0,0,0,0,0,0,10,0,0,140,255,90,140,30,110,50,255,255,255,255,255,255,255,255,255,255,70,10,0,180,0,0,0,0,100,0,0,0,0,0,0,100,80,10
10,0,30,255,0,255,0,255,0,255,255,255,0,255,0,160,0,0,255,0,0,0,0,0,0,0,0,0,10,90,80,255,50,10,110,10,50,70,70,255,255,255,255,255,255,220,10,40,170,40,30,0,0,255,0,0,0,0,0,0,0,40,70,20
210,255,255,20,100,70,0,255,255,255,255,255,255,255,100,0,255,255,255,0,255,0,0,0,0,0,0,0,30,100,255,130,255,70,170,255,170,30,255,255,255,190,255,255,255,130,0,0,0,0,0,255,200,0,0,0,0,0,0,0,30,0,10,60
0,200,255,255,0,255,170,255,90,255,255,255,255,255,0,0,255,0,0,0,0,0,0,255,0,0,0,70,0,50,50,50,255,240,30,240,140,210,70,255,255,255,255,180,255,10,255,150,255,255,20,10,0,20,10,0,0,0,0,0,0,20,30,10
0,255,20,255,90,255,255,255,255,200,255,0,255,0,255,0,0,0,0,0,0,0,0,0,0,255,0,0,50,40,50,80,40,255,20,70,200,255,50,140,255,255,255,255,255,255,0,0,90,255,255,255,60,0,0,0,0,0,0,0,20,40,30,40
50,0,255,210,255,255,255,255,255,190,255,0,110,0,255,255,0,0,0,0,255,255,0,0,0,0,0,0,30,80,255,70,110,20,255,70,60,50,255,255,255,140,10,255,255,255,255,255,30,0,255,0,0,0,0,0,0,0,0,20,0,0,70,10
0,255,255,0,0,255,255,255,255,255,255,0,255,0,60,0,0,0,0,0,0,255,0,0,0,220,0,0,10,120,70,160,70,255,255,10,255,255,190,30,60,255,255,255,255,255,255,0,255,10,0,0,0,0,160,255,0,0,0,0,30,10,20,80
0,0,0,255,90,255,255,255,255,255,240,255,255,0,255,255,0,255,0,0,0,0,0,0,220,0,0,0,30,60,255,40,80,255,10,40,200,200,90,210,255,255,30,160,255,255,255,0,90,0,0,0,255,0,0,0,0,0,0,0,0,20,60,50
60,10,255,255,255,40,255,40,10,255,190,255,255,255,255,190,0,0,0,0,0,0,0,255,0,0,0,10,0,70,220,50,60,255,50,100,40,255,190,255,255,255,255,255,255,255,255,255,10,0,0,255,0,0,0,0,0,0,0,0,0,20,70,30
0,255,0,10,255,0,20,255,255,255,255,255,255,255,0,0,0,0,0,0,0,110,0,255,150,0,0,30,0,50,255,60,130,220,50,160,110,170,130,80,230,255,255,255,255,255,0,140,0,0,0,0,0,0,0,0,0,0,0,0,0,50,20,10
0,0,20,10,255,0,255,255,255,255,255,250,255,255,0,0,0,0,0,0,255,0,0,0,0,0,0,0,30,30,70,80,40,10,70,110,70,230,110,255,255,255,180,255,20,255,160,0,0,0,255,0,0,0,0,0,255,0,0,0,30,0,170,20
255,0,0,170,150,255,130,30,80,255,140,10,255,255,0,0,255,170,0,0,255,0,0,0,0,0,50,0,0,255,70,50,255,170,110,100,120,255,80,255,80,255,255,0,255,255,255,0,255,120,255,0,0,150,0,0,0,0,0,0,10,40,120,20
20,0,255,255,10,255,200,255,255,0,255,255,255,255,255,0,255,255,0,0,140,0,0,0,0,0,0,0,30,60,255,160,60,100,40,160,200,250,210,220,60,200,255,255,255,10,255,160,0,0,0,0,0,0,0,0,0,0,0,0,30,0,80,50
0,255,0,0,30,255,255,10,10,255,200,0,255,0,255,255,255,255,0,0,0,0,0,0,0,0,0,140,70,255,40,70,110,10,60,30,90,230,255,255,255,170,255,255,255,130,20,0,255,140,0,0,255,255,0,0,0,0,120,10,0,30,10,40
50,0,140,255,0,0,255,220,255,255,255,255,255,0,255,255,0,0,0,255,255,0,0,130,0,0,0,0,80,10,160,255,40,255,10,70,210,90,255,255,180,255,30,200,255,255,255,255,0,255,0,0,0,0,0,0,0,0,0,20,0,0,70,10
10,255,0,0,30,10,255,50,255,255,20,255,255,255,255,0,255,255,0,100,10,0,0,0,0,0,0,0,80,20,50,50,180,100,200,255,255,180,100,255,210,40,180,255,255,255,255,0,255,70,255,0,0,0,0,0,40,0,0,10,0,60,60,40
0,255,10,10,10,200,255,255,255,255,255,80,110,255,255,255,255,0,255,0,170,0,0,0,0,0,0,0,50,50,60,255,255,40,255,30,50,255,70,255,30,255,255,255,255,0,10,0,0,0,140,190,0,0,255,80,0,0,0,0,0,50,30,190
20,255,255,0,50,255,30,255,0,255,110,255,250,255,255,0,0,255,0,0,255,0,255,0,190,0,0,0,50,90,50,255,40,20,255,170,140,70,255,255,255,255,255,150,0,255,0,160,0,255,255,10,0,0,0,0,0,0,0,0,0,100,20,70
255,0,10,255,0,220,10,255,255,90,255,255,255,255,0,0,0,255,255,0,0,30,0,255,0,0,0,0,70,70,50,130,210,80,20,180,20,255,80,255,255,255,255,255,255,255,255,0,170,255,0,0,0,0,255,0,0,0,0,0,60,0,30,90
0,120,255,255,0,255,60,255,255,190,0,255,255,255,255,0,255,0,0,250,0,150,255,0,0,0,0,0,30,80,50,80,255,255,100,40,30,110,255,255,255,255,255,255,255,40,170,0,0,80,0,0,255,0,0,0,0,0,0,0,10,30,70,30
0,110,0,255,10,10,255,255,255,255,255,220,0,255,90,0,0,0,255,255,0,0,0,0,0,255,0,50,0,20,190,50,50,30,50,20,130,255,255,190,255,110,180,255,255,255,0,30,255,10,0,90,0,0,0,0,0,0,0,0,0,30,30,60
0,255,255,10,0,0,255,255,255,255,255,160,255,255,90,230,255,255,255,0,0,0,0,0,0,0,0,0,0,255,70,40,180,20,170,70,255,255,255,30,255,255,255,255,255,10,150,255,150,255,0,0,20,0,0,0,0,0,0,0,150,0,70,40
10,0,10,255,30,10,255,255,255,255,140,0,255,0,255,0,0,255,255,0,0,0,30,255,0,0,0,0,20,60,90,255,60,255,10,160,255,60,255,255,160,255,220,255,255,160,10,170,0,210,0,0,250,10,0,0,0,0,0,0,0,60,20,70
0,50,255,40,0,255,255,255,255,255,255,255,255,255,255,140,0,0,0,0,0,0,0,0,0,0,0,0,90,120,255,40,30,230,50,30,50,100,90,190,250,255,255,100,255,255,255,130,160,0,0,0,0,20,0,10,130,0,0,0,0,70,40,20
255,0,255,30,10,255,20,255,10,190,170,255,255,255,0,0,0,0,0,0,0,0,0,0,0,0,0,0,30,150,100,80,255,30,10,40,70,255,255,255,100,255,255,255,255,10,255,170,0,255,0,0,0,0,0,0,0,0,0,0,0,80,20,40
10,70,255,255,255,10,30,255,255,255,70,0,255,255,0,255,70,0,0,0,0,0,0,90,255,0,0,0,30,90,40,60,230,40,10,255,160,70,80,255,255,40,255,255,20,170,0,255,30,0,255,0,0,0,0,0,0,0,0,0,10,40,60,255
10,0,40,0,0,255,30,255,255,255,255,255,130,0,255,255,255,0,0,0,0,0,0,0,0,0,0,50,100,0,70,255,210,10,255,255,50,220,255,255,60,255,255,255,40,20,0,130,255,255,0,0,0,0,0,0,0,0,0,0,0,80,160,40
0,0,20,0,10,255,10,255,20,255,200,180,10,255,255,0,0,0,0,0,255,255,0,0,0,0,0,0,100,20,150,30,50,255,100,50,100,240,70,255,255,255,255,160,255,255,255,0,0,255,0,0,0,20,0,0,0,0,0,0,0,50,40,40
100,0,70,255,0,70,30,255,190,255,255,0,255,20,255,0,0,0,255,0,0,0,0,0,0,0,90,20,0,50,70,255,40,40,30,255,30,190,255,255,120,180,255,130,70,255,140,255,0,20,0,255,20,0,0,0,0,0,0,0,40,70,0,40
255,60,0,0,255,50,30,255,90,255,10,0,90,0,255,0,255,255,0,255,0,0,255,220,255,0,0,0,190,30,80,40,20,250,30,220,100,100,255,50,255,140,255,255,40,255,255,0,0,0,255,20,0,100,0,0,255,0,0,0,255,0,100,30
10,150,0,30,255,40,255,230,50,255,100,0,255,255,255,230,0,0,255,255,0,0,0,255,0,0,0,80,120,0,50,255,140,30,20,30,255,90,255,255,255,40,20,255,0,255,30,255,120,0,20,0,0,30,0,0,0,0,0,0,10,70,50,20
0,20,0,0,255,10,255,255,255,255,0,20,0,255,255,0,0,0,0,0,0,255,255,0,0,0,0,0,40,60,40,50,220,255,255,50,140,255,120,255,80,255,255,255,255,255,255,20,100,0,0,0,0,0,0,230,0,0,0,0,0,60,90,40
20,255,255,255,10,255,255,255,0,210,255,170,0,255,255,255,0,0,0,255,0,255,0,0,0,0,0,0,20,90,70,180,20,60,30,240,40,160,80,255,255,255,255,255,255,30,255,30,140,255,255,0,30,0,20,0,0,0,0,0,40,0,100,30
0,10,20,255,255,255,255,255,255,240,0,255,255,255,0,255,0,0,255,255,0,0,0,0,0,0,0,0,70,30,70,210,40,10,100,255,10,30,255,255,255,255,255,10,255,255,180,255,0,0,10,0,0,0,0,0,0,0,80,0,0,120,40,255
255,10,60,20,20,60,255,255,80,255,100,255,255,255,0,255,0,255,0,0,0,0,0,0,0,0,70,0,70,30,255,255,40,30,140,255,180,80,255,255,255,255,255,255,255,40,255,120,0,0,70,20,20,20,10,0,20,0,0,0,0,30,60,10
40,10,30,30,0,255,40,255,255,255,255,130,0,255,0,0,0,255,0,0,0,210,0,255,0,0,0,0,70,255,80,80,60,90,255,130,170,250,255,255,255,255,255,255,30,255,30,30,255,0,30,20,70,0,0,10,0,0,0,40,0,0,60,250
255,210,10,10,255,255,255,90,255,255,10,255,255,255,0,0,0,255,0,0,0,255,0,0,0,0,0,0,40,60,50,220,255,10,70,80,170,70,80,255,255,10,255,255,255,0,255,255,30,20,0,255,250,10,30,0,20,0,0,0,0,80,130,20
255,0,0,255,255,255,10,120,255,10,255,255,255,255,0,0,255,30,255,0,255,0,255,0,0,0,0,0,90,10,50,190,255,255,20,30,50,255,255,120,230,255,255,255,255,0,80,255,130,0,0,0,0,30,10,0,0,0,0,0,20,0,80,255
10,0,10,0,70,255,255,20,255,255,255,255,10,255,255,0,0,0,255,0,0,0,0,0,0,0,0,80,50,0,255,255,160,20,30,255,70,255,70,200,255,250,255,255,255,190,30,10,255,20,10,0,255,50,10,0,50,10,10,0,70,50,20,10
10,255,255,255,255,255,90,255,160,255,255,255,0,255,0,255,0,255,0,0,0,0,0,0,255,0,160,90,0,50,255,230,255,50,20,130,60,100,220,255,255,255,255,255,0,10,180,0,130,0,0,255,0,0,0,255,0,0,0,0,50,0,40,255
250,30,20,10,255,255,220,255,200,255,50,255,255,255,0,0,255,0,0,0,0,0,0,210,0,0,0,0,10,255,80,70,120,10,30,70,20,240,180,80,255,255,255,255,30,100,0,60,70,0,0,40,255,0,0,0,0,0,0,0,10,30,50,0
120,255,0,10,255,255,10,255,255,190,20,0,255,0,0,255,255,0,0,255,0,255,0,0,0,255,0,0,10,255,80,140,200,255,50,40,255,220,255,200,230,230,255,0,255,100,0,255,150,0,0,0,130,0,0,10,0,0,140,0,0,50,30,30
255,20,20,30,255,255,20,255,255,255,255,255,255,255,255,0,0,0,0,130,0,0,0,0,0,0,0,0,50,50,170,20,70,255,10,220,90,210,255,255,255,255,255,255,255,0,160,70,40,255,40,0,0,20,0,0,240,30,0,10,0,100,20,10
220,255,0,0,10,0,255,255,255,255,0,255,60,0,255,255,0,255,0,0,0,140,0,0,0,0,0,50,0,120,80,150,30,255,180,60,210,70,255,255,230,255,255,30,255,255,255,210,140,255,30,20,30,0,0,0,20,240,0,0,70,0,20,50
0,255,0,20,10,255,255,255,10,200,255,255,255,255,255,0,0,0,40,255,0,0,255,0,0,0,0,0,40,80,255,60,100,30,255,40,255,255,80,255,120,190,255,255,255,70,255,30,10,0,0,0,0,255,0,10,20,10,30,0,0,50,80,40
255,20,255,255,255,180,30,140,255,255,255,120,0,255,255,0,255,0,180,0,0,255,0,255,0,0,0,0,30,190,20,170,255,255,30,50,40,50,190,255,140,170,255,140,255,30,255,255,30,0,0,0,20,30,255,10,0,0,0,0,30,0,120,255
255,10,20,255,10,70,120,255,255,255,255,40,255,255,0,0,0,0,0,0,0,0,255,0,255,0,0,0,10,70,70,200,50,100,30,50,255,180,255,70,255,255,255,255,50,255,0,0,255,50,0,0,0,0,10,30,0,0,0,0,0,50,30,40
10,0,255,255,0,70,20,10,255,255,255,255,255,255,255,0,0,180,0,0,255,255,0,255,250,0,0,0,50,255,70,50,160,255,255,230,100,100,110,255,255,255,255,255,255,255,0,255,255,0,180,0,0,0,0,0,0,0,0,0,0,20,255,60
10,0,0,255,210,255,0,0,255,255,255,255,30,255,0,100,0,0,0,255,255,0,0,0,0,0,0,0,10,60,80,240,255,255,40,50,255,70,100,255,255,255,30,130,255,0,255,240,0,0,255,10,0,0,230,0,255,0,0,0,0,30,20,40
