12,0,0,0,6,216,24,66,156,255,255,0,0,0,18,0,0,0,0,0,0,0,0,0,0,0,0,0,18,30,24,18,30,6,0,18,30,18,138,255,234,78,255,6,6,72,255,0,0,0,0,0,0,0,0,0,0,0,0,0,0,12,18,6
30,6,0,0,0,0,0,255,114,255,6,6,0,0,0,0,0,0,0,0,0,0,0,0,0,0,0,0,18,30,12,30,6,18,18,24,12,156,24,24,255,174,54,180,0,120,0,96,0,0,0,0,0,0,0,0,0,0,0,0,6,6,18,42
36,216,0,0,30,6,255,6,150,6,252,255,0,255,0,0,0,0,0,0,255,0,0,0,0,0,0,0,18,42,12,24,18,12,6,6,24,24,198,246,255,18,78,132,6,255,0,0,192,0,0,0,0,0,0,0,0,0,0,0,0,24,6,6
0,0,0,0,0,6,255,255,255,180,255,144,6,126,0,0,0,0,0,0,0,0,0,0,255,0,0,0,12,30,18,18,24,12,60,12,6,42,138,144,255,30,255,30,0,12,6,0,0,246,0,0,0,0,0,0,0,0,0,0,0,0,30,6
6,24,0,6,198,6,255,0,255,0,255,0,0,255,0,0,0,0,0,0,0,0,0,0,0,0,0,30,0,18,36,18,18,18,12,18,126,24,210,18,255,30,132,192,198,6,0,6,0,0,246,0,0,0,0,0,0,0,0,0,0,12,6,18
42,0,0,0,252,6,255,102,255,255,0,192,0,156,0,0,0,0,0,0,0,0,0,0,0,0,0,12,0,36,18,24,12,6,24,6,18,24,48,54,255,96,240,66,6,168,0,255,0,0,0,0,0,0,0,0,0,0,0,0,0,24,6,12
0,0,240,0,0,108,255,0,120,138,255,6,0,0,228,0,255,0,0,0,0,0,0,0,0,0,0,0,12,30,12,18,24,12,6,6,18,42,24,36,246,255,174,228,30,0,168,255,0,0,0,0,0,0,0,0,0,0,0,0,0,12,42,18
18,24,0,0,12,234,156,6,255,255,0,255,0,0,0,0,0,0,0,0,0,255,0,0,0,0,0,30,0,6,54,90,12,6,6,24,150,54,36,42,255,180,192,6,168,0,0,252,0,0,0,0,0,0,0,0,0,0,6,0,0,0,6,12
0,18,144,6,0,0,240,12,150,246,132,0,192,24,216,0,0,0,0,255,0,0,0,0,0,0,0,0,30,42,18,36,12,0,66,6,18,24,156,192,42,18,54,222,0,174,96,0,255,0,0,0,0,0,0,0,0,0,0,0,0,12,6,48
0,114,0,0,0,0,255,12,0,162,0,246,0,0,0,0,0,0,0,0,0,0,0,0,0,0,0,12,0,30,24,30,24,6,6,24,108,18,36,36,108,30,30,180,6,138,0,0,0,0,0,0,0,0,255,0,0,0,0,0,0,0,30,6
30,0,0,6,252,24,12,114,246,210,0,0,0,0,0,0,0,0,0,0,0,0,0,0,0,0,0,0,30,18,36,18,18,6,6,24,6,42,42,18,168,24,24,174,0,6,0,0,6,0,0,0,0,0,0,0,0,255,0,0,18,0,6,12
6,0,156,0,0,120,180,6,144,0,255,0,0,0,0,0,0,0,0,0,0,0,0,0,0,0,0,0,18,36,48,18,30,12,6,18,12,144,36,96,186,24,36,156,6,192,18,0,0,0,0,0,0,0,0,0,0,144,0,0,0,12,60,24
0,6,6,0,0,144,6,0,162,186,0,252,0,0,198,0,0,0,0,0,0,0,0,0,0,0,0,0,12,18,18,48,6,30,6,126,6,228,24,36,18,30,96,144,12,6,6,0,0,0,0,0,48,0,0,0,0,0,0,0,24,18,0,24
0,114,0,0,0,0,168,0,6,210,0,0,255,0,0,0,0,0,0,0,0,0,0,0,0,0,0,0,18,36,24,18,30,6,18,24,18,30,255,150,48,12,30,174,144,6,0,6,0,0,0,0,0,0,0,0,0,0,0,0,6,0,6,12
12,0,114,0,0,0,228,12,150,192,48,0,0,0,0,0,0,0,0,0,0,0,0,0,0,0,0,0,6,18,24,18,18,6,138,30,24,120,108,30,18,210,6,216,0,255,0,0,0,0,0,0,0,0,0,0,0,0,0,0,0,0,12,12
0,0,0,0,6,18,6,12,132,255,255,0,0,0,0,0,0,0,0,0,0,0,0,0,0,0,0,18,0,48,30,24,12,0,12,24,0,36,30,255,18,42,174,6,0,114,12,0,0,0,0,0,0,0,0,0,0,0,0,0,6,18,6,6
24,0,0,0,18,0,12,24,222,255,6,0,0,0,0,0,0,0,0,0,0,0,0,0,0,0,0,0,12,24,30,30,18,12,54,12,30,12,186,30,24,96,18,18,72,0,255,0,0,0,0,0,0,0,0,0,162,0,0,0,0,6,6,18
0,0,18,0,144,156,162,0,6,0,255,0,0,0,0,0,0,0,0,0,0,0,0,0,0,0,0,18,0,42,24,12,36,12,0,30,18,24,180,24,24,255,18,174,6,0,0,0,0,0,0,0,0,0,0,0,0,0,0,0,6,0,6,18
6,6,0,0,6,0,0,192,255,255,0,0,0,0,0,0,0,0,0,0,0,0,0,0,0,0,132,0,24,24,48,30,12,6,18,6,18,210,42,30,18,192,234,180,6,0,150,6,0,72,0,0,0,0,0,0,0,0,0,0,0,6,6,12
0,30,255,6,0,0,12,198,0,255,198,255,0,255,0,0,0,0,0,0,0,0,0,0,0,0,0,0,18,18,18,30,48,24,18,18,66,36,42,42,30,30,252,255,12,72,0,0,0,0,0,0,0,0,0,0,0,0,0,0,0,12,24,18
6,0,0,6,0,6,162,255,0,210,255,0,0,0,0,0,0,0,0,0,0,0,0,0,0,0,0,0,12,24,30,12,12,6,108,18,30,24,108,24,78,12,246,102,222,0,0,72,0,0,255,0,0,0,0,0,0,0,6,0,6,0,18,0
0,12,0,102,0,222,222,0,144,255,126,0,0,255,0,0,0,0,210,0,0,0,0,0,0,0,0,6,0,30,18,30,18,12,18,6,42,30,30,60,222,255,90,6,180,6,0,0,0,0,0,0,0,0,0,0,0,234,0,0,6,18,6,0
0,24,0,6,144,0,0,6,246,6,255,0,0,0,0,222,0,0,0,0,174,0,0,0,0,0,0,0,42,36,30,18,66,6,12,6,18,114,30,255,120,12,12,180,138,0,0,0,0,0,0,0,0,0,0,0,0,0,0,0,6,18,12,6
6,0,30,0,0,18,30,6,228,198,0,0,0,0,0,255,0,0,0,0,0,168,0,0,0,0,0,0,12,24,30,24,18,12,6,24,204,12,42,30,24,84,60,0,204,6,0,0,0,0,0,0,0,0,0,0,0,0,0,0,0,12,12,12
0,54,0,0,0,150,24,42,234,168,255,0,0,0,0,0,0,0,0,0,0,0,0,0,0,0,0,0,24,12,36,42,6,12,12,12,126,36,42,30,255,174,234,114,6,18,0,0,6,0,0,0,0,0,0,0,0,0,0,0,0,18,12,0
0,0,0,0,6,6,255,12,126,240,0,0,255,204,0,0,0,0,0,0,0,0,0,0,0,0,0,0,30,24,36,6,42,6,6,18,24,30,36,30,255,240,192,18,6,0,0,0,0,0,0,0,0,0,0,0,0,0,0,0,0,18,6,6
6,0,0,0,0,12,0,0,240,234,6,0,255,0,0,0,0,0,0,0,0,255,0,0,0,24,0,0,0,18,24,6,30,198,12,6,30,126,18,192,24,102,6,108,18,30,0,255,0,0,0,0,0,0,0,0,0,0,0,0,0,30,18,6
42,0,0,0,0,120,6,0,255,252,180,0,0,0,0,0,0,0,0,0,0,0,0,0,0,0,0,0,6,30,18,12,24,12,18,18,18,255,30,30,24,24,198,255,0,12,0,0,0,0,0,198,0,0,0,0,0,0,0,0,0,6,6,60
0,90,0,6,0,12,12,12,6,0,255,0,0,0,0,0,0,0,168,0,0,0,0,0,0,0,0,0,36,48,30,42,6,6,12,12,18,42,54,255,30,24,174,126,6,42,0,0,0,0,0,0,0,0,0,0,0,0,0,0,6,18,36,6
0,6,0,0,108,0,6,0,114,252,0,0,0,0,0,0,0,0,0,0,0,255,0,0,0,0,0,0,24,24,30,6,42,6,102,18,18,42,30,42,156,18,198,0,18,0,132,0,0,0,0,0,0,0,0,0,0,0,0,0,0,6,0,18
48,6,0,0,0,114,12,12,6,150,255,132,0,0,0,0,0,0,0,0,0,0,0,0,0,0,0,0,18,24,24,30,24,30,12,12,114,30,42,126,30,174,255,6,150,6,0,6,0,0,0,0,0,0,0,0,0,0,0,6,0,18,0,24
0,0,0,6,0,6,12,234,0,6,168,255,0,0,0,0,0,0,0,0,0,0,0,0,0,0,0,0,30,30,18,24,30,18,0,12,54,48,30,102,255,255,234,30,6,0,6,0,0,0,0,0,0,0,0,0,0,0,0,0,6,0,6,12
0,0,6,6,96,30,6,102,252,0,255,0,0,252,0,0,0,0,0,0,0,0,0,0,0,0,0,0,30,12,12,36,24,6,24,24,96,42,30,60,198,255,36,6,255,255,0,0,0,0,0,0,0,0,0,0,0,0,0,0,0,6,18,6
0,18,0,0,30,0,204,246,255,144,108,255,0,0,0,0,0,0,0,0,0,0,0,255,0,0,0,0,36,24,24,30,18,18,42,18,6,90,24,255,30,0,255,255,6,180,6,0,0,0,0,0,0,0,0,0,0,0,0,0,12,12,18,6
0,0,0,0,0,6,12,0,222,162,0,255,0,0,0,255,0,0,0,0,0,0,0,0,0,0,0,0,36,30,24,18,6,18,12,210,114,42,30,156,204,18,180,12,255,6,6,0,0,0,0,0,0,0,0,0,0,0,0,0,24,6,30,6
78,0,0,0,6,6,132,0,255,150,120,246,0,0,0,0,0,0,0,0,0,0,0,0,0,0,0,0,12,36,30,42,30,0,12,12,126,42,42,36,42,24,12,126,18,0,0,0,0,0,0,0,0,0,0,0,0,0,0,0,0,66,6,6
6,138,6,0,6,0,0,6,0,234,0,162,0,0,0,0,255,0,0,0,0,0,0,0,0,0,0,0,18,30,24,18,30,18,102,6,12,24,30,30,36,234,255,120,174,18,0,0,255,0,0,0,0,0,0,0,210,0,0,0,12,0,0,48
0,0,0,0,150,108,255,6,255,0,0,0,0,0,48,0,0,0,0,0,0,0,72,0,0,0,0,0,18,18,12,30,18,12,84,18,30,18,30,42,18,234,174,255,234,0,0,0,0,0,0,0,0,255,0,0,0,0,0,0,12,0,12,6
12,144,0,0,0,0,0,6,255,255,0,6,0,0,255,0,0,0,0,0,0,0,0,0,0,0,0,0,18,30,30,18,144,18,0,12,30,42,42,255,42,255,174,66,0,12,0,0,0,0,0,0,0,0,0,0,0,0,0,0,0,6,12,6
6,0,0,0,0,0,48,246,18,144,255,255,255,0,0,0,0,0,0,156,72,0,0,0,0,0,0,0,12,24,36,18,30,18,12,18,18,30,36,30,255,228,30,24,144,6,0,0,0,0,0,0,0,0,0,0,0,0,0,0,0,6,6,24
12,0,0,0,126,6,204,6,252,114,255,0,6,0,0,0,0,255,0,0,0,0,0,0,0,0,0,0,24,30,6,24,36,12,24,18,30,150,168,216,54,60,180,255,6,0,6,0,0,0,42,0,0,0,0,0,0,0,0,0,0,12,0,0
6,0,0,0,204,6,0,255,180,150,255,0,0,255,0,0,0,0,0,0,0,0,0,0,0,0,0,0,24,36,48,18,30,6,6,24,30,30,24,255,192,174,126,255,78,0,6,0,0,0,0,0,0,0,0,0,0,0,0,0,0,18,12,12
0,42,30,0,30,6,18,210,6,255,0,255,0,0,0,0,0,0,0,0,0,0,0,0,0,0,0,0,18,18,24,12,12,42,6,18,72,192,132,66,24,18,180,255,6,0,228,0,0,0,255,0,255,0,0,0,0,0,0,0,0,18,6,0
6,0,48,6,18,246,255,0,120,255,0,6,0,0,0,0,0,180,0,0,0,0,0,0,0,0,0,0,6,24,30,18,6,12,54,18,30,18,24,222,156,174,18,30,6,6,102,0,0,102,192,0,210,0,0,0,0,0,0,0,0,0,36,0
0,6,255,0,162,36,12,6,0,114,255,150,0,255,0,0,0,0,0,0,0,0,0,0,0,0,0,0,18,24,18,30,6,36,18,18,30,42,36,18,30,216,255,12,6,0,0,0,0,0,0,0,0,0,144,0,0,0,0,0,0,12,6,24
36,222,0,138,72,6,0,222,168,0,0,0,255,255,0,0,0,0,0,0,0,0,0,0,0,0,0,18,0,30,30,30,18,6,12,18,18,30,138,42,96,24,255,90,6,120,0,6,0,0,228,0,0,0,0,0,0,0,0,0,0,6,12,36
0,42,0,255,0,210,12,12,150,126,255,0,0,0,255,0,0,0,0,0,0,0,0,0,0,0,0,0,18,36,18,12,24,120,12,6,114,30,30,255,24,240,255,18,0,144,6,246,0,0,0,0,0,0,0,0,0,0,0,0,0,0,6,0
0,0,0,42,0,0,246,96,240,255,204,0,255,255,255,0,0,0,0,0,0,0,0,0,0,0,0,0,18,48,30,18,6,0,18,84,78,24,30,255,42,234,174,240,0,252,0,6,0,0,0,0,0,255,0,0,0,0,0,0,0,6,6,18
6,0,0,255,36,0,0,255,255,66,6,0,0,0,0,0,96,0,0,0,0,0,0,0,0,0,0,0,24,36,24,30,12,6,12,18,18,132,42,60,30,246,210,255,0,6,0,60,0,0,0,255,0,0,0,0,0,0,0,0,0,6,6,0
0,0,6,0,255,204,252,144,252,255,0,0,0,0,0,0,0,0,0,0,0,0,228,0,0,0,0,30,0,24,12,36,18,6,24,12,30,42,186,30,150,234,0,255,255,6,0,0,0,0,0,0,0,0,0,0,0,0,0,0,0,18,0,12
