18,36,99,117,45,132,126,141,138,141,141,141,84,141,111,51,0,0,138,135,126,0,0,0,0,0,0,0,0,51,57,51,141,30,6,21,21,138,33,135,51,141,111,132,141,138,0,0,138,132,0,123,0,48,0,0,0,0,0,0,0,39,66,30
117,141,102,15,93,15,129,117,141,141,141,0,141,138,102,141,132,0,0,0,0,0,0,0,0,0,0,3,0,51,48,138,138,21,9,66,126,30,51,135,138,141,90,135,138,141,141,0,0,138,0,72,0,0,0,0,0,0,0,0,0,84,81,48
3,21,120,126,141,12,135,141,96,135,141,141,138,0,6,81,138,0,27,81,0,51,0,0,0,51,0,0,6,63,54,138,141,141,0,33,126,69,33,132,96,123,138,36,141,138,0,3,0,141,0,84,0,0,0,129,0,42,0,0,39,0,126,129
138,15,27,27,90,12,138,141,141,141,3,15,138,63,87,126,0,141,114,0,0,0,0,0,0,0,12,0,0,60,45,111,24,99,33,48,114,141,138,117,135,123,111,21,135,129,3,6,138,90,120,0,0,105,0,0,78,69,0,36,0,0,138,60
33,66,24,138,0,105,135,141,138,69,9,141,141,120,141,141,90,141,102,0,0,0,54,0,0,0,0,0,12,69,138,114,69,21,84,69,141,138,138,36,30,84,141,138,102,111,111,120,138,0,105,0,0,0,0,0,0,0,0,0,0,24,48,135
138,135,9,12,84,96,135,126,126,141,138,141,120,126,0,0,0,126,0,90,0,0,0,0,138,0,0,33,0,63,132,141,75,54,42,12,114,138,48,45,54,138,138,138,129,132,9,87,0,138,0,0,36,0,0,0,0,0,0,42,0,39,39,138
27,0,18,141,135,6,114,135,141,141,129,141,129,0,42,0,0,141,138,138,138,138,0,0,0,66,0,0,9,48,138,57,21,138,87,51,24,141,132,48,138,111,126,138,141,135,9,3,0,21,0,78,108,0,0,0,57,105,0,0,0,45,45,138
36,54,12,138,105,12,117,141,138,90,141,141,75,0,0,0,141,0,0,0,0,0,0,0,0,0,0,0,39,63,45,120,75,42,15,138,45,87,33,135,132,138,141,123,141,126,27,141,0,3,0,0,0,0,0,0,0,0,0,0,51,60,0,15
12,42,138,78,84,0,138,123,138,123,141,141,0,0,0,141,0,30,0,0,0,0,0,0,0,0,0,0,30,78,51,75,141,72,27,138,21,24,132,96,129,141,132,93,63,138,138,18,72,138,0,0,0,0,78,0,0,0,0,0,0,63,132,42
12,0,51,84,90,120,141,141,141,54,87,75,141,0,0,18,117,0,0,0,24,138,0,0,0,0,0,0,75,12,39,60,33,48,81,9,30,78,84,141,90,138,57,129,138,132,75,138,54,102,12,117,123,0,0,0,0,0,0,0,51,3,129,36
42,96,141,126,141,69,78,138,132,141,141,141,75,51,141,45,0,0,6,0,0,93,0,87,0,0,0,0,0,63,63,138,30,27,57,138,96,120,84,120,138,138,123,138,138,132,72,78,0,3,15,126,0,99,138,0,0,0,0,0,42,0,12,51
33,30,99,138,9,132,141,132,138,141,54,0,141,57,21,0,141,0,90,0,0,60,0,0,0,0,0,0,0,51,84,138,33,87,45,132,15,126,75,126,108,111,141,138,132,9,108,0,0,0,0,114,0,0,0,0,0,0,0,0,0,51,51,69
6,27,3,126,117,141,141,123,141,141,141,123,138,72,138,117,0,0,0,0,0,66,0,24,0,0,0,0,0,51,93,15,138,12,15,33,30,48,135,141,138,138,138,141,138,24,135,0,3,78,0,117,0,0,0,0,0,0,0,0,0,33,24,138
42,0,9,126,105,138,138,141,138,141,0,60,0,0,141,141,0,99,0,105,0,0,0,24,0,0,0,0,27,126,72,54,99,111,36,27,84,18,141,117,138,135,117,138,108,126,138,18,0,30,72,0,0,0,0,0,0,0,0,0,0,51,24,30
24,33,138,114,57,123,138,141,126,141,141,6,141,45,141,138,51,0,0,0,75,135,0,0,0,0,0,51,9,63,57,57,27,105,123,102,30,54,117,57,117,141,99,132,120,0,0,123,0,105,111,0,0,0,0,6,0,0,0,0,0,54,30,30
138,15,30,132,132,15,141,135,138,3,138,141,126,0,57,141,111,138,129,0,0,138,0,51,0,0,0,123,24,48,63,138,45,84,36,138,45,45,90,120,132,138,117,141,138,138,96,120,0,0,0,138,0,0,6,0,0,0,0,0,21,0,42,120
21,135,12,36,138,123,141,141,54,141,3,141,141,0,138,0,0,0,90,0,0,0,141,0,0,0,0,0,6,54,36,42,33,39,138,138,66,39,87,84,138,117,138,135,126,138,0,111,69,0,0,0,0,126,0,0,15,0,0,0,0,75,51,48
3,138,138,120,138,93,120,138,138,141,141,138,0,141,9,0,141,0,0,75,138,99,0,0,0,0,0,9,21,123,30,138,81,18,24,21,51,90,57,141,138,138,138,141,138,132,90,117,0,135,0,0,0,0,0,0,0,42,0,0,24,0,42,21
9,51,138,99,117,129,141,138,132,9,21,138,141,0,0,0,138,45,0,0,0,141,69,0,0,0,0,0,60,0,51,63,132,111,105,9,36,138,105,117,141,96,141,132,135,138,135,78,54,0,3,0,0,0,30,0,0,0,0,0,0,48,63,30
18,72,138,117,141,24,138,135,129,141,132,93,138,0,30,141,141,0,96,0,132,0,48,0,0,0,0,0,0,84,114,138,102,138,33,99,57,21,120,126,21,123,132,135,138,141,0,63,111,0,6,30,0,0,36,0,0,0,0,0,0,48,69,30
24,57,21,72,138,135,138,54,141,138,93,141,141,27,0,0,138,18,0,0,63,0,0,81,0,0,0,0,24,42,105,126,30,54,60,60,63,75,135,111,102,138,135,84,141,96,96,135,0,0,0,0,0,33,0,0,0,0,0,0,0,48,135,21
18,48,90,138,63,141,138,141,138,141,63,129,138,141,30,3,138,138,120,78,0,0,0,0,0,0,0,0,45,0,138,90,36,15,102,132,54,33,78,30,138,141,63,57,138,3,123,105,51,90,45,0,0,0,0,0,0,0,0,0,0,72,30,63
138,48,138,99,42,129,138,141,138,138,102,141,132,0,57,141,141,105,0,54,0,0,0,72,0,0,105,0,0,9,117,138,33,138,108,21,111,48,63,108,138,138,141,111,117,123,6,57,0,0,135,0,0,0,0,0,0,0,0,0,0,18,33,12
27,39,9,102,126,141,132,57,138,141,54,72,141,72,0,120,138,141,138,0,0,57,0,0,123,0,0,0,42,9,69,102,138,138,30,129,126,75,60,57,96,138,135,63,45,141,138,126,123,108,0,108,0,0,0,0,0,0,0,0,0,36,15,138
57,24,138,54,138,138,138,108,138,141,141,141,138,120,0,138,138,87,0,0,0,117,0,3,0,0,0,0,6,54,72,138,30,48,12,54,48,141,126,87,126,141,138,138,141,141,135,3,0,0,12,84,0,0,117,0,0,0,0,0,0,45,15,66
42,138,72,45,39,141,138,141,138,141,138,90,138,0,63,0,141,138,9,0,138,0,0,0,0,138,0,3,0,63,45,45,57,138,0,138,63,87,126,141,123,138,60,123,126,138,0,63,3,99,0,0,0,135,0,0,0,0,0,0,0,48,18,42
51,69,117,99,48,117,141,141,141,141,48,3,141,0,81,0,117,0,138,0,0,0,0,0,0,0,0,0,54,21,51,42,120,36,3,81,39,75,42,138,141,132,36,126,141,60,9,0,117,0,123,93,3,24,0,0,6,0,0,0,0,63,93,24
30,63,3,132,6,138,129,66,141,141,45,126,0,138,27,138,141,135,0,87,135,0,0,0,0,0,0,6,0,90,72,81,36,57,117,12,36,102,117,111,138,141,99,81,105,132,9,24,0,18,12,0,45,0,0,0,135,0,0,81,0,51,42,138
9,33,87,141,135,3,87,141,141,141,141,0,42,138,0,0,117,138,135,0,0,0,15,0,0,0,0,0,51,0,60,36,12,108,30,114,15,93,138,141,129,138,138,123,3,132,48,0,0,0,0,27,0,30,0,0,0,0,0,0,0,36,72,135
21,138,9,0,141,117,135,57,57,141,141,141,3,0,0,0,141,141,0,0,0,0,75,0,0,0,138,0,63,0,114,138,30,30,21,138,36,117,138,96,138,138,129,6,9,141,75,0,0,57,0,0,0,0,66,0,0,0,0,0,0,36,63,48
21,141,24,3,141,123,99,138,126,51,141,96,0,51,0,141,0,138,0,141,0,0,0,0,138,0,0,93,0,0,105,57,138,12,75,21,66,54,132,135,129,138,60,138,138,138,132,57,0,51,3,0,51,0,0,0,0,0,0,0,0,39,63,33
39,21,96,9,51,36,132,75,138,141,141,141,60,0,141,3,117,102,0,0,84,0,0,33,0,126,0,0,18,48,117,138,141,21,105,138,24,111,123,123,126,135,126,51,75,84,141,114,123,57,0,72,0,0,0,0,0,84,0,0,0,54,42,138
9,3,138,111,84,51,135,141,123,141,141,99,3,138,0,0,141,126,63,0,0,0,0,0,0,0,0,0,138,9,51,75,138,66,18,30,30,45,102,135,138,138,21,132,108,132,129,24,0,138,0,0,6,0,111,0,87,0,0,0,0,51,117,48
138,27,0,6,51,141,138,60,126,141,99,141,141,36,0,0,108,0,138,0,0,0,0,0,0,0,24,0,117,6,48,21,138,93,108,138,108,30,81,141,132,60,120,138,72,123,126,90,0,75,0,9,0,138,57,0,0,0,0,0,0,48,33,138
120,12,141,39,138,138,117,141,138,126,141,141,51,0,0,0,0,0,0,12,108,132,69,0,0,0,0,0,30,81,57,45,51,24,138,138,48,48,81,141,138,132,138,141,138,42,108,0,138,117,87,0,0,0,3,0,126,0,0,0,24,0,36,42
21,120,138,138,138,90,126,90,126,138,141,138,138,75,0,141,0,141,0,93,0,0,0,0,48,81,66,138,78,0,54,132,114,138,93,42,30,60,48,138,129,132,102,117,138,0,30,0,0,0,0,93,0,93,117,36,0,0,0,0,0,39,63,27
138,138,117,36,138,84,75,96,129,141,141,3,0,141,138,0,105,0,138,0,0,0,0,33,0,0,0,0,42,9,84,42,138,51,78,15,138,123,90,138,129,21,90,138,96,12,0,0,132,9,138,135,33,135,0,0,72,0,0,0,0,24,42,138
114,93,42,84,138,141,6,132,138,9,138,138,141,141,0,36,138,93,63,117,0,0,132,27,114,0,0,0,0,60,48,12,120,138,57,123,141,51,141,39,132,132,138,135,126,141,9,0,111,117,0,0,0,0,0,0,0,0,0,0,0,51,78,27
30,93,141,12,120,132,135,141,141,141,45,51,141,138,141,0,111,0,0,138,78,0,0,0,0,27,0,42,12,0,111,72,30,87,60,18,45,24,138,54,138,141,141,141,132,123,0,48,0,0,0,0,0,27,15,0,0,0,0,3,0,48,69,63
9,0,138,33,42,120,141,123,126,12,141,141,129,141,138,138,0,0,0,0,141,0,0,90,0,0,0,0,6,69,102,138,78,51,6,45,27,138,132,66,141,132,39,132,3,138,138,0,60,30,126,0,0,30,0,0,0,0,0,0,51,42,39,24
132,30,0,48,48,84,123,141,114,141,48,12,141,15,138,138,138,114,117,141,33,0,0,0,0,0,0,0,54,27,60,117,36,42,93,96,138,30,135,123,99,138,138,141,126,0,138,105,138,117,3,42,0,0,0,0,0,0,0,3,57,0,24,138
138,138,99,96,102,51,126,15,126,141,51,141,132,141,39,0,0,138,0,93,0,141,0,0,0,0,0,0,0,36,126,138,108,126,69,24,30,33,75,132,117,123,138,141,15,111,0,6,138,126,0,0,0,0,123,0,0,0,0,0,9,60,36,33
30,45,27,93,93,18,138,138,138,141,141,3,138,99,138,126,0,0,0,0,0,0,0,138,0,0,0,0,18,114,45,63,21,21,36,48,24,138,60,132,129,117,117,60,135,138,18,0,141,105,24,120,78,0,135,0,0,0,0,0,54,0,48,42
138,24,3,96,96,15,138,141,126,138,102,126,141,141,0,36,0,138,0,138,72,0,51,69,0,0,0,0,48,0,135,60,138,9,105,21,135,63,93,132,141,30,141,123,129,57,87,138,138,0,138,0,0,0,27,0,0,0,48,0,48,0,36,33
138,138,108,45,15,138,138,138,141,24,105,138,81,0,0,0,141,0,0,138,141,0,0,0,0,0,0,15,0,72,135,36,48,9,24,96,30,57,105,141,138,123,60,138,63,120,84,87,3,3,0,87,0,111,0,0,111,0,0,0,0,63,39,24
30,48,3,96,108,90,81,105,15,141,141,126,129,18,138,141,96,0,0,141,0,0,0,0,0,0,0,0,57,57,15,120,141,129,42,30,114,126,30,45,138,141,141,138,123,138,0,141,72,0,99,69,0,0,0,0,0,0,0,0,60,0,57,24
138,3,3,54,87,108,141,90,138,117,57,138,141,45,111,135,141,0,0,141,111,138,66,138,0,0,0,3,0,69,63,39,69,24,81,99,135,111,42,60,138,141,108,18,141,141,138,114,123,132,0,129,0,87,0,0,0,0,0,0,0,48,132,60
39,81,0,111,114,138,141,24,138,132,138,141,54,60,3,0,120,90,141,117,120,0,0,126,0,0,0,9,0,51,117,138,30,138,57,93,45,96,57,24,138,102,138,108,138,138,99,138,0,117,138,0,0,0,0,0,0,0,0,0,0,39,57,15
138,0,87,9,24,111,141,132,141,138,141,3,3,48,0,141,96,138,6,138,75,0,0,138,0,0,0,0,0,93,27,51,69,138,36,21,6,81,84,51,141,138,141,138,126,0,117,15,0,0,0,0,0,0,0,6,0,0,0,0,39,0,15,108
21,81,60,3,63,138,141,141,96,111,141,51,138,123,0,0,138,0,132,0,0,0,0,0,0,138,0,9,0,48,42,30,126,15,36,87,54,90,51,141,93,108,138,138,78,138,93,138,90,0,0,33,0,0,0,0,0,0,0,0,69,0,42,12
