0,0,0,0,0,0,0,21,0,0,255,0,0,0,0,0,0,0,0,0,0,0,0,0,0,0,0,0,0,0,0,0,0,0,0,0,0,0,0,28,112,63,0,255,0,7,0,7,0,0,0,0,0,0,0,0,0,0,0,0,0,0,0,0
0,0,0,0,0,21,7,0,14,0,140,0,0,0,0,0,0,0,0,7,0,0,0,0,0,0,0,0,0,0,0,0,0,0,0,0,0,0,0,0,0,255,7,255,255,255,0,0,0,0,0,0,0,0,0,0,0,0,0,0,0,0,105,0
0,0,0,0,0,0,0,28,0,255,255,0,0,0,0,0,0,0,0,0,0,0,0,0,0,0,0,0,0,0,0,0,7,0,0,0,0,0,7,255,189,0,255,154,84,49,0,0,0,210,7,21,0,0,77,0,0,0,0,0,0,0,63,0
0,56,0,0,0,0,0,63,255,0,0,0,77,7,0,0,0,0,0,0,0,0,0,0,0,0,0,0,0,0,147,0,0,0,0,0,21,0,147,84,210,21,0,255,112,0,0,255,0,0,0,0,0,0,0,0,0,0,0,0,0,0,0,98
0,0,0,0,0,0,255,0,231,7,28,255,119,70,0,0,14,0,7,0,0,0,0,0,0,0,0,0,0,0,0,0,0,0,0,0,0,14,0,255,35,119,84,0,0,70,0,0,255,0,0,0,0,0,0,0,0,0,0,0,0,0,0,0
0,0,0,0,49,0,7,161,126,14,255,0,0,0,0,0,0,0,0,0,0,21,0,0,0,0,0,0,0,0,0,14,0,0,0,0,0,0,0,0,255,63,255,255,28,0,255,0,0,0,0,126,0,0,0,0,0,0,0,0,0,0,0,0
0,0,0,0,0,0,0,0,255,0,0,255,21,0,0,0,0,0,0,0,0,0,0,0,0,0,0,0,0,0,0,0,0,0,0,0,0,0,98,0,0,0,255,255,255,161,0,0,0,0,0,0,0,0,21,0,0,0,0,0,0,0,0,7
0,7,0,0,0,21,0,0,0,0,91,255,0,14,0,0,0,0,0,0,0,0,0,0,0,0,0,0,0,0,0,0,0,0,0,0,0,0,0,0,0,255,140,255,14,56,14,77,0,0,28,0,0,0,0,56,0,0,0,0,0,0,0,0
133,0,0,0,0,0,0,7,0,255,0,255,0,0,0,70,0,0,0,0,0,0,0,0,0,0,0,0,0,0,7,0,0,0,0,0,0,42,255,255,56,255,0,0,161,119,255,255,0,0,0,105,0,7,0,0,0,0,0,0,0,0,0,0
0,0,255,0,0,0,0,255,255,0,255,0,255,0,0,0,0,0,0,0,0,0,0,0,0,0,0,0,0,255,133,0,0,0,0,0,0,49,0,28,0,255,255,0,0,255,0,0,0,255,0,0,0,7,0,70,0,0,0,0,0,0,0,0
0,0,0,0,7,0,0,255,255,0,0,0,49,14,255,0,0,0,0,0,0,98,0,0,0,0,0,0,0,0,0,0,0,0,0,0,0,63,21,49,112,255,255,255,0,0,255,0,0,0,0,0,0,0,0,0,0,0,0,0,0,0,0,0
0,0,0,0,0,0,7,49,0,105,7,0,0,0,255,0,0,0,0,0,0,0,0,0,0,0,0,0,0,0,0,0,0,0,0,0,0,7,7,91,112,98,217,255,168,255,0,0,0,0,0,0,0,63,0,0,0,0,0,0,0,0,0,0
0,0,0,7,255,0,0,0,255,255,0,0,21,0,0,0,0,0,0,0,0,0,0,0,0,0,0,0,0,0,0,0,0,0,0,0,0,255,0,0,140,255,133,255,98,255,0,0,42,0,0,0,0,0,0,0,0,0,0,0,0,0,0,0
0,0,0,0,0,0,0,56,255,255,70,0,0,255,0,0,255,0,0,0,0,7,0,0,0,0,0,0,0,0,0,0,0,0,0,0,0,7,255,0,0,255,0,154,0,49,0,0,0,21,0,0,0,0,255,0,0,0,0,0,0,0,0,0
0,0,0,0,42,0,0,7,35,70,255,255,0,0,0,0,0,0,0,0,0,0,7,0,0,0,0,0,0,0,0,0,0,14,0,0,7,133,147,147,255,0,255,84,0,126,255,0,7,0,0,28,0,21,14,0,0,0,0,0,0,0,0,7
0,0,21,0,0,84,0,14,0,255,255,0,255,0,0,0,0,0,0,0,0,0,0,0,0,0,0,0,0,0,255,0,0,0,0,0,0,0,35,255,0,7,255,0,21,255,255,0,0,0,0,0,35,0,0,0,0,0,0,0,0,0,0,0
35,0,255,0,0,0,14,14,255,21,7,0,7,255,0,0,0,0,0,0,0,0,0,0,0,0,0,0,0,0,0,0,0,0,0,0,0,0,255,255,56,255,84,0,196,0,255,0,14,0,70,0,0,0,0,0,7,0,0,0,0,0,0,0
28,0,0,0,0,0,210,63,28,0,255,0,0,0,0,0,0,0,0,0,0,0,35,0,0,0,0,0,0,0,0,0,0,0,0,0,0,14,7,255,0,255,255,7,7,0,255,21,0,0,0,0,0,0,0,0,0,0,0,0,0,7,0,0
0,0,0,0,0,63,0,7,42,0,255,105,255,0,0,0,0,0,0,0,7,0,0,0,0,0,0,0,0,0,0,0,0,0,0,0,0,42,49,35,49,255,255,98,91,7,0,0,0,0,0,0,0,56,0,0,0,0,0,0,0,0,0,0
0,0,0,0,21,0,0,255,0,0,63,0,0,0,0,0,0,0,0,0,0,0,0,0,0,0,0,0,0,0,0,0,0,0,0,0,0,154,14,0,105,147,255,21,255,189,255,255,0,0,203,0,0,0,0,0,0,0,0,0,0,0,126,0
0,14,0,0,0,0,255,0,7,255,133,0,0,0,255,0,0,0,0,0,0,0,0,0,0,0,0,0,0,0,0,0,0,0,0,0,0,0,210,56,70,255,255,255,255,0,255,0,0,0,0,0,91,0,7,0,0,0,0,0,0,0,84,0
0,0,0,7,0,0,0,0,0,255,98,0,0,0,196,0,0,0,0,0,0,0,0,0,0,0,0,0,0,0,0,133,0,0,0,0,0,0,14,0,255,255,0,255,0,0,70,0,0,63,0,0,0,0,0,0,0,0,0,0,0,0,0,0
0,0,0,0,7,14,119,7,0,77,255,0,0,77,0,0,0,0,0,0,0,0,0,0,0,0,0,0,0,0,0,161,0,0,0,0,14,0,255,0,0,84,0,255,0,126,255,0,0,0,21,0,0,0,0,7,0,0,0,0,0,0,0,0
0,21,0,0,0,0,112,35,35,0,0,7,255,21,0,0,0,0,0,0,0,0,0,0,0,0,0,0,0,0,0,0,0,0,0,0,255,21,0,77,255,255,7,7,119,0,14,0,42,0,7,0,0,0,0,0,0,0,0,0,0,0,0,0
0,182,0,0,0,0,21,35,0,182,0,255,0,0,0,0,0,0,0,0,0,0,0,0,0,0,0,0,0,0,0,0,0,0,0,0,0,63,119,0,0,126,255,0,255,0,0,0,0,0,0,0,0,0,0,0,0,0,0,0,0,0,0,0
0,0,0,0,0,0,0,255,255,0,255,0,0,0,255,0,0,0,0,0,0,0,0,0,0,0,0,0,0,0,0,98,0,0,0,0,0,0,42,42,255,255,255,84,0,105,0,0,0,0,7,0,0,0,0,49,0,0,0,0,0,0,0,0
0,0,0,0,35,0,0,0,255,0,105,0,14,14,0,14,0,0,0,0,0,0,0,0,0,0,0,0,0,0,7,0,0,0,0,0,0,14,0,182,112,255,14,7,255,0,0,119,0,0,0,0,0,56,0,0,0,0,0,0,0,0,0,0
0,0,0,0,28,0,35,14,0,42,0,255,0,0,0,0,0,0,0,0,14,0,0,0,0,0,0,0,0,0,0,0,0,0,0,0,0,0,0,21,140,182,84,154,84,0,7,255,0,255,0,0,0,255,0,0,0,0,0,0,0,0,0,21
0,0,0,0,7,35,0,21,255,21,0,0,168,0,0,21,0,0,0,0,0,0,0,0,0,0,0,0,0,0,0,0,0,0,0,84,0,255,63,231,255,255,255,255,0,196,0,0,0,0,0,0,0,0,0,0,0,0,0,0,0,0,7,0
0,0,0,0,0,0,255,0,255,0,126,0,0,0,0,0,0,0,0,0,0,0,0,0,0,0,0,0,0,0,0,0,0,0,0,0,0,0,0,0,255,0,255,0,63,255,0,0,0,0,0,0,0,70,0,0,0,0,0,0,0,0,0,0
0,7,0,0,0,0,7,56,14,7,0,77,21,255,0,0,0,0,0,0,0,0,0,0,0,0,0,0,0,0,0,0,0,28,0,0,0,0,7,7,0,0,255,255,0,21,0,35,255,0,0,0,0,0,0,0,0,0,0,0,0,0,0,0
7,0,0,0,0,7,35,140,255,0,0,0,0,255,0,255,0,0,0,0,0,0,0,0,0,0,0,0,84,0,175,0,0,255,28,0,7,7,28,255,126,255,119,255,42,0,105,0,0,0,0,0,0,0,0,0,0,0,0,0,0,0,0,0
0,0,21,7,0,0,168,0,119,7,0,210,0,0,0,255,0,0,0,0,0,0,0,0,0,0,0,0,0,0,0,0,0,0,0,0,0,0,98,133,21,7,0,255,0,0,112,133,0,0,21,0,0,105,0,0,0,0,0,0,0,0,0,0
0,147,0,7,0,0,98,0,133,0,255,255,0,0,0,0,0,0,0,0,0,0,0,0,0,0,0,0,0,0,0,14,14,0,0,0,0,14,0,161,255,0,255,255,231,0,0,0,0,0,0,0,0,0,0,0,0,0,0,0,0,0,0,0
0,0,0,0,0,0,14,21,255,255,21,0,0,0,0,0,0,0,255,0,0,0,0,0,0,0,0,0,0,0,0,0,0,0,56,0,28,14,255,0,255,7,255,84,255,49,35,42,63,98,70,0,0,84,35,77,0,0,0,0,0,0,0,84
0,0,0,0,7,0,0,7,0,182,0,0,255,0,0,0,0,0,0,0,0,0,0,0,0,0,0,0,0,0,0,0,0,0,0,0,0,0,35,14,7,91,255,0,255,0,56,0,0,0,0,0,0,0,0,0,0,0,0,0,0,0,0,0
21,0,0,0,0,0,49,21,7,255,0,28,0,0,0,0,0,0,0,0,0,0,0,0,0,0,0,0,0,0,21,0,0,0,0,0,0,0,255,0,0,0,255,77,255,98,0,255,0,0,0,0,0,0,0,0,0,0,0,0,0,0,0,0
0,154,0,0,0,0,0,255,0,255,0,0,0,0,0,0,0,0,0,0,0,0,0,0,0,255,0,0,0,0,0,0,0,0,0,0,0,0,70,0,182,255,255,255,7,0,0,7,0,0,0,0,0,0,0,0,0,0,0,0,0,0,0,0
0,0,0,0,0,0,255,14,255,21,0,0,0,0,255,0,0,0,0,0,0,0,0,0,0,0,0,0,0,0,0,0,0,0,0,0,0,0,21,21,126,0,0,56,14,0,21,0,0,0,0,0,0,0,0,0,7,0,0,0,0,0,0,0
0,0,14,0,0,56,0,0,0,70,0,28,255,0,0,0,0,0,0,0,0,0,0,0,0,0,0,0,0,0,0,0,0,21,7,0,0,7,0,255,0,35,255,98,91,0,255,147,0,0,0,0,0,0,0,0,0,0,0,0,0,0,0,0
0,0,0,0,0,0,255,0,0,14,0,0,255,0,0,0,255,42,0,0,0,0,0,0,0,0,0,0,0,0,0,7,0,0,0,0,0,14,70,0,0,255,255,0,255,7,0,49,7,0,0,0,0,0,0,0,0,0,0,0,0,0,0,0
0,0,28,0,0,0,7,56,0,0,0,0,0,0,21,0,14,0,0,0,0,255,0,0,0,0,0,0,0,0,0,0,0,7,0,0,0,35,0,105,14,7,255,255,105,7,0,0,14,7,0,0,255,0,7,0,0,0,0,0,0,0,0,0
0,0,0,175,0,56,0,0,255,0,0,0,14,7,0,0,0,0,255,0,0,0,0,0,0,0,0,0,0,0,0,7,0,0,0,0,0,0,21,0,28,35,255,255,0,255,0,0,14,14,0,0,0,0,0,84,14,0,0,0,0,0,0,0
0,0,0,0,14,0,14,0,255,0,255,0,7,0,0,0,0,0,0,0,0,0,0,0,0,0,0,0,0,0,0,0,0,0,0,0,21,0,35,14,0,255,255,0,7,0,0,56,35,0,0,0,0,0,0,0,0,0,0,0,0,0,0,0
7,0,0,0,0,0,0,0,35,0,0,0,21,255,0,0,0,0,0,0,0,0,0,0,0,0,0,0,0,0,0,0,0,0,0,0,0,7,28,7,7,0,0,255,0,7,77,0,0,0,0,0,0,0,0,0,0,0,0,0,0,0,0,0
0,0,0,0,0,0,0,7,0,0,255,255,0,0,0,0,84,0,0,0,0,0,0,0,0,0,0,0,0,0,0,0,21,0,0,0,0,0,0,255,255,70,0,7,0,0,49,0,255,0,0,0,0,0,0,0,0,0,0,0,0,0,0,0
0,0,0,0,0,0,0,0,0,21,133,0,255,0,0,0,0,0,0,0,0,0,0,0,0,0,0,0,0,0,0,0,0,0,0,0,0,0,7,0,0,255,7,0,0,0,0,0,0,0,0,35,0,0,0,0,0,0,0,0,0,0,0,0
0,0,0,0,0,0,0,0,255,255,0,21,7,0,49,7,0,0,0,0,0,0,0,0,0,0,0,0,0,0,0,0,0,0,0,0,14,0,0,0,0,0,21,255,255,255,0,0,224,0,0,0,0,0,0,0,0,0,0,0,0,0,119,0
0,0,0,0,0,14,0,0,49,255,0,0,14,91,0,0,7,0,0,0,0,0,0,0,0,0,0,0,0,0,0,175,14,0,0,0,0,28,0,7,255,0,0,255,0,84,0,7,0,0,0,0,0,0,0,0,0,0,0,0,0,0,0,0
0,0,0,0,0,0,42,0,255,0,0,49,0,0,0,0,0,0,0,0,0,0,0,0,0,0,0,0,0,0,0,0,0,0,0,0,7,0,7,28,70,255,0,0,98,0,0,0,0,0,0,70,0,0,0,0,0,0,0,0,0,0,0,0
