200,0,90,0,0,30,80,255,210,255,20,20,255,110,0,120,0,0,0,210,0,0,0,50,0,0,0,0,250,0,255,255,255,0,0,0,0,160,255,0,255,0,255,255,255,0,200,140,0,0,0,10,0,0,0,0,0,0,0,0,0,190,250,90
255,150,0,0,70,100,255,255,255,255,255,255,0,0,200,60,100,0,0,0,0,0,0,0,0,0,180,0,0,170,255,255,180,0,255,0,0,220,200,255,255,255,255,255,255,30,255,0,50,0,0,0,255,0,0,0,0,0,0,0,0,250,230,110
255,210,0,0,90,70,30,240,190,250,0,0,230,20,10,255,0,0,0,0,10,0,0,10,0,0,0,0,230,160,200,160,250,255,0,0,220,0,255,255,255,255,255,10,255,0,255,0,0,0,150,0,0,0,0,0,0,0,0,0,0,210,120,130
90,0,0,120,0,255,255,100,255,255,190,210,255,20,140,0,150,0,0,0,0,0,0,0,0,0,0,250,0,0,255,0,220,255,0,160,0,0,180,255,255,30,255,0,0,255,0,0,0,0,0,0,0,0,0,0,0,0,0,0,0,210,0,190
255,70,255,0,255,50,255,255,255,250,70,255,80,255,0,0,0,10,0,0,150,10,30,0,0,0,0,0,0,0,0,0,0,255,0,0,0,0,255,0,10,190,255,150,255,0,0,10,60,0,0,0,0,70,0,0,0,0,0,0,0,0,0,0
255,0,0,0,255,0,255,0,255,0,255,255,0,0,255,255,0,10,0,0,0,0,0,255,0,0,0,0,0,0,255,0,0,0,0,255,0,0,255,255,0,255,255,0,255,0,0,0,0,0,0,0,0,0,0,0,0,0,0,0,0,0,0,0
0,0,0,0,0,170,220,130,255,0,70,150,0,255,0,0,0,0,0,0,0,0,0,0,0,0,0,0,0,0,0,0,255,255,0,0,0,255,0,0,255,0,0,255,0,10,50,20,0,0,255,0,0,0,0,255,0,0,0,0,0,0,0,0
10,30,210,230,250,255,170,60,255,255,255,255,255,255,0,0,0,190,0,190,0,0,90,0,0,0,0,0,255,255,0,0,255,20,120,0,255,0,255,0,255,255,0,255,255,0,0,0,0,0,0,0,0,255,0,0,0,0,0,0,0,0,0,0
255,0,0,0,255,70,255,50,255,255,255,90,255,170,170,255,0,0,70,0,10,0,0,0,0,0,0,0,0,0,255,0,0,255,0,0,0,0,255,255,255,255,0,100,255,0,0,0,255,0,0,0,0,0,0,0,0,0,0,0,0,0,0,0
0,0,0,0,255,210,255,30,255,255,255,255,0,255,0,50,10,140,0,10,0,130,60,0,0,0,0,0,0,0,0,0,0,0,20,0,50,255,0,0,0,255,255,255,0,255,10,0,0,0,0,0,0,0,0,0,0,0,0,0,0,0,0,0
0,0,0,0,230,255,0,255,255,0,90,255,255,0,0,0,0,0,0,0,0,0,0,0,0,0,0,0,0,0,0,0,255,0,0,0,0,255,0,0,255,20,255,60,90,120,255,0,80,10,10,10,0,0,20,0,0,0,0,0,0,0,0,0
0,0,0,0,255,255,255,0,255,255,255,255,255,255,0,0,0,80,50,0,30,0,30,0,0,0,0,0,0,0,0,0,0,255,0,0,255,255,0,0,255,255,100,0,255,0,110,60,40,50,0,0,120,0,0,0,0,0,0,0,0,0,0,0
0,0,0,0,0,0,255,0,255,160,100,255,0,0,0,0,140,0,0,0,0,0,0,0,0,0,0,0,0,0,0,0,0,0,255,0,0,0,255,255,80,255,0,0,0,0,0,0,0,0,255,0,0,0,0,255,160,0,0,0,0,0,0,0
0,0,255,10,40,255,255,80,255,255,255,255,70,255,100,0,0,0,0,0,30,140,0,0,0,0,0,0,0,0,0,0,0,255,0,0,0,0,0,0,255,255,255,255,10,255,0,255,0,10,0,0,0,40,0,0,0,0,0,0,0,0,0,0
0,255,255,0,250,200,255,255,255,255,10,255,190,160,0,220,0,0,255,0,210,0,80,230,0,0,0,0,0,0,0,255,70,255,0,0,0,255,255,0,255,255,255,0,255,0,255,0,0,0,0,0,0,0,0,0,0,0,0,0,0,0,0,0
0,0,255,140,0,20,190,250,255,255,30,0,40,255,170,180,0,0,150,0,0,150,0,0,0,0,0,0,0,0,0,0,255,0,0,0,0,0,255,255,0,255,0,255,130,255,0,0,0,255,0,0,0,0,0,0,0,0,0,0,0,0,0,255
210,100,0,80,255,80,190,255,255,255,255,0,240,170,255,0,0,0,0,0,255,60,0,20,0,0,0,0,0,0,0,255,0,0,0,0,0,255,0,255,255,255,200,255,0,40,255,255,120,0,0,0,0,0,0,0,0,0,0,0,0,0,0,0
0,0,0,0,0,255,0,255,255,255,0,255,60,160,0,0,0,0,0,0,0,0,160,70,0,0,0,0,0,0,0,0,255,0,0,0,0,255,0,255,255,0,40,0,255,255,50,0,0,255,0,0,50,0,0,0,0,0,0,0,0,0,0,0
0,0,0,0,0,255,255,0,255,255,90,230,255,0,180,0,40,100,0,0,0,190,80,0,0,0,0,0,0,0,0,255,0,0,0,0,0,255,0,255,0,0,255,60,255,255,0,0,0,20,0,0,0,0,0,0,0,0,0,0,0,0,0,0
0,0,0,0,0,10,255,0,0,0,255,0,255,0,0,0,0,0,0,0,0,0,0,0,0,0,0,0,0,0,0,0,0,0,0,0,0,0,10,255,255,255,0,255,255,0,0,110,0,0,0,0,0,30,0,10,0,0,0,0,0,0,0,0
0,0,0,0,0,0,0,0,180,255,255,110,40,10,0,255,0,0,150,70,110,0,70,0,0,0,0,0,0,0,0,0,0,0,0,0,255,0,255,255,100,255,255,0,255,0,255,0,0,0,255,60,0,0,0,0,0,0,0,0,0,0,0,0
0,0,255,0,0,0,255,255,170,255,255,200,0,0,0,255,0,0,160,0,0,255,150,0,0,0,0,0,0,0,0,0,200,0,255,0,0,0,0,90,0,0,0,255,10,0,0,30,20,0,0,255,0,0,0,0,0,0,0,0,0,0,0,0
0,0,0,0,0,0,0,255,0,255,0,0,160,120,190,0,30,0,0,210,0,50,0,60,10,0,0,0,0,255,255,0,0,0,0,0,10,0,255,70,255,0,255,255,10,0,0,0,0,0,0,0,0,0,0,0,0,0,0,0,0,0,0,0
0,0,0,0,0,0,0,255,0,255,250,100,255,255,255,250,0,10,110,0,0,255,0,0,0,0,0,0,0,0,0,0,0,255,0,0,0,0,0,60,255,110,255,0,0,0,255,150,0,0,0,0,0,0,0,0,0,0,0,0,0,0,0,0
0,0,0,0,0,0,0,50,220,255,255,0,110,40,40,255,0,40,0,0,0,30,0,10,0,0,0,0,0,0,170,0,255,0,0,0,255,0,255,0,0,255,190,130,0,220,0,255,10,0,0,0,0,0,0,0,0,0,0,0,0,0,0,0
0,0,0,0,0,250,255,255,255,50,150,255,40,255,70,0,0,0,0,0,0,0,0,0,0,0,0,0,0,0,0,0,10,0,0,0,0,255,0,0,255,0,255,20,255,0,255,255,0,0,0,0,0,0,0,0,0,0,0,0,0,0,0,0
0,0,0,0,0,0,0,255,0,255,255,255,255,10,0,0,255,0,0,0,0,0,0,0,0,0,0,0,0,0,0,0,0,0,0,0,120,0,255,0,255,0,20,0,20,0,255,10,0,0,255,0,0,180,0,0,0,0,0,0,0,0,0,0
0,0,0,20,0,0,255,0,255,255,160,0,0,0,0,0,0,0,0,0,0,0,20,0,10,20,0,0,0,0,0,0,0,10,0,0,0,0,10,0,255,190,255,230,255,255,0,0,0,0,0,0,0,0,0,0,0,0,0,0,0,0,0,0
0,140,0,20,255,255,255,255,255,255,255,255,255,170,30,230,60,0,40,0,70,170,0,0,160,0,0,0,255,255,0,255,0,255,0,0,255,0,255,255,255,255,255,255,0,220,255,0,255,0,0,0,0,0,0,0,0,0,0,0,0,0,0,0
0,0,0,0,0,20,255,255,255,255,100,255,60,255,40,30,0,60,20,0,240,70,20,0,0,0,0,0,0,0,10,120,0,0,0,0,0,0,0,255,0,0,255,255,255,0,0,0,0,0,0,0,0,90,0,0,0,0,0,0,0,0,0,0
0,0,0,0,0,0,0,20,50,10,255,0,0,0,0,0,0,30,255,0,30,30,0,0,0,0,0,0,0,0,255,0,0,255,0,0,0,30,0,255,255,60,130,150,50,0,0,30,0,0,0,0,0,255,0,0,0,0,0,0,0,0,0,0
0,0,0,0,0,0,0,255,255,255,255,250,255,0,0,0,0,0,0,0,0,0,0,0,0,0,0,0,0,0,0,0,0,60,0,0,0,255,0,0,255,0,255,0,0,255,0,0,20,0,0,10,0,0,20,0,10,0,0,0,0,0,0,0
0,0,0,0,0,0,255,255,0,0,250,120,80,255,30,60,30,0,0,40,110,20,0,100,0,0,0,0,0,0,0,0,0,255,0,0,0,0,0,0,255,0,255,255,0,255,0,255,0,0,0,0,0,0,0,0,0,0,0,0,0,0,0,0
0,0,0,0,0,255,255,255,20,255,255,255,0,70,0,10,40,0,0,0,0,70,0,100,0,0,0,0,0,0,0,255,0,0,0,0,0,0,255,0,255,255,0,0,0,0,0,255,0,0,0,0,0,0,0,0,0,0,0,0,0,0,0,0
0,0,0,0,0,0,255,0,0,0,0,220,0,255,0,0,0,0,0,0,0,0,0,0,255,0,0,0,0,0,0,0,0,0,0,70,230,0,0,255,120,60,255,255,255,0,0,0,0,0,0,0,0,0,0,0,0,0,0,0,0,0,0,0
0,0,0,0,0,0,255,255,10,255,255,255,0,0,0,0,0,255,0,0,0,230,0,10,50,0,0,0,0,255,0,0,255,0,0,0,0,0,140,255,10,255,0,255,0,0,0,0,0,0,0,0,0,0,0,0,0,0,0,0,0,0,0,0
0,0,0,0,0,0,0,255,0,255,0,0,255,0,0,0,255,0,0,0,0,0,255,0,0,0,0,0,0,0,0,210,0,0,0,0,255,0,0,255,255,0,0,0,0,0,255,0,0,0,0,0,0,10,0,0,0,0,0,0,0,0,0,0
0,0,0,0,0,255,0,255,0,255,0,0,255,0,255,0,0,0,0,0,0,0,0,0,0,0,0,0,0,0,0,0,0,255,0,0,0,0,120,0,255,255,170,255,40,0,0,255,0,0,0,0,0,0,0,0,0,0,0,0,0,0,0,0
0,0,0,0,0,0,0,0,255,255,50,255,255,210,0,100,130,20,0,170,0,70,10,0,0,0,0,0,0,0,0,0,255,0,0,0,0,0,0,0,10,255,255,255,255,0,255,180,0,0,0,0,0,0,0,0,0,0,0,0,0,0,0,0
0,0,0,0,0,255,0,250,255,255,60,255,100,255,10,0,220,0,0,0,0,0,0,0,0,0,0,0,0,0,0,255,255,0,0,0,40,0,0,255,255,255,255,0,255,0,10,255,0,0,0,0,0,0,0,0,0,0,0,0,0,0,0,0
0,0,30,0,0,0,255,130,255,255,100,160,0,255,10,0,0,0,0,0,0,0,0,0,0,0,0,0,0,0,0,255,0,0,0,0,0,0,255,80,255,255,255,30,255,80,70,0,255,250,30,255,10,0,0,0,0,0,0,0,0,0,0,0
0,0,0,255,0,0,255,255,60,160,255,30,255,100,0,0,10,255,0,0,170,0,0,0,0,0,0,0,0,0,255,0,0,0,0,0,0,0,150,255,0,255,255,255,255,0,0,0,0,0,20,0,0,0,0,0,0,0,0,0,0,0,0,0
0,0,0,0,0,0,255,0,0,255,140,255,0,255,255,0,0,0,0,0,0,0,0,0,0,0,0,0,0,0,255,0,180,0,0,0,0,255,10,120,160,180,255,255,190,30,90,40,255,110,0,0,0,0,0,0,0,0,0,0,0,0,0,0
0,0,0,0,255,0,255,255,240,255,140,30,255,80,0,100,0,0,0,0,0,0,0,0,90,0,0,0,0,0,0,0,0,255,0,0,0,0,0,255,255,30,40,255,255,0,0,0,0,0,0,0,0,0,0,0,0,0,0,0,0,0,0,0
0,0,0,0,0,255,0,255,255,255,255,0,0,0,0,0,0,0,255,0,0,0,0,0,0,0,0,0,0,0,0,0,255,0,0,255,0,0,255,255,0,160,255,255,0,30,255,255,0,0,0,0,0,0,0,0,0,0,0,0,0,0,0,0
0,0,0,0,0,0,0,255,30,255,255,255,110,70,210,20,0,0,0,0,0,255,0,70,0,0,0,0,0,0,0,0,255,0,0,0,0,0,255,90,0,255,0,255,140,140,0,255,0,0,0,0,0,0,0,0,80,0,0,0,0,0,0,0
0,0,0,0,255,0,255,210,120,20,255,20,0,0,20,0,60,0,0,0,0,0,0,0,0,0,0,0,0,0,0,0,0,0,0,0,0,255,0,255,20,10,30,140,30,0,0,0,0,0,0,0,0,0,0,0,140,0,0,0,0,0,0,0
0,0,0,0,0,255,255,255,255,255,255,255,140,160,0,40,0,0,0,0,0,0,0,0,0,0,0,0,0,0,0,0,0,0,0,255,0,0,255,255,100,255,0,0,100,0,90,255,0,0,0,0,0,0,0,0,0,0,0,0,0,0,0,0
0,0,0,0,0,0,0,255,255,255,255,120,255,90,40,30,0,70,120,0,0,0,0,0,0,0,0,0,0,0,0,250,255,0,20,0,255,0,0,255,110,10,70,255,255,0,0,0,255,0,0,0,0,0,0,0,0,0,0,0,0,0,0,255
30,10,210,80,220,50,60,255,255,255,210,120,255,80,0,10,10,0,0,0,0,0,255,0,0,0,0,0,0,0,0,10,255,110,0,0,255,0,50,40,255,255,255,255,255,0,255,0,0,0,0,0,0,130,0,0,0,0,0,0,0,0,0,0
