0,0,0,0,0,0,0,48,196,0,32,0,76,0,0,0,0,0,0,0,0,0,0,0,8,0,0,0,0,0,16,0,0,0,16,0,0,196,64,0,196,148,8,20,200,196,0,0,0,0,0,0,0,0,0,0,0,0,0,0,0,0,0,0
20,0,0,0,12,0,8,196,200,196,0,0,4,0,192,0,0,0,0,0,0,0,0,0,0,0,0,0,0,0,0,0,0,16,24,0,196,0,0,0,196,192,0,132,176,196,12,12,32,4,0,0,0,196,0,0,0,0,0,0,0,0,192,0
0,0,0,0,0,196,0,196,0,0,0,100,0,196,0,20,0,0,0,0,0,0,0,0,0,0,0,0,0,0,0,196,0,0,0,0,0,4,196,0,0,4,196,196,36,68,196,0,0,0,0,0,0,0,0,0,0,0,0,0,0,0,0,0
0,196,44,0,0,0,0,0,196,0,196,0,0,0,0,0,0,0,0,0,12,0,0,0,0,0,0,0,0,0,0,0,0,16,192,0,0,0,20,196,196,16,48,64,92,60,40,104,156,0,28,172,12,0,0,176,56,0,0,0,0,0,0,128
0,0,0,0,176,0,0,60,196,24,0,0,192,0,0,0,0,0,0,0,0,0,0,0,0,0,0,0,0,0,0,0,0,0,0,0,0,88,200,196,0,0,196,196,4,28,0,196,0,0,0,196,0,0,0,0,0,0,0,0,0,0,0,0
0,0,56,0,0,28,0,196,196,0,0,196,0,188,0,0,0,0,0,0,0,0,0,0,0,0,0,0,0,0,0,0,0,20,0,0,196,0,0,48,196,192,196,196,0,12,0,0,36,0,4,0,0,0,0,20,0,0,0,0,0,20,0,0
0,0,76,0,0,0,24,196,0,0,196,0,0,188,0,0,0,0,0,0,0,0,0,0,0,0,0,0,0,0,72,0,16,0,0,0,0,196,0,196,0,0,196,8,0,64,192,0,0,0,0,0,32,0,32,0,0,0,0,0,0,0,0,0
192,0,0,0,0,0,0,0,196,0,4,196,64,0,12,0,12,0,0,0,0,0,0,0,0,0,0,0,0,0,0,184,12,0,20,196,0,0,8,36,0,196,0,8,196,200,0,0,0,0,0,0,0,0,0,0,0,0,0,0,0,0,0,0
0,0,0,0,0,196,0,32,196,8,200,0,8,0,0,0,0,0,0,0,0,0,0,0,0,0,0,0,0,0,0,12,0,0,0,0,0,0,4,196,12,8,196,200,76,0,0,200,4,0,0,0,0,0,0,0,0,0,0,0,0,0,0,0
0,0,0,0,0,0,0,0,0,200,196,0,32,0,0,0,196,0,0,0,0,0,0,0,0,0,0,0,0,0,0,4,0,0,8,12,0,0,0,4,196,88,12,196,4,196,4,0,0,0,0,0,0,0,0,0,0,0,0,0,0,12,0,0
0,0,0,0,0,0,0,196,0,0,4,0,196,0,0,0,0,0,0,0,0,0,0,0,0,0,0,0,0,0,0,0,0,0,0,16,0,32,12,0,12,200,100,196,196,0,196,12,0,0,148,0,0,0,0,0,0,0,0,0,0,0,0,0
0,0,0,0,0,48,0,196,0,20,200,0,200,196,0,0,0,0,0,0,0,0,0,0,0,0,0,0,0,0,0,12,0,0,0,0,12,0,196,0,24,8,196,32,16,48,56,24,196,0,0,0,0,0,0,0,0,0,0,0,0,0,8,0
0,0,0,0,0,0,0,192,0,0,4,68,96,0,0,0,0,0,0,0,0,0,0,0,0,0,0,0,0,0,0,16,0,0,0,0,0,12,152,196,0,20,80,20,120,0,200,0,0,0,0,0,0,0,0,0,0,0,0,0,0,0,0,0
0,0,0,0,0,0,0,0,196,24,0,0,12,0,8,0,0,0,0,0,0,196,0,0,0,0,0,0,0,4,0,12,36,0,0,0,0,196,196,16,12,4,196,196,16,12,0,0,84,0,0,0,0,0,4,0,0,0,0,0,0,0,0,0
0,0,0,0,0,0,0,12,24,0,196,0,200,0,0,8,0,176,0,0,0,0,0,0,0,0,0,0,0,0,0,0,0,0,0,0,44,0,196,0,196,200,196,4,0,0,0,196,0,0,0,0,0,0,0,0,0,0,0,0,0,0,0,0
0,0,0,0,0,0,0,0,196,0,0,196,0,0,0,0,0,0,0,0,0,0,0,0,0,0,0,0,0,0,140,0,0,0,0,0,0,0,20,16,4,12,8,200,0,4,0,0,0,0,36,80,0,0,0,0,0,168,0,0,0,0,0,0
0,0,0,0,0,0,0,196,196,0,196,0,0,0,176,0,0,0,0,0,0,0,0,0,0,0,0,0,0,0,0,176,0,0,0,20,0,196,12,196,0,4,196,192,0,196,0,0,0,196,0,0,0,200,12,0,0,0,0,0,0,0,0,0
196,0,0,0,0,0,0,0,0,16,192,0,0,0,4,0,0,0,0,0,0,0,0,0,0,0,0,0,0,0,0,0,8,0,0,0,0,0,0,48,196,0,4,196,0,4,12,0,196,0,0,0,0,0,0,0,0,0,0,0,0,0,0,0
0,0,0,0,0,0,0,196,40,0,0,0,0,196,0,0,0,196,0,0,0,20,0,0,0,0,0,0,0,0,0,0,28,4,0,0,4,0,32,196,200,20,12,196,0,196,0,0,16,0,0,0,0,0,0,0,0,0,0,0,0,0,0,0
0,0,0,0,0,0,0,84,196,112,0,196,0,4,12,196,0,0,0,0,16,0,4,0,0,0,0,48,0,0,0,60,76,0,0,0,8,0,128,0,196,196,64,160,0,200,0,0,64,0,0,0,0,56,0,0,0,0,0,0,0,64,0,0
28,100,0,0,0,0,52,0,196,196,0,0,0,24,0,0,0,0,0,0,0,0,0,0,0,0,0,0,0,0,64,16,0,64,0,196,32,0,196,196,100,196,0,200,196,196,8,0,0,0,0,0,0,0,4,0,0,0,0,0,0,0,0,176
0,116,0,0,192,0,0,0,0,196,60,0,196,60,0,0,0,0,196,0,0,0,0,0,0,0,0,0,0,0,168,36,0,0,196,0,0,12,0,40,196,200,196,0,0,0,0,0,12,0,0,0,0,0,8,0,0,0,0,0,0,0,0,68
0,0,0,0,0,196,0,0,0,8,196,0,0,0,0,200,0,12,0,0,0,0,0,0,0,0,0,0,0,0,0,0,0,104,0,0,0,152,196,52,196,4,64,140,196,196,112,12,0,192,0,0,0,0,0,0,0,0,0,0,0,0,0,192
0,0,4,0,0,196,0,196,0,4,0,0,180,0,0,80,0,0,0,0,0,0,0,0,0,0,0,0,0,0,44,0,0,0,0,196,0,12,0,0,200,200,0,0,0,4,196,60,48,36,24,0,0,0,4,0,0,0,0,0,0,0,0,0
0,0,0,192,0,0,0,0,24,96,36,0,0,0,196,0,0,0,0,0,0,0,0,0,0,0,0,0,0,0,0,0,0,0,0,0,48,28,196,200,156,0,0,12,196,0,44,180,28,20,0,28,0,0,196,0,0,0,0,0,0,0,0,192
0,0,4,0,196,0,196,0,0,0,196,196,4,136,0,0,4,0,0,0,0,0,0,0,0,0,0,0,0,0,0,0,0,196,0,0,0,0,0,196,196,0,4,12,0,200,8,196,0,0,0,0,0,0,0,0,0,0,0,0,0,136,0,0
196,0,0,0,0,196,0,0,44,0,196,0,192,0,0,8,0,0,0,0,0,0,0,0,0,0,0,0,0,144,0,164,0,0,0,196,0,168,196,0,4,0,200,0,4,196,0,0,0,0,0,4,0,0,192,0,0,0,0,0,0,80,0,192
0,0,196,0,192,0,0,192,196,176,12,196,0,0,8,144,0,0,0,0,0,0,0,0,0,0,0,0,0,0,56,12,64,196,0,0,0,0,192,68,0,184,196,196,196,0,0,0,0,0,0,0,0,0,0,0,0,0,0,0,0,48,0,76
0,0,40,52,196,0,8,0,188,176,68,0,0,44,0,0,0,0,0,0,0,0,196,0,0,0,0,0,0,32,0,164,0,196,0,0,0,0,144,56,196,8,196,196,0,0,20,0,0,0,0,0,56,0,68,196,20,0,0,40,0,68,0,108
0,192,0,0,0,96,196,100,0,176,196,0,196,0,0,196,0,0,0,0,0,0,0,0,0,0,0,0,0,140,0,196,0,0,0,196,0,0,192,196,0,192,20,192,0,196,0,0,0,4,0,0,0,0,0,0,192,0,0,0,60,0,176,0
192,0,0,0,0,0,0,192,192,196,188,0,0,0,0,128,0,0,0,0,0,0,140,0,0,0,0,0,164,0,196,0,196,196,0,0,0,0,196,0,196,0,0,196,196,8,0,8,0,192,0,0,0,0,0,0,0,0,0,0,0,96,0,184
0,0,0,192,0,0,192,0,16,196,196,136,0,0,0,0,16,104,0,0,0,0,192,0,0,0,188,0,0,0,196,0,0,0,0,0,0,0,196,196,196,196,200,76,0,28,196,4,0,0,0,48,0,0,188,0,0,0,0,0,84,180,0,0
188,0,0,0,0,0,192,196,200,0,0,8,0,196,0,0,0,0,0,124,0,0,0,0,0,0,0,0,0,184,0,0,196,196,0,0,196,0,0,196,200,192,12,196,196,56,0,196,196,0,0,0,0,0,0,0,0,0,0,0,0,112,0,152
0,0,0,0,0,188,188,0,196,24,192,200,144,8,0,0,0,4,196,0,0,0,0,0,0,0,0,192,0,0,0,196,0,196,0,0,0,196,0,196,0,196,196,196,0,196,68,0,184,0,0,0,0,0,0,8,0,0,0,120,0,0,0,0
0,0,0,0,192,0,0,192,4,196,196,196,0,0,0,112,28,0,0,0,0,0,0,0,0,0,0,0,0,188,196,0,0,0,0,196,0,0,196,0,200,4,196,196,4,56,56,76,28,192,80,0,0,0,0,0,0,0,0,0,0,84,0,180
0,0,188,0,0,0,188,196,196,12,176,0,0,0,0,0,0,0,0,68,0,0,0,0,0,0,0,0,0,0,0,196,0,0,196,0,0,0,0,20,196,196,152,196,4,56,96,196,196,8,16,32,0,40,4,0,0,0,0,0,0,92,0,184
0,0,0,192,0,0,0,192,0,196,196,0,196,0,0,0,76,0,0,0,0,0,0,0,0,0,0,0,176,0,0,196,0,0,0,196,0,0,196,0,4,196,0,196,200,0,0,0,0,32,0,0,0,0,0,0,0,0,0,0,0,0,132,0
192,0,0,104,0,0,192,196,0,0,0,196,196,0,0,0,0,0,0,0,0,0,0,0,0,0,0,0,0,0,0,0,0,0,196,0,0,0,196,0,0,0,196,196,4,28,196,0,0,0,0,0,0,0,192,0,0,0,0,0,0,0,104,176
0,0,0,0,192,0,192,0,196,196,0,0,0,132,0,0,0,0,0,196,0,0,0,0,0,0,0,0,196,0,0,196,0,0,0,0,196,0,196,4,200,196,196,0,0,196,0,200,0,0,0,0,0,0,0,0,0,0,0,0,104,184,0,0
192,0,0,0,0,160,0,0,104,196,0,4,196,40,0,0,128,0,0,0,0,0,0,0,0,0,0,0,180,0,0,196,0,0,0,0,196,0,196,0,196,0,196,196,0,192,0,12,0,0,0,32,0,0,0,0,0,196,0,0,0,0,8,188
0,0,0,0,0,0,196,0,196,188,196,0,0,0,24,0,192,0,0,0,0,0,0,120,0,0,0,0,196,172,0,0,196,0,0,0,0,196,0,0,196,196,4,196,0,0,196,196,0,0,0,0,0,0,0,0,16,0,0,0,0,0,156,0
0,0,144,0,0,0,196,0,184,196,0,0,0,0,0,0,0,0,196,0,0,0,0,180,0,0,0,0,0,180,0,196,0,196,0,0,0,0,196,20,196,196,196,196,0,0,196,0,0,0,184,184,0,0,0,0,0,0,0,0,0,0,172,0
0,0,0,0,0,196,0,0,196,0,0,196,196,0,0,0,0,196,0,0,0,0,0,0,0,0,0,0,0,0,136,0,196,0,0,0,196,196,0,0,148,196,196,200,0,0,68,200,0,0,0,0,192,0,0,0,0,0,0,0,0,28,112,12
0,0,0,148,28,0,20,196,196,196,0,0,196,4,0,0,0,0,0,0,0,0,0,0,156,0,0,0,148,48,0,196,196,0,0,0,0,196,20,200,196,0,16,4,56,0,12,0,156,0,0,0,0,0,0,0,0,0,0,0,0,0,140,0
0,32,0,0,0,0,196,0,0,192,196,0,72,196,196,0,0,0,0,0,0,0,0,0,0,0,0,0,0,0,196,32,0,0,0,0,0,196,0,196,0,200,196,196,0,0,0,0,0,0,0,0,0,0,0,0,0,0,0,0,0,0,0,52
28,0,4,192,0,0,0,196,196,196,28,0,0,0,0,0,0,0,0,0,0,0,0,0,0,0,0,0,0,44,0,0,0,16,0,0,176,4,0,196,148,196,12,0,196,0,0,0,0,0,0,0,0,0,0,0,0,0,0,0,0,0,0,52
0,0,0,0,0,192,0,0,0,196,196,4,200,0,0,0,0,0,0,0,0,0,0,0,0,0,0,0,0,0,28,0,0,0,0,0,188,0,196,196,196,4,48,200,196,24,196,0,0,196,0,0,0,0,0,0,0,0,0,0,0,0,0,24
0,192,0,0,0,0,0,196,0,0,196,0,0,0,0,0,4,0,0,0,0,0,196,0,0,0,0,0,0,0,0,0,0,0,0,16,32,0,0,0,196,64,80,200,0,0,0,0,0,0,0,0,0,0,0,0,0,0,0,0,0,0,0,0
0,0,0,0,0,0,52,196,0,0,188,4,4,0,0,0,196,4,0,0,0,0,0,0,0,0,0,0,0,0,0,0,4,56,0,0,0,64,0,196,200,196,8,196,200,0,0,0,0,0,0,184,0,0,0,0,0,0,0,0,0,0,0,0
176,0,0,0,0,0,196,148,0,20,196,0,0,200,0,196,0,0,32,0,0,0,180,0,0,0,0,0,0,0,16,196,0,0,0,0,0,196,0,36,196,196,148,32,0,0,0,0,0,0,12,0,16,16,0,0,0,0,0,0,0,0,0,0
