0,0,0,255,108,255,228,255,90,0,102,132,255,0,96,0,0,0,0,0,6,0,12,102,0,0,186,0,255,255,255,255,0,255,0,12,255,255,255,255,255,255,255,255,255,255,255,0,0,0,0,0,0,255,0,0,0,0,0,0,0,174,0,246
0,114,246,0,0,255,255,96,48,255,60,255,0,0,255,12,66,0,0,0,0,18,36,0,0,0,0,255,0,150,0,255,255,0,0,0,255,255,255,255,255,255,255,255,255,0,0,255,12,255,0,0,0,0,6,0,0,0,0,0,12,0,174,0
255,96,138,0,48,255,240,255,168,255,255,90,0,255,84,132,0,0,0,255,0,114,0,144,0,0,0,0,216,255,255,255,0,0,255,0,255,255,255,255,255,255,255,255,255,255,255,0,0,0,24,0,0,0,255,0,0,0,0,0,0,0,216,114
0,216,0,0,0,255,138,138,255,132,114,255,48,0,222,0,0,0,0,0,6,96,0,0,0,0,255,0,0,255,246,255,255,255,0,0,255,255,255,255,255,255,255,255,255,255,255,0,0,0,0,0,0,255,0,0,0,0,0,0,0,60,252,255
12,192,0,0,6,255,255,255,156,126,255,255,162,24,255,0,0,0,78,12,0,0,0,255,0,0,0,255,0,255,255,255,255,0,0,0,255,255,255,255,255,255,255,255,186,255,255,54,6,0,0,0,0,0,255,0,0,0,0,0,0,252,0,0
18,66,0,6,0,222,42,255,18,198,255,36,210,0,0,0,60,0,0,0,12,54,12,6,0,6,0,0,255,255,255,255,255,0,255,255,255,0,255,255,255,255,255,255,255,255,255,0,78,0,255,0,78,0,78,0,0,0,0,0,0,102,252,18
60,234,0,0,255,0,180,255,0,255,114,0,255,18,6,0,0,0,36,0,6,210,0,0,90,0,0,0,0,255,255,255,255,246,0,42,0,255,255,255,255,255,255,255,255,0,255,6,255,255,255,0,48,0,255,255,0,0,0,0,0,24,126,252
6,255,0,24,0,255,255,222,255,255,24,24,255,48,18,42,255,0,0,0,108,42,0,0,0,0,0,0,0,255,255,252,255,255,30,0,255,255,255,255,255,255,255,255,255,255,255,255,0,255,0,54,255,0,0,54,0,0,0,0,228,0,0,255
102,252,0,0,90,18,198,255,255,255,180,150,255,12,0,12,0,12,0,0,102,6,0,0,0,0,0,0,0,255,255,255,162,255,6,36,255,255,255,255,255,255,255,255,255,255,42,0,255,0,255,6,0,0,0,0,0,0,0,0,0,0,246,36
48,12,156,108,60,246,0,0,24,30,102,255,255,198,24,0,0,0,0,0,0,0,96,0,0,0,0,0,0,255,48,255,255,0,255,255,0,255,252,255,255,255,255,255,255,255,255,255,255,0,0,240,18,255,192,6,255,0,0,0,0,0,255,204
90,90,12,42,0,255,18,60,255,255,240,6,255,120,0,6,0,12,6,0,6,36,0,0,0,6,0,0,255,255,0,255,102,255,0,0,255,255,255,255,255,255,255,255,255,252,255,255,0,0,246,255,0,0,48,0,6,18,0,0,0,186,84,84
162,0,150,0,36,60,222,48,12,255,90,96,210,36,108,0,6,0,6,6,0,0,72,0,0,0,0,0,0,102,255,255,0,255,0,0,6,255,255,255,255,126,255,255,255,78,255,0,255,0,198,0,0,0,48,0,0,0,0,0,0,0,0,255
0,0,0,255,0,84,255,255,90,132,246,255,255,66,30,0,0,84,54,36,0,36,24,30,0,0,0,0,0,255,255,255,255,24,255,12,255,42,255,255,255,255,255,255,36,255,138,255,0,0,0,0,255,255,6,66,6,255,0,0,0,0,0,66
255,0,108,84,126,102,54,18,255,255,114,54,255,72,54,6,0,0,0,36,0,78,30,0,0,0,0,0,0,96,255,255,6,255,6,0,72,255,0,255,255,255,255,255,255,255,255,0,180,0,0,0,0,0,0,66,0,0,0,0,0,0,255,0
84,78,36,30,132,48,48,255,255,84,96,84,255,18,102,60,96,126,0,0,0,0,66,0,0,0,0,0,36,0,255,255,255,18,0,0,255,0,255,255,255,255,255,255,255,252,30,255,255,0,0,0,0,36,255,0,252,0,0,0,0,0,138,78
0,30,0,96,0,30,18,255,255,255,30,60,96,60,96,0,6,0,0,0,0,36,42,0,0,0,0,0,255,0,255,255,255,0,0,0,0,18,255,255,255,255,255,255,255,255,255,0,255,0,255,240,210,255,0,30,6,0,0,0,0,252,180,120
18,30,0,78,60,36,255,78,255,168,30,66,255,150,30,156,0,0,0,0,0,0,0,0,0,0,0,0,0,255,0,255,255,6,255,255,255,222,255,255,255,255,255,255,255,255,255,0,234,180,198,0,255,255,216,0,0,0,0,255,0,0,0,222
96,204,126,120,48,255,255,255,255,255,120,48,18,42,255,0,0,0,0,0,0,60,0,48,0,0,0,0,0,255,255,255,255,255,42,255,0,255,255,255,255,255,255,255,255,255,255,255,0,255,0,0,0,0,255,6,255,0,0,0,138,0,108,114
228,138,126,156,174,192,255,252,198,102,255,255,36,198,0,0,0,0,0,0,0,0,0,0,0,0,0,0,0,255,0,246,255,255,246,255,255,255,255,255,255,222,255,255,204,138,222,0,255,255,255,255,255,0,0,0,0,0,0,0,0,198,102,48
180,210,102,36,120,150,255,255,174,210,255,60,240,255,174,120,0,0,0,0,0,42,12,0,0,0,0,0,0,255,255,255,255,255,255,252,255,255,255,255,255,255,36,246,255,255,0,255,24,0,255,18,0,255,0,0,0,0,0,0,0,0,0,255
0,0,30,6,0,24,255,255,255,186,255,12,18,12,150,24,255,0,0,0,0,54,0,48,54,0,0,0,0,255,12,255,255,255,255,0,0,255,255,12,30,255,255,255,255,255,255,255,114,255,0,0,180,0,6,0,0,0,0,0,0,240,72,0
96,144,48,36,0,36,255,126,255,168,174,156,84,36,72,198,42,0,0,0,0,60,60,42,0,0,0,0,0,255,60,255,255,255,252,255,255,255,255,255,42,255,255,255,255,255,255,255,0,216,6,255,192,0,0,255,255,0,0,0,0,228,138,126
144,96,60,138,6,144,168,138,255,60,255,255,60,90,48,78,0,6,0,0,12,24,255,0,0,0,0,6,0,255,255,255,54,255,0,255,255,255,255,78,255,255,255,255,255,255,156,18,0,12,255,255,0,252,0,0,0,0,0,0,0,0,255,0
252,0,0,0,0,255,228,234,255,222,255,84,168,210,0,255,0,0,0,0,0,0,240,54,30,0,0,0,60,255,255,255,255,255,42,0,42,255,255,255,255,255,255,246,255,255,0,255,0,6,0,0,0,0,0,255,0,0,0,0,255,138,126,0
120,60,126,48,138,108,156,255,255,240,150,255,72,0,255,126,0,0,0,0,0,12,78,0,0,0,0,255,0,255,255,255,6,255,255,255,255,6,255,255,255,255,255,252,255,255,255,255,162,255,180,42,0,36,0,96,0,255,0,0,0,144,168,126
150,204,84,48,120,144,132,234,222,246,162,255,180,126,0,114,102,48,42,84,114,0,72,108,0,0,0,0,0,255,255,255,255,228,186,198,180,222,150,255,168,255,255,255,255,198,204,240,204,204,66,234,180,0,0,6,255,0,0,0,0,108,180,240
144,6,0,126,102,90,108,120,174,114,132,114,96,132,84,72,36,6,6,66,6,12,6,30,150,0,0,0,255,255,255,255,255,255,255,228,255,255,255,255,255,255,12,255,60,102,84,0,72,255,0,0,0,0,0,246,0,0,0,0,0,0,84,255
204,0,204,0,0,234,252,252,168,156,66,132,255,0,126,0,0,36,0,0,0,0,0,0,0,0,0,0,0,255,255,255,0,255,0,0,12,255,255,255,255,255,255,255,255,255,30,255,255,84,0,0,0,0,0,66,0,0,0,0,0,0,204,174
54,24,84,6,24,114,66,162,228,90,162,198,24,42,48,0,30,0,18,114,0,0,0,0,0,0,0,0,0,6,12,255,0,12,0,0,0,0,255,255,0,255,255,255,255,255,255,0,0,0,0,0,0,0,60,255,0,0,0,0,0,0,0,255
186,156,42,36,48,255,108,255,60,255,144,0,186,255,0,0,0,108,0,0,0,60,48,48,6,0,0,0,0,0,255,255,18,255,255,255,255,0,255,255,255,255,255,255,0,255,36,30,0,0,0,0,0,60,0,0,0,255,0,0,0,6,0,0
36,60,96,0,12,255,84,255,60,132,255,6,48,138,72,0,96,0,0,0,0,150,0,18,0,0,0,0,0,6,255,18,255,0,255,0,0,24,255,255,255,255,255,255,84,108,255,0,78,18,42,42,42,0,42,255,30,0,0,0,0,0,255,138
0,150,0,36,192,18,42,255,60,255,255,0,192,0,30,0,0,0,0,0,0,0,6,6,0,0,0,0,0,255,18,78,255,0,18,255,18,162,18,255,255,255,255,255,255,255,255,30,0,0,0,0,24,255,255,0,0,0,0,0,0,0,252,96
72,102,0,42,24,0,6,216,72,6,84,66,255,36,18,60,0,0,42,0,0,0,18,36,0,0,0,0,0,96,72,255,255,72,255,0,18,255,255,255,255,255,255,255,255,255,255,30,0,255,0,255,255,0,24,246,0,0,0,0,0,6,132,255
36,36,78,48,255,6,96,255,120,255,168,168,138,0,66,6,6,6,24,0,36,66,60,30,0,0,0,0,255,255,255,255,255,255,0,18,255,255,255,255,255,6,255,255,255,255,255,6,255,0,0,0,0,24,0,255,18,0,0,0,0,144,84,42
192,0,126,255,54,0,0,72,114,255,255,192,12,180,0,78,84,0,60,0,0,30,12,0,0,0,6,0,6,255,255,0,255,255,30,30,30,24,255,255,255,255,255,255,72,255,255,255,0,0,0,255,255,255,24,0,0,30,0,0,0,234,72,114
126,60,90,78,30,255,255,138,120,120,255,255,0,72,96,255,0,72,0,0,0,0,12,0,0,0,0,0,0,255,255,255,255,0,0,255,54,255,222,255,255,255,255,255,255,255,0,0,255,252,222,0,0,0,66,0,0,0,0,0,0,0,216,24
36,54,60,60,0,255,144,36,255,255,120,36,102,42,222,0,255,54,0,18,0,0,0,0,0,0,0,0,0,255,255,255,255,138,0,72,0,255,255,255,42,255,255,255,255,138,255,18,0,255,0,0,0,0,255,0,0,0,0,0,0,0,6,102
60,96,60,42,102,72,255,255,255,120,48,66,255,0,6,0,0,24,30,0,42,138,0,0,0,0,0,12,0,6,24,255,18,24,12,0,255,255,255,255,255,255,255,255,255,255,255,255,255,78,0,102,24,0,66,0,0,228,12,0,0,255,0,0
6,255,0,18,18,255,234,255,48,252,246,216,66,0,0,0,0,0,0,0,0,0,6,0,0,0,0,0,0,0,0,0,255,255,255,210,42,255,60,255,255,255,255,255,255,255,255,234,156,192,0,255,0,12,0,0,0,0,0,0,0,255,0,84
240,54,36,96,234,30,174,255,120,255,168,255,210,114,228,6,18,18,12,6,18,0,114,0,120,0,0,255,0,42,0,255,255,0,255,42,255,48,255,255,255,255,255,255,255,255,255,255,255,0,255,6,255,0,0,255,0,0,0,0,0,12,255,162
198,132,138,12,114,174,246,255,255,126,246,162,255,24,114,255,102,24,42,0,150,0,102,6,12,0,0,126,0,0,255,24,0,36,255,12,255,0,132,255,255,255,255,255,255,255,30,255,0,255,0,0,0,0,12,255,255,0,0,0,0,0,168,255
0,156,48,156,108,24,198,255,255,108,60,144,120,162,24,78,60,90,12,48,0,18,6,6,0,0,0,0,255,255,255,168,255,246,0,240,255,246,255,255,255,255,255,255,255,255,222,204,198,180,0,180,204,168,180,168,114,0,0,0,0,198,138,126
102,108,6,12,0,0,255,120,255,255,114,144,255,42,24,0,0,138,156,120,54,90,42,102,0,0,0,0,255,24,255,255,255,255,255,255,0,255,255,255,255,255,255,234,255,255,255,6,0,0,0,0,0,36,0,6,0,0,0,0,0,6,0,255
0,0,255,0,0,168,255,186,174,126,255,138,102,0,255,48,6,0,0,0,72,0,0,18,0,0,0,6,12,0,42,12,255,60,0,0,252,255,24,255,255,255,255,252,255,255,0,255,255,0,0,0,0,0,0,72,12,0,0,0,0,0,246,0
114,60,72,0,255,138,42,168,54,84,255,24,96,255,126,0,255,0,0,138,0,30,18,90,0,0,6,0,255,0,36,255,255,42,24,36,255,42,255,255,255,255,255,255,255,234,0,0,0,255,12,0,0,0,0,0,0,0,0,0,0,0,0,0
0,0,0,255,0,96,18,255,222,255,18,255,0,246,198,0,0,6,0,0,0,0,0,0,0,0,0,0,0,0,255,42,255,0,0,255,12,30,66,18,255,255,255,255,60,255,0,6,0,255,0,0,0,0,6,0,0,0,0,0,0,12,0,0
0,0,0,255,0,0,255,156,162,255,255,48,255,6,102,0,18,0,72,0,120,0,0,6,0,0,0,0,0,72,255,255,0,255,0,0,42,255,156,255,255,255,6,255,255,255,255,255,18,0,0,0,42,36,12,42,0,6,0,0,0,0,0,48
255,0,0,0,0,138,84,78,255,255,138,174,72,255,114,6,0,0,0,0,0,60,0,0,0,0,0,0,0,36,255,0,0,6,0,255,6,255,240,255,255,255,255,255,255,192,36,0,72,0,36,30,0,42,0,255,0,255,0,0,0,0,84,78
234,96,72,0,0,114,138,138,114,255,156,255,255,186,150,42,0,162,0,0,0,0,0,252,0,0,0,0,0,0,255,255,255,0,0,0,0,255,12,255,255,255,255,24,255,255,36,0,0,18,0,18,0,0,0,0,255,0,0,0,0,6,0,6
255,0,24,204,252,72,114,180,126,255,255,174,0,84,0,72,24,66,0,72,0,18,6,30,0,0,0,6,0,36,255,255,255,0,0,0,255,255,255,255,255,255,90,255,255,255,0,255,6,0,0,0,0,0,0,0,48,0,0,0,0,0,255,0
