0,0,0,0,1,0,2,0,16,15,10,49,21,5,5,3,0,0,0,0,0,0,0,0,0,0,0,0,0,0,0,0,0,0,0,0,0,3,1,50,0,5,11,5,14,10,2,3,0,2,4,0,1,0,0,0,0,0,0,0,0,0,0,0
0,0,0,0,0,0,5,8,12,49,49,7,16,0,17,3,3,0,0,0,0,0,0,0,0,0,0,0,0,0,0,0,1,1,0,0,1,0,50,4,6,7,12,1,12,50,1,1,1,0,0,0,0,1,0,0,0,0,0,0,0,0,0,0
0,0,0,0,1,49,9,15,50,11,1,20,6,1,17,0,0,7,0,0,0,3,0,0,0,0,0,0,0,0,0,0,0,0,0,0,0,1,0,6,50,8,14,7,7,3,0,20,4,0,0,0,0,3,0,2,0,0,0,0,0,0,0,0
0,0,0,0,0,14,2,50,14,19,4,2,19,19,0,0,0,0,0,0,0,3,0,50,2,0,0,0,0,0,0,0,0,1,0,0,0,3,0,50,2,2,6,5,12,4,27,1,0,0,0,0,0,2,0,0,0,0,0,0,0,0,0,0
0,0,0,0,0,0,9,11,8,49,1,49,17,1,0,0,0,0,0,0,0,0,0,0,0,0,0,0,0,0,0,1,0,1,0,0,0,13,0,50,0,7,0,12,6,5,12,9,1,50,0,0,0,0,0,0,0,0,0,0,0,0,0,0
0,0,0,0,0,7,49,0,13,49,17,49,12,2,0,4,19,0,3,0,0,0,0,0,0,0,0,0,0,0,0,0,0,0,0,0,1,0,11,5,3,11,50,1,0,10,0,50,0,0,0,0,0,2,1,0,0,0,0,0,0,0,0,0
0,1,0,0,1,4,3,6,17,50,5,12,4,1,19,0,0,0,0,16,0,7,8,0,0,0,0,0,0,0,0,0,0,0,0,0,0,0,16,50,1,49,3,50,9,6,7,2,0,0,0,7,1,0,1,0,0,1,0,0,0,0,0,0
0,0,0,4,1,0,1,6,49,7,15,0,20,12,0,1,0,0,0,0,0,0,0,0,0,0,0,0,0,0,0,0,0,0,0,0,0,50,1,0,10,0,50,1,10,0,0,6,7,4,0,0,0,49,0,0,0,0,0,0,0,0,0,0
2,0,0,2,0,0,8,49,19,15,7,50,18,12,1,13,0,0,0,4,0,0,0,0,0,0,0,0,0,1,0,0,0,0,0,0,0,0,3,5,3,2,50,7,5,13,3,0,3,0,0,0,1,0,0,0,0,0,0,0,0,0,0,0
0,0,0,1,1,1,0,1,49,6,19,12,21,14,4,8,6,0,0,0,0,0,0,0,0,0,0,0,0,0,0,1,0,0,0,0,0,1,1,1,7,7,50,3,6,5,6,4,0,0,0,0,0,0,0,0,0,0,0,0,0,0,0,0
0,0,0,0,2,0,0,14,8,50,9,7,13,1,50,8,0,0,0,0,0,0,0,0,0,0,0,0,0,0,0,0,1,0,0,2,0,5,2,50,10,7,7,12,50,3,7,2,0,0,0,0,0,0,1,0,0,0,0,0,0,0,0,0
0,0,0,0,2,0,6,1,50,13,13,4,49,0,0,1,0,0,0,13,0,0,18,0,0,0,0,0,0,0,0,1,0,1,0,0,0,1,5,3,6,21,8,50,11,50,0,1,0,7,0,0,0,0,1,0,0,0,0,0,0,0,0,0
0,1,1,0,49,0,0,0,49,49,6,7,10,9,14,0,7,0,0,0,0,0,0,14,0,0,0,0,0,0,0,0,0,1,1,0,0,1,1,5,5,5,8,47,8,7,3,3,3,0,0,0,1,1,2,0,0,0,0,0,0,0,0,0
0,0,0,0,1,0,9,7,50,3,19,3,13,5,9,6,0,2,0,14,3,0,0,4,0,0,0,0,0,0,1,0,0,1,0,1,0,0,2,1,6,50,8,9,7,12,1,8,6,0,0,0,3,0,0,2,0,0,0,0,0,0,0,0
0,0,0,1,0,7,0,49,18,13,15,19,49,18,9,36,0,0,0,0,0,11,0,0,0,0,0,0,0,0,0,1,1,1,0,1,4,4,50,4,7,0,50,2,7,8,5,0,2,5,0,0,0,0,1,0,0,0,0,0,0,0,0,0
0,3,0,0,0,0,1,5,15,3,49,10,0,5,1,13,0,0,0,0,0,10,0,0,0,0,0,0,0,0,0,1,0,1,1,0,2,0,1,2,50,3,10,1,3,16,14,12,0,0,0,0,0,3,0,0,0,0,0,0,0,0,0,0
2,0,0,0,0,3,5,3,4,14,14,12,0,4,1,0,0,0,9,0,0,4,0,0,0,0,0,0,0,0,0,0,3,0,0,1,1,0,3,7,0,4,5,6,19,2,11,3,5,1,50,0,2,0,0,1,0,0,0,0,0,0,0,0
0,0,0,1,0,0,3,5,50,15,1,19,1,6,48,0,0,0,12,0,0,0,0,0,0,0,0,0,0,0,0,7,2,1,3,0,2,4,2,7,0,9,9,8,50,8,0,0,12,1,0,0,0,0,0,0,0,0,0,0,0,0,0,0
0,0,0,1,0,1,3,7,50,4,5,17,10,0,20,0,0,0,0,0,1,0,0,5,0,0,0,0,0,0,0,0,0,0,1,3,1,1,4,5,50,9,1,50,14,7,7,7,0,0,0,0,0,3,0,0,0,0,0,0,0,0,0,0
0,0,0,0,0,9,0,6,1,14,12,28,7,0,0,1,0,0,0,0,0,0,0,0,0,0,0,0,0,0,0,0,1,0,0,2,1,0,0,3,14,2,50,4,6,7,0,0,0,2,0,3,0,0,0,2,0,0,0,0,0,0,0,0
0,0,0,0,0,0,6,9,33,10,4,26,11,27,8,1,9,0,0,0,8,0,1,0,0,0,0,0,0,0,0,0,2,1,0,1,1,2,3,1,16,5,50,7,1,8,2,1,0,0,2,0,0,0,0,0,0,0,0,0,0,0,0,0
0,0,1,0,0,1,1,1,49,13,15,3,8,14,0,0,5,17,0,0,2,3,0,0,0,0,0,0,0,0,0,0,0,0,3,0,1,3,3,5,10,49,0,50,4,2,4,7,0,0,0,0,0,7,0,0,0,0,0,0,0,0,0,0
0,0,0,3,0,0,0,19,11,11,10,16,6,22,5,0,6,0,7,0,0,0,0,0,0,0,0,0,0,1,0,0,5,0,0,3,0,0,3,2,5,50,10,1,1,8,2,4,5,0,0,3,3,0,0,0,0,0,0,0,0,0,0,0
0,0,0,0,0,1,2,2,8,17,49,15,6,5,2,15,0,0,0,0,1,25,0,0,1,0,0,0,0,0,0,2,0,1,0,0,4,0,5,5,2,12,10,3,4,4,0,0,2,2,0,2,2,0,16,0,7,0,0,0,0,0,0,0
0,1,0,0,49,2,10,2,1,26,14,18,12,0,0,1,0,12,0,0,0,0,9,19,0,0,0,0,0,0,0,1,1,1,0,3,3,4,3,2,50,10,10,3,10,17,3,1,0,0,0,0,5,0,0,0,0,0,0,0,0,0,0,0
0,1,0,1,0,49,0,1,19,0,15,17,13,10,0,50,0,0,17,0,0,0,0,0,5,0,0,0,0,0,0,0,1,1,3,0,0,5,7,7,2,5,8,50,14,1,2,0,2,1,0,0,0,5,2,0,0,0,0,0,0,0,0,0
0,0,1,2,0,1,7,0,5,12,50,0,48,0,24,5,18,0,0,0,0,0,0,0,0,0,0,0,0,0,0,1,2,0,0,2,1,3,0,2,2,50,3,16,8,6,10,3,0,0,13,0,0,0,0,3,0,0,0,0,0,0,0,0
0,0,0,2,0,2,3,10,5,49,1,19,19,8,10,7,6,0,0,0,15,5,0,0,0,0,0,0,0,0,0,1,1,0,0,3,1,1,2,3,50,1,9,3,5,8,17,6,2,7,2,2,0,0,0,0,0,0,0,0,0,0,0,0
0,1,1,0,4,0,0,49,14,12,10,33,14,1,0,1,0,9,0,0,0,0,0,0,0,0,0,0,0,1,0,3,2,0,1,1,2,0,49,3,2,10,50,4,50,5,1,3,0,1,0,4,0,0,0,0,0,0,0,0,0,0,0,0
0,0,0,0,0,0,12,50,11,10,16,6,7,49,23,17,21,0,0,10,0,0,6,0,0,0,0,0,0,0,0,0,0,1,4,0,1,0,5,50,12,7,4,1,3,7,12,2,19,3,0,1,0,0,50,0,0,0,0,0,0,0,0,1
49,0,0,1,0,47,3,0,13,5,49,1,11,12,8,17,0,0,0,2,0,4,49,0,0,0,0,0,0,0,1,0,4,1,0,4,3,1,3,7,13,50,49,3,7,10,4,2,0,1,0,0,0,0,0,0,4,0,0,0,0,0,0,0
0,1,0,0,0,0,6,6,11,50,35,22,49,8,0,5,18,8,0,0,0,0,2,0,0,0,0,0,0,0,0,0,0,1,1,0,1,2,0,2,7,50,13,2,5,8,8,0,0,7,50,0,0,0,1,0,0,0,0,0,0,0,0,0
0,1,0,0,7,0,0,10,48,49,8,12,16,12,0,0,0,0,0,0,0,0,0,0,8,0,0,0,0,0,0,1,0,0,3,1,3,4,2,11,6,2,5,50,46,2,3,0,13,0,0,2,1,0,0,0,0,0,0,0,0,0,0,0
1,0,1,0,1,0,0,4,49,49,16,16,15,6,17,1,9,20,1,6,5,0,0,0,0,0,0,0,0,0,1,0,1,1,0,1,0,0,7,5,4,1,50,3,5,6,15,2,5,3,0,0,0,0,3,0,0,0,0,0,0,0,0,0
0,0,2,0,0,0,3,12,12,5,49,14,15,16,8,3,0,0,0,18,0,0,1,5,0,0,0,0,0,0,0,0,1,3,0,0,3,0,4,7,2,5,50,5,50,15,3,5,3,4,0,0,5,0,0,0,1,0,0,0,0,0,0,0
1,3,0,0,0,6,0,11,0,49,7,49,21,1,1,0,0,0,22,12,0,0,3,0,0,0,0,0,0,0,0,0,1,0,1,0,1,2,50,3,7,5,3,14,18,20,15,0,1,50,0,0,0,0,0,0,0,0,0,2,0,0,0,0
0,0,0,4,0,1,14,3,11,10,4,23,3,13,0,2,2,0,0,0,19,0,0,0,0,0,0,0,0,0,0,6,0,0,3,0,3,3,6,2,1,50,10,49,9,49,5,8,6,0,0,1,0,0,5,50,0,0,0,0,0,0,0,0
0,0,0,0,1,0,8,3,49,3,5,5,15,5,50,0,19,0,0,0,0,17,0,1,0,0,0,0,0,0,1,1,1,1,0,0,0,1,50,2,3,6,2,7,7,9,8,1,15,0,3,0,0,0,1,2,1,0,0,0,0,0,0,0
0,0,0,1,1,5,1,3,12,50,8,16,12,49,0,0,1,1,0,0,0,0,13,0,0,0,0,0,0,1,0,1,0,1,3,1,1,1,2,3,4,50,4,6,50,10,6,4,0,0,0,0,0,49,0,0,0,0,0,0,0,0,0,0
0,0,1,2,3,50,0,48,50,2,2,11,12,3,2,0,49,0,0,0,0,0,0,0,0,0,0,0,0,0,0,0,0,0,0,0,1,2,1,50,16,50,8,1,50,3,1,7,0,1,10,0,0,3,0,0,0,0,0,0,0,0,0,0
0,1,0,1,10,5,7,9,14,49,5,13,49,17,7,49,6,3,0,0,0,5,0,0,4,0,0,0,0,0,0,0,0,1,2,0,1,3,5,4,20,50,50,4,5,2,50,3,0,4,0,0,5,0,0,0,0,0,0,0,0,0,0,1
0,1,0,0,0,9,2,3,8,49,49,6,1,49,22,6,2,0,0,6,0,1,0,0,0,0,0,0,0,0,0,3,1,7,1,2,1,1,2,8,50,4,50,8,4,19,0,1,0,0,6,0,1,0,0,2,0,0,0,0,0,0,0,0
2,0,0,0,1,0,10,1,0,23,13,49,10,6,49,7,0,9,0,0,49,0,0,0,0,0,0,0,0,0,0,1,0,0,0,0,1,0,1,50,1,2,11,5,1,50,2,0,4,0,4,0,0,8,0,0,0,0,0,0,0,0,0,0
0,0,8,0,0,0,10,6,49,8,12,9,25,7,49,49,0,3,0,0,0,3,1,0,0,0,0,0,0,0,0,0,0,1,2,1,2,1,3,2,8,50,49,3,3,3,13,0,2,2,0,49,0,3,0,0,0,0,0,0,0,0,0,0
0,0,0,0,0,14,9,0,11,49,9,11,7,0,4,3,0,50,0,0,0,0,0,0,0,0,0,0,0,0,0,1,1,0,0,0,4,2,5,50,7,49,10,5,2,5,4,13,0,0,0,0,3,0,7,5,0,0,0,0,0,0,0,0
1,0,1,1,0,2,0,10,13,50,1,5,0,14,20,8,25,0,0,0,0,5,0,0,0,0,0,0,0,0,0,7,3,0,3,2,1,6,11,3,7,8,1,50,0,13,3,2,1,0,7,0,0,2,0,2,0,0,0,0,0,0,0,0
0,0,0,0,0,3,5,3,49,2,49,0,7,6,5,1,6,8,0,0,0,0,0,0,5,0,0,0,0,0,0,2,5,1,0,3,3,4,0,3,13,5,50,13,3,48,4,10,0,0,0,1,4,4,0,0,0,0,0,0,0,0,0,0
6,0,0,1,0,0,3,0,49,6,15,11,48,16,31,0,0,0,0,0,0,0,0,0,0,0,0,0,0,0,0,0,1,2,0,0,0,0,5,50,1,17,6,12,12,49,4,4,0,1,0,0,2,2,0,0,0,0,0,0,0,0,0,0
0,2,0,1,0,0,4,3,49,3,12,3,49,3,15,1,7,0,0,0,0,0,3,0,0,0,0,0,0,0,0,0,1,8,0,0,0,5,2,7,50,10,6,12,4,0,5,2,0,7,50,1,3,0,0,3,0,0,0,0,0,0,0,0
0,0,0,0,0,4,49,49,4,13,7,50,0,7,8,15,0,0,10,14,3,0,0,0,0,0,0,0,0,0,0,1,0,2,0,6,0,0,4,3,1,50,6,17,2,5,50,16,0,0,3,0,0,3,0,0,0,0,0,0,0,0,0,0
