0,0,7,0,0,3,4,49,0,21,3,20,6,0,49,27,3,0,0,0,0,0,12,0,0,0,0,0,0,0,0,0,0,0,0,4,0,1,3,5,6,0,3,9,7,49,46,0,0,1,0,0,0,0,48,0,9,0,0,0,0,0,0,0
0,0,0,0,0,3,0,5,49,19,49,16,0,8,50,12,0,0,0,0,0,0,0,0,3,0,0,0,0,0,0,0,0,0,0,0,0,2,48,50,11,3,4,50,7,7,25,4,0,0,1,0,0,0,0,0,0,0,0,0,0,0,0,0
0,0,0,0,0,3,49,2,20,7,16,1,50,17,1,0,0,0,0,0,0,0,0,0,0,29,0,0,0,0,0,1,1,0,0,0,3,0,4,1,3,1,0,9,5,50,2,3,0,0,0,1,0,0,2,0,2,0,0,0,0,0,0,0
0,0,3,0,0,0,0,12,8,49,9,13,15,4,1,21,6,0,0,0,0,0,1,0,0,0,0,0,0,0,0,6,0,0,5,0,2,1,4,1,6,5,50,18,8,0,49,0,0,0,0,0,0,0,0,0,0,0,0,0,0,0,0,0
0,0,1,0,4,0,2,0,13,11,49,1,0,0,26,0,0,7,11,0,0,0,0,0,13,0,0,0,0,2,0,0,0,0,0,0,0,0,9,1,2,15,12,50,50,10,8,0,0,0,0,0,0,0,0,49,0,0,0,0,0,0,0,0
0,0,1,0,2,3,49,8,49,48,1,16,21,23,49,0,0,0,0,5,0,0,0,0,0,0,0,0,0,0,0,0,0,0,0,50,0,0,1,9,0,6,50,49,6,1,3,2,9,8,0,0,0,0,0,0,0,0,0,0,0,0,0,0
0,0,0,0,0,1,49,3,9,2,49,2,9,12,48,0,0,0,7,0,0,0,0,1,0,0,0,0,0,0,0,0,0,3,0,0,3,0,50,1,50,49,10,12,12,8,7,6,0,0,0,0,0,0,0,0,0,0,0,0,0,0,0,1
0,2,0,0,0,0,49,4,14,22,8,3,7,50,0,0,9,2,0,0,1,0,0,0,2,0,0,0,0,0,0,0,0,2,7,0,0,10,0,5,10,1,16,16,15,9,1,0,1,0,1,7,0,46,13,0,0,0,0,0,0,0,0,0
0,0,0,0,1,0,0,17,8,3,19,50,9,4,22,0,16,0,7,0,0,1,0,0,0,0,0,0,0,0,0,0,48,0,0,0,6,4,0,2,0,15,50,50,10,10,49,9,0,0,8,49,0,48,0,0,0,0,0,0,0,0,0,0
0,0,0,1,0,0,49,11,13,14,49,11,20,29,49,0,7,0,0,0,0,0,0,0,0,0,0,0,0,0,0,0,0,0,0,0,0,0,7,50,1,10,49,0,0,0,49,3,1,0,1,0,0,0,0,0,0,0,0,0,0,0,0,0
7,0,0,0,0,0,0,8,2,50,49,7,3,15,1,0,21,14,0,0,3,0,0,0,0,0,0,0,0,0,0,1,0,0,0,3,2,0,1,4,3,0,50,21,0,0,3,3,6,0,0,4,0,0,7,0,0,0,0,0,0,0,0,0
0,0,0,0,0,2,8,2,16,0,11,49,2,3,15,5,21,0,0,0,0,16,0,1,0,0,0,0,0,3,0,0,5,1,6,0,0,50,3,1,50,2,0,9,6,5,50,0,0,0,1,0,0,0,0,7,3,0,0,0,0,0,0,0
1,0,1,0,0,2,7,50,14,14,11,8,4,11,13,0,0,2,0,0,0,0,5,3,0,0,0,0,0,0,0,1,0,0,8,0,1,6,5,8,4,12,50,21,7,3,8,7,10,0,0,1,49,10,8,0,0,0,0,0,0,0,0,0
0,0,3,0,0,0,0,49,7,2,49,14,38,3,0,0,0,16,0,3,0,0,3,0,0,0,0,0,0,0,0,0,0,3,7,1,7,0,7,0,3,50,6,50,10,5,11,0,6,8,0,4,0,0,0,0,0,0,0,0,0,0,0,0
0,0,0,0,3,0,3,3,6,49,12,22,27,11,0,22,0,0,0,0,0,0,0,0,0,0,0,0,0,0,0,0,4,3,0,0,0,0,11,8,50,17,22,49,1,17,17,0,7,8,0,1,0,0,0,1,0,0,0,0,0,0,0,0
14,1,0,0,3,3,49,49,12,49,21,48,9,0,8,49,5,0,0,0,0,0,3,0,0,0,0,0,0,0,0,0,0,3,0,0,6,2,8,7,50,1,14,3,1,0,1,50,1,0,0,0,0,0,3,3,0,0,0,0,0,0,0,0
0,1,1,1,0,0,5,5,49,26,7,17,0,24,49,3,0,5,0,0,0,10,0,2,0,0,0,0,0,0,2,0,5,0,0,0,1,5,0,6,50,9,17,10,2,50,10,0,5,0,0,0,8,0,5,0,0,0,0,0,0,0,0,0
1,0,0,0,1,5,0,49,9,12,11,13,3,49,0,0,10,0,0,0,0,1,0,0,0,0,0,0,0,0,0,0,1,7,0,0,3,3,3,4,9,10,15,41,6,1,14,7,50,0,0,0,0,11,0,0,0,0,0,0,0,0,0,0
0,3,0,0,0,1,3,49,9,18,17,12,13,12,49,2,0,0,0,0,0,4,6,0,5,0,0,0,0,0,0,0,4,4,2,0,0,8,4,5,6,9,13,6,12,10,0,11,2,9,0,0,0,0,5,0,1,0,0,0,0,0,0,0
1,0,0,0,0,3,7,0,5,6,13,18,4,16,50,0,7,11,0,0,0,0,0,0,0,0,0,0,0,0,0,0,0,1,0,4,4,0,0,5,5,50,3,10,8,8,0,0,0,7,0,0,0,0,3,0,7,0,0,0,0,0,0,0
1,0,0,0,0,4,0,50,5,11,19,4,12,16,3,0,7,0,0,0,0,0,0,0,0,0,0,0,0,0,0,1,0,0,7,0,0,1,5,50,10,6,4,9,12,50,7,1,3,0,0,0,0,0,0,0,0,0,0,0,0,0,0,0
0,0,2,0,0,5,0,8,10,6,49,10,21,8,0,14,10,0,12,0,0,0,0,5,0,0,0,0,0,0,0,3,0,0,0,7,0,1,4,0,5,4,49,13,15,6,3,1,0,2,0,0,2,0,0,0,0,0,0,0,0,0,0,0
1,0,0,0,0,2,8,49,17,5,14,17,3,3,30,0,0,2,14,0,0,0,0,7,10,0,0,0,0,0,0,3,0,0,0,0,0,10,50,0,16,6,5,12,8,1,13,8,0,0,5,11,0,0,0,17,0,0,0,0,0,0,0,0
0,1,0,0,0,7,0,9,10,15,50,14,22,20,12,0,1,10,0,0,0,0,0,0,0,0,0,0,0,0,0,0,0,1,0,0,3,0,4,9,3,1,8,50,8,1,2,0,4,3,0,0,0,0,0,0,0,0,0,0,0,0,1,0
0,0,1,0,0,12,1,3,3,7,17,27,4,49,5,20,30,0,0,0,0,0,1,12,0,0,0,0,0,0,0,0,0,5,1,1,0,19,10,50,3,10,3,50,12,9,2,6,7,0,0,0,0,2,0,0,0,0,0,0,0,0,0,0
2,1,0,2,0,3,5,20,7,11,7,23,34,8,28,48,0,0,0,0,0,0,0,2,0,0,0,0,0,0,1,3,1,0,1,0,50,0,3,6,50,1,10,50,14,8,0,25,0,0,0,0,0,0,1,0,0,0,0,0,0,0,0,1
0,0,0,3,0,3,3,6,3,49,0,21,21,7,17,10,0,1,0,2,0,0,1,0,0,0,0,0,0,0,0,0,0,0,2,1,0,0,6,9,10,16,12,50,2,8,1,10,1,0,0,0,0,0,0,3,0,0,0,0,0,0,0,1
2,1,5,0,0,0,10,4,49,0,15,28,10,6,0,14,0,20,5,2,0,0,0,0,0,0,0,0,0,0,0,0,0,0,1,0,2,4,7,9,8,7,8,13,0,49,6,49,1,0,1,0,0,0,0,0,0,0,0,0,0,0,0,0
2,1,1,0,0,0,9,7,14,25,16,13,2,49,16,12,0,0,0,0,0,0,5,14,0,0,0,0,0,0,2,0,1,3,4,3,0,1,7,5,41,3,2,5,3,3,10,0,0,0,0,0,0,0,50,0,0,0,0,0,0,0,0,0
0,2,0,0,2,3,49,11,12,49,10,8,27,49,1,13,22,0,0,0,0,0,0,0,0,0,0,0,0,0,0,0,0,0,0,0,1,0,15,2,3,50,9,0,12,9,3,18,6,0,0,0,0,0,49,5,0,0,0,0,0,0,0,0
1,0,2,0,0,0,7,5,20,12,49,21,25,6,18,0,0,0,0,0,1,0,0,0,0,0,0,0,0,0,0,0,0,0,0,1,0,3,50,1,5,10,12,49,7,9,9,0,0,0,50,0,0,1,0,0,0,0,0,0,0,0,0,0
0,0,0,1,0,7,3,7,49,8,3,49,31,18,12,0,1,25,0,21,0,1,11,0,0,0,0,0,0,0,0,2,0,1,0,0,4,2,3,1,16,7,50,7,10,11,4,18,0,4,49,0,1,0,0,7,2,0,0,0,0,0,0,0
0,1,0,1,1,2,2,0,14,10,50,17,18,7,3,17,21,0,8,0,4,48,0,0,0,0,0,0,0,0,0,0,0,5,0,1,1,5,10,50,6,7,50,16,14,49,5,5,1,10,0,16,0,0,0,5,0,0,0,0,0,0,0,0
1,0,8,0,49,0,9,9,50,49,29,23,14,0,9,15,0,0,0,0,0,0,0,0,0,0,0,0,0,0,0,0,1,3,4,1,2,2,4,6,50,8,50,12,14,1,8,5,0,4,0,0,0,0,0,0,0,0,0,0,0,0,1,0
1,0,0,0,0,4,8,2,19,50,22,21,49,11,10,0,18,0,0,15,0,0,0,4,0,0,0,0,0,0,0,0,2,7,0,0,0,16,1,0,4,5,49,49,16,3,8,5,4,0,0,49,0,5,1,0,0,0,0,0,0,0,25,0
1,1,0,0,4,8,10,0,11,49,7,16,26,6,14,16,3,5,0,0,0,0,16,0,0,0,0,0,0,0,0,0,0,1,3,2,0,1,5,3,50,5,4,50,16,1,5,7,0,0,2,0,0,49,0,0,0,0,0,0,0,0,0,1
0,1,0,0,0,4,9,14,49,49,21,14,17,15,49,21,14,0,0,0,0,0,2,0,0,0,0,0,0,0,0,0,0,1,0,1,2,0,7,5,17,5,4,13,14,50,8,26,3,49,0,1,1,0,5,1,0,0,0,0,0,0,0,0
0,1,6,0,4,1,6,49,7,14,21,21,1,17,0,0,0,0,0,0,0,0,0,10,0,0,0,0,0,0,0,0,0,1,4,0,0,0,7,3,50,16,3,14,8,16,7,5,0,1,0,0,0,0,0,0,0,0,0,0,0,0,0,0
0,0,3,0,0,3,5,6,28,49,10,1,16,16,49,12,0,0,0,0,0,0,1,1,0,0,0,0,0,0,0,0,1,2,0,2,2,8,2,3,11,9,49,1,4,50,4,3,2,0,0,0,0,2,4,0,0,0,0,0,0,0,0,0
0,0,0,0,1,1,49,0,15,8,10,4,18,50,2,21,0,0,0,0,0,0,1,18,0,0,0,0,0,0,0,0,3,0,0,3,0,1,6,0,50,3,50,13,0,7,3,11,0,10,0,0,0,0,1,0,0,0,0,0,0,0,0,0
0,0,0,0,0,7,9,11,50,18,12,19,49,3,0,0,0,1,0,8,0,0,1,6,0,0,0,0,0,0,0,0,0,0,0,0,4,4,16,5,18,11,2,49,10,3,0,2,14,0,2,0,0,0,0,50,0,0,0,0,0,0,0,0
0,0,0,2,0,5,5,8,50,9,20,19,12,49,3,2,1,0,0,0,0,0,0,0,0,0,0,0,0,0,0,0,5,0,3,0,7,4,3,0,50,3,0,12,13,50,9,4,3,1,0,0,0,0,0,4,0,2,0,0,0,0,0,0
0,0,2,1,3,1,0,0,14,49,34,3,19,0,49,30,4,0,0,0,0,0,0,0,0,0,0,0,0,0,0,0,0,2,0,0,0,0,9,50,1,10,50,14,7,13,3,4,0,2,0,0,5,0,49,0,0,0,0,0,0,0,0,0
0,0,0,0,3,7,49,3,27,19,8,35,49,2,0,19,0,0,0,0,0,0,0,0,0,0,0,0,0,0,2,0,1,2,0,0,1,0,5,1,50,4,4,5,2,49,4,9,1,4,0,1,0,0,0,0,0,0,0,0,0,0,0,0
7,1,0,0,3,3,1,3,49,30,16,20,9,13,1,0,21,0,11,0,0,0,0,0,0,0,0,0,0,0,0,0,3,2,0,0,0,3,50,2,3,50,12,7,50,11,1,3,0,8,2,0,7,0,2,2,0,0,0,0,0,0,0,0
1,0,0,1,0,5,3,49,11,1,21,49,12,22,17,0,4,0,0,8,0,0,0,0,0,0,0,0,0,0,0,0,0,0,0,0,0,0,1,50,2,12,1,3,50,12,0,14,0,0,0,0,0,0,0,0,8,0,0,0,0,0,0,0
3,0,0,2,1,3,1,3,3,4,31,50,9,49,16,0,0,0,0,0,0,48,0,0,0,7,0,0,0,0,0,0,1,1,1,4,1,0,2,5,17,50,13,49,3,11,0,2,4,2,49,0,0,0,5,0,0,0,0,0,0,0,0,0
0,0,1,2,0,4,6,11,8,49,18,4,3,10,9,4,18,0,0,0,0,17,7,0,0,0,0,0,0,1,0,0,0,1,1,0,3,0,11,5,49,50,9,10,14,0,0,12,0,1,0,0,0,13,0,0,0,0,0,0,0,0,0,0
0,0,0,0,1,0,1,2,50,49,9,13,14,3,14,50,9,0,23,10,0,0,0,0,0,0,0,0,0,0,0,0,2,1,3,2,0,3,49,0,8,0,50,6,7,4,5,5,0,0,0,0,11,0,0,0,0,0,0,0,0,0,0,0
0,0,1,0,0,0,1,8,11,22,49,15,16,4,0,12,0,14,0,0,0,0,3,0,0,0,0,0,0,0,0,0,0,0,0,0,0,0,0,15,4,50,13,14,49,12,10,13,0,0,0,3,0,7,0,0,0,0,0,0,0,0,0,0
