0,0,0,0,0,0,0,0,255,27,45,18,81,255,99,45,45,9,0,0,0,0,0,117,27,0,0,0,0,0,0,0,0,0,0,0,0,9,0,0,72,36,255,18,27,255,117,0,63,0,0,0,0,0,9,36,0,36,0,0,0,0,0,0
0,0,0,0,0,0,255,63,9,72,27,255,255,255,36,18,0,27,0,0,0,0,18,0,0,0,0,0,0,0,0,0,0,0,0,0,0,0,0,0,9,255,99,27,63,126,27,9,0,0,54,0,0,0,0,0,0,0,0,0,0,0,0,0
0,0,0,0,0,0,255,0,9,255,9,45,144,54,63,0,45,144,0,0,0,0,0,0,0,0,0,0,0,0,0,0,0,0,0,0,9,0,0,255,0,0,9,18,9,54,255,9,18,9,0,9,0,0,36,0,0,0,0,0,0,0,0,0
0,0,0,0,0,0,0,0,144,255,0,72,36,45,27,0,255,9,45,0,0,0,0,0,0,36,0,0,0,0,0,0,0,0,0,0,0,54,255,18,0,0,9,0,198,0,27,0,0,9,9,0,0,0,0,27,0,0,0,0,0,0,0,0
0,0,0,0,0,0,0,0,255,0,9,72,36,36,72,45,54,36,0,36,0,255,0,9,0,0,0,0,0,0,0,0,0,0,0,0,9,0,9,18,255,9,117,255,9,255,0,81,9,36,0,18,0,108,0,0,255,18,0,0,0,0,0,0
0,255,0,0,0,0,0,0,255,255,18,255,108,18,72,18,9,0,9,0,0,45,0,0,72,0,0,0,0,0,0,0,0,0,0,0,0,0,27,9,0,255,45,36,45,18,36,0,18,27,255,0,0,0,0,0,0,0,0,0,0,0,0,0
0,0,0,0,0,0,0,81,18,9,63,9,255,27,18,45,27,45,0,0,0,0,0,9,0,0,0,0,0,0,0,0,0,0,0,0,0,0,0,72,0,18,255,0,90,99,255,18,45,144,0,0,18,0,0,0,255,255,0,0,0,0,0,0
0,0,0,0,0,0,0,81,0,90,18,126,255,18,81,9,9,45,255,0,9,0,99,0,0,0,0,0,0,0,0,0,0,0,0,0,0,9,0,9,0,255,255,63,81,255,117,0,45,18,0,0,0,0,0,0,0,0,0,0,0,0,0,0
0,0,0,0,0,0,0,0,36,81,45,255,45,72,45,0,27,198,108,54,0,0,0,0,0,0,0,0,0,0,0,0,0,0,0,0,9,0,0,0,9,63,255,0,45,255,27,63,27,0,27,0,0,0,0,0,0,0,0,0,0,0,0,255
0,0,0,0,0,9,0,0,255,27,27,81,72,0,27,108,0,72,0,0,27,0,0,0,0,0,0,0,0,0,0,0,0,0,0,0,0,0,0,255,0,0,9,255,9,9,9,108,0,18,72,9,0,255,0,0,0,0,0,0,0,0,0,0
0,0,0,0,0,0,0,0,27,255,27,63,72,72,18,63,255,117,18,0,0,0,0,0,0,0,0,0,0,0,0,0,255,0,255,0,0,0,0,0,255,9,27,9,90,90,255,45,45,0,0,9,0,9,0,9,0,0,0,0,0,0,0,0
0,0,0,0,255,0,0,9,0,9,255,36,9,9,27,99,0,0,153,63,9,9,9,9,0,0,0,0,0,0,0,0,0,0,0,0,0,9,27,63,0,255,27,27,27,45,108,0,0,255,0,0,0,0,0,0,36,0,0,0,0,0,0,0
0,0,0,0,0,0,99,0,0,9,255,54,18,72,27,0,255,81,0,9,0,0,0,0,0,0,0,0,0,0,0,0,0,0,0,0,0,0,0,0,36,27,255,63,45,9,255,9,0,0,0,0,0,0,0,0,0,0,0,0,0,0,0,0
0,0,0,0,0,0,0,0,0,0,255,27,54,9,0,0,81,9,0,0,0,9,0,0,0,9,0,0,0,0,0,0,0,0,0,0,0,0,9,0,0,255,0,18,18,255,9,9,0,9,0,0,0,0,0,0,0,0,0,0,0,0,0,0
0,0,0,0,0,0,0,0,18,255,45,18,45,45,90,255,18,0,90,9,0,0,0,0,0,0,9,0,0,0,0,0,0,0,0,0,0,0,0,18,0,9,255,27,9,81,255,36,117,9,0,18,0,0,0,0,9,0,0,0,0,0,0,0
0,0,0,0,0,255,0,0,0,0,18,255,63,36,90,18,27,0,0,63,0,0,0,45,0,0,0,0,0,0,0,0,0,0,0,0,0,9,0,0,36,72,255,0,9,234,0,18,9,0,0,0,0,0,0,0,0,0,0,0,0,0,0,0
0,0,0,0,0,0,0,0,0,18,255,0,45,18,126,99,162,0,0,0,18,36,0,0,0,0,0,0,0,0,0,0,0,0,0,0,0,0,0,9,0,255,255,45,81,9,0,27,0,9,0,0,0,9,0,0,0,9,0,0,0,0,0,0
0,0,0,0,0,0,0,255,9,72,45,63,255,90,27,0,72,0,0,0,0,18,0,255,0,0,255,0,0,0,0,0,0,0,0,255,9,0,0,255,0,0,27,36,255,0,27,9,27,9,9,0,255,0,0,0,9,0,0,0,0,0,0,0
0,0,0,0,0,0,0,0,0,9,255,72,36,27,36,63,255,0,0,0,144,0,0,0,0,0,0,0,0,0,0,0,0,0,0,0,0,9,0,255,18,9,18,255,9,9,255,0,54,0,0,0,0,9,0,0,0,0,0,0,0,0,0,0
0,0,0,0,0,0,255,0,9,27,36,9,45,108,36,255,36,63,9,0,27,45,0,0,0,0,0,0,27,0,0,0,0,0,0,0,0,0,0,9,0,9,255,9,153,36,27,0,255,0,0,0,0,0,0,0,0,0,0,0,0,0,0,0
0,0,0,0,0,0,0,0,9,255,63,27,63,36,36,36,0,54,0,255,0,0,9,9,0,0,0,0,0,0,0,0,0,0,0,0,0,9,0,0,9,255,36,255,0,9,9,18,9,36,9,0,9,0,0,0,0,0,0,0,0,0,0,0
0,0,0,0,0,0,0,0,0,54,18,45,36,255,45,18,0,18,45,0,0,99,0,0,0,0,0,0,0,0,0,0,0,0,0,0,0,0,0,9,9,27,255,255,18,90,18,45,255,0,0,0,0,0,45,0,0,0,0,0,0,0,0,0
0,0,0,255,0,0,0,0,9,27,255,255,81,9,255,54,0,27,0,0,0,0,45,0,0,9,0,0,0,0,0,0,0,0,0,0,0,0,255,18,0,9,18,36,0,255,27,0,18,0,0,0,0,0,9,0,0,0,0,0,0,0,0,0
255,0,0,0,0,0,0,0,0,255,255,255,255,18,255,9,72,0,0,108,0,189,18,0,0,0,0,0,0,0,0,0,0,0,0,0,0,0,9,255,0,9,255,54,36,9,0,255,27,0,0,0,0,0,0,0,0,0,0,0,0,0,0,0
45,255,0,0,0,0,0,0,0,36,9,54,36,255,108,27,0,99,18,0,0,0,0,255,0,0,0,0,0,0,0,0,0,0,0,0,0,0,255,0,9,255,0,27,0,255,9,0,18,36,18,0,0,0,0,0,0,0,0,0,0,0,0,0
255,0,0,0,0,0,0,0,54,255,9,9,81,90,255,27,9,0,0,0,0,0,0,0,27,0,0,0,0,0,0,0,0,0,0,0,0,0,0,255,9,0,9,36,0,255,255,27,0,0,0,0,27,0,9,0,0,9,0,0,0,0,0,0
0,0,0,0,0,0,0,27,9,54,72,63,255,54,63,36,18,9,0,9,0,0,9,0,0,0,9,0,0,0,0,0,0,0,0,0,0,0,18,9,255,27,9,45,63,0,9,18,9,0,0,90,255,0,0,0,0,0,0,0,0,0,0,0
0,0,0,0,0,0,0,255,255,36,255,36,72,63,99,36,0,9,0,9,0,0,0,0,0,0,0,0,0,0,0,0,0,0,0,18,0,0,255,0,27,9,0,45,255,255,0,9,27,0,0,0,0,9,0,0,0,0,9,0,0,0,0,0
0,0,0,0,0,0,0,0,255,36,54,45,99,153,255,63,63,0,0,18,0,0,0,0,0,18,0,0,0,0,0,0,0,0,18,0,0,0,255,18,27,36,54,0,255,45,108,0,0,36,0,0,0,27,0,0,0,0,0,0,0,0,0,0
0,0,0,0,0,0,0,0,36,255,27,45,45,117,54,45,90,0,9,36,0,0,0,9,0,0,0,0,0,0,0,0,0,0,0,0,9,0,0,9,27,9,99,45,27,27,27,0,0,0,9,18,0,0,255,0,0,0,255,0,0,0,0,0
0,0,0,0,0,255,9,0,36,54,81,255,126,9,0,18,9,9,45,0,36,0,0,255,0,0,0,0,0,0,0,255,0,0,9,0,0,0,27,0,9,255,9,255,0,18,36,18,0,0,0,9,0,0,0,0,0,0,0,0,0,0,0,0
0,0,0,0,0,0,0,0,63,36,255,108,54,72,18,255,27,72,90,27,0,18,0,18,0,0,0,0,0,0,0,0,0,0,0,0,9,0,0,255,18,0,255,9,99,255,36,0,126,0,0,0,0,0,0,0,0,0,0,0,0,0,0,0
0,0,18,0,0,0,0,0,255,54,255,0,36,45,108,72,0,90,0,0,0,18,0,0,0,0,0,0,0,0,0,0,0,0,0,0,0,0,18,255,9,27,0,72,255,54,9,9,0,36,0,0,0,0,0,0,0,0,0,0,0,0,0,0
0,0,0,0,0,0,0,0,0,255,0,27,90,81,162,0,36,0,0,0,0,0,0,18,0,0,0,0,0,0,0,0,0,0,0,9,0,9,0,0,0,255,27,0,72,255,0,0,0,99,0,45,0,0,0,255,54,0,0,0,0,0,252,0
0,0,0,0,0,0,0,255,0,18,255,108,255,45,27,90,27,0,45,0,0,0,0,27,0,0,63,0,0,0,0,0,0,0,0,0,255,0,0,27,90,54,54,90,255,27,18,9,18,255,0,0,0,0,9,0,0,0,0,0,0,0,0,0
0,0,0,0,0,0,27,18,0,255,90,255,36,90,255,0,45,45,0,36,45,0,54,0,0,0,0,0,0,0,0,0,0,0,0,0,0,27,0,255,0,0,9,255,45,9,18,45,27,36,0,0,0,0,0,0,27,0,0,0,0,0,0,0
0,0,0,255,0,0,0,255,0,255,54,255,9,72,45,63,0,45,0,0,45,9,0,27,0,0,0,0,0,0,0,0,0,9,0,0,0,0,0,255,63,255,63,9,45,45,18,255,99,90,0,0,0,0,0,0,0,0,0,0,0,0,255,0
0,0,0,0,0,0,0,0,45,27,36,27,255,255,9,126,72,0,0,0,0,0,0,72,0,0,0,0,0,0,0,0,0,0,0,0,0,0,255,0,255,0,45,18,0,0,255,27,9,0,0,0,0,0,0,45,0,9,0,0,0,0,0,0
0,0,0,0,0,0,0,9,27,255,36,255,180,18,255,0,144,108,27,0,0,0,0,36,0,0,0,0,0,0,0,0,0,0,0,0,9,0,0,9,255,18,72,18,255,81,36,0,0,9,0,0,0,0,0,0,0,0,0,0,0,0,0,0
0,0,0,0,0,0,0,27,255,255,0,255,126,255,45,0,90,108,27,36,0,45,0,0,0,0,0,0,0,0,0,0,0,0,0,0,0,0,81,0,255,0,9,9,72,255,9,207,63,45,0,18,72,27,0,0,0,0,0,0,0,0,0,0
0,0,0,0,0,0,255,0,27,18,255,45,72,72,99,0,207,27,0,9,0,0,0,0,9,0,27,0,0,0,0,0,0,0,9,0,0,0,9,0,255,0,0,126,255,72,9,63,9,0,18,0,255,0,0,0,0,0,0,0,0,0,0,0
0,0,0,0,0,0,0,255,45,9,9,45,255,255,0,54,72,0,0,9,0,0,9,0,0,0,0,0,0,0,0,0,0,0,0,0,0,72,9,9,255,0,255,18,9,9,255,0,0,153,45,0,0,0,0,27,0,0,0,0,0,0,0,0
0,0,0,0,18,0,0,255,18,255,255,36,255,9,54,81,255,45,0,0,36,9,0,0,0,0,0,0,0,0,0,0,0,0,9,0,0,0,0,9,255,27,9,9,255,9,90,0,0,0,0,0,0,0,45,9,0,9,0,0,0,0,0,0
0,0,0,0,0,0,0,0,255,36,36,27,255,162,63,63,54,144,54,0,0,0,0,0,0,0,0,0,0,0,0,0,9,0,0,0,0,0,0,0,9,27,255,54,255,0,36,9,27,108,0,0,0,0,9,0,0,0,0,0,0,0,0,0
0,0,0,0,0,0,0,0,9,255,255,255,252,45,0,63,9,45,27,45,0,0,0,0,0,63,0,0,0,0,0,0,0,0,0,0,0,255,0,27,9,36,255,54,63,54,27,0,0,0,0,0,0,255,0,9,0,0,0,0,0,0,0,0
0,0,0,0,18,0,0,9,0,27,255,255,63,72,255,45,18,63,27,0,0,0,0,27,0,0,0,0,0,0,0,0,0,9,0,0,0,0,9,18,255,0,90,36,255,9,0,27,9,9,0,0,0,0,0,9,0,0,0,0,0,0,0,0
0,0,0,0,0,0,0,0,9,45,54,255,153,45,27,45,255,9,0,0,0,27,0,0,0,0,0,0,0,0,0,0,0,0,0,0,0,9,0,45,255,0,27,27,255,45,9,144,18,9,18,0,0,9,0,0,0,0,0,0,0,0,0,0
0,0,0,0,0,0,0,0,0,72,255,45,9,255,54,27,255,0,0,9,0,0,0,0,0,0,0,0,0,0,0,0,0,0,0,0,9,0,9,9,255,9,9,54,255,72,255,0,18,0,0,0,0,9,0,0,0,0,0,0,0,0,0,0
0,0,0,0,0,0,0,9,9,255,255,63,0,27,108,81,45,99,0,9,0,0,0,27,18,0,0,0,0,0,0,0,0,0,0,0,0,9,0,45,255,0,9,27,255,54,18,36,0,0,90,0,255,0,9,0,0,0,0,0,0,0,0,27
0,0,0,0,0,255,36,0,0,72,255,255,54,36,63,72,63,255,0,0,0,90,81,45,0,0,0,0,0,0,0,0,0,9,0,9,9,0,0,255,255,9,0,9,54,0,45,0,54,27,0,0,255,0,9,0,27,0,0,0,0,0,0,0
