0,0,0,0,1,1,0,49,0,5,6,49,8,4,0,11,5,0,0,0,0,1,0,9,0,0,0,0,0,0,0,0,0,0,0,1,0,0,1,2,3,50,2,1,3,7,1,4,25,49,0,0,1,0,0,0,0,0,0,0,0,0,0,0
0,0,1,0,1,49,5,6,10,1,7,6,14,50,0,1,9,0,0,0,0,0,0,8,0,0,0,0,0,1,0,0,0,0,0,2,0,0,0,50,5,50,0,3,8,6,1,0,4,0,49,1,0,0,10,3,0,0,0,0,0,0,0,0
0,0,0,0,1,0,0,0,0,3,3,6,13,42,7,5,14,3,0,5,0,0,0,0,4,0,0,0,0,0,0,0,0,0,1,2,0,1,1,0,3,50,5,9,5,49,3,1,1,3,0,0,0,1,0,1,0,0,0,0,0,0,0,0
0,0,0,0,0,0,0,0,2,49,4,0,10,15,7,49,0,6,0,0,0,1,0,0,0,0,0,0,0,0,0,0,0,1,0,0,0,1,5,1,2,4,9,6,50,8,3,49,3,0,0,2,0,0,0,2,0,0,0,0,0,0,0,0
0,0,0,0,0,0,49,7,8,3,11,9,6,4,13,6,0,3,0,7,0,0,0,0,0,0,0,0,0,0,0,0,0,0,0,0,0,0,3,1,1,5,3,50,4,8,1,49,49,2,0,0,0,0,0,1,0,0,0,1,0,0,0,0
0,0,0,0,0,1,0,7,49,49,4,6,14,21,3,49,0,0,1,0,0,0,7,1,0,0,0,0,0,0,0,0,0,0,0,0,0,0,1,4,50,50,3,1,14,0,50,3,0,0,0,0,0,1,1,0,0,0,0,0,0,0,0,0
0,0,0,0,0,0,0,0,1,50,41,5,13,3,5,0,5,0,5,14,1,0,3,0,0,0,0,0,0,0,0,0,0,0,0,0,0,1,0,3,3,2,50,1,4,49,0,0,1,49,0,0,13,0,1,0,0,0,0,0,0,0,0,0
1,0,0,0,0,0,1,0,3,49,32,9,8,18,49,5,0,5,1,0,0,0,0,0,0,0,0,0,0,0,0,0,0,0,0,1,1,1,0,0,0,50,3,1,4,9,3,4,0,2,10,0,0,50,0,0,7,0,0,0,0,0,0,0
0,0,0,0,0,0,2,8,49,45,46,49,1,12,11,3,0,0,0,0,0,12,0,0,8,0,0,0,0,0,0,0,1,0,0,0,1,50,50,3,1,49,12,49,2,3,1,1,0,1,5,0,4,3,1,9,49,0,0,0,0,0,0,0
0,0,0,0,0,49,1,49,1,13,5,49,10,20,7,0,0,0,10,5,0,18,0,0,0,0,0,0,0,0,0,2,0,0,0,0,0,0,0,50,0,7,8,0,0,0,5,3,50,2,1,0,0,0,0,0,0,0,0,0,0,0,0,0
0,0,0,0,0,0,2,0,50,2,5,12,49,13,11,5,9,8,1,0,3,0,0,0,12,0,0,0,0,0,0,1,0,0,0,0,0,49,0,0,0,0,49,4,6,49,7,5,6,0,1,0,0,0,0,0,0,0,0,0,0,0,0,0
0,0,0,0,0,0,0,0,3,5,2,10,8,5,49,3,0,8,0,0,0,4,0,0,0,0,0,0,0,0,0,0,0,0,2,1,0,0,0,5,3,50,50,2,15,3,42,7,2,0,1,0,0,0,3,0,1,49,0,0,0,0,0,0
0,0,0,49,0,0,1,0,0,4,49,49,9,9,14,0,6,0,9,0,0,0,0,5,0,0,0,0,0,0,0,0,0,0,0,1,0,0,0,0,1,2,50,1,2,8,8,50,0,0,0,0,0,2,0,0,0,0,0,0,0,0,0,0
0,0,0,0,0,0,0,5,1,49,8,44,49,6,0,7,4,14,0,0,4,0,0,0,0,0,0,0,0,0,0,0,1,0,0,0,0,0,50,5,1,5,5,10,50,0,3,19,0,1,0,1,0,49,0,9,0,0,0,0,1,0,0,0
0,0,0,0,0,49,0,0,49,3,7,8,4,6,12,50,19,0,0,2,0,0,0,1,0,0,0,0,0,0,0,0,0,0,0,0,0,50,0,49,4,2,5,49,49,7,5,2,4,0,1,2,0,0,1,49,0,0,0,10,0,0,0,0
0,0,0,49,0,0,0,1,50,0,0,1,8,12,3,8,49,1,0,0,0,0,2,0,0,0,0,0,0,0,0,0,0,0,0,0,0,1,0,49,1,0,8,0,50,7,10,3,3,0,2,0,0,50,0,7,3,0,0,0,0,0,0,0
0,0,0,49,0,0,0,0,10,2,5,50,48,13,7,15,3,49,0,0,0,0,5,0,1,0,0,0,0,0,0,0,0,0,0,0,0,0,0,50,3,0,3,49,11,8,9,0,49,0,1,0,0,0,0,0,0,0,0,0,0,0,0,0
0,0,0,0,0,0,2,49,1,3,49,10,7,7,49,2,3,0,0,0,5,16,0,0,0,0,0,0,0,0,0,0,0,0,0,0,0,0,50,0,0,3,1,3,50,41,49,0,0,1,0,0,1,0,0,0,0,0,0,0,0,0,0,0
0,0,0,1,1,0,0,49,3,6,7,49,5,7,7,1,11,0,0,0,0,0,0,0,0,0,0,0,0,0,0,0,0,0,0,0,0,0,2,3,42,50,50,8,20,0,4,1,1,0,0,0,0,0,0,0,0,0,0,0,0,0,0,0
0,0,0,0,0,0,0,0,1,3,7,50,10,12,15,49,0,0,0,3,0,0,1,8,6,0,0,0,0,0,0,0,0,2,0,0,0,0,5,0,2,49,5,4,37,3,0,1,1,1,0,0,0,0,1,0,1,0,0,0,0,0,0,0
0,0,0,0,0,0,1,0,49,5,12,7,7,7,49,1,48,0,7,0,0,0,0,0,0,0,0,0,0,0,0,0,0,0,0,0,0,0,0,49,50,7,1,7,49,0,10,3,1,2,0,0,1,49,0,0,3,0,0,0,0,0,0,0
0,0,0,0,0,0,0,0,49,0,4,10,5,49,5,7,8,5,0,0,5,0,0,7,4,0,0,0,0,0,0,0,0,0,0,0,0,0,0,0,2,3,3,50,1,10,7,50,5,1,0,0,0,0,0,0,0,0,0,0,0,0,0,0
0,0,0,1,0,0,1,1,49,50,10,3,9,7,0,8,0,0,0,0,7,1,0,0,4,0,0,0,0,0,0,0,0,0,0,0,1,0,0,0,49,50,49,18,50,10,2,1,49,10,1,0,0,0,0,0,0,0,0,0,0,0,0,0
0,0,0,0,0,1,0,49,0,8,14,7,49,12,3,3,0,0,1,0,0,0,0,0,0,0,2,0,0,0,0,0,0,0,0,0,1,1,0,1,49,50,10,9,1,49,3,1,0,0,1,1,0,0,0,0,0,0,0,0,0,0,0,0
0,0,49,0,0,0,0,1,49,7,15,6,10,13,8,1,0,2,49,0,0,0,7,4,0,0,2,0,0,0,0,0,0,0,0,0,50,0,0,4,0,3,50,2,50,18,1,1,0,0,0,6,0,0,0,0,0,0,0,0,0,0,0,0
0,0,11,0,0,0,1,2,50,8,7,6,49,16,0,0,5,0,0,0,1,0,19,4,0,0,0,0,0,0,0,0,0,0,1,1,0,0,1,3,2,11,49,7,2,50,3,1,0,0,0,6,0,0,0,0,0,0,0,0,0,0,0,0
0,0,0,0,0,0,0,0,6,1,49,8,10,3,12,49,2,0,0,3,3,12,0,6,0,0,0,0,0,0,0,0,0,0,0,0,0,0,0,4,2,9,4,50,2,4,50,4,4,3,0,0,1,1,1,0,0,0,0,0,0,0,0,0
0,0,0,0,0,1,0,0,0,49,6,4,10,49,47,11,0,12,0,0,0,1,0,0,0,0,0,0,0,0,0,0,0,0,0,0,0,0,0,49,1,50,1,7,8,49,50,8,3,0,12,0,0,0,0,1,0,1,0,0,0,0,0,0
0,0,0,0,0,0,0,3,50,4,8,49,48,19,0,8,0,0,0,3,0,0,0,0,0,0,0,0,0,0,0,0,0,0,0,0,0,0,1,1,1,50,2,17,2,0,1,3,15,0,1,50,0,0,0,3,0,0,0,0,0,0,0,0
0,0,0,0,0,0,0,0,5,49,49,49,8,3,17,0,1,0,3,0,1,5,8,0,0,0,0,0,0,0,0,0,0,0,0,0,0,1,0,50,2,3,49,8,10,49,6,3,1,7,0,1,0,0,0,0,0,0,0,0,0,0,0,0
0,0,0,0,49,0,0,2,12,7,2,50,42,48,39,0,6,0,0,0,3,15,0,0,0,0,0,0,0,0,0,0,0,50,1,0,1,0,30,2,50,3,6,17,49,6,1,7,0,0,3,0,0,1,0,3,0,0,0,0,0,0,0,0
0,0,0,0,0,0,0,49,49,49,4,14,49,7,8,8,5,3,0,0,0,0,0,0,0,0,0,0,0,0,0,0,0,0,0,50,0,0,0,0,1,50,50,14,4,3,0,1,0,2,1,1,0,0,0,0,0,5,0,0,0,0,0,0
0,0,0,0,0,0,0,50,0,5,38,12,6,49,6,12,13,12,14,0,8,0,0,0,0,0,0,0,0,0,0,0,0,0,0,0,0,1,0,50,0,3,45,49,6,3,2,10,1,0,9,0,0,0,0,0,0,0,0,0,0,0,0,0
0,0,0,0,0,0,1,1,4,49,10,8,13,12,7,4,3,0,0,0,0,0,0,0,0,0,0,0,0,0,0,0,0,0,1,0,0,0,0,1,2,2,50,49,8,9,2,1,50,0,0,0,0,0,2,0,0,1,0,0,0,0,0,0
0,0,0,0,0,2,0,0,49,8,49,50,48,23,48,42,19,0,40,0,2,5,0,0,0,0,0,0,0,0,0,0,0,0,0,0,23,0,49,17,1,2,50,8,5,46,14,2,49,5,2,0,0,0,0,0,0,0,49,0,0,0,0,0
0,0,0,0,0,0,47,49,0,49,8,12,11,3,49,5,5,2,0,0,5,0,0,0,0,0,0,0,0,0,0,0,0,50,0,0,0,50,0,0,1,50,4,3,49,21,12,50,6,1,0,0,0,0,1,0,0,0,0,0,0,0,0,0
0,0,0,0,0,49,0,50,0,49,48,46,13,3,5,0,49,1,0,0,0,0,12,0,0,0,0,0,0,0,0,0,0,0,0,0,0,0,0,0,4,50,5,50,6,2,16,0,0,0,1,0,0,4,49,1,0,0,0,0,0,0,0,0
0,0,0,0,0,0,8,49,0,4,6,4,5,13,50,37,37,0,1,3,0,1,0,0,0,0,0,0,0,0,0,0,0,0,0,0,0,49,0,0,2,50,0,9,8,5,1,50,1,0,0,0,0,0,0,0,0,0,0,0,0,0,0,0
0,1,0,0,0,0,49,4,48,49,46,5,2,8,7,5,49,0,0,2,0,1,10,0,0,0,0,0,0,0,0,0,0,0,0,0,50,3,1,4,4,1,49,50,10,3,5,0,50,0,0,0,0,0,3,0,0,0,0,0,0,0,0,0
0,0,0,0,0,0,0,2,49,46,49,42,14,4,15,3,0,0,0,6,0,0,0,3,0,0,1,0,0,0,0,0,0,0,0,0,2,0,0,1,50,1,50,2,5,50,7,0,4,0,1,0,0,0,0,0,0,49,0,0,0,0,0,0
49,0,0,0,0,2,1,0,3,49,7,12,16,8,49,1,2,6,0,0,0,0,0,0,0,0,0,0,0,0,0,0,0,0,50,0,0,0,0,2,7,4,50,1,1,0,0,2,0,0,2,0,0,0,5,0,0,0,0,0,0,0,0,0
0,0,0,0,0,0,0,49,3,5,49,10,14,13,12,7,0,0,0,2,0,0,0,0,0,0,0,0,0,0,0,0,0,0,0,1,0,0,3,0,50,3,1,4,50,2,6,0,0,12,49,2,1,0,0,0,0,0,0,0,0,0,0,0
0,0,49,0,1,0,1,1,1,49,12,4,8,48,15,5,0,0,0,49,0,0,3,0,0,0,0,0,0,0,0,0,2,2,0,2,0,0,0,50,4,4,3,12,13,4,50,4,49,0,0,0,0,0,0,0,0,0,0,0,0,0,0,0
13,49,0,0,0,0,0,0,1,9,10,3,17,4,10,0,12,3,0,0,8,49,0,48,0,0,0,0,0,0,0,0,49,0,2,0,0,0,1,49,0,5,0,7,49,7,49,9,0,0,0,0,0,0,3,0,1,0,0,0,0,0,0,0
0,0,0,0,0,0,49,0,8,2,6,50,14,8,1,12,0,8,0,0,8,0,0,0,0,0,0,0,0,0,0,0,0,1,0,0,0,0,0,2,0,4,50,50,1,7,49,1,5,20,0,1,0,0,0,0,0,0,0,0,0,0,0,0
0,0,0,0,0,0,0,50,1,5,5,18,11,10,8,50,5,1,0,0,0,0,8,3,0,0,0,0,0,0,0,0,0,0,0,0,0,0,0,0,2,48,0,11,3,7,1,8,5,50,0,0,0,0,2,0,0,0,0,0,0,0,0,0
0,0,0,0,0,49,0,0,49,9,4,49,8,14,12,8,0,5,0,0,0,0,0,15,49,0,0,0,0,0,0,0,0,1,0,0,0,0,0,50,50,1,4,7,8,13,50,1,2,1,0,0,0,0,0,1,0,0,0,0,0,0,0,0
0,0,0,0,0,0,0,0,49,1,5,8,7,49,7,49,4,4,0,0,0,0,0,7,0,0,0,0,1,0,0,0,0,0,0,0,0,0,0,0,50,1,7,2,8,6,50,2,18,0,0,0,1,0,0,0,0,0,0,0,0,0,0,0
0,0,1,0,0,0,49,49,2,49,8,49,5,10,8,2,7,4,1,1,0,0,0,0,0,0,0,0,1,0,0,0,0,0,0,0,0,0,0,1,0,3,50,50,5,5,1,0,0,4,0,0,49,1,0,0,0,0,0,0,0,0,0,0
0,0,0,49,0,0,0,0,5,49,10,49,9,2,0,4,4,0,10,5,0,0,0,0,3,0,0,0,0,0,0,0,0,0,0,0,0,0,0,50,0,8,2,2,1,3,50,1,6,0,0,0,0,0,0,0,0,0,0,0,0,0,0,0
