0,0,2,0,0,0,0,6,96,98,0,14,6,6,14,0,52,8,20,0,0,0,0,0,2,0,0,0,0,0,0,0,0,0,0,0,0,0,0,0,0,100,4,4,2,0,98,8,0,0,0,8,0,0,0,0,0,0,0,0,0,0,0,0
0,0,0,0,0,0,2,0,100,2,10,34,16,32,16,98,42,0,6,0,0,0,0,0,0,0,0,0,0,0,0,0,0,0,0,0,0,0,0,12,0,0,0,4,0,0,2,2,0,4,0,0,0,0,98,0,0,0,0,0,0,56,0,0
0,0,98,0,0,0,0,2,6,16,10,98,16,22,0,16,6,0,0,0,0,28,0,0,12,0,0,0,0,0,0,0,0,0,0,0,0,2,0,100,16,4,6,0,100,2,4,0,0,14,0,0,0,2,0,0,0,98,0,0,0,0,0,0
0,0,0,0,98,0,6,0,98,8,98,34,12,10,2,48,0,10,0,0,0,2,0,0,0,0,0,0,0,0,0,0,0,0,0,0,0,0,12,100,0,0,16,8,98,6,2,0,0,30,0,0,0,0,4,0,0,98,0,0,0,0,0,64
0,0,0,0,0,0,98,2,2,98,0,16,98,2,32,6,0,0,4,0,0,10,0,0,0,0,0,0,0,0,0,0,0,0,0,0,0,100,0,12,0,100,16,2,100,10,28,8,6,0,2,0,0,0,0,0,0,0,0,0,0,0,0,0
0,0,0,2,0,0,0,2,100,6,16,14,24,100,6,24,0,0,0,0,0,0,0,0,0,0,0,0,0,0,0,0,0,0,0,0,0,0,0,6,100,14,0,10,14,100,4,0,4,0,2,0,4,0,0,0,0,0,0,0,0,0,0,0
0,0,0,0,0,0,0,4,6,98,24,98,16,0,46,0,6,16,0,0,6,0,4,0,0,0,0,0,0,0,0,0,0,0,0,0,2,0,0,0,8,100,100,0,10,0,98,2,0,0,2,0,0,0,0,98,0,0,0,0,0,6,0,0
0,0,0,0,0,98,0,0,2,12,98,98,30,2,6,24,0,98,0,0,0,2,0,0,0,0,0,0,0,0,0,0,0,0,0,0,0,2,0,2,98,8,98,16,14,50,98,0,0,8,0,0,0,0,0,0,0,0,0,0,0,0,0,0
0,0,0,8,0,98,0,0,4,16,30,22,6,12,0,2,18,0,30,0,0,0,0,0,0,0,0,0,0,0,0,0,0,0,0,0,0,2,4,100,4,6,6,8,4,98,0,0,0,0,0,0,0,0,0,0,2,0,0,0,0,0,0,0
0,0,0,0,2,0,100,0,98,10,12,20,20,100,8,2,2,6,0,98,0,0,0,0,0,0,0,0,0,0,0,0,0,0,0,0,0,0,0,4,100,0,0,100,6,2,4,0,0,2,0,0,2,0,0,2,0,0,0,0,0,0,0,0
0,0,0,0,0,0,10,0,14,98,22,16,98,18,12,0,0,6,16,0,0,0,0,0,2,0,0,0,0,0,0,0,0,0,2,0,100,6,2,0,2,98,100,6,12,98,4,0,0,0,2,0,0,0,0,0,0,0,0,0,0,0,0,0
0,0,0,0,2,0,0,98,12,10,26,14,14,98,0,22,0,14,0,14,2,0,0,0,0,0,0,0,0,0,0,0,0,0,0,0,0,0,4,0,100,4,2,6,4,100,6,0,0,6,0,0,0,0,6,0,0,0,0,0,0,0,0,0
0,0,0,6,0,0,2,0,16,0,16,8,16,98,0,0,0,2,20,16,0,0,14,0,0,0,0,0,0,0,0,0,0,0,0,0,0,0,2,100,4,32,100,10,8,16,0,18,0,0,0,0,0,0,0,0,0,0,0,0,0,0,0,0
0,0,0,0,0,2,0,16,98,10,98,18,28,0,16,22,22,4,10,0,0,0,0,0,0,0,0,0,0,0,0,0,0,0,0,0,100,0,0,2,0,100,22,2,2,6,0,12,0,4,0,2,0,0,0,0,0,0,0,0,0,0,0,0
0,0,0,0,0,2,0,0,6,98,10,26,10,98,18,0,0,8,6,6,0,2,0,0,0,0,0,0,0,0,0,0,0,0,0,2,0,0,0,2,6,100,98,0,16,22,6,0,20,2,0,0,0,0,0,0,0,0,0,0,0,0,0,0
0,0,0,0,0,0,0,10,4,8,18,98,14,98,22,12,0,2,0,0,0,0,2,0,0,0,0,0,0,0,0,0,0,0,0,2,0,0,6,100,0,6,8,100,6,0,0,4,0,0,0,0,0,0,0,0,0,0,0,0,0,0,0,0
0,0,0,0,0,98,0,2,10,14,16,32,6,8,22,100,6,0,0,0,18,0,0,0,0,0,0,0,0,0,0,0,0,0,0,0,0,0,0,6,98,4,0,0,2,2,0,6,0,0,98,0,0,0,0,0,0,0,0,0,0,10,0,0
0,0,0,0,0,0,4,98,10,12,98,4,6,18,44,12,0,2,8,0,0,98,100,0,6,0,0,0,0,0,0,0,0,0,0,0,0,0,4,18,100,0,18,6,4,100,0,2,18,0,0,2,6,0,0,0,0,0,0,0,0,0,0,0
64,0,0,0,0,0,0,8,0,98,16,26,20,24,16,22,10,0,0,0,0,0,98,0,0,0,0,0,0,0,0,0,0,0,0,0,0,98,0,0,6,98,0,22,98,6,0,2,20,14,0,0,4,0,2,0,0,0,0,0,0,0,0,0
0,0,0,0,0,0,0,2,98,16,98,26,28,14,16,10,16,0,0,12,0,12,6,2,0,0,0,0,0,0,0,0,0,0,0,0,2,0,0,100,0,4,98,14,98,10,92,0,4,0,0,0,0,2,0,0,0,0,0,0,0,0,0,0
0,0,0,0,0,0,2,0,6,98,6,6,98,6,0,14,26,0,4,0,0,0,0,0,14,0,0,0,0,0,0,0,0,0,0,0,0,0,0,100,6,2,0,12,100,0,26,0,6,0,0,0,0,0,2,0,8,0,0,0,0,0,0,0
0,0,0,0,0,0,0,10,6,98,10,22,14,36,98,12,0,12,0,0,20,0,2,28,0,2,2,0,0,0,0,0,0,0,0,2,0,0,0,98,10,10,2,20,100,32,8,0,0,0,4,0,0,0,2,0,12,0,0,0,0,0,0,0
0,0,0,0,0,98,2,12,2,4,0,26,100,8,44,38,0,0,0,0,0,12,14,0,0,0,0,0,0,0,0,0,0,0,0,0,0,0,100,0,0,10,98,2,16,8,6,98,0,0,0,0,0,0,0,0,0,2,0,0,0,0,0,0
0,0,0,98,0,98,0,22,2,6,100,2,22,44,20,16,12,8,8,8,2,0,0,2,0,0,0,0,0,0,0,0,0,0,2,0,6,0,0,98,4,98,4,12,24,100,20,98,12,6,0,0,0,2,0,0,0,0,0,0,0,0,0,0
0,0,0,0,98,0,0,0,2,98,16,6,16,50,98,0,6,4,0,0,0,6,0,0,0,0,0,0,0,0,0,0,0,0,2,0,0,0,0,0,8,100,0,6,98,98,4,0,0,0,0,0,0,0,0,2,0,0,0,0,0,0,0,0
0,0,0,0,0,0,0,2,98,2,98,18,2,0,4,0,30,0,0,0,0,0,2,0,0,0,0,0,0,0,0,0,0,0,2,0,0,0,10,100,98,0,4,98,2,100,30,36,2,0,0,0,0,0,0,0,0,0,0,0,0,0,0,0
0,0,0,0,0,0,0,100,2,2,98,0,4,6,22,6,0,4,0,98,0,0,98,0,0,2,0,0,0,0,0,0,0,0,98,0,0,0,100,10,100,0,4,2,6,24,18,4,2,0,0,0,4,0,0,0,0,0,0,0,0,0,0,22
0,0,0,0,98,0,98,0,8,2,98,36,10,2,10,6,44,16,0,0,0,0,0,0,0,0,0,0,0,0,0,0,0,0,0,0,98,0,0,90,0,2,98,4,6,98,10,0,0,6,0,2,0,0,0,0,0,10,0,0,0,0,0,0
0,0,0,0,0,4,0,0,98,8,4,14,8,10,24,0,14,0,0,0,0,12,0,6,24,0,0,0,0,0,0,0,0,0,0,0,0,0,0,4,0,6,94,4,8,6,0,16,20,0,0,0,0,0,0,4,6,0,0,0,0,0,0,0
0,0,0,0,0,0,0,4,0,100,18,6,98,2,54,8,6,0,22,2,0,0,2,2,0,0,2,0,0,0,0,0,0,0,2,0,0,0,100,2,2,2,0,0,12,98,4,22,0,18,0,0,0,0,0,0,0,0,0,0,0,0,0,0
0,0,0,0,0,0,0,98,4,12,8,58,2,0,4,2,8,16,12,2,0,0,4,0,0,0,0,0,0,0,0,0,0,0,0,0,0,0,0,0,100,0,2,100,4,2,2,98,6,0,0,0,0,0,0,0,0,0,0,0,0,0,46,0
0,0,0,0,0,98,0,0,14,4,24,14,40,4,16,0,0,0,0,0,0,0,0,0,0,0,0,0,0,0,0,0,0,0,0,0,0,0,0,98,100,10,4,100,2,2,4,0,0,0,0,0,0,0,0,0,0,0,0,0,0,0,0,0
0,0,0,0,0,0,6,2,98,4,12,6,20,28,2,22,2,0,2,0,14,0,0,0,0,0,0,0,0,0,0,0,0,0,0,0,100,2,0,0,98,2,0,10,0,2,0,0,20,0,0,0,2,0,0,0,0,0,0,0,0,0,0,0
0,0,0,0,0,0,4,0,100,0,2,20,14,16,0,24,2,0,2,0,6,98,0,0,0,0,0,0,0,0,0,0,2,0,28,0,0,4,0,0,0,100,12,98,24,6,12,0,2,0,0,4,2,98,0,0,0,0,0,0,0,0,0,0
0,70,0,0,0,0,0,0,4,0,20,8,100,0,6,28,0,10,0,0,20,0,6,0,0,0,0,0,0,0,0,24,100,0,0,0,0,0,0,100,10,0,6,26,4,0,10,0,0,0,0,0,0,0,0,0,0,0,0,0,0,0,0,0
0,0,0,0,0,0,0,0,6,22,40,16,24,10,86,4,2,2,0,0,0,0,0,44,0,0,0,0,0,0,60,0,0,0,0,0,0,0,0,100,0,8,94,8,4,10,6,0,0,0,0,0,0,0,0,0,0,0,0,0,0,0,0,0
0,0,0,0,0,0,0,0,0,16,6,100,6,74,8,0,0,26,0,0,0,0,0,0,4,0,0,0,0,0,0,0,0,0,0,0,0,0,0,100,0,40,10,2,4,100,4,2,2,0,2,2,0,0,0,0,0,0,0,0,0,0,0,0
0,0,0,0,0,0,0,0,98,98,18,6,88,0,8,14,0,0,24,0,0,0,0,0,0,0,0,0,0,0,0,0,0,0,0,0,0,0,0,100,12,0,2,6,98,0,0,16,0,0,0,0,0,0,0,0,0,4,0,0,0,0,0,0
0,0,0,0,0,0,0,0,0,0,98,8,18,16,0,98,14,2,0,0,0,0,4,0,0,0,0,0,0,0,0,0,0,0,0,0,0,0,0,2,0,26,100,14,10,2,0,10,2,0,0,0,0,2,0,0,0,0,0,0,0,0,0,0
0,0,0,0,0,0,0,0,2,98,80,14,12,8,4,16,0,0,2,0,0,2,0,0,0,0,0,0,0,0,0,0,0,0,0,0,0,0,2,98,4,4,6,10,100,14,6,0,0,0,0,0,2,0,0,0,0,0,0,0,0,0,0,0
0,0,0,0,0,0,98,0,32,98,6,8,18,12,0,26,2,0,0,0,0,0,0,0,6,0,0,0,0,0,0,0,0,0,0,0,0,0,2,100,0,100,0,2,8,12,0,0,10,0,0,0,0,0,0,0,0,0,0,0,0,0,0,0
0,0,0,0,0,2,2,98,0,26,0,0,16,20,14,0,20,0,4,0,28,2,0,0,0,0,0,0,0,0,0,0,0,0,0,0,0,0,4,2,100,4,2,10,8,16,10,2,0,0,0,0,0,0,0,0,0,0,0,0,0,0,0,0
0,0,0,0,0,0,0,0,0,30,16,8,100,28,6,0,0,6,2,0,0,0,0,0,0,0,0,0,0,0,0,0,0,0,0,0,0,2,2,4,100,98,4,98,2,0,0,0,98,0,0,0,0,0,0,6,0,0,0,0,0,0,0,0
0,0,0,0,0,2,0,98,0,16,98,28,16,14,22,6,0,0,6,0,0,0,0,0,0,0,0,0,0,0,0,0,0,0,0,0,0,0,0,0,0,4,100,10,8,0,0,4,0,0,0,0,0,0,0,0,0,0,0,0,0,0,0,0
0,0,0,0,4,0,0,0,98,0,20,24,20,28,12,98,0,0,0,0,0,0,2,0,0,0,0,0,0,0,0,0,0,0,0,0,0,100,0,2,0,2,0,4,20,14,2,4,0,0,0,0,0,0,0,0,0,0,0,0,0,0,0,0
0,0,0,0,8,0,0,0,8,88,22,30,18,38,0,98,0,0,0,0,0,4,0,2,0,0,0,0,0,0,0,0,0,0,0,0,0,0,6,100,14,8,6,98,10,18,18,2,14,0,4,2,0,0,0,0,0,0,0,2,0,0,0,0
0,0,0,2,0,94,0,2,0,4,28,28,30,16,12,0,98,0,4,4,0,2,0,0,0,0,0,0,0,0,0,0,0,0,0,0,0,2,0,100,0,20,2,0,22,2,8,0,0,98,4,0,0,0,0,0,0,0,0,0,0,0,0,0
0,0,0,0,0,0,0,0,22,6,98,30,16,2,34,98,34,2,0,0,4,2,0,0,0,0,0,0,0,0,0,0,0,0,0,0,0,0,0,100,16,6,0,98,2,0,4,2,0,0,0,0,0,6,0,0,0,0,0,0,0,0,0,0
0,0,0,0,0,0,0,0,18,16,32,12,10,20,16,98,2,0,0,0,0,4,36,0,0,0,0,0,0,0,0,0,0,0,0,0,0,2,100,0,0,2,8,2,4,26,100,14,2,0,0,0,0,0,0,0,0,0,0,0,0,0,0,0
0,0,0,0,0,0,98,12,2,6,20,20,14,18,0,98,0,0,0,0,0,0,26,0,0,0,0,0,0,0,0,0,0,0,0,0,0,6,0,100,6,4,4,2,0,0,0,2,0,2,2,0,0,0,0,0,0,0,0,0,0,0,0,0
