30,10,255,30,10,255,70,160,255,255,255,255,80,130,0,50,0,130,0,0,140,30,0,0,0,0,0,0,0,50,0,140,0,255,170,150,255,140,255,255,255,255,255,255,230,255,255,255,10,0,0,255,255,0,0,10,0,0,0,0,30,0,150,255
60,20,0,30,50,70,255,255,255,255,255,255,255,160,240,10,0,10,0,20,70,140,0,0,0,30,0,0,0,120,50,120,255,210,90,255,160,255,255,255,255,250,255,255,255,190,255,160,40,120,0,90,110,0,0,70,0,0,0,0,0,120,80,255
80,255,255,70,50,20,255,210,255,255,250,210,255,170,0,255,60,0,210,40,0,120,0,0,0,0,0,0,0,0,0,255,10,255,0,0,255,120,70,255,90,255,110,40,255,255,20,30,0,0,0,0,0,40,0,0,70,0,0,0,0,0,0,0
50,20,50,255,255,50,60,190,255,0,255,255,180,255,110,0,0,70,0,0,0,30,0,0,0,0,0,0,0,140,10,0,0,0,255,40,0,90,255,120,100,255,255,100,255,255,80,20,50,0,0,0,0,0,50,0,0,0,0,0,0,10,10,0
0,50,0,30,255,50,255,80,255,255,170,255,140,200,120,90,0,255,0,140,10,10,0,0,0,0,0,0,0,255,0,0,255,0,0,0,10,255,10,80,255,255,255,255,255,255,70,0,210,50,0,0,0,0,0,0,0,0,0,0,0,0,0,0
0,50,0,10,255,120,70,30,255,150,255,255,255,130,250,255,0,0,0,0,0,50,0,0,0,0,0,0,30,0,10,0,255,0,0,30,255,0,10,255,255,255,255,190,50,110,60,255,0,0,0,0,0,240,60,0,0,0,0,0,0,0,0,10
50,255,0,0,30,90,255,255,255,70,150,255,255,60,170,20,255,0,0,0,0,0,0,0,0,0,0,0,0,60,0,10,60,0,120,40,255,255,140,255,255,255,255,255,255,255,60,130,170,255,0,0,0,80,0,0,0,0,0,0,0,0,255,255
60,255,70,255,10,255,255,255,255,255,255,255,255,255,160,220,240,0,0,0,0,0,10,0,0,0,10,0,0,70,255,0,180,160,170,140,170,210,255,255,255,255,255,255,255,255,255,255,130,0,255,0,0,200,30,0,0,0,0,0,140,10,10,255
50,0,40,30,50,180,255,255,255,255,255,190,255,255,255,0,10,0,0,0,0,30,0,0,0,0,0,0,0,0,70,0,120,80,0,40,50,255,50,120,255,255,255,230,255,150,255,255,120,0,50,170,0,0,0,0,0,0,0,0,0,20,70,0
255,70,210,40,130,255,120,110,255,255,250,255,255,150,120,50,10,60,0,0,0,40,0,0,0,0,0,0,0,0,0,0,20,130,90,80,255,255,255,255,255,255,255,255,255,255,255,50,10,0,30,30,0,0,0,110,0,0,0,40,0,70,0,255
20,0,10,20,255,255,170,120,255,180,255,90,255,100,0,10,0,0,0,100,180,0,0,0,0,0,0,0,0,0,0,10,10,255,0,10,50,60,10,255,255,140,60,255,50,100,255,0,10,255,0,0,0,0,0,0,0,0,0,0,0,0,0,50
30,0,20,30,10,255,255,30,255,255,255,250,255,0,100,0,0,80,0,0,0,0,0,0,0,0,0,0,0,0,0,0,0,10,10,0,0,255,255,255,255,255,255,80,255,255,80,0,0,0,0,0,0,200,30,0,0,0,0,0,0,0,0,40
0,0,40,0,0,110,60,255,255,255,255,255,255,255,255,0,0,0,0,0,0,0,0,0,0,0,0,0,10,0,0,0,30,0,160,255,255,255,250,180,255,255,30,140,255,190,0,130,20,0,10,0,0,50,0,255,0,0,0,0,0,0,0,0
20,10,0,0,40,255,140,160,255,255,255,255,255,70,130,0,20,0,20,30,0,20,30,0,0,0,0,0,10,0,10,50,20,255,0,30,255,80,210,100,255,210,255,160,110,255,10,255,0,0,255,0,10,0,10,160,0,0,0,0,0,0,0,10
70,0,40,255,10,255,60,255,190,255,240,200,255,255,10,0,0,20,0,20,0,40,0,0,0,0,0,0,10,0,0,20,30,0,0,10,90,10,255,130,255,255,255,255,90,255,0,20,190,0,0,20,0,0,10,10,30,0,0,0,0,0,255,0
80,30,110,10,160,160,90,170,255,255,255,140,255,0,80,50,30,40,0,0,0,0,0,0,0,0,0,0,0,0,80,0,30,0,80,10,255,255,255,255,255,255,255,255,160,255,200,120,150,90,50,130,80,120,40,20,0,0,0,0,0,255,255,0
70,30,0,0,20,80,255,70,255,220,255,190,100,255,40,10,100,255,20,60,10,0,160,0,0,0,0,0,0,0,60,10,10,0,40,0,255,30,255,255,255,100,70,255,255,255,40,0,100,0,0,0,0,0,0,0,0,0,0,0,0,140,0,0
230,30,255,10,60,20,120,255,255,255,255,255,80,160,120,190,200,0,0,0,0,120,20,0,0,0,0,0,0,0,0,0,0,255,0,10,0,40,120,255,255,255,255,170,255,255,255,0,255,255,0,0,0,150,30,0,0,0,0,0,0,20,255,0
0,50,0,60,10,190,255,255,255,0,255,220,255,255,250,0,10,0,0,255,0,30,0,90,0,0,0,0,0,0,10,0,0,0,30,255,20,255,255,255,255,255,255,255,255,50,170,70,0,0,255,0,0,0,30,10,0,0,0,0,0,0,50,10
0,0,255,60,0,100,255,70,255,250,220,255,110,170,80,255,255,0,0,30,0,10,0,0,0,0,0,0,0,0,0,0,255,0,0,0,80,30,20,80,255,255,255,255,70,255,255,20,0,0,0,255,0,0,0,0,0,0,0,0,0,0,0,0
255,0,40,10,20,255,70,140,130,255,255,255,255,170,0,180,10,0,0,80,10,30,20,0,0,0,0,0,0,0,0,0,120,0,10,0,30,255,0,80,120,255,100,100,255,50,160,10,0,0,0,0,0,0,0,0,0,0,0,0,0,0,0,0
50,30,0,0,0,255,160,255,70,255,250,255,60,110,80,40,120,0,0,0,0,0,90,0,0,0,0,0,0,0,20,0,20,0,0,60,40,255,20,255,255,255,255,190,230,110,40,255,40,255,255,10,10,10,0,20,255,0,0,0,110,0,0,255
0,10,0,255,110,70,130,255,255,140,220,250,255,180,160,160,0,0,0,80,60,0,110,0,0,0,0,0,0,0,50,0,0,10,0,0,0,30,255,255,160,255,255,255,255,255,255,255,170,0,70,50,80,0,0,10,0,0,0,0,0,0,0,255
255,255,0,10,40,30,255,255,120,255,255,255,130,0,255,30,0,0,60,255,70,0,0,0,0,0,0,0,0,150,0,255,255,10,70,70,255,255,255,255,255,255,255,255,255,230,50,255,140,120,130,40,100,255,100,30,30,0,0,0,230,0,255,80
50,20,20,10,90,30,255,255,140,250,255,10,190,200,180,200,160,0,0,10,0,10,40,0,0,0,0,0,255,190,180,180,80,170,120,160,70,210,250,255,255,255,255,255,255,255,170,240,255,50,150,255,190,140,50,255,0,0,0,0,255,20,150,140
0,0,70,160,130,70,20,255,255,240,255,255,255,40,220,0,70,30,0,0,0,60,140,20,0,0,0,0,210,70,180,210,100,160,210,150,170,210,160,240,255,255,255,255,255,255,50,110,10,0,50,0,50,30,0,0,90,0,0,0,0,180,255,100
140,150,50,160,255,190,120,255,255,120,255,150,210,0,250,50,70,255,0,0,0,0,0,30,0,0,0,0,160,250,240,230,230,170,120,90,120,160,255,170,255,230,255,255,190,255,255,170,160,90,30,40,0,40,10,50,0,0,0,140,0,0,255,40
255,0,0,0,10,60,80,170,255,250,130,190,160,30,0,255,80,60,0,0,0,0,0,30,0,0,0,160,0,190,250,210,120,180,160,160,120,190,180,200,255,230,190,255,255,255,240,230,50,50,80,40,140,30,70,0,30,100,0,0,160,20,120,0
0,20,0,50,80,50,130,190,255,255,160,140,255,0,240,255,100,0,0,0,0,0,0,0,0,0,0,150,0,210,200,130,160,170,140,130,140,180,170,200,255,230,255,255,230,180,255,130,20,10,0,0,0,30,0,80,0,0,0,0,0,210,120,180
50,255,0,0,250,255,170,255,90,255,250,255,100,230,140,160,210,0,0,80,30,40,0,255,0,0,0,0,110,130,190,210,120,190,190,170,255,170,255,255,255,255,200,190,120,210,30,150,100,90,40,80,70,60,90,80,0,0,0,0,140,0,255,240
10,10,255,0,0,150,255,210,110,255,255,255,170,255,220,0,170,255,0,0,20,0,0,0,0,0,0,170,0,210,140,255,210,170,120,100,255,130,230,210,255,220,170,255,255,230,255,130,100,0,10,0,0,0,30,0,0,0,0,0,110,255,120,240
255,160,0,30,255,255,190,140,255,255,255,190,200,90,30,150,0,170,120,0,255,20,0,0,10,0,0,0,0,140,190,140,180,120,120,90,190,250,190,250,160,190,140,255,140,250,160,255,0,90,0,210,20,0,50,0,0,0,0,0,150,10,255,255
80,0,0,20,20,240,200,180,255,230,220,255,255,255,190,255,30,0,0,0,0,50,0,0,110,0,0,0,70,90,170,0,50,0,255,120,150,160,130,255,190,140,190,255,255,160,150,40,130,50,255,0,50,0,0,0,0,0,0,0,0,180,0,240
50,255,0,100,30,255,50,70,70,110,255,140,170,250,0,0,210,0,0,50,0,70,0,10,0,0,0,0,70,140,220,255,255,220,140,255,140,230,200,255,255,210,255,200,255,190,255,160,90,70,70,60,40,30,50,50,0,0,0,0,160,0,255,0
0,0,255,10,240,255,255,160,160,250,255,180,255,50,130,100,0,0,90,0,0,40,0,0,0,0,0,0,0,140,210,210,80,190,230,80,130,255,150,190,255,255,255,210,170,70,255,255,0,0,0,0,0,0,220,0,0,0,0,0,0,0,50,0
255,30,220,10,10,90,255,255,200,255,80,140,255,140,140,10,80,0,0,0,0,0,10,0,0,0,0,0,0,0,20,160,0,255,255,10,0,30,255,255,255,255,20,230,20,240,70,0,100,0,0,60,0,0,10,0,0,0,0,0,0,0,30,0
10,10,0,10,255,255,255,70,255,255,255,170,255,255,255,120,20,0,0,0,0,0,10,0,0,0,0,0,0,0,0,0,10,30,255,10,0,255,255,70,255,255,255,255,255,255,150,170,120,120,80,100,90,10,80,100,0,0,0,0,0,0,0,0
255,60,255,0,255,40,140,255,255,190,255,100,255,255,255,110,50,0,0,80,0,0,0,0,0,0,0,0,0,30,50,10,0,10,0,70,160,255,255,255,110,255,255,255,160,255,255,255,0,0,0,0,0,30,0,0,0,0,0,0,0,0,0,30
10,0,0,60,10,0,120,255,255,240,255,130,160,180,50,140,255,0,0,70,10,0,0,0,0,0,0,0,0,0,0,30,0,30,20,0,60,255,100,110,255,220,255,40,255,50,10,255,50,255,80,0,0,0,0,0,0,0,0,0,0,0,255,0
255,40,0,0,0,60,255,230,150,210,255,255,255,70,150,70,0,0,0,0,0,0,0,190,0,0,0,0,0,10,10,10,10,0,10,255,70,255,150,255,50,90,160,255,70,10,255,255,0,0,0,20,0,0,50,0,0,0,0,0,0,0,0,20
10,0,0,255,40,120,80,255,255,255,120,0,255,0,80,140,0,10,0,0,70,0,40,0,0,0,0,0,0,0,120,0,10,10,110,30,10,30,255,255,255,255,255,255,255,40,0,0,70,120,0,0,60,0,0,0,0,0,0,0,0,0,0,0
20,50,10,10,30,255,255,150,250,90,10,255,190,255,120,0,170,0,90,0,0,30,0,0,0,0,0,0,0,0,0,20,130,100,20,100,255,140,110,255,255,255,255,255,100,70,0,0,100,70,0,0,30,70,0,0,0,0,0,0,10,0,10,0
30,0,20,0,30,70,160,255,255,120,140,210,230,120,250,220,100,0,0,120,0,0,10,0,0,0,0,10,0,0,0,30,10,0,10,10,80,20,255,255,50,255,70,150,250,255,10,0,0,0,255,0,0,30,0,150,0,0,0,0,0,0,0,10
0,0,0,20,255,60,30,100,240,255,255,255,140,170,120,0,150,10,0,0,0,0,0,255,0,0,0,0,40,0,0,0,40,30,30,255,10,255,255,255,255,140,255,255,255,255,120,0,40,0,0,0,0,0,0,0,0,30,0,0,0,10,30,10
255,0,30,80,90,255,255,255,255,255,200,255,255,50,90,70,10,0,0,0,0,140,0,40,0,0,0,0,0,0,0,10,0,0,255,0,255,255,255,40,255,255,170,140,90,255,80,255,0,0,0,10,0,0,10,0,0,50,0,0,0,0,0,10
30,50,0,255,190,60,30,255,220,255,255,100,120,255,90,0,0,0,10,0,80,0,0,0,0,0,0,0,0,0,255,30,50,0,10,100,0,30,255,110,255,170,255,255,10,30,50,10,0,10,0,10,0,0,0,0,0,0,0,0,0,0,0,0
60,0,0,0,255,50,100,200,255,255,255,90,90,255,170,110,0,10,170,30,0,0,0,0,0,0,0,0,120,60,0,0,150,0,255,0,70,80,80,255,90,255,70,180,80,10,255,10,0,0,0,30,0,0,60,255,50,20,0,0,0,0,10,20
30,20,20,90,10,255,255,255,255,130,220,255,110,255,0,255,80,0,10,0,20,30,0,60,0,0,0,0,0,0,0,0,30,120,0,20,0,255,30,170,255,255,255,255,140,50,40,0,50,0,0,0,0,0,0,0,0,255,0,0,0,0,0,255
20,30,0,255,20,255,130,90,255,255,255,250,160,180,255,0,100,120,0,0,0,0,10,0,0,0,0,0,0,0,0,30,70,30,20,0,50,20,80,255,255,255,255,255,255,120,50,0,10,10,30,70,0,0,0,0,0,0,0,0,0,0,0,255
30,30,80,10,255,255,0,255,80,255,190,110,80,255,140,20,0,0,0,0,0,20,0,0,0,0,0,0,0,20,0,90,255,0,30,10,40,10,255,30,255,140,255,110,255,255,60,10,0,0,0,0,10,0,0,0,0,0,0,0,10,0,0,10
