0,3,0,0,0,9,0,0,0,147,144,21,9,21,9,0,30,78,12,0,0,0,0,3,0,0,0,0,0,0,0,0,0,0,0,0,0,0,0,0,150,6,0,6,3,0,147,12,0,0,0,12,0,0,0,0,0,0,0,0,0,0,0,0
0,0,0,0,0,0,0,3,3,15,150,51,24,48,24,63,147,0,9,0,0,0,0,0,0,0,0,0,0,0,0,0,0,0,0,0,0,0,0,18,0,0,0,0,6,0,3,6,0,3,0,0,0,0,0,147,0,0,0,0,0,0,84,0
0,147,0,0,0,0,0,3,9,15,24,147,24,33,9,24,0,0,0,0,42,0,18,0,0,0,0,0,0,0,0,0,0,0,0,0,0,3,0,150,24,6,150,9,0,6,3,21,0,0,0,0,3,0,0,0,147,0,0,0,0,0,0,0
0,0,0,147,0,0,9,0,147,12,15,147,51,18,3,72,15,0,0,0,3,0,0,0,0,0,0,0,0,0,0,0,0,0,0,0,0,0,0,18,150,24,0,12,147,9,0,3,0,0,0,45,0,0,0,6,0,0,147,0,0,0,96,0
0,0,0,0,0,0,147,3,0,3,147,24,147,3,9,0,48,6,0,0,0,15,0,0,0,0,0,0,0,0,0,0,0,0,0,0,0,150,0,18,0,24,150,3,150,15,12,42,9,3,0,0,0,0,0,0,0,0,0,0,0,0,0,0
0,0,3,0,0,0,0,3,9,150,24,21,36,0,150,9,36,0,0,0,0,0,0,0,0,0,0,0,0,0,0,0,0,0,0,0,0,0,0,9,0,150,21,15,150,21,6,3,6,0,0,0,6,0,0,0,0,0,0,0,0,0,0,0
0,0,0,0,0,0,0,9,36,6,147,147,24,0,69,9,24,0,0,9,0,0,6,0,0,0,0,0,0,0,0,0,0,0,0,0,0,3,0,0,150,12,150,0,0,15,147,3,0,3,0,0,0,0,0,147,0,0,0,9,0,0,0,0
0,0,0,0,0,147,0,0,3,18,147,45,147,9,3,36,0,0,147,0,0,3,0,0,0,0,0,0,0,0,0,0,0,0,0,0,0,147,0,3,12,3,147,24,75,21,0,147,12,0,0,0,0,0,0,0,0,0,0,0,0,0,0,0
0,0,12,0,0,0,0,147,6,24,9,45,33,18,0,3,27,0,45,0,0,0,0,0,0,0,0,0,0,0,0,0,0,0,0,0,3,0,6,150,9,6,9,12,6,147,0,0,0,0,0,0,0,0,0,0,3,0,0,0,0,0,0,0
0,0,0,0,0,0,3,147,150,18,15,150,30,30,12,9,3,3,0,147,0,0,0,0,0,0,0,0,0,0,0,0,0,0,0,0,0,0,0,150,6,0,0,150,9,3,6,0,0,3,3,0,0,0,0,0,3,0,0,0,0,0,0,0
0,0,0,0,0,0,0,15,147,21,27,33,24,18,0,147,0,9,0,0,24,0,0,3,0,0,0,0,0,0,0,0,0,3,0,0,150,0,3,9,3,147,150,18,9,147,6,0,0,0,3,0,0,0,0,0,0,0,0,0,0,0,0,0
0,0,0,0,3,0,0,147,18,21,15,39,147,21,0,33,21,0,0,3,21,0,0,0,0,0,0,0,0,0,0,0,0,0,0,0,0,6,0,6,0,150,3,9,150,6,9,0,9,0,0,0,0,0,9,0,0,0,0,0,0,0,0,0
0,0,0,9,0,0,0,3,0,12,24,147,24,24,0,0,0,3,30,24,0,21,0,0,0,0,0,0,0,0,0,0,0,0,0,0,0,0,6,3,150,24,48,150,15,12,0,27,0,0,0,0,0,0,0,0,0,0,0,0,0,0,0,0
0,0,0,0,3,0,147,0,24,15,147,42,27,24,0,33,6,33,0,15,0,0,0,0,0,0,0,0,0,0,0,0,0,0,0,0,0,0,150,3,0,150,3,33,3,9,18,0,0,3,0,0,6,0,0,0,0,0,0,0,0,0,0,0
0,0,0,0,0,3,0,0,9,147,15,39,15,147,0,27,9,12,0,9,0,3,0,0,0,0,0,0,0,0,0,0,0,0,0,0,0,3,3,0,0,150,9,33,147,30,24,3,9,0,0,0,0,0,0,0,0,0,0,0,0,0,0,0
0,0,0,0,0,0,0,15,6,12,27,147,147,21,33,18,0,3,0,0,0,0,3,0,0,0,0,0,0,0,0,0,0,0,0,0,3,0,0,150,9,9,150,0,9,6,12,0,0,0,0,0,0,0,0,0,0,0,0,0,0,0,0,0
0,0,0,0,0,0,147,3,15,24,21,9,12,48,150,33,0,9,0,27,0,0,0,0,0,0,0,0,0,0,0,0,0,0,0,0,0,0,0,9,147,6,0,3,0,0,9,3,0,147,0,0,0,0,0,0,0,0,0,0,0,15,0,0
0,0,0,0,0,6,0,147,15,18,147,6,9,66,27,18,3,0,0,12,0,150,147,0,0,9,0,0,0,0,0,0,0,0,0,0,0,0,150,6,0,9,6,27,150,3,27,27,0,0,0,9,0,3,0,0,0,0,0,0,0,0,0,0
0,96,0,0,0,0,12,0,147,0,24,39,36,30,24,33,0,15,0,0,0,147,0,0,0,0,0,0,0,0,0,0,0,0,0,0,0,0,147,0,9,147,0,147,33,9,3,30,0,0,21,6,0,0,3,0,0,0,0,0,0,0,0,0
0,0,0,0,0,0,3,0,147,24,147,39,42,21,24,24,18,0,15,0,0,3,9,18,0,0,0,0,0,0,0,0,0,0,0,0,0,3,0,150,0,6,147,21,15,147,6,0,138,0,0,0,0,3,0,0,0,0,0,0,0,0,0,0
0,0,0,0,0,0,0,3,9,147,9,9,9,147,0,21,0,39,0,0,6,21,0,0,0,0,0,0,0,0,0,0,0,0,0,0,0,0,0,9,0,150,3,18,150,0,39,0,0,9,0,0,0,0,3,0,12,0,0,0,0,0,0,0
0,0,0,0,0,0,0,15,147,9,15,54,33,21,147,18,18,0,0,42,0,30,3,0,0,3,0,3,0,0,0,0,0,0,0,3,0,0,15,0,147,15,3,30,48,150,0,12,6,0,0,0,0,3,0,0,18,0,0,0,0,0,0,0
0,0,0,0,0,147,3,3,18,6,0,39,150,12,57,66,0,0,0,0,21,0,0,18,0,0,0,0,0,0,0,0,0,0,0,0,0,0,150,0,15,0,3,9,147,12,24,0,0,147,0,0,0,0,0,0,0,3,0,0,0,0,0,0
0,0,0,0,147,0,3,147,150,33,9,3,33,66,24,30,12,12,18,0,12,3,0,3,0,0,0,0,0,0,0,0,0,0,0,3,0,147,9,0,6,6,18,147,36,147,150,30,18,9,0,0,0,3,0,0,0,0,0,0,0,0,0,0
0,0,0,0,0,0,0,147,9,24,3,147,75,24,0,147,6,9,0,0,0,0,9,0,0,0,0,0,0,0,0,0,0,3,0,0,0,0,0,150,0,12,0,9,147,147,6,0,0,0,0,0,0,0,0,3,0,0,0,0,0,0,0,0
0,0,0,0,0,0,0,3,147,3,3,147,6,27,0,45,0,0,0,0,0,0,3,0,0,0,0,0,0,0,0,0,0,0,3,0,0,0,150,15,147,6,0,147,150,3,3,45,54,0,0,0,0,0,0,0,0,0,0,0,0,0,0,0
0,0,0,0,0,0,150,0,3,3,147,0,9,6,33,9,6,0,147,0,0,0,147,3,0,0,0,0,0,0,0,0,0,0,147,0,0,0,150,150,15,0,6,9,36,3,6,27,0,3,0,0,0,0,6,0,0,0,0,0,0,0,0,33
0,0,0,0,0,0,147,147,12,3,54,147,15,15,3,66,9,24,0,0,0,0,0,0,0,0,0,0,0,0,0,0,0,0,0,0,0,0,147,135,0,147,3,147,6,9,0,15,0,9,3,0,0,0,0,0,0,15,0,0,0,0,0,0
0,0,0,0,0,0,0,6,12,6,147,21,12,15,36,0,21,0,18,0,0,0,36,0,0,9,0,0,0,0,0,0,0,0,0,0,0,0,0,6,141,0,9,9,12,6,24,0,0,30,0,0,0,9,0,0,6,0,0,0,0,0,0,0
0,0,0,0,0,0,0,0,6,150,27,147,9,3,81,12,9,0,33,3,3,0,0,3,3,0,0,0,0,0,0,0,0,0,3,0,0,0,150,3,3,3,0,18,0,147,33,6,0,27,0,0,0,0,0,0,0,0,0,0,0,0,0,0
0,0,0,0,0,0,0,147,6,18,12,3,0,87,6,3,12,24,3,18,0,0,6,0,0,0,0,0,0,0,0,0,0,0,0,0,0,0,0,0,150,0,3,3,3,150,6,147,9,0,0,0,0,0,0,0,0,0,0,0,0,0,69,0
0,0,0,0,0,147,0,0,6,21,60,21,36,24,6,0,0,0,0,0,0,0,0,0,0,0,0,0,0,0,0,0,0,0,0,0,0,0,0,6,147,15,150,150,3,3,6,0,0,0,0,0,0,0,0,0,0,0,0,0,0,0,0,0
0,0,0,0,0,0,3,9,147,6,18,30,9,42,3,33,3,0,3,0,21,0,0,0,0,0,0,0,0,0,0,0,0,0,0,0,150,0,0,3,147,3,0,15,0,3,0,0,30,0,0,0,3,0,0,0,0,0,0,0,0,0,0,0
0,0,0,0,0,0,0,6,150,0,30,3,21,0,36,24,3,3,0,0,9,147,0,0,0,0,0,0,0,0,0,0,3,0,0,42,0,6,0,0,0,150,147,18,36,9,0,3,18,0,3,0,147,6,0,0,0,0,0,0,0,0,0,0
0,105,0,0,0,0,0,0,6,30,12,150,0,0,42,9,0,15,0,0,30,0,0,0,9,0,0,0,0,36,0,0,150,0,0,0,0,0,0,150,15,0,9,6,39,15,0,0,0,0,0,0,0,0,0,0,0,0,0,0,0,0,0,0
0,0,0,0,0,0,0,9,0,33,60,24,15,36,129,6,3,3,0,0,0,0,0,66,0,0,0,0,0,0,90,0,0,0,0,0,0,0,0,150,0,141,12,15,12,0,9,6,0,0,0,0,0,0,0,0,0,0,0,0,0,0,0,0
0,0,0,0,0,0,0,0,0,24,9,9,150,111,12,39,0,0,0,0,0,0,0,0,6,0,0,0,0,0,0,0,0,0,0,0,0,0,0,0,150,60,15,6,3,150,6,3,3,3,3,0,0,0,0,0,0,0,0,0,0,0,0,0
0,0,0,0,0,0,0,0,147,147,9,27,132,0,12,0,21,36,0,0,0,0,0,0,0,0,0,0,0,0,0,0,0,0,0,0,0,0,0,18,150,0,9,3,0,147,0,24,0,0,0,0,0,0,0,0,0,0,6,0,0,0,0,0
0,0,0,0,0,0,0,0,0,147,0,24,12,27,147,0,21,3,0,0,0,6,0,0,0,0,0,0,0,0,0,0,0,0,0,0,0,0,0,3,150,39,0,21,15,15,3,0,0,0,3,0,0,3,0,0,0,0,0,0,0,0,0,0
0,0,0,0,0,0,0,0,147,3,120,18,21,6,24,0,12,3,0,0,3,0,0,0,0,0,0,0,0,0,0,0,0,0,0,0,0,0,3,147,15,6,6,9,21,0,9,0,0,150,0,0,0,3,0,0,0,0,0,0,0,0,0,0
0,0,0,0,0,0,147,0,48,147,12,9,27,18,39,0,0,3,0,0,0,0,0,0,9,0,0,0,0,0,0,0,0,0,0,0,0,0,3,150,0,150,0,3,18,12,15,0,0,0,0,0,0,0,0,0,0,0,0,0,0,0,0,0
0,0,0,0,0,3,3,0,147,39,0,0,21,0,24,30,0,30,6,0,42,0,3,0,0,0,0,0,0,0,0,0,0,0,0,0,0,0,3,6,150,6,15,3,12,24,15,3,0,0,0,0,0,0,0,0,0,0,0,0,0,0,0,0
0,0,0,0,0,0,0,0,0,45,24,42,150,12,0,9,0,3,9,0,0,0,0,0,0,0,0,0,0,0,0,0,0,0,0,0,0,3,6,150,3,147,6,147,3,0,0,147,0,0,0,0,0,0,0,0,9,0,0,0,0,0,0,0
0,0,0,0,0,147,0,0,3,147,24,42,24,21,33,9,0,9,0,0,0,0,0,0,0,0,0,0,0,0,0,0,0,0,0,0,0,0,0,0,6,0,15,150,0,12,6,0,0,0,0,0,0,0,0,0,0,0,0,0,0,0,0,0
0,0,0,0,0,0,6,0,147,30,0,36,30,42,18,0,147,0,0,0,0,0,0,3,0,0,0,0,0,0,0,0,0,0,0,0,0,3,0,0,150,3,6,0,21,30,3,0,6,0,0,0,0,0,0,0,0,0,0,0,0,0,0,0
0,0,0,0,0,12,0,0,12,132,33,45,27,57,147,0,0,0,0,6,0,0,0,0,3,0,0,0,0,0,0,0,0,0,0,0,0,0,9,150,21,9,147,12,15,27,3,27,21,3,0,6,0,0,0,0,0,3,0,0,0,0,0,0
0,0,0,0,3,141,0,0,42,6,42,3,24,0,18,45,147,6,0,6,3,0,0,0,0,0,0,0,0,0,0,0,0,0,0,0,0,3,150,0,0,3,0,33,30,3,12,147,0,0,6,0,0,0,0,0,0,0,0,0,0,0,0,0
0,0,0,0,0,0,0,0,9,147,45,33,3,24,51,51,0,147,0,3,6,0,3,0,0,0,0,0,0,0,0,0,0,0,0,0,0,0,0,150,24,9,0,147,3,0,3,6,0,0,0,0,0,9,0,0,0,0,0,0,0,0,0,0
0,0,0,0,0,0,0,0,27,24,48,15,18,30,24,147,0,0,3,0,6,0,0,0,54,0,0,0,0,0,0,0,0,0,0,0,0,3,150,3,0,0,12,3,6,39,150,3,0,21,0,0,0,0,0,0,0,0,0,0,0,0,0,0
0,0,0,0,0,147,0,3,18,9,30,27,30,21,0,0,0,147,0,0,0,0,0,39,0,0,0,0,0,0,0,0,0,0,0,0,0,150,0,9,6,6,0,9,3,0,3,0,0,3,3,0,0,0,0,0,0,0,0,0,0,0,0,0
