0,0,0,0,0,0,0,0,0,196,20,28,200,20,4,44,24,0,20,4,0,0,0,4,20,0,0,0,0,0,0,0,0,0,0,0,0,0,0,200,0,4,16,0,0,168,0,200,20,0,16,0,0,0,0,0,0,0,0,0,0,0,8,8
0,196,0,0,0,0,0,4,4,8,28,8,72,12,4,12,40,32,12,0,12,12,0,0,0,12,0,0,0,0,0,0,0,0,0,0,0,0,0,0,12,0,0,0,20,200,0,20,4,4,20,4,0,0,0,0,4,0,0,0,0,0,0,0
0,0,0,0,0,0,0,0,4,4,0,200,28,32,40,184,20,4,20,16,16,0,0,0,0,0,0,0,0,0,0,0,0,4,0,0,0,24,0,196,0,12,200,196,12,4,8,28,4,196,0,0,4,0,0,0,0,0,0,0,0,0,0,0
0,0,0,0,0,0,196,0,4,32,32,200,16,196,32,20,4,0,20,0,4,12,4,0,0,0,0,0,0,0,0,0,0,20,0,0,60,0,0,8,200,4,184,12,24,196,12,56,0,0,0,0,12,0,0,0,0,0,0,0,0,0,0,0
0,0,0,0,0,0,0,196,0,4,196,4,196,44,28,8,4,0,88,0,28,0,0,20,4,12,0,0,0,0,0,0,0,0,24,0,0,4,0,4,196,196,28,4,4,196,0,20,16,4,4,0,0,0,0,0,0,0,0,0,0,0,0,0
0,0,0,0,0,0,0,0,0,196,32,36,24,8,32,24,28,8,0,0,0,192,0,16,0,0,0,0,0,0,0,0,0,0,0,0,0,0,196,0,0,72,4,4,28,0,196,12,20,4,0,0,0,4,0,0,0,0,0,0,0,0,0,0
0,0,0,0,0,0,0,0,200,0,16,188,12,24,4,24,20,0,36,0,24,12,0,12,0,12,0,0,0,0,0,0,0,0,0,0,0,0,4,0,28,8,28,200,52,0,24,68,8,0,28,0,4,0,0,0,0,0,0,0,0,0,0,0
0,0,0,0,0,0,0,0,4,8,196,80,28,20,12,24,28,0,0,196,12,12,0,0,12,0,0,0,0,0,0,0,0,0,0,0,0,0,0,0,20,200,4,12,0,4,4,0,196,4,0,0,196,0,0,0,4,0,0,0,0,0,0,0
0,0,0,0,0,0,0,0,196,4,48,40,36,8,12,56,24,0,0,20,0,8,0,8,0,0,28,0,0,0,0,0,0,0,0,0,0,0,0,0,0,12,200,4,16,64,40,12,0,4,0,8,12,0,20,0,0,0,0,0,0,0,0,0
0,0,0,0,0,0,0,0,8,40,196,0,56,20,8,4,48,12,0,4,0,40,0,36,0,0,0,0,0,0,0,0,0,0,0,0,0,0,0,200,0,200,44,100,200,0,12,12,20,0,44,0,0,0,4,0,0,0,0,0,0,0,0,0
0,0,0,0,0,0,0,196,0,148,12,48,36,28,16,28,28,196,16,0,20,16,0,0,0,0,0,0,0,0,0,0,0,0,0,0,0,0,0,0,0,200,4,12,4,4,8,200,0,0,0,0,0,12,0,0,0,0,12,116,0,0,0,0
0,0,0,0,0,4,0,0,8,8,200,24,8,0,32,56,24,12,20,8,196,0,16,0,4,0,0,0,0,0,0,0,0,0,0,0,0,0,0,0,200,4,0,4,200,4,48,0,0,0,0,0,0,0,0,4,8,0,0,0,0,0,0,0
0,0,0,0,0,0,0,12,20,4,20,40,32,32,16,0,28,196,20,0,0,8,4,0,36,0,0,0,0,0,0,0,0,0,4,0,0,0,0,200,0,136,28,20,200,0,4,16,0,0,0,0,0,0,0,0,0,0,0,0,0,0,0,0
0,0,0,0,0,0,0,196,0,196,28,28,16,64,0,168,0,0,8,0,0,48,12,0,0,0,0,0,0,0,0,0,0,0,0,0,0,0,100,0,84,196,20,196,16,8,196,0,4,168,4,0,0,0,0,0,4,0,0,0,0,0,0,0
0,0,0,0,0,0,0,4,0,132,8,196,60,44,20,104,196,16,0,28,0,8,0,12,0,0,0,0,0,0,0,0,0,0,0,0,0,0,0,4,200,0,196,8,8,32,68,0,0,28,0,0,0,8,0,24,0,0,0,0,0,0,0,0
0,0,0,0,0,0,0,8,0,12,8,32,56,32,16,12,12,0,0,36,0,0,0,0,0,12,0,0,0,0,0,0,0,0,0,0,0,0,0,0,8,0,200,4,196,32,196,16,52,0,0,0,4,0,0,0,0,0,0,0,0,0,0,0
0,0,0,0,0,0,196,0,8,4,20,196,196,12,20,32,36,4,8,0,28,4,0,0,0,0,0,0,0,0,0,0,0,0,0,0,0,0,196,0,28,0,24,196,12,12,8,12,0,0,16,0,0,16,0,0,0,0,0,0,0,0,0,0
0,0,0,80,0,0,196,0,4,192,12,16,20,24,196,84,4,0,16,4,4,4,20,4,4,0,0,0,0,0,0,0,0,12,0,4,196,0,0,0,0,196,8,4,4,12,196,4,44,28,0,0,4,0,0,0,0,0,0,0,0,0,0,0
0,0,0,0,0,0,0,4,196,196,12,196,36,4,44,196,168,76,0,8,0,0,16,4,0,0,8,0,0,0,0,0,0,0,0,0,0,196,0,0,200,0,196,24,20,0,4,196,0,4,0,0,0,0,0,0,0,0,0,0,0,0,0,0
0,0,0,0,196,0,4,0,0,200,40,52,48,196,20,0,20,40,0,12,0,12,76,4,4,0,0,0,0,0,0,0,0,0,0,0,0,0,0,0,8,200,0,60,12,12,8,28,0,12,0,0,0,0,0,0,0,0,0,0,0,0,0,0
0,0,0,0,0,196,4,0,20,196,192,16,88,196,28,28,4,20,8,64,8,0,16,0,0,196,0,0,0,0,80,0,0,0,0,0,0,8,4,0,4,200,0,196,4,84,4,28,196,0,0,4,0,0,0,0,0,0,0,0,0,0,0,0
0,0,0,0,0,4,0,196,4,20,196,16,28,20,32,20,0,200,12,0,0,12,0,0,0,0,0,0,0,0,0,0,0,0,0,0,0,0,8,0,200,196,16,12,0,48,8,196,0,0,0,0,0,4,0,0,0,4,0,0,0,0,192,0
0,196,0,0,0,192,0,4,0,20,196,16,20,196,32,24,28,28,0,12,0,0,0,0,0,4,0,0,0,0,0,0,0,0,0,0,0,0,0,0,200,8,36,200,0,12,12,4,0,0,0,0,0,0,0,0,0,0,0,0,0,0,0,0
0,0,0,0,0,0,0,0,196,4,12,16,24,32,32,200,24,12,28,0,0,0,0,0,8,0,0,0,0,0,0,0,0,0,0,0,0,0,0,0,200,12,12,4,8,196,0,0,0,0,0,0,0,0,4,0,0,0,0,0,0,0,0,0
0,0,0,0,0,0,0,24,0,12,20,196,52,32,84,12,32,0,4,0,12,0,12,8,8,0,0,0,0,0,0,0,0,0,0,0,0,0,0,0,12,4,196,0,76,36,28,44,200,0,20,0,0,0,0,12,0,0,0,0,0,0,0,0
0,0,0,0,0,0,4,0,20,0,200,28,28,28,12,196,40,24,4,0,0,4,0,0,0,0,0,0,0,0,0,0,0,0,0,0,4,0,0,200,196,4,16,4,12,12,200,12,4,0,0,0,0,0,16,0,0,0,0,0,0,0,0,0
0,0,0,0,0,0,0,0,0,0,196,28,12,32,0,32,44,32,0,0,0,4,0,0,0,28,0,0,0,0,0,0,0,0,0,0,0,0,0,0,24,196,196,56,20,28,20,0,0,24,0,0,0,0,0,4,0,196,0,0,0,0,0,0
0,0,0,0,0,0,0,40,0,196,20,28,36,12,20,68,0,8,36,0,0,0,56,196,0,0,0,0,0,0,0,0,0,0,0,0,0,200,0,0,8,8,200,16,4,44,24,196,0,0,0,0,0,0,0,0,8,0,0,0,0,0,0,0
0,192,0,0,0,4,0,0,20,192,28,20,16,4,52,36,12,0,16,8,200,0,8,0,64,0,0,0,0,0,0,0,0,200,0,0,0,20,0,0,12,0,4,4,24,8,0,12,12,0,8,0,0,0,0,20,0,0,16,0,0,0,4,0
0,0,0,4,0,0,0,8,0,24,200,40,12,36,32,32,40,4,0,0,0,0,0,0,0,0,0,0,0,0,0,0,0,0,0,0,0,0,0,4,0,0,12,12,200,12,8,4,0,4,0,0,0,0,0,4,0,0,0,0,0,0,0,0
0,0,0,0,0,0,0,0,4,24,196,28,60,8,32,20,24,12,8,0,0,0,0,8,16,0,0,0,0,0,0,0,0,0,0,0,0,0,0,0,0,12,12,0,200,0,0,8,196,0,8,4,0,8,0,0,0,0,0,0,0,0,0,0
0,0,0,0,0,0,0,196,0,20,20,12,8,80,200,32,4,20,0,0,28,36,8,0,0,0,0,0,0,0,0,180,4,0,0,0,0,0,0,0,200,8,16,8,0,200,12,4,4,0,16,0,0,0,4,0,0,0,0,0,0,0,0,0
0,0,0,0,0,0,0,4,8,196,196,4,100,12,40,36,32,4,196,0,0,0,8,0,0,4,0,0,0,0,0,0,0,0,0,0,0,52,0,0,16,20,200,12,196,28,16,20,0,0,4,0,0,8,0,0,188,0,0,0,0,0,0,0
0,0,0,0,0,0,4,196,196,24,196,8,40,0,84,52,16,16,52,0,24,28,0,12,0,0,0,0,0,0,0,0,0,0,0,0,0,8,200,16,0,200,36,20,196,4,92,0,0,0,12,0,20,0,0,0,0,4,0,0,0,0,0,0
0,0,0,0,0,0,196,4,0,4,196,44,12,20,12,40,0,196,0,0,8,4,0,4,0,64,0,0,0,0,0,4,0,0,0,0,0,0,0,200,0,0,0,0,64,20,44,4,196,0,0,0,16,0,4,4,4,0,0,0,0,0,0,0
0,0,0,0,0,16,0,0,40,8,184,8,200,32,32,12,0,4,32,0,0,0,0,196,4,0,0,12,0,0,0,0,0,0,0,0,28,76,0,4,0,200,4,4,16,8,200,4,0,16,12,0,4,44,0,0,0,0,4,0,0,0,0,0
0,0,0,0,0,0,0,0,4,32,200,200,32,20,20,8,40,4,40,12,0,0,0,0,20,0,0,0,0,0,0,0,0,0,0,0,0,0,0,0,0,200,48,12,16,8,200,0,0,56,0,0,0,4,0,0,0,0,0,0,0,0,0,0
0,0,0,0,0,4,0,0,28,200,16,36,40,28,0,196,20,28,0,12,0,0,4,40,0,0,0,0,0,0,0,0,0,0,0,0,0,0,200,12,12,12,4,200,44,16,28,28,16,20,104,0,200,0,0,0,12,0,0,0,0,0,0,0
0,0,0,0,0,0,0,0,8,196,12,48,28,44,64,12,8,0,20,4,0,8,0,32,0,32,0,8,0,0,0,0,0,0,0,0,0,4,0,0,4,8,100,12,200,4,44,12,0,0,20,0,0,0,0,0,0,0,0,0,0,0,0,0
0,0,0,0,0,0,0,0,12,200,36,12,28,16,16,196,20,16,24,0,32,4,0,0,0,0,0,0,0,0,0,4,0,0,0,0,0,0,200,0,0,0,16,200,4,196,16,12,20,8,12,0,0,8,0,0,0,0,0,0,0,0,0,0
0,0,4,0,0,0,0,4,4,28,196,20,196,20,36,8,12,32,0,16,0,0,0,0,8,0,0,4,0,0,0,0,0,0,0,0,0,0,0,4,0,196,0,24,4,0,0,64,0,20,0,4,4,0,196,24,0,0,0,0,0,0,0,0
0,0,0,0,0,0,4,16,0,196,20,12,200,16,12,28,12,28,4,0,0,24,4,8,0,0,0,0,0,0,0,0,0,0,0,0,0,0,0,0,0,0,200,0,4,0,0,12,12,0,0,0,0,0,36,0,0,0,0,0,0,0,0,0
0,0,0,0,0,4,0,8,196,0,12,20,48,24,8,36,8,12,16,44,24,0,0,4,4,0,0,0,0,0,0,0,0,0,0,0,0,0,0,28,4,0,12,196,12,4,16,48,12,196,20,0,0,0,0,0,0,0,0,0,0,0,0,0
0,0,0,0,0,0,4,4,196,0,16,16,28,60,44,200,196,52,24,0,0,36,44,0,0,0,0,0,0,0,0,0,0,0,0,0,0,0,0,200,0,4,12,200,12,36,8,12,168,16,4,0,0,0,12,0,0,0,0,0,0,0,0,0
0,0,0,0,0,0,0,4,192,140,196,44,196,64,24,24,12,16,4,24,0,0,12,0,20,52,0,0,0,0,96,0,0,0,196,0,0,0,0,8,200,0,0,196,4,64,20,8,0,8,0,0,12,0,0,12,0,0,0,0,0,0,0,0
0,0,0,0,0,0,0,8,0,20,20,16,60,200,28,196,84,12,0,16,0,4,4,0,0,0,0,0,0,0,0,0,0,0,0,0,0,0,0,200,0,12,4,0,0,200,64,28,0,12,0,8,196,0,0,0,0,0,0,0,0,0,0,0
188,0,0,0,0,0,196,4,0,12,28,20,76,196,40,28,64,0,8,44,0,12,4,4,12,4,0,0,0,0,0,0,0,0,0,0,0,0,44,0,0,196,4,0,16,28,88,200,0,0,0,0,0,0,0,4,0,0,0,0,0,0,0,0
0,0,0,0,0,4,0,0,8,196,0,32,28,40,200,16,196,16,0,0,0,0,0,0,12,0,0,0,0,0,0,0,0,0,0,0,0,0,0,196,0,4,20,0,24,20,8,12,4,36,4,32,4,0,0,0,0,0,0,0,0,0,0,0
0,0,0,0,0,0,12,0,8,4,196,32,12,196,12,32,36,12,0,32,4,0,4,4,0,0,0,0,0,0,0,0,0,0,0,0,0,0,0,0,200,28,196,0,0,196,68,4,16,8,0,4,196,0,4,196,0,0,0,0,0,0,0,0
0,0,0,0,0,0,0,4,76,12,200,20,32,28,196,8,12,4,28,0,8,0,0,4,0,0,0,0,0,0,0,0,0,0,0,0,0,0,0,0,0,200,8,196,0,36,8,12,56,0,4,0,0,0,0,4,0,0,0,0,0,0,0,0
