0,0,0,0,0,0,0,27,9,9,36,63,255,255,126,0,9,18,0,0,0,54,0,0,0,0,0,0,0,0,0,0,0,0,0,0,0,9,0,9,0,0,45,255,9,27,45,9,0,0,9,0,0,0,0,255,9,0,0,0,0,0,0,0
0,0,0,255,0,0,0,0,0,18,255,18,18,45,108,117,9,27,0,63,36,0,0,9,27,0,0,0,0,0,0,0,0,9,0,0,0,0,18,9,255,36,18,18,36,255,0,0,0,72,0,0,0,0,0,36,0,0,0,0,0,0,0,0
0,0,0,0,0,0,0,27,27,255,81,243,9,18,72,18,36,27,0,9,0,18,0,9,0,0,0,0,0,0,0,0,0,0,0,0,255,0,0,255,9,0,72,0,27,27,0,36,0,0,0,0,0,9,0,0,0,0,0,0,0,0,0,0
0,0,0,0,0,0,0,0,9,255,45,255,126,45,54,27,27,27,0,9,126,255,0,0,0,0,0,0,0,0,0,0,0,0,0,0,255,0,0,0,9,18,255,9,63,9,0,45,0,255,27,0,0,0,0,0,0,0,0,0,0,0,0,0
0,0,0,0,0,0,0,0,255,9,255,27,45,54,45,0,63,45,0,0,72,0,18,0,0,0,0,0,0,0,0,0,0,0,0,0,0,0,0,9,18,0,255,0,9,255,81,27,18,9,9,27,0,9,0,0,0,0,0,0,0,0,0,0
0,0,0,0,0,0,0,18,0,45,255,27,18,36,63,45,27,90,255,0,0,0,36,0,0,0,0,0,0,0,0,0,0,0,0,0,0,9,0,18,255,45,255,9,255,27,126,9,9,9,9,9,45,0,0,0,0,0,0,0,0,0,0,0
0,0,0,0,0,0,0,0,45,255,255,90,45,72,72,9,72,0,0,27,255,9,36,0,0,9,0,0,0,0,255,0,0,0,0,0,0,0,0,255,0,36,255,255,18,54,27,9,45,0,0,0,45,0,0,0,0,0,54,0,0,0,0,0
0,0,0,0,0,0,0,0,9,9,54,255,255,36,45,72,144,9,0,0,0,0,0,0,0,0,0,0,0,0,0,0,0,0,0,0,0,0,0,0,18,36,255,72,255,54,36,0,9,0,18,0,0,0,0,27,0,0,0,0,0,0,0,0
0,0,0,0,0,0,0,9,9,255,27,72,27,144,27,81,72,63,18,36,0,0,0,0,0,0,0,0,0,0,0,0,0,0,0,0,0,0,0,225,255,0,54,255,36,63,9,0,0,9,0,27,0,0,0,9,0,0,0,0,0,0,0,0
0,0,0,0,0,0,0,0,9,9,255,45,45,126,18,45,72,0,18,0,9,0,27,18,0,9,0,9,0,0,0,255,0,0,0,0,0,0,0,0,54,255,81,0,9,72,54,255,255,18,0,27,0,0,0,0,0,0,0,0,0,0,0,0
0,0,0,0,0,0,0,0,255,45,18,255,72,108,0,27,63,18,0,36,255,0,0,0,0,0,0,0,0,0,0,0,0,0,0,0,0,0,0,27,255,9,27,81,36,54,255,54,255,36,0,0,0,0,0,0,0,0,0,0,0,0,0,0
0,0,0,9,0,0,0,255,225,0,36,255,54,216,0,9,117,0,9,27,0,0,0,0,45,0,0,0,0,0,0,0,0,0,0,0,0,0,0,0,255,27,27,36,18,255,0,255,0,18,0,9,0,0,0,108,18,0,0,0,0,0,0,0
0,45,0,0,0,0,9,255,9,45,45,108,255,36,162,54,27,255,9,0,54,0,9,0,0,0,0,0,0,0,0,0,0,0,0,0,0,9,18,255,54,255,18,27,255,36,27,9,0,0,255,9,0,27,0,0,0,0,0,0,0,0,0,0
0,0,0,0,0,0,9,0,0,27,63,27,36,126,255,99,144,45,0,0,45,0,45,0,9,0,0,0,0,0,0,0,0,0,27,0,0,0,0,0,255,27,45,9,255,27,9,99,0,36,18,9,0,0,99,18,0,0,0,0,0,0,0,0
0,0,0,0,0,0,9,18,18,255,45,45,45,45,27,27,81,126,0,36,0,0,0,0,255,9,0,0,0,0,0,0,0,9,0,0,0,255,0,0,0,0,36,255,0,27,0,63,255,0,9,0,0,0,0,0,0,0,0,0,0,0,0,0
0,0,0,0,0,0,0,255,9,36,72,27,255,0,81,0,108,45,0,9,0,0,0,0,0,0,0,0,0,0,0,0,0,0,0,0,0,0,36,0,0,27,255,9,9,0,0,9,18,9,0,0,0,0,0,0,0,0,0,0,0,0,0,0
0,0,0,0,0,0,0,0,255,18,63,63,54,255,90,27,0,0,54,9,0,72,9,0,0,45,0,0,0,0,0,0,0,0,0,0,0,0,0,0,255,0,0,54,45,255,72,0,9,36,0,0,0,45,255,0,0,0,0,0,0,0,0,0
0,0,0,0,0,0,0,9,255,18,27,72,90,0,0,108,27,0,255,9,63,45,0,0,0,0,0,0,0,0,0,0,0,0,9,0,0,255,0,18,0,0,9,9,9,255,9,0,36,36,0,27,0,0,18,0,0,0,0,0,0,0,0,0
0,0,0,0,0,0,0,0,9,27,255,135,54,63,27,36,27,0,81,27,0,0,9,0,255,45,0,0,0,255,0,0,0,0,0,0,0,0,0,0,255,18,18,9,255,18,0,9,36,0,0,0,0,0,0,0,0,0,0,0,0,0,0,0
0,0,0,0,0,0,0,0,9,72,45,18,9,255,90,9,255,72,45,63,0,0,27,0,0,0,0,0,0,0,0,0,0,0,0,0,0,0,0,255,0,0,0,255,18,0,0,9,0,45,0,27,0,0,45,0,0,0,0,0,0,0,0,0
0,18,0,0,0,0,9,0,0,18,255,27,99,0,63,90,45,0,18,0,0,0,0,135,0,9,0,0,0,0,0,0,0,0,0,0,0,0,0,0,255,9,18,0,54,0,9,18,54,18,54,0,18,255,0,90,0,0,0,0,0,0,0,0
255,0,0,0,0,0,0,0,9,255,27,255,9,27,117,255,9,99,54,0,27,0,18,63,0,0,0,0,0,0,0,0,0,0,0,0,0,0,0,0,255,9,0,45,27,27,63,27,0,9,0,0,0,0,0,255,81,0,0,0,0,0,0,0
0,0,0,0,0,9,255,0,9,27,36,63,45,9,18,255,45,9,0,36,0,54,0,54,0,0,0,0,0,0,0,0,0,0,0,0,0,0,18,255,255,255,9,54,27,9,27,255,0,90,0,0,9,0,0,0,0,0,0,0,0,0,0,0
0,9,0,0,0,0,9,9,18,255,81,36,36,27,18,36,0,255,63,0,0,0,0,0,27,0,0,0,0,0,0,0,0,0,0,0,0,0,0,18,0,0,255,27,0,0,9,0,0,54,0,0,0,36,0,0,0,0,0,0,0,0,0,0
0,0,0,0,0,0,9,45,9,27,72,255,27,72,18,18,54,0,171,0,0,0,54,0,0,0,0,0,0,0,0,0,0,0,0,0,0,0,27,0,0,255,0,54,0,153,9,81,255,9,36,0,0,0,0,0,0,0,0,0,0,0,0,0
0,0,0,0,0,0,0,0,0,9,18,255,216,27,36,0,255,27,45,0,27,54,0,0,255,9,0,0,0,0,0,0,0,18,0,0,0,255,0,27,0,18,255,0,255,54,9,255,0,0,0,0,0,90,0,0,0,0,0,0,0,0,0,0
0,0,0,0,0,0,9,0,255,45,9,45,36,36,36,9,81,18,0,0,0,9,27,0,0,0,0,0,0,0,0,0,0,0,0,0,0,0,0,255,27,0,18,255,18,18,54,255,0,9,36,0,0,0,45,0,0,27,0,0,0,0,0,0
0,0,0,0,0,9,255,0,27,9,255,63,90,0,90,63,27,18,9,0,0,0,0,9,0,0,0,0,0,0,0,0,0,0,0,0,0,0,0,0,9,36,255,63,36,255,36,63,9,54,0,0,0,0,255,0,0,18,0,0,0,0,0,0
0,0,0,0,0,0,0,255,9,36,255,72,27,255,9,18,117,0,27,0,189,27,0,36,0,0,0,0,0,0,0,0,0,0,0,0,0,0,255,9,0,0,18,45,255,36,36,9,0,18,0,0,0,0,18,0,0,0,0,0,0,0,0,0
0,0,0,0,0,0,9,0,0,0,27,9,144,99,0,255,27,18,0,0,45,45,0,0,0,0,0,0,0,0,0,0,0,0,0,0,0,0,0,0,18,255,27,18,45,63,63,0,9,0,0,255,0,9,0,0,0,0,0,0,0,0,0,0
0,0,0,0,0,0,9,0,0,255,18,36,45,63,9,171,63,108,81,0,18,0,0,0,9,18,0,0,0,0,0,0,0,0,0,0,0,0,0,0,0,9,216,72,0,255,0,63,45,27,0,0,0,0,0,0,0,0,0,0,0,0,0,0
0,0,0,0,0,0,0,0,9,255,36,9,63,45,9,90,27,63,0,0,0,0,18,108,9,0,0,0,0,0,0,0,0,0,0,0,0,0,0,0,18,0,18,255,63,63,36,54,9,0,0,0,0,0,0,0,0,0,0,0,0,0,0,0
0,0,0,0,0,0,0,0,18,72,18,255,18,63,36,36,0,27,72,0,0,0,0,9,0,0,0,0,0,0,0,0,0,0,0,0,0,0,9,9,0,0,0,255,18,255,36,36,255,126,0,0,0,0,0,0,0,0,0,0,0,0,0,0
0,0,45,0,0,0,36,18,0,18,255,36,255,255,27,27,18,72,0,27,27,27,36,0,0,27,0,0,0,0,0,0,0,0,0,0,0,0,0,0,255,18,255,63,45,255,27,36,0,18,36,0,0,9,0,9,0,0,0,0,0,0,0,0
0,0,0,0,255,0,0,255,9,45,63,54,255,45,18,63,9,81,54,9,81,0,0,0,0,0,0,0,0,0,0,0,0,0,0,0,0,0,27,0,0,9,255,171,0,63,27,255,27,0,9,0,0,0,0,0,0,0,0,0,0,0,0,0
0,0,0,0,0,0,0,0,18,255,36,72,81,255,0,72,0,27,0,0,0,0,72,0,9,0,0,0,0,0,0,0,0,0,0,0,0,27,0,0,0,27,255,36,0,45,27,36,36,0,0,0,0,0,0,0,0,0,0,0,0,0,0,0
0,0,0,0,0,0,0,0,0,36,255,27,27,72,27,54,90,0,18,9,0,90,45,0,0,0,0,0,0,0,0,0,0,0,0,18,0,0,9,0,0,255,27,0,45,9,36,27,0,27,255,255,255,0,0,0,0,108,0,0,0,0,0,0
0,0,0,18,0,9,0,0,18,255,54,90,255,9,144,0,54,0,45,9,0,0,0,36,255,0,0,0,0,0,0,9,0,0,0,9,0,0,0,9,255,9,27,0,27,9,255,0,63,255,0,0,0,36,0,0,0,0,0,0,0,0,0,0
0,0,0,9,0,0,0,9,255,9,45,72,255,180,9,99,9,27,0,108,255,27,0,0,0,0,0,0,0,9,0,0,0,0,0,0,0,0,0,0,0,0,27,72,0,255,54,255,0,9,27,0,0,0,0,27,0,0,0,0,0,0,0,0
0,0,0,0,0,0,9,0,9,18,255,54,54,27,27,54,27,9,0,0,45,0,90,9,0,0,0,0,0,0,0,0,0,0,0,0,0,0,0,0,45,27,0,255,45,45,0,126,0,0,0,0,255,0,27,0,0,0,0,0,0,0,0,0
0,0,0,0,0,0,0,255,255,0,0,63,18,255,0,81,0,45,0,0,0,0,0,0,0,81,0,0,0,0,0,0,0,0,0,0,0,0,0,255,0,18,9,9,45,0,18,255,99,0,0,18,9,0,9,0,0,0,0,0,0,0,0,0
0,0,0,0,0,0,0,0,36,255,45,27,255,54,90,108,27,0,9,9,9,0,0,0,0,0,0,0,0,0,0,0,0,0,0,0,0,9,0,0,255,9,63,9,255,63,0,0,0,36,0,9,9,0,9,0,90,0,0,0,0,0,0,0
0,0,0,0,0,18,0,9,255,9,90,72,0,45,54,36,0,255,81,18,0,54,0,0,0,0,0,0,0,0,0,0,0,0,0,0,0,0,0,0,18,255,0,45,9,45,252,9,9,0,0,0,0,0,0,0,18,0,0,0,0,0,0,0
0,0,0,0,0,0,18,0,255,0,243,255,27,27,27,72,63,0,0,81,0,0,0,0,9,27,0,0,0,0,0,0,0,0,0,0,0,0,0,0,0,36,255,18,255,0,54,45,0,0,0,0,0,9,0,0,0,0,0,0,0,0,0,0
0,0,0,0,0,0,0,9,255,9,18,255,0,54,0,18,9,90,0,63,0,0,0,171,36,0,0,0,0,255,0,0,0,0,0,0,0,0,0,0,36,255,18,9,0,0,63,0,18,255,0,0,0,27,0,0,0,0,0,0,0,0,0,0
0,0,0,0,0,0,0,36,0,27,27,27,255,255,36,81,36,27,0,27,0,18,0,0,0,0,0,0,0,0,0,0,0,0,27,0,0,0,0,0,0,0,255,27,0,255,0,27,36,0,18,0,9,0,0,0,0,0,0,0,0,0,0,0
0,0,0,0,0,0,0,0,0,255,27,63,126,108,45,27,27,72,0,27,0,255,0,9,18,0,0,0,0,0,0,0,0,0,0,0,0,0,0,0,255,0,18,9,255,27,0,45,0,0,45,0,0,0,0,0,0,18,0,0,0,0,0,225
0,0,0,0,0,0,0,0,36,255,108,27,27,63,81,63,0,144,0,255,0,255,45,27,0,0,0,0,0,0,0,0,0,0,0,0,0,0,0,9,0,255,18,81,54,9,27,36,36,0,255,18,0,0,255,0,9,0,0,0,0,0,0,0
0,0,0,0,0,9,0,255,9,63,90,36,27,171,255,54,27,0,0,18,0,0,18,0,0,9,0,0,0,0,0,0,0,0,0,0,0,0,0,0,36,0,255,72,9,27,45,0,18,0,0,9,0,0,0,0,0,0,0,0,0,0,0,0
0,0,0,0,0,0,18,0,54,27,255,81,54,72,54,90,0,99,27,0,27,27,0,0,0,0,0,0,0,0,0,0,0,0,0,0,0,0,9,18,63,0,27,108,255,27,99,0,9,45,90,18,0,0,0,45,0,9,0,0,0,0,0,0
