0,0,0,0,0,0,0,6,2,2,14,8,100,98,0,2,28,4,0,0,0,0,12,0,0,0,0,0,0,0,0,0,0,0,0,0,0,2,2,0,0,0,96,6,10,10,2,0,2,2,0,0,0,0,0,2,98,0,0,0,0,0,0,0
0,0,98,0,0,0,0,4,0,0,4,4,98,26,24,10,6,8,2,0,14,0,0,2,6,0,0,0,0,0,0,0,0,0,2,0,0,0,4,98,2,4,8,4,8,98,0,0,16,0,0,0,0,0,0,8,0,0,0,0,0,0,0,0
0,0,0,0,0,0,0,98,6,18,54,6,4,16,2,4,6,0,8,0,2,4,0,2,0,0,0,0,0,0,0,0,0,0,0,0,100,0,0,2,0,100,0,16,6,6,0,8,0,0,0,0,2,0,0,0,0,0,0,0,0,0,0,0
0,0,0,0,0,0,0,0,2,100,10,28,98,10,12,6,6,6,2,0,28,0,98,0,0,0,0,0,0,0,0,0,0,0,0,0,100,0,0,0,4,100,2,2,14,2,10,0,100,0,6,0,0,0,0,0,0,0,0,0,0,0,0,0
0,0,0,0,0,0,0,0,98,6,2,98,12,10,10,14,16,10,0,0,0,0,0,0,4,0,0,0,0,0,0,0,0,0,0,0,0,0,0,2,0,100,4,18,0,6,100,2,4,2,2,2,6,0,0,0,0,0,0,0,0,0,0,0
0,0,0,0,0,0,0,0,4,98,6,10,4,8,14,10,6,20,100,0,0,0,0,8,0,0,0,0,0,0,0,0,0,0,0,0,0,0,100,2,10,4,100,2,6,100,28,2,2,2,2,2,10,0,0,0,0,0,0,0,0,0,0,0
0,0,0,0,0,0,0,98,0,10,20,98,10,16,16,16,2,0,0,98,6,8,2,2,0,0,0,0,0,0,0,0,96,0,0,0,0,0,0,0,100,4,8,100,6,10,98,12,2,0,0,10,0,0,0,0,0,0,12,0,0,0,0,0
0,0,0,0,0,0,0,0,2,2,98,98,12,8,16,10,2,32,0,0,0,0,0,0,0,0,0,0,0,0,0,0,0,0,0,0,0,0,0,0,4,100,8,12,100,16,0,8,2,0,0,4,0,0,0,6,0,0,0,0,0,0,0,0
0,0,0,0,0,0,2,2,0,100,6,6,32,16,18,16,6,14,8,4,0,0,0,0,0,0,0,0,0,0,0,0,0,0,0,0,0,0,0,96,50,0,12,98,14,8,0,2,2,6,0,0,0,0,0,2,0,0,0,0,0,0,0,0
0,0,0,0,0,0,0,2,0,2,10,98,28,10,4,10,0,16,4,0,0,6,4,2,0,2,2,0,0,0,0,66,0,0,0,0,0,0,0,12,0,100,0,18,2,16,12,70,98,4,0,0,6,0,0,0,0,0,0,0,0,0,0,0
0,0,0,0,0,0,0,98,0,98,4,16,10,14,24,6,0,4,0,8,0,98,0,0,0,0,0,0,0,0,0,0,0,0,0,0,0,0,0,100,6,2,6,98,12,8,18,12,100,8,0,0,0,0,0,0,0,0,0,0,0,0,0,0
0,0,2,0,0,0,0,50,98,0,8,12,98,48,2,0,2,26,0,6,0,0,0,0,10,0,0,0,0,0,0,0,0,0,0,0,0,0,0,0,100,6,98,6,8,4,98,0,0,0,4,2,0,0,4,0,24,0,0,0,0,0,0,0
0,10,0,0,0,2,0,98,10,2,10,24,100,8,36,6,12,98,0,12,2,0,2,0,0,0,0,0,0,0,0,0,0,0,0,0,0,2,4,100,4,12,6,98,98,8,6,2,98,2,0,0,0,0,0,0,6,0,0,0,0,0,0,0
0,0,0,0,0,0,0,2,0,6,6,14,28,8,98,22,32,0,10,0,10,0,10,0,2,0,0,0,0,0,0,0,0,0,6,0,0,0,0,100,0,6,2,10,98,6,22,2,8,4,0,0,2,22,0,4,0,0,0,0,0,0,0,0
0,0,0,0,0,0,2,4,4,98,10,10,10,6,10,6,28,0,18,0,8,0,0,0,100,2,0,0,0,0,0,0,0,2,0,0,0,100,0,0,0,0,98,8,6,0,0,14,100,2,0,0,0,0,0,0,0,0,0,0,0,0,0,0
0,0,0,0,0,0,98,0,2,8,16,6,0,100,18,24,10,0,0,2,0,0,0,0,0,0,0,0,0,0,0,0,0,0,0,0,0,0,8,0,0,6,100,2,0,2,0,4,2,2,0,0,0,0,0,0,0,0,0,0,0,0,0,0
0,0,0,0,0,0,0,0,98,4,14,14,100,12,2,20,6,12,0,0,16,0,2,0,10,0,0,0,0,0,0,0,0,0,0,0,0,0,0,0,100,0,10,12,0,100,0,16,2,8,0,0,0,98,0,0,0,10,0,0,0,0,0,0
0,0,0,0,0,0,0,2,4,6,98,16,0,20,0,24,6,0,14,98,2,10,0,0,0,0,0,0,0,0,0,0,0,0,2,0,0,0,100,0,2,4,0,100,2,2,2,0,8,8,0,6,0,4,0,0,0,0,0,0,0,0,0,0
0,0,0,0,0,0,0,2,0,30,6,100,6,8,12,14,0,6,18,6,0,0,2,0,10,98,0,0,0,0,0,98,0,0,0,0,0,0,0,0,100,4,2,98,4,4,2,0,8,0,0,0,0,0,0,0,0,0,0,0,0,0,0,0
0,0,0,0,0,0,0,0,2,16,10,98,4,2,20,16,2,14,10,98,0,0,6,0,0,0,0,0,0,0,0,0,0,0,0,0,0,0,0,0,0,0,100,4,100,0,2,0,0,10,0,6,0,0,10,0,0,0,0,0,0,0,0,0
0,0,0,4,0,0,0,2,0,98,6,4,22,0,14,20,10,0,4,0,0,0,2,0,30,0,0,0,0,0,0,0,0,0,0,0,0,0,0,0,2,100,12,0,0,4,2,4,4,12,0,4,12,98,0,0,20,0,0,0,0,0,0,0
98,0,0,0,0,0,0,0,2,98,100,6,98,26,6,2,2,12,22,0,0,6,14,4,0,0,0,0,0,0,0,0,0,0,0,0,0,0,0,98,0,2,10,0,6,14,6,2,6,0,0,0,0,0,98,0,18,0,0,0,0,0,0,0
0,0,0,0,0,0,2,2,8,98,10,6,14,2,4,10,100,2,0,8,0,12,12,0,0,0,0,0,0,0,0,0,0,0,0,0,0,0,4,100,100,98,12,2,2,6,6,20,100,2,0,0,0,0,0,0,0,0,0,0,0,0,0,0
0,0,2,0,0,2,0,2,4,98,8,18,6,4,8,0,8,98,14,0,0,0,0,6,0,0,0,0,0,0,0,0,0,0,0,0,0,0,0,4,0,100,6,0,0,0,2,12,0,0,0,0,0,0,0,8,0,0,0,0,0,0,0,0
0,0,0,0,0,2,0,2,10,100,6,6,16,4,12,16,38,4,0,0,0,0,12,0,0,0,0,0,0,0,0,0,0,0,0,0,0,0,0,6,0,100,0,2,0,12,34,98,18,2,0,8,0,0,0,0,0,0,0,0,0,0,0,0
0,0,0,0,0,0,0,0,0,48,2,4,100,98,6,8,6,0,10,0,0,6,12,96,0,2,0,0,0,0,0,4,0,0,0,0,0,100,0,6,0,98,4,100,0,100,12,2,0,0,0,0,20,0,0,0,0,0,0,0,0,0,0,0
0,0,0,0,2,0,0,0,98,2,10,8,8,10,8,2,18,0,4,0,0,2,6,0,0,0,0,0,0,0,0,0,0,0,0,0,0,0,100,0,0,6,4,100,4,4,98,12,2,0,8,0,0,10,0,0,0,0,6,0,0,0,0,0
0,0,0,0,98,0,0,2,2,98,6,14,20,20,0,4,14,2,6,0,0,0,0,2,0,0,0,0,0,0,0,0,0,0,0,0,0,0,0,0,2,100,8,14,8,100,8,14,12,2,0,0,0,0,0,98,0,4,0,0,0,0,0,0
0,0,0,0,0,0,98,0,2,98,8,6,16,4,2,98,26,0,6,0,42,0,6,0,8,0,0,0,0,0,0,0,0,0,0,0,0,0,2,98,0,4,10,0,8,100,8,2,4,0,0,0,0,0,4,0,0,0,0,0,0,0,0,0
0,0,0,0,0,0,2,0,0,0,6,32,2,98,22,6,4,0,0,10,0,0,10,0,0,0,0,0,0,0,0,0,0,0,0,0,0,0,0,4,100,0,4,6,0,10,14,14,2,0,98,0,0,0,2,0,0,0,0,0,0,0,0,0
0,0,0,0,0,2,0,0,0,100,10,8,4,2,14,38,14,18,24,4,0,0,0,0,2,4,0,0,0,0,0,0,0,0,0,0,0,0,0,0,2,48,0,100,0,16,0,14,10,0,0,6,0,0,0,0,0,0,0,0,0,0,0,0
0,0,0,0,0,0,0,0,2,8,100,2,10,14,6,2,20,14,0,0,0,0,2,4,24,0,0,0,0,0,0,0,0,0,0,0,0,0,0,0,4,4,14,0,98,14,8,12,2,0,0,0,0,0,0,0,0,0,0,0,0,0,0,0
0,0,0,0,0,0,0,0,4,4,16,98,4,14,8,8,16,0,0,6,0,0,0,0,2,0,0,0,0,0,0,0,0,0,0,0,0,2,0,0,2,0,100,0,4,100,8,8,100,28,0,0,0,0,0,0,0,0,0,0,0,0,0,0
0,0,10,0,4,0,0,8,0,4,98,98,98,6,8,6,4,6,0,16,6,6,0,8,0,6,0,0,0,0,0,0,0,0,0,0,0,0,0,4,0,100,100,10,14,6,8,100,0,4,0,8,2,0,2,0,0,0,0,0,0,0,0,0
0,0,0,98,0,0,0,98,2,10,10,14,12,18,100,4,14,2,0,12,2,18,0,0,0,0,0,0,0,0,0,0,0,0,0,0,0,0,6,0,0,2,100,38,0,14,6,2,98,6,0,0,0,0,0,0,0,0,0,0,0,0,0,0
0,0,0,0,0,0,0,4,0,100,8,16,18,98,16,0,0,6,0,0,0,0,16,0,2,0,0,0,0,0,0,0,0,0,0,0,0,6,0,0,0,6,100,8,10,8,0,6,8,0,0,0,0,0,0,0,0,0,0,0,0,0,0,0
0,0,0,0,0,0,0,0,0,8,6,100,6,16,12,6,20,0,4,2,20,0,0,10,0,0,0,0,0,0,0,0,0,0,0,0,0,4,2,0,0,100,6,10,0,2,8,6,6,0,98,98,0,98,24,0,0,0,0,0,0,0,0,0
0,0,0,4,0,0,0,2,4,100,64,12,2,32,20,0,12,0,10,0,2,0,8,0,0,66,0,0,0,0,2,0,0,0,2,0,0,0,0,2,100,2,0,6,2,6,100,14,0,98,0,0,8,0,0,0,0,0,0,0,0,0,0,0
0,0,2,0,0,0,0,98,2,10,2,100,40,16,6,22,2,2,0,98,24,0,6,0,0,0,0,0,0,2,0,0,0,0,0,0,0,0,0,0,0,0,100,6,0,16,12,98,2,6,0,0,0,0,0,6,0,0,0,0,0,0,0,0
0,0,0,0,0,2,0,0,2,4,98,12,6,6,12,6,2,0,12,0,0,20,10,2,0,0,0,0,0,0,0,0,0,0,0,0,0,0,0,0,6,10,0,100,10,10,0,28,0,0,0,98,0,0,0,0,6,0,0,0,0,0,0,0
0,0,0,0,0,0,0,98,0,98,0,4,0,14,18,98,0,10,0,0,0,0,0,0,18,0,0,0,0,0,0,0,0,0,0,0,0,0,0,100,0,2,4,10,2,0,100,4,0,22,0,2,4,0,2,0,0,0,0,0,0,0,0,0
0,0,0,0,0,0,0,0,8,10,98,6,12,24,98,20,6,0,2,2,2,0,0,0,0,0,0,0,0,0,0,0,0,0,0,0,2,0,0,0,2,92,2,100,14,0,14,0,8,0,2,0,2,0,0,0,2,0,20,0,0,0,0,0
0,0,0,0,0,4,2,0,98,2,0,16,20,8,10,12,98,0,4,18,0,12,0,0,0,0,0,0,0,0,0,0,0,0,0,0,0,0,0,0,4,0,100,10,10,2,2,56,0,0,0,2,0,0,0,4,0,0,0,0,0,0,0,0
0,0,0,0,0,0,4,0,0,100,54,6,98,6,6,16,14,0,0,18,0,0,0,2,0,6,0,0,0,0,0,0,0,0,0,0,0,0,0,0,0,8,100,4,98,12,0,10,0,0,0,2,0,0,0,0,0,0,0,0,0,0,0,0
0,0,0,0,0,0,0,2,2,100,4,0,98,0,12,4,2,20,14,0,38,8,0,0,0,0,0,0,0,0,0,78,0,0,0,0,0,0,0,0,8,4,2,88,14,0,0,0,4,0,98,0,0,6,0,0,0,0,0,0,0,0,0,0
0,0,0,0,0,0,0,8,0,6,100,6,98,6,8,18,6,8,6,0,0,4,0,0,0,0,0,0,0,0,0,0,0,0,6,0,0,0,0,0,0,0,94,6,0,100,0,6,8,4,0,0,0,2,0,0,0,0,0,0,0,0,0,0
0,0,0,0,0,0,0,0,0,98,6,28,14,10,24,6,6,0,16,6,100,2,0,0,0,4,0,0,0,0,0,0,0,0,0,0,0,0,0,0,0,2,100,0,4,98,6,0,10,10,0,0,0,0,0,0,4,0,0,0,0,0,0,50
0,0,0,0,0,0,0,0,6,8,98,24,6,14,14,0,18,32,0,66,0,98,6,0,10,0,0,0,0,0,0,0,0,0,0,0,0,0,0,0,2,100,4,18,12,2,6,8,8,98,0,4,0,0,0,98,2,0,0,0,0,0,0,0
0,0,0,0,0,2,0,98,2,14,20,6,8,38,98,6,12,0,0,4,0,0,4,0,2,0,0,0,0,0,0,0,0,0,0,0,0,0,0,0,8,0,16,100,2,6,10,0,0,4,0,2,0,0,0,0,0,0,0,0,0,0,0,0
0,0,0,0,0,4,0,0,6,12,98,18,16,12,20,12,22,0,6,0,6,6,0,0,0,0,0,0,0,0,0,0,0,0,0,0,0,2,0,0,4,14,6,24,100,22,6,2,0,10,4,20,0,0,0,10,0,2,0,0,0,0,0,0
