0,0,0,0,0,0,0,1,0,1,50,49,3,48,48,48,49,21,1,3,0,9,0,0,0,0,0,0,0,0,0,0,0,0,1,0,1,1,0,0,3,0,50,40,3,2,6,49,0,1,0,1,0,0,4,0,0,0,0,0,0,0,0,0
0,0,0,0,0,0,0,0,1,50,0,10,7,5,5,3,8,12,1,0,21,49,0,0,0,0,0,0,0,0,0,0,0,0,50,0,0,0,4,1,0,50,0,2,0,50,0,7,0,0,0,0,0,0,0,0,0,0,0,0,0,0,0,0
0,0,0,0,0,1,1,1,0,50,49,3,48,7,49,4,16,3,0,5,0,0,0,2,0,1,0,0,0,0,0,0,0,0,0,0,0,0,0,0,50,1,6,50,1,2,0,50,3,0,3,0,0,0,0,0,0,0,0,0,0,0,0,0
0,0,0,0,0,0,0,0,49,1,1,3,50,7,3,4,10,6,0,0,0,1,1,1,0,0,0,0,0,0,0,0,0,0,0,0,0,0,1,0,50,3,1,1,3,0,7,0,4,7,0,0,0,0,0,0,0,0,0,0,0,0,0,0
0,0,0,0,0,0,0,1,49,0,0,3,4,3,8,2,5,0,0,8,0,1,5,0,0,0,0,0,0,0,0,0,0,0,0,1,0,0,3,0,0,49,8,49,3,3,0,0,12,0,3,0,0,0,0,6,0,0,0,0,0,0,0,0
0,0,0,0,0,49,0,0,0,0,10,49,3,1,4,20,2,0,6,0,0,0,0,5,1,3,0,0,0,0,48,0,0,0,0,0,0,0,3,1,50,0,1,3,3,8,49,3,0,0,0,0,0,1,0,0,3,0,0,0,0,0,0,0
0,49,0,0,0,3,0,1,4,2,49,15,13,8,3,23,0,1,0,12,0,0,0,9,0,0,0,0,0,0,0,0,0,0,0,0,0,0,5,2,1,50,3,0,49,3,3,0,11,0,0,0,0,2,0,0,0,0,0,0,0,0,0,0
0,0,0,0,0,0,0,49,49,3,0,3,49,8,3,0,9,3,0,9,0,0,0,0,0,0,0,0,0,0,0,0,0,0,0,0,0,0,3,0,0,0,50,50,5,13,0,0,9,0,0,0,0,0,0,0,0,0,0,0,0,0,0,0
0,0,0,0,0,49,0,1,0,0,2,50,21,3,6,50,4,10,45,3,0,0,0,0,6,0,0,0,0,0,0,0,0,0,0,1,0,0,50,2,49,3,2,3,49,49,0,7,5,0,1,0,0,0,0,0,0,0,0,0,0,0,31,0
0,0,0,48,0,0,0,0,50,2,0,6,49,49,4,4,4,11,3,0,1,7,3,0,17,0,0,0,0,0,0,0,0,0,0,0,0,0,0,3,0,0,50,3,1,1,1,50,1,10,0,1,0,0,0,2,1,0,0,0,0,0,0,0
0,0,0,0,49,0,0,0,4,0,49,9,5,17,3,1,50,8,48,1,4,0,0,0,0,0,0,0,0,0,0,0,0,0,0,0,0,0,0,3,49,0,7,3,0,49,1,0,12,4,0,0,0,0,49,0,0,0,0,0,0,0,0,0
0,0,0,0,49,0,0,0,2,1,4,3,1,2,1,9,2,10,0,1,0,0,7,2,1,0,0,0,0,0,0,0,0,0,0,1,0,0,1,3,3,5,3,49,49,1,8,30,0,0,0,0,0,0,0,0,0,0,0,0,0,0,0,0
0,0,0,0,0,0,49,0,49,49,49,49,3,9,49,5,3,8,1,0,4,0,0,1,0,0,0,0,0,0,0,0,0,0,0,0,0,1,2,0,49,50,50,0,2,1,1,50,8,0,0,1,0,0,0,0,6,0,0,0,0,0,0,0
0,0,0,0,0,0,0,1,1,1,49,2,5,49,9,0,9,0,0,0,20,1,1,5,4,0,0,0,0,0,0,0,0,0,0,0,2,0,0,0,50,1,1,49,3,0,5,0,1,0,0,2,0,0,0,0,0,49,0,0,0,0,0,0
0,0,0,0,0,1,0,49,6,49,5,3,8,49,3,2,1,0,2,0,0,0,0,0,0,0,0,0,0,0,0,0,0,0,0,1,4,0,0,4,3,50,0,50,5,0,0,0,0,49,1,6,0,0,0,0,0,0,0,0,0,0,0,0
0,13,0,0,0,0,0,0,1,49,49,1,48,17,49,24,48,40,5,1,0,0,0,8,0,0,0,0,0,0,0,0,0,29,0,0,0,1,1,0,2,7,49,50,3,0,7,1,1,0,0,0,0,1,1,2,0,0,0,0,0,0,0,0
0,0,0,0,0,0,2,0,1,1,9,50,4,47,7,10,1,2,1,0,0,3,0,0,0,0,0,0,0,0,0,0,0,0,0,0,0,0,5,0,49,3,2,49,2,2,1,1,0,6,1,0,0,50,0,0,0,0,0,0,0,0,0,0
0,0,0,1,0,0,0,7,0,0,50,2,7,11,49,7,2,2,1,1,0,0,1,0,0,0,0,0,0,0,0,0,0,0,0,0,0,0,0,50,0,0,50,14,1,3,49,5,3,0,0,0,0,0,0,0,0,0,0,0,0,0,0,0
0,0,0,0,0,0,0,49,1,1,7,3,9,50,5,2,1,7,2,0,0,0,0,0,0,0,0,0,0,0,0,0,0,0,0,0,0,0,3,0,5,1,0,50,1,1,3,3,7,0,37,17,0,49,0,0,0,1,0,0,0,0,0,0
0,0,0,0,0,0,0,0,0,10,50,7,2,6,11,3,7,2,25,5,0,0,0,3,49,0,0,0,0,0,0,0,0,2,0,0,0,0,3,5,0,50,5,49,3,1,40,1,1,0,1,2,0,0,1,0,0,0,0,0,0,0,0,0
0,0,0,0,0,0,0,0,5,3,2,3,8,4,8,11,0,0,1,0,6,0,0,0,1,0,0,0,0,0,0,0,0,0,0,0,0,0,0,2,5,1,0,1,3,1,6,50,2,0,0,0,0,0,0,0,0,0,0,0,0,0,0,0
0,0,0,0,0,0,1,0,3,5,0,6,5,8,7,7,3,5,5,0,8,6,0,0,0,1,0,0,0,0,0,0,0,0,0,0,0,0,0,0,7,0,49,7,5,4,2,0,3,2,0,0,0,0,0,0,0,0,1,0,0,0,0,0
0,0,0,0,0,0,1,0,2,4,49,12,6,0,3,50,0,5,7,0,0,3,0,0,12,0,0,0,0,0,0,0,0,0,49,0,0,0,0,0,49,49,3,50,1,1,1,5,0,49,49,0,0,0,0,1,0,0,0,0,0,0,0,14
0,0,0,0,0,0,0,0,2,0,0,4,5,4,7,15,5,3,0,0,3,11,0,3,0,0,0,0,0,0,0,0,0,0,1,0,0,0,1,5,3,4,50,0,1,7,2,6,34,1,2,0,0,2,0,0,0,0,0,0,0,0,0,0
0,0,0,0,0,0,1,0,0,4,15,7,8,1,6,48,48,41,3,3,2,0,0,1,0,0,0,0,0,0,0,0,0,0,0,0,49,0,0,0,6,50,3,4,49,49,0,2,4,1,0,0,0,0,0,0,0,1,0,0,0,0,0,0
0,0,0,0,0,0,49,0,0,2,49,49,49,12,1,3,1,0,0,2,0,0,0,1,0,0,0,0,0,0,0,0,0,0,0,0,0,3,0,50,1,3,50,1,11,1,4,1,5,0,0,0,0,0,2,0,0,0,0,0,0,0,0,0
0,0,0,0,0,0,0,0,3,0,35,1,49,49,10,5,3,1,49,1,0,0,4,0,0,0,0,0,0,0,0,0,0,0,3,0,0,0,50,1,49,3,2,50,49,1,49,5,0,49,49,0,0,0,0,0,0,0,0,0,0,0,0,0
0,0,0,0,0,0,0,0,49,1,3,8,3,50,7,1,6,0,1,1,0,16,0,1,0,0,0,0,0,0,0,0,0,0,0,0,0,0,0,0,3,50,0,3,50,3,2,0,0,1,4,0,0,0,0,0,0,0,0,0,0,0,0,0
17,0,0,0,0,0,0,0,2,2,50,14,14,5,8,1,2,1,11,0,0,0,0,0,0,0,0,0,0,0,0,0,0,0,0,0,0,0,50,7,0,0,50,0,2,0,6,0,0,0,0,0,0,0,0,0,0,0,0,0,0,0,0,0
0,0,0,0,0,0,1,0,5,0,50,3,3,4,6,0,0,0,49,0,0,0,5,0,0,0,0,0,0,0,0,0,0,0,0,0,0,0,0,0,50,0,2,2,3,50,4,49,49,0,0,0,0,0,0,0,0,0,0,1,0,0,0,0
1,0,0,0,0,0,0,49,0,8,4,7,49,5,5,8,2,1,1,0,0,0,0,1,0,0,0,0,0,0,0,0,0,47,0,0,0,0,1,3,0,1,6,49,4,4,0,10,10,0,0,0,0,0,0,0,0,0,0,0,0,0,0,0
0,0,0,0,0,0,0,0,3,50,48,0,48,4,49,5,0,0,2,3,0,0,1,2,2,0,0,0,0,0,0,0,0,50,0,0,0,0,1,0,50,5,0,49,3,4,1,0,0,26,0,1,0,0,0,0,0,0,16,0,0,0,0,0
0,0,0,0,0,0,5,0,0,1,49,5,9,5,10,3,49,1,5,10,1,0,10,0,0,0,0,0,0,0,0,0,0,0,0,0,0,0,0,8,1,0,7,50,0,2,49,6,8,0,0,0,0,13,0,0,0,0,0,0,0,0,0,0
0,0,0,0,0,0,49,0,1,49,6,0,8,13,10,4,3,0,2,0,4,2,0,0,0,0,0,0,0,0,0,0,0,0,0,0,0,0,0,0,1,3,3,50,7,2,1,4,7,6,3,0,0,0,8,0,0,0,0,0,0,0,0,0
0,0,0,0,0,0,0,0,0,2,2,11,50,10,50,2,6,3,0,0,0,0,0,0,5,0,0,0,0,0,0,0,0,1,0,0,0,0,0,0,1,50,3,4,1,1,1,1,3,0,49,0,0,0,0,0,0,0,0,0,0,0,0,0
0,0,0,0,0,0,0,1,1,0,0,50,4,49,1,5,6,10,0,3,5,0,11,1,0,0,0,0,0,0,0,0,0,0,0,0,0,0,0,9,50,0,1,2,5,1,6,49,1,0,3,0,0,0,0,0,0,1,0,0,0,0,0,0
0,0,1,0,0,1,0,49,49,7,49,1,4,9,49,9,49,5,0,3,0,5,49,47,15,0,0,0,0,0,0,0,0,0,0,0,1,0,0,0,50,7,0,49,4,3,7,2,0,5,0,0,0,0,0,1,0,1,0,0,0,0,0,0
0,0,0,0,0,0,0,0,49,5,6,3,3,16,4,10,14,0,5,0,6,0,1,2,0,0,0,0,0,0,0,0,0,0,0,0,0,0,0,0,50,0,5,1,0,3,1,50,2,5,0,0,0,0,0,0,0,0,0,0,0,0,0,0
0,0,0,0,0,0,50,0,0,3,5,49,49,49,12,2,13,0,31,7,0,1,0,10,1,2,0,0,0,0,0,0,49,0,0,0,0,0,0,0,50,49,50,1,0,0,3,3,0,4,0,0,0,49,0,0,0,0,0,0,0,0,0,0
0,0,0,0,0,0,0,0,0,49,1,10,2,4,5,0,2,14,0,7,0,7,0,0,0,0,0,3,0,0,0,0,0,0,2,0,0,1,0,1,0,4,0,5,2,50,49,0,1,1,3,0,0,0,0,2,0,0,0,0,0,0,0,0
0,0,0,0,0,0,0,3,0,49,5,3,7,49,4,0,0,13,0,0,0,0,0,0,0,0,0,0,0,0,0,0,0,0,0,0,0,0,0,0,1,1,50,6,2,3,49,1,9,0,0,0,9,0,0,0,0,0,0,0,0,0,0,0
0,0,0,0,0,0,0,0,0,0,1,49,7,11,3,17,2,7,49,0,0,2,0,1,0,4,0,0,0,0,0,0,0,0,0,0,0,0,0,0,2,5,50,0,3,1,49,0,1,5,0,5,0,0,0,0,1,0,0,0,0,0,0,0
0,0,0,0,0,0,0,0,49,3,0,12,9,8,48,3,0,11,0,0,0,0,5,0,0,0,0,0,0,0,0,0,0,0,0,0,0,0,0,1,0,21,2,49,6,3,1,4,1,2,50,0,0,0,0,0,1,0,0,0,0,0,0,0
0,0,0,0,0,0,0,1,2,3,49,2,5,50,1,0,6,1,0,0,2,4,49,5,0,0,0,0,0,0,2,49,0,0,0,0,0,0,7,0,0,50,1,0,0,5,1,1,49,0,4,0,0,0,0,0,0,0,0,0,0,0,0,0
0,0,0,0,0,0,0,49,0,1,42,2,50,4,7,11,0,11,0,6,2,2,0,0,0,10,0,0,0,0,0,0,0,0,0,1,0,0,0,1,0,0,0,50,49,1,1,2,8,0,49,0,0,0,0,0,0,0,0,0,0,0,0,0
0,1,0,0,0,0,0,2,0,50,2,8,7,10,3,2,50,1,5,0,0,0,0,0,2,0,0,0,0,41,0,0,0,0,0,0,0,0,32,0,1,50,8,50,9,1,7,49,2,0,0,0,0,0,0,0,1,0,0,0,0,0,0,0
0,0,0,0,0,0,0,49,0,1,5,4,48,5,9,8,4,5,5,0,0,1,0,0,0,0,0,0,0,0,0,0,0,0,0,0,0,0,0,0,0,1,49,2,14,5,3,5,49,1,0,0,0,0,1,0,0,0,0,0,0,0,0,0
0,0,1,0,0,0,0,0,49,1,5,3,6,50,6,4,3,6,4,0,0,0,0,0,6,0,0,0,0,0,0,0,0,0,0,0,0,0,0,50,3,3,1,4,0,3,0,0,4,0,5,0,1,0,0,0,0,0,0,0,0,0,0,0
0,0,0,0,0,0,0,1,3,0,5,2,50,41,7,10,9,1,8,0,11,0,3,0,0,0,0,0,0,0,0,0,0,37,0,0,0,0,5,50,4,1,2,3,3,50,10,0,2,1,0,0,3,0,0,0,0,0,0,0,0,0,0,0
0,0,0,0,0,0,0,4,0,49,0,13,49,3,6,10,0,5,5,5,0,0,3,6,0,0,0,0,0,0,0,0,0,0,0,0,0,3,0,1,50,5,50,2,0,9,1,0,0,0,0,0,0,0,0,0,1,0,0,0,0,0,0,0
