0,0,0,0,0,0,0,6,6,255,0,18,255,255,255,255,255,126,6,0,18,0,0,54,0,0,0,0,0,0,0,0,0,6,0,0,6,0,6,0,0,255,18,240,12,18,36,255,0,6,0,6,0,0,24,0,0,0,0,0,0,0,0,0
0,0,0,0,0,0,0,6,0,0,255,30,60,42,30,48,6,18,72,0,0,126,0,255,0,0,0,0,0,0,0,0,0,0,0,0,255,24,0,0,6,0,255,0,0,42,12,255,0,0,0,0,0,0,0,0,0,0,0,0,0,0,0,0
0,0,0,0,0,6,6,6,0,255,255,18,255,24,42,96,255,18,0,0,30,0,0,12,0,6,0,0,0,0,0,0,0,0,0,0,0,0,0,255,255,0,6,6,36,12,18,255,0,0,0,18,0,0,0,0,0,0,0,0,0,0,0,0
0,0,0,0,0,0,0,0,255,6,18,6,255,18,24,42,60,36,0,0,0,6,6,0,6,0,0,0,0,0,0,0,0,0,0,0,0,0,6,18,0,6,255,18,42,6,24,0,0,42,0,0,0,0,0,0,0,0,0,0,0,0,0,0
0,0,0,0,0,0,0,6,0,255,0,18,18,24,48,30,12,0,0,0,6,48,0,30,0,0,0,0,0,0,0,0,0,0,0,6,0,0,0,48,18,0,255,255,18,18,0,72,0,18,0,0,0,0,0,36,0,0,0,0,0,0,0,0
0,0,0,0,0,255,0,0,0,0,60,255,18,6,24,120,12,36,0,0,0,0,0,18,30,0,6,0,0,0,0,0,255,0,0,0,0,6,18,0,0,255,6,18,18,48,18,255,0,0,0,0,6,0,0,18,0,0,0,0,0,0,0,0
0,0,255,0,0,0,18,6,24,12,255,78,90,18,48,138,0,6,0,0,72,0,0,0,0,54,0,0,0,0,0,0,0,0,0,0,0,0,12,30,6,255,18,18,0,255,0,18,0,66,0,0,12,0,0,0,0,0,0,0,0,0,0,0
0,0,0,0,0,0,255,0,0,255,48,18,18,255,18,54,18,0,0,54,0,0,0,0,0,0,0,0,0,0,0,0,0,0,0,0,0,18,0,0,0,0,255,255,30,78,0,0,0,54,0,0,0,0,0,0,0,0,0,0,0,0,0,0
0,0,0,0,0,255,0,0,6,0,255,126,12,18,36,255,24,60,0,255,18,0,0,0,0,36,0,0,0,0,0,0,0,0,0,6,0,0,255,255,12,12,18,18,255,0,255,30,42,0,6,0,0,0,0,0,0,0,0,0,0,0,0,186
0,0,0,0,255,0,0,0,0,12,255,36,24,255,255,24,24,66,18,0,18,6,0,42,102,0,0,0,0,0,0,0,0,0,0,0,0,0,18,0,0,0,255,18,6,6,6,255,6,6,60,0,0,12,0,0,0,0,6,0,0,0,0,0
0,0,0,0,0,255,0,24,0,0,255,30,102,54,6,18,255,6,255,48,24,0,0,0,0,0,0,0,0,0,0,0,0,0,0,0,0,0,0,255,18,0,42,255,18,6,0,0,72,24,0,0,0,0,255,0,0,0,0,0,0,0,0,0
0,0,0,0,255,0,0,0,12,6,6,24,18,6,12,12,54,60,0,6,0,0,12,42,6,0,0,0,0,0,0,0,0,6,0,0,0,0,6,18,18,18,30,255,6,255,180,48,0,0,0,0,0,0,0,0,0,0,0,0,0,0,0,0
0,0,0,0,0,0,0,255,255,255,255,255,54,18,255,18,30,48,6,0,24,0,6,0,0,0,0,0,0,0,0,0,0,0,0,0,0,6,12,255,0,255,0,255,6,12,6,255,48,0,0,6,0,0,0,0,36,0,0,0,0,0,0,0
0,0,0,0,0,0,0,6,6,6,12,255,30,255,54,54,0,0,0,0,120,6,30,6,24,0,0,0,0,0,0,0,0,0,0,0,12,0,0,0,6,255,18,6,255,30,0,0,0,6,0,0,0,12,0,0,0,255,0,0,0,0,0,0
0,0,0,0,0,6,0,255,36,255,18,30,48,12,18,6,255,0,12,0,0,0,0,0,0,0,0,0,0,0,0,0,0,0,24,0,6,0,0,18,24,255,30,0,255,0,0,0,0,255,6,36,0,0,0,0,0,0,0,0,0,0,0,0
78,0,0,0,0,0,255,0,0,6,6,255,255,255,144,102,255,240,6,30,0,0,0,48,0,0,0,0,0,0,0,0,0,0,174,0,0,6,6,0,12,255,42,42,255,18,6,0,6,0,0,6,0,0,6,0,12,0,0,0,0,0,0,0
0,0,0,0,0,0,0,12,6,54,6,255,255,60,24,42,6,12,0,6,0,18,0,0,0,0,0,0,0,0,0,0,0,0,0,0,0,0,30,255,18,0,12,12,255,12,6,6,0,6,36,0,0,255,0,0,0,0,0,0,0,0,0,0
0,0,0,6,0,0,0,0,0,255,42,12,66,42,42,255,6,12,12,6,0,6,0,0,0,0,0,0,0,0,0,0,0,0,0,0,0,0,0,0,255,0,255,18,84,30,6,0,255,18,0,0,0,0,0,0,0,0,0,0,0,0,0,0
0,0,0,0,0,0,0,6,255,6,42,18,54,255,30,12,6,42,12,0,0,0,0,0,0,0,0,0,0,0,0,0,0,0,0,0,0,18,0,0,30,0,255,6,18,6,42,6,18,0,0,222,102,255,0,0,6,0,0,0,0,0,0,0
0,0,0,0,0,0,0,0,0,60,255,36,12,42,18,150,42,66,12,0,30,0,0,18,0,255,0,0,0,0,0,0,0,0,12,0,0,0,30,18,0,30,255,255,18,240,6,0,6,6,6,12,0,6,0,0,0,0,0,0,0,0,0,0
0,0,0,0,0,0,0,12,0,30,18,18,48,24,48,66,0,0,6,0,0,36,6,0,0,0,0,0,0,0,0,0,0,0,0,0,0,0,0,12,0,30,6,18,6,36,6,255,0,12,0,0,0,0,0,0,0,0,0,0,0,0,0,0
0,0,0,0,6,0,0,0,30,18,0,36,30,42,48,18,42,30,30,0,48,0,36,6,0,0,0,0,0,0,0,0,0,0,0,0,0,0,0,0,42,0,255,42,30,12,24,18,0,12,0,0,0,0,0,6,0,0,0,0,0,0,0,0
0,0,0,0,0,0,6,0,12,24,255,0,36,18,255,72,30,0,0,42,0,0,18,72,0,0,0,0,0,0,0,0,0,0,255,0,0,0,0,0,255,255,6,18,255,6,6,30,255,255,0,0,0,0,0,0,6,0,0,0,0,0,84,0
0,0,0,0,0,0,0,0,0,12,0,24,24,30,42,90,30,18,18,0,0,0,66,18,0,0,0,0,0,0,0,0,0,0,6,0,0,0,6,24,18,30,255,0,6,36,42,12,204,6,12,0,0,12,0,0,0,0,0,0,0,0,0,0
0,0,0,0,0,0,0,0,6,90,24,42,48,6,36,255,255,246,18,12,18,0,6,0,0,0,0,0,0,0,0,0,0,0,0,0,0,255,0,0,255,36,18,255,0,24,255,6,0,12,0,24,0,0,0,0,0,0,0,6,0,0,0,0
0,0,0,0,0,0,0,255,0,12,255,255,6,72,255,6,18,12,0,0,0,0,6,0,0,0,0,0,0,0,0,0,0,0,0,0,18,0,0,6,255,18,6,255,6,66,24,6,30,0,0,0,0,12,0,0,0,0,0,0,0,0,0,0
0,0,0,0,0,0,0,0,0,18,210,6,255,255,60,30,18,6,255,6,0,0,24,0,0,0,0,0,0,0,0,0,0,0,18,0,0,0,6,255,255,18,12,255,255,255,30,6,0,0,255,0,255,0,0,0,0,0,0,0,0,0,0,0
0,0,0,0,0,0,0,0,255,6,18,48,18,255,42,6,36,0,6,0,6,0,6,96,0,0,0,0,0,0,0,0,0,0,0,0,0,0,18,0,0,255,0,18,255,18,0,12,0,6,24,0,0,0,0,0,0,0,0,0,0,0,0,0
102,0,0,0,0,0,0,0,12,12,255,84,84,30,6,48,12,6,0,66,0,0,0,0,0,0,0,0,0,0,0,0,0,0,0,0,0,0,0,255,0,42,0,255,0,12,36,0,0,0,0,0,0,0,0,0,0,0,0,0,0,0,0,0
0,0,0,0,0,6,0,0,0,30,18,255,24,18,0,255,36,0,0,0,0,30,0,0,0,0,0,0,0,0,0,0,0,0,0,0,0,0,0,255,0,12,0,18,12,255,255,255,24,0,0,0,0,0,0,0,0,6,0,0,0,0,0,0
6,0,0,0,0,0,0,0,255,24,48,30,42,30,255,48,6,12,6,0,0,0,0,0,0,6,0,0,0,0,0,0,255,0,0,0,0,0,0,6,6,18,36,255,24,60,24,0,0,60,0,0,0,0,0,0,0,0,0,0,0,0,0,0
0,0,0,0,0,0,0,0,18,0,255,255,24,255,255,0,30,12,0,0,18,0,6,12,12,0,0,0,0,0,0,0,0,0,255,0,0,0,0,6,255,30,0,255,24,18,6,0,0,156,6,0,0,0,0,0,0,0,0,96,0,0,0,0
0,0,0,0,0,0,0,0,30,255,6,30,54,30,18,60,30,255,60,0,6,6,0,60,0,0,0,0,0,0,0,0,0,0,0,0,0,0,6,0,48,42,0,0,255,12,255,36,48,0,78,0,0,0,0,0,0,0,0,0,0,0,0,0
0,0,0,0,0,0,255,0,6,255,36,78,0,60,48,24,18,0,24,0,0,12,0,12,0,0,0,0,0,0,0,0,0,0,0,0,0,0,0,18,6,0,255,42,18,6,12,24,42,18,0,0,36,0,48,0,0,0,0,0,0,0,0,0
0,0,0,0,0,0,0,0,12,0,66,12,255,12,60,255,36,0,18,0,0,0,0,0,30,0,0,0,0,0,0,0,0,6,0,0,0,0,0,0,6,18,24,255,6,6,6,6,18,0,255,0,0,0,0,0,0,0,0,0,0,0,0,0
0,0,0,0,0,0,6,0,6,0,0,24,30,255,36,255,6,60,0,18,30,0,66,0,6,0,0,0,0,0,0,0,0,0,0,0,0,54,0,0,0,255,12,6,30,36,6,255,6,0,0,18,0,0,0,0,0,0,6,0,0,0,0,0
0,6,0,0,6,0,255,0,255,42,6,24,255,54,255,255,54,30,0,18,0,30,90,255,255,0,0,0,0,0,0,0,0,0,0,0,0,0,6,0,42,255,0,24,255,42,18,12,0,30,0,0,0,6,0,0,0,6,0,0,0,0,0,0
0,0,0,0,0,0,0,0,255,30,36,18,18,84,24,60,96,0,30,0,0,36,6,12,0,0,0,0,0,0,0,0,0,0,0,0,0,0,0,0,0,255,30,6,0,6,18,12,255,30,0,0,0,0,0,0,0,0,0,0,0,0,0,0
0,0,0,0,0,0,0,255,30,0,18,255,255,255,72,186,12,0,78,42,0,6,0,60,6,0,0,12,0,0,0,0,0,255,0,0,0,0,0,6,0,255,255,255,0,18,0,0,24,18,0,0,0,255,0,0,0,0,0,0,0,0,0,0
0,0,0,0,0,0,0,0,0,6,255,12,60,30,0,24,12,84,0,42,42,0,0,0,0,0,0,18,0,0,0,0,0,0,0,0,12,0,6,6,0,24,0,30,12,255,255,0,6,6,18,0,0,0,0,12,0,0,0,0,0,0,0,0
0,0,0,0,0,0,0,0,18,255,30,18,42,255,24,0,78,0,0,0,0,0,0,0,0,0,0,0,0,0,0,0,0,0,0,0,0,0,0,0,6,255,36,6,18,12,255,54,6,0,0,0,54,0,0,0,0,0,0,0,0,0,0,0
0,0,0,0,0,0,0,0,0,0,255,6,102,66,42,18,42,12,255,0,0,24,12,6,0,0,0,0,0,0,0,0,0,0,0,0,0,0,30,0,0,12,255,0,18,6,6,255,0,30,0,0,30,0,0,6,0,0,0,0,0,0,0,0
0,0,0,0,0,0,0,0,255,18,72,0,48,54,18,66,255,0,0,0,0,0,30,0,0,0,0,0,0,0,0,0,0,0,0,0,0,0,6,0,126,12,0,6,36,255,18,6,24,12,0,255,0,0,0,0,6,0,0,0,0,0,0,0
0,0,0,0,0,0,0,6,12,255,30,18,12,255,6,36,0,6,12,0,0,255,24,0,30,0,0,0,0,0,12,255,0,0,0,0,0,0,42,255,0,0,6,0,30,0,6,6,0,255,24,0,0,0,0,0,0,0,0,0,0,0,0,0
0,0,0,0,0,0,0,255,0,252,6,255,12,42,24,66,66,0,36,0,0,12,0,12,0,60,0,0,0,0,0,0,0,0,0,0,6,0,0,0,6,0,0,255,255,6,0,12,6,48,255,0,0,0,0,0,0,0,0,0,0,0,0,0
6,0,0,0,0,0,0,0,255,12,12,48,18,60,42,255,12,6,30,0,0,0,0,0,12,0,0,0,0,0,0,246,0,0,0,0,0,0,0,192,255,255,6,48,54,42,255,6,12,0,0,0,0,0,0,0,6,0,0,0,0,0,0,0
0,0,0,0,0,0,255,0,0,6,24,30,30,255,54,48,24,30,0,0,30,6,0,0,0,0,0,0,0,0,0,0,0,0,0,0,0,0,0,0,0,12,255,30,84,6,18,30,0,255,0,6,0,0,0,6,0,0,0,0,0,0,0,0
0,0,6,0,0,0,0,0,255,6,30,18,255,36,36,24,18,36,0,24,0,0,36,0,0,0,0,0,0,0,0,0,0,0,0,0,0,0,0,18,255,6,24,18,0,0,0,24,18,30,0,0,0,6,0,0,0,0,0,0,0,0,0,0
0,0,0,0,0,0,0,6,0,18,30,12,246,255,42,60,54,48,6,0,66,0,18,0,0,0,0,0,0,0,0,0,0,222,0,0,0,0,30,24,12,255,6,18,18,255,6,60,0,12,0,18,0,0,0,0,0,0,0,0,0,0,0,0
0,0,0,0,0,0,0,0,24,0,255,78,255,36,18,60,30,0,30,0,0,30,36,18,0,0,0,0,0,0,0,0,0,0,0,0,0,6,0,18,30,255,255,0,12,54,6,0,0,0,0,0,0,0,0,6,0,0,0,0,0,0,0,0
