0,0,0,0,18,0,0,30,42,255,18,48,84,54,48,30,0,18,0,0,0,0,0,0,0,0,0,0,0,0,0,0,0,0,0,0,0,0,12,6,6,255,18,6,18,0,12,6,0,0,0,0,0,0,0,0,0,12,0,0,0,0,0,0
0,0,0,0,0,0,102,0,24,30,255,60,102,72,12,30,0,0,18,0,0,0,0,0,0,0,0,0,0,0,0,0,0,0,0,0,0,0,0,18,255,96,12,255,0,12,126,0,6,18,12,0,0,0,0,0,0,0,0,0,0,0,0,0
0,0,0,0,0,0,6,0,42,90,36,0,60,18,0,255,30,66,0,0,24,0,0,0,0,0,0,6,0,0,0,0,0,0,0,0,0,0,6,0,12,0,12,60,255,0,6,6,0,0,0,0,0,0,0,0,0,0,0,0,0,0,0,0
0,0,0,0,12,0,6,18,54,24,42,255,66,0,30,6,6,24,18,0,0,0,36,0,0,0,0,0,0,0,0,0,0,0,0,0,0,0,255,0,6,24,78,42,18,6,30,30,0,0,0,0,0,0,0,0,0,0,0,0,0,0,0,0
0,0,0,0,0,0,0,0,255,252,60,48,84,72,6,0,36,6,0,0,0,6,0,0,0,0,0,0,0,0,0,222,0,0,0,0,0,0,0,24,18,6,255,42,0,0,6,12,0,0,6,0,0,0,0,0,0,0,0,0,0,0,0,0
0,0,0,0,0,0,0,30,12,18,255,72,48,60,84,6,0,24,6,84,0,6,0,0,0,0,0,0,0,0,0,0,0,0,0,0,0,0,12,12,12,48,12,255,36,30,0,6,0,12,0,0,0,0,0,0,0,0,0,0,0,0,0,0
0,0,0,0,18,0,0,0,60,12,18,60,255,0,24,30,6,12,48,0,0,0,12,30,0,0,0,0,0,0,0,0,0,0,0,0,0,0,48,30,0,6,255,0,42,0,12,6,0,0,0,0,0,6,6,0,0,0,0,0,0,0,0,0
0,0,0,0,0,0,0,42,18,48,60,54,66,0,255,6,0,30,0,0,0,0,12,6,6,0,0,0,0,0,0,0,0,0,0,0,0,0,255,0,30,60,30,6,0,255,12,90,18,0,0,6,0,0,0,0,0,0,0,0,0,0,0,0
0,0,0,0,0,0,0,18,66,42,78,18,30,90,24,255,0,0,6,18,0,0,12,0,0,0,0,0,0,0,0,0,0,0,0,0,0,0,0,18,255,84,12,42,120,255,0,6,0,0,0,0,6,0,6,84,0,0,0,0,0,0,0,0
0,0,0,0,0,0,36,54,255,30,30,84,30,6,18,48,24,0,0,0,0,0,0,0,0,0,0,0,0,0,0,0,0,0,0,0,18,0,0,0,6,18,48,96,0,0,18,6,0,0,0,0,0,6,0,0,0,0,0,0,0,0,0,0
0,0,0,0,0,0,6,24,72,18,60,18,54,30,0,18,132,0,0,0,24,6,0,0,0,0,0,0,0,0,0,0,6,0,0,0,6,0,6,0,0,0,18,30,48,30,0,0,60,0,0,0,0,0,0,0,0,0,0,0,0,0,0,0
0,0,0,0,0,0,12,0,78,24,12,42,72,30,48,0,30,12,6,54,0,0,6,0,0,0,0,0,0,0,0,255,0,0,0,0,0,0,0,6,0,12,12,18,66,96,0,42,0,12,6,0,0,12,0,0,0,0,0,0,0,0,0,0
0,0,0,0,0,0,0,18,78,12,12,60,24,6,144,66,36,0,0,0,0,18,0,0,0,0,0,0,0,0,0,0,0,0,0,0,0,6,0,42,0,0,0,24,6,6,18,0,0,0,0,0,0,0,0,18,0,0,0,0,0,0,0,0
0,0,0,0,0,0,12,6,6,42,18,60,6,84,66,0,0,24,0,12,60,36,0,0,0,6,0,0,0,0,0,0,0,0,0,0,0,0,0,6,24,18,12,54,24,6,0,0,0,12,0,0,0,0,0,0,0,0,0,0,0,0,0,0
0,0,0,0,0,6,0,0,6,54,54,12,96,54,48,24,0,24,12,0,0,42,0,0,0,0,0,0,0,0,0,0,0,0,0,0,0,24,0,18,6,18,0,24,6,42,12,24,24,12,0,0,0,0,0,0,0,0,0,0,0,0,0,0
0,0,0,0,0,0,6,0,24,72,0,90,30,36,42,24,24,0,0,0,6,0,0,0,0,0,0,0,0,0,0,0,0,0,0,0,0,0,0,0,36,36,12,0,84,36,42,18,12,54,0,0,0,0,0,48,0,0,0,0,0,0,0,0
0,0,0,0,0,0,0,6,36,6,60,24,42,84,24,18,18,12,0,6,0,0,0,96,0,30,0,0,0,0,0,0,0,0,0,0,0,0,12,6,6,12,18,66,24,36,36,0,42,0,0,0,6,12,18,0,0,0,0,0,0,0,0,0
0,0,0,0,6,0,6,6,18,42,48,54,54,90,12,6,42,0,0,0,0,0,18,0,0,0,0,0,0,0,0,0,0,0,0,0,0,0,0,0,12,0,0,12,48,18,24,12,0,0,0,0,0,0,0,0,6,0,0,0,0,0,0,0
0,0,0,0,0,0,0,0,60,42,60,12,6,138,36,72,0,0,0,0,0,0,0,0,0,0,0,0,0,0,0,0,0,0,0,0,0,0,0,12,0,18,0,30,0,66,30,24,0,0,0,0,0,0,0,0,30,0,0,0,0,0,0,0
0,0,0,0,0,0,0,18,36,102,36,126,48,6,6,18,42,18,60,0,0,0,0,30,6,0,0,0,0,0,0,0,0,0,0,0,0,0,12,0,0,18,6,0,255,6,0,0,0,0,0,0,0,0,0,0,6,0,0,0,0,0,0,0
0,0,0,0,0,0,0,6,6,102,84,30,6,18,36,48,0,6,96,0,0,18,18,0,6,0,0,0,0,0,0,0,0,0,0,0,6,12,0,12,24,6,72,255,0,18,36,0,0,72,0,0,30,0,0,0,0,0,0,0,0,0,0,0
0,204,0,18,0,0,6,0,42,255,36,42,24,18,0,18,0,0,18,30,0,0,102,24,0,0,0,0,0,0,0,0,0,0,0,0,0,0,18,18,36,12,255,12,6,48,18,0,0,12,0,0,6,18,0,42,0,0,0,0,0,0,0,0
0,0,0,0,0,0,6,24,0,48,255,102,36,0,48,18,6,42,0,18,0,0,0,0,0,0,0,0,0,120,0,0,0,0,0,0,0,0,0,0,255,6,18,54,6,0,0,6,0,6,0,0,0,0,0,6,0,0,0,0,0,0,0,0
0,0,0,0,0,0,0,36,42,72,108,48,36,66,0,0,84,42,0,0,0,0,6,0,0,0,0,0,0,0,0,0,0,0,0,0,0,0,0,0,6,6,6,12,255,0,12,0,0,0,6,0,114,0,0,0,0,0,0,0,0,0,0,6
0,0,0,0,0,0,0,6,255,42,18,24,48,0,96,60,0,6,0,0,0,12,0,0,0,0,0,0,0,0,0,0,0,0,0,0,0,0,0,0,12,18,255,6,48,0,0,36,78,0,0,6,0,0,0,0,6,0,0,0,0,0,0,0
0,0,0,0,0,0,0,12,18,48,255,255,42,24,54,60,0,18,0,0,0,18,0,0,0,0,0,0,0,0,0,0,0,0,0,0,0,6,0,18,18,255,0,30,6,30,12,6,6,0,6,0,0,0,0,0,0,0,0,0,0,0,0,0
0,0,0,0,0,0,0,18,0,42,90,0,18,72,96,0,126,0,30,36,18,0,18,6,0,0,0,0,0,0,0,0,0,0,0,0,0,0,6,0,42,12,36,18,255,0,0,12,0,0,6,0,0,0,0,6,6,0,0,0,0,0,0,234
0,0,0,0,0,0,0,6,30,42,255,30,24,6,0,6,84,0,0,42,0,0,0,42,0,0,0,0,0,0,0,0,0,0,0,0,0,0,30,0,6,96,255,0,6,0,6,0,0,12,0,6,30,0,0,0,0,0,0,0,0,0,0,0
0,0,0,0,0,0,6,30,6,6,60,96,24,66,24,102,0,42,0,0,72,0,6,18,0,0,0,0,0,0,0,0,0,0,0,0,0,0,0,0,6,12,30,18,24,12,48,0,12,0,0,0,0,6,0,0,0,0,0,0,0,0,0,0
0,0,0,0,0,0,0,0,30,18,42,24,255,6,0,54,18,0,18,0,0,0,0,0,12,0,0,0,0,0,0,0,0,0,0,0,0,0,0,0,0,12,48,0,18,6,0,0,6,6,0,0,0,0,0,6,6,0,0,0,0,0,0,0
0,0,0,0,0,0,0,36,12,30,102,12,30,48,30,36,6,0,0,0,0,0,0,30,0,0,0,0,0,0,0,0,0,0,0,0,0,0,6,0,102,30,36,18,6,6,36,6,0,0,0,0,0,0,0,0,0,0,0,0,0,0,0,0
0,0,0,0,0,0,6,6,18,18,42,36,12,18,30,0,12,6,0,0,0,0,0,0,36,0,0,0,96,0,0,0,0,0,12,0,0,0,0,0,6,12,60,12,6,6,255,24,108,0,0,0,0,0,0,0,0,0,0,0,0,0,222,0
0,0,0,0,0,6,0,12,0,72,255,36,66,78,12,102,0,42,0,6,0,30,0,24,0,0,0,0,0,0,0,0,0,0,0,0,0,0,0,255,12,24,12,18,6,24,18,0,0,6,0,0,0,0,0,0,0,0,0,0,0,0,0,0
0,0,0,0,0,0,0,0,36,12,255,12,60,6,0,54,66,30,0,0,0,0,12,36,0,0,0,0,0,0,0,0,0,0,0,0,0,0,0,0,6,255,6,0,48,24,12,0,6,24,0,0,0,0,0,0,0,0,0,0,0,0,0,0
0,0,0,0,0,0,0,0,18,6,60,72,6,42,255,18,6,12,0,6,0,0,0,24,42,0,0,126,0,0,0,0,0,0,0,0,0,0,0,0,0,18,36,18,36,0,18,24,0,0,0,0,0,0,0,0,0,0,0,0,0,0,0,0
0,0,0,0,0,0,0,12,6,84,30,72,36,18,66,72,0,0,30,0,0,6,6,0,0,0,0,0,0,0,0,0,0,0,0,0,6,0,0,6,18,0,48,24,0,18,6,255,0,0,0,0,0,0,0,0,0,0,0,0,0,0,0,0
0,0,0,0,0,0,0,24,24,12,66,84,54,48,18,90,42,0,0,0,18,12,0,0,0,0,0,0,0,0,0,0,0,0,0,0,0,0,0,0,0,12,18,0,0,12,6,0,0,6,0,0,0,0,0,0,0,0,0,0,0,0,0,0
0,0,0,0,0,0,6,0,42,42,24,120,255,0,0,72,0,18,0,0,0,0,6,0,0,0,0,0,0,0,0,0,0,0,0,0,0,0,0,0,0,255,6,48,0,6,66,0,18,12,0,0,0,0,0,0,0,0,0,0,0,0,0,0
0,0,0,0,0,0,0,6,255,30,12,36,24,66,30,0,24,0,24,6,6,0,0,0,0,36,0,0,0,0,0,0,0,0,0,0,0,0,0,255,18,24,36,24,24,24,6,6,18,0,6,0,0,0,12,0,0,0,0,0,0,0,0,0
0,0,0,0,0,0,18,0,6,36,42,66,30,108,48,0,48,6,30,0,0,0,60,0,0,0,0,0,0,0,0,0,0,0,0,0,0,6,0,0,24,18,12,30,30,42,0,0,0,6,0,0,0,0,0,0,6,0,0,0,0,0,0,0
0,0,0,0,0,0,0,72,12,60,18,18,18,42,0,0,18,18,0,0,0,0,0,30,0,0,0,0,0,0,0,0,0,0,0,0,0,0,6,0,18,30,30,42,6,255,96,6,12,0,12,0,0,0,0,0,6,0,0,0,222,0,0,0
0,0,0,0,0,0,0,0,66,30,30,54,72,90,255,42,6,0,0,12,0,0,0,12,0,0,0,0,0,0,0,0,0,0,0,0,0,0,0,0,12,6,30,36,6,6,0,6,0,12,6,18,0,0,0,0,0,0,0,0,0,0,0,0
0,0,0,0,0,0,0,54,30,36,255,54,48,18,18,30,102,18,0,150,6,0,0,0,0,0,0,0,0,0,0,0,0,0,0,0,0,6,0,12,18,0,6,255,18,18,12,0,0,0,6,0,0,0,0,0,0,0,0,0,0,0,0,0
0,0,0,0,0,0,60,18,180,30,255,96,18,60,78,0,12,0,0,0,0,0,0,0,0,0,0,0,0,0,0,0,0,0,0,12,0,0,6,0,0,6,12,24,24,0,0,12,0,12,42,0,6,18,0,0,0,0,0,0,0,0,0,0
0,0,0,0,0,0,0,30,72,90,48,6,255,0,84,18,0,0,24,0,0,6,0,12,0,0,0,0,0,0,0,0,0,0,0,0,0,0,6,6,12,12,12,30,6,255,18,0,36,0,0,0,0,0,0,0,0,0,0,0,0,0,0,0
0,0,24,0,0,6,0,18,6,30,84,42,84,36,12,36,0,48,24,18,0,0,0,0,255,0,0,0,0,0,0,0,0,0,0,0,0,0,6,0,30,48,6,30,0,30,12,0,255,12,6,48,0,0,0,0,0,0,0,0,0,0,0,0
0,0,0,0,0,0,12,6,48,6,255,96,36,90,78,12,0,6,0,0,0,12,0,0,0,12,0,0,0,0,0,0,0,0,0,0,0,0,0,6,36,255,36,6,66,42,255,0,0,0,0,6,0,0,0,0,0,0,0,0,0,0,0,0
0,0,0,0,0,0,0,0,36,255,6,42,24,60,66,48,0,78,12,0,0,6,24,0,0,0,0,0,0,0,0,0,0,0,0,0,0,0,6,42,24,48,30,255,12,6,18,0,0,84,0,0,0,0,0,0,0,0,0,0,0,0,0,0
0,0,0,0,0,0,42,0,30,12,72,255,255,72,0,54,6,0,0,0,78,6,0,6,0,0,0,0,0,0,0,0,0,0,0,0,0,0,6,24,30,12,255,18,0,6,6,36,6,30,0,6,0,0,48,0,0,0,0,0,0,0,0,0
0,0,0,0,0,0,0,18,36,102,42,42,255,84,18,0,6,0,6,18,0,0,0,84,0,0,0,0,0,0,0,0,0,0,0,0,0,0,6,36,255,0,12,30,6,6,0,30,6,0,6,0,0,0,18,0,0,0,0,0,0,0,0,0
