56,0,0,0,0,0,0,0,255,0,42,56,0,255,0,21,35,7,0,7,14,0,7,14,0,0,0,0,0,21,14,0,7,21,7,0,21,7,14,21,35,105,255,28,28,255,0,49,7,0,0,0,105,0,0,7,0,0,0,0,0,0,7,0
7,0,0,0,0,0,0,0,255,35,210,56,35,21,28,255,21,0,0,0,0,0,0,14,0,0,0,119,0,35,42,0,35,14,255,14,21,7,7,255,0,14,255,7,35,0,255,7,0,0,0,0,0,0,0,0,0,0,0,0,0,0,0,0
14,0,0,0,0,0,0,255,7,21,255,112,255,14,14,7,0,49,0,0,0,0,0,0,0,255,0,0,0,0,196,0,0,0,35,42,255,49,63,91,77,255,255,84,119,255,84,112,119,77,112,98,77,49,0,0,0,0,0,0,0,0,0,0
0,14,0,0,0,42,21,21,255,28,21,56,255,14,28,14,0,0,21,21,0,0,0,0,0,0,0,0,0,0,56,0,77,0,0,0,7,0,7,255,255,0,255,0,112,28,35,0,0,0,0,0,0,0,0,0,0,0,0,0,0,0,0,0
0,0,0,0,0,0,0,0,7,255,255,255,255,28,21,77,0,0,0,0,0,35,0,0,0,0,0,0,0,7,0,0,255,0,0,28,0,0,255,0,7,35,42,255,255,28,0,0,0,7,0,0,0,0,0,0,0,0,0,0,49,0,28,21
35,0,0,0,49,0,0,255,7,14,255,35,42,21,255,0,0,0,0,0,0,0,0,0,0,0,0,0,0,21,0,7,0,0,0,21,0,35,7,255,255,7,7,84,255,35,0,7,28,0,0,0,0,49,0,0,0,0,0,0,0,112,252,0
84,0,0,56,0,0,21,255,49,255,255,21,35,35,7,0,0,77,255,0,0,0,0,7,35,0,0,0,0,0,0,84,98,49,0,56,0,21,42,255,21,49,255,42,255,105,21,21,255,255,21,0,0,0,0,0,28,7,0,0,0,0,0,49
126,28,0,35,35,21,0,14,255,42,7,14,35,28,42,0,0,0,0,0,49,0,21,0,0,0,0,0,0,98,70,0,0,77,63,0,49,255,0,84,56,7,119,7,84,0,105,0,0,0,0,56,0,0,49,0,0,0,0,0,0,0,70,0
0,0,0,0,0,0,0,0,0,14,255,0,42,49,7,7,0,0,0,255,0,0,0,0,0,0,0,0,0,14,42,0,63,42,14,0,14,77,0,70,63,255,168,14,255,70,0,0,0,255,0,7,0,0,0,56,0,0,0,35,28,0,0,70
0,0,0,0,0,0,0,56,0,255,21,255,49,49,0,0,0,0,0,0,0,0,0,0,0,0,0,14,0,14,21,14,28,0,0,21,0,21,84,21,7,255,21,21,255,0,7,0,56,0,0,0,14,0,0,63,0,0,0,0,0,7,14,0
0,0,0,0,14,7,7,255,7,255,35,0,21,0,0,0,0,56,0,0,0,0,0,0,0,0,0,0,7,203,0,0,0,35,0,0,0,21,35,28,255,21,35,49,21,49,0,0,255,255,0,0,0,0,0,0,0,0,0,0,0,21,35,14
14,14,0,0,0,42,42,56,0,255,105,56,255,70,21,7,0,0,0,0,0,0,0,0,0,0,0,0,0,0,0,0,0,0,0,0,42,0,7,255,255,28,42,14,119,35,0,255,0,0,0,0,0,0,0,0,0,0,0,0,0,0,28,0
98,49,0,49,0,49,49,255,0,7,154,35,35,84,7,7,0,0,0,0,0,7,7,14,0,7,0,0,0,14,35,49,42,14,0,0,35,35,42,255,56,21,255,49,49,70,0,0,7,0,28,0,0,0,7,0,0,0,0,0,0,0,28,21
0,35,0,0,0,255,255,56,0,245,28,56,70,7,28,0,0,0,0,0,0,35,0,255,0,0,0,0,0,0,63,56,0,70,0,7,7,0,70,255,28,255,0,42,255,35,0,0,0,0,0,49,0,0,0,0,0,0,0,0,0,0,0,0
28,21,35,14,0,35,7,21,0,255,21,21,35,255,0,49,7,0,0,0,0,0,0,0,0,0,0,0,0,7,255,0,0,0,0,0,0,35,0,0,21,0,35,255,14,0,7,0,175,0,0,0,0,0,0,0,0,0,0,0,0,0,0,0
0,0,0,0,0,0,0,255,0,91,255,21,7,21,28,0,7,0,0,0,0,0,0,0,0,0,0,0,0,0,0,0,0,0,0,0,0,0,0,255,7,21,28,147,28,0,35,0,42,0,0,0,0,49,7,0,0,0,0,0,0,49,0,0
0,0,0,0,0,0,0,7,42,255,28,255,28,7,14,35,0,0,0,0,0,42,0,0,42,0,0,0,0,0,0,0,0,0,0,0,0,0,0,7,255,42,49,49,255,49,56,14,7,0,0,0,0,0,0,0,0,70,0,0,0,7,0,0
0,0,0,0,0,0,0,7,0,255,42,7,35,7,35,14,28,0,21,49,0,0,0,28,28,0,0,0,0,105,0,98,0,0,0,0,0,42,0,56,28,49,0,14,35,255,7,0,56,0,49,0,0,0,0,0,0,0,0,0,0,0,35,0
7,7,0,0,0,0,0,0,0,255,28,0,255,14,0,0,0,0,0,0,21,0,7,0,0,0,0,0,0,0,0,0,70,0,0,0,56,49,70,28,255,84,77,49,255,77,91,0,0,0,0,0,0,0,0,0,0,0,0,0,14,0,7,0
49,0,0,0,7,28,0,7,0,42,63,112,56,0,0,28,255,7,21,14,0,0,0,0,0,0,0,0,0,63,28,0,7,0,0,49,0,0,7,0,147,14,14,56,21,255,0,0,0,7,0,0,0,0,7,0,0,0,0,0,0,0,0,0
0,0,0,0,0,0,0,0,0,28,154,56,255,7,7,0,0,0,0,0,0,0,0,0,0,0,0,0,0,7,63,0,35,112,7,63,7,35,14,35,7,255,28,49,255,63,14,119,70,0,0,0,70,0,0,70,0,0,0,0,0,35,49,0
28,0,0,0,35,56,49,56,63,49,255,21,35,7,42,7,0,0,0,0,0,0,14,70,0,0,0,0,7,14,21,0,0,35,56,56,0,56,56,91,63,255,0,238,77,63,42,21,0,0,255,0,0,0,14,0,0,0,0,0,0,7,0,0
119,0,255,0,0,35,133,112,56,91,255,49,35,14,255,49,0,0,0,0,21,0,0,0,0,0,0,0,0,0,0,0,0,0,0,119,21,7,14,14,14,255,77,14,42,7,255,0,56,0,0,0,49,0,0,0,0,0,0,0,0,0,0,0
0,7,0,0,0,0,255,7,21,7,42,28,70,0,35,14,255,0,0,0,0,0,0,0,0,0,0,0,0,49,0,0,7,0,0,0,0,0,255,255,0,0,255,28,203,42,21,42,0,0,0,0,0,7,0,0,0,0,0,0,0,0,112,14
0,0,0,0,0,21,0,7,0,255,0,14,21,35,0,0,0,0,0,0,0,0,0,0,0,0,0,0,0,0,0,0,14,0,0,7,21,0,21,21,255,7,203,105,21,28,255,0,0,14,14,0,14,0,7,0,0,0,0,0,0,21,21,7
0,0,0,0,0,7,0,14,7,0,255,28,255,0,35,0,0,0,0,0,255,0,0,0,7,0,0,0,21,7,28,21,7,21,0,0,0,255,0,35,7,255,21,0,14,28,0,0,0,0,0,0,0,0,0,0,0,0,0,0,0,0,0,0
0,0,0,0,0,0,255,14,7,35,84,35,63,21,21,7,21,0,0,0,0,0,0,0,0,0,7,0,0,0,7,7,0,7,0,0,0,0,14,0,28,7,21,255,42,0,0,0,0,0,0,0,0,7,0,0,0,0,0,0,0,7,0,0
0,0,0,0,0,0,0,0,0,255,35,112,42,154,56,0,255,0,0,49,0,7,0,0,0,0,0,0,0,49,189,7,252,0,0,255,0,0,0,0,7,98,161,255,91,42,42,0,14,0,0,0,255,0,0,0,0,0,0,0,0,0,63,28
56,28,0,0,35,35,35,14,28,255,35,255,35,35,21,56,21,35,0,0,0,28,0,0,28,0,70,0,0,175,147,210,126,0,0,14,0,105,0,7,56,255,255,49,224,84,255,98,0,0,49,0,77,0,119,0,0,255,0,0,0,35,0,0
0,63,28,0,49,28,35,7,255,255,255,255,35,255,21,42,0,28,0,0,0,0,0,42,0,0,0,0,35,112,98,77,49,0,112,0,84,0,126,98,255,35,175,0,255,0,0,14,7,255,0,0,0,0,0,49,0,0,0,0,0,0,21,21
0,21,0,0,0,0,0,161,255,255,255,21,255,255,255,21,0,0,0,28,14,0,0,0,0,0,0,0,0,91,49,112,255,0,119,0,126,77,126,255,63,255,98,70,255,182,7,0,14,35,0,0,0,0,0,0,0,0,0,0,0,0,0,14
147,147,133,161,119,154,175,255,112,161,255,217,255,35,14,255,0,21,0,0,0,0,14,21,0,0,0,0,0,14,42,28,7,49,35,0,0,42,161,255,91,63,42,70,255,255,35,35,21,255,77,14,42,77,14,56,0,21,7,0,0,0,119,0
0,0,28,42,35,49,255,255,182,255,255,203,182,255,14,119,28,133,28,255,7,84,0,28,28,0,0,0,0,0,0,255,63,255,0,182,126,175,49,42,255,196,255,49,42,255,161,21,0,0,255,0,105,0,63,0,0,0,0,0,0,28,0,63
35,14,168,255,21,49,255,35,255,7,168,0,21,0,255,35,7,0,0,0,7,112,0,147,0,0,0,0,0,255,252,252,0,210,0,0,147,255,255,255,255,133,112,189,238,21,255,56,0,0,56,0,28,0,0,0,0,0,0,0,21,182,154,0
133,84,0,0,0,0,175,255,255,255,255,7,21,255,35,21,0,0,0,0,0,0,0,0,0,0,0,0,0,35,7,133,98,168,28,255,245,119,175,0,0,255,35,35,0,56,56,84,0,0,133,0,0,7,0,0,0,0,0,0,0,0,126,119
140,147,255,7,91,56,119,147,255,70,28,0,0,7,35,84,14,0,0,0,0,7,7,14,0,0,0,0,126,0,119,112,0,0,0,0,0,14,0,14,0,0,0,42,255,7,49,63,0,0,0,0,0,0,0,0,0,0,0,0,0,77,0,56
0,0,49,0,0,77,0,14,255,63,70,255,168,255,91,105,42,0,0,0,35,0,0,0,0,0,0,0,0,0,14,42,154,49,0,0,0,0,0,255,238,98,126,255,56,105,42,0,91,255,49,0,21,0,0,0,35,0,0,0,0,133,0,0
175,0,0,0,0,0,0,0,255,147,175,14,49,49,255,42,14,21,0,0,7,7,21,0,0,0,0,0,0,0,0,105,63,84,0,161,112,91,0,126,255,255,7,35,42,14,21,63,70,7,255,0,14,56,0,49,0,63,0,0,0,21,0,77
70,84,0,21,21,7,7,14,56,70,91,35,35,56,35,0,0,0,56,0,255,21,0,21,0,0,0,0,84,0,63,35,35,42,35,0,105,140,35,255,63,35,35,56,14,42,21,42,0,21,0,21,0,7,0,0,0,0,0,0,0,49,42,35
0,0,35,0,0,70,21,255,14,49,196,255,21,7,84,14,14,0,0,0,0,0,0,14,0,0,0,0,35,112,112,119,0,70,91,63,0,70,21,119,255,42,255,63,105,77,0,49,0,0,7,0,0,49,0,0,0,0,0,0,7,0,0,0
14,14,14,28,21,0,0,21,0,56,28,56,255,112,7,0,35,0,14,0,14,0,0,0,0,0,0,0,0,0,7,0,0,0,7,0,255,7,0,7,255,35,56,42,35,35,255,0,0,0,0,0,56,21,0,0,0,0,0,0,0,0,7,21
0,35,28,0,28,35,49,112,84,56,21,255,70,35,84,0,0,56,14,0,0,0,0,0,7,0,0,0,0,7,84,0,0,0,0,42,0,35,42,7,255,161,0,35,35,255,21,14,0,49,0,0,0,0,0,0,0,0,0,0,0,0,63,0
0,182,0,0,14,0,49,255,255,84,255,35,0,21,0,14,0,56,0,14,0,0,0,0,0,0,0,0,21,28,35,35,0,255,0,0,56,7,35,42,255,35,255,42,49,49,35,28,35,0,255,0,49,0,35,49,0,0,0,0,63,0,49,21
21,255,21,0,0,0,21,0,217,35,255,255,49,14,0,7,0,0,0,0,0,0,0,0,0,0,0,0,0,14,0,21,14,28,0,0,0,255,255,255,0,0,255,7,35,0,0,7,42,7,0,0,0,0,0,0,0,0,0,0,0,0,0,0
0,0,0,255,0,14,0,0,49,255,255,21,35,35,0,35,0,0,0,0,0,0,21,0,0,0,0,0,0,0,0,0,28,0,14,21,0,21,7,255,14,21,255,255,0,0,14,0,0,14,255,0,0,0,0,0,0,0,0,0,0,28,0,255
0,0,0,0,0,21,255,28,255,0,255,35,255,0,0,0,14,0,0,0,28,0,0,0,0,0,0,0,35,0,7,0,21,0,0,0,0,0,0,21,7,7,255,35,255,0,0,255,0,0,42,0,0,0,0,0,0,0,0,0,0,0,21,7
0,0,0,0,0,28,0,0,35,63,7,255,21,56,49,0,7,0,0,0,0,0,0,0,0,0,0,0,0,7,56,255,0,0,0,0,7,0,14,0,49,42,255,42,0,21,49,119,255,42,0,0,0,7,255,0,7,0,0,0,0,0,70,49
63,0,42,35,7,14,42,56,7,49,255,28,7,0,0,7,14,0,0,7,0,0,0,0,14,0,0,0,21,0,49,42,0,0,0,14,7,0,7,14,0,0,77,255,0,21,7,0,0,0,7,0,0,0,0,0,0,0,0,0,7,0,14,0
0,7,7,0,0,7,14,35,35,21,255,21,255,14,0,21,0,0,0,0,0,0,7,0,0,0,0,0,0,7,7,0,0,0,0,14,0,0,0,7,63,7,255,7,28,70,255,0,0,0,0,0,0,49,0,0,0,0,0,0,0,21,0,28
21,14,7,0,0,0,56,196,21,42,255,49,0,63,21,0,0,28,0,0,0,0,21,14,0,0,0,0,0,0,56,77,0,91,0,0,84,7,42,42,28,255,28,21,35,7,7,21,21,255,0,0,35,7,0,0,0,0,0,0,0,7,49,0
