255,9,255,27,36,255,180,255,255,255,255,255,18,255,108,45,255,9,162,252,18,45,27,27,0,0,0,72,0,0,180,225,255,9,45,45,255,255,255,36,255,207,255,255,255,99,255,252,0,255,27,126,0,0,0,0,0,0,0,0,0,0,153,255
0,255,0,18,255,126,90,255,255,225,255,255,255,255,63,0,0,0,0,0,0,0,0,0,0,0,0,0,0,36,255,255,135,18,27,9,18,63,255,255,255,255,255,255,255,27,255,255,0,63,0,0,72,0,0,36,0,0,0,18,0,0,9,153
0,54,0,0,255,0,153,255,255,255,255,255,255,255,0,9,45,0,0,0,0,9,36,0,0,0,0,0,0,27,117,27,54,18,0,255,255,63,255,255,255,117,255,255,81,45,255,72,0,216,0,54,0,18,144,0,0,0,0,0,0,90,0,27
27,126,18,255,99,0,255,255,255,90,255,255,90,36,255,0,108,255,255,0,0,0,0,0,0,0,0,0,72,54,126,135,255,255,9,36,108,117,255,255,255,255,255,255,255,72,27,108,27,0,0,0,255,0,108,0,0,0,0,0,0,0,126,18
0,189,9,9,0,255,27,255,255,255,255,255,255,255,72,171,63,81,0,18,27,0,18,0,0,0,0,0,0,45,108,255,9,90,18,0,225,255,255,255,255,225,54,255,255,255,255,255,255,81,0,81,0,9,0,0,0,0,18,0,144,0,63,0
255,255,0,255,45,255,255,243,255,255,153,255,255,72,255,0,255,0,0,0,0,0,0,18,9,0,0,0,18,45,255,255,0,255,36,72,255,255,54,144,255,255,255,255,255,255,162,255,0,255,0,0,99,9,27,0,0,0,0,126,0,0,0,0
255,0,36,255,9,255,255,255,117,255,255,252,255,0,255,27,0,0,0,9,0,0,0,0,0,0,0,0,0,9,255,117,162,255,18,36,90,255,126,255,255,255,255,255,255,255,255,255,99,117,18,0,9,0,0,0,0,0,0,0,0,126,90,45
144,9,0,0,255,255,153,171,255,255,255,255,255,45,27,0,0,0,0,18,27,0,0,153,0,0,0,0,18,126,63,0,63,255,153,99,9,81,135,255,255,135,255,255,255,255,171,255,255,72,0,117,255,255,0,0,0,0,0,0,18,63,45,9
0,255,255,0,18,63,36,180,255,255,216,255,255,99,255,0,255,0,0,0,0,0,0,18,0,0,0,0,36,0,63,18,72,63,27,9,171,255,255,126,255,255,255,255,255,255,126,255,27,0,108,9,0,9,90,0,0,0,0,0,0,0,0,18
54,108,63,255,234,255,255,255,255,207,255,252,255,0,63,54,0,0,0,0,0,72,63,0,0,0,0,0,0,0,171,255,135,126,18,45,90,255,81,255,255,255,255,255,255,255,255,255,153,108,9,0,0,63,0,0,9,0,0,0,0,0,255,9
0,0,81,0,255,234,255,255,255,255,255,162,255,255,144,9,0,0,0,0,0,0,0,0,18,27,0,81,18,72,9,171,99,72,171,27,225,207,252,144,108,255,255,255,255,255,90,255,0,36,0,0,0,0,117,0,0,0,0,0,0,63,0,9
0,27,0,108,225,9,255,255,255,255,255,255,234,255,255,255,255,0,0,0,0,0,0,0,0,0,0,0,9,0,63,99,255,27,72,27,36,255,126,255,72,255,255,144,255,135,18,45,18,27,99,0,0,9,0,18,0,0,0,0,0,0,0,144
0,45,18,27,0,135,27,255,255,255,207,255,255,0,0,0,63,99,0,9,0,0,0,0,0,0,0,0,0,0,207,72,255,126,255,0,63,9,255,189,255,255,255,255,255,171,153,255,255,0,0,225,9,0,0,0,0,0,0,0,0,0,9,255
255,108,54,0,27,0,18,255,108,255,135,99,255,252,45,0,72,45,54,9,99,0,144,0,0,0,0,0,0,45,189,54,255,54,0,0,0,36,255,255,255,255,255,255,255,255,255,255,255,255,255,234,108,255,0,126,0,0,27,0,0,0,255,135
90,135,171,171,9,171,255,171,255,255,255,189,45,9,45,0,255,0,0,0,9,0,54,0,0,0,0,0,255,0,255,72,255,255,255,255,0,255,255,255,255,255,255,255,255,255,255,255,255,9,255,45,0,0,0,0,0,255,0,0,54,0,255,54
255,255,9,27,0,27,27,255,255,225,135,255,0,144,18,171,0,0,72,0,0,0,0,0,0,0,0,0,18,0,255,255,54,18,198,27,255,255,255,255,255,255,255,255,255,255,255,255,0,108,0,255,0,0,225,0,0,0,0,0,0,0,0,255
0,9,255,0,0,255,9,135,255,255,54,255,144,255,99,0,0,0,0,0,0,0,18,0,0,0,0,0,0,27,255,255,0,27,18,255,255,0,255,255,255,255,81,255,45,255,117,0,216,0,54,0,0,9,0,255,0,0,0,0,0,0,0,216
0,0,36,0,18,255,255,255,9,255,234,63,255,255,18,0,9,0,0,0,0,0,0,0,0,0,0,0,0,243,0,234,153,255,135,45,255,255,255,54,255,255,255,255,162,243,0,255,9,0,36,0,0,18,108,0,0,0,0,0,135,0,0,0
117,0,0,255,255,0,255,255,255,255,255,126,255,255,255,255,216,27,36,0,0,27,0,0,0,0,0,0,0,189,63,9,255,126,0,99,63,255,36,255,189,255,255,255,255,255,54,45,18,9,0,0,0,0,0,0,18,0,0,0,0,0,180,0
0,0,0,0,27,27,255,255,255,234,255,255,180,189,207,63,9,0,126,0,18,0,0,0,0,0,0,0,0,45,255,255,0,0,72,90,72,255,255,99,255,162,72,255,255,255,255,36,45,81,27,0,0,0,0,0,0,0,0,0,0,0,0,0
18,255,144,27,36,18,255,255,255,255,255,255,255,99,255,9,9,0,45,255,90,63,255,0,0,0,0,0,0,162,9,45,255,27,18,255,255,0,171,255,255,198,255,255,63,0,207,153,255,0,0,0,0,0,72,36,0,0,0,0,0,0,0,135
63,63,9,153,9,72,153,255,144,207,255,255,255,252,255,0,255,27,0,0,0,0,0,0,0,0,0,0,0,255,18,90,99,135,255,9,255,162,54,255,255,255,255,255,255,255,9,225,54,18,0,0,0,0,0,0,0,0,0,0,0,117,0,81
255,0,45,0,255,0,72,144,255,90,255,27,255,255,0,0,0,36,0,0,0,0,0,0,0,0,0,0,36,216,243,255,255,255,18,18,54,255,255,126,255,255,234,255,255,108,99,81,255,0,0,9,0,0,0,0,0,255,0,0,0,45,189,255
99,0,171,180,162,0,108,252,255,255,255,144,255,255,27,189,36,0,0,189,9,135,0,0,0,0,0,255,0,0,255,63,255,255,36,90,27,255,255,255,255,255,255,255,255,255,255,255,0,27,0,0,0,255,0,0,0,0,0,0,0,255,0,0
225,27,99,72,255,255,81,255,255,255,18,255,162,45,90,255,0,27,0,0,9,18,0,0,0,0,0,0,0,189,45,36,0,255,0,36,108,255,153,255,255,255,255,255,255,255,255,9,27,0,27,0,63,9,0,0,0,0,0,0,0,0,0,0
0,0,255,27,126,72,252,252,252,255,255,207,255,255,108,9,27,0,0,0,54,0,0,0,0,0,0,0,0,162,153,255,54,180,0,255,9,225,255,255,255,255,255,72,255,255,255,126,0,0,0,0,0,153,0,0,36,0,0,0,0,36,255,0
9,9,0,9,0,27,255,255,255,99,207,255,0,135,108,255,135,0,255,0,0,27,0,0,0,0,0,0,72,54,0,255,255,252,45,207,36,36,207,255,255,255,255,63,171,9,255,0,9,0,0,0,0,9,0,0,255,0,0,0,255,117,9,0
255,0,108,9,18,0,255,234,255,255,180,255,255,255,255,0,255,0,0,0,0,126,18,0,0,0,0,0,0,117,255,18,255,54,255,0,255,9,255,255,255,255,171,255,54,9,63,9,0,54,36,0,9,0,0,0,0,0,126,0,0,0,189,63
18,63,255,54,255,54,180,255,255,225,255,255,189,255,36,9,255,0,0,0,36,252,0,90,0,0,0,0,0,0,72,99,9,207,255,108,18,255,162,162,255,135,255,255,255,63,36,255,63,0,0,255,0,255,72,0,0,0,0,0,0,0,45,189
0,9,54,0,153,0,255,255,255,255,255,162,255,255,162,90,0,99,0,0,27,0,90,72,0,0,0,9,27,0,255,255,108,255,0,36,0,72,144,255,255,153,189,99,255,255,72,0,171,0,0,0,0,234,0,0,0,0,0,0,0,0,144,0
255,255,18,9,255,0,255,255,255,255,255,255,126,255,255,0,255,0,0,0,0,255,255,0,0,0,0,0,255,255,9,255,255,0,255,255,36,255,255,255,255,255,255,255,255,18,255,0,27,0,18,0,0,255,0,0,0,9,0,0,0,189,18,0
0,18,162,0,255,0,144,180,255,255,255,255,255,72,255,153,0,0,0,0,0,0,0,0,0,18,0,0,0,0,135,36,27,72,9,255,90,27,255,255,255,108,255,180,255,255,255,180,99,9,0,0,0,0,0,0,0,0,9,0,0,9,252,255
9,255,45,45,153,207,255,255,255,255,207,255,255,255,0,255,0,0,27,0,0,0,63,0,0,0,0,0,0,255,36,81,27,18,126,255,36,117,255,135,255,255,255,255,255,255,255,255,72,0,9,0,0,255,0,162,9,9,0,0,0,0,153,0
255,0,0,9,63,99,255,255,255,117,255,255,255,255,189,9,0,0,162,255,0,0,0,0,0,0,0,0,0,54,225,162,126,45,18,0,255,255,255,255,255,255,255,255,255,255,255,255,255,252,198,180,144,171,0,0,0,0,0,0,144,0,255,0
255,9,0,18,54,255,255,255,255,255,255,255,255,225,171,0,0,0,0,0,9,0,0,255,0,0,0,0,18,0,255,255,45,255,255,252,255,255,255,255,255,255,255,255,255,255,255,255,243,255,0,0,0,0,255,0,0,0,0,0,0,0,234,117
255,0,54,9,9,207,180,108,255,255,255,255,162,126,0,0,144,0,0,0,0,0,9,9,126,0,0,63,0,0,0,63,255,99,0,18,45,255,255,255,255,255,255,255,255,54,255,255,0,0,0,0,0,0,117,0,0,0,0,0,0,0,162,63
171,27,255,0,0,117,255,216,255,255,255,255,198,36,255,198,0,9,0,0,0,63,0,0,0,0,0,0,0,255,255,255,255,255,0,225,27,255,255,255,255,255,255,255,255,255,255,0,0,0,0,0,0,0,0,0,18,0,0,0,0,153,0,54
255,0,36,0,234,9,225,255,255,216,153,255,171,255,255,0,0,0,0,0,0,0,0,0,0,0,0,255,0,255,255,255,126,255,255,255,255,255,255,255,255,255,255,255,255,255,255,255,18,255,0,207,255,0,72,0,255,0,0,0,0,0,255,63
0,255,0,0,27,255,0,255,255,255,255,255,255,255,108,255,0,0,0,0,63,255,0,255,0,0,0,0,0,255,255,255,0,0,255,72,18,255,255,255,255,255,255,255,255,255,255,63,0,0,0,0,0,0,9,0,0,0,0,0,0,0,255,0
0,81,0,0,9,255,255,255,255,255,216,255,243,255,255,255,0,0,0,0,9,0,0,0,0,0,0,0,0,9,27,255,255,0,72,9,9,207,0,255,255,225,255,255,216,255,255,255,9,0,0,0,117,0,0,0,0,0,0,0,0,72,255,0
135,27,9,0,90,81,255,153,255,255,255,255,255,171,255,108,36,0,0,9,0,0,36,0,0,0,9,0,153,0,0,9,63,45,63,63,126,18,255,225,255,255,162,153,255,255,9,108,198,0,0,0,0,0,27,0,9,0,0,0,0,255,0,0
0,255,162,0,0,0,255,255,255,234,72,255,255,255,72,255,255,0,0,0,0,0,90,0,255,0,0,0,0,9,252,63,0,9,72,0,0,255,81,255,72,255,255,255,255,255,255,255,0,72,0,0,9,0,0,0,0,0,0,0,0,18,255,54
36,18,27,9,0,255,255,255,255,255,255,135,0,255,27,9,255,171,9,9,126,117,144,108,0,0,0,0,255,255,255,255,0,0,0,36,255,255,255,255,255,255,255,255,255,255,255,153,255,255,9,0,0,0,27,0,0,0,0,0,0,27,9,225
72,63,18,126,255,255,99,45,108,255,255,255,45,255,117,255,126,45,0,63,27,18,54,0,0,0,9,0,0,255,9,162,255,255,255,255,255,0,255,255,255,255,255,255,255,255,255,255,255,18,198,255,0,0,9,0,45,0,0,0,0,255,0,255
27,9,0,0,0,255,255,255,255,108,255,255,255,72,36,189,9,0,0,0,9,9,18,36,0,0,0,0,0,72,255,63,0,255,255,255,18,255,255,255,255,255,255,255,255,255,255,255,255,243,171,0,126,255,189,0,0,0,0,0,234,0,0,0
255,255,252,0,9,45,255,255,255,255,153,180,243,252,27,255,0,9,0,0,9,108,0,0,0,0,0,0,18,255,255,255,255,36,0,255,153,255,255,255,255,255,255,255,255,255,255,255,0,0,0,0,0,0,18,0,0,0,0,0,0,135,9,9
255,108,255,0,0,126,255,255,255,63,153,255,255,144,255,90,0,45,0,0,0,9,0,108,0,0,9,0,27,255,255,255,255,0,255,0,255,255,255,255,255,255,255,255,63,255,117,81,18,0,255,0,0,27,36,0,9,0,0,0,0,0,216,63
0,0,27,9,234,99,63,255,255,255,255,81,180,45,255,198,0,0,0,72,27,0,81,0,0,0,0,108,9,0,135,45,255,27,0,255,0,45,144,255,255,255,255,255,255,255,54,255,108,90,0,234,18,54,255,0,0,0,0,0,0,0,81,255
9,255,18,99,255,0,108,255,255,255,255,255,126,45,90,135,63,0,0,0,0,0,0,0,0,0,0,0,0,18,144,36,18,255,36,9,0,255,255,255,255,255,255,255,36,255,135,90,0,108,0,0,0,255,0,27,255,0,0,0,0,81,255,0
255,0,18,255,255,255,54,255,255,255,162,255,63,189,255,54,45,0,0,0,0,0,0,0,0,0,0,9,9,255,18,162,153,0,9,255,255,45,180,255,255,255,255,255,255,108,0,255,0,0,0,0,9,54,18,0,0,0,0,0,189,0,0,0
