96,2,98,6,8,40,100,88,98,90,94,98,4,24,98,10,98,36,2,56,6,4,10,6,0,0,0,0,16,50,0,40,98,2,8,10,10,98,100,98,46,100,100,22,98,98,56,98,0,98,28,0,6,0,0,0,0,0,0,0,0,34,0,60
0,0,66,98,4,28,20,98,50,98,98,98,78,90,14,0,0,0,0,0,0,0,0,0,0,0,0,0,8,0,30,98,96,6,2,4,14,4,98,98,100,98,98,98,98,6,98,98,14,0,0,16,0,0,0,8,0,4,0,0,0,0,34,2
0,12,0,0,0,34,98,98,96,98,58,62,98,10,98,2,0,0,0,0,0,2,0,8,0,0,0,0,0,6,26,12,6,0,4,90,98,98,14,98,98,26,92,96,18,10,98,0,16,48,0,12,0,4,0,32,0,0,0,0,0,20,0,6
28,6,4,0,84,22,98,98,20,98,98,20,98,8,0,84,24,98,98,0,0,0,0,0,0,0,0,28,0,16,12,30,64,98,8,26,2,24,100,100,98,96,96,98,16,98,6,24,6,0,0,0,98,0,24,0,0,0,0,0,0,0,28,4
42,0,2,2,0,6,96,98,98,92,98,64,98,98,16,18,14,38,0,4,0,6,0,0,4,0,0,0,0,24,20,10,98,4,2,50,0,96,98,98,98,50,100,12,98,98,98,98,98,18,0,0,18,2,0,0,0,4,0,0,0,32,14,0
74,0,98,98,10,82,70,54,98,98,34,74,96,68,0,16,96,0,0,0,0,0,0,4,2,0,0,0,4,10,98,98,98,8,0,16,98,12,32,98,98,96,98,98,100,98,36,96,96,0,0,0,22,6,2,0,0,0,0,0,0,28,0,0
8,0,98,2,96,62,96,82,94,98,26,96,56,98,0,0,6,0,0,2,0,0,0,0,0,0,0,0,0,2,60,26,36,92,4,8,20,28,98,98,98,98,98,98,60,98,98,98,22,26,4,0,2,0,0,0,0,0,0,0,0,28,20,10
32,0,2,34,0,62,98,38,100,98,94,98,78,10,0,6,0,0,4,0,6,34,0,0,0,0,0,4,0,28,0,14,14,34,2,22,98,30,98,18,100,30,98,98,98,98,98,38,0,16,98,26,98,98,0,0,0,0,0,0,4,10,2,14
0,92,78,0,4,8,14,40,98,92,48,78,68,22,0,90,0,0,98,0,0,0,0,4,0,0,0,8,0,0,14,4,14,16,6,2,38,98,98,98,28,98,98,98,96,60,28,98,0,6,24,2,0,2,0,20,0,0,0,0,0,0,0,4
12,24,68,14,52,78,90,70,98,46,56,76,0,72,14,0,12,0,0,0,0,16,14,0,0,0,0,0,0,0,38,92,30,28,4,10,20,18,98,98,98,98,98,98,98,94,34,98,98,2,24,0,0,0,14,0,0,2,0,0,0,0,2,92
0,0,0,52,18,98,98,96,98,78,98,86,36,64,32,2,0,0,0,0,0,0,4,0,6,0,0,4,2,18,16,22,38,38,6,16,50,32,56,24,46,98,98,84,58,98,58,8,20,0,0,0,0,26,0,0,0,0,0,0,0,0,2,14
0,6,2,24,0,98,50,70,98,72,98,70,52,82,82,98,58,0,0,0,0,0,0,0,0,0,0,0,14,0,2,22,16,98,6,8,6,28,98,98,98,16,98,32,98,30,4,6,10,4,22,0,0,2,4,0,0,0,0,0,0,0,32,0
10,0,0,4,30,6,98,6,98,62,46,68,0,98,0,0,14,22,0,2,0,0,0,0,0,0,0,0,0,46,0,98,16,28,98,98,0,2,14,42,98,96,98,92,38,68,98,34,82,0,2,0,0,50,0,0,0,0,0,0,0,0,2,92
96,24,0,0,12,4,6,24,98,98,30,22,56,98,10,16,0,10,12,2,0,22,32,0,0,0,0,0,0,10,12,42,0,12,98,0,0,8,98,100,100,98,98,98,98,60,98,96,96,86,52,82,24,28,82,0,0,6,0,0,0,0,96,30
20,30,38,38,2,38,96,38,78,42,92,80,10,2,72,10,0,0,0,0,0,2,12,0,0,0,0,0,0,98,98,98,16,88,82,78,98,0,98,98,98,98,98,98,98,98,98,92,94,68,2,0,10,0,0,0,0,68,0,0,12,12,94,0
98,74,6,2,0,6,6,30,98,96,50,98,0,32,38,4,0,0,0,0,16,0,0,0,0,0,0,0,0,4,96,98,12,44,4,6,98,100,98,98,98,98,98,98,70,98,92,86,24,0,96,0,0,0,0,50,0,0,0,0,0,94,0,0
2,0,96,0,0,96,2,30,98,12,96,72,32,0,0,22,88,0,0,0,0,0,0,0,4,0,0,0,0,96,6,98,0,6,4,0,74,98,98,76,98,18,98,10,100,26,98,48,0,0,12,2,0,98,0,0,0,0,0,0,0,0,0,48
0,0,98,8,0,4,98,84,98,98,52,2,98,14,4,0,0,2,0,0,0,0,0,0,0,0,0,0,0,54,0,34,52,98,98,30,10,98,98,98,12,98,98,98,0,36,54,2,0,0,98,8,0,4,0,24,0,0,0,0,0,30,0,0
0,26,0,0,98,96,74,62,98,98,88,98,98,28,98,74,48,6,0,8,0,6,0,0,0,0,0,0,0,14,42,98,28,2,0,98,14,22,8,90,42,12,68,98,98,98,98,2,4,10,0,0,0,0,0,0,4,0,0,0,0,0,0,40
0,0,0,6,0,6,96,96,98,52,98,98,46,42,40,0,14,2,28,0,0,0,4,0,0,0,0,0,0,98,98,0,10,0,16,20,98,16,22,36,98,98,100,16,96,66,18,98,8,10,6,0,0,0,0,0,0,0,0,0,0,0,0,0
32,4,98,6,8,98,4,98,100,98,98,88,66,94,2,22,0,2,76,10,20,14,96,0,0,0,0,0,0,2,36,6,10,4,100,60,0,38,98,98,98,44,60,100,46,14,34,0,98,0,0,0,0,16,8,0,0,0,0,0,0,0,30,0
14,14,2,2,16,34,32,34,98,46,92,64,98,56,78,6,72,0,0,0,0,0,0,0,0,0,0,0,0,96,20,4,30,22,76,12,2,36,98,98,66,98,98,96,98,50,2,98,4,12,0,0,0,0,0,0,0,0,0,0,0,0,26,18
98,0,0,10,0,16,98,98,32,62,96,20,98,6,0,0,0,8,0,0,0,0,0,0,0,0,0,0,8,98,48,54,98,4,90,4,96,12,28,98,98,98,52,60,98,24,18,22,0,98,2,0,0,0,66,0,0,0,0,0,10,82,0,42
22,0,40,38,36,0,24,98,98,56,60,98,32,66,42,8,6,0,0,42,2,0,0,30,0,0,0,98,0,0,58,14,98,98,8,6,20,74,98,98,98,100,98,98,98,98,98,96,0,0,6,0,0,94,0,0,0,0,0,0,0,0,66,0
50,16,22,84,98,6,18,60,60,92,98,36,4,10,64,20,0,6,2,0,0,0,0,0,4,0,0,0,0,42,8,98,10,0,8,98,0,24,94,34,100,100,98,98,98,68,98,2,6,0,6,0,2,14,0,0,0,0,0,0,0,0,0,0
98,0,0,6,16,56,28,70,56,68,56,96,46,24,68,6,2,0,12,0,0,0,0,0,0,0,0,0,36,86,0,12,34,40,0,2,98,50,98,98,64,96,16,98,98,98,94,28,0,0,0,0,0,34,0,8,0,0,0,0,0,92,8,0
2,0,2,2,98,0,6,96,98,98,22,46,0,30,24,98,30,0,0,92,0,0,6,0,0,0,0,0,0,16,12,98,56,98,8,10,8,46,46,98,100,100,14,38,100,2,98,2,0,0,0,0,0,0,98,2,0,0,0,0,0,26,74,2
24,0,98,4,2,0,98,98,52,40,98,96,98,96,66,98,0,0,0,0,28,0,0,4,0,0,0,0,0,26,4,96,98,12,94,98,2,0,60,100,100,96,38,98,12,14,2,2,12,0,8,2,0,0,0,0,28,0,0,0,0,42,0,14
4,66,14,12,12,96,40,98,98,50,100,98,96,42,8,0,2,68,0,0,56,8,20,0,0,0,0,0,0,22,0,16,46,100,2,24,4,36,98,36,98,30,98,98,98,8,14,14,80,0,90,0,0,16,98,0,0,0,0,0,0,42,0,10
0,0,2,12,34,0,98,96,98,98,98,36,98,36,88,0,20,22,0,6,20,0,0,16,0,0,0,2,0,6,98,98,98,24,8,0,0,32,16,100,98,42,34,100,22,38,16,62,0,0,0,0,0,52,0,0,0,0,0,0,0,0,32,0
80,2,98,0,4,78,98,98,100,98,98,82,28,98,0,76,98,0,0,0,0,98,68,0,0,0,0,0,84,98,2,62,82,0,100,96,8,98,98,98,98,98,98,98,74,98,6,4,0,0,4,98,0,0,0,0,0,2,0,0,42,0,4,0
0,4,0,36,98,0,32,96,98,92,40,92,98,98,0,16,34,0,0,0,0,0,0,0,0,0,0,0,4,0,16,30,98,6,8,2,6,20,96,100,24,40,98,98,70,82,98,40,22,2,0,0,0,0,0,0,0,2,0,0,0,56,2,96
10,86,2,10,34,96,46,100,98,46,98,58,98,94,0,72,0,0,0,6,0,0,14,0,0,0,0,0,0,8,98,18,4,28,6,98,8,98,26,100,30,96,98,98,98,96,94,96,16,0,2,0,0,0,98,2,36,2,0,0,0,34,0,0
98,0,0,22,72,2,98,14,92,26,66,86,100,60,2,42,0,0,36,60,0,0,0,0,0,0,0,0,0,12,50,36,28,4,10,0,98,98,98,98,98,100,98,100,98,96,98,78,78,56,40,44,38,32,0,0,0,0,0,0,0,92,32,0
98,2,0,12,4,98,66,96,98,98,64,100,98,38,50,0,0,0,0,0,2,0,0,98,0,0,0,0,0,4,98,94,94,10,56,100,98,98,98,98,98,98,98,96,98,94,88,90,58,54,0,0,0,0,94,0,0,0,0,0,0,0,26,52
98,12,0,2,2,46,40,24,98,96,98,28,98,0,0,36,32,0,0,0,0,2,0,2,0,28,0,0,0,0,98,14,14,22,0,4,10,98,100,98,98,98,98,98,98,98,72,0,12,0,0,0,0,26,0,0,0,0,0,0,0,0,36,14
38,6,98,0,0,96,26,48,98,88,100,98,44,98,44,8,0,2,0,0,0,14,0,0,0,0,0,0,0,98,96,98,96,66,50,0,92,6,98,96,98,96,100,96,98,0,66,96,0,0,0,0,4,0,0,0,0,0,0,0,0,34,0,12
0,98,8,0,2,92,52,50,98,84,48,70,34,38,0,98,0,0,0,0,0,0,0,0,0,0,0,96,0,98,98,98,68,28,96,84,80,98,98,96,98,98,96,98,98,98,96,4,96,46,96,78,0,16,88,0,0,0,0,0,0,0,92,14
0,98,0,0,0,98,6,98,98,96,98,98,98,96,24,98,0,0,0,0,14,96,0,98,0,0,0,0,0,0,98,88,98,98,100,0,16,4,98,98,100,98,98,100,96,98,98,14,0,0,0,0,0,0,2,0,0,0,0,0,0,0,0,74
0,18,0,0,2,76,98,58,100,54,64,98,48,92,96,96,0,0,0,0,0,0,2,0,0,0,0,0,0,2,98,6,94,0,2,2,0,16,98,46,100,50,98,98,98,2,48,96,78,0,0,26,0,0,0,0,0,0,0,0,0,0,66,16
30,6,0,2,20,18,98,34,98,98,98,88,38,98,98,24,0,8,0,0,2,0,8,0,0,0,2,0,0,34,2,0,14,14,14,10,28,100,4,96,50,100,36,34,98,100,2,44,0,24,0,0,0,0,0,6,2,0,0,0,0,0,0,70
96,0,0,0,36,0,98,90,96,52,98,16,98,98,16,98,66,0,0,0,0,0,20,0,0,98,0,0,0,2,56,14,0,2,0,16,0,18,98,16,100,100,98,98,98,98,96,86,0,0,0,16,2,0,0,0,0,0,0,0,0,4,12,98
8,4,2,0,88,6,100,98,80,86,100,30,0,6,98,38,2,100,2,2,26,28,0,32,24,0,0,0,96,96,96,98,0,0,8,0,98,96,98,98,98,98,98,100,84,94,76,34,96,72,2,0,0,0,6,0,0,0,0,0,0,6,50,2
14,16,98,4,98,28,10,24,22,86,100,74,10,26,58,28,10,98,0,4,14,6,12,0,0,0,2,0,0,98,2,98,98,36,96,96,96,0,98,98,100,96,98,98,98,94,90,62,4,76,0,44,88,0,0,10,2,0,0,0,0,96,0,76
2,6,0,0,0,82,98,96,98,24,66,98,98,16,8,2,42,0,0,0,2,2,4,8,0,0,0,0,16,0,96,98,0,14,4,98,98,96,96,98,100,98,96,96,98,96,96,66,54,84,38,28,0,78,0,42,0,0,0,0,0,0,52,0
94,82,56,10,0,2,96,98,98,40,98,34,54,56,6,98,0,2,0,0,0,2,24,0,0,0,0,0,96,98,88,4,96,0,8,98,64,100,34,98,100,98,92,98,98,96,98,74,0,0,0,0,0,4,0,0,0,0,0,0,0,30,2,2
98,24,0,90,28,0,98,66,100,34,14,100,32,82,76,20,0,0,10,0,2,24,0,0,0,2,0,0,94,6,98,98,0,98,96,0,98,92,98,98,98,98,74,98,26,98,14,18,4,0,98,0,0,6,0,8,2,0,0,0,0,0,48,14
0,6,2,0,52,22,14,98,100,98,18,100,10,40,0,96,44,0,0,0,16,18,6,0,0,0,0,0,2,24,30,10,6,98,0,10,0,98,32,100,98,98,100,98,98,98,12,98,24,20,4,0,52,12,98,0,0,0,0,0,0,64,0,18
84,2,22,4,96,24,96,0,98,96,98,20,30,100,28,10,14,0,0,0,0,0,0,0,0,0,0,0,0,4,32,8,4,62,8,2,0,80,98,68,100,98,96,8,100,100,30,20,0,0,24,0,0,98,6,0,98,0,0,0,18,0,96,0
94,4,98,0,12,98,94,66,84,36,98,72,98,42,14,12,0,10,0,0,0,0,0,0,0,0,2,2,0,4,98,98,34,36,0,2,10,40,98,98,98,98,98,98,24,100,96,0,0,0,0,0,12,2,4,0,0,0,0,0,0,0,42,0
