16,152,64,8,255,0,168,96,120,255,255,255,96,88,0,255,168,0,255,0,0,255,8,0,0,0,0,0,32,0,0,88,184,16,16,255,0,255,255,255,255,255,255,255,64,255,255,255,0,255,0,0,0,0,32,64,0,0,0,0,0,0,0,144
0,255,0,72,0,255,104,255,152,255,255,56,32,255,255,255,0,255,0,0,0,0,0,0,80,0,0,0,0,16,144,255,0,24,0,40,32,16,255,255,255,255,255,255,255,16,104,0,0,0,0,0,0,0,0,255,0,0,0,0,0,0,152,112
255,0,112,0,0,255,88,255,255,64,255,255,112,255,24,0,40,0,0,64,0,112,255,0,0,0,0,0,0,0,255,160,168,255,0,255,96,255,255,255,104,255,255,48,176,255,56,0,24,24,0,16,0,80,0,64,0,0,0,0,0,136,0,128
88,255,0,64,0,255,255,96,255,255,128,255,255,0,32,24,0,0,0,0,0,0,0,0,0,0,0,0,0,0,0,104,192,112,160,255,255,255,255,255,255,255,255,255,255,255,255,72,48,255,192,16,8,0,176,16,0,0,0,0,0,255,248,16
255,40,24,216,248,208,208,255,255,255,255,136,136,144,168,80,0,0,0,88,0,0,8,96,255,0,0,0,88,255,80,255,208,255,0,0,255,255,96,255,255,255,255,255,255,255,248,240,168,128,120,192,120,0,224,24,0,0,0,0,0,255,0,120
255,0,0,16,0,80,255,255,255,255,72,255,255,255,48,0,0,0,0,0,0,0,0,88,0,0,0,0,72,0,0,0,24,0,64,8,64,255,255,56,56,255,255,136,24,255,255,0,0,40,0,0,255,0,0,240,0,0,0,0,0,0,0,255
16,0,8,255,8,64,48,255,176,216,255,255,8,255,0,255,8,8,0,0,0,8,0,8,0,0,0,0,24,0,80,0,96,48,255,0,8,255,16,255,255,255,255,40,56,88,96,0,0,24,0,0,0,0,0,40,0,0,0,0,0,0,255,0
120,0,40,0,48,255,255,255,216,255,208,224,255,224,248,0,0,104,0,0,0,0,0,0,0,0,0,0,0,0,255,255,64,0,24,8,255,255,255,255,255,255,255,160,255,160,176,255,255,136,104,72,112,0,0,0,0,0,0,0,0,0,255,0
255,0,255,0,0,0,255,255,255,255,16,255,255,48,80,0,0,0,0,0,0,0,255,0,0,0,0,0,0,8,255,255,255,24,255,64,160,255,240,255,255,255,255,56,255,255,128,0,0,0,255,0,16,88,8,0,0,0,0,0,16,0,0,136
8,255,32,255,240,48,255,255,255,144,255,255,255,40,64,144,96,40,128,0,72,128,0,24,0,40,0,0,24,255,128,96,32,104,0,32,255,8,80,104,255,255,255,232,255,240,48,176,0,0,255,8,120,192,248,200,88,0,0,0,0,255,224,255
255,224,152,184,80,255,255,168,248,72,176,255,255,255,255,0,0,0,16,0,56,8,0,0,0,0,0,0,0,0,255,255,120,40,0,255,0,255,24,255,255,255,255,0,255,255,0,8,56,0,0,0,0,0,0,0,255,0,0,0,0,0,8,255
255,0,0,56,255,255,255,255,255,255,255,255,200,255,255,80,128,0,24,64,56,16,8,112,8,64,0,0,0,0,40,255,112,56,255,255,255,255,255,255,255,255,255,255,0,255,255,104,0,0,0,0,255,255,32,0,0,0,0,0,0,80,8,255
72,16,48,16,32,255,56,80,255,176,64,255,255,192,72,120,0,0,0,0,0,0,255,40,0,0,0,0,0,16,0,255,255,32,255,72,255,255,255,136,255,255,255,255,255,255,255,255,0,0,0,8,0,24,0,0,0,0,0,0,0,0,168,255
255,64,0,24,255,120,255,255,255,136,255,255,208,255,255,80,0,0,0,0,0,0,0,0,0,255,0,0,0,255,255,255,255,56,0,255,0,255,104,255,255,255,255,255,80,255,112,0,255,0,0,255,16,0,24,0,0,0,0,0,144,0,255,0
8,255,40,255,40,80,255,255,255,255,96,152,255,255,16,255,255,32,255,0,0,0,80,56,0,0,0,0,0,255,0,255,255,255,255,0,120,255,255,255,255,255,255,255,216,248,255,136,8,200,255,32,104,96,8,8,0,0,0,0,0,0,255,0
0,112,255,16,255,255,255,255,255,255,255,255,255,224,255,88,0,48,0,255,240,176,80,40,0,0,0,0,0,255,255,255,255,255,56,255,255,255,255,255,255,255,255,255,255,40,255,144,40,0,128,255,136,88,80,96,24,0,0,0,0,255,255,255
0,255,112,32,112,255,255,255,48,255,255,255,255,255,160,255,176,0,0,64,255,136,56,0,0,0,0,0,0,8,255,255,255,255,0,16,255,255,255,255,255,255,255,255,255,255,64,255,0,0,0,0,0,255,16,56,0,0,0,0,0,0,80,255
255,0,80,0,255,248,80,255,255,255,255,208,0,0,0,248,0,72,0,8,0,40,32,0,0,24,0,0,0,248,255,255,255,104,255,255,255,255,255,255,255,255,255,255,255,255,255,255,255,255,0,40,0,168,0,0,0,0,0,0,0,96,224,0
255,40,255,32,160,240,255,136,255,176,184,255,255,255,255,0,0,0,0,0,152,255,40,136,0,0,0,0,255,0,152,255,56,64,255,64,255,255,255,255,255,255,255,255,255,255,255,255,64,224,200,152,88,64,128,168,0,0,0,0,8,152,255,255
40,255,0,24,0,255,128,255,192,255,255,255,255,255,40,0,8,40,184,56,24,0,0,0,0,0,0,0,0,0,255,255,255,8,255,32,24,255,255,255,255,255,255,255,255,255,255,255,168,255,240,0,0,128,24,0,0,0,0,0,0,0,255,48
64,255,48,8,48,96,255,255,255,184,136,56,0,255,24,0,48,40,0,0,0,40,0,0,0,0,0,0,0,8,255,24,48,8,255,8,24,96,255,255,176,72,255,80,0,128,255,40,0,0,0,72,0,8,0,0,0,0,0,0,0,0,0,0
8,24,16,255,8,24,255,128,192,255,255,128,255,255,192,96,8,0,0,0,0,0,32,0,0,0,0,0,0,0,120,255,120,168,255,232,216,255,255,255,255,120,255,255,104,64,255,0,0,0,0,255,0,0,0,0,0,0,0,0,0,136,0,0
128,255,0,0,40,255,24,255,255,255,248,255,0,160,255,24,255,8,0,168,0,255,0,0,8,0,0,8,32,0,0,80,255,0,255,112,0,255,255,152,255,255,255,136,255,255,255,144,0,8,0,0,216,48,255,200,224,0,56,0,0,0,208,184
255,136,0,224,255,255,232,255,255,255,255,255,192,120,72,24,72,0,0,0,0,0,0,0,0,0,0,0,0,0,88,255,48,255,8,8,16,255,255,255,255,224,255,255,255,232,255,184,255,216,144,176,88,56,0,0,0,0,0,0,0,24,200,0
88,240,255,32,64,255,255,240,152,255,168,255,232,255,255,56,200,40,0,16,0,8,168,0,0,0,0,0,0,128,255,112,255,136,255,255,240,255,255,255,255,255,255,255,255,255,255,255,0,240,208,176,152,136,128,0,0,0,0,0,0,144,255,255
96,208,8,168,0,64,255,255,72,208,255,255,255,255,152,16,255,8,0,0,136,16,8,8,0,0,24,0,255,0,255,255,8,255,255,0,255,255,255,255,255,255,255,160,96,56,255,255,168,192,96,0,48,232,64,144,64,8,0,0,0,0,184,176
168,0,184,0,255,224,208,255,255,255,255,255,255,176,255,0,128,0,0,168,0,232,0,255,0,0,0,0,0,144,112,255,255,255,8,32,255,255,8,255,255,255,232,255,208,192,255,72,136,8,240,0,24,0,88,208,176,64,0,0,0,128,216,184
255,112,112,0,152,255,24,255,255,255,255,255,16,255,0,0,0,0,0,0,0,0,0,0,0,0,0,0,0,0,8,104,255,0,24,255,255,96,255,255,144,255,255,255,255,255,152,216,8,0,0,72,0,0,0,0,0,0,0,0,0,0,144,192
8,0,112,0,32,255,112,255,160,255,255,24,255,255,208,56,0,0,255,8,0,0,0,0,0,0,0,0,0,0,184,255,208,80,128,184,255,248,255,255,255,255,255,255,255,152,255,0,56,40,0,40,0,255,40,0,0,0,0,0,0,0,255,40
0,8,0,104,16,255,64,255,152,255,255,255,224,160,24,32,8,0,0,0,72,0,0,0,0,0,0,0,0,152,0,56,32,120,8,88,48,255,255,255,255,232,255,152,255,64,255,255,0,0,0,24,0,255,200,136,72,0,0,0,0,152,255,255
255,0,255,0,80,255,48,255,255,255,128,255,255,120,112,0,0,104,0,0,0,255,0,0,0,0,0,0,0,160,0,120,32,255,32,8,192,72,120,255,255,255,184,255,168,255,255,184,128,168,112,152,80,152,96,88,0,0,0,0,0,0,232,255
0,255,0,40,0,8,255,255,136,160,255,255,88,255,255,216,0,0,0,0,0,88,0,0,0,0,0,0,40,0,0,255,40,0,64,0,112,48,255,255,255,255,255,56,0,255,120,0,40,112,0,0,0,16,8,0,0,0,0,0,0,0,255,56
0,0,8,0,255,48,64,255,200,255,208,255,255,255,0,255,0,0,0,56,0,0,0,0,0,0,0,0,0,0,56,255,168,255,255,8,72,200,255,255,255,255,255,255,255,255,255,192,255,128,56,120,0,80,0,8,0,255,0,0,0,0,136,255
16,104,80,0,8,255,184,255,255,255,255,144,224,255,16,255,8,0,16,48,0,0,24,0,0,0,0,0,0,96,64,0,88,24,88,24,255,255,72,255,255,255,176,255,8,255,255,0,8,255,0,0,255,24,0,0,0,0,0,0,0,0,0,8
0,128,168,0,24,72,255,80,232,168,255,255,255,80,16,24,255,0,0,0,0,0,0,0,0,0,0,0,0,0,152,128,80,32,24,0,40,208,255,64,255,255,255,255,255,72,0,0,0,0,0,0,0,8,0,0,0,0,0,0,0,0,120,0
0,0,255,24,0,56,255,255,255,255,255,255,255,80,40,96,0,80,0,0,0,0,8,0,0,0,0,0,0,8,0,255,152,8,48,0,16,255,40,136,255,255,255,16,64,255,240,0,0,0,0,0,0,0,255,48,0,0,0,0,0,0,0,16
0,255,8,64,0,255,16,255,255,216,88,255,255,255,0,0,72,0,0,0,0,224,8,0,0,0,0,0,0,0,255,112,168,176,255,152,255,128,56,255,255,255,255,255,104,255,255,40,176,255,0,0,16,0,0,255,0,0,0,0,0,0,0,255
40,8,48,255,16,16,255,255,255,255,255,255,255,255,0,255,255,0,0,0,0,0,24,255,0,0,0,0,0,0,255,255,128,40,16,168,104,80,255,255,255,255,255,255,255,255,255,0,0,0,208,255,0,0,255,0,0,0,0,0,0,255,160,255
0,255,88,255,255,255,255,255,208,255,255,208,255,255,104,16,255,96,8,0,160,0,128,24,0,0,0,0,255,120,255,160,255,255,255,0,255,255,255,255,255,255,255,255,255,224,200,248,255,192,136,144,128,168,168,0,0,0,0,0,32,136,255,0
72,0,255,232,255,255,64,255,160,255,255,224,152,255,40,255,255,0,96,0,0,224,0,0,0,0,0,0,64,136,255,255,96,255,255,255,255,255,232,255,255,255,224,255,255,255,0,255,255,56,16,0,24,0,248,255,0,0,0,0,0,24,255,0
64,0,64,255,16,255,40,255,255,255,152,104,255,0,40,24,160,0,0,0,128,0,0,0,0,0,0,0,0,16,128,0,8,255,24,32,0,255,255,56,255,255,96,255,0,255,64,0,0,0,255,0,0,0,0,0,0,0,0,32,0,0,8,216
8,255,255,0,16,255,255,255,255,255,255,200,8,255,255,0,0,0,0,0,0,0,0,0,0,0,0,0,72,0,56,104,8,0,255,32,104,255,72,255,184,112,208,255,255,112,0,255,0,0,24,8,255,0,24,255,0,0,0,0,0,0,96,16
8,8,16,0,255,0,40,255,255,255,255,208,112,255,200,168,0,0,0,8,0,24,0,0,0,0,0,0,0,0,40,96,152,88,255,0,80,255,64,255,136,255,72,255,255,184,255,184,56,56,56,255,255,0,0,0,0,0,0,0,0,0,200,96
255,0,255,0,0,255,255,255,255,255,255,255,24,80,56,0,255,0,168,0,0,8,0,0,0,0,0,0,200,136,32,255,16,0,56,32,56,40,255,255,152,255,255,56,32,160,255,0,0,0,255,16,0,0,0,0,0,0,0,0,0,0,0,0
255,0,16,0,24,255,120,255,255,255,200,255,200,0,255,0,0,255,0,0,0,0,96,0,0,0,0,0,0,0,160,0,255,56,112,0,72,255,255,64,255,255,255,255,0,255,64,255,0,0,0,0,255,0,0,8,0,0,0,0,0,0,8,255
8,32,0,255,0,255,88,255,255,255,255,255,255,255,0,0,0,0,0,0,0,255,0,0,0,0,0,0,0,0,32,16,255,112,40,40,96,16,255,255,255,255,255,255,255,255,255,16,255,0,0,8,0,8,255,0,48,0,0,0,128,0,255,0
255,80,0,255,0,255,112,255,255,255,255,255,0,255,0,8,255,56,216,128,208,0,0,152,0,0,0,0,0,255,216,255,48,255,255,240,255,255,255,255,255,255,255,255,255,255,255,255,200,0,0,16,0,216,255,0,0,0,0,0,0,0,255,0
255,104,88,32,0,255,255,255,255,255,255,255,128,40,255,48,0,255,0,0,48,0,255,0,0,0,0,0,0,8,64,255,255,255,96,255,255,255,255,255,255,255,255,255,88,255,160,184,152,128,255,0,0,40,0,0,8,0,0,0,96,255,136,255
255,255,56,0,255,255,255,255,255,255,152,255,255,128,8,0,0,255,0,0,0,0,0,0,0,0,0,0,0,255,8,255,88,255,168,255,144,255,255,224,255,255,255,192,255,255,255,184,255,0,0,255,0,0,8,0,0,0,0,0,0,0,255,0
255,255,255,16,16,255,56,255,120,255,255,255,255,80,80,0,40,0,208,48,0,0,64,40,0,0,0,0,0,255,255,255,255,255,40,8,255,255,255,255,255,255,255,255,255,255,255,200,0,184,0,24,0,8,0,0,0,0,0,0,0,40,0,8
