0,0,0,30,5,40,80,215,245,25,245,90,240,245,10,55,15,0,0,15,0,0,0,0,0,0,0,85,0,240,185,245,40,0,55,245,5,245,245,165,245,220,245,250,245,245,245,120,0,240,0,0,0,0,5,0,0,0,0,0,0,0,0,240
0,45,35,0,35,5,245,245,45,245,190,80,245,245,45,0,0,0,0,0,0,0,0,0,0,0,0,0,0,0,245,10,245,150,0,5,245,245,245,245,245,245,245,245,245,245,240,0,50,0,195,0,105,5,240,95,0,45,0,0,0,0,215,45
50,5,5,35,70,40,245,245,245,35,105,175,250,5,20,245,5,0,0,0,0,0,5,0,0,0,0,0,240,245,200,240,245,245,245,245,240,245,35,245,245,250,245,245,35,245,240,230,0,205,240,0,60,0,15,0,0,0,0,0,0,0,0,230
20,5,240,0,240,235,35,240,245,245,245,245,245,150,245,245,0,180,0,0,0,0,0,245,0,0,0,0,0,0,245,245,45,25,250,95,245,245,245,245,245,245,245,170,245,245,100,245,245,245,0,40,5,0,0,195,0,15,0,0,0,0,205,220
230,220,0,115,235,130,35,245,185,230,245,95,250,245,245,245,40,0,10,100,0,0,0,40,130,0,0,245,0,0,245,245,185,160,250,245,120,250,245,245,245,245,245,245,245,240,115,220,15,245,15,240,160,170,145,150,0,0,0,60,0,0,5,180
205,0,0,0,220,200,60,245,20,245,20,245,245,175,10,0,0,0,0,0,0,0,45,0,0,0,0,0,25,245,245,245,245,245,125,80,245,250,245,245,245,245,250,240,155,230,245,230,245,0,50,240,85,0,190,0,0,0,0,0,0,0,5,235
240,50,240,240,15,240,220,225,250,245,245,145,130,245,5,0,5,65,0,0,0,0,0,10,0,0,0,0,0,0,140,245,180,245,215,130,250,130,245,240,250,245,245,70,245,245,240,40,5,0,0,0,0,0,110,25,0,0,0,0,0,0,35,0
150,245,95,85,105,135,245,130,245,245,110,240,245,250,0,0,245,125,65,0,5,5,90,5,0,10,0,0,0,245,0,245,245,220,150,175,155,160,245,245,240,245,245,245,245,245,130,245,60,200,55,200,225,240,140,230,0,0,0,0,0,0,95,20
5,90,0,0,240,220,170,245,245,245,210,80,240,85,245,75,5,10,0,95,20,80,45,0,0,0,0,0,0,240,245,245,125,245,205,240,240,240,245,245,245,245,240,245,245,180,245,230,240,115,0,70,0,240,120,215,0,0,0,0,0,0,140,240
140,105,0,5,20,55,120,245,160,45,245,175,55,105,0,15,245,0,10,0,0,0,55,0,0,0,0,0,0,125,245,250,245,245,240,15,245,245,245,195,245,245,245,245,225,240,245,235,245,95,140,100,35,90,60,0,60,0,0,0,0,0,240,180
195,115,60,0,245,225,245,245,245,200,245,245,125,245,15,25,0,0,0,0,0,35,0,245,25,0,0,0,0,0,130,245,245,0,235,240,240,250,235,245,245,245,240,245,245,200,165,245,165,210,220,0,10,35,0,0,0,0,0,0,0,0,20,240
0,105,85,35,245,90,245,55,130,80,245,170,245,120,195,165,25,0,10,0,0,0,0,0,0,0,0,0,0,245,235,240,15,240,5,0,35,245,250,205,135,240,245,245,235,245,240,210,0,0,0,245,0,5,0,240,0,0,0,0,0,0,5,240
0,15,5,245,20,85,245,245,105,245,240,125,235,245,70,245,0,0,0,0,0,0,0,0,0,0,0,0,0,25,10,225,55,0,0,10,250,20,45,245,245,190,245,25,245,0,245,0,0,35,0,0,0,0,195,0,0,15,0,0,0,0,130,20
110,0,0,0,245,245,240,240,30,230,165,210,245,245,245,35,245,20,60,0,5,30,0,100,0,0,0,0,0,45,5,80,25,25,30,245,0,5,245,245,245,245,250,240,80,25,245,5,20,0,0,15,0,5,150,0,0,0,0,0,0,0,45,0
25,240,0,5,240,135,195,140,190,245,240,245,35,210,25,75,100,15,0,0,0,0,0,0,0,0,0,0,0,20,5,15,245,245,245,245,250,15,245,245,245,115,245,130,245,40,245,0,200,110,40,245,15,20,90,0,0,0,0,0,0,0,245,0
180,135,0,50,135,245,70,245,30,70,185,250,245,45,10,245,25,15,0,0,20,245,0,0,0,0,0,0,0,0,245,15,65,80,245,95,0,245,220,240,240,245,245,245,245,25,245,230,245,0,0,0,245,5,0,0,0,0,0,0,0,0,0,0
245,80,15,45,65,15,120,60,250,245,105,245,95,175,105,35,5,30,0,0,40,145,45,10,10,0,0,0,0,10,245,30,245,5,245,10,245,35,250,205,180,185,245,165,210,245,0,5,130,0,0,0,0,245,10,0,0,0,0,0,0,100,0,80
245,10,70,30,240,245,240,245,250,245,240,245,145,240,240,245,0,10,0,0,180,0,0,5,0,0,0,0,0,5,0,0,0,245,245,15,5,250,245,245,245,245,240,235,240,250,240,245,140,225,0,0,0,0,130,0,0,0,0,0,0,0,0,245
0,130,25,5,5,5,115,85,250,235,30,245,15,250,20,5,5,0,0,15,0,30,5,0,0,0,0,0,235,35,245,245,245,0,240,0,245,240,250,245,240,245,240,210,210,170,240,0,0,0,245,0,10,0,245,0,0,0,0,0,0,0,0,0
0,50,0,0,240,170,245,80,80,50,165,105,10,250,0,0,0,0,0,0,0,0,0,0,0,0,0,0,220,245,235,230,5,0,0,245,245,15,235,240,245,245,245,240,245,230,245,0,0,0,0,45,0,0,245,0,95,0,0,0,0,0,245,20
0,45,0,5,10,5,0,245,240,95,65,245,40,245,60,10,0,0,0,0,240,0,5,0,5,0,0,240,0,245,0,240,245,240,0,85,250,240,10,245,245,240,240,235,240,220,0,30,0,245,175,0,5,0,240,0,0,0,0,0,0,0,5,245
35,0,15,0,40,240,35,245,245,235,245,245,240,120,55,245,125,0,180,20,0,0,0,60,0,0,0,0,0,0,240,240,0,15,75,220,200,220,245,250,245,245,190,210,245,245,225,170,0,0,0,0,0,0,0,0,0,0,0,0,0,0,5,0
245,0,0,0,0,5,235,240,250,245,25,245,245,195,50,245,55,0,0,0,0,0,0,0,0,0,0,0,5,0,0,15,245,25,60,240,240,40,245,240,245,245,245,35,245,0,245,0,0,0,0,0,0,245,0,10,0,0,0,0,0,0,0,5
240,0,0,20,230,0,130,245,250,245,240,135,185,245,0,150,35,0,0,0,0,0,10,0,0,0,0,0,0,0,5,5,245,0,0,245,5,50,245,250,245,245,245,245,250,240,20,245,5,0,0,0,5,0,5,0,0,0,0,0,0,0,0,0
245,195,210,145,105,245,155,140,250,210,205,245,230,240,120,50,5,0,0,20,0,0,0,0,0,0,0,0,0,0,50,245,25,235,110,240,195,90,245,245,240,250,240,245,245,220,10,110,70,0,0,0,30,15,240,0,0,0,0,0,0,0,245,0
25,0,0,0,245,25,240,245,40,85,245,20,70,90,195,95,0,0,0,0,0,0,245,0,0,0,0,0,0,245,20,245,250,50,30,245,240,165,220,160,195,85,250,245,150,225,155,225,40,45,0,0,180,240,245,0,0,150,0,0,0,0,225,0
175,5,35,5,95,130,105,60,250,40,245,25,245,15,150,0,245,0,0,25,10,0,0,240,0,0,0,0,0,0,245,240,240,15,240,10,245,245,245,245,245,245,240,225,245,40,15,50,0,0,25,0,15,0,0,0,0,0,0,0,0,0,0,85
0,50,245,240,5,245,245,105,175,250,130,245,220,0,245,0,10,0,75,0,0,0,10,0,0,0,0,0,0,0,245,210,30,245,10,0,245,85,245,245,245,245,40,60,245,240,245,85,0,0,0,0,0,0,25,220,0,0,0,50,0,35,240,35
0,10,225,245,0,30,245,245,245,245,250,250,210,25,240,0,0,245,0,0,175,0,0,0,0,0,0,0,0,0,10,25,15,245,0,5,245,245,30,245,245,245,245,245,245,245,45,135,0,0,245,0,5,0,245,240,0,0,0,0,0,245,0,0
10,240,0,0,20,20,35,245,245,245,245,245,105,240,160,245,30,5,40,5,25,0,0,0,0,0,0,0,0,0,20,240,0,245,10,240,245,245,245,20,200,245,230,165,245,245,205,205,0,0,0,0,0,10,240,0,0,10,0,0,0,75,5,245
240,0,0,0,150,80,245,65,245,245,140,225,250,245,110,5,0,0,0,0,0,0,0,245,235,0,0,0,0,0,25,245,245,5,240,245,10,245,50,65,250,245,150,245,245,0,135,240,240,5,185,45,0,40,115,0,0,0,0,0,0,0,245,160
15,0,240,25,70,210,195,175,245,245,245,245,245,50,245,5,105,195,0,5,5,0,0,0,0,0,0,0,220,0,0,245,235,185,205,170,210,240,245,240,195,240,245,205,210,165,180,200,185,0,15,5,0,0,30,0,15,0,0,0,0,0,90,230
205,40,20,10,0,10,40,95,245,25,245,250,240,65,70,25,15,5,0,5,10,10,15,0,0,0,10,0,0,5,245,105,0,245,240,140,245,245,245,140,245,245,245,245,245,205,190,185,100,0,0,0,30,0,0,0,0,0,0,0,0,0,5,0
0,175,0,20,5,240,85,245,155,250,245,30,245,245,90,55,40,0,5,15,25,0,0,0,0,0,0,0,0,0,15,145,245,5,0,40,30,245,35,250,245,240,240,245,235,240,240,60,240,240,0,0,220,0,10,185,0,0,0,0,0,15,180,205
165,130,210,60,85,15,10,20,245,120,245,185,210,40,245,0,25,115,25,15,40,55,125,115,0,80,0,0,0,240,230,240,25,230,65,70,195,245,245,240,245,250,240,225,200,240,250,170,245,220,0,205,230,195,195,85,0,0,0,0,175,30,225,220
5,15,55,125,160,245,245,30,245,10,245,245,100,0,25,55,5,0,0,5,0,145,245,45,20,0,0,0,0,0,235,200,240,230,235,220,140,195,180,240,250,240,240,230,240,205,240,225,5,0,0,0,0,50,15,0,0,0,0,0,0,0,10,110
0,35,245,240,0,70,40,70,245,0,245,50,180,250,0,25,0,245,0,0,175,115,0,115,245,0,0,0,0,0,25,245,15,250,5,120,245,95,90,250,250,245,240,245,240,60,50,10,245,0,20,0,0,0,105,0,0,0,0,0,0,0,115,10
110,245,10,0,25,60,240,245,245,245,235,245,205,0,45,0,50,0,245,0,0,0,0,245,0,0,0,0,0,5,250,5,25,0,5,5,25,245,245,15,35,245,240,80,130,245,0,0,0,0,0,0,0,0,0,0,0,0,0,0,0,20,0,5
0,245,85,140,15,0,245,40,245,220,245,240,215,245,0,0,40,0,0,0,0,245,25,0,0,0,0,0,0,0,0,25,245,10,0,15,5,245,245,5,130,250,245,45,245,115,245,0,0,0,0,0,35,0,5,0,0,0,0,0,0,0,0,30
0,230,245,0,5,25,70,245,245,215,245,245,115,245,245,25,0,0,0,0,35,0,0,0,0,0,0,0,0,0,115,15,20,5,250,80,5,245,60,15,250,250,245,35,245,245,0,0,245,0,0,0,0,0,15,10,0,0,0,60,0,0,95,0
50,0,30,245,5,245,0,245,240,245,245,240,65,15,0,245,225,5,0,0,0,0,0,0,0,0,0,0,5,0,0,245,245,75,5,5,245,25,240,5,250,245,245,240,215,0,0,0,0,250,0,0,0,0,0,0,0,0,0,0,0,0,5,0
120,25,0,0,5,10,245,250,240,40,80,95,245,95,0,65,0,35,0,0,245,0,0,0,0,0,0,0,0,80,0,0,245,15,10,5,245,35,245,50,245,245,245,245,20,245,25,245,15,0,245,0,0,0,0,35,40,0,0,0,0,125,0,5
0,0,0,0,5,245,0,155,210,245,245,75,5,245,0,245,70,80,0,20,75,35,5,250,0,0,0,0,5,0,245,0,245,0,0,5,0,245,250,245,240,245,245,110,245,60,35,0,100,0,0,0,175,0,0,0,0,0,0,0,0,0,115,0
35,5,0,0,115,245,35,160,230,150,120,0,240,250,5,245,230,0,0,0,0,0,0,170,0,0,0,0,50,0,75,245,5,0,0,45,20,245,95,245,100,245,245,245,220,50,245,15,95,0,245,0,50,0,0,0,0,0,0,0,0,0,10,0
0,5,0,15,5,185,15,250,245,210,245,245,85,245,190,50,10,30,0,0,0,0,0,5,0,0,0,0,0,0,10,245,245,215,0,35,60,70,250,0,245,70,245,180,85,5,25,0,5,5,0,245,0,0,0,0,0,0,0,0,0,0,0,65
240,195,0,20,15,245,40,245,205,245,250,110,115,220,245,40,5,10,0,0,0,245,0,0,0,0,0,0,0,0,245,125,245,5,5,5,5,245,245,245,245,245,245,15,245,160,5,245,0,0,0,245,0,0,0,0,0,0,0,0,0,0,5,230
0,5,0,5,80,210,240,90,245,235,195,245,245,50,30,115,0,0,40,0,10,0,0,0,0,0,0,0,0,45,245,35,240,15,0,0,15,245,5,245,245,245,250,250,245,245,40,5,5,240,0,0,0,10,0,245,0,0,0,0,0,80,50,15
10,245,0,0,240,35,80,245,245,245,245,245,245,245,125,0,120,245,65,25,0,35,0,0,0,0,0,0,0,135,40,125,245,245,240,225,245,210,240,240,25,245,245,245,245,245,245,0,0,0,0,0,0,5,0,0,0,0,0,0,0,80,0,245
5,60,0,5,80,245,35,250,70,90,245,250,125,100,35,10,0,20,45,0,5,0,0,210,0,0,0,0,240,0,25,245,15,0,0,15,245,5,245,250,250,240,10,110,245,50,245,0,245,0,0,0,0,0,0,245,0,0,0,0,0,35,70,20
0,25,0,50,25,240,250,85,245,245,245,245,210,240,245,5,245,15,0,0,0,5,70,0,0,0,0,0,0,0,240,245,0,65,70,50,245,45,25,245,245,245,245,230,35,245,250,10,245,245,35,180,0,185,185,185,0,0,0,0,50,0,120,195
