0,8,24,72,0,64,32,255,160,136,255,255,200,96,0,120,0,0,0,0,0,56,88,0,0,0,0,0,0,0,16,16,255,8,8,80,0,112,255,72,255,112,255,255,255,255,8,255,0,0,0,8,80,255,8,0,0,0,0,0,0,0,8,8
0,8,8,112,0,96,184,255,255,224,144,255,176,255,184,184,48,0,8,0,16,0,0,0,0,0,0,0,0,120,32,24,192,8,0,0,32,88,255,255,255,255,80,255,32,255,16,0,255,0,0,0,0,32,40,0,0,0,0,0,0,0,40,16
8,96,32,8,40,72,96,136,255,240,104,255,128,255,144,64,0,0,16,0,40,0,0,64,0,0,0,0,0,160,8,255,8,255,96,0,96,0,96,255,255,255,255,255,255,255,128,255,160,0,24,0,0,0,48,0,0,0,0,0,0,72,8,255
88,0,8,24,0,24,255,255,112,255,200,255,56,72,112,24,96,0,0,0,0,104,0,0,0,0,0,0,0,16,0,40,96,24,0,72,56,255,168,255,255,255,152,88,88,255,255,80,88,80,0,0,8,0,0,0,0,0,0,0,0,0,88,0
8,96,72,8,64,255,40,255,160,255,255,24,80,255,32,0,72,0,0,40,0,40,0,64,0,0,0,0,0,32,40,64,8,24,0,0,0,255,48,255,255,255,255,255,255,80,144,160,255,8,56,64,255,0,72,0,0,0,0,0,0,0,0,48
0,96,0,56,24,255,144,255,120,255,255,224,176,16,255,255,0,0,0,0,0,64,0,0,0,0,0,0,8,0,248,8,144,16,255,8,24,80,56,255,255,255,255,255,168,120,96,8,16,255,255,0,24,16,80,0,0,0,0,0,0,248,32,64
40,255,8,0,16,56,255,255,255,96,255,136,255,224,0,32,0,24,0,0,8,0,8,0,32,0,0,0,0,8,8,8,24,104,0,56,16,32,255,255,128,255,208,40,200,255,88,128,0,0,168,0,0,104,152,0,0,0,0,0,0,8,0,255
255,0,32,0,255,8,255,232,255,255,255,255,80,32,248,16,88,0,8,0,0,0,0,8,0,0,0,0,0,0,0,8,255,255,32,24,8,24,72,255,255,88,224,255,255,88,255,72,120,0,88,0,40,56,8,0,0,0,0,0,0,48,0,16
255,80,72,40,72,160,255,255,96,168,255,255,255,24,0,255,40,0,0,0,0,0,0,0,0,0,0,0,0,136,0,88,48,48,144,255,40,40,80,56,255,255,255,255,255,255,0,72,56,0,0,40,0,72,8,0,0,0,0,0,0,0,48,0
32,0,128,8,40,255,144,64,216,255,255,255,255,112,88,208,0,80,0,0,48,40,0,0,0,0,0,0,0,0,8,8,64,40,0,8,48,40,255,255,255,255,255,255,72,255,128,24,0,0,8,0,0,0,0,0,0,0,0,0,0,0,0,0
88,80,0,64,24,255,128,56,255,152,216,80,152,255,128,40,16,80,0,8,80,0,0,0,40,0,0,0,0,0,0,8,255,0,24,32,40,32,255,255,255,255,255,255,255,255,255,200,16,240,160,72,168,232,64,0,0,0,0,0,0,0,255,255
88,104,0,0,8,255,112,64,255,255,255,255,120,224,104,80,8,0,0,0,136,112,0,112,0,0,0,0,0,0,0,16,24,8,0,8,80,64,96,255,64,40,96,255,56,152,255,24,0,0,0,0,0,80,40,0,0,0,0,0,0,8,0,72
8,40,8,24,255,255,56,255,112,255,152,255,240,255,8,152,0,136,0,0,0,0,0,0,0,0,0,0,0,0,8,40,24,80,72,96,24,255,24,184,255,80,8,255,255,216,160,0,56,8,0,0,0,96,0,0,255,0,0,0,0,0,8,56
8,24,0,0,255,255,255,112,255,32,255,192,255,104,0,0,48,0,0,24,8,8,0,0,0,0,0,0,0,24,8,8,72,0,0,96,48,255,24,112,96,255,255,255,255,255,72,128,8,0,16,0,0,0,0,0,0,0,0,0,0,0,0,255
136,0,48,24,240,0,144,255,255,255,232,255,255,56,0,224,0,0,40,0,0,0,0,0,0,0,0,72,0,32,64,64,56,80,255,0,8,255,255,255,255,255,255,208,72,16,255,255,0,0,16,0,0,0,64,0,0,0,0,0,0,0,0,56
0,120,255,216,56,8,136,128,255,255,224,144,216,152,160,200,0,255,0,8,0,16,0,0,0,0,0,0,0,8,16,0,255,0,8,16,32,16,255,255,200,255,255,255,255,255,160,255,88,0,255,80,0,0,255,32,0,0,0,0,48,208,112,208
216,0,80,255,56,255,255,248,144,112,255,240,168,255,0,255,24,0,0,40,0,0,0,0,0,0,0,0,16,40,96,32,255,80,128,216,255,176,184,255,255,255,255,255,248,255,144,48,112,0,0,0,0,0,0,0,0,0,0,0,0,0,128,255
216,56,0,0,255,64,255,255,192,200,255,255,255,24,208,0,0,0,0,64,0,0,0,8,24,0,0,0,0,104,255,216,176,184,32,80,104,255,255,240,255,255,255,255,255,40,255,224,0,0,40,0,0,0,0,0,0,0,0,0,0,0,255,0
0,56,0,56,64,255,40,255,168,255,152,255,255,8,128,255,32,0,40,0,0,24,40,0,0,0,0,0,8,0,0,144,80,96,152,168,72,240,255,255,255,255,255,112,192,255,255,248,255,0,112,112,112,0,16,0,255,32,0,0,0,0,0,232
32,0,255,24,48,255,255,255,112,168,255,216,120,16,255,8,255,0,0,0,8,0,0,0,8,0,0,0,0,8,16,16,24,255,24,255,255,112,255,255,232,255,255,255,255,255,224,72,0,0,0,0,56,72,0,0,0,0,0,0,0,0,8,255
88,0,120,8,168,24,255,255,255,255,255,255,255,48,128,0,48,40,0,0,0,80,8,0,0,0,0,0,0,40,56,32,64,32,64,64,255,255,255,255,255,255,255,144,255,96,168,184,120,0,0,0,0,0,0,8,0,0,0,0,64,40,0,0
32,255,0,24,72,8,96,255,255,72,255,160,96,88,255,128,0,0,128,255,0,0,0,0,0,0,0,0,0,0,0,112,0,24,8,16,0,56,255,255,255,255,255,255,48,255,0,0,0,40,0,0,0,0,0,0,0,0,0,0,0,8,16,80
255,24,0,0,8,16,112,160,184,255,255,72,255,255,56,136,0,112,0,0,0,0,40,0,0,0,0,0,0,0,255,8,8,96,64,8,0,255,48,255,255,255,255,255,255,255,128,0,48,0,0,0,0,8,0,200,0,0,0,0,0,8,24,0
255,72,0,0,40,255,88,255,255,208,168,255,96,208,32,48,0,0,0,255,72,56,0,255,0,0,0,0,0,255,208,136,192,255,168,0,56,255,255,255,255,255,255,255,255,255,136,160,232,0,255,0,8,0,200,8,192,0,0,0,0,200,240,120
80,24,48,8,24,216,40,152,104,255,255,255,32,208,80,224,0,64,48,0,40,0,104,255,0,0,0,0,176,152,192,255,136,255,200,184,24,255,255,255,255,255,255,255,255,255,255,64,224,224,0,136,208,8,56,0,0,0,0,0,0,80,255,200
160,136,88,48,255,112,120,160,255,168,255,56,240,152,255,216,200,0,16,0,24,0,0,0,0,0,0,0,192,48,232,152,255,168,64,255,176,216,208,200,255,255,255,216,168,96,128,32,128,0,0,8,0,32,40,0,0,0,0,0,16,120,152,0
240,16,8,0,0,0,192,144,255,176,255,255,96,0,136,232,0,200,0,8,0,40,255,0,0,0,0,96,0,168,216,255,255,255,24,176,80,255,255,160,255,255,255,224,255,136,200,255,255,0,0,8,112,0,0,80,0,0,0,0,0,192,128,255
96,176,176,64,136,144,200,255,168,96,208,168,184,255,96,88,192,0,0,0,0,0,0,0,0,0,0,0,255,0,0,255,255,144,136,0,64,240,240,208,255,168,208,255,200,168,255,88,168,96,0,80,0,0,64,0,0,80,0,0,0,0,88,104
32,80,0,184,152,120,152,224,240,255,232,200,255,192,56,8,24,0,0,0,0,176,0,0,0,0,0,0,0,255,0,152,160,96,112,176,96,160,255,255,255,255,255,255,255,255,255,255,0,72,0,0,0,0,0,0,0,0,0,0,255,0,0,255
255,32,0,8,208,64,80,128,128,40,255,216,32,128,16,255,48,0,0,128,0,0,96,0,56,0,0,0,0,0,192,208,136,24,184,24,120,192,176,255,168,248,232,192,255,255,56,224,255,0,144,0,0,0,0,0,0,0,0,0,0,0,32,152
64,8,48,16,16,200,200,255,208,255,255,255,120,184,32,0,168,0,72,0,0,24,0,0,0,0,0,80,80,0,0,40,48,184,40,208,112,255,128,152,255,240,255,255,240,255,255,80,80,72,0,56,88,255,0,0,0,0,0,255,0,0,8,0
255,120,0,152,0,112,255,255,255,136,255,128,255,255,32,192,80,48,0,0,0,0,0,40,0,0,0,0,0,0,24,8,255,80,24,48,24,0,255,255,112,255,255,255,255,192,255,128,232,88,0,32,0,72,0,0,0,0,0,0,0,255,0,0
120,104,0,255,104,176,144,136,255,255,224,208,255,88,72,112,16,0,0,8,0,8,0,0,0,0,0,0,0,0,0,255,0,255,0,0,255,104,255,255,240,255,255,248,255,136,0,128,72,0,0,0,128,8,24,0,0,0,0,0,0,0,16,0
56,24,0,32,255,80,80,255,255,255,255,152,255,255,255,0,16,0,0,24,64,0,0,0,0,0,0,0,0,0,8,0,112,8,0,40,40,56,16,255,255,224,255,255,255,255,176,120,192,96,0,0,88,0,8,0,0,0,0,0,0,80,200,112
32,0,24,40,255,16,112,80,176,255,208,255,255,96,64,255,8,192,0,0,0,0,16,0,0,0,0,0,0,0,8,200,168,255,96,88,96,88,112,255,255,255,255,255,104,255,40,8,0,0,0,16,0,32,0,0,0,0,0,0,40,0,0,16
255,0,40,56,160,112,255,255,255,255,255,248,255,56,104,8,0,0,72,0,0,0,8,0,0,255,0,0,0,0,112,16,24,88,8,0,48,255,128,255,255,255,128,128,255,136,24,128,24,72,88,8,24,255,24,0,0,0,0,0,0,0,24,16
32,0,240,48,64,48,255,255,255,255,255,255,240,255,96,0,72,0,16,24,0,16,64,8,0,0,0,0,0,16,8,16,0,0,16,8,88,255,104,255,255,255,216,255,120,0,255,0,40,104,8,0,0,24,168,0,0,0,40,0,0,255,64,255
120,0,255,24,255,0,112,255,255,255,184,255,176,255,0,152,0,0,0,0,0,0,8,0,0,0,0,0,0,0,8,88,8,0,0,0,40,255,24,255,255,255,136,224,255,112,56,255,0,80,0,0,0,8,0,0,0,0,0,0,0,0,0,16
255,8,0,56,8,80,136,168,255,255,255,255,255,120,184,255,0,0,0,8,88,0,0,0,0,0,0,0,0,8,0,0,40,8,255,255,160,255,255,255,136,255,88,0,255,144,0,8,255,0,0,0,0,16,56,24,0,0,0,0,0,0,0,255
0,255,8,24,255,104,72,255,184,255,255,232,48,152,64,255,72,0,0,96,16,0,0,40,0,0,0,24,0,0,40,40,56,88,16,40,64,64,255,120,168,255,255,255,255,32,72,80,0,255,0,0,0,8,8,24,0,0,0,0,0,0,0,0
255,16,32,0,8,56,255,255,255,128,255,24,248,64,24,48,136,72,0,0,0,0,64,0,0,0,0,0,0,0,8,8,64,0,0,72,24,56,72,255,255,255,255,255,8,112,224,56,0,0,0,16,8,0,48,0,0,0,0,0,0,0,16,0
8,0,255,88,24,64,168,64,112,255,255,200,255,56,232,0,96,0,0,0,0,0,0,8,0,0,0,0,0,8,24,24,0,0,56,0,96,72,255,255,255,255,255,255,255,136,24,255,0,0,0,0,0,0,8,0,0,0,0,0,0,0,16,16
0,24,0,8,24,255,136,255,255,255,136,255,255,255,255,128,0,0,0,0,0,8,0,0,32,0,0,0,0,0,0,0,40,0,96,16,40,104,255,255,112,255,255,255,96,255,88,255,208,0,24,0,8,255,255,0,0,0,0,0,0,0,0,255
0,8,0,0,16,8,112,255,255,255,104,255,176,255,255,255,0,0,0,0,88,0,0,0,0,0,0,0,0,8,8,24,0,255,255,255,48,80,255,56,255,255,104,255,255,255,255,255,80,0,0,0,56,0,0,0,0,0,0,0,0,0,8,0
40,255,0,0,24,0,136,176,255,255,255,255,255,24,8,128,0,80,0,0,0,24,0,0,0,0,0,0,0,0,40,24,24,56,16,255,48,48,255,128,255,255,72,128,255,0,40,88,64,40,0,24,0,32,0,0,0,0,0,0,0,0,24,0
104,96,0,0,8,128,255,200,255,144,112,56,208,255,0,216,0,0,56,0,0,112,0,0,0,0,0,0,0,255,0,24,0,255,16,255,24,255,255,255,255,255,255,255,255,255,56,104,8,255,0,0,0,0,56,0,0,0,0,0,0,0,24,0
32,112,48,64,56,8,144,255,232,255,96,224,255,255,80,0,0,0,0,0,0,0,64,0,0,0,0,0,0,40,0,16,0,0,0,24,16,64,96,255,255,255,255,255,255,255,56,32,64,0,32,0,0,0,0,0,0,0,0,0,0,0,0,96
16,40,0,232,24,255,255,232,255,255,255,88,240,112,255,64,0,0,8,0,0,0,64,8,0,0,0,0,0,16,0,48,255,48,40,32,255,112,255,255,255,255,255,240,255,128,176,255,0,255,0,0,16,0,0,0,0,0,0,0,0,0,0,160
0,136,24,112,8,80,255,96,255,208,248,184,255,144,8,96,208,0,0,0,255,0,32,0,0,0,0,0,0,0,16,32,72,56,0,255,64,255,136,80,160,255,152,255,255,255,200,144,0,0,0,8,96,0,0,0,0,0,0,0,0,0,24,255
96,24,8,255,24,48,96,255,112,255,255,255,255,144,0,0,0,96,0,0,0,80,16,0,0,0,0,0,0,16,0,72,0,8,96,8,96,136,255,255,152,255,255,88,255,255,255,24,40,24,255,0,0,0,32,0,0,16,0,0,0,24,40,48
