0,6,27,138,147,144,21,147,138,147,147,78,69,108,147,27,3,27,0,0,0,39,0,0,0,0,0,0,24,15,15,132,0,0,6,9,150,87,60,126,147,150,63,81,99,48,57,60,66,150,39,0,0,0,0,0,0,0,0,0,0,0,0,123
0,105,147,21,42,96,45,147,144,123,138,111,60,144,33,9,0,0,147,0,33,21,0,0,0,0,0,0,0,30,144,24,27,42,24,78,114,90,96,117,75,147,150,48,81,90,30,84,0,15,9,0,147,0,6,0,0,0,0,0,0,0,6,3
135,9,3,0,126,144,147,141,132,147,78,147,48,36,51,147,21,0,0,9,9,0,54,0,0,0,0,0,0,27,30,42,12,81,42,42,48,63,120,105,150,108,147,69,81,87,75,21,75,60,147,51,3,0,0,0,0,0,0,0,0,0,0,12
0,147,144,144,6,147,144,144,42,30,147,144,60,78,30,30,33,0,0,15,0,18,0,9,0,0,0,0,0,30,33,0,21,15,3,3,21,75,96,150,36,150,147,147,36,72,42,147,30,27,39,15,6,3,3,6,3,0,0,0,0,15,0,3
147,144,78,0,87,147,69,147,147,144,147,144,144,66,147,6,66,0,0,15,0,15,0,0,0,0,0,0,0,15,0,114,42,69,24,78,69,87,69,150,150,87,75,120,147,60,60,54,51,21,9,3,9,3,0,0,0,0,0,0,0,51,57,51
42,30,54,48,45,51,48,9,78,147,51,36,147,48,36,51,0,0,0,6,0,48,0,0,0,0,0,0,0,6,0,54,105,42,51,51,63,72,84,150,117,69,75,63,147,24,48,9,0,9,0,12,0,0,0,0,0,0,0,0,0,0,6,0
3,0,114,6,39,21,141,144,147,99,144,60,33,81,48,0,0,6,147,0,0,0,0,3,0,0,0,0,9,0,3,9,33,24,147,24,24,150,12,33,84,108,117,114,90,51,129,54,42,0,24,0,42,0,0,0,0,0,0,0,0,12,0,6
144,147,0,3,0,138,147,144,144,129,147,135,75,6,36,57,24,0,0,0,0,57,12,0,0,0,0,0,15,3,36,48,27,36,36,66,150,57,111,90,150,78,150,63,63,42,57,60,30,150,33,36,36,9,12,0,0,0,0,0,0,0,51,48
147,75,45,30,0,144,147,36,75,147,75,75,147,72,54,9,57,0,21,3,3,21,96,0,0,0,0,0,36,0,147,150,33,48,30,42,45,147,105,72,57,147,150,63,150,63,54,9,30,0,21,0,0,0,12,0,0,0,0,0,0,0,6,3
111,3,3,78,138,21,147,147,144,147,147,144,15,75,48,0,3,147,0,0,30,0,6,0,0,0,0,0,0,18,21,0,150,42,0,18,3,69,147,150,93,138,150,150,51,69,147,30,0,24,18,0,0,12,0,27,0,0,0,0,0,0,144,147
126,9,144,9,147,69,18,15,147,147,144,138,36,81,21,147,0,0,45,24,9,0,51,0,9,0,0,0,0,3,21,0,0,105,60,30,54,75,150,150,150,78,150,147,30,69,36,42,0,36,150,0,0,30,24,0,0,0,0,0,0,15,0,117
0,15,0,18,147,18,147,147,30,81,126,78,24,63,57,9,30,147,0,0,12,0,0,48,0,0,0,0,0,3,15,12,150,15,0,0,30,30,138,144,150,147,147,138,138,57,150,27,36,0,0,0,3,0,0,0,0,0,0,0,0,15,0,0
3,138,0,27,36,147,144,96,147,78,147,81,36,57,147,3,111,27,0,9,0,0,36,0,3,0,0,0,3,0,18,147,18,21,0,30,27,15,150,150,15,63,51,147,30,147,30,33,0,24,0,0,0,0,0,0,0,0,0,0,0,0,0,27
0,9,3,15,147,15,60,144,30,147,6,147,81,45,87,147,21,0,0,0,0,0,0,0,0,0,0,0,0,0,12,9,24,9,0,30,21,51,150,147,33,63,144,93,147,147,33,24,0,12,12,0,0,12,0,0,0,0,0,0,0,0,0,3
0,0,0,6,51,0,147,30,48,69,147,144,93,48,147,9,42,54,0,0,12,3,9,0,0,0,0,0,0,3,9,24,0,33,24,36,36,150,48,147,147,123,48,60,36,147,21,147,36,9,123,0,21,0,0,24,0,0,0,0,0,0,9,45
15,3,0,147,3,147,147,15,30,147,39,54,36,147,69,3,147,0,0,3,0,24,0,0,0,0,0,0,3,0,18,0,21,12,21,15,42,33,48,147,150,24,51,117,57,30,27,30,150,24,0,0,0,3,0,0,0,0,0,0,0,0,0,3
30,0,147,6,18,147,147,27,69,126,69,147,57,66,30,147,6,0,33,0,0,57,0,0,0,0,0,0,0,9,150,3,3,75,150,12,0,45,27,147,54,42,150,0,27,147,42,9,0,0,0,0,0,0,24,0,0,0,0,0,15,0,3,0
72,147,0,3,0,147,36,147,147,147,144,0,147,21,147,54,0,147,0,36,48,0,0,0,21,0,0,0,0,0,18,150,15,36,24,150,0,36,147,150,144,24,81,147,15,51,78,21,99,0,0,0,30,0,0,0,0,0,0,0,15,0,54,90
132,0,0,0,24,126,147,147,51,144,15,66,105,147,144,27,0,0,24,36,3,0,147,0,0,0,0,0,0,9,0,6,150,36,0,15,21,27,36,51,51,147,147,27,150,51,21,3,3,0,0,0,0,0,18,0,0,0,0,0,0,0,0,0
0,147,6,15,3,3,27,147,147,48,147,60,144,75,147,30,69,78,0,60,0,0,9,0,0,0,0,0,0,0,0,0,3,0,24,24,42,12,36,150,150,36,111,21,150,48,6,0,150,0,0,0,3,0,0,33,0,0,0,0,0,24,0,0
147,12,3,9,3,24,30,39,147,30,150,147,60,147,0,15,0,0,0,0,24,0,6,0,0,0,0,0,0,0,15,150,18,6,21,150,24,18,150,33,147,150,33,60,150,150,48,24,81,60,21,6,3,39,30,0,0,0,0,0,3,0,108,57
96,3,0,108,36,147,81,111,99,126,135,90,54,78,15,63,147,18,0,0,51,0,36,0,0,0,0,0,0,30,3,51,21,33,15,6,144,63,78,150,150,99,90,60,150,54,54,39,42,48,0,33,18,3,0,0,0,21,0,0,0,36,0,9
99,69,63,18,48,30,33,147,63,57,147,144,75,63,0,48,15,18,0,0,24,42,0,0,0,9,0,0,0,21,12,48,0,147,150,12,0,147,45,147,75,54,147,66,66,63,21,57,9,24,6,30,21,0,27,147,0,0,0,0,0,45,69,144
45,63,9,117,36,147,144,144,147,147,144,81,12,48,15,36,15,0,0,0,36,9,30,0,0,0,0,0,33,0,0,45,51,63,42,75,30,66,150,60,78,63,36,69,150,72,60,12,24,0,15,3,0,0,0,0,0,0,0,0,0,0,0,3
0,147,0,147,15,144,147,84,147,147,144,147,66,63,81,57,18,0,0,42,0,63,0,51,0,0,0,0,0,3,0,15,9,24,0,27,30,6,123,147,36,150,69,147,150,0,24,12,0,0,24,0,0,0,0,0,147,0,0,0,0,144,0,0
0,9,45,147,141,15,3,147,18,144,147,75,102,54,9,3,0,0,0,0,0,0,0,0,0,0,0,0,0,15,3,12,150,15,0,18,27,147,30,15,147,81,27,147,54,90,150,18,15,39,0,0,0,3,21,0,0,0,0,0,0,0,0,147
0,12,21,0,147,144,147,36,147,147,144,126,63,147,0,21,21,0,15,18,147,0,42,0,0,0,0,0,0,6,15,150,9,0,3,30,0,27,39,147,150,9,147,54,30,30,150,0,0,0,0,0,3,3,12,0,0,0,0,0,0,0,3,3
3,9,9,0,3,15,27,9,39,147,147,36,30,63,147,147,45,60,0,3,0,0,0,0,0,0,0,0,0,0,3,9,12,12,18,0,12,30,33,33,147,90,150,39,147,54,0,9,147,45,0,0,0,6,0,0,18,0,0,0,0,0,0,147
9,144,3,15,9,33,147,147,147,51,48,111,147,69,21,36,42,0,0,0,30,0,0,0,0,0,0,0,9,0,21,3,6,3,30,0,150,39,12,147,12,150,15,36,54,42,147,81,0,150,0,0,0,147,0,0,0,9,0,0,0,147,0,0
6,24,9,9,0,147,21,144,144,147,147,30,147,51,66,0,51,0,0,0,45,0,0,0,0,0,0,0,0,0,0,9,21,147,0,3,24,150,33,36,147,147,138,141,99,57,96,147,0,0,0,0,21,0,0,0,0,0,0,0,30,0,0,147
9,147,6,9,0,3,36,54,147,147,57,144,147,30,3,147,144,0,0,0,3,0,0,3,0,0,0,0,0,0,15,21,9,0,21,150,147,33,42,150,33,21,150,147,150,102,0,3,24,0,0,0,3,0,0,0,0,0,0,0,0,0,6,0
30,6,0,147,3,21,9,33,147,147,75,48,147,63,18,18,9,0,0,0,3,0,0,0,0,0,0,0,0,0,3,0,24,21,150,3,3,30,36,51,24,21,147,39,150,15,39,3,0,0,0,0,0,9,15,21,0,0,0,0,0,0,3,3
0,0,15,147,147,3,33,42,147,51,147,48,60,33,48,0,27,147,0,144,0,0,0,0,9,0,0,0,0,6,12,3,12,150,3,12,0,33,6,150,36,147,150,150,24,45,3,0,21,9,3,0,0,3,0,39,0,0,0,0,0,0,21,3
9,132,0,0,0,21,57,144,147,147,147,144,42,33,147,3,36,0,0,0,0,0,0,0,0,0,0,0,0,0,6,30,24,6,9,3,150,15,147,147,48,15,150,30,3,147,39,3,9,3,0,0,6,30,24,0,0,0,0,0,0,0,3,3
9,3,18,0,21,147,15,147,39,147,66,129,36,144,27,0,0,0,0,3,24,0,0,21,0,0,0,0,21,0,24,9,3,147,21,9,21,30,45,150,72,147,147,150,72,9,144,15,0,12,0,0,9,0,0,24,9,0,0,0,0,0,9,6
147,6,0,144,33,24,147,141,60,147,144,63,132,75,21,39,147,0,57,0,0,30,12,0,0,0,0,0,0,9,24,33,6,147,24,150,27,36,147,150,147,39,36,150,18,30,9,12,6,0,0,0,0,0,0,150,0,0,0,0,3,0,0,6
3,132,3,12,18,0,27,21,147,147,147,147,63,147,3,3,6,0,0,0,3,30,0,0,0,0,0,0,0,0,147,12,0,12,27,9,150,21,147,36,72,15,12,45,150,12,147,0,21,18,0,0,0,6,0,0,0,0,0,0,0,0,24,3
3,12,0,147,129,66,15,147,147,69,81,147,57,87,33,54,24,3,147,0,0,0,3,0,0,0,0,0,0,6,0,9,150,9,0,12,24,30,147,150,30,144,150,9,39,30,6,57,0,3,6,0,6,18,0,36,0,0,0,0,0,0,0,9
3,15,12,138,147,69,24,144,147,51,135,66,138,147,72,51,138,0,0,0,0,42,6,0,0,0,0,0,0,0,39,57,21,144,9,15,27,48,147,147,33,141,147,150,132,138,12,36,147,21,3,0,0,0,0,18,0,0,0,0,0,21,6,45
30,147,0,18,36,21,48,87,123,147,93,69,147,24,144,51,3,15,36,0,0,0,0,0,0,0,0,0,15,0,9,3,0,18,3,150,15,3,147,9,150,147,15,150,12,57,30,147,0,0,0,0,0,0,0,0,0,0,0,0,0,3,0,3
6,9,27,147,6,3,147,54,147,147,36,147,144,69,0,147,0,24,36,9,0,0,3,147,0,0,0,0,0,0,6,18,147,6,15,15,150,27,57,150,150,66,147,150,21,30,21,6,3,9,0,0,0,0,3,0,0,0,0,0,0,0,0,9
15,0,3,3,15,6,150,30,147,141,144,90,144,36,42,147,0,15,0,0,0,42,33,0,0,0,0,0,6,0,9,15,6,0,3,21,0,9,147,150,147,150,147,147,147,15,54,42,150,33,9,0,9,0,0,0,0,0,0,0,0,3,3,147
126,24,147,117,9,48,147,147,57,147,147,147,51,51,99,0,78,0,0,147,6,0,0,0,6,0,0,0,0,75,150,63,117,66,36,57,150,72,150,150,141,147,123,117,114,105,147,69,75,0,3,15,0,0,0,0,0,0,0,0,57,0,39,69
66,9,3,30,87,147,147,63,147,147,42,126,144,147,15,33,18,3,30,18,0,0,0,0,0,0,0,0,15,33,69,117,30,72,150,39,27,150,75,150,75,102,150,120,138,75,51,6,84,0,9,69,0,24,21,150,0,0,0,0,0,0,63,36
147,9,21,0,54,9,132,147,129,57,147,78,54,51,147,48,6,0,18,21,0,21,0,0,0,0,0,0,0,21,75,117,27,54,60,150,36,150,144,123,72,96,99,120,81,69,36,39,147,0,0,24,0,0,0,0,0,0,0,0,0,33,126,3
15,147,0,123,144,9,105,147,147,39,21,102,129,36,147,57,0,0,0,0,24,0,9,0,0,0,0,0,0,18,0,24,90,33,78,99,99,150,123,150,84,147,66,78,72,147,63,30,18,18,54,6,78,3,0,12,9,6,9,0,0,39,51,51
3,147,12,60,0,147,84,147,60,126,78,147,144,0,147,45,6,0,9,0,0,51,51,0,0,0,0,0,0,0,12,81,72,33,66,30,150,69,117,114,150,90,105,105,81,60,105,18,66,21,54,0,0,30,0,0,0,0,0,0,0,0,0,75
138,6,144,3,3,147,33,147,147,75,147,60,48,51,138,48,0,6,9,0,0,0,0,0,0,6,0,3,0,3,0,9,3,150,0,3,27,150,42,57,150,150,24,60,150,30,147,144,0,0,0,9,12,0,0,0,0,0,0,0,0,0,24,0
93,9,9,21,0,6,147,48,147,12,147,39,147,138,9,0,0,0,0,0,0,3,15,0,0,0,0,0,0,15,0,3,27,15,150,0,0,144,33,63,150,48,141,87,147,117,69,36,3,0,0,0,51,0,0,0,0,0,0,0,0,15,6,9
9,147,141,9,144,147,144,126,147,60,147,81,90,57,147,33,15,3,3,9,0,0,0,21,0,0,0,0,0,3,30,147,3,18,0,9,0,12,147,99,72,78,150,102,150,57,42,21,51,9,3,3,0,0,3,0,0,0,0,0,0,0,3,6
