1,3,3,47,49,1,7,16,49,49,8,49,32,13,0,5,0,0,13,0,14,3,0,0,0,0,0,0,0,5,0,0,14,15,14,49,17,28,44,50,29,30,49,50,23,49,49,48,1,0,0,46,0,0,31,1,0,0,0,0,0,15,3,37
2,6,0,5,3,7,42,49,48,48,47,49,24,38,1,16,0,1,2,14,0,7,0,0,3,0,0,0,5,0,12,49,21,12,9,33,50,48,16,42,49,50,25,49,39,49,19,16,4,9,12,11,0,0,0,7,0,0,0,0,8,12,0,45
45,8,35,2,7,46,5,21,42,49,25,21,39,17,49,0,6,21,4,0,0,12,0,0,0,0,0,0,0,0,0,1,49,0,48,0,49,12,7,9,50,11,48,4,49,49,2,0,3,0,0,0,0,0,7,4,0,0,0,0,0,0,0,0
5,5,2,49,5,48,6,19,48,50,0,18,49,11,50,0,0,7,0,0,0,3,0,0,0,0,0,0,0,0,14,49,1,0,0,0,4,9,10,49,12,50,49,10,39,49,2,8,0,5,0,0,0,0,5,0,0,0,0,0,0,1,1,0
0,5,3,44,0,5,49,8,17,49,48,14,34,20,9,12,0,49,14,0,1,0,0,1,0,0,0,0,0,0,49,42,0,0,0,1,0,1,48,50,49,49,50,8,49,49,21,7,0,0,0,5,0,0,0,0,0,0,0,0,0,0,0,0
0,5,0,1,40,12,7,3,49,15,26,13,49,25,35,49,0,0,0,0,0,0,5,0,0,0,0,0,3,0,0,1,49,0,0,0,3,50,1,50,49,50,19,5,50,11,6,35,0,0,0,0,0,24,0,6,0,0,0,0,0,0,1,0
49,5,0,0,3,9,48,49,7,50,15,30,6,26,17,2,0,41,0,0,0,0,0,0,0,0,0,0,0,6,0,1,0,6,4,12,14,46,44,27,48,49,50,42,47,47,6,17,49,0,13,0,0,8,0,0,0,0,0,0,0,40,0,43
49,6,7,1,36,39,49,48,32,42,27,37,49,44,24,0,22,16,0,0,0,1,0,0,0,0,1,0,0,7,0,18,17,26,16,14,17,21,29,40,38,50,45,46,46,40,26,49,49,13,0,0,0,20,3,0,0,0,0,1,0,14,1,45
5,4,0,3,5,18,42,49,39,49,19,44,39,26,46,1,0,0,0,0,3,0,0,0,0,0,0,0,0,0,0,12,7,8,4,5,0,5,49,49,12,49,49,23,27,44,15,28,12,0,17,5,0,0,0,0,0,0,0,0,0,2,0,7
7,48,4,21,13,11,28,12,47,49,25,48,15,12,49,6,1,5,0,0,0,4,0,0,0,0,0,0,0,0,0,0,13,2,8,9,49,47,36,39,50,50,47,48,50,46,31,5,1,0,3,0,3,11,0,0,0,0,0,0,7,4,0,42
2,0,1,48,40,2,12,48,17,18,46,49,9,10,1,0,0,0,0,0,0,18,10,0,0,0,0,0,0,0,0,48,1,1,1,0,49,5,6,50,1,14,6,50,37,10,5,0,0,1,49,0,0,0,0,0,0,0,0,0,0,0,0,5
3,0,2,1,3,3,49,49,49,47,34,0,25,49,0,10,0,0,8,0,0,0,0,0,0,0,0,0,0,0,0,0,0,1,1,0,0,47,49,49,50,50,49,8,48,8,50,0,0,0,0,0,3,0,0,20,0,0,0,0,0,0,0,4
0,0,4,0,0,11,6,42,31,50,49,33,31,46,49,0,0,0,0,0,0,0,0,0,0,0,0,0,0,0,1,3,0,0,16,49,49,50,25,50,49,18,3,50,14,2,19,13,0,1,0,5,0,0,31,0,0,0,0,0,0,0,0,0
2,1,0,0,48,4,14,16,49,50,26,46,13,7,2,35,0,0,2,3,2,0,3,0,0,0,0,0,0,1,5,2,1,49,3,0,8,50,21,10,49,21,16,11,50,49,1,49,0,49,0,1,0,1,16,0,0,0,0,0,0,0,0,1
7,0,4,48,49,1,6,19,48,24,49,48,20,49,1,0,2,0,0,4,0,0,2,0,0,0,0,0,0,0,1,2,0,3,0,1,1,9,49,13,49,50,50,29,49,9,0,2,19,0,0,2,0,1,0,1,3,0,0,0,0,0,0,32
8,3,11,16,1,9,16,17,50,14,49,42,49,0,8,4,5,3,0,0,0,0,0,0,0,0,0,0,0,0,8,3,0,0,8,1,48,49,50,49,48,50,49,49,46,16,20,12,15,13,9,4,8,5,12,2,0,0,0,0,0,0,42,48
3,7,0,2,0,8,49,7,49,50,22,19,10,34,48,4,1,6,2,10,1,16,0,0,0,0,0,0,0,0,1,6,1,0,0,3,40,4,49,49,7,50,10,35,4,49,49,0,10,0,0,0,0,0,0,0,0,0,0,0,0,0,0,14
3,1,23,49,2,6,12,50,49,27,48,8,48,16,12,20,0,0,19,0,0,12,2,0,0,0,0,0,0,0,0,0,0,40,0,1,0,4,12,49,49,49,50,49,17,36,46,0,36,48,0,0,15,0,0,3,0,0,0,0,0,0,2,43
5,6,0,0,1,19,48,48,49,0,49,22,39,48,25,0,0,1,49,0,0,3,0,9,0,0,0,0,0,0,0,3,1,0,0,2,49,39,49,48,48,49,47,49,48,5,17,7,0,0,49,0,0,0,1,3,0,0,0,0,0,5,0,1
0,0,49,0,6,10,7,50,30,25,22,11,8,17,49,32,30,0,0,0,3,0,0,1,0,0,0,0,0,0,0,0,0,49,3,0,0,2,8,50,8,49,49,42,7,49,49,2,0,0,0,0,0,49,0,0,0,0,0,0,0,0,0,0
47,1,0,4,2,49,7,14,13,50,31,48,49,17,18,0,1,0,0,8,1,2,0,3,0,0,0,0,0,0,0,0,12,1,0,0,0,3,50,8,10,12,50,10,50,16,1,0,5,0,0,0,0,0,0,0,0,0,0,0,0,0,0,0
5,3,0,0,0,48,16,49,7,25,49,6,11,49,8,12,4,0,0,0,0,0,0,9,0,0,0,0,0,0,0,2,2,0,6,0,49,4,2,50,50,50,49,23,19,49,11,4,4,49,49,1,1,1,2,0,0,48,0,0,0,0,47,11
0,0,1,11,49,13,7,48,49,25,22,18,14,48,16,0,0,16,0,8,6,0,0,11,0,0,0,0,0,0,5,0,1,0,0,0,3,0,49,16,49,49,50,49,44,46,47,49,17,0,7,5,0,0,8,1,0,0,0,0,0,0,0,32
48,48,4,0,1,3,48,48,48,12,49,13,49,47,0,3,0,42,0,7,6,0,0,0,0,0,0,0,0,0,49,48,15,1,7,7,48,49,49,47,50,48,38,50,28,23,5,27,12,14,13,10,4,10,3,49,3,0,0,0,0,27,8,23
5,1,2,2,3,9,49,14,33,25,49,1,19,20,18,16,20,0,1,0,1,4,0,0,0,0,19,0,0,18,44,18,8,17,12,7,16,25,21,37,30,50,33,50,37,17,50,24,26,19,5,15,47,14,49,0,5,0,0,0,31,2,15,14
0,7,0,16,13,7,2,49,24,27,49,49,22,40,4,0,3,7,0,0,2,0,6,0,14,0,0,0,7,21,21,18,10,16,21,15,17,16,21,24,50,50,31,49,41,27,5,11,1,5,0,0,3,0,5,0,9,0,0,0,33,18,10,0
15,5,14,49,16,19,49,12,29,48,12,25,21,15,0,7,5,26,0,0,0,3,0,0,0,0,0,0,25,24,23,16,17,23,12,9,12,16,50,17,49,50,23,49,47,19,30,16,4,17,9,4,3,1,0,5,0,0,0,0,14,0,4,31
0,49,0,0,6,1,8,17,49,25,19,13,16,3,0,49,8,0,6,0,0,0,3,0,0,0,0,0,25,16,19,18,21,16,12,12,16,19,18,20,19,50,23,30,24,49,23,50,5,5,4,8,14,3,10,7,3,0,0,0,0,12,16,2
2,0,0,5,8,5,13,19,49,14,30,28,24,0,50,16,0,10,0,0,0,0,0,0,0,0,0,0,15,20,21,16,13,17,14,14,13,18,17,20,50,23,49,50,23,18,13,50,1,0,0,3,2,0,8,0,0,0,0,0,0,21,12,18
31,5,0,0,36,25,49,17,49,9,28,10,25,14,23,21,0,16,0,8,3,4,49,0,0,0,0,0,11,13,19,21,12,19,19,17,50,17,34,50,20,49,49,19,15,21,3,10,12,4,9,7,8,9,6,8,0,0,0,0,14,48,0,24
1,1,0,28,0,49,15,11,21,49,35,26,17,49,17,22,49,0,0,0,2,0,0,0,0,0,0,0,17,14,21,21,48,12,17,10,13,50,21,23,50,22,31,17,35,23,50,13,10,0,1,0,0,0,0,3,0,0,0,0,11,31,24,12
28,16,0,3,34,19,31,14,49,49,35,19,9,20,3,15,17,0,12,0,0,41,2,1,0,0,0,0,0,14,19,18,14,9,12,25,12,19,19,16,25,14,49,19,14,49,25,16,9,0,0,21,2,5,0,0,0,0,0,0,1,15,31,48
0,8,0,2,2,24,20,18,49,23,22,37,27,26,49,3,19,0,0,0,0,5,0,0,11,0,0,7,0,9,17,0,0,5,50,15,12,16,50,14,13,19,49,19,50,16,13,15,4,49,5,5,0,0,0,0,0,0,0,0,0,18,0,24
49,0,10,5,7,3,5,36,11,7,25,50,0,14,17,0,0,21,0,7,5,0,1,0,0,0,0,7,0,14,22,32,49,26,22,14,14,23,20,50,29,50,21,35,20,19,16,49,9,7,7,6,5,4,5,3,0,0,0,0,0,16,0,33
0,27,24,0,34,1,16,50,16,25,49,18,5,26,13,0,9,10,0,0,0,0,4,0,0,0,0,0,14,0,21,21,19,8,8,23,15,50,13,31,19,50,21,29,28,17,49,7,0,0,0,0,0,0,0,0,22,0,0,0,0,0,5,0
22,33,3,1,1,49,9,20,48,49,8,49,14,14,14,8,1,0,0,0,1,0,0,0,0,0,0,0,0,2,16,31,0,0,50,0,3,1,45,50,48,50,2,24,23,2,7,10,0,0,6,0,0,1,0,0,0,0,0,0,0,0,0,3
1,1,1,0,49,7,47,44,38,49,41,49,17,42,12,31,2,0,0,0,0,0,1,0,0,0,0,0,0,0,1,0,0,48,3,0,50,1,49,48,7,49,47,49,49,12,49,17,15,12,8,9,10,8,1,10,0,0,0,0,0,0,0,0
48,6,49,0,4,44,50,49,14,49,19,49,41,10,11,43,0,5,0,0,8,0,0,0,0,0,0,0,0,5,3,1,0,0,7,1,16,49,50,49,11,50,48,16,30,50,34,35,0,0,0,0,0,3,0,0,0,0,0,0,0,0,3,0
1,0,0,6,1,0,49,12,49,13,24,16,32,18,14,7,48,5,0,0,1,0,0,0,0,0,0,0,0,0,0,3,0,3,2,49,0,6,11,10,22,50,49,4,5,5,49,1,49,48,8,0,0,0,0,0,0,0,0,0,0,0,0,49
4,42,0,0,0,47,6,23,21,15,27,35,49,7,15,7,0,0,0,0,0,0,19,0,0,0,0,0,0,1,1,1,1,0,1,50,7,49,15,9,16,49,5,1,50,7,49,49,0,0,0,0,2,0,5,0,0,0,0,0,0,0,0,2
0,1,47,4,0,12,8,12,49,49,33,49,0,14,0,8,0,1,0,0,7,0,4,0,0,0,0,0,0,0,12,0,1,1,11,3,3,1,50,49,50,49,46,48,50,4,0,7,0,12,0,0,6,0,0,0,0,0,0,0,0,0,0,0
2,5,1,1,48,3,9,15,49,25,1,50,19,12,49,17,0,0,9,3,0,0,0,0,0,0,0,0,0,0,0,2,13,10,10,2,14,11,49,48,48,49,41,50,10,7,0,10,0,0,7,0,3,7,0,0,0,0,0,0,0,1,0,1
3,2,3,0,0,16,7,46,34,12,21,14,23,12,25,10,22,0,0,12,0,0,0,1,0,0,0,0,0,3,1,0,0,8,1,1,1,50,2,49,5,7,49,15,25,49,0,0,1,50,0,0,3,0,0,0,15,0,0,0,0,0,0,1
0,0,2,0,48,6,3,10,47,24,42,49,14,17,12,15,0,0,0,1,0,0,0,0,49,0,0,0,0,4,0,0,4,3,3,49,1,49,49,50,14,50,49,49,49,42,0,12,4,0,0,0,0,0,0,0,3,0,0,0,0,1,1,3
47,3,0,9,40,48,8,44,44,49,49,49,20,9,5,1,7,0,0,0,4,0,14,0,0,0,0,0,0,0,0,1,0,0,49,0,49,50,49,4,49,50,17,9,14,49,8,50,0,0,0,0,1,0,1,5,0,0,0,0,0,0,0,1
5,3,0,47,6,19,3,49,22,49,26,10,49,12,0,9,0,0,0,0,1,8,0,0,0,0,0,0,0,41,0,3,5,0,1,0,3,10,50,11,49,17,50,49,1,5,3,0,1,1,0,0,1,0,0,0,0,0,0,0,0,0,0,0
0,6,0,0,48,5,10,20,49,49,9,47,9,26,11,17,0,17,1,3,0,0,0,0,0,0,0,6,0,0,12,0,29,15,0,0,7,8,8,49,9,49,7,8,49,18,1,1,0,0,0,3,0,6,0,49,5,2,0,0,0,1,0,2
3,2,9,1,2,49,48,49,49,13,11,22,26,49,0,8,39,0,1,0,0,2,3,6,0,0,0,0,0,0,0,0,3,12,2,0,0,3,49,50,17,49,49,50,14,5,4,5,0,0,0,0,0,0,0,0,27,0,0,0,0,0,0,46
2,3,0,49,2,49,13,9,49,25,48,16,48,46,18,0,12,10,0,1,0,0,0,0,0,0,0,0,0,0,0,7,3,3,2,0,2,5,8,50,49,50,50,32,49,12,5,0,1,1,0,0,7,3,0,0,0,0,0,0,0,0,0,48
3,3,8,1,0,48,49,8,32,19,27,8,11,14,49,2,0,0,0,0,2,0,0,0,0,0,0,0,0,2,9,0,0,49,3,1,49,1,4,3,14,27,11,49,50,1,49,0,6,0,1,0,0,0,0,0,0,0,0,0,1,0,0,1
