56,255,8,0,136,255,24,88,255,152,152,255,240,255,160,56,0,40,0,48,0,0,0,0,0,0,0,0,0,0,168,16,48,24,24,0,16,40,184,255,255,255,255,255,88,200,80,255,16,0,0,0,0,8,0,0,0,0,0,0,0,0,0,56
255,0,8,255,8,32,255,64,64,255,200,255,8,176,160,24,0,0,0,40,16,255,8,0,0,0,0,40,0,16,48,48,48,40,0,255,0,255,128,255,255,255,255,56,255,255,24,0,112,0,0,0,0,0,0,24,0,0,0,0,0,0,24,128
255,24,152,0,0,64,255,152,255,104,255,255,255,56,32,112,16,0,32,0,64,0,56,0,0,0,0,0,0,0,112,80,255,40,0,0,16,24,255,255,255,255,48,152,255,24,255,0,32,16,0,0,0,0,0,0,0,0,0,0,0,0,0,152
32,8,192,40,255,255,168,255,48,255,255,88,255,160,104,48,0,24,112,0,0,0,0,0,0,0,0,0,0,0,152,64,80,0,24,255,168,255,255,136,200,192,255,160,136,184,200,255,0,8,0,24,0,80,255,24,0,0,0,0,0,0,160,96
8,112,0,8,32,48,255,168,255,255,168,88,208,88,255,24,0,208,0,72,0,0,0,0,0,0,0,0,0,64,0,64,208,8,64,40,255,16,168,255,255,200,255,255,152,104,80,88,40,56,0,0,16,0,0,0,0,0,0,0,0,0,160,112
136,64,255,16,40,56,248,255,255,255,88,96,64,184,16,0,32,0,0,120,24,48,255,144,0,0,0,0,0,0,40,40,0,16,8,64,136,56,255,136,255,255,88,255,64,255,8,96,72,0,0,0,0,8,0,0,0,0,0,0,0,0,0,248
0,255,96,40,144,255,255,255,255,160,152,255,72,88,8,0,16,128,0,32,0,32,0,0,0,0,0,0,0,0,8,32,16,72,248,8,255,48,255,255,255,160,200,200,224,128,0,208,8,0,0,0,8,32,0,0,0,0,0,0,0,112,0,0
56,255,80,16,32,40,255,96,255,88,255,192,224,160,120,16,48,0,0,88,0,24,0,0,0,0,0,0,0,0,136,24,8,24,48,8,0,32,80,255,255,255,255,255,255,104,24,128,0,0,24,0,8,16,0,0,0,0,0,0,0,0,136,56
8,24,72,48,16,56,152,104,255,184,255,240,255,255,88,0,40,72,0,0,56,0,0,0,0,0,0,0,0,104,8,255,24,0,8,0,255,16,255,255,255,255,255,255,120,255,24,16,8,8,0,0,0,0,40,24,0,0,0,0,0,56,0,152
200,255,0,8,0,255,176,255,255,248,80,255,40,120,240,0,8,0,0,0,0,64,0,0,0,0,0,0,0,168,0,255,0,24,255,255,255,16,255,255,255,255,255,255,40,64,112,24,192,255,0,0,8,0,8,0,0,0,0,0,0,0,0,168
56,56,56,8,255,8,64,144,255,255,255,255,240,232,0,136,0,0,0,0,0,8,0,24,0,0,0,0,0,0,16,255,40,120,0,56,104,32,255,24,255,112,255,96,255,88,255,40,0,0,0,0,144,0,8,255,0,0,0,0,0,0,0,64
8,48,64,0,255,255,208,255,255,255,248,112,255,120,200,96,0,0,16,56,0,48,0,0,0,255,0,0,0,32,24,56,48,255,8,48,0,255,192,255,255,255,255,56,16,255,96,56,0,0,0,0,8,0,0,0,0,0,0,0,0,0,8,152
96,64,255,8,8,80,255,176,255,232,120,248,255,160,0,0,0,0,255,255,40,8,0,64,0,0,0,0,0,0,0,0,255,160,255,0,56,255,255,255,255,255,255,248,255,240,56,0,0,0,0,0,0,0,0,0,0,0,0,0,0,0,255,200
8,16,32,200,16,255,96,160,255,120,255,255,152,208,144,136,0,0,0,0,0,0,120,0,0,0,0,0,0,176,0,48,8,136,64,0,32,24,248,255,255,255,192,255,255,96,24,24,0,16,64,0,0,0,8,8,0,0,0,0,0,0,0,176
56,72,255,8,0,32,255,255,64,255,255,255,128,80,144,24,0,0,0,0,0,8,0,0,0,0,0,0,16,0,16,56,240,40,56,64,64,40,255,255,255,255,255,255,255,16,64,80,255,0,8,0,0,0,24,0,0,0,0,0,0,0,0,255
32,255,128,8,255,216,255,96,24,255,255,192,208,144,255,0,56,48,40,0,0,0,24,0,0,0,0,0,0,0,160,255,8,104,24,40,80,88,255,255,120,48,255,255,0,160,56,72,0,112,40,0,0,0,0,0,0,0,0,0,0,0,0,72
255,0,40,0,24,255,255,128,128,255,255,136,112,255,128,0,0,0,0,0,0,0,0,0,0,0,0,0,0,0,72,80,255,128,88,255,24,255,255,255,255,255,255,255,64,128,255,32,8,0,0,0,0,24,8,0,0,0,0,0,0,0,0,0
80,255,136,136,72,32,104,255,168,255,255,128,120,192,0,168,0,0,200,0,0,0,0,0,0,0,0,0,0,0,176,24,255,0,8,0,8,152,255,255,255,255,255,255,8,255,104,255,0,0,0,0,0,0,0,0,0,0,0,0,0,0,0,255
255,64,104,0,128,255,48,255,208,224,208,255,144,168,0,120,72,0,0,0,255,8,0,56,0,0,0,0,0,0,80,8,255,255,40,0,0,255,136,255,255,255,255,255,216,255,0,0,96,0,0,0,40,0,0,0,0,0,0,0,0,0,0,216
160,0,0,16,255,255,24,136,255,255,255,152,144,232,48,48,120,104,0,8,8,0,80,0,0,0,0,0,0,0,104,8,136,48,0,0,40,16,255,96,255,255,255,144,255,64,24,136,0,0,8,0,0,24,0,0,0,0,0,0,0,120,0,32
88,255,40,32,32,255,255,144,32,96,255,168,128,200,136,255,0,48,24,0,0,40,0,24,0,0,0,0,0,0,0,64,0,48,0,255,8,255,255,255,40,144,255,255,56,255,16,0,96,0,0,0,0,0,64,0,0,72,0,0,0,0,0,168
0,136,255,24,24,255,128,120,255,144,255,224,56,104,255,40,32,0,56,0,8,128,0,8,0,0,0,0,0,0,0,120,0,16,40,8,255,40,16,255,255,255,72,72,48,56,40,0,255,0,255,0,0,0,0,0,0,0,0,0,0,0,0,80
255,0,0,0,24,72,255,72,112,168,255,255,200,80,24,8,8,88,0,16,56,0,40,0,0,0,0,0,0,0,8,0,0,0,0,0,56,56,16,72,160,255,255,255,255,255,255,152,0,0,0,64,0,56,255,0,0,0,0,0,0,0,0,160
0,8,255,255,0,255,48,255,255,255,255,104,255,128,136,136,24,0,0,0,0,0,56,0,40,0,0,0,0,64,255,16,40,16,8,255,0,80,255,40,255,255,255,255,255,0,255,64,72,8,32,32,24,40,8,8,0,0,0,0,0,0,40,255
0,0,144,96,136,255,255,255,255,104,255,255,168,72,80,0,0,216,255,112,24,160,88,0,0,0,0,0,0,0,192,255,80,24,0,255,8,32,255,255,192,255,255,112,88,24,255,255,0,16,40,16,8,0,24,0,0,0,0,0,0,0,0,144
255,0,8,0,8,255,255,255,255,128,120,255,152,96,255,16,0,8,24,0,0,88,184,255,0,0,0,0,0,0,0,255,24,16,0,0,0,255,104,255,255,255,160,112,176,255,72,16,0,0,64,32,48,0,16,0,0,0,0,0,0,128,0,0
136,255,0,48,72,40,255,144,255,255,255,216,104,255,200,255,255,24,0,0,32,0,96,0,0,0,0,0,0,72,0,184,32,0,0,255,64,48,72,255,255,255,255,255,255,64,255,48,104,48,136,0,0,0,0,0,0,0,0,0,0,0,0,24
255,0,64,128,56,32,120,255,208,168,168,255,128,64,8,184,0,208,24,48,104,72,0,0,0,0,0,0,0,0,168,96,8,8,0,8,24,255,72,255,255,255,255,224,255,255,48,0,64,0,40,0,0,0,0,0,0,0,0,0,0,0,0,0
8,152,16,96,0,16,48,255,255,104,255,128,255,0,128,104,80,0,0,0,112,24,0,0,0,0,0,0,0,112,16,0,0,0,16,16,32,8,255,96,176,255,56,56,255,255,255,0,40,0,0,0,0,0,0,0,0,0,0,0,0,0,0,255
128,8,0,8,0,255,255,40,255,255,136,144,255,112,128,208,255,16,0,0,0,24,8,0,0,0,0,0,0,0,40,0,0,0,0,24,0,48,255,255,255,56,255,255,80,64,0,255,0,8,0,0,0,0,0,0,0,0,0,0,0,255,0,0
112,8,8,0,32,40,255,255,255,136,200,128,96,208,255,0,136,32,0,0,0,40,0,0,0,0,0,0,0,0,0,64,255,8,8,8,40,40,48,72,255,104,255,136,120,136,24,255,255,0,0,0,40,72,16,0,0,0,0,0,0,0,255,16
24,0,0,120,80,32,255,0,255,255,255,136,136,40,0,160,0,0,48,0,80,8,255,0,0,0,0,0,0,0,72,255,8,40,0,32,8,32,104,255,255,255,128,255,104,0,24,8,0,24,0,255,24,0,0,0,0,0,0,0,0,255,8,8
0,8,120,24,255,255,56,255,200,144,255,8,104,104,72,255,80,0,16,0,0,136,0,0,0,0,0,0,0,0,0,0,0,0,0,8,255,32,8,144,255,255,255,255,128,72,112,80,0,0,0,0,64,64,0,8,0,0,0,0,0,0,0,0
112,16,0,24,16,0,255,184,255,255,88,255,136,255,112,40,0,0,104,32,0,24,24,0,0,0,0,0,0,0,0,0,255,0,16,0,0,255,8,0,255,136,255,255,160,255,24,40,0,0,0,0,24,96,0,0,0,0,0,0,0,0,0,0
32,112,8,40,80,255,56,96,128,176,255,144,255,255,0,0,0,255,0,88,0,0,0,0,0,0,0,0,0,0,0,64,0,0,255,0,255,40,8,255,255,200,255,40,176,40,255,16,0,255,0,0,0,0,0,8,0,0,0,0,0,8,0,8
0,255,24,0,32,8,255,184,255,255,200,120,112,224,40,0,0,0,96,0,128,0,0,0,0,0,0,0,0,0,24,0,0,0,0,32,0,255,24,255,64,40,56,255,255,8,128,0,80,8,0,16,0,0,0,0,0,0,0,0,0,0,0,0
32,8,144,255,24,40,24,208,255,255,255,112,80,96,120,16,64,0,40,0,16,0,0,0,0,0,0,0,0,0,0,0,0,104,0,255,0,24,255,104,255,255,255,255,255,255,48,64,8,120,24,0,0,0,0,0,0,0,0,0,0,0,0,0
168,0,32,8,0,255,255,255,200,136,80,255,168,224,24,120,24,56,0,0,64,0,0,0,0,0,0,0,48,0,0,8,0,0,0,255,0,88,255,48,255,255,152,255,255,8,255,24,0,64,0,72,0,0,0,0,0,0,0,0,0,0,0,0
8,72,255,168,0,152,128,208,255,216,160,64,120,255,80,0,8,136,0,0,8,8,0,0,0,0,0,0,0,0,0,0,0,168,0,0,255,32,255,255,255,80,255,72,255,64,24,56,255,255,0,8,0,40,8,0,0,0,0,0,0,0,160,0
0,255,16,72,0,128,255,96,136,255,255,184,255,8,255,208,0,112,0,0,16,0,24,0,0,0,0,0,0,0,88,0,0,0,128,0,255,16,72,255,128,255,112,255,56,255,32,72,8,0,80,0,0,0,0,0,0,0,0,0,0,0,0,144
8,24,112,255,48,0,255,255,255,255,255,255,255,112,24,8,0,104,184,136,88,0,64,255,0,0,0,0,0,0,255,8,184,16,8,96,255,0,255,255,200,255,255,255,255,255,56,128,24,0,0,0,0,0,40,0,0,0,0,0,16,0,0,0
168,16,0,48,16,144,255,255,255,240,255,240,80,255,80,24,255,255,0,0,40,0,8,0,32,0,0,0,0,0,144,8,8,112,40,8,16,80,255,255,96,255,255,112,0,255,128,0,255,0,0,0,0,32,0,0,0,0,0,0,0,0,48,8
176,0,16,8,8,80,255,240,255,255,255,200,160,8,192,56,0,136,0,255,0,24,0,0,0,0,0,0,0,0,0,0,168,255,0,0,120,0,255,104,255,104,255,255,96,56,144,0,0,0,0,0,0,0,24,0,0,0,0,0,0,0,0,0
0,16,0,152,32,40,200,40,255,255,136,184,96,40,16,40,0,0,56,8,0,0,120,0,0,0,0,0,0,0,40,0,8,0,0,24,8,112,255,255,255,255,255,8,255,128,56,24,0,96,0,0,0,0,24,0,0,0,0,0,0,0,0,8
0,8,0,16,56,40,208,255,152,255,255,255,152,112,144,0,96,0,0,40,0,0,0,0,0,0,0,0,0,0,0,0,0,0,80,0,0,8,32,72,255,255,112,112,255,96,40,80,0,72,8,0,0,0,0,0,0,8,0,0,0,0,8,0
0,128,0,56,24,88,128,255,255,136,255,255,248,40,8,64,0,0,0,0,56,0,0,0,0,0,0,0,0,0,0,0,255,112,16,8,32,8,255,255,48,255,48,255,24,136,24,40,255,0,0,0,48,0,0,16,0,0,0,0,0,0,0,255
120,0,80,8,255,24,176,16,255,255,72,255,128,255,80,255,0,32,255,0,0,0,0,0,0,0,0,0,0,0,48,8,0,255,0,0,16,88,255,255,40,72,255,255,255,136,8,8,8,0,0,0,0,40,0,0,0,0,0,0,0,0,0,0
255,8,0,0,128,8,255,88,255,160,255,255,224,40,144,0,255,0,112,0,24,0,96,64,0,0,0,0,0,0,255,24,8,0,0,0,0,48,255,255,40,255,255,255,96,112,80,8,0,0,0,0,0,0,0,0,0,0,0,0,0,0,0,96
8,0,255,16,128,40,152,112,255,255,96,16,144,184,96,88,112,0,80,0,8,64,0,0,0,0,0,0,0,0,0,16,24,16,8,32,8,0,32,255,64,56,104,80,88,40,16,0,32,32,0,40,0,0,255,8,0,0,0,0,8,0,0,24
0,0,24,0,255,40,255,168,136,255,64,232,255,255,255,112,56,0,0,0,0,0,8,0,0,0,0,0,0,0,56,0,255,0,8,232,255,56,255,255,255,255,255,255,255,255,8,255,112,0,0,0,0,0,0,0,0,0,0,0,0,255,40,0
