0,60,0,0,50,35,245,240,50,75,70,95,235,0,70,5,40,0,0,0,0,0,0,0,0,0,0,0,0,0,5,0,70,25,0,25,15,35,245,10,40,50,240,125,245,245,70,85,5,50,5,0,0,0,45,0,0,0,0,0,0,0,0,105
85,0,50,0,30,45,230,245,225,65,240,240,230,35,10,15,5,0,0,0,0,5,5,0,0,0,0,0,0,0,0,115,25,30,10,10,15,50,245,245,245,215,120,80,20,245,0,10,20,15,0,20,5,0,25,0,0,0,0,0,0,0,95,0
15,25,10,5,10,25,230,245,245,95,240,85,240,65,80,65,215,45,0,0,0,20,0,0,0,0,0,0,0,0,0,70,25,5,0,25,10,25,240,245,245,245,125,65,40,25,50,0,0,0,0,20,0,0,35,0,5,0,0,0,0,0,0,80
0,0,60,5,15,125,245,245,235,25,130,90,245,65,35,15,5,20,15,0,0,5,0,0,0,0,0,0,0,0,95,20,10,130,105,10,0,105,240,240,240,25,245,150,55,5,15,15,0,0,0,0,0,40,0,0,0,0,0,0,0,0,0,95
0,40,75,5,10,145,245,70,135,240,50,90,140,145,245,5,0,0,75,0,15,5,5,0,0,0,0,0,0,0,0,105,25,0,0,20,10,30,245,230,245,245,30,50,30,235,40,0,245,25,0,0,0,0,10,0,0,0,0,0,0,0,175,0
55,0,30,30,40,240,70,60,240,65,15,230,60,60,50,20,10,125,0,0,0,5,0,5,0,0,0,0,85,0,0,30,0,0,35,5,5,45,20,45,245,245,245,40,40,20,15,10,0,0,0,0,0,0,0,0,0,0,0,0,0,0,0,105
55,0,25,220,25,105,240,240,50,100,240,240,105,125,10,55,65,0,0,0,0,0,5,0,0,0,0,70,0,0,25,0,30,0,5,0,25,15,105,160,200,245,245,95,25,35,35,245,0,0,0,55,0,20,0,0,0,0,0,0,0,0,0,100
65,0,45,25,35,240,185,245,75,240,170,110,200,115,5,15,55,15,0,0,10,0,0,0,0,0,0,0,0,95,0,55,20,10,10,0,25,175,10,245,245,20,40,245,5,30,0,35,0,0,10,5,0,5,10,0,0,0,0,0,0,45,0,95
25,5,0,0,15,145,240,210,245,80,75,245,15,10,110,20,45,5,0,0,5,0,0,0,0,0,0,0,0,0,20,85,0,15,0,0,40,25,245,245,60,45,245,150,245,30,0,0,35,0,0,0,10,0,5,0,0,0,0,0,0,60,0,0
165,0,0,55,60,55,235,235,60,240,225,35,175,90,0,25,10,30,0,0,20,50,0,0,0,0,0,0,0,75,0,40,0,0,25,0,0,35,160,245,160,245,245,130,245,125,25,0,0,0,0,0,0,0,0,0,0,0,0,0,0,0,0,100
60,5,40,0,35,40,85,245,75,70,245,85,90,40,0,40,5,0,0,15,5,0,0,0,0,0,0,0,0,0,0,10,20,0,0,0,25,140,15,175,245,185,245,95,55,85,120,70,95,15,0,0,0,10,0,0,10,0,0,0,0,0,100,65
60,15,5,140,5,0,240,140,240,125,240,240,25,95,0,40,5,0,0,0,0,0,0,0,0,0,0,0,0,0,0,120,0,0,65,5,20,245,15,240,50,175,245,245,95,105,90,0,75,65,245,0,0,0,0,55,0,0,0,0,0,0,115,110
130,45,60,5,5,145,135,240,105,240,210,85,60,60,75,130,195,15,5,10,0,10,80,0,0,0,0,0,0,0,110,125,0,0,5,20,105,0,180,225,245,245,245,245,70,230,95,0,0,0,0,0,0,0,0,0,0,0,0,0,0,0,0,105
155,0,140,0,15,100,210,130,240,240,240,30,50,125,95,80,5,75,0,40,0,0,5,0,0,0,0,0,0,0,40,95,15,30,0,80,5,0,95,245,245,115,240,100,105,95,140,0,245,0,0,0,5,0,0,0,0,0,0,0,0,35,75,60
0,60,40,0,35,140,175,75,85,105,180,15,60,95,115,5,10,0,60,5,0,0,0,30,0,0,0,0,0,0,105,0,55,15,0,0,0,25,15,245,15,175,15,245,240,245,10,0,10,0,0,0,0,0,0,0,0,0,0,0,0,0,0,0
80,30,0,0,15,55,245,60,95,85,95,125,65,80,20,0,65,0,5,0,0,0,15,0,0,0,0,0,0,0,0,35,5,20,15,25,15,0,30,115,25,245,245,75,245,25,5,25,20,5,5,15,0,0,0,0,0,0,0,0,0,55,0,0
70,0,25,15,190,0,15,240,240,70,140,220,115,20,105,60,0,10,35,20,0,5,15,0,0,0,0,0,45,0,0,10,5,0,0,5,15,15,100,245,205,240,115,235,140,80,0,5,60,15,0,0,10,0,0,0,0,0,0,0,0,0,0,0
80,0,40,25,30,50,240,240,240,90,165,90,75,50,5,55,70,15,5,0,10,0,0,0,0,0,0,0,0,0,25,100,10,0,10,0,20,30,195,245,240,240,240,245,245,20,50,80,5,10,0,0,50,0,0,5,0,0,0,0,0,0,50,95
5,5,10,5,125,115,230,235,240,65,240,80,235,105,0,140,0,30,15,0,0,55,0,25,0,0,0,0,0,90,0,0,50,5,25,25,5,90,245,245,100,245,245,130,240,10,0,10,5,0,0,0,0,0,0,0,0,0,0,0,0,0,0,105
5,15,80,240,10,50,240,45,80,245,80,85,75,220,5,0,0,0,0,0,0,0,0,0,0,0,0,0,50,0,0,60,10,10,10,5,0,90,20,100,245,245,245,165,35,35,25,25,0,70,0,0,0,5,0,0,0,0,0,0,0,0,75,95
30,15,0,0,0,0,205,230,240,105,245,125,160,90,5,5,35,0,0,0,15,15,0,0,0,0,0,0,0,0,110,0,0,20,5,10,5,25,105,165,220,200,140,55,240,160,130,45,0,245,0,0,0,0,0,0,0,0,0,0,0,0,60,75
160,115,40,0,120,0,240,235,230,100,220,230,105,240,25,0,10,25,0,0,0,0,0,0,0,5,0,0,0,115,0,0,70,5,0,45,30,60,50,245,245,245,85,105,0,245,25,0,0,0,0,0,10,5,0,0,0,0,0,0,0,0,0,105
75,20,40,0,45,125,230,205,85,210,105,185,25,80,20,0,0,0,15,0,0,5,0,0,0,0,0,0,0,0,70,0,0,35,0,0,0,65,245,95,245,15,245,245,245,245,140,115,120,30,0,0,0,0,0,0,0,0,0,0,0,0,0,110
10,25,35,25,30,25,240,110,45,240,240,75,230,15,100,5,0,0,0,25,0,25,0,5,0,0,0,0,0,0,95,20,25,0,35,0,80,15,45,130,245,245,245,245,75,35,25,25,0,0,0,0,0,25,15,0,0,0,0,0,0,0,100,0
40,65,0,25,40,50,240,195,230,100,240,105,165,85,5,20,0,0,0,15,0,30,0,0,0,10,0,0,0,0,30,240,0,0,15,140,0,245,245,195,245,215,245,210,30,0,40,45,0,0,0,0,0,5,0,0,0,0,0,0,0,0,0,5
0,0,5,0,10,55,235,215,180,180,80,190,90,90,220,40,0,25,5,0,0,0,65,0,0,0,0,0,15,0,0,5,0,15,35,0,0,0,35,105,245,105,245,35,20,25,5,0,60,0,0,0,0,0,5,0,0,0,0,0,0,0,0,80
0,15,65,0,0,15,50,240,205,70,245,160,235,0,30,100,15,0,0,15,0,10,0,0,0,0,0,0,0,15,0,20,5,5,10,5,0,40,175,35,245,245,200,240,245,95,245,75,5,0,0,0,0,0,0,0,0,0,0,0,0,0,95,65
105,70,90,90,50,0,100,240,70,75,95,60,130,35,40,0,20,35,0,15,35,0,10,0,0,0,0,0,0,0,25,10,5,15,10,0,5,245,75,50,245,140,170,245,240,20,65,10,0,20,0,0,5,30,0,0,0,0,0,0,0,30,70,25
30,15,10,80,90,80,170,100,205,230,90,40,5,175,30,20,0,20,10,5,0,35,30,0,0,0,0,0,0,0,100,10,15,230,240,50,0,55,240,95,245,85,230,90,80,100,25,15,80,35,15,0,25,0,0,0,0,0,0,0,0,70,35,80
35,60,15,0,15,85,210,120,235,65,245,70,160,45,35,70,15,0,20,5,0,5,0,0,0,0,0,0,0,0,95,5,35,25,0,20,10,40,120,245,245,245,85,90,245,125,100,50,0,20,0,15,0,10,0,0,0,0,0,0,0,80,0,0
5,200,45,35,0,40,40,240,230,130,225,80,165,35,100,5,70,0,10,0,20,0,0,0,0,0,0,0,0,95,0,5,5,245,5,245,245,235,245,195,240,225,120,185,65,75,165,15,65,0,30,0,30,0,0,0,0,0,0,0,0,0,0,105
65,5,50,5,5,115,225,245,240,50,75,230,175,75,55,30,0,0,65,0,0,5,15,15,0,0,0,0,0,25,25,5,10,25,25,5,20,20,35,245,60,105,245,240,240,25,240,10,10,0,0,5,10,15,0,0,0,0,0,0,0,100,0,60
15,5,5,0,10,240,80,210,230,60,240,235,50,35,240,0,15,150,0,0,0,25,0,0,0,0,0,0,0,0,95,50,0,5,0,5,25,10,80,155,70,245,95,200,245,30,15,10,95,115,0,25,0,0,0,0,0,0,0,0,0,0,0,0
0,20,5,10,10,40,235,220,45,200,195,105,85,70,60,40,0,0,30,0,0,15,0,0,0,0,0,0,0,50,85,0,65,5,10,60,15,20,245,40,90,160,245,70,110,95,0,70,0,20,0,0,0,15,0,0,0,0,0,0,0,0,10,95
10,0,0,0,40,60,90,105,235,240,40,240,95,5,55,70,0,0,0,0,0,0,0,0,0,0,0,0,0,0,0,35,20,15,5,5,15,20,100,245,245,245,155,15,120,70,245,70,20,35,0,0,0,5,0,0,0,0,0,0,0,15,40,0
40,5,15,5,0,135,240,25,240,185,240,75,65,75,50,20,10,110,10,75,130,205,0,0,0,0,0,0,0,30,10,40,10,10,15,5,15,95,200,245,240,245,240,230,25,100,0,140,0,0,25,5,5,15,5,0,0,0,0,0,0,0,105,0
0,50,5,5,75,20,230,180,170,120,225,95,40,60,50,75,0,10,105,0,0,5,0,0,0,0,0,0,15,90,0,5,5,0,30,20,0,100,235,140,245,245,245,245,90,115,20,15,10,0,0,0,10,0,55,5,0,0,0,0,0,0,0,0
15,20,15,5,5,65,240,40,235,210,225,215,210,105,80,70,75,0,0,20,0,0,0,0,0,0,0,0,0,0,95,10,25,0,5,0,15,15,25,245,140,245,125,115,80,60,125,40,5,0,25,15,0,0,5,0,0,0,0,0,0,0,80,60
25,5,5,10,0,10,65,240,70,230,155,245,65,25,0,90,165,70,15,0,5,5,5,0,0,0,0,0,0,0,95,5,5,5,15,5,15,240,15,130,245,65,240,50,245,125,75,0,30,25,0,15,0,10,25,0,0,0,0,0,0,0,55,45
0,5,0,5,25,10,240,40,115,95,245,70,40,240,100,60,0,0,15,45,5,0,20,0,0,0,0,0,0,0,75,5,25,0,0,10,10,15,25,70,245,185,245,245,15,20,0,0,5,0,45,0,0,5,0,0,0,0,0,0,0,90,0,45
190,10,5,10,125,240,230,230,240,230,105,225,25,80,40,35,60,5,0,0,0,45,50,0,0,0,0,0,0,70,0,45,0,40,20,0,95,15,245,205,245,245,245,60,65,40,130,0,0,5,0,0,0,0,0,0,0,0,0,0,0,0,15,85
5,115,5,190,5,235,200,225,100,240,55,195,35,100,125,75,0,5,0,15,0,55,0,15,0,0,0,0,15,0,30,15,5,50,10,115,25,55,240,155,5,130,230,240,240,60,160,0,85,0,105,10,0,0,15,0,0,0,0,0,0,70,80,0
165,50,5,45,15,220,15,230,200,140,210,195,195,175,65,0,10,0,0,10,5,5,0,0,0,0,0,0,0,0,20,5,15,65,15,40,60,170,230,205,240,235,240,240,155,100,105,90,110,45,70,0,0,0,40,20,0,0,0,0,0,45,70,100
95,70,0,65,50,175,205,95,175,90,150,90,215,45,45,50,90,115,0,0,5,0,0,0,0,0,0,0,0,105,0,25,75,60,30,85,145,190,240,220,220,185,135,225,125,150,115,75,75,70,0,0,0,0,30,0,0,0,0,0,0,60,5,30
30,5,95,150,120,175,175,75,50,205,130,195,155,75,45,60,55,70,0,0,0,0,0,0,0,0,0,0,0,0,105,25,0,0,25,0,105,45,95,150,140,170,210,215,150,85,50,75,0,55,75,110,0,20,0,0,20,0,0,0,0,5,40,5
15,5,35,155,170,5,190,70,35,115,130,65,185,115,0,55,20,0,0,0,0,0,10,0,0,0,0,0,0,0,105,15,0,0,120,5,105,60,135,115,245,215,210,210,185,125,115,85,10,0,0,20,0,0,0,30,0,0,0,0,0,75,50,35
160,120,0,50,35,150,65,95,165,105,95,225,50,40,30,125,15,15,25,0,0,0,0,0,0,0,0,0,5,0,25,55,50,0,35,0,85,115,145,160,230,240,245,245,170,25,95,10,40,55,0,0,0,10,0,0,0,0,0,0,0,0,100,60
130,0,10,30,170,175,235,105,115,170,150,70,175,80,0,75,35,30,0,0,0,0,0,0,0,0,0,0,0,15,20,25,5,85,115,35,85,80,135,240,245,210,245,245,245,180,15,10,0,205,10,0,0,0,0,20,0,0,0,0,0,0,0,100
20,55,165,15,100,140,55,220,230,160,85,230,130,5,120,0,45,0,15,0,15,0,0,0,30,0,0,0,0,10,15,15,5,165,0,5,25,160,230,220,165,65,165,110,55,35,125,115,0,150,20,65,0,0,5,10,0,0,0,0,0,45,15,80
45,25,80,0,5,80,100,105,115,140,240,225,115,50,90,60,90,0,85,40,0,15,90,0,0,0,0,0,15,75,0,15,60,95,15,0,0,135,135,220,245,240,210,140,145,205,175,145,15,90,90,35,0,40,0,0,0,0,0,0,0,0,120,25
