0,140,20,0,100,235,220,35,125,235,100,240,100,60,0,100,50,0,0,0,0,0,0,105,0,0,0,0,0,0,0,0,80,90,40,5,10,115,110,240,245,220,130,245,170,240,70,245,0,0,0,0,0,0,0,0,0,0,0,0,0,0,0,0
15,165,25,30,65,0,155,115,110,215,150,50,35,205,35,35,20,5,0,0,0,0,0,0,0,5,0,0,0,0,40,0,15,10,0,0,15,5,40,230,85,155,245,205,40,0,15,0,0,0,0,0,0,0,0,0,0,0,0,0,0,0,0,10
80,40,0,5,5,0,80,170,245,135,235,70,165,85,55,30,0,0,0,25,0,0,0,0,0,0,0,0,0,0,20,0,45,5,0,0,25,5,35,15,70,15,20,60,30,5,15,10,0,5,0,0,15,0,5,0,0,0,0,0,0,0,0,0
90,0,0,0,10,100,25,15,45,245,155,100,80,115,100,70,30,0,5,25,0,0,0,0,0,0,0,0,0,0,0,70,25,0,20,0,0,0,240,245,245,245,245,245,240,70,10,75,245,0,0,0,0,0,0,0,0,0,0,0,0,0,0,0
0,15,5,0,15,20,65,205,35,45,245,25,65,50,85,20,10,15,0,30,0,20,0,0,0,0,0,0,0,0,0,0,0,55,0,15,5,0,0,245,30,45,245,35,245,245,5,0,0,0,0,0,0,0,10,0,0,0,0,0,0,0,0,0
170,0,0,5,20,5,175,195,245,130,25,240,135,40,35,70,0,15,15,110,20,0,0,5,0,0,0,0,0,0,0,40,0,5,5,0,0,0,0,20,60,250,240,50,0,30,30,35,245,0,0,0,0,0,0,0,0,0,0,0,0,15,0,0
10,0,0,40,10,25,215,130,60,240,155,65,65,40,40,0,50,50,15,0,0,0,0,0,0,0,0,0,0,0,0,0,0,5,0,0,0,0,40,30,65,245,15,40,50,10,15,5,0,15,0,0,5,0,0,0,0,0,0,0,0,0,0,5
5,0,0,0,30,245,10,30,115,90,240,130,75,40,25,55,15,0,45,0,0,0,0,0,5,0,0,0,0,0,0,0,5,5,0,55,0,0,10,230,40,225,55,250,10,245,10,35,30,0,0,0,0,0,0,0,0,0,0,0,0,0,30,0
25,25,0,0,0,5,245,205,80,245,65,70,220,50,10,60,0,0,0,0,0,0,0,0,0,0,0,0,0,0,0,0,0,0,5,80,5,5,245,245,15,45,245,35,15,50,15,20,10,0,0,0,0,0,0,0,0,0,0,0,0,75,0,0
0,5,0,10,0,20,245,245,130,215,65,115,60,60,245,15,0,5,0,0,0,0,0,40,0,0,0,0,0,0,0,0,20,180,0,35,0,35,185,245,245,245,245,25,45,65,155,0,5,35,0,0,0,5,0,0,0,0,0,0,0,0,0,0
15,25,70,0,50,75,230,195,220,60,210,110,80,60,75,10,0,0,0,15,90,0,25,0,0,0,0,0,0,55,0,0,0,30,35,5,220,0,40,245,245,245,25,245,35,45,100,40,25,20,0,0,0,10,0,20,10,0,0,0,0,0,95,55
5,0,30,20,155,30,15,235,215,230,230,140,5,95,5,85,0,5,0,0,15,50,0,0,0,0,0,0,0,0,0,25,105,10,10,0,10,15,245,15,245,245,35,245,75,245,0,45,20,0,5,0,0,0,0,0,0,0,0,0,0,0,80,0
195,15,0,55,0,235,25,230,65,240,170,155,90,75,30,90,70,25,0,0,0,35,0,0,0,0,0,5,0,0,0,45,30,0,0,35,35,0,245,55,245,15,70,245,95,245,10,20,0,10,0,0,0,5,0,0,0,0,0,0,0,0,0,90
240,60,205,25,235,5,230,240,85,135,15,165,90,85,60,0,0,60,0,0,70,0,0,0,0,0,0,25,0,0,0,40,0,15,5,5,10,0,225,245,240,110,225,245,35,35,55,20,5,20,10,15,10,0,5,0,0,0,0,0,0,0,85,55
100,50,40,115,240,20,235,235,90,240,240,80,85,110,230,0,20,0,15,75,0,45,0,20,0,0,0,0,0,0,0,110,15,0,0,235,25,15,245,245,115,245,220,20,25,40,25,0,40,0,0,0,0,0,0,0,0,0,0,0,0,0,0,90
5,35,45,70,15,25,245,35,105,115,165,155,75,115,65,0,15,0,5,0,0,0,60,0,0,0,0,0,0,0,110,35,0,5,85,245,25,15,190,245,245,245,15,60,25,15,0,0,0,5,0,0,0,0,0,0,0,0,0,0,0,0,0,100
65,40,160,5,5,240,85,130,175,230,115,155,125,75,75,30,125,50,0,0,70,50,5,0,0,0,0,0,0,0,80,10,15,15,5,15,0,25,245,130,245,245,245,245,245,245,10,5,0,0,0,0,0,10,0,0,0,0,0,0,0,0,0,0
95,60,10,20,35,240,195,230,25,85,230,150,85,105,90,95,0,20,0,0,35,0,0,0,0,0,0,0,0,105,0,0,25,0,0,35,15,35,80,245,25,245,245,245,240,245,5,5,0,0,0,0,0,0,0,0,0,0,0,0,0,0,0,95
50,160,40,215,35,220,5,210,215,235,235,95,230,110,95,0,90,0,0,0,0,0,20,0,0,0,0,0,0,0,0,115,245,245,10,100,25,245,245,225,60,245,245,240,245,235,35,30,0,10,0,0,0,35,0,0,0,0,0,0,0,100,0,55
0,240,40,35,0,145,40,15,185,165,105,125,90,150,65,115,0,0,0,0,0,30,0,0,0,0,0,0,0,0,115,15,0,0,135,15,40,245,130,245,245,85,140,115,160,55,110,5,0,15,5,0,0,0,0,0,0,0,0,0,0,0,70,0
15,15,15,5,165,240,70,240,240,235,95,50,240,80,25,225,65,0,0,0,0,15,45,0,0,0,0,0,0,0,105,10,120,20,65,5,35,245,50,205,245,245,240,245,245,225,65,85,0,70,0,0,0,0,0,0,0,0,0,0,0,0,95,50
5,95,150,140,170,175,150,220,50,225,225,60,90,160,150,230,0,0,0,0,5,0,0,0,0,0,0,0,0,0,0,15,5,105,45,105,10,120,160,175,245,240,220,170,245,240,170,145,240,180,0,85,0,5,0,0,0,0,0,0,0,90,0,45
0,45,15,220,0,10,130,100,100,230,110,240,10,70,200,50,110,0,0,0,0,0,10,0,0,0,0,0,0,0,90,0,5,25,0,20,35,245,95,125,245,115,105,225,95,245,60,0,10,35,0,0,0,0,0,0,0,0,0,0,0,0,70,0
15,0,10,0,0,65,210,245,90,105,245,160,200,110,205,70,0,0,0,5,40,0,10,5,0,0,0,0,85,0,5,145,20,95,245,245,5,80,140,245,245,240,245,245,240,80,165,155,5,165,25,0,5,165,110,0,0,0,0,0,0,0,150,105
210,0,180,0,50,5,190,225,225,230,180,230,235,150,85,20,0,40,20,0,20,0,0,0,0,0,0,0,0,0,80,105,25,45,5,25,245,20,245,245,245,245,60,245,10,30,35,60,15,35,0,0,0,0,0,15,0,0,0,0,0,0,60,80
20,180,20,5,5,235,240,5,235,210,80,115,120,95,5,55,0,0,30,0,0,225,0,0,0,0,0,0,0,0,20,10,220,5,0,65,80,85,240,210,240,215,235,240,225,215,230,35,15,0,0,0,5,0,75,15,0,0,0,0,0,0,175,155
175,0,215,0,185,185,100,175,200,200,205,230,195,240,0,10,85,5,0,0,10,0,0,0,0,0,0,0,0,115,0,15,135,225,15,180,195,175,245,245,240,145,225,240,110,240,150,195,120,0,0,10,0,0,0,0,0,0,0,0,0,0,105,130
130,185,0,40,0,20,160,160,225,160,150,90,150,125,65,160,75,10,0,10,10,15,25,20,0,0,0,0,0,120,100,210,240,245,130,130,105,240,240,230,240,235,220,125,200,240,25,220,100,120,60,0,0,0,0,0,0,0,0,0,0,0,165,195
195,5,5,115,185,130,150,125,130,60,90,60,145,5,10,25,125,0,0,0,0,0,0,0,0,0,0,0,0,0,25,110,0,0,20,190,225,0,230,240,240,240,245,240,210,130,5,0,95,15,35,0,0,25,0,0,0,0,0,0,0,0,165,115
160,35,145,40,5,70,30,35,175,135,135,105,110,75,100,90,0,0,55,0,10,0,0,0,0,0,0,0,0,185,0,165,165,240,50,100,215,195,240,240,245,245,235,245,170,225,135,100,5,0,0,0,0,0,0,0,0,0,0,0,0,0,175,165
125,125,0,0,195,170,35,50,125,170,115,110,135,135,100,165,0,20,60,0,0,50,0,0,0,0,0,0,0,0,245,240,175,185,175,140,155,35,245,245,210,215,240,220,235,245,240,175,110,0,0,0,0,0,0,0,0,0,0,0,0,0,185,180
80,205,20,85,50,160,190,40,85,165,135,105,60,150,155,120,100,0,0,30,40,40,0,0,10,0,0,0,35,0,175,65,245,140,235,0,240,245,240,245,240,240,240,240,165,75,85,205,5,0,0,15,0,0,0,10,0,0,0,0,0,0,105,50
195,205,115,75,160,165,155,120,145,130,165,145,185,185,80,80,0,20,100,5,0,0,0,0,0,0,0,0,165,0,85,235,185,240,105,205,230,180,230,245,240,245,230,225,160,205,125,115,50,10,0,0,0,0,0,0,0,0,0,0,0,0,180,205
105,90,40,60,130,145,150,150,165,190,170,180,150,105,85,5,135,5,85,0,0,0,10,30,0,0,0,0,15,195,145,240,240,240,5,240,130,225,205,195,195,210,190,230,160,125,115,100,95,40,5,0,0,0,0,0,0,0,0,0,25,65,190,175
0,100,20,0,90,150,60,205,120,70,95,120,150,70,110,5,0,0,0,0,0,15,0,0,0,0,0,0,100,0,35,20,60,220,165,230,125,215,195,225,225,195,195,185,110,170,125,10,10,130,0,0,35,0,0,0,0,0,0,0,0,0,145,45
195,95,20,115,70,55,70,75,115,105,95,140,45,80,120,130,10,0,0,0,0,15,10,0,0,0,0,0,0,85,55,245,155,160,190,130,220,200,235,235,210,240,205,215,210,175,25,60,0,0,0,0,0,5,0,0,0,0,0,0,60,0,0,70
60,185,175,185,5,140,215,115,115,235,115,235,135,75,220,50,5,0,0,0,40,0,0,0,0,0,0,0,0,0,105,30,95,110,0,40,40,235,205,245,230,220,180,135,235,130,205,30,0,135,0,0,0,0,0,0,0,0,0,0,0,140,0,100
130,125,0,110,95,40,25,85,40,80,80,95,30,45,35,40,0,0,25,0,35,25,95,0,0,0,0,0,0,100,110,5,0,145,195,0,100,175,210,30,245,245,245,245,155,150,95,200,35,0,95,5,0,0,0,0,0,0,0,0,0,0,0,110
90,140,35,35,60,125,140,170,70,195,190,160,5,40,45,5,0,0,0,0,0,5,0,0,0,0,0,0,0,0,160,125,240,205,235,195,215,15,235,220,220,245,240,185,240,210,145,105,50,50,0,0,95,0,5,0,0,0,0,0,100,0,130,130
125,160,90,25,125,185,70,150,140,185,130,55,130,65,95,75,30,15,0,0,10,10,0,0,0,0,0,0,0,185,200,215,130,110,125,0,150,215,240,240,245,240,175,230,125,140,105,0,0,0,0,0,0,0,0,0,0,0,0,0,0,0,0,185
185,100,5,10,85,130,160,165,160,195,95,215,20,150,70,205,15,0,0,0,0,15,0,0,0,0,0,0,0,0,105,240,205,230,235,60,185,175,240,240,240,240,140,190,125,140,90,115,125,0,0,0,0,0,0,0,0,0,0,0,0,0,160,45
220,15,0,20,155,125,100,160,55,125,70,110,105,145,50,60,0,35,0,0,0,0,0,0,0,0,0,0,0,85,190,25,155,25,60,85,220,205,235,230,220,165,230,95,220,65,20,190,0,0,40,0,0,70,0,0,0,0,0,0,0,0,85,60
160,25,0,0,170,185,145,50,160,195,120,85,130,150,90,25,15,45,0,0,0,0,0,60,0,5,0,0,0,185,0,180,240,210,165,240,95,230,215,240,245,245,245,240,180,235,50,95,0,60,60,0,0,0,0,0,0,0,0,0,0,100,0,40
205,125,185,0,70,150,140,120,145,80,85,40,75,185,130,0,35,5,80,0,0,0,0,0,0,0,0,0,80,0,65,240,170,185,245,0,0,245,235,220,240,240,245,240,200,0,235,165,0,0,0,0,0,0,0,0,0,0,0,0,0,55,50,0
195,190,0,215,40,185,120,30,220,220,230,205,35,95,25,20,0,70,30,0,0,0,0,5,0,0,0,0,80,0,100,45,200,60,220,210,225,225,240,160,205,245,200,200,50,155,20,150,140,35,0,0,0,0,0,0,0,0,0,0,0,60,60,35
5,185,25,15,100,185,70,75,240,210,185,85,60,115,75,55,10,0,0,0,0,0,0,0,0,0,0,0,0,0,105,35,170,215,210,20,10,245,245,245,245,245,245,230,240,240,85,175,45,60,5,0,0,100,100,50,0,0,0,0,20,0,160,140
5,110,20,155,0,165,40,125,135,60,35,65,95,85,5,0,40,25,0,0,0,65,20,0,0,20,0,0,0,175,140,240,240,140,115,75,105,220,230,240,240,160,230,150,125,120,80,80,0,0,0,0,0,10,0,0,0,0,0,0,0,40,105,0
160,35,0,0,0,20,105,80,105,150,50,125,105,20,80,95,0,10,0,0,0,10,0,0,0,0,0,0,0,10,235,240,240,240,240,185,170,175,220,185,225,205,175,40,180,30,5,30,5,25,0,0,0,0,5,0,0,0,0,0,0,0,80,35
35,140,5,50,200,30,190,145,140,100,115,130,60,110,100,95,10,0,30,0,0,10,5,0,0,0,0,0,0,240,70,180,175,120,0,15,245,125,240,245,220,190,150,145,165,120,175,45,0,0,0,0,0,0,0,0,0,0,0,0,0,0,170,65
45,190,0,5,40,85,85,100,100,95,105,70,120,60,55,40,70,55,0,0,0,0,0,0,0,0,0,55,0,45,225,240,5,240,200,185,200,90,225,240,165,210,200,225,155,50,15,10,150,5,0,0,0,0,0,0,5,0,0,60,0,0,0,175
