198,48,12,36,0,30,255,102,96,102,138,234,66,66,210,156,18,0,0,0,0,0,0,0,0,0,0,0,0,36,0,48,234,12,0,12,0,48,48,6,255,78,255,54,30,255,12,12,0,0,0,0,0,0,0,0,0,0,0,0,0,0,0,0
222,6,0,0,6,255,84,66,255,156,255,96,162,102,54,72,72,0,0,18,12,114,0,60,0,0,0,0,0,42,48,255,6,6,0,24,0,18,255,255,30,255,255,255,255,255,12,18,0,18,0,0,0,0,0,0,0,0,0,0,0,0,120,78
246,18,180,255,216,0,30,252,255,210,156,96,126,156,54,60,0,0,0,0,6,0,0,30,0,0,0,0,0,72,84,216,60,6,255,0,18,42,255,255,255,255,255,255,255,255,255,24,0,0,0,0,0,0,0,0,0,0,0,0,0,0,0,162
30,216,192,18,42,210,132,108,66,246,180,150,255,234,138,126,0,96,0,0,0,0,30,0,0,0,0,0,0,0,144,42,12,48,0,0,72,255,255,255,255,255,255,255,216,255,255,0,0,0,0,0,6,0,6,0,0,0,0,0,0,0,180,0
36,18,6,30,240,78,60,78,72,126,54,60,150,192,186,66,0,54,0,0,0,18,0,0,0,0,0,0,132,0,48,24,0,255,60,0,240,210,114,255,255,255,255,126,255,0,72,96,12,0,72,0,0,0,0,0,0,0,0,0,0,0,102,72
6,18,0,0,18,255,150,96,192,186,96,90,120,66,78,168,0,0,0,0,18,0,0,0,18,0,0,0,90,0,186,0,48,42,48,102,72,126,216,255,255,255,255,255,198,255,255,78,0,0,0,0,0,0,0,0,0,0,0,0,0,0,24,120
222,42,60,6,120,210,72,144,84,114,96,114,30,60,114,0,30,0,0,0,6,0,0,0,12,0,0,0,0,18,54,0,6,0,66,114,6,48,255,174,255,255,174,234,96,66,72,24,66,0,30,0,0,0,0,0,0,0,0,0,0,114,0,78
18,222,114,18,255,12,234,255,168,228,126,210,90,66,204,0,126,96,24,0,0,108,0,6,0,0,0,0,0,0,126,6,6,0,18,60,84,255,102,255,180,255,255,42,198,0,234,42,0,6,0,0,18,12,0,0,0,0,0,0,0,0,114,84
42,252,6,6,6,240,102,48,60,108,102,114,42,90,96,102,30,24,0,0,0,12,0,6,0,0,0,0,96,0,24,24,78,102,48,12,126,240,255,255,255,255,255,255,228,252,255,198,0,48,0,0,0,6,0,0,0,0,0,0,0,0,114,24
168,150,0,90,48,48,156,255,150,96,120,126,84,138,102,150,18,42,0,0,0,0,0,0,0,0,0,0,0,18,18,90,210,18,18,30,48,84,228,168,138,255,255,255,60,84,96,12,138,138,0,0,54,0,0,0,0,6,0,0,0,0,24,108
24,6,0,0,150,66,252,114,198,60,174,108,114,90,102,18,0,0,0,0,0,0,12,0,0,0,0,0,0,90,66,54,6,6,18,48,60,12,66,255,255,180,180,24,255,96,255,0,12,18,0,0,0,0,0,0,0,0,0,0,0,96,0,78
24,0,6,30,0,246,96,48,168,108,255,120,138,18,102,60,0,0,18,6,0,30,0,0,0,0,0,0,0,0,66,24,0,48,36,0,0,30,255,138,6,255,48,144,30,90,24,18,0,0,0,0,0,30,42,0,0,0,0,0,0,0,0,90
0,6,255,0,18,0,138,84,180,255,168,42,222,84,120,0,138,0,48,0,0,0,54,0,0,0,0,0,0,48,0,0,0,60,0,12,72,255,6,255,48,36,255,255,66,120,0,255,0,36,0,0,0,0,0,0,0,0,0,0,0,0,90,0
0,78,0,0,18,48,255,180,144,72,162,54,126,30,60,240,0,0,0,12,6,0,12,0,0,0,0,0,0,0,0,114,0,0,0,42,42,0,12,84,60,66,48,72,255,102,18,18,0,6,0,0,0,0,0,6,0,0,0,0,0,0,66,0
30,30,0,0,42,36,18,255,255,138,114,114,255,48,18,54,18,24,0,0,12,12,0,0,0,0,0,0,0,0,0,114,0,18,0,0,210,48,234,42,255,255,114,255,72,78,42,18,0,0,0,0,0,0,0,6,0,0,0,0,0,66,24,0
6,18,0,6,6,255,90,234,255,150,150,168,240,54,60,0,0,72,84,12,0,12,18,0,0,0,0,0,0,0,54,0,102,0,0,0,48,255,24,255,24,18,120,255,255,36,144,0,0,0,0,0,0,0,0,0,0,0,0,0,0,0,72,54
0,12,0,12,204,0,24,255,84,255,150,102,216,108,24,114,0,0,42,0,0,18,0,0,0,0,0,0,0,48,54,30,0,12,0,0,0,255,48,78,255,255,42,72,18,255,60,0,0,0,0,0,0,0,0,0,0,0,0,0,0,0,84,0
6,12,6,24,18,30,222,228,246,156,255,108,78,72,114,156,78,0,0,0,12,0,0,36,0,0,0,0,0,0,0,54,0,0,255,48,255,6,246,255,255,255,30,255,66,18,18,6,0,0,0,0,0,0,0,0,0,0,0,0,0,0,72,0
6,0,30,18,0,18,18,255,246,255,234,114,255,90,90,30,138,96,18,30,0,0,0,0,0,0,0,0,60,0,42,6,36,66,102,30,150,255,222,240,255,255,198,255,246,120,72,78,0,0,0,0,0,12,0,12,0,0,0,0,0,114,114,0
60,234,12,0,255,6,234,252,138,144,54,168,18,168,6,54,18,0,6,0,72,0,24,0,0,0,0,0,102,72,36,30,168,72,102,150,150,162,255,240,255,255,255,255,102,102,54,12,0,114,0,0,0,0,6,0,0,0,0,0,0,0,114,0
30,150,150,6,24,54,255,186,204,114,84,144,48,60,84,66,138,0,0,0,12,6,0,0,0,0,0,66,0,12,12,24,255,36,96,12,78,6,255,204,255,255,78,216,222,60,18,66,0,60,0,0,0,0,0,0,0,0,0,0,0,102,0,0
0,6,78,0,24,126,255,60,255,180,90,174,72,96,84,18,6,132,0,0,0,18,0,0,0,0,0,0,0,18,0,0,6,0,66,0,0,6,18,255,240,255,252,42,84,42,42,255,0,0,6,0,0,0,0,0,0,0,0,0,0,0,102,0
24,0,156,0,255,84,0,255,255,198,150,138,42,84,60,144,36,18,0,0,78,6,0,0,0,0,0,0,0,0,114,18,24,0,24,138,120,24,255,255,252,255,255,240,168,114,30,42,30,6,12,0,18,6,6,0,0,0,0,0,90,0,84,6
156,162,30,18,12,120,48,48,84,102,126,102,78,96,30,30,6,90,0,0,0,0,0,42,0,0,0,0,0,24,126,120,96,138,90,156,90,240,192,246,255,186,246,234,216,132,156,144,78,126,0,0,30,60,0,6,0,0,0,0,0,0,12,114
120,144,0,12,156,138,222,246,234,228,150,114,180,162,96,72,6,132,48,6,0,0,12,0,0,0,0,0,0,138,255,60,18,6,84,60,156,150,255,246,138,210,126,255,255,162,24,78,0,0,0,0,18,0,0,0,0,0,0,0,0,0,24,48
126,156,114,12,144,30,18,24,114,84,96,240,132,48,114,42,6,0,0,0,0,0,30,0,0,0,0,0,0,0,18,54,138,120,0,90,48,210,84,255,144,114,255,255,132,198,48,0,18,0,0,0,0,0,0,0,0,0,0,0,114,0,60,84
126,66,12,0,36,72,30,48,66,246,96,60,132,96,60,54,30,0,0,0,0,0,0,0,12,0,0,0,0,138,12,102,96,42,114,78,54,138,192,246,255,198,66,180,84,168,90,12,0,24,0,0,0,0,6,6,0,0,0,0,0,108,60,18
6,156,120,192,42,132,12,198,240,240,186,126,120,90,24,78,12,0,6,0,0,0,0,0,0,0,0,0,0,0,72,78,96,78,60,30,36,114,255,255,84,255,255,48,54,18,36,42,0,0,0,0,0,0,0,0,0,0,0,0,120,0,0,66
162,30,0,168,18,6,18,48,102,144,114,78,42,108,144,42,0,48,0,0,0,0,0,6,0,0,0,0,0,30,96,24,168,24,255,6,48,255,255,255,234,180,255,138,255,138,180,12,0,0,0,0,12,18,0,0,0,0,0,0,0,66,0,0
18,6,0,18,150,78,156,126,84,252,186,150,234,174,24,0,138,0,0,0,0,0,0,30,0,0,0,0,0,0,138,6,24,0,102,6,6,60,255,255,216,240,234,198,144,108,144,6,18,30,0,0,0,0,0,0,0,0,0,0,0,0,0,162
6,12,132,0,180,150,102,156,168,180,156,162,132,96,150,30,66,0,36,0,0,0,0,0,6,0,0,0,0,0,138,60,18,78,18,12,102,240,174,255,255,255,255,255,255,114,36,36,60,0,6,0,0,0,0,0,0,0,0,0,0,114,0,0
0,6,6,12,120,246,198,252,180,192,84,150,66,180,18,138,18,48,0,0,0,0,0,0,0,0,0,0,0,0,30,138,12,90,18,78,0,168,240,210,168,255,255,42,126,138,96,30,42,36,0,0,30,0,18,0,0,0,0,0,0,96,24,78
138,6,6,6,138,252,120,114,150,84,168,138,138,234,60,0,0,12,24,0,12,0,18,0,0,0,0,0,0,102,18,84,6,6,18,255,6,18,126,192,255,216,234,255,42,42,72,18,24,42,0,6,0,0,0,0,0,0,0,0,0,0,174,120
0,234,18,48,126,216,156,78,102,255,114,96,186,72,246,18,18,90,0,0,0,0,18,0,0,0,0,0,0,144,0,12,18,6,42,0,96,30,255,255,210,84,234,198,102,78,78,126,0,30,42,0,0,0,0,0,0,0,0,0,0,0,120,60
6,0,0,36,30,90,252,156,114,252,255,156,162,246,72,42,42,30,0,0,0,0,6,6,0,0,0,0,0,132,0,12,0,0,24,18,18,18,6,60,255,48,255,42,255,6,0,36,0,0,0,0,0,12,0,0,0,0,0,0,0,0,0,108
0,0,0,255,30,6,96,255,255,84,126,84,168,255,78,72,144,0,0,30,6,0,0,0,0,0,0,0,0,48,0,0,84,240,0,18,6,6,30,168,255,18,255,84,255,30,72,6,30,18,0,6,0,0,0,0,0,0,0,0,0,84,0,0
6,78,0,18,0,36,255,255,72,255,255,90,255,30,42,60,18,0,0,0,0,0,18,0,0,30,0,0,0,108,0,0,0,36,0,12,0,0,255,255,18,12,255,138,255,255,18,0,18,0,0,0,0,0,0,0,0,0,0,0,0,0,0,0
6,72,0,0,0,255,0,120,255,90,255,138,186,84,78,42,6,0,0,0,0,18,30,96,0,0,0,0,0,0,0,0,84,0,0,0,0,42,255,30,36,255,255,48,255,108,42,0,0,0,0,0,0,0,0,0,0,0,0,0,0,0,0,96
0,255,0,186,6,0,255,66,255,144,102,255,18,198,255,72,0,0,0,0,0,18,72,0,0,0,36,0,0,0,0,108,0,114,0,6,42,24,255,204,162,234,234,168,222,96,210,6,0,0,0,0,0,6,0,0,0,0,0,0,0,0,78,102
12,12,255,108,12,0,180,162,108,150,150,90,138,42,84,42,6,24,0,0,6,30,0,0,0,0,0,0,0,0,0,0,0,84,255,0,6,255,12,132,255,255,90,255,84,42,24,126,0,6,0,0,0,0,6,0,0,0,0,0,0,0,0,0
0,84,0,36,120,84,255,150,168,132,144,144,66,222,138,150,84,12,30,0,0,12,0,0,0,0,0,0,96,0,72,6,138,126,72,54,54,48,255,204,255,255,222,204,138,114,108,6,0,0,0,0,0,0,24,0,0,0,0,0,0,0,0,186
72,18,18,0,12,18,132,234,138,234,252,192,96,126,168,66,0,0,0,0,0,18,0,0,0,0,0,0,0,0,102,0,30,30,18,48,6,60,156,255,72,18,138,255,102,72,252,168,6,0,0,0,0,0,0,24,0,0,0,0,0,0,120,90
36,102,78,0,0,30,12,84,255,240,138,48,102,42,114,36,6,0,0,0,0,48,12,0,0,0,0,0,0,0,42,54,90,96,0,6,12,54,255,255,210,255,108,255,255,18,18,0,0,0,0,12,0,0,0,0,0,0,0,0,0,0,78,120
36,30,42,0,36,180,78,255,126,255,240,132,198,84,102,126,12,6,84,0,48,48,0,0,0,0,0,0,0,0,120,30,48,0,48,30,66,0,84,255,255,255,234,132,174,48,210,108,0,12,0,0,84,0,0,0,0,0,0,0,0,0,0,120
228,12,0,12,18,210,72,255,66,180,138,114,78,114,18,18,6,6,0,36,0,0,30,0,0,0,0,0,84,0,0,90,18,12,30,0,24,0,255,84,255,255,30,36,72,66,54,36,0,48,0,0,0,0,42,0,0,0,0,0,0,0,0,114
42,18,18,24,36,255,132,255,192,96,114,150,78,114,168,30,0,0,0,0,0,0,0,0,0,0,0,0,0,102,48,60,6,210,48,24,102,114,255,255,255,222,240,255,228,246,42,18,12,0,0,0,0,0,12,0,0,0,0,0,0,0,0,78
90,36,30,204,12,132,30,84,138,126,126,96,156,78,108,24,0,0,0,18,0,0,18,0,0,0,0,0,84,0,0,18,24,18,36,0,72,255,72,24,138,255,150,255,255,102,18,255,42,0,0,0,0,6,0,0,0,0,0,0,0,0,120,0
6,6,138,144,24,6,90,246,90,126,114,54,150,162,42,156,0,72,18,0,0,12,12,0,0,0,0,0,0,72,36,12,0,18,12,255,255,6,42,255,240,255,255,234,54,90,255,0,0,18,0,0,0,12,12,12,0,0,0,0,0,102,0,0
6,24,24,234,12,240,60,252,102,255,255,150,78,168,18,42,72,30,18,0,12,0,0,0,0,0,0,0,0,0,0,138,18,0,6,0,18,120,180,255,255,255,84,108,234,84,0,12,30,0,0,0,0,0,0,0,0,0,0,0,0,0,120,0
0,0,18,6,48,18,132,30,255,72,255,78,60,168,42,66,0,6,0,0,6,144,6,24,0,0,0,0,48,0,255,0,0,0,0,90,6,0,255,66,255,255,255,24,30,36,42,30,0,42,54,0,0,0,0,0,0,0,0,0,0,0,0,0
