50,255,10,80,255,255,110,180,255,255,240,170,100,60,170,190,150,30,0,0,0,0,0,0,0,0,0,190,0,0,80,255,60,255,240,255,200,255,250,255,255,255,255,255,255,255,70,70,0,0,40,0,0,0,0,0,0,0,0,0,0,160,0,0
10,255,0,50,0,255,130,50,240,255,255,240,255,110,0,50,40,0,0,0,170,120,0,0,0,0,0,0,0,255,0,0,255,40,255,180,110,255,255,255,255,255,255,255,255,255,0,255,0,255,10,20,0,0,0,0,0,0,0,0,0,0,0,0
255,80,50,50,255,50,255,230,255,255,255,200,255,170,150,0,0,190,0,0,0,10,130,0,0,0,0,0,190,0,40,70,10,40,20,30,80,190,200,255,255,255,255,255,255,255,160,0,255,255,210,0,0,10,30,0,0,0,0,0,0,0,220,0
255,250,230,80,20,120,140,170,160,255,200,140,100,210,255,255,255,40,0,70,0,0,0,0,0,0,0,0,0,255,0,0,0,170,255,255,160,255,255,255,255,170,255,255,210,120,240,230,0,100,0,0,80,0,0,90,0,0,0,0,0,0,0,190
220,0,10,0,50,255,255,180,110,170,230,250,170,255,210,170,50,10,0,200,0,0,0,0,0,0,0,0,0,0,0,210,0,10,50,0,10,20,255,255,255,255,255,255,255,255,255,10,220,0,0,0,0,0,30,0,0,0,0,0,0,190,0,100
20,10,20,0,255,60,255,255,120,255,180,90,255,140,255,0,50,0,0,0,160,10,0,60,0,0,0,0,0,0,0,220,50,30,0,50,0,190,255,20,255,255,255,255,255,255,255,170,0,0,0,0,0,0,0,255,0,0,0,0,0,0,190,130
30,20,40,160,180,255,100,160,255,120,140,255,100,255,50,255,0,0,0,90,0,160,30,0,0,0,0,0,0,0,0,150,40,0,0,20,10,140,210,255,255,255,255,255,255,255,255,255,130,120,0,0,90,0,0,0,0,0,0,0,40,0,200,120
110,250,210,180,140,170,50,250,255,170,255,100,180,230,0,170,100,20,0,80,0,0,0,0,0,0,0,0,0,0,210,30,20,10,0,0,0,10,255,255,110,255,80,110,255,190,50,30,200,240,0,0,20,0,0,0,0,0,0,0,0,160,0,0
80,160,0,90,70,70,230,255,255,255,255,120,240,100,160,80,80,0,0,0,0,0,0,0,0,0,0,0,0,0,210,30,10,10,40,0,10,40,255,230,255,255,255,90,140,90,255,170,255,10,0,0,0,0,0,0,0,0,0,0,0,0,170,80
40,10,30,230,190,50,255,255,250,80,230,230,255,130,160,80,40,10,0,30,0,0,0,60,0,0,0,0,0,140,80,0,10,10,0,0,10,20,255,80,255,70,190,170,0,255,10,255,0,50,0,0,0,0,100,0,0,0,0,0,0,0,0,0
255,0,0,0,20,30,50,255,255,150,255,140,255,100,140,70,60,30,0,10,0,0,0,0,0,0,0,0,0,0,150,50,0,0,0,50,0,255,90,60,255,255,255,230,170,170,40,150,130,70,170,0,30,0,0,0,0,0,0,0,0,0,0,210
160,70,20,30,30,70,190,140,255,210,200,130,255,120,255,0,0,0,100,0,0,0,80,30,0,0,0,0,0,0,0,30,210,10,0,20,30,255,140,255,255,255,80,255,170,140,170,240,130,240,50,40,60,0,30,0,30,0,0,0,0,0,190,100
30,0,0,10,230,190,255,255,255,70,255,220,200,255,0,210,70,0,30,100,0,0,0,0,0,0,0,0,0,0,0,230,20,10,20,0,240,70,150,255,255,255,100,255,255,255,255,20,0,50,20,0,0,0,0,30,0,0,0,0,10,0,0,0
70,20,40,50,10,120,255,120,255,210,160,210,255,30,30,100,40,20,0,0,90,50,0,0,0,0,0,0,0,0,0,20,20,230,0,10,70,10,255,200,200,255,255,255,240,120,170,100,120,250,30,50,30,0,20,50,0,0,0,0,10,0,0,180
140,50,0,0,30,60,200,255,130,255,255,255,255,220,250,100,100,0,0,0,70,0,0,110,0,0,0,0,0,180,0,140,210,0,0,10,0,10,190,255,255,80,170,150,100,110,255,255,0,0,20,50,0,0,80,0,0,0,0,0,0,0,140,0
0,0,20,150,30,255,30,90,240,255,255,200,80,190,180,180,0,0,0,100,0,90,10,0,0,0,0,0,0,0,0,80,0,150,10,0,255,255,30,255,30,40,150,110,255,60,255,255,255,30,255,0,0,0,0,0,0,0,0,0,0,0,0,90
0,0,0,50,0,30,90,150,255,140,255,70,160,190,170,120,0,0,0,60,50,0,190,0,0,0,0,0,0,0,0,0,0,0,0,0,0,50,0,150,255,255,190,255,10,255,255,30,20,60,0,0,90,20,0,0,0,0,0,0,0,0,0,120
0,50,30,0,100,0,255,30,140,255,255,70,90,255,255,100,0,0,0,100,0,0,0,150,0,0,0,0,0,0,0,0,0,190,10,0,130,40,10,80,80,120,255,255,70,70,30,0,0,90,0,0,0,0,0,0,0,0,0,0,0,0,0,0
0,10,0,10,20,0,255,170,30,120,255,120,160,255,0,160,0,70,0,20,0,0,0,50,0,0,0,0,0,0,170,0,0,0,0,0,20,20,130,80,255,255,120,255,100,200,255,0,70,0,0,70,0,20,0,0,0,0,0,0,0,0,0,10
160,90,0,0,30,0,255,140,255,150,180,130,70,255,150,20,150,30,0,0,0,20,0,0,0,0,0,0,0,0,0,0,50,0,0,0,0,170,255,170,255,90,70,255,20,255,10,0,255,10,0,80,0,0,0,0,0,0,0,0,0,0,0,0
0,70,0,0,40,100,255,90,110,255,140,160,250,140,250,180,0,0,0,0,0,50,0,0,0,0,0,0,0,0,0,10,0,0,0,0,50,0,30,10,255,255,255,90,140,80,70,70,70,255,10,80,0,0,0,0,0,0,0,0,0,0,0,0
0,120,0,10,0,30,30,255,255,140,100,255,170,160,110,0,0,80,0,0,0,30,0,80,0,0,0,0,0,0,0,0,0,0,10,160,0,0,255,110,255,30,255,190,50,255,10,20,0,20,255,0,0,0,0,10,0,0,0,0,0,0,0,0
140,200,10,50,100,255,255,10,255,170,250,255,60,40,80,140,140,0,0,0,0,0,100,20,0,0,0,0,0,0,0,0,190,50,0,10,0,230,255,160,255,255,230,70,255,50,255,10,110,255,0,0,0,0,0,0,0,0,0,0,0,0,0,0
0,120,90,10,70,110,140,60,255,180,30,110,160,255,140,80,0,10,0,0,0,80,0,0,0,0,0,0,0,0,0,0,50,0,20,10,30,10,50,100,255,255,110,255,90,90,120,30,80,130,40,0,10,20,70,0,0,0,0,0,0,0,0,0
70,40,30,30,30,190,130,255,50,150,255,180,120,230,30,40,130,20,0,10,0,10,0,0,0,0,0,0,0,0,0,0,0,50,0,0,0,40,0,255,40,100,140,255,255,40,40,50,10,210,0,0,255,0,0,40,0,0,0,0,0,0,0,190
0,150,0,110,10,120,255,140,255,110,160,170,180,255,190,20,0,0,0,0,0,120,80,0,0,0,0,0,0,0,0,0,190,0,0,0,70,20,150,255,255,100,255,255,255,255,150,50,0,0,190,0,0,0,0,0,0,0,0,0,0,0,0,0
210,0,160,0,100,90,255,170,255,210,255,160,255,255,140,10,10,10,0,0,100,0,40,0,0,0,0,0,0,0,0,40,220,30,0,0,0,0,0,255,70,255,255,80,255,130,10,70,10,0,0,0,0,0,0,0,0,0,0,0,0,0,0,0
0,170,0,0,10,255,50,50,255,80,110,220,160,90,130,255,40,0,0,0,0,0,0,0,0,0,0,0,0,160,0,0,100,0,0,0,0,70,160,255,40,255,255,100,255,255,80,0,0,0,0,0,0,0,0,0,0,0,0,0,0,0,0,180
0,190,110,0,80,10,180,255,255,190,120,255,255,255,180,220,120,0,10,0,0,0,0,20,0,0,0,0,0,0,0,0,0,0,0,120,0,0,140,20,120,255,255,80,255,255,80,30,0,255,0,30,0,0,0,0,0,0,0,0,0,0,0,30
0,100,190,0,0,130,255,130,255,255,170,255,120,255,255,130,100,0,0,20,0,0,0,0,0,0,0,0,0,0,0,0,0,0,100,0,0,255,50,30,100,255,90,200,255,80,20,120,90,0,0,0,30,0,10,0,0,0,0,0,0,0,180,0
10,0,70,0,130,160,255,10,150,255,220,230,230,255,110,40,80,0,0,0,0,0,0,10,0,0,0,0,0,0,0,0,0,0,60,0,70,70,255,255,60,210,255,255,150,255,50,255,0,0,0,0,0,70,0,0,0,0,0,0,0,0,0,0
220,10,140,0,100,80,255,255,255,255,210,190,230,80,255,0,0,0,0,0,0,0,0,0,0,0,0,0,0,0,0,0,0,0,0,0,0,0,255,170,100,90,255,180,100,80,0,0,40,10,255,0,0,0,0,0,0,0,0,0,0,0,90,0
30,255,30,10,30,10,70,255,255,230,200,230,150,100,20,0,90,110,0,0,0,0,0,0,0,0,0,0,0,0,0,0,160,0,0,0,0,0,0,255,170,30,255,230,255,255,120,255,0,0,0,0,140,0,0,0,0,0,0,0,0,80,0,70
0,80,0,30,70,50,80,255,255,200,40,230,160,255,50,30,30,10,255,10,0,120,30,0,0,0,0,0,0,0,0,190,0,0,70,0,0,0,255,255,60,40,255,50,255,255,10,0,50,0,10,0,0,0,0,0,0,0,0,0,0,0,0,190
110,90,30,70,0,255,255,40,130,140,255,255,200,160,255,10,0,0,0,0,10,0,0,0,0,0,0,0,0,80,0,0,50,0,0,50,0,10,255,255,255,200,255,30,150,130,255,180,0,0,10,0,20,0,0,0,0,0,0,0,0,0,0,200
70,20,140,90,80,255,90,255,255,190,255,140,255,180,230,150,120,10,0,0,0,0,0,0,0,0,0,0,0,80,0,0,255,0,0,0,40,255,255,10,255,255,10,200,90,255,255,70,0,0,10,0,0,0,0,0,0,0,0,0,0,0,190,0
10,30,0,0,170,30,40,255,100,255,160,255,240,190,180,160,30,0,0,0,0,0,30,110,0,0,0,0,0,0,0,0,70,0,0,0,10,0,0,255,140,255,140,190,150,110,255,255,0,0,0,0,0,10,30,0,0,0,0,0,0,0,0,190
130,40,10,70,50,80,255,120,70,255,255,250,255,140,10,0,90,80,0,0,40,0,150,0,0,0,0,0,0,0,0,0,210,0,0,0,120,60,255,30,255,100,90,110,120,160,30,10,0,0,30,0,0,0,0,0,50,0,0,0,0,0,170,0
0,160,0,130,0,255,130,255,140,255,110,255,60,100,210,0,10,0,0,30,0,120,20,0,0,0,0,0,0,0,0,0,200,0,0,0,90,90,50,255,80,50,255,255,120,170,80,210,80,10,100,0,0,30,0,0,0,0,0,0,0,0,0,120
20,160,0,10,80,140,255,255,70,70,255,70,255,80,130,10,160,160,70,180,0,0,10,0,0,0,0,0,0,0,0,190,0,0,100,0,10,80,255,255,255,255,140,255,70,255,160,20,80,0,190,0,0,0,0,0,0,0,0,0,0,0,0,0
0,0,0,0,40,20,255,60,255,140,130,190,190,80,220,100,10,30,30,0,40,0,10,0,0,0,0,0,0,0,0,190,0,80,0,0,0,50,190,70,30,255,210,170,150,255,255,0,30,10,0,0,0,0,0,0,0,0,0,0,0,0,0,0
200,140,0,80,90,90,255,140,255,210,255,130,250,190,190,90,20,10,0,0,0,0,0,0,0,0,0,0,0,0,0,210,50,0,0,60,30,255,255,255,80,255,255,170,255,10,140,30,0,0,0,0,0,0,0,180,0,0,0,0,0,0,0,200
100,70,50,255,30,110,120,50,130,255,200,190,120,180,0,50,0,30,60,0,90,50,0,0,0,0,0,0,0,0,0,230,20,30,0,30,30,255,40,255,70,255,255,150,60,255,140,0,60,30,40,20,0,0,160,0,0,0,0,0,0,0,180,0
10,60,10,70,50,70,180,255,190,140,90,70,210,140,100,230,160,0,0,130,0,0,0,30,0,0,0,0,0,0,210,30,10,20,0,10,255,255,255,255,255,255,255,80,130,50,255,60,0,0,80,0,0,0,0,0,0,0,0,0,0,0,0,0
210,100,80,80,90,255,220,0,255,255,110,255,255,90,130,0,30,0,0,0,0,0,0,0,0,0,0,0,0,0,0,0,210,70,0,10,20,255,10,255,255,255,255,255,250,255,255,210,180,0,0,50,20,10,30,0,20,0,0,0,0,160,0,0
50,200,255,240,60,230,150,150,255,255,140,230,255,170,140,30,120,10,0,50,0,0,0,0,0,0,0,0,0,230,0,40,255,20,90,20,240,120,255,140,255,255,140,255,90,100,80,110,50,0,10,0,0,10,0,0,0,0,0,0,0,0,180,0
140,90,60,70,50,30,250,255,220,255,160,190,180,255,140,40,40,0,0,0,0,0,10,0,0,10,0,0,30,50,0,0,255,0,255,0,30,30,30,255,120,255,70,255,80,200,50,0,0,80,0,0,30,0,0,0,0,0,0,0,0,0,210,0
150,0,0,0,100,255,255,255,120,255,210,210,170,100,80,255,80,0,0,0,10,30,0,20,0,0,0,0,0,0,0,10,30,230,10,0,0,120,255,255,255,255,255,255,255,80,255,50,0,0,80,0,0,40,0,10,0,0,0,0,0,0,0,200
0,255,40,80,70,0,255,255,255,220,150,220,240,210,30,0,120,10,50,0,0,40,60,0,0,10,0,0,0,255,255,255,255,220,100,255,240,255,250,255,255,255,255,255,255,160,255,210,0,190,0,0,0,0,0,0,140,0,0,0,255,190,0,255
230,0,50,20,0,250,220,30,255,255,255,170,100,170,60,120,0,0,0,20,0,0,0,0,40,0,0,0,0,200,255,255,140,255,230,210,170,190,255,250,255,255,255,255,255,255,70,255,10,0,0,70,20,10,0,0,0,0,0,0,0,0,160,0
