26,0,0,0,8,56,32,24,34,40,4,34,10,18,10,12,0,0,8,42,2,0,0,0,0,0,0,0,40,0,70,70,8,4,6,72,62,6,90,90,64,72,56,44,44,42,10,2,2,28,0,0,2,0,2,2,0,0,0,0,0,28,28,6
0,0,0,22,0,24,16,12,40,14,8,26,30,10,6,4,2,42,0,0,0,14,0,0,0,0,0,4,10,66,10,12,56,0,2,42,6,56,60,60,36,52,32,42,32,6,4,2,0,6,0,0,6,0,0,10,0,0,0,0,24,16,18,14
14,0,2,8,2,38,46,6,74,32,32,28,40,28,0,2,0,10,26,38,4,0,0,0,0,0,0,0,8,18,14,4,16,30,32,26,50,46,50,46,50,46,54,60,92,24,20,14,2,2,6,0,0,0,4,0,0,0,0,0,0,28,16,32
0,16,0,0,0,14,60,8,16,20,20,42,34,2,24,12,0,0,0,0,2,2,0,0,0,0,0,0,0,20,0,74,22,10,40,2,0,82,64,86,82,86,96,82,48,44,0,64,20,0,26,0,44,52,0,0,0,0,0,0,22,20,0,46
30,0,2,50,46,46,64,64,60,28,66,66,44,38,20,0,0,10,0,0,0,0,0,0,0,0,0,0,2,34,6,6,28,38,36,52,2,42,24,96,90,76,82,84,54,30,2,0,4,6,26,0,6,0,4,6,0,0,0,0,0,2,14,26
0,0,16,0,0,4,38,66,10,38,48,0,30,72,34,6,2,0,0,0,0,0,0,0,0,0,0,0,32,32,16,64,78,78,76,2,96,96,16,96,92,96,96,92,14,96,2,0,16,0,0,0,6,0,0,0,0,0,0,0,30,32,0,82
10,14,26,46,60,56,36,14,14,30,16,30,10,32,30,14,0,4,0,0,0,0,0,0,0,0,0,0,28,26,30,44,32,24,34,34,42,46,54,54,92,60,92,48,52,42,52,0,0,4,0,6,0,0,0,0,0,0,0,0,20,0,28,14
8,0,0,0,0,20,6,0,6,16,10,40,26,24,0,28,0,0,24,0,0,0,0,30,0,0,0,0,20,0,6,10,80,72,16,0,4,70,66,72,82,78,94,30,88,46,70,8,6,0,2,0,0,6,2,0,0,0,0,0,0,0,34,34
24,0,6,0,4,10,64,38,70,24,2,38,28,0,0,2,12,2,0,0,10,0,0,0,0,0,0,0,0,38,14,6,48,90,16,0,96,4,96,92,92,96,96,10,94,10,10,10,6,0,8,4,4,0,0,0,0,0,0,0,0,0,32,60
22,54,0,2,0,6,14,16,28,24,38,30,32,20,22,14,28,0,0,2,30,0,0,0,0,0,0,0,32,32,12,4,42,58,82,10,50,20,94,56,90,22,88,88,10,86,60,34,12,16,0,0,0,14,14,0,0,0,0,0,26,20,8,34
18,2,6,48,14,12,28,30,16,6,42,10,20,50,60,16,0,0,0,10,0,0,0,0,0,0,2,0,0,20,18,36,10,32,82,22,28,60,90,74,96,96,68,38,48,52,8,78,50,0,0,0,0,0,0,0,0,0,0,0,0,46,38,40
0,0,0,0,20,14,2,22,48,28,28,4,6,10,26,0,0,28,18,0,10,0,0,0,0,0,2,0,0,20,34,20,68,32,42,24,74,48,70,54,60,56,48,38,24,30,32,0,18,0,0,0,0,10,0,0,0,0,0,0,0,32,60,30
8,26,16,24,20,30,42,16,34,28,38,18,16,20,20,0,0,0,10,0,0,2,0,0,0,0,0,0,18,40,14,0,8,84,50,78,48,6,64,92,68,84,60,48,4,8,14,14,10,0,2,0,6,0,0,24,0,0,0,0,18,0,26,22
0,30,60,6,24,24,78,16,28,24,36,14,40,10,36,2,0,0,0,0,0,0,0,0,0,0,0,32,0,14,12,20,50,16,62,44,2,52,86,80,86,82,64,54,78,34,50,38,2,0,0,0,0,4,0,0,0,0,0,0,0,0,40,38
12,14,2,4,2,38,34,2,2,30,42,14,34,10,4,32,0,0,0,0,0,0,14,0,0,0,0,0,0,2,38,36,24,40,32,58,54,44,36,70,64,80,90,54,6,6,32,6,10,2,2,0,6,4,2,0,0,0,0,0,24,0,0,28
20,0,24,70,0,6,72,14,48,84,38,40,38,32,0,0,14,0,28,0,0,0,0,0,0,0,0,0,0,32,2,22,40,22,26,12,64,94,92,92,34,96,70,24,28,10,14,34,24,18,18,0,4,0,0,0,0,4,0,0,26,24,52,2
46,0,26,0,26,2,16,50,46,50,4,40,8,50,0,16,2,0,0,0,0,0,0,6,0,0,2,0,24,4,32,14,88,0,32,0,42,32,96,82,54,92,40,44,54,62,2,8,2,4,0,2,2,0,0,0,0,0,0,0,32,0,28,6
68,40,0,8,22,2,12,16,78,68,28,20,14,28,10,6,6,18,14,4,14,10,0,18,0,0,0,0,28,0,32,20,0,22,10,4,8,90,88,86,80,78,94,88,82,82,64,28,0,16,0,0,2,0,0,0,0,0,0,0,0,36,24,20
60,20,28,48,0,14,64,16,58,16,28,18,38,24,46,20,0,0,0,0,8,0,0,0,0,0,0,4,0,14,64,4,60,0,4,72,6,74,68,76,58,82,56,14,18,0,14,2,6,6,2,0,0,0,8,0,0,0,0,0,0,16,28,4
0,46,0,0,0,16,42,16,20,24,8,16,28,62,12,10,8,0,0,0,0,0,18,0,0,0,0,0,0,0,0,42,20,0,0,0,0,96,98,82,94,92,90,76,22,56,2,2,0,0,10,0,0,0,0,0,0,0,0,0,0,0,0,74
0,0,0,12,48,2,28,48,56,28,20,38,8,20,46,0,0,0,8,0,0,0,0,0,0,0,0,0,0,10,16,14,6,36,10,60,54,90,40,80,80,22,96,38,0,96,0,0,30,0,18,0,0,0,0,0,0,0,0,0,0,0,28,50
0,0,0,0,0,54,58,2,16,8,30,42,34,28,14,0,6,0,0,2,0,0,0,0,0,0,0,0,0,0,24,64,0,0,92,6,4,96,84,88,50,62,92,52,52,22,0,2,4,0,2,4,14,0,0,0,0,0,0,0,0,20,22,72
52,20,0,0,26,2,16,62,36,52,24,28,14,52,10,42,12,0,0,0,0,0,0,0,0,0,0,0,0,24,12,10,30,24,22,22,96,72,66,76,60,74,82,50,50,92,4,6,42,0,0,0,0,4,2,0,0,0,0,0,32,0,0,8
0,52,12,2,80,2,92,28,20,36,46,46,38,44,0,8,0,0,0,0,20,0,0,0,0,0,0,0,0,38,62,2,30,34,32,10,24,96,74,96,94,94,62,38,36,50,34,2,10,10,0,0,0,8,18,0,0,0,0,0,0,46,36,0
10,4,0,0,2,0,26,8,10,42,34,20,4,12,6,10,0,0,0,0,0,32,0,0,0,0,0,0,0,36,10,14,70,40,38,40,10,72,64,86,58,40,50,50,46,48,42,0,22,6,6,6,0,0,2,0,0,0,0,0,30,20,0,14
0,24,0,0,4,44,70,20,38,26,82,78,18,34,10,0,28,8,10,0,0,0,24,0,0,10,0,0,16,16,20,32,36,46,42,30,50,50,82,66,46,32,52,52,18,74,4,16,8,0,0,0,0,0,0,0,0,0,0,0,52,0,32,58
38,0,0,2,0,32,6,34,52,6,36,48,4,20,36,0,12,4,6,0,30,0,0,0,0,0,0,0,14,16,6,60,46,60,36,0,44,76,82,76,84,94,70,48,76,0,2,52,0,0,0,0,0,2,0,0,0,0,0,0,0,32,28,0
56,0,0,0,22,46,2,18,52,22,12,56,30,14,20,0,36,0,0,0,0,0,0,0,0,0,0,0,10,4,10,74,14,32,0,6,12,6,32,82,24,94,62,42,6,92,74,0,6,0,0,0,0,0,0,0,0,0,0,0,0,32,0,42
50,0,10,2,56,2,62,14,28,38,40,38,30,6,14,0,22,0,16,0,20,0,24,10,0,0,0,0,0,36,24,70,32,46,0,70,72,42,46,76,82,62,56,76,36,88,92,0,0,0,12,0,0,0,0,2,0,0,0,0,0,30,32,20
0,0,0,0,2,44,26,54,26,22,40,32,58,16,0,0,2,0,0,0,0,20,0,0,0,0,0,0,20,60,74,48,76,46,56,0,44,66,68,84,48,54,60,68,50,46,0,38,38,24,0,0,0,0,0,0,0,0,0,0,22,0,28,70
58,2,0,0,2,70,38,6,10,20,34,42,42,4,14,2,0,0,0,0,0,2,0,0,0,0,0,0,16,12,18,32,68,38,20,16,12,64,66,46,48,72,66,48,46,58,0,6,0,2,0,0,0,0,0,0,0,0,0,0,0,72,32,6
20,0,0,0,0,0,0,22,26,14,20,14,32,4,4,0,16,0,0,0,0,0,0,0,0,0,0,0,46,56,54,36,22,46,48,22,42,28,40,44,46,54,68,42,48,42,32,4,42,0,0,0,0,0,32,0,0,0,0,0,0,60,16,0
0,2,0,0,0,0,4,16,42,12,26,10,8,10,8,16,0,0,0,0,0,0,0,0,0,0,0,0,24,38,20,34,38,52,32,50,0,36,60,46,66,52,44,8,46,60,0,0,42,0,0,0,0,0,40,0,0,0,0,0,0,44,28,32
4,0,0,0,34,10,12,42,28,28,44,16,16,46,34,4,0,6,0,0,0,0,0,0,0,0,0,0,48,0,28,22,24,64,2,24,46,58,54,82,70,58,54,64,6,34,44,0,34,0,4,0,0,0,0,0,0,0,0,0,0,28,12,30
14,34,0,0,8,4,4,18,10,32,28,16,46,14,10,10,6,0,4,18,0,0,0,0,0,0,0,0,0,52,50,34,62,0,0,78,34,86,54,64,60,66,60,52,56,88,16,0,0,0,0,0,0,6,4,0,0,0,0,0,0,0,22,20
16,56,0,0,0,22,56,14,30,28,28,10,50,46,20,2,2,0,0,0,6,0,12,0,0,0,0,0,16,2,10,6,40,58,0,0,0,64,52,84,88,82,50,58,42,42,38,6,0,14,0,0,0,0,0,0,0,0,0,0,0,38,28,44
40,0,14,8,16,0,24,12,6,2,50,32,28,28,14,20,0,0,0,4,0,0,0,0,0,0,0,2,24,50,44,82,96,84,24,96,32,38,90,56,66,52,46,92,24,58,48,30,0,0,2,6,0,0,0,0,0,0,0,0,0,32,30,44
10,6,26,0,22,0,36,32,30,12,32,50,74,18,8,0,0,0,0,0,2,0,0,0,0,0,0,0,28,16,6,0,4,92,0,0,82,50,28,92,96,28,48,44,28,36,24,0,16,6,4,12,4,4,0,0,0,0,0,0,24,0,32,24
0,8,0,10,2,6,30,14,38,26,38,44,6,28,20,0,24,14,0,0,0,0,0,0,0,0,0,0,22,18,14,58,2,4,38,48,88,70,28,72,42,38,48,46,46,36,26,42,50,42,14,0,0,0,0,0,0,0,0,0,14,32,0,48
14,34,0,62,0,0,28,32,18,24,22,32,40,16,30,0,8,0,0,0,14,0,2,0,0,0,0,0,28,0,72,52,50,16,32,30,44,80,10,96,92,92,88,94,84,62,74,0,56,52,0,50,66,0,0,0,6,0,0,0,0,0,28,0
14,20,8,2,2,28,2,6,22,26,10,26,20,6,18,0,0,6,0,0,0,0,0,0,0,0,0,0,24,0,28,46,48,8,52,4,46,70,42,50,20,52,36,40,38,58,28,40,10,8,0,0,0,20,0,12,0,0,0,0,12,10,14,8
24,0,12,0,6,30,16,42,16,16,24,8,42,4,2,14,0,0,2,0,52,6,2,0,0,0,0,0,0,8,46,38,36,40,46,42,50,56,52,36,72,46,44,60,56,10,26,10,18,6,4,0,0,2,4,0,0,0,0,0,0,34,22,16
30,18,0,0,0,10,8,2,16,24,34,20,30,20,18,20,0,0,0,0,0,0,0,0,0,0,0,0,30,40,0,24,66,46,34,0,2,46,46,38,44,56,56,60,42,38,20,6,0,74,0,0,0,0,0,2,0,0,0,0,24,28,68,50
0,0,0,0,4,4,8,18,8,4,32,24,24,4,40,0,0,0,0,0,20,0,0,0,0,0,0,0,34,2,0,42,38,46,34,38,56,48,44,72,60,56,34,24,28,32,20,54,32,0,0,6,0,2,0,10,2,0,0,0,0,30,30,42
0,16,0,2,0,10,24,26,10,26,38,22,14,20,14,2,4,0,0,0,0,2,0,0,0,0,0,28,0,30,10,72,22,50,0,22,48,6,50,56,66,56,48,46,42,38,42,10,50,2,0,2,0,8,0,0,0,0,0,0,24,0,6,36
0,18,2,0,20,0,40,42,22,32,28,20,28,60,0,0,0,0,2,0,0,0,0,0,0,0,0,0,30,0,26,6,32,36,22,26,42,42,22,46,36,50,46,42,38,14,32,16,12,0,8,0,8,0,0,0,0,0,0,0,30,12,18,50
36,2,0,0,2,14,10,6,28,12,10,16,10,28,0,20,6,0,0,0,0,0,0,6,0,0,0,0,0,2,12,48,40,6,42,36,0,60,84,84,58,52,56,40,62,20,38,14,10,0,6,0,0,0,0,0,0,0,0,0,0,28,20,36
16,0,0,0,0,2,18,2,28,10,12,22,40,4,6,0,0,14,0,0,22,0,0,0,0,0,0,0,24,6,16,50,2,34,44,12,38,38,38,56,42,68,32,56,52,52,34,4,28,0,6,0,14,0,0,6,0,0,0,24,0,16,0,46
0,0,0,32,50,2,24,44,22,14,36,26,42,32,22,0,2,2,4,0,0,0,2,0,0,0,0,0,0,4,32,14,62,2,4,24,88,20,46,90,62,80,44,62,74,60,10,12,10,0,2,0,20,12,6,10,0,0,0,0,18,0,16,42
0,0,0,0,2,0,2,14,40,18,20,38,52,2,16,38,2,0,0,0,0,0,0,0,0,0,0,0,28,26,0,12,12,38,30,4,88,94,82,56,38,64,58,48,34,6,6,10,6,6,0,0,0,10,0,0,0,0,0,0,0,32,40,24
