6,0,0,6,24,24,12,54,18,24,132,48,6,30,42,138,66,180,0,114,30,102,36,150,0,0,0,0,0,0,6,18,0,0,0,18,42,12,0,24,42,84,24,96,18,12,96,90,108,12,126,30,6,24,48,132,6,42,36,0,0,0,0,0
0,0,0,12,0,12,6,6,96,36,72,36,48,0,0,138,6,186,18,168,0,0,0,0,54,0,0,0,0,6,12,0,6,0,6,0,0,24,18,36,42,114,60,0,54,42,150,108,210,156,6,42,24,90,138,48,6,6,0,0,0,0,0,0
0,0,0,0,0,6,96,0,60,24,18,36,48,192,126,18,0,72,60,114,72,66,48,138,0,18,0,0,0,0,6,6,0,0,0,18,0,0,30,18,36,54,6,90,60,36,30,60,18,12,12,30,18,120,18,6,30,6,0,0,0,0,0,0
0,0,0,0,0,18,30,0,18,150,6,6,60,114,156,126,102,96,114,30,42,42,0,48,6,12,0,0,0,0,0,0,6,0,0,0,18,54,42,18,156,78,48,6,84,156,42,30,42,48,18,60,48,18,12,0,6,0,30,0,0,0,0,0
0,0,0,0,6,6,0,54,48,30,66,54,42,48,0,150,96,18,0,12,6,66,12,30,0,36,0,0,0,0,24,0,0,0,0,0,12,12,30,0,18,6,60,96,42,150,90,18,24,30,30,30,30,24,42,0,78,0,0,0,0,0,0,0
0,0,6,18,0,18,0,0,60,6,66,30,0,54,78,84,72,54,78,18,30,114,18,12,12,0,0,0,0,0,0,18,6,0,0,42,66,42,54,42,18,48,36,84,30,30,54,30,24,168,60,12,30,12,60,102,18,12,0,0,0,6,0,0
0,0,0,6,30,36,6,12,84,66,36,120,72,48,114,150,0,96,126,36,120,30,132,6,0,6,0,0,0,0,6,12,0,0,0,18,12,18,30,24,30,0,84,120,6,156,48,54,12,120,24,18,42,54,102,24,30,24,0,0,0,0,0,0
18,0,6,0,0,12,0,6,6,42,90,156,24,90,12,108,42,66,42,174,126,96,48,36,6,0,0,0,0,0,24,30,0,0,0,90,18,36,18,36,72,42,48,54,48,204,144,6,90,96,126,150,108,120,24,96,36,0,0,0,0,0,6,0
6,0,0,0,6,0,0,48,18,48,72,48,156,96,114,12,60,84,12,54,48,48,0,0,0,36,84,0,0,0,0,18,12,0,0,18,24,6,6,48,12,54,48,240,18,102,24,222,6,60,168,36,24,138,72,30,60,30,0,0,0,0,0,6
0,6,12,0,0,0,30,24,6,66,36,168,60,0,198,84,132,168,138,204,0,144,120,138,30,126,36,0,0,0,0,0,0,0,0,12,0,60,24,48,6,30,102,96,120,6,78,66,18,6,66,48,6,36,102,114,0,0,0,0,0,0,0,0
0,0,12,0,18,0,0,60,60,18,60,156,72,150,222,72,150,138,36,192,102,24,84,180,0,72,0,0,0,0,6,0,0,12,0,0,0,6,18,42,30,42,0,6,78,60,66,0,0,0,180,132,102,18,36,72,0,0,18,0,0,0,0,0
0,0,6,6,0,12,48,6,0,78,36,18,138,114,186,126,144,96,138,126,156,114,90,54,0,0,0,0,0,0,6,6,12,0,6,0,48,36,96,18,6,54,36,36,150,198,36,42,132,0,42,0,174,0,198,0,0,0,0,0,0,0,0,6
0,6,6,0,6,0,18,24,0,108,18,132,198,30,174,228,168,162,126,102,12,96,168,12,0,60,0,0,0,0,0,12,0,6,18,0,0,30,24,6,24,96,54,0,168,54,0,66,144,48,126,114,60,60,36,0,90,6,0,0,0,0,0,0
0,6,0,12,0,18,0,0,162,18,78,192,48,246,0,114,0,0,255,0,255,156,0,0,0,0,0,0,0,0,30,0,12,0,0,6,18,0,12,18,30,54,66,54,102,72,54,0,210,0,0,0,0,0,132,168,138,0,18,0,0,0,0,0
0,0,0,0,0,30,24,6,30,24,234,42,30,90,0,0,252,162,114,120,114,102,30,0,0,0,0,0,0,0,0,0,6,24,0,0,24,0,0,12,42,42,18,42,48,0,0,0,0,0,0,0,0,0,0,0,0,0,0,0,0,0,0,6
0,6,0,6,0,0,24,18,30,114,48,6,84,96,60,0,0,0,0,0,0,6,0,0,0,0,0,0,0,0,0,6,0,30,0,6,0,24,48,30,6,48,48,42,24,0,84,180,0,60,0,66,30,24,0,36,0,6,0,0,0,0,0,12
0,0,6,0,0,24,66,42,18,30,42,66,192,30,0,0,0,0,0,0,0,6,0,0,0,0,0,0,0,0,0,18,0,6,0,0,0,0,18,54,6,54,42,84,6,204,0,48,0,0,0,6,0,0,0,0,0,0,0,0,0,0,0,6
0,0,0,6,0,0,12,18,66,42,168,48,0,66,36,0,0,0,54,0,24,0,0,0,0,0,0,0,0,0,0,0,12,6,0,12,0,30,30,72,84,60,36,18,60,54,30,66,6,6,0,0,0,0,6,0,0,0,0,0,0,0,0,0
0,0,6,0,0,24,54,18,36,18,30,18,54,60,114,6,0,0,0,0,0,0,0,0,0,0,0,0,0,0,0,6,0,18,0,60,24,0,42,18,30,42,24,30,18,108,36,6,48,6,24,12,0,0,0,6,0,0,0,0,0,0,0,0
0,6,6,0,12,0,36,72,30,66,60,18,78,18,0,0,6,0,0,0,0,0,0,6,0,0,0,0,0,0,0,0,0,12,42,0,0,0,36,84,96,48,6,6,6,12,66,42,30,12,6,18,30,18,30,6,6,0,0,0,0,0,0,0
0,6,18,6,0,6,30,24,96,66,24,30,18,72,0,36,168,0,0,0,0,0,0,18,0,0,0,0,0,0,0,6,0,6,0,0,36,42,6,36,36,24,6,42,24,12,60,18,6,6,0,0,6,0,0,0,0,0,0,0,0,0,0,0
0,6,0,0,0,54,6,36,90,18,42,54,0,120,48,0,6,6,0,0,42,0,0,0,0,0,0,0,0,0,0,0,0,0,18,0,48,36,60,30,24,42,72,96,6,6,90,0,6,0,0,0,48,24,66,6,0,24,0,0,0,0,0,0
12,0,0,0,0,6,24,6,54,30,102,72,72,0,0,0,0,0,0,156,0,0,0,0,0,0,0,0,0,0,0,24,0,6,48,0,0,42,24,54,78,48,6,102,18,18,18,6,0,0,0,0,0,0,0,0,0,0,0,0,0,0,0,0
0,0,6,0,0,24,0,18,30,96,132,18,60,60,42,0,0,6,0,0,0,0,0,0,0,0,0,0,0,18,6,0,18,0,6,0,48,42,24,18,102,24,6,42,90,24,60,0,0,0,54,0,0,90,24,6,12,0,0,0,0,0,0,0
0,6,0,12,0,42,6,36,72,90,114,30,12,0,24,6,0,0,0,48,0,0,0,0,0,0,0,0,0,0,6,6,0,0,48,30,6,24,30,48,18,54,48,24,108,12,6,6,24,6,30,96,24,18,0,24,0,0,0,0,0,0,0,6
0,0,6,0,66,6,24,36,60,48,6,18,6,102,18,6,6,24,12,0,0,0,0,0,0,0,0,0,0,0,0,12,48,0,0,0,0,18,30,30,96,48,90,54,102,42,6,36,6,18,6,0,0,0,0,0,0,0,0,0,0,0,0,0
0,0,0,12,0,12,0,6,96,180,90,12,24,72,0,0,0,0,6,0,0,0,0,0,0,0,0,0,0,0,18,0,0,18,0,0,24,30,18,78,90,42,72,24,30,12,24,78,18,6,30,54,0,18,0,30,30,18,0,0,0,0,0,0
0,6,0,0,6,6,18,66,72,60,0,60,48,66,12,24,0,0,6,6,0,0,0,0,0,0,0,0,0,0,24,0,0,12,30,12,18,12,42,24,42,42,36,18,24,102,60,0,78,60,18,24,36,6,0,12,72,0,0,0,0,0,0,0
0,0,0,0,0,0,60,114,0,12,60,54,42,0,18,30,24,0,6,0,0,0,0,0,0,0,0,0,0,0,0,0,0,48,0,0,12,12,36,24,42,0,18,42,0,102,36,24,42,54,60,30,0,48,42,30,6,6,0,0,0,0,0,0
0,6,0,0,6,0,78,42,48,66,42,30,12,12,60,120,6,0,0,6,0,0,0,0,0,0,0,0,0,0,0,24,0,30,0,0,0,6,48,30,66,48,48,84,42,42,90,24,114,30,18,54,42,42,24,6,6,6,0,0,0,0,0,0
0,0,0,0,6,42,60,24,102,114,108,54,24,48,18,6,54,0,0,6,0,0,0,0,0,0,0,0,0,0,0,0,6,0,0,0,0,12,78,24,18,54,90,24,66,0,72,0,30,0,36,54,6,120,12,6,0,0,6,0,0,0,0,0
0,12,0,6,6,18,42,0,60,72,24,0,6,108,12,12,0,0,48,6,0,0,0,0,0,0,0,0,0,0,0,0,0,30,0,0,6,42,12,12,42,54,0,102,18,162,36,36,0,54,36,0,0,0,0,0,6,0,0,0,6,0,0,0
0,18,0,0,12,18,0,30,36,36,60,114,6,54,78,6,0,42,0,60,48,0,0,0,0,0,0,0,0,0,6,6,18,0,0,30,18,18,36,48,42,72,54,12,30,6,18,48,72,48,18,6,48,0,72,6,0,24,0,0,0,0,0,0
6,6,0,30,6,0,30,60,24,54,0,6,30,66,12,6,30,6,0,30,0,0,0,0,0,0,0,0,0,0,12,6,6,0,48,0,24,6,30,0,36,36,6,0,78,96,84,48,48,0,0,42,0,0,6,0,0,0,0,0,0,0,6,0
0,6,0,0,0,42,30,72,42,96,42,66,48,18,18,30,0,0,0,0,0,42,0,0,6,0,0,0,0,0,0,12,6,18,0,6,24,48,6,6,84,48,36,48,18,18,54,36,48,0,150,42,0,0,0,0,0,0,0,0,0,0,0,0
0,0,0,0,6,24,42,12,18,102,18,36,48,126,96,6,0,0,48,0,0,0,0,0,0,0,0,0,0,0,6,0,30,0,0,0,12,30,42,6,42,18,6,66,48,0,0,42,0,0,0,0,0,0,0,0,0,0,0,0,0,0,0,0
0,0,0,0,0,0,54,24,66,96,42,72,96,6,42,0,0,0,0,0,0,0,12,0,0,0,0,0,0,0,6,0,12,6,0,0,0,12,42,54,0,6,12,30,36,54,96,0,0,0,0,0,0,0,0,0,0,0,0,0,0,0,0,0
6,0,0,12,0,12,12,12,54,72,60,114,48,18,198,90,12,18,6,0,0,0,0,0,0,0,0,0,0,0,6,6,0,0,0,6,60,0,24,18,78,42,48,48,30,168,0,18,0,48,0,0,0,0,0,0,0,0,0,0,0,0,0,0
0,0,0,0,0,42,48,30,54,114,24,18,6,96,36,0,6,0,18,0,0,0,0,0,0,0,0,0,0,0,6,18,0,0,0,12,24,48,30,12,60,48,54,18,84,132,60,60,24,18,42,0,0,0,0,30,36,0,0,12,0,0,0,0
0,18,0,0,6,42,6,78,42,30,66,108,66,0,0,0,12,12,0,6,0,0,0,0,0,0,0,0,0,0,0,6,0,6,0,30,24,0,12,0,0,108,126,42,12,102,0,0,0,0,0,0,0,0,24,0,0,0,0,0,0,0,0,0
18,0,0,0,6,18,0,30,102,18,72,96,24,6,18,12,6,6,12,0,0,48,0,0,0,0,0,0,12,0,0,0,0,0,0,0,24,90,6,42,6,60,78,42,30,0,30,90,0,0,0,0,0,0,18,0,0,0,0,0,0,0,0,0
18,0,0,0,0,30,42,18,6,60,150,48,18,42,12,96,0,6,0,0,0,0,0,0,0,0,0,0,0,0,0,0,30,0,0,0,36,6,0,18,30,48,42,0,108,6,0,0,96,78,42,0,12,42,102,0,0,0,42,0,0,0,0,0
0,0,0,0,0,18,42,84,42,48,84,6,0,126,60,0,126,0,0,0,0,42,0,0,0,0,0,0,0,0,0,0,0,12,0,0,30,12,30,96,6,24,66,0,198,204,0,60,6,0,84,48,0,0,0,0,0,0,0,0,0,0,0,0
0,0,0,0,0,24,48,0,12,36,174,108,36,0,126,0,30,0,48,0,0,0,0,18,0,0,0,0,6,0,0,0,0,0,0,54,24,18,6,42,102,0,48,30,0,90,144,102,0,0,126,0,0,12,6,174,132,0,0,0,0,0,6,0
0,6,0,6,0,18,42,24,6,60,60,6,54,42,0,48,72,0,0,0,0,0,0,0,78,0,0,0,0,0,0,0,6,0,0,6,42,6,42,36,0,30,6,48,150,72,138,42,0,126,168,42,6,0,72,30,0,18,0,0,0,0,0,0
0,6,0,0,0,0,42,60,6,96,138,0,60,72,174,0,0,0,0,0,66,12,0,0,0,0,0,0,0,0,0,12,0,0,36,0,42,0,30,12,72,48,84,54,60,36,126,60,96,30,66,36,0,36,102,30,0,0,0,0,0,0,0,0
0,0,0,0,0,60,0,24,102,84,42,132,6,96,24,0,0,0,0,0,0,0,6,0,0,0,0,0,0,0,12,0,0,24,24,0,0,0,0,36,42,54,0,30,72,138,72,60,84,102,72,78,0,102,132,24,18,0,0,0,0,0,0,0
0,0,0,24,0,18,24,0,114,6,42,54,102,0,204,42,198,0,126,168,0,0,168,0,0,0,0,0,0,6,0,0,6,6,24,0,12,30,6,36,120,84,18,24,138,90,54,30,0,30,18,42,0,0,30,0,12,0,0,0,0,0,0,0
0,6,0,0,6,90,6,48,36,108,48,6,108,42,0,222,255,114,66,0,0,0,0,0,0,0,0,0,0,0,0,0,12,0,6,0,24,12,42,24,42,54,24,48,78,156,102,102,6,6,0,6,0,6,6,222,0,0,0,0,0,0,0,0
0,24,0,0,6,0,0,72,54,42,48,48,0,0,24,255,72,96,6,255,36,72,156,18,0,0,0,0,0,0,30,0,30,6,0,0,18,18,0,24,72,48,90,60,120,240,54,60,72,30,30,18,42,12,0,0,0,0,0,0,0,0,0,6
