8,144,32,0,8,64,120,132,12,60,124,76,60,84,20,32,0,0,60,0,0,0,4,0,0,0,0,0,4,0,72,36,24,72,72,128,164,0,144,152,172,140,144,84,92,36,56,16,0,40,0,0,4,0,0,0,0,0,0,0,28,0,16,40
0,0,0,0,0,12,12,40,56,56,56,72,48,64,40,8,40,32,12,0,0,0,0,24,0,0,0,0,36,112,32,136,192,28,88,24,72,156,164,164,48,20,16,52,164,44,72,20,4,0,0,4,0,24,0,0,0,0,0,0,12,52,0,144
8,0,56,0,0,28,0,32,116,40,4,100,60,48,12,76,44,0,68,12,4,0,0,0,0,0,0,0,0,28,52,32,68,20,28,24,0,52,108,152,76,140,76,76,68,72,72,0,60,60,0,0,0,0,0,0,0,0,0,0,20,0,4,28
0,0,0,0,4,0,8,36,52,56,56,32,20,80,0,44,0,52,0,0,0,0,0,0,0,0,0,24,0,0,68,96,44,68,44,28,40,68,68,104,64,88,140,84,56,60,64,0,0,0,0,0,4,0,0,0,0,0,0,28,0,28,16,92
0,4,0,16,0,0,56,60,64,100,60,44,32,72,52,56,0,36,0,0,0,44,0,0,0,0,0,44,0,8,88,96,144,0,0,8,0,56,100,132,108,48,76,104,120,4,36,44,0,0,0,0,0,0,0,0,0,0,0,0,16,48,104,20
12,28,0,0,0,20,48,64,92,100,116,104,96,20,4,56,0,4,0,0,0,0,36,0,0,0,0,4,0,64,40,68,32,32,32,64,56,20,56,60,96,84,104,76,68,36,44,0,0,48,28,0,12,0,0,0,0,0,0,0,0,0,12,40
0,0,60,4,80,4,56,100,72,56,32,72,16,12,8,60,0,0,0,0,0,120,16,0,0,0,0,0,68,0,72,80,48,60,0,40,108,36,32,56,68,128,44,156,24,76,0,8,0,4,0,0,0,0,0,0,0,0,0,24,0,56,8,0
4,0,0,0,12,0,40,4,4,48,44,76,32,68,56,0,8,0,0,0,0,0,0,0,0,0,0,0,28,24,36,0,136,104,92,0,0,0,120,84,136,148,124,132,32,52,8,12,24,28,0,0,4,4,12,4,4,0,0,0,0,0,52,28
0,0,0,0,0,28,36,56,60,160,48,44,64,68,52,4,0,0,0,4,0,0,0,0,0,16,0,0,32,52,188,56,12,0,0,0,68,40,76,56,172,172,0,52,44,28,0,0,0,0,0,0,0,0,0,0,0,0,0,0,20,60,0,0
64,0,0,12,12,24,32,72,32,76,68,76,68,92,24,16,0,4,0,0,0,0,0,0,0,0,0,0,28,32,168,80,84,116,96,56,60,64,128,112,164,132,20,104,76,20,48,36,0,0,0,0,0,4,4,0,0,0,0,0,20,0,52,56
0,4,0,0,4,28,0,60,92,28,64,48,64,56,0,4,16,0,0,44,0,16,44,0,0,0,0,0,20,32,124,40,40,56,28,0,0,0,108,88,68,100,156,156,116,52,68,4,4,0,0,0,0,0,0,0,0,0,0,0,0,52,20,68
0,52,4,0,0,20,8,32,96,64,24,36,36,40,20,108,0,0,0,28,0,0,0,0,0,0,0,0,12,64,88,44,68,12,0,28,0,112,124,76,140,100,148,88,40,68,36,4,0,0,0,0,4,4,0,0,0,0,0,56,0,12,56,4
64,0,0,4,28,0,0,4,80,20,76,40,68,48,12,36,48,0,12,0,4,0,0,0,0,0,72,0,0,32,36,12,0,0,0,16,16,32,76,44,128,4,60,32,16,32,4,20,0,0,0,0,0,0,0,0,0,0,0,24,40,0,0,0
0,0,0,4,8,4,4,48,40,112,48,64,0,64,76,0,0,0,0,0,8,0,0,0,0,0,0,24,40,32,0,20,8,12,12,0,0,36,140,88,124,12,56,4,48,104,32,24,0,4,0,0,0,0,0,0,0,0,0,0,0,64,0,0
0,0,0,0,0,0,0,16,84,20,28,40,76,60,20,4,0,0,16,0,0,0,0,0,0,0,0,40,112,48,28,112,0,20,0,120,24,40,132,112,116,32,108,44,36,52,8,0,0,0,36,0,0,0,0,0,0,0,0,0,0,0,0,0
0,0,0,4,0,20,0,8,52,72,28,56,100,40,28,0,0,0,96,8,0,0,0,0,0,0,0,12,36,48,148,16,40,12,0,0,28,20,104,16,76,52,32,20,12,24,12,0,0,0,8,0,4,0,0,0,8,0,0,0,4,0,0,48
0,0,0,0,4,4,12,0,40,12,32,40,16,20,20,56,0,12,0,0,0,0,0,0,0,0,0,36,24,20,16,12,0,0,12,48,100,0,16,0,8,16,32,28,12,8,24,64,0,0,8,0,16,56,4,0,0,4,0,0,60,0,0,76
36,0,0,4,4,0,0,24,4,24,20,48,72,12,4,28,48,0,0,0,0,4,0,0,0,0,0,0,0,52,0,84,28,0,28,20,0,0,8,16,28,4,148,104,76,36,8,0,48,0,0,0,0,0,4,0,0,0,20,0,0,0,44,64
0,0,0,0,0,8,32,28,12,56,168,52,40,40,0,0,0,0,0,0,0,0,0,0,0,0,0,20,44,28,20,0,0,0,0,0,0,4,40,0,52,48,48,44,28,20,0,0,48,0,0,0,0,0,0,0,0,0,0,0,0,12,4,0
0,0,12,0,0,28,16,60,20,24,40,0,36,24,52,0,0,0,0,12,16,72,0,104,0,0,0,0,0,60,0,40,12,0,0,0,4,12,0,32,44,32,48,20,8,36,28,4,0,0,0,20,4,0,20,8,0,0,0,0,8,0,12,0
12,0,0,12,0,0,0,0,28,32,44,16,56,36,92,52,0,0,0,0,0,0,0,0,0,0,0,0,0,48,44,12,72,44,0,0,0,0,8,36,40,32,28,24,36,4,16,0,20,0,0,0,0,0,8,0,0,0,8,0,0,12,0,12
0,0,0,0,0,0,12,36,28,28,20,56,16,112,8,0,16,0,0,0,0,0,0,0,0,0,0,0,0,24,68,4,0,0,0,16,0,28,0,96,92,100,24,32,20,0,0,0,0,0,0,12,0,0,0,0,0,0,0,0,8,0,4,0
0,4,0,0,0,0,4,96,0,16,20,24,36,8,12,20,0,28,0,0,0,0,0,0,0,0,0,0,40,12,20,72,0,0,0,0,12,0,8,12,100,56,4,8,88,8,64,28,12,0,0,0,0,0,0,0,0,0,0,0,0,28,0,0
0,0,0,0,0,8,32,28,28,80,16,28,4,56,64,12,0,0,0,0,0,8,0,0,0,0,0,16,0,44,44,28,0,0,0,0,0,64,24,48,88,72,64,52,48,52,108,20,0,20,0,4,0,0,0,0,0,0,0,0,20,48,0,64
0,0,0,0,0,0,4,4,20,100,48,64,56,52,12,120,0,48,0,0,32,0,0,0,0,0,0,0,36,32,24,104,12,48,0,0,0,16,44,32,140,136,152,48,8,28,48,80,0,8,0,0,8,0,8,0,0,0,0,0,0,12,24,80
0,0,12,0,4,32,4,24,32,56,24,52,32,0,12,0,48,0,0,124,0,32,0,0,4,0,12,28,44,0,0,32,24,20,0,0,0,4,0,20,64,68,88,68,48,16,0,4,52,4,0,0,0,0,0,0,0,0,0,0,24,16,32,0
4,0,0,0,12,4,0,8,40,40,40,88,48,0,0,0,0,28,20,0,0,0,0,0,0,0,0,0,0,48,88,64,20,20,0,0,0,0,4,4,124,112,40,12,40,28,8,24,0,0,0,4,0,0,0,0,0,0,0,0,48,16,0,0
28,0,0,0,0,0,0,12,84,16,16,68,28,44,68,0,60,0,4,0,0,0,0,0,0,0,0,0,0,0,36,28,4,32,0,0,4,0,104,60,4,144,32,28,52,24,0,8,4,4,0,0,0,0,0,0,4,0,0,0,0,36,44,12
0,0,0,4,0,0,20,8,12,16,32,88,64,32,20,20,12,0,0,0,0,0,0,0,0,0,0,12,24,136,32,0,0,0,0,0,0,28,0,80,104,92,68,96,4,52,0,72,0,32,0,0,12,0,0,0,0,0,0,0,0,16,0,0
0,0,0,0,0,4,4,128,48,92,72,24,76,40,52,56,0,0,0,4,4,4,0,0,0,0,24,0,36,72,36,0,0,0,0,4,100,4,0,168,120,128,124,96,16,84,72,16,0,0,0,12,0,4,0,4,0,0,0,0,36,36,0,28
0,0,0,0,0,4,12,48,44,28,68,44,68,36,32,0,0,0,0,0,0,48,0,0,0,0,0,12,12,24,16,60,0,92,0,0,48,0,152,12,156,168,156,152,8,156,100,92,12,4,8,0,0,0,0,0,0,0,8,0,4,16,44,4
0,0,0,0,0,20,0,68,76,40,88,48,48,32,32,52,0,0,48,0,8,0,0,12,0,0,16,0,4,64,20,56,20,0,0,0,24,8,64,32,100,140,148,140,92,140,4,28,0,24,0,0,0,4,4,0,0,0,0,24,0,68,36,0
64,0,0,0,0,0,12,8,28,4,52,68,40,56,92,0,0,12,0,0,0,0,0,4,0,0,0,0,0,20,32,0,76,16,0,4,0,4,60,40,144,56,92,56,8,52,40,8,44,0,0,0,0,0,0,0,0,0,0,24,0,0,0,56
40,0,0,0,0,0,32,20,20,72,68,52,32,80,0,84,0,24,0,0,32,0,0,0,0,0,0,48,40,28,28,0,0,0,12,0,52,32,96,104,160,124,72,88,40,120,32,0,0,12,8,12,0,0,4,0,12,0,0,0,20,0,48,0
4,0,0,0,4,0,8,32,12,56,32,84,20,184,0,8,12,28,0,12,0,0,0,4,0,0,0,0,28,0,40,56,40,0,0,28,0,0,8,60,84,68,84,112,16,52,36,0,36,0,0,0,0,16,0,0,0,0,0,0,0,24,16,40
60,0,0,0,24,0,8,12,4,72,36,60,88,0,40,160,92,0,8,0,0,0,16,0,0,0,0,52,0,44,160,40,0,56,0,12,28,48,156,0,64,24,120,104,84,0,4,32,4,0,0,0,4,0,4,0,4,0,0,0,32,60,40,0
0,0,0,0,36,16,8,20,56,56,24,48,40,72,4,0,0,0,0,4,0,0,0,0,0,0,0,0,28,16,20,36,4,0,0,0,4,4,60,156,140,156,48,132,128,20,4,8,0,0,0,76,24,0,0,0,0,0,0,28,0,0,44,0
0,0,0,4,0,0,4,16,32,28,72,52,56,48,0,32,0,8,0,0,12,0,0,0,0,0,0,0,16,44,28,32,36,12,0,0,4,0,20,0,164,96,96,88,84,64,32,0,12,8,0,16,0,0,0,0,0,0,0,0,0,0,32,60
0,0,0,0,0,20,28,32,64,48,48,36,16,48,16,40,20,24,0,0,0,0,0,0,0,0,0,0,28,40,48,48,40,0,0,0,4,4,12,40,40,60,32,68,32,72,20,0,0,0,0,0,0,0,12,0,0,0,0,0,44,40,0,0
0,0,0,4,0,0,0,32,12,60,64,40,44,72,0,0,0,0,0,0,12,0,8,0,12,0,0,24,8,40,56,64,56,12,8,0,32,0,40,72,104,172,32,48,16,8,68,4,0,0,0,0,0,0,0,0,0,0,0,0,16,40,64,0
0,0,0,0,0,8,12,16,52,44,40,64,84,20,12,12,40,0,0,0,0,0,0,0,0,0,0,36,12,40,8,72,16,4,40,40,28,76,72,64,76,56,60,108,68,8,60,0,0,0,0,0,0,0,0,4,0,0,0,0,20,8,12,0
48,0,0,0,0,0,36,0,136,60,36,16,132,56,0,0,28,0,0,0,0,0,0,0,0,0,0,28,56,32,72,20,48,0,4,28,0,16,36,88,32,40,28,12,24,0,0,36,0,8,0,0,4,0,0,0,0,0,0,28,0,0,32,0
0,0,0,0,0,0,0,8,32,72,44,48,12,56,0,44,0,28,4,0,0,0,0,0,0,0,0,0,0,24,36,104,32,20,24,36,0,28,48,32,40,36,24,76,80,16,20,64,0,0,0,0,8,0,48,40,20,0,0,0,0,36,20,56
0,0,0,0,0,32,16,0,12,60,56,0,48,64,92,0,4,28,0,0,0,0,40,0,0,0,0,8,32,40,68,80,84,0,32,0,92,16,60,120,76,148,32,68,56,8,0,16,0,0,0,4,0,0,0,0,0,0,0,0,0,56,16,0
0,0,0,0,0,48,4,68,12,20,40,60,0,12,52,0,0,0,0,0,0,0,4,0,0,0,0,32,40,60,28,0,40,0,4,0,0,4,4,20,40,40,44,20,100,40,24,4,28,4,0,16,8,20,16,16,0,0,0,36,0,36,20,32
32,0,0,0,0,24,12,40,12,64,68,44,40,28,100,0,28,0,8,0,0,0,0,0,0,0,0,0,8,76,40,0,0,76,28,0,0,28,84,28,100,60,36,108,108,68,24,16,4,4,4,0,0,28,0,0,0,0,0,16,4,4,124,0
48,0,0,0,0,0,8,68,28,48,60,92,0,60,56,0,20,48,0,0,0,4,0,4,0,0,0,0,12,64,56,20,0,0,0,0,0,4,0,0,44,56,20,60,0,44,36,0,20,0,0,0,0,0,0,0,0,0,0,0,0,8,0,12
0,0,0,0,0,0,20,48,20,48,72,44,52,68,104,0,0,0,0,0,0,0,0,0,0,0,0,24,20,172,56,0,76,4,0,0,28,64,16,8,60,100,40,40,0,0,20,32,0,0,0,4,0,0,0,0,0,0,0,48,0,16,0,0
0,0,0,0,0,0,24,36,32,60,32,40,40,60,48,0,0,0,0,0,0,28,0,0,0,0,0,20,0,32,56,20,0,28,4,0,0,12,12,100,100,52,68,96,24,32,92,36,20,28,24,4,20,20,12,24,0,0,0,0,32,16,48,4
0,4,12,0,52,0,0,12,52,24,36,88,56,52,64,32,28,0,0,0,0,68,0,0,0,0,0,0,52,36,92,48,4,0,4,76,0,80,4,68,52,56,72,40,56,16,8,36,40,20,4,20,12,12,12,0,0,0,0,0,16,20,56,0
