9,6,6,0,12,3,18,27,24,39,54,69,78,15,9,27,0,0,0,0,0,0,3,0,0,0,0,0,0,0,3,3,0,0,0,9,0,3,3,27,21,33,36,9,33,9,0,3,0,0,0,0,0,0,0,0,0,0,0,0,0,0,0,0
6,0,3,3,15,3,12,51,24,87,21,36,18,48,69,3,0,0,12,0,9,0,0,0,0,0,0,0,0,0,0,9,0,3,0,0,3,9,3,33,42,21,36,42,21,24,0,9,0,0,0,0,0,0,0,3,0,0,0,0,0,0,6,0
9,0,3,15,3,21,0,63,21,48,42,9,87,0,24,0,0,0,0,0,0,6,0,0,0,0,0,0,0,0,0,3,0,3,3,0,0,18,21,21,6,15,21,24,36,27,3,0,0,0,0,0,0,6,0,0,0,0,0,0,0,0,0,0
3,0,0,3,3,9,21,42,21,18,84,42,27,27,30,30,0,0,0,0,0,0,0,0,0,0,0,0,0,0,0,3,0,0,0,0,0,6,12,3,15,6,27,36,18,9,33,9,9,0,0,0,3,0,0,0,0,0,0,0,0,0,0,3
3,3,0,0,0,27,21,48,33,36,9,30,42,30,18,0,24,0,0,0,0,0,0,0,0,0,0,0,0,0,3,0,3,0,0,12,0,15,18,27,15,21,27,39,45,0,6,0,0,0,0,0,6,0,0,0,0,0,0,0,0,0,3,0
0,3,3,21,3,6,36,18,51,42,24,33,57,66,24,21,0,0,12,0,0,0,0,0,0,0,0,0,0,0,3,0,0,0,0,0,24,9,9,21,18,42,36,48,27,9,0,0,15,0,0,0,0,0,0,0,0,0,0,0,0,0,0,0
9,3,0,3,3,9,24,21,51,57,39,36,75,27,0,12,15,0,0,0,0,0,0,0,0,0,0,0,0,0,0,0,0,0,0,9,0,0,15,15,15,30,6,42,24,69,3,0,0,0,0,0,0,0,0,0,0,0,0,0,0,0,0,0
3,6,0,3,0,6,12,24,42,45,42,42,45,15,27,0,51,0,0,0,27,0,0,0,3,0,0,0,0,0,0,0,0,0,0,0,3,24,3,21,24,27,54,36,21,24,15,0,12,3,0,0,0,0,0,0,0,0,0,0,0,0,0,0
6,9,6,3,21,3,21,33,48,45,60,48,39,36,9,0,0,0,0,0,0,0,0,0,0,0,0,0,0,0,0,9,0,9,0,9,0,9,9,24,12,21,24,42,3,0,15,3,0,0,0,0,0,0,0,0,0,0,0,0,0,0,0,0
0,0,3,24,3,9,51,33,15,24,33,18,9,21,24,24,0,27,0,9,0,0,0,21,0,0,0,3,0,0,0,9,9,6,0,0,3,6,12,24,33,12,15,15,27,3,30,0,0,0,0,0,0,0,0,0,0,0,0,0,0,3,0,0
0,3,3,0,9,9,3,45,66,45,45,39,60,12,69,36,0,0,0,0,0,0,15,0,0,0,0,0,0,0,0,0,0,3,12,3,9,15,3,51,39,12,30,36,24,9,30,6,0,0,0,0,0,0,0,0,0,0,0,0,0,0,0,6
0,0,3,15,0,24,27,15,48,36,57,24,15,39,27,0,0,0,21,0,0,0,0,0,0,0,0,0,0,0,0,0,0,0,0,0,15,9,6,33,36,21,9,36,12,15,0,0,0,0,0,0,0,0,0,0,0,0,0,0,0,0,0,0
3,0,0,0,3,0,15,42,21,60,45,18,30,63,51,21,0,0,0,0,0,0,0,0,0,0,0,0,0,0,0,0,0,0,0,0,0,0,9,18,24,21,57,39,3,45,3,24,0,0,0,0,0,0,0,0,0,0,0,0,0,0,0,0
3,0,9,0,6,0,42,9,42,21,36,84,27,0,42,12,0,0,0,0,0,0,0,0,0,0,0,0,0,0,0,9,9,0,3,0,6,0,18,9,27,33,18,54,0,30,24,3,0,3,0,0,0,0,0,0,0,0,0,0,0,0,0,0
0,0,0,0,24,0,3,57,60,9,33,27,24,60,36,30,0,21,0,0,0,0,0,0,0,0,0,0,0,0,0,0,0,0,3,0,0,0,3,0,48,3,21,24,3,18,3,18,0,0,0,0,0,0,0,0,0,0,0,0,0,0,0,0
3,0,9,0,9,3,39,24,15,48,39,15,51,57,0,30,0,30,0,0,0,0,0,0,0,0,0,0,0,0,0,0,0,0,0,0,15,0,3,6,6,15,12,51,15,6,18,0,0,0,0,0,0,0,0,0,0,0,0,0,0,0,0,0
3,3,0,0,21,21,6,36,18,36,51,60,57,33,9,54,0,21,9,0,0,21,0,0,0,0,0,0,0,0,0,3,0,0,0,0,6,6,15,15,51,24,48,51,12,21,0,3,0,0,0,0,0,0,0,0,0,0,0,0,0,0,0,0
0,0,0,0,3,30,36,48,27,51,42,24,21,36,30,36,12,0,0,0,0,0,0,0,0,0,0,0,0,0,0,0,6,0,0,3,0,3,15,12,9,27,48,6,9,0,9,21,0,0,0,0,0,3,0,0,0,0,0,0,0,0,0,0
15,0,3,9,6,0,36,36,75,6,27,15,54,48,18,36,0,0,0,0,0,0,0,0,0,0,0,0,0,0,0,0,0,0,0,0,3,0,3,24,24,45,60,21,15,48,3,0,0,0,0,0,0,0,0,0,0,0,0,0,0,0,9,0
3,0,0,3,0,0,9,30,48,57,3,48,33,0,45,0,9,21,0,0,0,6,0,0,0,0,0,0,0,0,0,0,3,0,0,0,0,15,3,21,36,24,18,60,24,0,0,3,0,0,0,0,0,9,0,0,0,0,0,0,0,0,0,3
0,0,3,9,18,18,3,33,51,42,18,45,63,36,27,24,0,0,0,0,0,0,0,0,0,0,0,0,0,0,0,0,0,6,0,0,12,3,9,21,0,9,45,9,3,0,54,3,0,0,0,0,0,0,0,0,0,0,0,0,0,0,3,0
3,15,0,3,3,6,30,15,30,48,30,45,27,69,105,0,9,0,0,0,0,0,0,0,0,0,0,0,0,0,0,9,0,0,6,6,3,0,6,30,24,12,30,9,15,6,21,18,9,0,0,0,0,0,0,0,0,0,0,0,0,0,0,0
3,6,0,0,0,9,12,21,36,42,33,45,30,0,0,0,9,0,0,0,15,0,0,0,0,0,0,0,0,0,0,0,0,0,0,0,0,6,12,33,12,39,30,15,12,0,12,0,0,0,0,0,0,0,0,0,0,0,0,0,0,0,0,0
6,0,0,12,9,12,3,18,60,36,24,42,36,30,30,0,0,0,0,0,0,0,30,0,0,0,0,0,0,3,0,0,0,0,0,0,0,12,18,36,18,30,24,3,39,3,42,18,0,0,0,0,0,0,24,0,0,0,0,0,0,0,0,3
6,0,0,3,0,24,30,51,24,21,72,66,39,15,30,0,0,0,0,0,0,0,0,39,0,0,0,0,0,0,0,0,3,0,9,0,0,0,18,9,36,15,24,27,0,45,48,3,15,0,0,0,0,0,0,0,0,0,0,0,0,0,0,9
0,15,3,0,12,18,24,24,30,51,21,33,27,33,54,0,99,0,0,0,0,0,0,0,0,0,0,0,0,0,0,0,9,0,0,12,3,3,3,42,12,51,24,3,15,48,12,15,0,0,0,0,0,0,0,0,0,0,0,0,0,0,0,0
0,0,3,6,0,24,0,12,30,42,36,84,30,0,18,72,0,0,0,0,0,0,0,0,0,0,0,0,0,0,3,0,0,0,0,0,0,21,21,27,63,33,9,15,3,3,0,9,0,0,0,0,0,0,0,0,0,0,0,0,0,0,0,0
6,0,0,0,0,6,12,36,48,30,36,69,12,24,0,0,9,6,0,0,0,0,0,0,0,0,0,0,0,0,0,3,0,0,0,0,0,3,30,12,3,54,39,42,0,30,48,24,0,0,0,0,0,0,0,0,0,0,0,0,0,0,0,0
6,9,0,0,24,12,15,6,51,30,84,54,60,6,0,6,0,6,0,0,0,0,0,0,0,0,0,0,0,0,0,0,0,0,0,0,15,0,18,3,12,30,24,9,36,33,0,0,0,6,0,30,3,0,0,0,0,0,0,0,0,0,3,0
3,0,12,0,15,9,18,24,18,39,30,48,18,24,0,75,0,6,0,0,0,36,0,0,0,0,0,0,0,0,0,0,0,0,3,0,0,30,12,6,24,33,9,42,24,42,24,0,0,0,0,0,0,0,0,0,0,0,0,0,0,0,0,6
0,0,0,0,3,27,9,30,24,48,30,75,27,42,3,6,0,0,0,0,0,0,0,0,0,0,0,0,0,0,0,0,0,0,0,9,3,21,0,21,9,30,63,15,12,18,0,27,0,0,0,0,0,9,0,0,0,0,0,0,0,0,0,0
0,0,0,0,3,54,6,3,27,21,51,63,24,39,3,3,39,0,0,0,0,0,0,0,0,0,0,0,0,0,0,6,0,3,3,0,0,3,21,6,30,15,42,18,39,30,0,3,0,0,0,0,18,0,0,0,0,0,0,0,0,0,0,0
6,9,0,0,0,27,18,30,21,48,60,30,54,24,63,0,9,0,0,0,0,0,0,0,0,0,0,0,0,0,0,0,0,3,0,0,3,15,12,48,39,24,18,12,24,3,3,63,9,0,0,0,0,3,0,0,0,0,0,0,0,0,3,0
0,3,0,0,0,3,36,30,27,39,42,24,15,63,3,3,0,0,0,0,0,0,0,0,0,0,0,0,3,0,0,0,0,0,0,0,9,15,9,21,6,36,3,24,42,3,3,0,0,0,0,0,0,0,0,0,0,0,0,0,0,0,0,0
3,0,0,3,0,3,45,6,60,45,66,15,9,69,36,0,30,0,0,0,0,0,0,21,0,0,0,0,0,0,0,3,0,0,6,0,0,3,21,6,54,21,9,9,15,3,0,0,15,0,0,0,0,0,0,0,0,0,0,0,0,0,0,0
6,0,6,0,6,9,15,36,39,30,30,54,51,30,15,0,12,27,0,0,0,0,0,9,0,0,0,0,0,0,0,0,0,0,3,0,3,12,12,0,48,24,18,21,0,15,0,0,3,0,0,0,3,0,0,0,0,0,0,0,0,0,0,3
9,6,0,3,6,0,21,9,45,39,9,33,51,33,15,9,0,0,0,0,0,0,0,0,0,0,0,0,0,0,0,0,3,0,0,0,0,0,33,9,9,30,6,39,0,0,0,0,0,0,0,0,0,30,6,6,0,0,3,0,0,0,0,3
0,0,3,0,0,9,27,9,36,51,42,66,24,42,78,0,0,0,0,0,0,0,9,18,0,0,0,0,0,0,0,3,0,0,0,3,24,0,30,54,0,36,15,36,9,0,3,0,0,0,0,0,0,0,0,0,0,0,0,0,0,0,3,0
3,0,9,0,3,12,3,12,39,12,75,30,42,0,3,0,30,0,0,0,0,0,0,0,0,0,0,0,0,0,3,0,0,3,0,9,3,3,12,6,15,24,24,57,15,0,0,0,0,0,0,0,0,0,24,0,0,0,0,0,0,0,0,3
3,0,0,0,24,12,9,36,27,54,30,66,27,27,36,6,0,39,3,24,0,0,21,0,0,0,0,0,0,0,6,3,0,0,6,0,9,6,6,27,21,15,57,51,12,9,0,0,0,0,0,0,0,0,0,0,0,0,0,0,0,0,0,0
0,3,3,0,3,24,36,24,42,21,30,72,15,0,21,51,0,0,0,0,42,0,0,0,0,0,0,0,0,3,0,3,0,0,0,0,0,9,30,9,6,21,24,36,12,0,0,0,3,0,0,0,0,0,0,0,0,0,0,0,0,0,0,3
9,0,0,9,3,0,21,15,63,24,39,66,60,45,9,0,0,0,27,0,0,3,0,0,0,0,0,0,0,0,0,0,0,9,0,6,0,9,0,18,36,15,15,24,36,39,27,0,0,0,0,0,0,0,0,0,0,0,0,0,0,0,0,0
3,0,0,3,0,15,30,36,27,51,30,36,21,18,66,0,18,0,0,0,0,0,0,0,0,0,0,0,0,0,0,0,3,0,0,0,6,15,3,0,21,12,42,39,48,0,0,0,0,0,0,3,0,0,0,0,0,0,0,0,0,0,0,0
3,0,0,0,3,24,21,30,21,24,54,39,48,75,0,27,0,0,0,0,0,0,0,0,0,0,0,0,0,0,6,0,3,12,0,0,3,21,0,30,21,15,15,24,18,6,0,0,0,0,0,0,0,0,0,0,0,0,0,0,0,0,0,6
3,0,3,0,0,0,6,63,15,69,21,36,21,27,3,0,21,0,0,0,0,0,6,0,0,0,0,0,0,0,0,0,0,3,6,0,15,0,39,12,21,39,12,6,6,27,36,3,0,0,0,0,0,0,0,0,0,0,0,0,0,0,0,0
0,6,9,0,0,30,3,24,36,18,51,75,69,36,27,0,0,0,0,0,0,0,0,9,0,0,0,0,0,0,15,0,3,0,0,0,0,21,21,12,39,9,36,27,15,0,0,6,3,0,3,0,0,0,0,0,0,0,0,0,0,0,0,3
6,0,6,3,3,0,9,69,36,42,36,30,48,24,0,24,30,30,0,0,0,0,0,0,0,0,0,0,0,0,0,0,3,3,3,0,3,3,6,9,12,21,33,9,0,21,12,0,0,0,0,0,30,0,0,0,0,0,0,0,0,0,0,0
3,6,0,12,3,24,9,18,36,48,24,39,51,57,48,0,0,0,0,0,0,51,0,0,0,0,0,0,0,0,0,0,3,0,3,0,15,0,3,15,12,9,9,36,63,9,57,3,30,0,0,0,0,0,0,0,0,0,0,0,0,3,0,3
0,6,0,0,15,6,18,24,24,12,51,0,36,39,30,30,0,54,18,0,0,0,0,0,0,0,3,0,0,0,0,0,0,0,0,6,3,15,27,21,15,12,9,30,9,9,0,0,0,0,0,0,0,0,0,0,3,0,0,0,0,0,0,0
3,3,0,0,21,0,3,21,9,48,54,30,33,21,21,0,0,0,0,0,0,0,0,0,0,0,0,0,0,0,3,9,0,3,12,0,9,9,0,36,18,18,12,12,24,9,0,30,0,0,0,0,0,0,0,0,0,0,0,0,0,0,0,3
