0,0,3,1,0,1,0,9,12,12,19,6,16,20,17,3,0,0,0,0,0,0,0,0,0,0,0,0,0,0,0,0,0,0,0,0,0,3,8,4,3,12,10,13,5,13,12,11,0,0,0,0,0,0,0,0,0,0,0,0,0,0,0,0
1,0,0,0,0,1,4,10,8,16,10,16,4,13,16,10,25,0,0,5,0,0,0,1,0,0,0,0,0,0,1,0,0,0,0,0,1,0,1,1,16,0,5,8,7,14,12,0,0,3,0,0,0,0,0,7,0,0,0,0,0,0,0,0
0,0,4,0,0,1,7,13,4,7,17,15,12,4,0,16,18,0,0,0,0,0,0,1,0,0,0,0,0,0,1,0,0,0,1,0,6,0,3,6,6,4,7,16,5,10,10,0,0,1,0,0,0,0,0,0,0,0,0,0,0,0,0,1
3,0,1,1,0,0,1,8,15,10,7,15,1,10,3,0,3,5,0,0,0,0,0,7,0,0,0,0,0,0,0,0,0,0,4,0,0,3,3,9,3,8,9,10,3,4,8,0,0,0,2,0,0,0,5,4,0,0,0,0,0,0,0,0
0,0,1,0,14,3,11,9,25,3,22,6,11,16,0,5,1,0,1,0,0,0,0,0,0,0,0,0,0,0,0,0,3,0,0,0,2,4,0,4,0,14,10,11,7,11,1,0,0,0,1,0,0,3,0,5,0,0,0,0,0,0,0,0
0,0,3,1,2,1,4,14,11,11,11,15,21,7,0,12,0,12,0,0,4,0,1,1,0,0,0,0,0,0,0,0,0,0,0,0,0,1,0,2,12,1,7,7,18,9,4,0,16,0,0,0,0,0,7,4,0,0,0,0,0,0,0,0
0,0,0,2,0,1,4,1,10,9,12,13,2,12,3,17,1,0,0,0,0,0,0,0,0,4,6,0,0,0,1,0,0,1,0,1,0,3,1,4,7,10,8,11,8,9,9,0,7,0,0,7,0,0,0,0,0,0,0,0,0,0,0,0
0,0,0,2,0,0,4,10,9,9,8,9,16,17,8,21,25,4,0,0,4,0,2,0,3,0,0,0,0,0,0,0,0,0,0,0,0,3,2,8,6,6,6,10,3,8,0,11,2,0,0,0,0,0,0,9,0,0,0,0,0,0,0,0
0,0,0,1,3,8,17,2,12,12,21,23,8,1,0,13,0,0,8,0,0,0,0,0,0,0,0,0,0,0,0,0,1,1,0,0,1,0,3,5,12,3,7,14,19,0,4,0,4,0,0,0,0,0,8,0,0,0,0,0,0,0,0,0
0,0,0,2,1,3,2,7,7,6,17,17,16,21,1,23,0,1,0,0,1,0,0,0,0,0,0,0,0,0,0,0,1,0,1,1,0,1,0,2,6,5,4,3,4,4,15,18,0,12,0,0,0,0,7,0,1,0,0,0,0,0,0,0
0,1,1,0,1,0,1,10,8,17,17,16,28,11,3,19,2,17,0,0,0,1,0,0,0,0,0,0,0,0,0,0,0,0,0,0,3,3,1,1,10,5,4,14,1,3,14,0,0,10,0,0,0,0,2,0,0,0,0,0,0,0,0,0
0,0,1,0,0,1,4,6,8,14,7,20,8,7,14,0,7,0,11,0,0,0,0,0,0,0,0,0,0,0,0,0,1,0,0,0,0,0,6,5,5,4,9,11,3,10,9,0,0,0,1,0,0,0,0,0,0,0,0,0,0,0,0,0
0,1,0,0,0,2,0,5,4,14,12,16,12,6,1,18,0,0,0,0,0,0,0,0,0,0,0,0,0,0,0,1,0,1,0,0,0,6,8,3,6,5,3,8,7,7,16,0,0,5,0,0,0,2,0,0,1,0,0,0,0,0,0,0
0,1,0,0,0,5,3,3,5,16,8,14,5,21,8,19,20,0,0,0,0,21,0,0,0,0,0,0,0,0,1,0,0,0,0,0,0,4,0,1,11,19,3,2,15,2,2,0,2,1,0,0,0,0,0,1,0,0,0,0,0,0,0,0
1,1,1,0,0,1,0,8,13,18,6,8,7,6,14,16,29,0,0,0,0,0,0,0,0,0,0,0,0,0,0,1,1,3,1,0,2,1,5,1,3,1,3,7,6,12,13,0,0,0,0,0,2,0,0,12,0,0,0,0,0,0,0,0
1,0,0,0,3,0,1,11,19,10,14,14,10,10,16,0,10,0,3,0,0,0,0,0,0,0,0,0,0,0,0,0,1,1,3,1,5,0,14,0,3,5,5,13,18,18,16,0,13,0,0,0,0,0,1,0,0,0,2,0,0,0,0,0
0,0,0,3,3,0,1,16,0,8,6,11,17,19,14,1,0,8,0,0,0,0,0,14,0,0,0,0,0,0,0,0,2,0,0,0,0,3,7,2,2,5,10,10,3,30,17,8,7,0,0,0,0,0,0,0,0,0,0,0,0,0,0,0
1,0,0,1,6,4,4,6,18,15,12,8,25,21,17,0,14,3,0,0,0,0,0,0,0,0,0,0,0,0,0,4,0,0,1,0,0,2,7,3,9,9,8,6,11,1,0,6,0,0,0,5,0,0,0,0,0,0,0,0,0,0,1,0
0,0,0,0,3,0,8,12,8,16,19,11,14,9,15,13,21,1,0,0,0,0,0,0,0,0,0,0,0,0,0,0,0,3,2,0,1,0,5,9,9,6,1,5,7,11,9,1,0,5,0,0,0,0,0,0,0,0,0,0,0,0,0,0
0,0,1,4,0,3,4,18,7,7,10,13,10,13,8,21,0,0,0,5,0,0,0,0,1,0,0,0,0,1,0,0,0,1,3,0,3,0,1,5,8,3,7,6,1,2,3,0,7,17,0,0,0,0,0,0,0,0,0,0,0,0,0,0
0,0,1,0,3,0,7,0,10,16,7,31,13,16,21,9,0,11,0,0,0,0,3,0,0,0,0,0,0,0,0,0,3,0,1,1,0,0,3,5,6,5,3,10,7,1,8,0,0,9,0,0,0,0,0,0,0,0,0,0,0,0,0,0
0,3,2,0,1,5,7,8,16,14,10,16,23,16,5,17,0,1,0,0,0,0,0,0,0,0,0,0,0,0,0,0,0,0,0,0,0,7,1,8,3,5,11,10,1,13,6,6,0,0,0,0,0,0,0,0,0,0,0,0,0,0,0,0
1,0,1,2,6,7,7,12,10,6,14,10,21,7,22,7,16,5,12,0,0,0,0,0,5,9,0,0,0,0,0,0,4,0,4,0,0,1,5,1,8,11,8,3,8,12,2,11,0,1,0,0,0,0,0,0,0,0,0,0,0,0,0,0
0,3,1,0,0,7,11,1,4,12,2,5,16,1,17,16,11,17,3,0,0,0,0,0,0,0,14,0,0,0,0,0,0,1,0,0,0,0,2,2,5,10,17,12,4,0,0,14,18,0,0,10,0,0,0,4,0,0,0,0,0,0,0,0
0,5,0,1,4,4,7,8,7,11,14,12,5,7,4,19,0,0,9,0,4,0,0,0,0,0,0,0,0,0,0,0,0,0,0,1,0,1,3,10,11,7,5,8,12,8,7,0,9,10,0,0,0,0,0,0,0,0,0,0,0,0,0,0
0,4,1,0,6,2,12,7,8,15,21,14,1,16,0,0,0,0,0,0,0,0,0,7,17,0,0,0,0,0,3,3,0,1,1,1,0,1,3,5,10,2,7,1,16,2,5,3,0,0,0,0,0,0,0,0,0,0,0,0,0,0,0,0
1,0,1,0,0,3,3,13,5,10,15,12,14,23,6,0,0,0,0,0,1,0,0,0,0,0,0,0,0,0,1,0,4,0,0,1,0,0,9,5,5,12,3,1,16,4,5,5,1,0,0,0,0,0,7,0,0,0,0,0,0,0,0,0
0,1,0,5,2,0,11,3,15,12,12,21,12,14,25,17,8,0,0,0,0,7,0,0,0,0,0,0,0,0,0,0,0,0,2,0,4,0,0,9,7,6,7,7,2,2,5,0,1,10,0,0,0,0,0,0,0,0,0,0,0,0,0,0
0,0,1,1,4,0,7,18,14,5,15,16,10,17,4,5,0,0,0,0,0,0,0,0,0,0,0,0,0,0,0,0,4,0,0,1,1,10,3,10,7,6,16,11,8,0,21,3,0,0,1,0,0,0,0,0,0,0,0,0,0,0,0,0
0,0,1,4,1,7,3,11,9,8,18,11,13,23,1,17,0,0,0,11,0,0,1,0,0,0,0,0,0,0,0,0,0,4,1,0,1,0,1,4,7,8,6,5,0,7,0,17,13,0,0,0,0,0,0,0,0,0,0,0,0,0,0,0
1,0,0,3,0,6,8,2,7,19,16,27,10,9,3,17,3,0,4,0,0,0,10,0,1,0,0,0,0,0,0,1,0,1,2,0,0,0,7,2,7,4,3,12,5,6,12,8,0,0,0,0,0,0,5,0,0,0,0,0,0,0,0,0
0,0,0,1,7,0,0,14,9,6,12,12,7,3,29,20,0,1,0,11,0,0,1,0,0,0,0,0,0,0,0,0,0,0,4,0,3,1,3,7,10,5,4,17,15,5,11,0,2,0,0,0,0,0,0,0,10,0,0,0,0,0,0,0
0,0,0,1,0,5,15,4,14,23,24,7,13,7,7,15,0,0,0,0,0,0,0,0,0,0,0,0,0,0,0,1,0,1,0,3,1,0,4,7,5,1,4,3,19,5,12,5,17,0,3,0,0,0,0,0,0,0,0,0,0,0,0,0
2,0,1,3,3,0,8,6,18,25,22,19,19,10,4,5,0,0,0,0,0,0,0,0,0,0,0,0,0,0,0,0,0,0,4,0,0,0,1,2,14,2,12,7,8,6,9,0,4,0,0,0,0,0,12,0,0,0,0,0,0,0,0,0
1,1,0,1,0,1,4,6,7,10,19,17,9,33,6,11,2,6,0,0,0,0,0,0,0,0,0,0,0,0,0,0,0,2,0,0,0,1,7,2,3,5,13,9,8,5,13,1,5,0,0,0,0,0,0,3,0,0,0,0,0,0,0,0
1,0,0,0,3,14,19,4,11,6,7,16,8,15,4,8,0,0,17,0,0,6,0,0,0,0,0,0,0,0,0,0,0,4,0,1,1,5,3,16,4,2,10,7,12,0,6,6,2,7,0,0,0,4,0,0,0,0,0,0,0,0,0,0
1,0,5,0,1,7,0,13,3,18,16,14,1,19,19,15,0,0,0,0,0,10,0,0,0,0,0,0,0,0,0,0,0,1,0,0,3,6,0,2,8,7,8,3,8,2,14,8,3,5,0,0,0,0,0,0,0,0,0,0,0,0,0,0
1,2,0,1,0,8,8,1,20,12,15,21,5,7,3,14,17,0,5,0,0,11,0,1,0,0,0,0,0,0,1,0,0,1,2,1,1,3,3,3,5,10,5,4,8,0,13,12,10,0,0,0,17,0,0,0,0,0,0,0,0,0,0,0
0,0,1,0,0,4,0,3,16,22,7,17,15,4,0,5,10,3,14,0,0,0,7,6,0,0,0,0,0,0,0,0,0,0,0,0,5,0,2,4,5,12,8,3,6,6,10,17,18,0,0,12,0,0,0,1,0,0,0,0,0,0,0,0
0,1,1,2,0,5,2,4,16,12,9,14,21,18,14,5,9,1,0,0,0,0,0,0,0,0,0,0,0,0,0,0,4,0,0,0,3,2,4,1,6,10,10,8,12,11,1,15,0,4,0,0,0,0,0,0,0,0,0,0,0,0,0,0
2,1,0,1,0,0,5,4,8,5,21,14,6,10,0,6,22,21,0,0,0,0,0,0,0,0,0,0,0,0,0,0,0,1,4,1,4,1,3,2,3,11,8,8,6,7,0,1,1,0,0,0,0,0,0,0,0,0,0,0,0,0,0,0
0,0,1,0,0,1,2,3,21,7,15,15,21,19,17,0,15,0,0,0,0,0,0,0,0,0,0,0,0,0,0,1,2,0,1,0,3,0,3,2,7,9,8,1,5,2,12,4,6,8,0,0,0,0,0,0,0,0,0,0,0,0,0,0
0,0,2,1,0,3,6,1,17,19,8,14,9,8,9,17,5,2,0,0,7,0,0,0,0,0,0,0,0,0,0,0,2,2,3,0,1,3,4,1,4,12,6,16,18,3,9,1,0,0,0,0,0,0,0,0,0,0,0,0,0,0,0,0
0,0,5,2,3,2,5,4,4,15,15,6,22,5,8,14,11,0,0,0,0,0,0,0,0,0,0,0,0,0,0,2,0,2,0,0,0,2,0,1,4,6,3,11,7,6,5,3,0,0,0,0,0,0,3,0,0,0,0,0,0,0,0,0
0,1,1,0,2,0,4,0,17,14,11,30,6,10,10,0,5,0,0,0,0,0,18,0,11,0,0,0,0,0,3,0,1,4,2,5,1,5,0,3,11,3,5,8,10,0,3,0,4,0,2,0,0,0,0,0,0,0,0,0,0,0,0,0
0,0,1,1,0,0,3,12,12,4,17,22,16,12,18,8,1,8,0,0,12,0,0,0,8,0,0,0,0,0,0,0,0,0,0,0,4,1,1,3,6,10,6,11,8,9,9,1,1,0,0,0,0,0,0,0,5,0,0,0,0,0,0,0
0,0,0,2,0,2,0,8,18,7,12,13,23,10,16,21,3,0,0,0,4,0,0,0,0,0,0,0,0,0,0,1,2,1,3,0,0,1,2,1,8,8,6,9,12,2,15,1,6,0,0,0,0,0,0,0,0,0,0,0,0,0,0,0
0,0,0,0,5,3,4,7,0,16,16,9,11,14,10,3,1,8,0,0,0,0,0,0,0,0,0,0,0,0,0,0,1,0,7,4,1,1,4,5,6,8,15,4,12,16,5,5,0,0,0,0,0,0,0,0,0,0,0,0,0,0,0,0
0,1,1,0,1,0,7,10,6,16,11,12,14,12,3,0,8,12,1,0,0,0,0,0,0,0,0,0,0,0,0,2,0,0,0,2,1,1,2,1,2,3,7,4,5,5,9,12,0,8,0,0,0,0,0,6,0,0,0,0,0,0,0,0
0,1,1,3,3,0,0,14,5,15,13,10,12,16,19,21,6,4,7,8,0,0,0,22,0,0,0,0,0,0,2,0,1,0,2,0,0,1,5,3,12,12,4,12,5,5,7,10,6,0,3,0,0,0,2,0,0,0,0,0,0,0,0,0
