0,0,1,1,0,1,1,8,19,10,7,7,18,0,18,9,0,0,0,0,0,0,0,0,0,0,0,0,0,0,0,0,3,1,0,1,5,12,7,8,8,9,7,3,4,9,8,0,0,0,0,0,0,0,0,0,0,0,0,0,0,0,0,0
0,0,4,0,0,7,7,13,12,14,16,10,10,8,21,0,0,0,0,0,0,0,0,0,0,0,0,0,0,0,1,3,1,0,2,7,7,17,0,8,8,5,11,11,8,10,14,0,0,0,1,0,0,0,0,0,0,0,0,0,0,0,0,0
0,1,0,1,0,8,8,6,18,10,1,8,12,4,14,14,0,21,1,1,2,4,0,0,0,0,0,0,0,0,1,3,3,0,8,0,0,1,2,9,12,9,7,6,7,14,1,4,0,0,2,0,0,0,0,0,0,0,0,0,0,0,0,0
0,2,0,4,1,1,0,7,15,10,17,12,4,21,12,3,0,0,6,0,0,0,0,0,0,0,0,0,0,0,1,1,2,1,1,3,6,0,5,12,16,6,11,4,13,0,17,0,4,0,0,5,0,1,0,0,0,0,0,0,0,0,0,0
2,1,0,0,7,1,4,8,10,1,8,11,16,13,0,0,0,0,0,0,0,0,0,0,0,0,0,0,0,1,0,0,0,4,0,4,0,6,3,3,11,14,16,8,9,3,5,0,0,0,0,0,0,2,0,0,0,0,0,0,0,0,0,0
0,2,0,0,6,0,12,8,11,3,19,10,13,7,10,8,5,1,0,0,0,0,0,0,0,0,0,0,0,0,0,2,0,0,0,2,0,8,3,8,9,3,8,5,0,13,0,7,0,0,0,5,0,7,0,0,0,0,0,0,0,0,0,0
0,4,7,0,1,9,5,1,11,17,8,23,18,3,7,26,0,0,0,0,0,0,0,0,0,0,0,0,0,0,1,0,0,7,0,1,2,3,15,10,5,12,20,7,10,3,0,0,0,0,0,0,0,0,0,0,0,0,0,0,0,0,0,0
1,3,0,0,1,1,10,5,14,19,12,17,16,13,0,0,6,12,0,0,0,0,0,0,0,0,0,0,0,0,0,0,3,2,1,3,3,5,5,8,13,12,5,8,6,1,7,0,0,0,0,0,0,0,0,0,0,0,0,0,0,0,0,1
1,0,1,0,1,11,5,10,2,12,5,13,11,8,0,0,10,0,5,0,0,0,0,0,0,0,0,0,0,0,0,0,0,8,1,0,3,2,7,1,13,7,12,0,7,7,7,2,0,0,0,0,0,0,0,0,0,0,0,0,0,0,0,0
0,0,0,0,2,4,1,3,8,15,11,12,1,18,5,0,0,0,0,0,0,0,0,0,0,0,0,0,0,0,0,0,1,0,0,5,3,2,10,9,13,15,12,1,7,3,5,0,6,0,0,0,0,0,0,0,0,0,0,0,0,0,0,1
0,0,0,3,2,0,10,8,5,17,12,5,15,7,6,11,0,0,0,0,0,0,5,0,0,0,0,0,0,0,0,0,2,5,0,3,0,3,4,7,14,5,14,6,8,0,2,11,0,0,0,0,1,0,1,0,0,1,0,0,0,0,0,0
0,0,1,1,4,0,7,8,3,20,14,7,26,4,0,19,7,0,0,0,0,0,0,0,0,0,0,0,0,0,0,2,0,2,2,1,13,3,2,5,10,6,8,5,12,11,6,2,12,0,0,0,0,0,0,0,0,0,0,0,0,0,0,1
0,0,0,0,3,8,0,25,5,15,17,9,17,16,0,7,0,0,0,0,0,0,0,0,0,0,0,0,0,0,0,1,9,0,0,0,4,8,5,5,4,3,14,8,13,1,3,3,0,0,0,0,0,0,6,0,0,0,0,0,0,0,0,2
0,0,0,0,0,0,15,3,5,12,12,6,16,12,3,1,12,0,6,0,0,0,0,0,0,0,0,0,0,0,0,1,0,3,1,2,8,6,10,5,10,7,13,0,6,3,1,13,0,0,0,0,0,0,0,0,0,0,0,0,0,0,0,3
0,0,0,0,2,8,8,1,16,15,10,15,12,8,2,16,0,0,0,0,0,0,0,0,0,0,0,0,0,0,0,0,0,0,0,0,1,0,8,17,12,5,6,15,16,10,2,0,0,0,0,0,1,0,0,0,0,0,0,0,0,0,0,1
1,0,0,0,4,1,14,17,8,11,10,4,8,20,10,17,0,1,0,0,0,0,0,0,0,0,0,0,0,1,0,0,3,4,0,0,0,5,5,5,7,16,8,11,3,8,16,5,0,0,0,0,1,4,0,0,0,0,0,0,0,0,0,0
0,1,1,0,0,2,5,3,8,18,12,19,19,0,2,5,0,0,0,0,0,0,0,0,0,0,0,0,0,0,0,0,1,0,3,0,0,3,11,9,12,13,5,7,14,3,18,0,0,0,0,0,0,0,0,0,0,0,0,0,0,0,0,0
5,0,0,1,0,0,13,8,8,10,3,15,18,16,1,1,0,0,0,0,10,0,0,13,0,0,0,0,1,1,1,1,5,0,0,0,0,4,2,9,16,13,3,7,17,2,0,4,0,0,0,0,0,0,0,0,0,0,0,0,0,0,0,0
1,0,3,3,3,1,12,9,16,6,10,25,11,3,25,13,0,0,3,0,0,0,1,0,0,0,0,0,0,0,0,0,1,5,1,0,6,6,4,5,14,13,11,1,5,4,4,0,0,0,0,0,0,0,0,0,0,0,0,0,0,0,0,0
0,3,0,0,0,1,6,5,12,16,25,14,5,0,0,3,0,0,0,23,0,0,0,0,0,0,0,0,0,0,0,0,2,0,0,5,0,8,5,14,6,8,3,2,0,15,0,2,1,0,0,0,0,0,0,0,0,0,0,0,0,0,0,0
0,0,0,1,2,3,2,12,10,11,7,24,13,17,2,0,14,0,0,0,0,7,0,0,0,0,0,0,0,0,0,0,0,0,0,0,0,8,12,11,13,13,6,12,1,12,3,0,0,0,0,0,0,0,0,0,0,0,0,0,0,0,0,0
2,0,1,1,0,1,11,8,14,15,21,6,14,10,0,0,0,0,1,0,0,3,0,0,0,0,0,0,0,0,1,0,1,4,0,0,3,4,1,5,12,14,6,13,15,14,12,0,0,0,0,0,0,0,0,0,0,0,0,0,0,0,0,2
1,0,1,1,0,10,5,11,7,22,21,10,5,12,0,25,0,0,9,0,0,0,0,0,0,0,0,0,0,0,0,2,1,2,1,0,0,0,8,4,5,11,12,13,12,5,10,2,10,0,0,0,0,1,0,0,0,0,0,0,0,0,0,0
1,8,0,3,2,0,7,8,19,20,22,11,4,4,0,14,8,0,0,0,0,0,0,0,0,0,0,0,0,0,0,0,0,1,0,0,1,8,0,3,14,2,2,3,13,14,5,1,0,0,0,0,0,0,0,0,0,0,0,0,0,0,0,0
0,0,0,3,1,0,11,11,0,12,4,21,22,6,7,0,0,0,3,0,0,0,0,0,0,0,0,0,0,0,0,1,2,0,2,0,1,0,6,3,7,12,16,6,8,12,2,0,0,1,0,0,0,0,0,0,0,0,0,0,0,1,0,0
0,0,0,2,12,10,0,5,11,6,21,8,14,12,10,8,0,5,0,0,0,0,0,0,0,0,0,0,0,0,0,2,10,1,1,0,8,6,6,7,1,6,11,12,2,7,14,4,0,0,0,0,0,0,0,0,0,0,0,0,0,0,0,0
1,1,8,1,1,7,5,10,7,18,14,10,5,13,8,5,0,1,0,0,0,0,0,15,0,0,0,0,0,1,0,0,0,0,0,0,0,3,4,5,10,14,14,13,2,0,5,8,4,0,0,0,1,0,0,0,0,0,0,0,0,0,0,0
0,6,1,1,0,0,3,17,13,20,21,5,13,2,11,14,0,0,0,0,0,0,0,0,0,0,0,0,0,2,0,1,0,0,0,0,3,1,17,5,16,12,5,2,15,5,1,7,0,1,0,0,0,0,0,0,0,0,0,0,0,0,0,1
0,0,1,2,15,2,16,0,14,19,7,7,0,14,15,5,0,0,0,0,0,0,6,0,0,0,0,0,1,0,0,2,0,2,0,1,0,3,5,4,14,14,2,8,15,16,13,0,0,0,1,0,0,0,0,0,0,0,0,0,0,0,0,0
1,0,0,2,1,3,13,9,12,21,10,11,25,5,2,9,17,6,0,0,0,0,0,0,0,0,0,0,0,1,0,1,0,4,2,1,1,3,1,13,19,7,13,5,10,14,0,0,0,0,0,1,0,0,0,1,0,0,0,0,0,0,0,0
0,0,0,2,0,3,7,11,8,16,13,16,3,6,1,0,0,0,0,0,0,0,0,0,0,0,0,2,0,0,0,3,5,5,0,0,3,1,6,19,17,11,9,7,2,1,5,15,0,0,0,0,0,0,0,0,0,0,0,0,0,0,1,2
3,6,0,1,0,5,8,9,5,10,21,13,7,23,16,3,0,0,5,0,0,0,0,0,0,0,0,0,0,0,1,0,1,2,0,2,13,0,7,5,9,12,8,7,7,8,6,5,1,0,0,0,0,10,0,0,0,0,0,0,0,0,0,0
2,0,0,1,4,1,14,3,17,19,8,4,9,18,8,0,6,0,3,0,0,0,1,0,0,0,0,0,0,0,0,0,1,1,0,2,3,3,5,10,7,4,12,5,3,5,1,1,0,0,0,0,0,1,0,0,0,0,0,0,0,0,0,0
0,3,3,5,0,5,4,5,9,14,8,14,17,8,5,10,1,1,0,0,0,0,0,0,0,0,0,0,0,1,0,1,0,0,1,0,4,9,0,12,6,4,15,1,15,3,11,4,1,0,0,0,0,0,0,0,0,0,0,0,0,2,0,0
0,0,0,0,0,10,3,5,12,13,13,10,1,0,14,0,16,1,0,0,0,8,0,0,0,0,0,0,0,0,1,0,0,2,0,9,3,1,3,17,5,2,26,11,1,7,2,1,12,0,0,0,0,0,0,0,0,0,0,0,0,0,0,0
3,3,0,5,6,3,5,16,12,14,13,7,16,8,8,7,17,10,0,0,0,0,0,0,0,0,0,0,0,0,1,4,0,2,2,1,0,8,4,5,22,5,10,7,14,8,0,0,0,0,0,0,0,0,0,0,0,0,0,0,0,0,0,0
1,0,0,5,0,5,1,17,7,6,7,13,11,16,9,16,10,0,0,0,0,0,0,0,0,0,0,0,0,0,1,1,5,6,0,0,0,1,10,3,9,16,4,1,12,0,16,0,15,0,0,0,0,0,2,0,0,0,0,0,0,0,0,1
0,0,0,2,2,2,4,9,10,19,1,17,19,13,4,1,0,0,5,6,0,0,0,1,0,0,0,0,0,0,4,1,2,1,1,0,10,1,7,6,10,7,2,16,3,6,5,1,0,0,0,0,1,4,0,0,0,0,0,0,0,0,0,0
1,1,0,3,2,3,10,1,16,12,15,11,3,4,12,0,0,0,0,0,0,1,0,1,0,0,0,0,0,3,0,0,2,1,1,0,1,7,2,23,10,13,8,0,12,2,13,5,0,0,1,0,0,0,0,0,0,0,0,0,0,0,0,0
5,1,3,2,0,2,1,8,10,21,18,20,15,3,5,8,0,0,0,0,0,0,5,0,0,0,0,0,0,0,2,1,6,0,4,0,5,3,11,9,13,2,5,20,8,5,0,5,0,0,0,0,1,0,0,0,0,0,0,0,0,0,0,1
0,0,0,0,0,10,3,8,13,17,14,0,0,12,8,0,0,0,0,8,0,0,0,1,0,0,0,0,0,0,1,3,0,0,0,5,2,1,3,3,14,7,12,3,9,9,0,0,0,0,0,0,0,0,10,0,0,0,0,0,0,0,0,0
2,0,3,5,0,7,6,8,9,12,19,11,25,16,0,16,0,0,0,0,0,0,0,0,0,0,0,0,0,0,1,0,3,3,0,2,1,2,8,9,3,8,6,14,7,0,4,0,0,0,0,0,0,0,0,0,0,0,0,0,0,0,0,0
1,1,0,0,0,2,6,7,11,15,17,13,10,0,10,13,0,0,0,0,0,0,3,0,0,0,0,0,0,0,0,1,0,0,0,5,2,1,11,3,6,7,3,9,1,4,10,0,0,0,0,0,0,0,0,0,0,0,0,0,0,1,0,0
0,0,0,1,1,6,6,8,13,7,17,3,30,1,7,0,0,0,0,0,3,0,0,0,0,0,0,0,0,0,2,1,0,1,0,1,3,0,2,14,16,3,10,2,5,3,0,2,1,0,0,0,0,0,0,0,0,0,0,0,0,0,0,0
0,0,0,0,2,4,4,7,15,14,8,6,14,0,0,17,8,0,0,4,0,0,2,0,0,0,0,0,0,0,2,0,1,0,1,0,1,1,3,13,10,3,12,13,1,5,7,0,0,0,0,0,0,0,0,0,0,0,0,0,0,1,0,0
0,0,1,0,0,2,13,6,6,8,12,8,3,0,1,8,0,0,3,0,7,1,6,0,0,0,0,0,0,0,1,1,0,0,0,1,0,1,4,8,10,6,15,6,4,12,0,0,0,1,0,0,0,0,0,0,0,0,0,0,0,0,0,0
0,1,0,0,0,8,3,7,13,6,23,8,16,3,21,2,0,0,0,0,0,0,0,0,0,0,0,0,0,0,0,0,0,1,0,0,3,3,5,0,15,7,1,13,0,3,3,11,0,0,0,0,1,0,0,0,0,0,0,0,0,0,0,1
0,0,4,0,5,0,4,12,8,19,10,20,5,7,1,0,10,3,0,0,6,0,0,0,0,0,0,0,0,0,0,0,0,1,0,0,0,3,0,18,9,5,10,11,2,6,16,0,0,0,0,0,0,0,0,0,0,0,0,0,0,0,0,0
0,0,0,0,1,4,1,13,18,9,7,17,10,10,6,16,0,8,0,0,0,0,0,0,0,0,0,0,0,0,0,0,0,3,0,0,2,9,1,4,2,12,10,3,3,10,14,0,0,0,0,0,0,0,0,0,0,0,0,0,0,0,1,0
0,0,3,0,1,3,1,12,9,5,11,19,10,35,0,1,0,0,0,0,0,12,0,1,0,0,0,0,0,0,0,2,2,1,1,5,1,7,3,10,10,11,31,10,4,2,4,14,0,0,0,0,0,0,0,0,0,0,0,0,0,0,0,0
