0,0,0,0,5,10,30,15,25,35,40,30,85,25,45,0,15,0,0,15,0,15,0,0,0,0,0,0,0,0,0,0,5,0,0,0,5,15,5,5,5,25,45,75,35,20,45,10,20,15,0,0,0,0,15,5,0,0,0,0,0,0,0,0
0,5,0,0,0,0,35,25,20,60,35,45,15,5,65,25,15,0,0,0,0,15,0,0,0,0,0,0,0,0,0,0,5,0,0,0,10,5,0,25,10,40,15,5,35,20,5,20,15,0,15,0,0,0,0,0,0,0,0,0,0,0,0,0
0,0,0,15,5,10,5,30,25,15,20,30,45,5,45,25,0,0,0,0,0,0,15,40,15,0,0,0,0,0,0,0,0,0,0,5,10,0,15,20,15,15,25,10,25,15,65,0,0,0,0,0,0,0,0,0,5,0,0,0,0,0,0,0
5,0,0,5,10,0,5,25,45,30,45,45,25,25,5,40,35,50,0,0,0,0,0,0,0,0,0,0,0,0,0,0,0,0,0,5,0,5,15,15,10,15,45,25,5,20,25,0,25,0,0,0,0,0,0,0,0,0,0,0,0,0,0,0
0,5,0,0,0,0,30,10,25,25,60,35,0,5,5,0,0,25,0,0,0,0,0,0,0,0,0,0,0,0,0,0,0,0,15,0,5,15,5,5,25,15,5,45,35,50,10,25,0,25,0,0,0,0,0,15,0,0,0,0,0,0,0,0
0,0,0,0,35,0,35,15,10,35,65,50,40,30,15,0,20,0,15,0,0,0,0,0,0,0,0,0,0,0,0,0,0,0,5,15,10,20,20,15,5,25,20,35,10,25,15,25,0,0,0,0,0,0,0,0,0,0,0,0,0,0,0,0
0,0,15,5,25,0,0,30,15,35,45,55,85,80,25,30,0,25,85,0,0,0,0,0,0,0,0,0,0,0,0,0,0,0,0,10,0,10,0,40,15,30,20,10,10,25,15,0,0,0,0,0,0,0,0,0,0,0,0,0,0,0,0,0
0,0,0,5,10,0,0,25,65,30,60,45,65,15,25,0,45,35,0,10,0,35,0,0,0,0,0,0,0,0,0,5,0,0,0,15,0,15,0,25,20,5,0,70,55,15,10,15,5,0,0,0,0,0,0,10,0,0,0,0,0,0,0,0
0,0,10,0,5,15,20,10,60,40,30,15,40,25,25,0,0,0,0,0,0,15,5,0,0,0,0,0,0,0,0,5,0,0,0,25,10,25,25,5,25,0,35,25,25,60,40,20,0,20,0,0,0,0,0,0,0,0,0,0,0,0,0,0
0,5,0,0,0,0,15,35,20,50,40,15,55,5,0,0,5,0,0,0,0,0,0,0,5,0,0,0,0,0,0,0,0,0,0,0,0,5,20,15,50,25,10,45,15,30,25,15,0,0,0,0,0,0,0,0,0,0,0,0,0,0,0,0
0,0,0,5,5,5,0,10,35,40,50,60,45,25,0,20,0,0,0,0,0,0,5,0,0,0,0,0,0,0,0,0,10,0,5,0,5,15,30,35,25,5,15,10,10,25,20,0,0,5,0,0,0,0,0,0,0,0,0,0,0,0,0,0
5,0,5,0,0,10,0,50,30,40,25,20,55,55,10,0,25,15,0,15,0,0,15,0,0,0,0,0,0,0,0,0,0,0,0,0,0,15,25,0,5,15,0,25,10,30,10,0,0,0,0,0,0,0,0,5,5,0,0,0,0,0,0,0
0,0,5,0,15,5,25,15,60,70,50,45,60,40,15,10,35,0,0,0,0,0,40,5,0,0,0,0,0,0,0,5,5,0,0,10,0,5,0,0,5,10,15,35,10,10,15,5,0,0,0,0,0,0,0,0,0,0,0,0,0,0,0,0
0,0,0,0,15,5,10,25,15,45,30,45,20,65,0,10,0,35,0,0,0,0,5,0,0,0,0,0,0,0,0,0,0,15,0,0,0,10,5,10,15,5,30,20,10,5,5,5,0,0,0,0,0,0,0,0,0,0,0,0,0,0,0,0
5,10,0,0,0,15,0,25,10,50,50,80,25,15,70,5,25,15,80,0,0,0,0,0,0,45,0,0,0,0,0,5,0,0,0,0,0,15,20,0,10,10,5,20,10,25,25,5,0,0,0,0,0,0,30,10,0,0,0,0,0,0,0,0
5,0,5,0,0,5,25,0,35,35,35,25,120,60,40,0,70,40,0,0,0,0,0,0,0,0,0,0,0,0,0,0,0,5,0,0,0,20,0,20,15,40,20,5,60,0,15,10,30,0,0,0,0,0,10,0,0,0,0,0,0,0,0,0
0,0,0,5,0,0,40,5,50,50,50,50,55,15,55,55,0,0,0,0,0,0,0,5,0,0,0,0,0,0,5,5,0,0,0,5,10,0,5,15,20,5,25,40,10,35,35,15,0,0,0,0,0,0,0,0,0,0,0,0,0,0,0,0
5,5,10,20,5,0,5,20,20,40,50,40,85,55,30,20,0,0,0,0,0,5,0,0,0,0,0,0,0,0,0,0,0,0,10,10,0,5,0,10,5,10,15,10,35,20,25,35,0,0,10,0,5,0,0,0,0,0,0,0,0,0,0,0
0,0,10,5,5,5,5,15,10,35,30,100,0,60,50,15,25,10,0,0,0,0,0,0,0,0,0,0,0,0,0,0,0,0,0,10,0,0,5,30,5,40,15,35,50,10,40,25,10,15,0,0,0,0,0,0,5,0,0,0,0,0,0,0
5,0,5,20,0,0,5,30,0,45,10,40,35,30,75,0,0,35,10,0,0,0,0,5,5,0,0,0,0,0,0,0,0,0,10,0,0,0,10,0,50,5,40,25,15,0,15,25,15,5,5,0,0,0,0,5,0,0,0,0,0,0,0,0
10,5,0,10,0,0,10,10,40,25,50,50,45,20,5,0,60,20,0,0,0,0,0,0,0,0,0,0,0,0,0,0,0,0,0,5,0,0,15,5,15,20,35,15,35,15,0,10,15,0,0,0,0,0,0,10,0,0,0,0,0,0,0,0
5,0,0,5,5,20,10,15,15,30,75,45,50,50,40,45,0,0,0,0,0,30,0,0,5,0,0,0,0,0,0,0,10,0,0,0,0,20,15,0,20,10,60,20,15,55,35,10,0,0,0,0,0,0,5,0,0,0,0,0,0,0,0,0
0,5,5,0,10,0,5,30,20,55,40,45,35,30,40,65,0,30,0,0,0,0,0,55,0,0,0,0,0,0,0,0,5,0,5,0,0,25,5,10,40,15,5,10,25,20,0,5,5,0,0,0,0,0,0,0,0,0,0,0,0,0,0,0
5,0,0,0,0,0,0,5,50,35,45,40,80,20,55,10,20,0,0,0,10,0,0,40,0,0,0,0,0,0,0,0,5,0,0,5,0,0,0,35,35,35,20,30,20,15,0,0,0,5,0,15,0,0,0,0,0,0,0,0,0,0,0,0
0,0,5,0,15,0,0,35,35,45,50,75,40,0,25,45,10,5,0,0,0,15,0,15,0,0,0,0,0,0,0,0,0,0,5,0,35,0,0,20,30,5,15,15,0,35,0,0,0,0,0,0,0,0,0,0,0,0,0,0,0,0,0,0
0,0,5,0,0,0,5,5,15,55,65,35,40,20,15,5,0,0,0,10,0,35,0,0,0,0,0,0,0,0,0,0,5,0,5,0,0,0,15,5,30,15,50,0,40,25,10,0,0,0,0,0,0,10,0,0,0,0,0,0,0,0,0,0
0,5,0,0,10,10,0,15,40,15,35,35,50,15,50,0,60,0,0,0,0,0,0,0,0,15,0,0,0,0,0,5,0,5,0,0,15,0,0,5,35,20,15,25,5,25,0,15,0,5,0,0,0,5,0,0,0,0,0,0,0,0,0,0
5,0,5,0,5,0,15,20,45,30,55,60,35,40,10,0,25,20,35,0,0,0,0,25,0,0,0,0,0,0,0,0,0,5,20,0,0,0,0,5,15,5,5,10,45,5,60,0,5,0,0,0,0,0,10,0,0,0,0,0,0,0,0,0
0,5,0,0,0,15,15,5,30,45,55,20,30,20,0,25,0,5,0,0,0,0,0,0,0,0,15,0,0,0,0,0,5,0,5,0,0,10,35,15,60,5,30,35,10,35,0,0,0,20,0,0,0,0,0,0,0,0,0,0,0,0,0,0
0,0,5,0,0,5,0,15,40,50,40,20,35,25,30,50,25,0,0,0,35,0,0,25,10,0,0,0,0,0,0,0,10,15,0,0,5,0,0,0,30,35,5,25,15,5,0,15,10,0,0,0,0,0,0,0,0,0,0,0,0,0,0,0
0,5,0,0,0,15,25,45,50,50,35,50,40,55,55,0,35,0,0,0,0,0,0,0,0,0,0,0,0,0,15,0,5,0,5,5,0,5,35,0,25,35,35,5,0,40,5,0,15,0,0,0,0,0,0,0,0,0,0,0,0,0,0,0
0,5,0,0,0,15,5,15,15,30,45,60,20,30,60,45,0,10,0,0,0,0,0,0,0,0,0,0,0,0,0,10,0,5,5,0,5,5,0,10,15,15,35,20,15,10,35,15,0,0,0,15,0,0,0,0,0,0,0,0,0,0,0,0
5,0,0,0,0,5,15,0,30,30,10,20,45,25,40,50,60,5,0,0,20,5,0,0,0,0,0,0,0,0,0,0,0,0,0,0,30,10,0,15,15,25,40,60,5,35,0,0,0,5,25,0,0,0,0,0,0,0,0,0,0,0,0,0
0,0,0,0,0,5,5,5,25,30,95,50,45,65,30,25,50,0,0,0,0,0,0,0,0,5,0,0,0,0,0,0,5,0,25,0,0,0,10,5,5,5,30,25,15,10,10,0,10,0,0,0,0,0,5,0,0,0,0,0,0,0,0,0
0,5,0,0,15,5,0,25,50,15,65,80,60,40,20,70,10,60,0,0,0,0,0,0,10,0,0,0,0,0,0,0,0,5,5,0,5,35,0,5,30,20,65,40,35,20,30,10,0,5,25,0,0,0,0,0,0,5,0,0,0,0,0,0
0,5,5,0,0,20,0,25,30,40,70,40,60,55,35,45,5,0,0,0,0,0,0,0,0,60,0,0,0,0,0,0,0,0,0,5,5,0,5,20,10,25,20,30,5,5,25,5,0,0,5,0,0,0,0,0,0,0,0,0,0,0,0,0
0,0,10,0,5,0,0,0,15,50,5,40,10,35,20,15,0,0,0,0,0,0,0,0,0,0,0,0,0,0,0,0,0,0,10,0,15,0,5,30,15,30,40,50,10,50,20,5,5,0,20,0,0,0,0,0,0,0,0,0,0,0,0,0
0,5,10,0,15,0,15,15,45,75,35,45,55,25,55,30,55,0,0,0,0,0,0,15,0,0,0,0,0,0,0,0,0,0,0,0,0,25,15,15,20,40,5,10,5,25,15,5,0,0,0,0,0,0,0,10,0,0,0,0,0,0,0,0
0,0,5,0,5,15,15,30,15,30,40,45,90,20,65,15,40,0,0,0,0,35,0,0,0,0,0,0,0,0,0,0,0,0,15,0,5,0,30,10,5,35,20,10,50,15,15,45,20,0,0,0,0,5,0,0,0,0,0,0,0,0,0,0
0,0,0,5,0,5,0,0,30,80,65,50,5,30,25,20,0,35,0,0,0,0,0,10,0,0,0,0,0,0,0,5,0,0,20,0,0,0,25,10,15,50,30,35,40,5,0,20,40,0,0,0,0,0,0,0,15,0,0,0,0,0,0,0
0,0,10,5,0,0,15,15,60,25,35,55,40,65,25,0,45,25,0,0,0,0,0,10,0,0,0,0,0,0,0,0,0,5,0,0,0,15,5,15,5,20,25,25,45,10,20,15,15,25,0,0,0,0,5,0,5,0,0,0,0,0,0,0
0,0,0,0,10,25,0,10,20,60,60,35,10,50,40,15,0,0,75,0,0,25,0,0,0,0,0,0,0,0,0,5,0,10,5,5,5,5,5,60,25,10,45,20,15,25,25,5,0,5,0,0,0,0,20,20,0,0,0,0,0,0,0,0
0,10,0,0,0,10,40,15,70,30,65,40,40,30,50,10,0,0,0,0,0,0,0,15,0,0,0,0,0,0,0,0,0,0,0,5,25,0,10,20,10,25,25,70,10,25,30,15,35,0,0,0,0,0,0,5,10,0,0,0,0,0,0,0
0,0,0,0,0,15,25,30,35,5,80,25,60,0,45,35,20,0,0,0,0,0,0,0,0,0,0,0,0,0,0,0,0,0,0,10,0,0,15,10,15,5,50,25,5,20,15,25,10,10,0,20,0,0,0,0,0,0,0,0,0,0,0,0
0,0,5,0,0,5,15,25,15,25,0,50,50,25,30,0,45,0,45,0,0,0,0,0,0,0,0,0,0,0,0,0,25,0,0,0,15,0,20,10,15,15,35,15,20,15,5,70,25,0,30,0,0,0,0,0,0,0,0,0,0,0,0,0
0,0,0,0,5,10,15,40,15,10,50,80,15,50,55,35,15,40,0,0,0,0,0,25,0,0,0,0,0,0,0,5,0,5,0,0,0,5,25,20,35,10,35,20,15,10,0,35,10,0,0,0,0,0,0,0,0,0,0,0,0,0,0,0
0,0,0,0,0,10,10,25,25,80,35,65,50,50,5,60,30,0,0,0,0,0,5,0,5,0,10,0,0,0,5,0,5,10,10,5,0,15,15,10,0,40,5,25,10,15,10,10,5,30,0,0,0,15,0,0,0,0,0,0,0,0,0,0
0,0,5,5,0,0,0,20,35,35,60,35,20,45,15,0,0,55,0,0,15,0,0,15,15,0,0,0,0,0,0,0,0,0,0,0,0,5,50,5,25,25,25,35,20,5,30,10,10,0,0,0,0,0,0,30,15,0,0,0,0,0,0,0
0,0,5,0,15,0,5,55,15,40,45,60,5,15,25,50,20,0,0,0,0,0,0,0,0,0,0,0,0,0,0,5,0,0,5,0,0,5,15,5,80,15,45,40,30,5,0,10,5,0,0,0,0,0,0,15,0,0,0,0,0,0,0,0
0,0,5,25,0,5,25,25,20,70,20,30,50,15,35,25,60,0,0,0,0,0,0,0,20,0,0,0,0,0,0,0,0,0,5,0,25,0,5,25,35,45,10,40,40,35,5,20,15,15,0,5,0,0,0,0,0,0,0,0,0,0,0,0
