6,6,30,30,0,0,18,24,30,24,102,48,12,0,60,54,0,0,96,0,0,0,0,0,0,6,0,0,0,0,0,6,0,0,6,0,0,0,0,48,18,24,42,30,18,48,42,42,0,18,24,0,0,6,0,36,6,0,0,0,0,0,0,0
12,0,12,12,24,0,12,6,60,54,54,60,54,36,60,0,12,0,0,0,0,0,0,0,0,0,0,0,0,0,0,0,0,0,0,6,0,0,0,30,36,18,12,48,18,18,72,24,0,6,0,0,6,0,0,0,0,0,0,0,0,0,0,0
0,0,0,24,0,18,24,72,18,84,54,18,66,18,42,30,6,0,0,0,0,24,0,0,0,0,0,0,0,0,0,0,0,18,0,0,24,0,0,18,42,18,30,48,6,18,18,12,12,0,0,6,0,36,0,0,0,0,0,0,0,0,0,0
0,12,0,0,6,6,24,36,18,60,60,36,48,72,18,0,0,60,60,0,0,0,0,0,0,0,0,0,0,0,0,0,12,12,6,0,0,24,24,12,42,18,36,48,12,12,0,48,0,0,0,0,0,0,18,0,0,0,0,0,0,0,0,0
0,18,0,30,0,0,24,30,72,42,54,90,54,0,24,96,30,42,0,0,0,0,0,0,0,0,0,0,0,0,0,0,36,0,6,0,0,6,30,12,36,30,36,108,36,30,36,18,0,0,0,0,0,0,0,0,0,0,6,0,0,0,0,0
0,0,6,18,0,60,42,24,48,72,54,54,18,42,108,0,18,18,0,0,0,0,0,0,0,0,0,0,0,0,6,6,0,6,0,18,24,6,78,18,12,84,30,54,6,18,12,0,0,6,0,0,0,6,0,0,0,0,0,0,0,0,0,0
12,0,0,0,6,18,6,30,30,78,48,42,66,48,54,0,0,42,0,0,0,0,0,24,0,0,0,0,0,0,0,6,0,18,18,0,6,30,0,12,18,48,48,60,60,0,6,36,6,0,0,0,48,0,0,0,42,0,0,0,0,0,0,6
0,6,0,0,0,18,72,6,24,72,42,18,60,114,78,18,6,72,0,0,0,6,24,0,0,0,0,0,0,0,0,12,6,0,0,0,12,24,0,24,6,24,108,72,30,42,24,6,42,6,18,0,0,30,24,0,0,0,0,0,0,0,0,6
0,0,12,18,0,18,24,12,36,66,60,78,66,66,90,42,6,0,24,0,0,0,0,0,0,0,0,0,0,0,0,18,12,18,30,0,0,6,6,30,48,24,42,54,54,6,6,36,78,0,0,0,0,0,0,0,0,0,0,0,0,0,0,0
0,12,0,30,0,12,6,18,72,36,54,60,42,72,42,114,0,0,42,0,0,0,0,30,0,0,0,0,0,0,6,0,6,0,0,6,0,48,24,60,30,12,48,54,42,48,36,54,0,60,102,0,0,0,0,0,0,12,0,0,0,0,0,6
6,6,36,0,6,6,24,30,36,108,36,96,96,66,60,0,12,0,24,0,0,0,0,0,0,0,0,0,0,0,0,6,24,18,0,0,42,18,42,78,12,36,42,66,42,60,18,6,0,54,0,0,0,0,0,0,0,0,0,0,0,0,0,6
36,0,6,0,6,42,30,42,24,54,108,54,90,60,78,24,0,0,36,0,0,0,0,0,0,0,0,0,0,0,0,18,0,0,6,0,6,24,42,24,36,48,60,6,18,24,6,30,30,0,0,0,0,0,0,0,0,0,0,0,0,0,0,0
0,6,6,0,6,30,6,18,48,60,24,42,84,84,6,60,30,6,0,0,30,0,0,0,0,0,30,0,0,6,0,0,0,0,0,0,24,6,6,18,48,54,42,96,72,48,12,60,12,0,6,0,0,6,0,0,0,0,0,0,0,0,0,0
6,0,0,18,6,30,6,6,42,60,96,48,54,54,0,54,54,0,0,0,0,0,0,0,54,0,0,0,0,0,0,18,0,6,0,0,6,0,18,18,72,84,30,48,66,36,48,72,48,0,0,0,0,0,0,0,0,0,0,0,0,0,0,0
0,0,36,0,0,12,6,6,42,54,60,78,24,78,36,6,30,24,6,0,36,0,0,36,0,0,0,0,0,0,0,12,30,6,36,0,0,0,36,60,18,42,78,54,12,36,102,0,36,0,0,6,0,0,0,0,0,0,0,0,0,0,0,0
0,6,6,12,0,18,30,72,12,42,42,48,150,18,0,84,54,0,0,6,0,0,0,36,0,0,0,0,0,0,6,30,0,6,0,24,0,12,24,12,30,48,72,24,48,48,48,0,0,30,0,0,0,0,6,0,18,0,0,0,0,0,0,0
36,0,0,12,0,0,36,54,48,30,60,66,114,48,18,18,0,36,0,0,0,0,0,0,0,0,0,0,0,0,0,0,42,0,0,0,12,0,0,36,24,24,6,30,48,12,30,18,0,30,0,0,0,0,0,0,0,0,0,0,0,0,0,0
12,0,6,6,0,0,42,30,24,90,6,48,54,18,18,54,48,48,0,0,0,0,0,6,0,0,0,0,0,0,0,12,6,0,30,0,0,18,12,6,18,96,84,36,30,72,6,0,0,6,24,0,0,36,0,0,0,0,0,0,0,0,0,0
0,6,0,12,6,0,30,54,72,54,60,102,24,84,0,30,12,0,30,0,0,0,0,18,0,0,0,0,0,0,0,24,0,24,6,0,0,0,24,30,36,72,36,54,24,48,30,18,0,0,0,0,0,0,0,0,6,0,0,0,0,0,0,6
24,0,30,24,0,6,24,0,30,66,120,60,78,54,12,18,48,12,0,0,0,0,0,0,0,0,0,0,0,0,0,0,6,12,0,0,0,0,24,48,42,18,102,24,0,12,60,0,0,42,0,0,0,0,6,0,0,0,0,0,0,0,0,0
0,0,42,12,18,30,24,24,6,90,120,30,84,42,42,24,30,0,0,0,36,6,0,0,0,0,0,0,0,0,0,0,0,6,0,36,0,6,18,18,54,60,72,48,48,18,0,18,36,0,0,0,0,30,0,0,0,0,0,0,0,0,0,0
0,6,30,0,0,30,6,42,36,60,42,96,42,12,78,0,18,30,0,54,0,36,0,0,0,0,0,0,0,0,0,6,0,0,18,0,0,12,42,6,12,48,72,6,30,18,18,0,0,0,0,0,0,0,0,0,0,0,0,0,0,0,0,0
6,0,0,6,6,30,42,84,36,54,72,78,78,30,36,36,0,0,0,0,0,18,0,0,0,0,0,0,0,0,12,0,0,0,0,12,18,24,48,6,54,42,36,18,90,60,0,0,0,18,0,0,0,0,0,0,0,0,0,0,0,0,0,0
6,6,0,12,24,0,6,42,42,6,90,72,18,30,48,0,0,0,0,0,6,0,0,60,30,0,0,0,0,0,12,24,12,6,12,30,0,0,6,30,30,30,12,24,72,84,12,12,24,78,72,48,0,30,30,6,0,0,0,0,0,0,0,0
0,6,0,18,0,18,6,0,48,36,48,84,12,84,66,48,60,78,0,0,0,0,0,0,0,0,0,0,0,0,18,18,0,0,0,0,0,30,42,42,36,12,84,18,12,60,66,18,0,12,0,0,0,0,0,30,0,0,0,0,0,0,0,0
6,0,0,6,0,0,18,12,42,30,30,72,90,0,108,24,30,0,0,36,0,0,0,0,0,0,0,0,0,0,0,0,12,18,0,6,0,24,6,30,24,6,48,18,30,30,6,66,6,0,0,54,0,6,0,0,0,0,0,0,0,0,0,6
0,6,0,30,6,24,6,48,60,18,90,30,42,12,60,48,48,0,0,0,0,42,24,0,0,0,0,0,0,0,0,0,12,0,0,0,0,0,0,24,12,30,30,30,54,60,18,60,0,6,0,0,0,0,0,12,0,30,0,0,0,0,0,0
0,24,0,0,0,18,6,42,66,30,42,42,60,42,0,54,24,6,60,0,0,0,0,12,0,0,0,0,0,0,0,0,0,0,0,0,0,30,6,18,30,12,60,18,24,24,24,0,0,102,0,0,0,0,0,0,0,0,0,0,0,0,0,0
0,6,24,18,0,0,12,42,30,30,84,30,114,12,90,114,6,0,0,0,0,0,18,54,0,0,0,0,0,0,0,18,0,12,0,0,0,12,18,18,18,42,0,60,48,18,30,6,0,0,0,0,0,0,0,0,0,0,0,0,0,0,0,0
6,0,6,0,6,6,12,18,60,42,60,78,120,36,0,72,36,0,0,0,18,0,0,0,0,0,0,0,0,0,0,0,18,0,0,0,0,30,24,42,30,30,84,18,18,24,36,0,36,0,0,6,30,12,0,6,0,0,0,0,0,0,0,6
0,18,0,0,0,42,6,0,24,66,84,18,42,24,102,0,6,0,0,6,0,0,0,0,0,0,0,0,0,0,0,0,0,0,18,0,0,0,30,24,36,12,60,48,72,30,78,0,48,0,0,6,0,42,0,0,0,0,0,0,0,0,0,6
0,6,0,0,0,12,42,18,60,78,30,66,18,60,78,66,0,0,42,30,0,0,0,0,0,0,0,0,0,0,0,0,0,0,0,0,6,0,24,66,18,42,60,66,54,48,12,36,0,6,0,0,0,0,0,60,0,0,0,0,0,0,0,0
18,0,0,12,0,18,60,30,42,42,72,78,60,60,72,48,24,24,6,0,0,0,0,0,0,0,0,0,0,0,0,0,18,6,6,0,0,18,6,30,6,24,54,48,24,30,48,0,0,60,42,0,0,0,0,0,0,0,0,0,0,0,0,0
6,0,12,0,0,30,42,12,30,108,24,36,84,48,0,54,0,0,42,0,6,0,0,0,0,0,0,0,0,0,0,6,6,0,6,0,0,18,24,6,30,30,18,90,48,48,30,0,18,0,0,0,0,0,36,0,12,0,0,0,0,0,0,6
0,6,6,0,0,0,48,48,12,42,48,60,48,72,102,0,6,0,90,0,0,0,0,0,0,0,0,0,0,0,0,0,0,0,0,0,0,36,48,6,6,12,36,42,0,18,12,42,30,0,0,0,30,0,36,0,0,0,0,0,0,0,0,0
0,0,12,0,6,42,18,6,96,108,66,48,66,72,24,120,60,0,0,0,0,18,0,0,0,0,0,0,0,0,0,0,0,0,0,0,18,0,12,6,18,0,12,78,66,54,6,36,0,0,24,0,0,0,0,0,0,0,0,0,0,0,0,6
18,0,0,6,6,6,6,36,24,24,18,48,84,90,0,54,6,0,0,0,0,0,6,0,0,0,0,0,0,0,0,0,0,18,0,0,0,24,12,30,54,48,24,90,30,42,24,12,12,54,6,42,24,0,30,0,0,0,0,0,0,0,0,0
0,6,6,0,0,6,6,48,54,54,30,78,18,60,72,0,18,6,0,0,0,0,0,0,0,0,0,0,0,0,0,0,0,0,18,0,0,18,12,54,18,6,60,54,60,18,6,6,0,72,0,0,0,0,0,0,0,0,0,0,0,0,0,0
0,18,0,0,12,0,36,54,48,42,54,66,66,36,102,96,60,30,0,0,30,0,0,6,0,0,0,0,0,0,0,0,12,0,0,0,0,18,0,12,48,42,66,30,42,18,42,48,0,6,0,6,0,0,0,0,36,0,0,0,0,0,0,0
0,0,18,0,6,0,6,12,60,54,42,42,18,72,48,12,132,24,0,0,0,0,48,0,0,0,0,0,0,0,0,0,0,6,0,6,30,0,0,12,18,36,18,30,12,30,24,36,6,36,0,6,0,0,0,0,0,0,0,0,0,0,0,0
0,6,6,0,0,18,36,30,72,60,54,36,162,24,6,0,6,6,30,54,0,24,0,0,0,0,0,0,0,0,0,0,0,0,0,0,0,0,18,30,48,24,36,48,18,18,18,66,6,0,0,0,0,0,0,30,0,0,0,0,0,0,0,0
0,0,6,0,0,72,30,66,54,48,42,84,84,48,24,24,0,12,0,0,0,0,0,0,0,0,0,0,0,18,0,0,6,12,36,0,0,18,12,18,48,42,48,72,18,96,12,72,0,6,0,36,0,0,24,0,0,0,0,0,0,0,0,0
0,0,0,6,0,18,18,48,72,72,30,54,120,84,78,6,42,6,18,0,0,0,0,0,0,0,0,0,0,0,0,6,18,0,0,0,0,0,12,6,6,12,24,48,54,12,24,36,18,0,0,0,0,0,0,30,0,0,0,0,0,0,0,0
6,0,0,24,36,0,24,30,18,84,48,66,126,162,6,42,30,54,12,0,24,0,0,6,0,0,0,0,0,0,0,0,0,12,0,0,0,0,18,18,42,12,30,30,30,30,6,12,0,6,0,0,0,0,0,0,0,0,0,0,0,0,0,0
6,0,18,0,0,12,0,30,60,54,54,78,84,96,18,48,42,0,0,0,0,0,0,0,0,0,0,0,0,0,0,0,6,0,24,6,0,24,12,24,60,24,30,12,54,78,6,24,0,6,30,0,0,0,0,0,0,0,0,0,0,0,0,0
0,0,0,0,6,24,48,0,60,90,18,42,48,30,54,72,0,60,0,0,0,0,0,0,6,0,0,0,0,0,6,0,0,6,0,0,6,48,6,72,30,18,30,30,36,42,72,0,108,6,0,0,0,0,0,30,0,0,0,0,0,0,0,0
0,36,0,0,0,18,18,36,12,72,42,48,84,6,36,18,42,0,0,0,0,0,0,0,0,0,0,0,0,0,0,18,0,0,0,0,6,0,6,30,18,72,48,48,18,78,48,54,42,0,0,0,0,6,6,0,0,0,0,0,0,0,0,0
0,12,0,0,6,18,0,54,36,48,42,72,42,60,12,30,0,0,24,0,0,0,0,0,0,0,0,0,0,0,0,0,18,0,30,6,0,0,48,6,24,54,6,48,60,0,24,18,0,0,0,0,0,48,0,0,0,0,0,0,0,0,0,0
0,6,12,0,18,0,30,36,54,84,42,78,60,6,30,72,36,6,18,0,0,0,0,0,0,0,0,0,0,0,0,0,0,6,0,0,6,6,6,24,30,18,60,36,60,42,0,30,6,30,0,0,0,0,0,0,0,0,0,0,0,0,0,0
0,6,30,6,0,6,12,24,66,60,42,78,36,48,102,42,84,0,0,0,0,0,0,0,0,24,0,0,0,0,0,0,0,0,6,0,0,6,12,42,0,30,12,42,42,24,30,6,42,0,0,0,0,0,0,0,6,0,0,0,0,0,0,6
