0,0,0,0,10,4,0,4,20,8,22,10,24,22,14,0,6,0,0,0,2,0,0,0,0,0,0,0,0,0,0,0,0,2,0,4,2,2,10,2,0,10,10,6,8,0,10,0,0,0,0,6,0,0,0,0,0,0,0,0,0,0,0,0
0,0,0,0,0,0,6,6,20,0,4,18,16,6,12,8,4,0,0,0,0,0,0,2,0,0,0,0,0,0,0,0,0,0,0,0,0,2,0,2,8,30,16,10,14,14,2,14,0,0,0,0,0,0,0,0,0,0,0,0,0,0,0,0
0,0,0,0,0,0,2,18,0,10,0,18,10,34,0,12,0,0,0,0,0,0,0,0,0,0,0,0,0,0,0,2,2,2,0,0,0,0,0,4,2,4,8,10,14,0,10,10,0,0,0,0,0,0,0,0,0,0,0,0,0,0,0,0
0,0,0,0,4,0,2,8,6,6,12,14,24,6,10,0,10,2,0,0,0,0,0,0,0,0,0,0,0,0,0,0,0,0,0,2,0,0,2,2,0,2,6,26,22,0,0,2,0,0,0,0,0,0,0,0,0,0,0,0,0,0,0,0
0,0,2,0,0,8,0,2,6,22,16,10,18,16,14,24,0,2,0,0,0,0,2,4,0,0,0,0,0,0,0,0,0,0,0,0,0,6,2,2,4,10,16,10,18,6,16,0,0,0,0,0,0,0,0,0,0,0,0,0,0,0,0,0
0,0,0,0,0,4,0,0,16,14,16,8,32,32,10,0,0,0,0,0,0,16,10,0,0,0,0,0,0,0,0,0,0,0,0,0,0,0,2,0,12,28,4,12,2,20,0,2,2,2,0,0,0,0,0,0,0,0,0,0,0,0,0,0
0,0,0,0,0,0,10,0,12,8,16,16,14,12,6,6,0,6,0,0,0,0,0,0,0,0,0,0,0,0,0,0,0,0,0,0,2,0,0,0,14,16,16,6,0,10,2,8,2,0,0,2,0,0,0,0,0,0,0,0,0,0,0,0
0,0,0,0,0,0,0,4,8,2,24,16,16,10,2,4,0,4,14,0,0,0,0,0,0,2,0,0,0,0,0,0,6,0,0,0,0,10,0,2,4,28,16,10,6,22,2,2,0,0,0,0,0,0,0,0,0,0,0,0,0,0,0,0
0,0,0,0,0,0,2,0,16,2,0,18,16,14,2,10,0,0,0,0,14,0,12,0,0,0,0,0,0,0,0,0,0,0,0,0,0,0,0,0,2,2,6,6,6,0,2,4,2,0,0,0,0,0,0,0,0,0,0,0,0,0,0,0
0,0,0,0,0,8,0,8,6,10,20,22,18,18,22,0,22,0,0,0,0,0,0,0,0,0,0,0,0,0,0,0,0,0,0,0,2,0,2,4,14,20,4,22,4,6,0,0,18,2,0,0,0,0,0,2,0,0,0,0,0,0,0,0
0,0,0,2,0,0,6,32,2,16,10,4,28,2,18,2,0,8,0,0,12,0,0,0,0,0,0,0,0,0,0,0,0,0,0,0,0,0,0,2,6,4,2,10,2,4,2,0,4,6,0,0,0,0,0,0,0,0,0,0,0,0,0,0
0,0,0,0,0,0,0,12,24,6,16,28,10,2,8,12,8,0,0,0,0,0,0,0,0,0,0,0,0,0,0,0,0,0,0,0,0,0,0,0,10,8,14,10,28,4,28,10,0,0,2,0,0,0,0,0,0,0,0,0,0,0,0,0
0,0,0,0,6,0,4,8,0,6,6,16,10,22,12,42,0,0,0,0,0,0,0,2,0,0,0,0,0,0,0,0,0,0,0,0,0,0,2,4,6,12,14,0,32,4,0,14,0,0,0,0,0,0,0,0,0,0,0,0,0,0,0,0
0,0,0,0,0,2,6,0,6,4,20,26,16,16,14,6,0,14,8,0,0,0,0,0,0,0,0,0,0,0,0,0,2,0,0,0,2,0,0,4,0,12,4,16,26,14,6,0,0,24,0,0,0,0,6,0,0,0,0,0,0,0,0,0
0,0,0,0,4,0,6,4,6,12,14,18,10,0,2,10,0,0,0,0,10,0,0,0,0,0,0,0,0,0,0,0,4,0,0,0,0,0,0,8,2,6,0,6,18,14,0,6,0,0,2,0,0,0,6,0,0,0,0,0,0,0,0,0
0,0,0,0,0,0,2,6,16,6,22,20,32,2,34,18,0,6,0,2,0,0,0,0,0,0,0,0,0,0,0,0,6,0,0,0,2,0,2,20,10,12,10,6,32,6,18,0,0,10,0,4,0,0,0,0,0,0,0,0,0,0,0,0
0,0,0,0,0,0,10,2,2,8,16,24,24,10,0,2,0,4,2,6,38,0,0,4,0,0,0,0,0,0,0,0,0,0,0,0,0,0,0,0,2,8,18,6,16,14,0,2,0,0,0,0,0,0,0,0,0,0,0,0,0,0,0,0
0,0,0,0,0,4,0,0,8,12,16,4,14,14,10,12,6,0,2,0,0,0,0,0,2,0,0,0,0,0,0,0,0,0,0,0,0,0,10,0,2,2,20,24,8,2,8,0,0,0,2,0,0,0,0,0,0,0,0,0,0,0,0,0
0,2,0,0,0,0,4,0,6,14,10,14,14,4,20,6,0,20,0,0,0,0,0,0,0,0,0,0,0,0,0,0,0,0,0,0,0,0,12,2,2,12,30,12,18,2,0,2,0,0,0,0,0,6,0,0,0,20,0,0,0,0,0,0
0,0,0,0,0,0,8,6,10,8,26,28,14,2,2,2,0,2,0,0,6,0,0,4,0,0,0,0,0,0,0,0,0,0,4,0,0,0,0,4,4,0,4,14,6,0,4,10,16,0,0,0,0,0,0,0,0,0,0,0,0,0,0,0
0,0,0,0,4,0,8,6,10,28,14,16,26,24,28,22,0,12,0,22,0,0,0,0,0,0,0,0,0,0,0,0,0,0,0,2,2,0,0,0,12,18,14,6,6,16,8,0,2,0,0,0,0,0,0,0,0,2,0,0,0,0,0,0
0,0,0,0,0,0,0,8,8,8,16,2,22,14,2,10,12,0,0,0,0,0,0,0,0,0,0,0,0,0,0,0,0,0,2,0,0,2,0,4,6,6,6,12,6,20,8,14,0,0,0,0,0,0,0,0,0,0,0,0,0,0,0,0
0,0,0,0,6,0,0,2,18,6,32,14,8,42,16,10,2,0,0,0,0,2,0,0,0,0,0,0,0,0,0,0,0,0,0,0,2,0,12,0,2,20,4,24,10,24,2,0,2,0,0,0,0,0,0,0,0,0,0,0,0,0,0,0
0,0,0,0,0,0,0,12,6,6,12,18,28,8,18,6,0,0,0,0,4,0,0,0,2,0,0,0,0,0,0,0,0,2,0,0,2,0,2,0,0,8,10,2,2,2,6,6,4,0,0,10,0,0,0,0,4,0,0,0,0,0,0,0
0,2,0,0,4,2,4,2,4,12,10,36,18,4,42,0,0,14,0,0,0,0,0,0,0,0,0,0,0,0,0,0,0,0,0,0,0,2,4,0,4,6,6,6,2,26,6,2,0,0,0,0,0,0,0,0,0,0,0,0,0,0,0,0
0,0,0,0,0,4,20,0,8,14,18,16,18,20,2,12,4,0,0,0,0,0,0,0,0,0,0,0,0,0,0,0,2,4,0,0,0,8,10,2,10,10,10,14,6,22,0,16,0,0,0,2,0,0,0,0,0,0,0,0,0,0,0,0
0,0,0,0,0,6,4,0,14,14,10,14,16,12,20,12,4,0,0,0,0,16,0,0,0,0,6,0,0,0,0,0,0,0,0,0,0,0,0,6,14,8,10,8,12,10,6,0,0,0,0,2,0,0,0,0,0,0,0,0,0,0,0,0
0,0,0,2,0,6,2,0,8,6,4,24,4,4,6,6,0,0,24,0,0,0,28,0,0,0,0,0,0,0,0,0,0,0,2,0,4,0,2,0,0,10,0,16,8,12,0,0,0,0,4,0,0,0,0,0,0,0,0,0,0,0,0,0
0,0,0,2,0,0,6,2,6,6,18,24,12,26,4,0,32,0,0,0,0,0,0,0,6,0,0,0,0,0,0,0,0,0,2,0,0,0,0,2,2,12,8,10,8,26,0,0,14,0,0,0,0,0,0,0,2,0,0,0,0,0,0,0
0,4,0,0,0,8,2,0,10,0,20,14,14,16,4,0,0,0,0,0,0,2,0,0,0,0,0,0,0,0,0,0,0,2,0,0,0,0,12,0,2,6,16,10,2,24,4,2,4,0,0,0,0,0,0,0,0,0,0,0,0,0,0,0
0,0,2,6,0,0,4,0,0,10,10,24,16,20,0,0,0,2,2,0,0,0,0,22,0,0,0,0,0,0,0,0,0,0,2,0,0,0,0,6,14,10,8,20,4,0,6,0,0,2,0,0,0,0,0,0,4,0,0,0,0,0,0,0
0,0,0,0,0,0,0,2,16,22,8,28,6,28,6,12,10,14,0,0,0,6,0,2,0,0,0,0,0,0,0,0,0,2,0,0,0,0,2,0,8,2,10,6,0,16,2,0,6,0,0,0,0,0,2,0,0,0,0,0,0,0,0,0
0,0,0,0,0,0,10,4,6,12,28,12,28,0,12,8,6,0,0,4,0,0,0,0,0,0,0,0,0,0,0,0,0,0,0,0,0,2,6,4,4,4,18,20,12,34,0,38,6,0,0,0,16,0,0,0,0,0,0,0,0,0,0,0
0,0,0,2,0,0,4,20,20,2,2,10,16,4,8,0,0,12,0,0,12,0,0,0,0,0,0,0,0,0,0,0,0,0,0,0,0,6,2,4,6,10,8,4,14,4,16,0,0,0,0,18,0,0,0,0,0,0,0,0,0,0,0,0
0,0,0,0,0,0,6,4,12,10,24,26,14,16,4,6,2,22,0,0,0,0,0,0,0,0,0,0,0,0,0,0,0,2,4,0,4,0,0,2,2,10,10,10,8,2,10,4,0,0,0,0,0,0,0,0,0,0,0,0,0,0,0,0
0,0,0,2,0,0,2,6,8,18,16,14,12,6,6,10,0,0,0,8,0,4,2,0,2,0,0,0,0,0,0,0,0,0,0,0,4,0,2,0,8,14,0,4,6,4,8,2,4,0,0,0,0,0,2,0,0,0,0,0,0,0,0,0
0,0,0,0,0,0,4,0,6,24,8,22,26,24,10,8,0,16,0,0,0,0,0,0,0,0,0,0,0,0,0,0,0,0,2,0,0,0,6,0,0,12,18,2,8,2,2,2,0,0,0,0,0,0,0,0,0,0,0,0,0,0,0,0
0,0,0,0,0,0,6,8,2,12,28,2,18,22,38,14,0,0,0,0,0,0,0,6,0,0,0,0,0,0,0,0,0,0,0,0,0,0,2,6,4,8,12,2,22,14,14,0,0,2,0,0,0,0,2,2,0,0,0,0,0,0,0,0
0,0,0,0,0,0,0,12,12,0,16,32,16,30,6,6,16,0,0,0,0,2,0,0,0,0,0,0,0,0,0,0,0,0,2,0,0,0,2,2,10,4,24,12,8,0,2,8,0,0,0,0,0,0,0,0,0,0,0,0,0,0,0,0
0,0,0,0,0,0,6,2,18,30,8,22,4,6,4,0,0,0,0,0,0,0,8,0,0,0,0,0,0,0,0,0,0,0,0,0,0,2,4,10,16,6,0,2,16,0,2,0,0,0,0,2,0,0,0,2,0,0,0,0,0,0,0,0
0,0,0,8,0,0,4,4,8,26,14,12,6,4,10,2,0,0,0,0,0,0,4,0,0,0,0,0,0,0,0,0,0,0,0,0,0,0,4,10,16,0,8,10,16,12,0,6,0,0,0,0,0,0,0,0,0,0,0,0,0,0,0,0
0,0,0,0,0,0,4,2,2,14,10,20,24,20,16,18,6,12,4,0,0,0,0,0,0,0,0,0,0,0,0,0,0,0,0,0,4,0,2,2,10,2,2,4,2,20,14,16,0,0,0,0,6,0,0,0,0,0,0,0,0,0,0,0
0,0,0,0,0,0,6,2,6,20,12,14,28,20,12,28,2,18,0,0,0,0,0,6,0,0,0,0,0,0,0,0,0,0,2,0,0,2,0,4,0,2,20,12,0,2,18,0,0,0,0,0,0,0,0,0,0,0,0,0,0,0,0,0
0,0,0,0,0,0,0,0,10,12,12,14,12,8,24,28,0,32,0,0,0,0,0,0,0,0,0,0,0,0,0,0,0,0,0,0,0,6,6,4,16,6,12,10,2,10,12,4,0,0,0,0,0,0,0,0,0,0,0,0,0,0,0,0
0,0,0,0,0,0,14,4,0,16,40,12,6,10,8,10,10,0,0,0,0,0,0,0,4,0,0,0,0,0,0,0,0,0,2,4,0,0,2,16,6,6,10,18,2,6,2,0,2,0,0,0,0,0,0,0,0,0,0,0,0,0,0,0
0,2,0,0,6,2,10,0,12,8,16,10,6,10,2,0,28,0,26,0,0,0,0,0,0,0,0,0,0,0,0,0,0,0,0,0,2,4,0,12,6,6,6,16,6,4,2,6,0,6,0,0,2,0,0,0,0,0,0,0,0,0,0,0
0,0,4,0,0,0,0,6,4,4,12,6,2,14,2,10,18,0,4,4,4,22,0,0,0,0,0,0,0,0,0,0,0,0,0,0,0,0,4,2,6,2,10,16,16,2,6,0,0,2,0,6,0,0,0,0,0,0,0,0,0,0,0,0
0,0,0,0,0,2,4,6,10,10,12,10,12,10,4,4,6,0,0,0,0,0,0,0,0,0,0,0,0,0,0,0,0,0,0,0,0,0,2,8,2,2,6,8,6,16,10,0,0,0,0,0,0,0,6,0,0,0,0,0,0,0,0,0
0,0,0,0,0,0,0,6,24,6,18,28,16,10,2,10,0,6,0,0,0,2,4,6,0,0,0,0,0,0,0,0,0,0,0,0,0,2,4,6,2,6,2,20,14,38,0,0,0,6,0,0,0,0,2,2,0,0,0,0,0,0,0,0
0,0,0,0,0,0,0,6,16,28,6,10,2,24,16,2,0,14,0,0,0,0,0,0,0,0,0,0,0,0,0,0,0,0,0,0,0,0,2,4,18,8,12,2,16,2,0,2,0,0,12,0,0,0,0,0,0,0,0,0,0,0,0,0
