16,8,0,0,0,8,24,80,64,96,168,24,120,0,64,0,16,0,0,0,0,24,0,104,0,0,0,0,0,0,0,0,8,24,0,8,0,48,0,48,96,56,160,144,112,96,64,64,120,32,0,0,0,0,112,0,0,0,0,0,0,0,0,0
0,0,0,0,24,16,0,40,96,56,136,64,192,168,176,32,0,48,0,0,0,0,0,0,0,0,0,0,0,0,0,0,16,0,0,0,16,24,24,112,56,136,160,152,224,144,32,112,0,0,96,0,0,0,72,0,0,0,0,0,0,0,0,0
48,0,0,0,0,24,64,48,64,64,56,128,32,8,80,8,104,0,0,24,0,0,0,0,0,0,0,0,0,0,0,0,0,24,8,0,24,32,0,32,96,160,160,144,24,184,8,72,0,32,0,0,0,0,8,32,0,0,0,0,0,0,0,0
0,8,0,0,32,0,0,40,88,64,40,48,56,96,16,16,56,96,0,16,0,0,0,0,0,0,0,0,0,0,0,8,24,0,8,0,24,0,16,40,160,168,176,80,184,104,136,24,136,104,0,72,0,0,0,0,0,0,0,0,0,0,0,0
0,0,0,48,0,8,56,24,96,16,56,64,64,48,64,16,24,0,112,0,0,0,0,0,0,0,0,0,0,0,16,0,16,0,0,0,24,16,40,56,152,152,152,120,184,136,136,24,0,192,0,16,0,152,112,0,0,0,0,0,0,0,0,0
0,0,0,8,88,0,16,88,80,88,176,24,64,40,56,88,56,0,0,0,0,0,0,0,0,0,0,0,0,0,8,0,16,16,8,0,0,16,80,72,96,184,168,88,168,120,80,192,152,24,0,0,0,0,0,0,16,0,0,0,0,0,0,0
0,8,8,0,16,0,32,24,40,40,40,128,72,112,88,64,0,0,0,0,0,0,0,0,40,0,0,0,0,0,0,0,16,8,0,16,24,24,40,16,40,184,144,160,192,168,160,104,24,0,0,16,120,0,0,0,64,0,0,0,0,0,0,0
0,0,0,0,0,80,8,24,128,144,104,56,56,96,80,0,0,0,0,0,0,0,0,0,40,0,0,0,0,0,0,0,0,24,16,0,0,0,72,16,136,144,152,152,80,136,152,32,32,16,32,64,0,0,8,88,0,0,0,0,0,0,0,0
16,0,0,0,8,56,0,40,64,32,96,88,120,88,64,0,0,0,0,0,0,0,0,0,0,0,0,0,0,16,0,8,8,96,8,0,0,0,40,128,168,192,128,168,136,0,136,48,24,152,0,0,16,80,80,8,16,0,0,0,0,0,0,0
24,0,24,0,0,24,112,40,24,56,128,96,160,128,48,56,16,8,0,0,0,0,0,0,0,0,0,0,0,0,0,8,0,0,0,0,16,40,24,32,24,56,160,120,112,120,112,40,0,88,0,64,0,88,32,56,0,0,0,0,0,0,0,0
0,0,24,0,0,0,72,24,48,56,56,80,104,48,48,0,120,0,0,136,0,0,0,0,0,0,0,0,0,0,0,0,8,8,0,0,0,8,40,48,144,152,160,200,216,192,72,120,136,0,0,0,0,16,0,0,0,0,0,0,0,0,0,0
24,0,0,0,0,8,0,80,80,96,16,24,56,40,0,168,24,0,56,0,0,0,0,0,0,0,0,0,0,0,0,0,0,8,0,0,0,8,0,56,112,152,128,136,152,168,0,200,184,104,16,8,0,0,80,0,0,0,0,0,0,0,0,8
0,0,0,0,8,0,24,8,64,40,56,160,56,56,88,8,56,0,0,0,0,0,0,0,0,0,0,0,0,0,0,0,8,8,0,0,0,16,40,8,160,24,120,144,232,40,24,96,8,0,0,0,24,0,8,24,0,0,0,0,0,0,0,0
0,0,0,48,24,0,0,48,80,48,120,168,64,128,32,48,40,0,0,0,0,0,0,56,0,0,0,0,0,0,0,0,8,0,0,64,0,0,56,80,88,56,80,160,144,88,0,112,16,8,64,0,0,8,40,0,0,0,0,0,0,0,0,8
8,0,0,0,0,8,64,80,112,24,120,104,80,48,16,120,96,40,0,0,0,0,0,48,0,0,0,0,0,0,0,0,0,8,48,24,0,48,56,88,128,136,88,104,80,80,16,40,8,0,0,0,0,0,0,64,0,0,0,0,0,0,0,0
0,8,8,0,0,24,32,64,96,80,96,80,16,64,168,8,0,40,8,24,0,0,0,0,0,0,0,0,0,0,0,8,40,0,8,0,24,24,16,96,16,96,56,32,200,24,136,8,72,0,0,0,88,0,0,0,0,0,0,0,0,0,8,0
0,8,0,0,0,8,32,24,96,72,88,96,72,8,40,48,104,24,0,0,0,0,0,0,0,0,0,0,0,0,0,8,0,16,0,0,40,24,0,16,104,112,144,168,160,104,112,64,32,0,0,0,24,0,24,72,0,0,0,0,0,0,0,0
0,8,0,24,0,8,96,0,104,32,64,64,88,24,72,8,0,8,16,0,0,0,0,0,24,0,0,0,0,0,0,0,0,0,16,0,0,8,16,104,128,72,168,200,192,64,80,64,0,0,0,112,0,0,0,8,0,0,0,0,0,0,0,16
8,32,0,0,24,16,16,56,96,96,56,40,112,24,16,0,16,0,0,0,0,0,8,0,0,0,0,0,0,0,0,16,8,0,0,24,8,0,8,24,64,128,152,176,128,88,128,16,0,0,0,0,72,48,48,0,72,0,0,0,0,0,0,0
0,0,16,0,0,16,32,64,16,96,16,112,96,0,40,8,0,32,56,0,0,0,8,0,0,0,0,0,0,0,0,0,0,56,16,0,0,0,8,24,0,208,80,72,184,96,40,0,8,32,0,48,120,112,72,0,0,0,0,0,0,0,0,0
24,0,16,0,0,24,56,80,24,40,120,40,56,64,48,56,32,0,0,0,0,0,0,0,0,0,0,0,0,0,0,0,8,64,32,24,0,0,8,168,80,168,200,192,200,208,104,192,0,0,0,96,184,72,0,136,0,0,0,0,0,0,0,0
8,16,24,0,0,16,48,24,120,112,56,88,32,80,24,32,8,0,0,24,0,0,64,40,0,0,0,0,0,0,0,0,16,0,0,0,0,32,0,40,64,96,168,176,128,152,112,0,144,120,0,0,0,96,80,80,0,0,0,0,0,0,0,0
0,0,0,0,0,0,88,80,80,176,136,255,56,56,112,112,128,32,0,8,0,0,24,0,24,0,0,0,0,0,0,0,0,0,0,0,48,0,24,64,112,56,96,96,96,72,88,80,8,40,0,0,24,0,32,0,0,0,0,0,0,0,0,0
0,24,24,40,0,0,24,72,64,112,136,56,64,104,56,112,40,88,32,0,0,0,0,0,0,56,0,0,0,0,0,0,0,0,24,0,0,0,8,32,96,128,224,176,160,120,144,160,96,72,16,0,48,0,48,56,0,0,0,0,0,0,0,24
8,0,8,0,0,40,64,104,32,128,40,184,112,104,24,24,8,24,0,8,16,0,0,0,0,0,0,0,0,0,0,0,0,0,0,24,0,0,16,32,96,64,48,88,8,48,168,152,152,0,0,0,0,72,0,0,0,0,0,0,0,0,0,0
0,8,96,0,0,16,0,40,112,40,184,40,72,24,0,24,112,56,0,72,0,24,0,0,0,0,0,0,8,0,0,8,0,40,0,0,8,32,88,24,48,96,128,80,80,80,80,64,0,0,8,48,0,40,0,0,0,0,0,0,0,0,0,0
8,0,0,16,0,0,40,80,88,192,88,120,112,64,40,0,56,0,0,0,64,0,0,32,0,0,0,0,0,0,0,16,8,0,0,0,0,0,16,144,16,128,104,120,168,120,96,88,80,96,56,0,0,32,8,0,0,0,0,0,0,0,0,0
0,0,8,0,0,8,64,40,112,64,208,168,56,80,128,40,0,96,0,40,0,184,24,0,0,0,0,0,0,0,0,0,0,0,0,0,0,0,24,8,8,128,128,72,112,112,0,104,0,0,0,0,56,104,0,8,0,0,0,0,0,0,0,16
0,0,0,8,16,40,8,80,136,64,24,64,112,168,48,48,16,0,0,0,0,0,0,0,8,0,0,0,0,0,0,0,24,0,16,0,24,16,32,0,48,144,152,184,120,16,184,8,176,128,0,8,0,0,88,16,0,0,0,0,0,0,0,0
24,0,0,0,0,0,80,56,40,64,168,56,120,24,32,0,128,24,0,0,0,0,0,0,0,0,0,0,0,0,0,0,0,8,24,16,8,0,8,8,152,120,128,104,56,80,32,40,80,8,0,0,0,56,0,0,0,0,0,0,0,0,0,8
56,0,0,0,0,24,72,64,64,120,216,104,120,0,88,64,88,0,8,8,0,0,0,0,0,0,0,0,0,0,0,8,0,0,8,0,24,16,0,56,104,120,128,96,88,96,152,8,64,8,0,80,0,0,16,96,0,0,0,0,0,0,0,8
8,8,0,24,40,0,80,16,48,56,72,48,176,0,40,56,56,0,8,0,0,0,0,0,0,0,0,0,0,0,0,0,24,0,0,0,24,16,40,24,88,88,136,184,176,24,168,128,56,112,0,0,0,80,72,0,0,0,0,0,0,0,0,0
32,0,0,32,0,16,48,56,64,112,160,128,24,48,120,0,0,0,0,0,0,40,0,72,0,0,0,0,0,0,0,0,0,0,64,0,0,24,0,56,0,80,152,176,168,120,104,112,8,0,48,0,48,40,0,40,0,0,0,0,0,0,0,0
16,16,0,0,0,24,64,56,128,72,168,32,40,120,40,56,40,104,72,0,0,0,0,0,0,0,0,0,0,0,0,0,0,0,48,0,8,24,8,24,40,56,88,96,104,144,80,8,88,0,0,0,0,0,0,0,0,0,0,0,0,0,0,0
16,16,0,8,8,0,72,8,80,160,64,56,192,56,40,96,0,0,0,0,0,0,0,0,8,0,0,0,0,0,0,0,8,16,0,8,0,16,0,88,32,64,96,216,136,112,128,64,64,56,0,0,0,0,0,0,0,8,0,0,0,0,24,0
0,8,8,16,0,40,40,120,80,56,144,56,128,80,112,0,0,0,0,0,0,0,0,0,0,0,0,0,0,0,0,0,24,0,0,0,8,24,32,24,96,0,88,128,80,136,0,80,0,24,16,0,176,0,0,0,0,0,0,0,0,0,0,0
8,0,16,8,24,8,24,40,112,152,72,112,8,208,80,8,24,0,64,0,0,24,0,8,0,0,0,0,0,0,8,16,0,0,32,8,8,16,8,24,104,104,136,128,120,96,16,64,0,56,0,0,0,32,0,0,0,0,0,0,0,0,0,0
8,16,8,8,0,16,64,80,56,136,72,208,56,24,0,8,32,160,0,0,0,0,0,0,0,0,0,0,0,0,0,0,8,0,8,0,0,40,8,24,24,88,104,128,112,128,112,16,0,0,8,0,40,0,0,0,0,0,0,0,0,0,0,8
0,24,16,0,8,8,88,32,40,144,64,160,200,64,24,8,120,8,0,8,0,24,0,0,0,0,0,0,0,0,24,0,24,8,0,0,0,0,0,64,72,136,120,128,96,16,144,40,0,56,0,8,16,8,0,0,48,0,0,0,0,0,0,8
0,8,0,0,72,8,80,0,40,112,80,184,136,96,80,32,48,0,0,0,0,96,0,0,0,0,0,0,0,0,0,0,24,0,8,0,0,8,16,24,96,48,48,72,160,80,112,56,64,40,0,0,0,0,16,0,0,0,0,0,0,0,0,24
0,8,16,8,0,24,56,56,88,168,136,136,56,56,104,112,80,0,0,0,0,0,0,0,0,0,0,0,0,0,0,0,0,0,16,0,16,40,16,0,80,40,112,152,160,112,112,104,64,64,0,0,0,40,0,16,0,0,0,0,0,0,0,0
0,24,0,0,8,0,80,24,96,168,136,80,72,8,72,80,152,0,0,0,0,8,0,0,24,0,0,0,0,0,0,0,0,0,0,0,0,24,8,88,40,56,184,72,96,200,104,0,0,24,0,0,0,0,0,0,0,0,0,0,0,0,0,0
8,24,0,0,24,0,24,64,104,184,104,80,64,48,152,8,0,0,56,0,0,0,0,0,0,0,0,0,0,0,8,8,16,8,0,8,0,8,168,8,56,32,56,88,72,136,8,80,0,16,128,0,0,0,0,0,0,0,0,0,0,0,0,0
0,8,0,8,24,8,16,152,80,48,88,72,120,40,56,80,64,0,8,0,0,8,0,0,0,0,0,0,0,0,0,0,0,0,16,8,0,8,40,8,24,176,48,104,80,40,56,56,0,8,0,0,0,0,0,56,0,0,0,0,0,0,0,0
0,0,0,8,24,8,0,80,144,152,112,104,104,16,64,112,0,0,0,0,16,0,0,0,0,0,0,0,0,0,0,16,8,0,8,80,8,8,16,0,16,112,112,112,168,96,152,184,0,0,0,0,0,0,0,120,0,0,0,0,0,0,0,0
0,16,8,0,0,24,0,64,80,80,0,136,96,80,0,112,56,0,0,0,0,0,88,0,0,0,0,0,0,0,0,0,0,8,16,0,0,32,96,64,128,48,168,192,208,80,192,24,0,0,0,0,0,0,0,8,0,0,0,0,0,0,0,0
8,8,0,8,0,24,32,96,32,96,112,176,168,56,0,96,72,0,0,0,0,32,0,0,0,0,0,0,0,0,0,0,0,0,0,0,8,0,32,0,80,128,160,176,56,32,176,152,120,0,0,0,0,0,0,8,0,0,0,0,0,0,0,8
8,0,0,0,24,16,8,48,8,80,48,80,24,32,88,40,48,136,0,0,0,0,0,0,16,0,0,0,0,0,0,0,8,0,0,40,24,8,56,24,40,144,80,24,152,24,80,112,0,0,0,0,0,0,0,48,0,0,0,0,0,0,0,0
0,0,40,24,0,16,56,40,64,104,40,80,56,104,56,96,0,0,0,0,0,0,0,0,0,0,0,0,0,0,0,0,0,0,0,0,0,0,32,72,56,56,16,56,56,64,24,104,0,0,0,0,0,0,0,0,0,0,0,0,0,0,0,0
0,0,40,24,0,32,16,160,88,80,128,168,168,144,24,0,0,0,0,0,0,0,0,8,0,0,0,0,0,0,0,0,24,0,0,8,0,8,0,40,96,88,96,120,128,96,24,80,8,64,8,8,0,0,16,40,0,0,0,0,0,0,0,0
