0,0,6,12,0,6,24,42,24,30,48,72,36,36,0,0,0,18,0,6,0,0,0,0,0,0,0,0,0,0,0,6,0,0,0,0,0,72,12,18,24,12,24,6,18,12,6,24,0,0,0,0,0,0,0,0,0,0,0,0,0,0,0,0
0,6,0,0,0,6,30,24,6,48,18,84,78,36,72,0,0,18,0,0,0,0,0,0,0,0,0,0,0,0,0,24,0,0,0,0,66,0,48,12,42,84,30,42,24,6,30,0,0,0,0,0,0,0,0,0,0,0,0,0,0,0,0,0
0,0,0,0,6,0,0,6,12,18,42,42,30,6,36,36,0,18,0,0,0,0,0,0,0,0,0,0,0,0,0,0,6,0,0,0,0,42,6,0,12,6,24,18,18,18,0,0,0,0,0,30,0,0,0,0,0,0,0,0,0,0,0,0
0,0,0,0,12,6,0,18,30,60,42,42,48,30,0,24,0,0,0,6,0,0,0,0,0,0,0,0,0,0,0,0,0,6,0,0,18,0,0,12,72,18,36,60,30,36,0,0,0,0,24,0,0,0,0,0,0,0,0,0,0,0,0,0
0,0,0,0,24,0,0,18,18,6,48,12,54,18,54,0,48,0,6,0,18,0,0,0,0,0,0,0,0,0,0,0,0,0,0,0,6,0,0,66,18,0,60,30,18,6,0,0,18,0,0,12,0,12,12,0,0,0,0,0,0,0,0,0
0,6,0,0,0,30,0,24,6,18,42,60,42,6,0,72,0,0,0,0,0,0,0,30,0,0,0,0,0,0,0,0,0,0,0,12,0,0,12,0,0,30,78,0,30,6,0,0,0,0,0,0,0,0,0,0,0,0,0,0,0,0,0,0
0,0,0,6,0,0,0,6,60,66,24,54,0,48,66,18,0,0,0,6,0,0,6,0,0,0,0,0,0,0,0,0,0,0,6,0,6,0,24,6,54,6,48,0,30,0,18,6,12,0,0,0,0,0,0,0,0,0,0,0,0,0,0,0
0,0,0,0,0,12,36,0,60,6,24,42,48,54,24,6,0,12,0,18,0,0,0,0,0,0,0,0,0,0,0,0,0,0,0,0,18,0,0,96,12,6,48,24,6,24,48,0,0,0,0,0,0,0,0,0,0,0,0,0,0,0,0,0
0,0,0,0,0,0,24,42,42,48,42,12,78,66,30,48,6,0,0,12,0,0,24,0,0,0,0,0,0,0,0,24,0,6,18,0,78,0,6,48,24,18,84,0,0,0,0,0,12,30,0,0,0,0,0,0,0,0,0,0,0,0,0,0
6,6,0,0,6,0,0,24,12,42,42,18,30,42,12,36,18,0,0,0,18,0,0,0,30,0,0,0,0,0,6,0,0,0,0,0,6,0,0,30,0,24,36,30,12,18,30,18,0,0,0,0,0,0,0,0,12,0,0,0,0,0,0,0
6,0,0,0,0,0,0,42,42,12,66,12,42,90,12,12,42,54,12,0,0,0,66,0,0,0,0,0,0,0,6,0,0,0,0,0,0,6,24,36,6,6,72,36,30,6,6,114,6,6,0,0,0,6,18,0,0,0,0,0,0,0,0,0
0,0,0,0,6,0,18,6,36,54,30,48,54,24,36,0,48,48,0,0,0,0,0,0,0,0,0,0,0,0,0,0,0,0,0,0,0,0,0,6,0,0,30,60,0,6,30,18,0,6,0,0,0,0,0,0,0,0,0,0,0,0,0,0
0,0,6,0,0,0,0,18,12,42,48,24,18,0,30,84,0,6,18,0,42,0,0,0,0,0,0,0,0,0,0,0,0,6,0,0,0,0,0,6,60,138,6,18,12,24,12,6,6,18,18,0,0,18,0,0,6,0,0,0,0,0,0,0
0,0,0,0,6,6,12,48,36,42,12,36,42,48,48,42,0,0,0,0,0,0,0,0,0,0,0,0,0,0,0,0,6,0,0,0,0,0,42,18,6,60,6,66,78,18,12,18,0,0,6,0,0,0,0,0,0,0,0,0,0,0,0,0
6,0,0,0,0,0,12,12,60,60,54,30,6,42,48,12,66,12,0,0,0,36,0,6,0,0,0,0,0,0,0,0,0,0,0,0,6,24,6,6,6,78,18,48,60,30,12,0,0,0,12,30,0,0,0,0,0,0,0,0,0,0,0,0
0,0,0,0,0,0,0,12,12,48,66,36,78,72,54,0,30,18,0,0,12,0,0,0,0,0,0,0,0,0,0,0,6,0,0,0,0,0,54,24,36,18,0,36,30,18,54,0,0,0,0,0,0,0,0,0,0,0,0,0,0,0,0,0
0,0,0,0,0,6,36,12,18,30,42,24,24,72,12,24,0,0,6,0,6,0,42,12,0,0,0,0,0,0,0,0,0,0,0,0,0,48,0,42,0,18,6,54,24,36,12,6,0,0,0,0,0,0,0,18,0,0,0,0,0,0,0,0
0,0,12,0,0,12,6,6,48,60,6,18,66,42,30,18,0,60,0,0,0,0,0,18,0,0,0,0,0,0,0,0,24,0,0,0,0,0,0,30,42,6,12,24,30,6,18,12,0,0,0,0,36,0,0,0,0,0,0,0,0,0,0,0
0,0,0,0,24,0,6,6,30,42,42,18,60,6,18,78,18,36,24,24,0,6,0,0,0,0,0,0,0,0,0,0,0,0,42,0,0,0,24,0,0,36,18,18,30,0,12,24,54,12,0,0,0,0,0,0,0,0,0,0,0,0,0,0
0,0,0,0,0,0,6,0,48,54,42,42,42,96,12,42,0,0,0,6,0,0,0,0,0,0,0,0,0,0,0,0,0,0,12,18,0,0,30,48,42,18,42,18,18,48,0,0,0,0,0,0,0,0,0,0,0,0,0,0,0,0,0,6
0,0,0,0,0,6,6,12,24,30,48,96,84,30,0,60,54,0,0,0,0,0,0,0,30,0,0,0,0,0,0,0,0,0,0,0,0,0,6,18,36,42,12,18,36,0,6,30,0,0,0,0,0,0,0,0,12,0,0,0,0,0,0,0
0,0,0,0,0,0,24,12,30,12,54,54,84,60,12,54,18,0,0,0,18,6,0,0,24,0,0,0,0,0,0,0,0,6,24,0,0,6,0,42,12,18,30,12,18,48,0,0,42,0,0,0,0,0,0,0,0,0,0,0,0,0,0,0
0,0,0,12,0,30,6,24,42,12,66,30,48,18,54,18,0,0,24,0,0,0,0,0,96,0,0,0,0,0,0,0,0,0,0,6,30,0,6,72,18,84,30,18,36,48,6,0,6,48,0,0,0,0,0,12,0,0,0,0,0,0,0,0
0,6,6,0,0,0,18,12,18,36,60,78,42,0,72,48,24,0,30,0,0,0,0,18,0,0,0,0,0,0,0,0,0,0,0,0,0,0,0,24,6,36,12,48,12,0,48,0,0,0,0,0,0,0,0,0,0,0,0,0,0,0,0,0
0,0,0,0,0,24,0,48,12,42,6,42,48,84,24,36,0,0,0,0,0,0,0,24,6,0,0,0,0,0,0,0,0,0,0,0,0,6,0,54,12,12,6,96,12,48,84,24,0,6,6,0,0,0,0,0,0,0,0,0,0,0,0,0
0,0,18,0,6,0,0,18,12,48,72,12,48,54,6,48,0,0,0,0,0,18,0,0,0,0,0,0,0,0,0,0,0,0,24,0,0,0,0,18,18,6,36,24,0,6,18,18,0,0,0,0,0,0,0,0,0,0,0,0,0,0,0,0
0,0,6,0,0,6,0,18,42,18,60,24,36,54,0,48,6,6,0,18,0,0,6,0,0,0,0,0,0,0,0,0,12,0,0,0,6,0,42,18,42,18,36,48,36,18,0,0,48,6,0,0,0,0,0,0,0,0,0,0,0,0,0,0
6,0,12,12,12,0,12,30,12,48,90,54,36,24,18,12,30,0,0,84,0,0,48,0,12,0,0,0,0,0,0,0,0,0,0,0,6,0,30,6,6,12,66,48,12,6,0,0,30,18,0,0,0,0,0,0,0,0,0,0,0,0,0,0
0,0,18,0,0,12,12,18,72,42,54,48,48,84,6,66,18,0,0,0,0,0,0,6,6,0,0,0,0,0,0,0,0,0,0,24,0,0,30,0,24,12,48,18,0,12,66,12,0,0,0,0,0,0,0,0,6,0,0,0,0,0,0,0
0,6,0,0,24,0,6,36,30,36,102,30,0,42,36,48,42,18,0,0,0,12,0,0,0,0,0,0,0,0,0,0,0,0,0,0,12,84,42,36,12,18,6,18,66,24,42,0,0,0,0,0,0,0,0,0,0,0,0,0,0,0,0,0
0,0,0,0,0,6,30,18,12,24,42,42,72,42,6,6,18,6,0,0,0,0,0,0,0,0,0,0,0,0,0,0,0,0,0,0,0,12,6,12,96,30,0,18,18,6,6,6,0,0,0,0,0,0,0,12,0,0,0,0,0,0,0,0
0,6,0,0,0,0,0,42,30,18,36,54,60,18,48,96,18,0,0,0,0,0,0,0,6,0,0,0,0,0,0,0,0,0,18,0,0,0,6,60,6,12,12,60,36,18,60,0,6,6,0,0,0,0,0,0,0,0,0,0,0,0,0,0
0,0,0,0,0,6,6,12,18,54,36,90,84,54,48,30,6,24,0,0,0,0,0,0,0,0,0,0,0,0,0,0,0,0,0,0,0,12,6,6,18,12,30,6,0,144,0,0,0,0,0,0,0,0,0,0,0,0,0,0,0,0,0,0
0,0,0,24,0,6,0,0,36,42,42,6,24,6,36,18,66,0,6,0,0,0,18,0,0,0,0,0,0,0,0,6,0,0,0,0,0,0,36,54,30,18,42,36,18,0,30,12,0,0,0,12,0,6,0,0,0,0,0,0,0,0,0,0
0,0,0,0,18,12,0,30,24,84,60,48,30,48,66,48,42,18,0,0,0,0,0,30,0,0,0,0,0,0,0,6,0,0,0,0,0,30,72,24,18,66,36,48,42,36,0,0,0,0,0,0,0,0,0,0,0,0,0,0,0,0,0,0
0,0,0,0,0,0,12,30,18,30,36,30,30,0,72,66,0,0,0,0,0,0,30,0,0,30,0,0,0,0,0,0,0,0,0,0,0,0,24,6,54,18,48,42,18,36,6,18,0,0,0,0,0,0,0,0,0,0,0,0,0,0,0,0
0,0,6,0,0,6,30,30,30,84,30,66,42,0,36,72,0,12,36,0,0,0,0,0,0,0,0,0,0,0,0,0,0,0,0,0,6,18,6,42,72,6,24,36,6,0,36,0,0,0,0,0,0,0,0,0,0,0,0,0,0,0,0,0
12,0,0,0,0,6,0,12,42,18,30,24,42,24,24,42,0,0,0,0,0,0,0,6,0,0,0,0,0,0,0,0,0,0,0,0,0,6,90,0,12,18,12,0,30,48,60,0,0,0,12,0,0,0,0,0,0,0,0,0,0,0,0,0
0,12,0,0,0,18,6,36,30,30,18,24,24,36,36,72,6,0,0,6,0,0,0,0,18,0,0,0,0,0,0,0,0,18,0,36,0,6,12,78,54,18,36,60,12,6,0,0,12,0,0,0,0,0,0,0,0,0,0,0,0,0,0,0
6,0,0,0,0,6,6,0,48,66,30,42,54,90,6,42,0,0,18,0,0,0,0,24,0,0,0,0,0,0,0,0,0,0,0,0,36,0,18,18,18,6,48,42,6,18,30,0,30,0,0,0,0,0,12,0,0,18,0,0,0,0,0,0
0,0,0,6,18,0,6,6,18,60,54,42,72,42,48,0,0,0,6,0,0,0,0,0,6,0,0,0,0,0,0,0,0,0,0,0,0,30,24,0,36,18,24,42,18,0,30,0,0,0,0,0,0,0,0,0,0,0,0,0,0,0,0,0
0,0,0,0,0,18,12,36,72,0,42,48,96,72,30,18,0,54,18,0,0,0,36,0,0,0,0,0,0,0,0,0,6,0,0,0,18,6,0,6,30,6,36,54,12,60,12,24,6,0,0,0,0,0,0,6,0,0,0,0,0,0,0,0
0,0,0,0,0,0,0,12,30,36,18,36,30,30,72,0,0,30,0,0,0,0,0,0,0,0,0,0,0,0,0,0,0,0,0,6,6,6,6,0,72,24,12,24,42,48,6,6,0,0,0,0,0,0,0,18,0,0,0,0,0,0,0,0
0,0,0,0,18,0,12,18,6,36,30,18,42,78,84,0,30,48,24,0,0,0,18,12,6,0,0,0,0,0,0,0,6,0,12,18,0,6,6,6,0,84,84,90,30,66,0,12,0,0,0,0,0,0,0,0,0,0,0,0,0,0,0,0
0,0,0,0,0,0,6,102,6,48,42,30,60,48,36,42,0,72,0,0,0,0,36,0,0,0,0,0,0,0,0,0,0,0,0,0,0,0,42,18,6,66,24,36,12,24,24,0,6,18,0,0,0,0,0,0,0,0,0,0,0,0,0,0
0,0,0,0,6,18,0,6,48,48,72,42,36,12,0,6,24,0,0,12,0,0,0,0,0,0,0,0,0,0,0,0,30,0,0,0,0,12,6,0,18,0,12,48,84,6,0,0,24,0,0,0,0,0,0,0,0,0,0,0,0,0,0,0
0,0,6,0,0,6,12,6,72,54,78,24,42,6,90,54,0,30,0,0,0,0,6,0,6,0,0,0,0,0,0,6,0,0,0,18,0,0,18,96,6,48,30,30,30,84,0,0,0,0,0,0,0,0,30,0,6,0,0,0,0,0,0,0
0,0,6,0,6,36,18,12,24,48,30,96,12,78,84,54,0,0,0,0,0,0,0,0,0,0,0,0,0,0,0,0,6,12,0,6,0,6,6,60,24,36,18,42,48,0,0,30,6,0,12,0,0,0,0,0,0,0,0,0,0,0,0,0
0,0,6,0,0,0,6,18,24,48,36,48,48,24,72,6,12,0,0,0,54,0,0,0,0,6,0,0,0,0,6,0,0,0,0,12,0,0,0,18,18,6,30,18,36,18,0,36,0,0,0,0,0,0,0,0,0,0,0,0,0,0,0,0
0,6,0,24,0,0,12,18,72,30,72,30,36,66,30,42,6,0,0,0,24,0,0,30,0,0,0,0,0,0,0,0,30,0,0,0,0,6,0,72,0,42,6,66,36,6,12,0,0,0,0,0,0,0,0,0,0,0,0,0,0,0,0,0
