0,0,0,0,0,0,0,1,4,13,5,5,7,6,5,0,1,0,0,0,0,0,4,0,0,0,0,0,0,0,0,0,0,0,0,0,0,0,1,2,1,8,1,9,2,4,1,1,0,0,0,0,0,0,0,0,0,0,0,0,0,0,0,0
0,0,0,0,0,0,2,0,4,0,12,2,8,1,3,17,3,7,0,0,0,0,0,0,0,0,0,0,0,0,0,0,0,0,0,0,0,0,0,4,3,8,5,3,14,1,7,4,1,0,0,0,0,0,0,0,0,0,0,0,0,0,0,0
0,0,0,0,0,1,3,1,3,4,8,3,11,9,6,0,7,0,8,0,0,0,3,0,0,0,0,0,0,0,0,0,0,0,0,0,0,2,0,0,1,4,1,6,14,13,1,0,4,0,0,0,0,0,0,1,0,0,0,0,0,0,0,0
0,0,0,1,1,0,2,5,1,3,11,7,10,11,10,1,0,1,0,0,1,4,0,0,0,0,0,0,0,0,0,0,0,0,1,0,0,0,0,3,1,5,4,7,2,6,10,1,0,0,1,4,1,0,0,0,0,0,0,0,0,0,0,0
0,0,0,0,1,0,3,2,4,4,4,2,7,6,0,9,0,0,0,0,0,0,0,3,0,0,0,0,0,0,0,0,0,0,0,0,0,0,0,2,3,2,5,11,12,0,1,4,0,0,1,0,0,0,0,1,0,0,0,0,0,0,0,0
0,0,0,0,0,1,2,0,4,6,8,10,3,5,9,3,3,5,0,1,0,0,0,0,0,0,0,0,0,0,0,0,0,0,0,0,0,0,0,0,1,4,7,2,6,2,3,0,5,0,0,3,0,0,2,0,0,0,0,0,0,0,0,0
0,0,0,0,0,1,1,3,1,6,5,12,5,11,14,5,5,0,0,0,8,0,0,0,0,0,0,0,0,0,0,0,0,0,0,0,0,7,0,0,3,7,1,7,2,4,1,4,12,0,0,0,1,0,0,0,0,0,0,0,0,0,0,0
0,0,0,2,0,0,2,2,1,8,8,5,6,3,1,10,0,0,8,0,0,0,0,0,0,0,0,0,0,0,0,0,0,0,0,0,0,0,3,3,1,1,8,1,0,3,8,0,0,1,0,11,2,0,1,0,0,0,0,0,0,0,0,0
0,0,0,0,0,1,0,0,6,5,6,8,2,6,1,0,0,0,0,16,0,0,0,0,0,0,0,0,0,0,0,0,0,0,0,0,0,0,1,0,3,5,5,14,3,2,0,7,0,3,0,0,0,0,0,0,3,0,0,0,0,0,0,0
0,0,0,0,0,0,3,0,3,4,6,12,10,11,7,5,0,1,0,0,0,0,0,0,0,0,0,0,0,0,0,0,0,0,1,1,0,0,0,1,12,4,16,3,1,8,3,1,0,0,0,4,0,0,1,0,0,0,0,0,0,0,0,0
0,0,0,0,1,0,5,1,6,3,3,2,19,6,18,0,1,0,0,0,0,0,0,0,1,0,0,0,0,0,0,0,0,0,0,0,0,0,1,5,4,3,16,9,1,10,0,4,0,0,0,0,0,0,0,0,0,0,0,0,0,0,0,0
0,0,0,0,1,0,0,2,5,4,7,7,3,7,3,1,3,0,0,6,0,0,0,0,1,0,0,0,0,0,0,0,0,0,0,0,0,0,1,1,1,1,5,6,4,2,0,11,0,10,0,0,0,0,0,0,0,0,1,0,0,0,0,0
0,0,0,0,0,0,0,0,13,7,2,1,0,10,7,5,4,0,0,0,0,0,0,1,1,0,0,0,0,0,0,0,0,0,0,1,0,0,0,2,0,2,13,8,3,0,5,0,0,0,3,0,0,0,0,0,0,0,0,0,0,0,0,0
0,0,0,0,0,0,1,2,2,10,3,10,8,2,7,3,0,0,0,0,6,0,0,0,0,0,0,0,0,0,0,0,0,0,0,1,0,0,1,5,4,10,4,13,4,14,0,8,2,0,0,4,0,0,9,0,0,0,0,0,0,0,0,0
0,0,0,0,0,0,2,0,2,5,3,4,9,1,12,0,0,0,0,0,0,3,0,0,0,0,0,0,0,0,0,0,0,0,0,0,0,0,2,1,4,5,7,1,17,6,0,0,10,0,0,0,0,0,7,0,0,1,0,0,0,0,0,0
0,0,0,0,0,0,0,2,5,6,7,1,5,11,0,7,5,7,0,0,0,0,0,0,1,0,0,0,0,0,0,0,0,0,0,0,0,0,0,1,3,0,10,2,7,1,12,1,3,0,0,0,0,0,0,0,0,0,0,0,0,0,0,0
0,0,0,0,0,0,1,2,3,6,5,10,7,1,1,13,0,1,0,0,0,0,0,0,0,0,0,0,0,0,0,0,0,0,0,0,0,1,0,1,5,2,3,10,1,5,19,0,1,0,0,0,5,4,0,0,0,0,0,0,0,0,0,0
0,0,0,0,0,5,0,3,1,10,7,8,1,3,3,5,0,0,0,3,1,7,0,0,0,0,0,0,0,0,0,0,0,0,0,0,0,0,1,2,3,5,2,8,7,17,5,3,1,8,0,0,0,0,0,0,0,0,0,0,0,0,0,0
0,0,0,0,0,0,1,2,1,3,3,6,14,5,2,0,5,1,0,0,0,0,1,3,0,0,0,0,0,0,0,0,0,0,0,0,0,0,0,0,4,12,4,1,12,8,4,1,0,3,0,1,0,0,0,0,0,0,0,0,0,0,0,0
0,0,0,0,0,3,0,3,0,4,6,2,3,3,11,11,0,10,0,1,0,0,0,4,0,0,0,0,0,0,0,0,0,0,0,0,0,0,0,3,3,2,4,3,3,4,1,10,0,0,0,0,0,0,0,0,6,1,0,0,0,0,0,0
0,0,0,0,0,0,0,1,4,4,3,7,4,10,0,3,0,0,2,0,0,0,0,0,0,0,0,0,0,0,0,0,0,1,0,0,1,0,0,0,1,0,3,0,13,5,12,5,0,0,0,0,3,1,0,0,0,0,0,0,0,0,0,0
0,0,0,3,0,0,6,2,0,5,9,4,7,9,1,14,2,0,0,0,0,0,1,1,0,0,0,0,0,0,0,0,0,0,0,0,0,1,5,0,1,6,1,4,16,10,13,0,0,0,0,0,0,0,0,0,0,0,0,0,0,0,0,0
0,0,0,0,0,0,3,5,4,7,7,2,3,9,4,8,9,7,0,0,0,2,0,0,0,0,0,0,0,0,0,0,1,0,0,0,0,1,0,2,9,7,1,11,0,8,3,0,1,0,0,0,0,0,0,1,3,0,0,0,0,0,0,0
0,0,0,0,0,0,1,6,7,3,7,6,5,4,4,1,3,0,0,0,0,0,0,0,0,0,0,0,0,0,0,0,0,0,0,0,0,0,1,0,4,2,10,3,5,4,1,2,0,0,1,0,0,0,0,0,0,0,0,0,0,0,0,0
0,0,0,0,1,0,2,4,0,8,5,10,7,10,5,0,7,0,0,0,1,0,0,0,0,0,0,0,0,0,0,0,0,0,0,0,0,0,0,1,5,6,0,5,6,2,0,2,0,0,0,0,0,0,0,0,0,0,0,0,0,0,0,0
0,1,0,0,1,0,0,1,4,3,8,19,10,10,8,0,6,0,0,0,7,0,0,0,0,0,0,0,0,0,0,0,0,0,0,0,0,2,0,1,1,0,1,2,3,1,5,6,0,0,3,0,0,0,0,0,0,0,0,0,0,0,0,0
0,0,0,0,0,0,4,0,5,2,8,11,5,5,0,2,5,12,3,0,0,0,0,10,0,0,0,0,0,0,0,0,0,0,0,0,0,0,2,0,0,9,1,3,1,8,5,12,1,0,0,0,0,0,0,0,0,0,0,0,0,0,0,0
0,0,0,0,0,0,0,2,2,5,2,13,2,1,3,2,10,0,4,0,0,1,0,1,0,0,0,0,0,0,0,0,0,0,0,0,0,0,0,1,3,4,4,1,3,2,4,1,0,0,0,0,0,0,6,0,0,0,0,0,0,0,0,0
0,0,0,0,0,1,0,4,2,1,7,1,6,3,2,0,2,0,0,0,0,7,0,0,0,0,0,0,0,0,0,0,0,0,1,0,0,0,1,0,1,0,2,1,2,0,14,3,0,3,0,0,0,0,0,0,2,0,0,0,0,0,0,0
0,0,1,0,2,0,0,2,0,9,2,7,10,4,6,3,8,0,0,0,0,0,0,0,0,0,0,0,0,0,0,0,0,0,0,0,1,0,0,2,1,9,3,3,0,8,0,1,3,0,0,0,0,0,0,0,0,0,0,0,0,0,0,0
0,0,0,0,0,0,2,0,3,9,14,3,6,4,7,0,2,0,0,0,2,3,0,0,0,0,0,0,0,0,0,0,0,0,0,0,0,0,0,0,4,4,1,3,8,7,0,2,0,0,0,0,0,0,0,0,0,0,0,0,0,0,0,0
0,0,0,0,0,1,5,1,6,5,12,9,3,14,2,1,0,0,0,0,0,2,0,0,0,0,0,0,0,0,0,0,0,0,0,0,0,0,2,5,4,6,9,3,10,1,6,0,0,0,0,0,0,0,0,0,0,0,0,0,0,0,0,0
1,0,0,0,1,0,2,5,2,8,7,3,10,10,0,0,4,0,0,0,0,0,0,0,0,0,0,0,0,0,0,0,0,0,0,0,1,0,1,0,3,2,5,4,6,0,7,0,0,0,7,0,0,0,0,7,0,0,0,0,0,0,0,0
0,0,1,0,0,0,0,0,8,1,12,7,7,1,3,7,0,14,0,1,0,0,0,0,0,0,1,0,0,0,0,0,0,0,0,0,0,0,4,3,8,0,1,7,9,0,1,0,0,0,0,0,0,0,0,0,0,0,0,0,0,0,0,0
1,0,3,0,0,1,3,4,5,5,4,1,4,2,1,0,0,0,3,0,2,0,0,0,0,0,0,0,0,0,0,0,0,0,0,0,0,0,2,2,3,3,0,0,0,1,0,0,1,0,0,0,0,0,0,0,0,0,0,0,0,0,0,0
0,0,0,0,0,0,0,1,3,5,5,6,7,2,13,0,0,0,2,0,0,0,0,0,0,0,0,0,0,0,0,0,0,0,0,0,0,0,1,2,5,1,0,3,8,4,0,1,3,0,0,0,0,0,0,0,0,0,0,0,0,0,0,0
0,0,0,0,0,0,1,1,3,1,3,2,1,18,3,5,4,0,0,0,0,0,2,0,0,0,0,0,0,0,0,0,0,0,0,0,0,0,0,0,0,3,3,1,2,6,1,1,0,0,0,0,0,1,0,0,0,0,0,0,0,0,0,0
0,0,1,0,1,2,0,6,5,6,10,5,5,9,2,3,6,0,4,0,0,0,0,0,0,0,0,0,0,0,0,0,0,0,0,1,0,0,0,2,2,3,1,3,1,0,0,10,7,2,0,0,0,0,0,0,0,0,0,0,0,0,0,0
0,0,0,0,0,2,1,6,0,6,9,1,3,7,15,0,1,0,1,1,0,0,0,0,0,0,0,0,0,0,0,0,0,0,0,0,0,0,3,1,2,4,0,3,2,11,12,1,0,0,0,1,0,0,0,1,0,0,0,0,0,0,0,0
0,0,0,0,0,0,0,2,0,10,5,5,7,0,5,2,10,0,1,0,0,0,3,0,0,0,0,0,0,0,0,0,0,0,0,0,0,0,0,2,6,7,7,11,2,17,1,2,0,0,0,0,1,0,0,0,0,0,0,0,0,0,0,0
0,0,0,0,0,0,1,0,5,3,7,2,15,8,11,3,11,1,0,0,0,0,0,5,4,0,0,0,0,0,0,0,1,0,0,1,0,0,3,1,1,5,3,4,10,6,5,3,0,0,0,3,0,0,11,0,0,0,0,0,0,0,0,0
0,0,0,1,0,0,0,2,1,1,9,4,5,6,7,8,5,0,0,0,0,0,1,0,2,0,0,0,0,0,0,0,0,0,0,0,3,0,1,3,1,1,5,5,1,10,10,13,7,1,0,0,0,0,0,0,0,0,0,0,0,0,0,0
0,0,1,0,1,0,2,0,3,12,3,3,3,3,0,10,8,4,3,5,0,0,0,0,0,0,0,0,0,0,0,0,0,0,1,0,0,0,2,1,4,3,7,8,1,2,0,8,0,0,0,0,0,0,1,0,0,0,0,0,0,0,0,0
0,0,0,1,0,0,1,1,4,4,14,3,2,9,5,5,0,1,0,0,0,6,0,0,0,0,0,0,0,0,0,0,0,0,0,0,0,0,0,1,5,1,1,5,5,3,1,18,15,0,0,0,0,0,0,0,0,0,0,0,0,0,0,0
0,0,0,0,1,0,0,1,5,4,10,3,17,7,3,2,0,8,0,0,0,0,0,0,0,0,0,0,0,0,0,0,0,0,0,0,0,0,0,1,7,3,5,12,4,2,0,0,0,0,0,0,8,0,0,0,0,0,0,0,0,0,0,0
0,0,0,1,0,0,0,5,10,8,5,16,12,1,4,4,0,0,0,0,0,2,0,0,0,0,0,0,0,0,0,0,0,0,0,0,0,0,8,0,6,3,5,10,7,5,8,0,5,0,1,0,0,0,0,0,0,3,0,0,0,0,0,0
0,1,0,0,0,1,3,3,0,3,10,5,4,13,6,0,0,0,0,0,0,0,3,0,0,0,0,0,0,0,0,0,0,0,0,0,1,0,0,5,7,5,0,3,2,5,8,2,0,0,0,3,0,0,0,0,0,0,0,0,0,0,0,0
0,0,0,1,0,0,0,1,0,7,8,1,9,5,1,7,0,0,19,0,0,0,0,2,0,0,0,0,0,0,0,0,0,0,0,0,0,0,0,2,7,3,3,4,0,7,3,10,14,0,1,0,0,0,0,0,0,0,0,0,0,0,0,0
0,0,0,1,0,1,0,7,1,9,2,3,3,4,10,3,2,0,0,0,0,0,0,0,0,1,0,0,0,0,0,0,0,0,0,2,0,0,0,0,4,4,3,8,4,10,6,0,0,0,5,0,0,0,0,0,1,0,0,0,0,0,0,0
0,0,0,0,0,0,1,0,7,5,4,16,7,1,7,8,15,0,0,0,0,0,10,0,0,0,0,0,0,0,0,0,0,0,0,0,0,1,3,1,4,9,2,8,5,3,5,7,0,0,8,0,0,0,0,0,0,0,0,0,0,0,0,0
