5,45,5,50,60,50,60,60,45,50,60,45,50,35,35,50,40,35,35,35,25,25,40,25,25,15,0,0,15,50,0,0,0,0,0,0,0,0,0,80,0,0,0,0,0,0,0,0,0,0,0,0,0,0,0,0,0,0,0,0,0,70,5,60
5,50,5,65,10,70,75,65,60,60,55,45,35,45,30,40,40,35,35,35,40,35,45,40,35,0,0,0,15,0,50,0,0,0,0,0,0,0,0,100,0,0,0,0,0,0,0,0,0,0,0,0,0,0,0,0,0,0,0,0,0,40,60,60
55,5,5,60,70,65,50,60,65,70,50,50,45,50,35,40,40,25,35,35,30,35,35,25,25,0,15,15,0,60,0,0,0,0,0,0,0,0,0,65,0,0,0,0,0,0,0,0,0,0,0,0,0,0,0,0,0,0,0,0,0,50,50,60
50,0,5,60,55,60,45,70,65,70,65,45,35,50,35,45,30,30,25,35,35,25,30,30,35,20,0,0,15,0,50,0,0,0,0,5,0,0,0,60,0,0,15,0,0,0,0,0,0,5,15,0,0,0,0,0,0,0,0,0,0,5,50,50
60,5,5,5,60,60,55,70,45,50,45,55,50,40,40,40,45,25,35,30,35,35,35,35,35,0,15,0,15,55,0,0,0,0,0,0,0,0,0,65,0,5,0,0,0,0,0,0,0,0,0,0,0,0,0,0,0,0,0,0,0,65,60,0
50,30,5,40,5,55,55,70,60,65,50,50,30,50,35,35,30,30,30,30,30,40,30,35,30,20,20,0,0,15,0,0,0,0,0,0,0,0,0,0,25,0,0,0,0,0,50,0,0,0,0,0,0,0,0,0,0,0,0,0,0,0,45,65
50,5,5,65,70,70,50,55,65,45,55,50,45,35,40,40,40,40,30,25,25,25,25,30,30,0,0,0,0,15,50,0,0,0,0,0,0,5,0,0,30,0,0,0,0,0,0,0,0,0,0,0,0,0,0,0,0,0,0,0,0,55,35,60
50,10,10,60,50,55,55,60,60,55,50,55,55,40,40,35,30,35,30,25,25,25,25,0,30,35,10,0,15,50,0,0,0,0,0,0,0,0,0,35,0,0,0,0,0,0,40,0,0,0,0,0,0,0,0,0,0,0,0,0,0,45,50,50
5,10,5,5,60,55,55,70,70,75,60,60,50,50,45,40,30,30,30,25,30,30,30,30,30,0,15,0,15,0,50,0,15,0,0,0,0,0,35,0,0,0,0,0,0,0,0,0,0,0,0,0,0,0,0,0,0,0,0,0,40,0,60,60
10,5,10,60,50,65,45,65,70,50,50,50,40,40,50,35,35,30,25,35,30,30,25,25,10,0,25,0,20,45,0,0,0,0,0,0,0,0,60,0,0,0,0,0,0,0,0,0,0,0,0,0,0,0,0,0,0,0,0,0,0,50,40,55
10,20,50,65,5,55,55,65,65,60,50,40,60,45,35,45,35,30,45,35,40,40,30,40,30,0,0,15,0,55,0,0,0,0,0,0,0,0,0,35,0,0,5,0,0,0,0,0,0,0,0,0,0,0,0,0,0,0,0,0,25,0,80,75
55,5,5,70,5,35,45,60,65,60,60,50,50,35,35,35,45,30,35,30,25,30,30,25,30,15,0,0,15,0,50,0,0,0,0,0,0,0,0,0,90,0,0,0,0,0,0,0,0,0,0,0,0,0,0,0,0,0,0,0,0,60,85,65
5,5,55,5,55,60,70,70,70,45,60,40,50,30,30,35,30,35,30,25,30,35,30,30,25,0,15,0,55,15,0,0,0,0,0,0,0,0,45,0,0,0,0,0,0,0,0,0,0,0,0,0,0,0,0,0,0,0,0,0,5,0,60,45
5,65,5,5,60,70,65,65,50,70,50,55,55,35,30,25,30,25,30,35,25,30,30,30,30,0,0,0,20,50,0,0,0,0,5,0,0,40,0,0,0,0,10,0,0,0,0,0,0,0,0,0,0,0,0,0,0,0,0,0,0,70,5,55
60,5,5,60,5,60,45,55,65,55,50,60,45,40,40,40,30,30,40,30,35,35,25,35,30,15,0,0,15,55,0,0,0,0,0,0,0,0,35,0,0,0,10,0,0,0,0,0,0,0,0,0,0,0,0,0,0,0,0,0,0,65,60,55
5,70,70,5,45,50,50,60,65,45,55,65,60,40,45,40,40,35,40,40,35,40,35,35,30,20,0,0,15,60,0,0,0,0,0,0,0,0,30,0,0,0,0,5,0,0,0,0,0,0,0,0,0,0,0,0,0,0,0,0,0,5,70,70
55,10,5,80,70,70,60,70,50,60,50,70,45,50,30,40,25,35,35,30,35,30,35,35,30,15,0,20,0,0,60,0,0,0,0,0,0,0,30,0,5,0,0,0,0,0,0,0,0,0,0,0,0,0,0,0,0,0,0,65,0,0,0,65
60,70,10,5,65,55,50,65,50,65,50,45,55,35,50,40,30,30,35,30,35,35,30,30,30,25,0,10,15,0,50,0,0,0,0,0,0,0,0,0,65,0,0,0,0,0,0,0,0,0,0,0,0,0,0,0,0,0,0,0,0,0,5,65
60,75,5,65,5,10,50,50,55,60,60,60,50,65,55,55,50,30,35,30,35,25,35,30,25,25,35,0,15,0,0,45,0,0,0,0,0,0,0,0,10,0,0,0,0,0,5,0,0,0,0,0,0,0,0,0,0,0,0,0,0,0,5,65
5,60,5,55,65,75,75,25,70,65,45,65,50,35,40,35,50,35,30,35,25,25,25,30,15,25,0,0,5,60,0,0,0,0,5,0,0,0,5,40,5,25,0,0,0,0,0,205,0,0,0,0,0,0,0,0,0,0,0,0,0,40,30,65
70,55,5,10,65,70,70,55,65,55,50,65,45,35,45,30,35,35,35,35,30,35,35,35,25,15,0,0,20,0,50,0,0,5,0,0,0,0,0,10,0,0,0,0,0,0,0,0,0,0,0,0,0,0,0,0,0,0,0,0,0,5,60,55
60,70,5,65,45,10,50,60,65,50,50,50,45,50,45,40,40,35,35,35,30,40,40,35,35,20,0,15,0,50,0,0,0,0,5,0,0,50,0,0,0,0,0,5,0,0,0,0,0,0,0,0,0,0,0,0,0,0,0,0,0,5,45,80
70,5,5,60,5,65,50,55,50,50,65,55,45,35,40,35,35,40,30,25,30,25,30,30,30,15,0,0,55,15,0,0,0,0,0,0,0,0,0,0,5,0,0,0,0,0,0,0,0,0,0,0,0,0,0,0,0,0,0,0,0,30,60,50
5,5,45,50,5,55,45,65,50,50,55,40,45,40,35,35,35,40,25,35,55,30,25,30,20,20,5,0,20,50,0,0,0,0,0,0,0,0,0,70,5,0,0,0,0,0,0,0,0,0,0,0,0,0,0,0,0,0,0,0,0,40,35,25
5,55,5,10,60,60,55,75,80,50,50,50,45,50,40,30,30,30,25,25,25,25,30,25,25,0,15,0,15,50,0,0,0,0,0,25,0,0,0,5,0,0,15,0,0,0,0,0,0,0,0,0,0,0,0,0,0,0,0,0,45,0,50,45
55,60,5,50,5,55,45,65,50,50,55,55,55,45,40,30,25,25,25,30,25,30,25,25,25,20,0,0,15,0,60,0,0,0,0,0,0,0,0,5,70,0,5,30,0,5,0,0,0,0,0,0,0,0,0,0,0,0,0,0,25,0,55,50
5,75,5,65,55,5,50,75,60,60,50,40,55,30,35,35,35,30,30,30,25,35,25,30,25,10,0,0,15,0,55,0,0,0,0,10,0,40,0,0,0,0,0,0,0,0,0,0,0,0,0,0,0,0,0,0,0,0,0,0,0,0,60,25
55,60,60,5,60,5,45,45,65,60,50,45,55,50,45,35,25,30,30,30,30,25,25,25,25,25,0,15,0,50,0,20,0,0,0,0,10,0,0,35,0,0,0,0,0,0,0,0,0,0,0,0,0,0,0,0,0,0,0,0,0,0,5,60
65,5,5,50,10,45,55,65,50,60,50,70,50,35,35,40,30,30,30,30,20,25,25,35,20,10,0,0,0,20,0,0,0,0,0,0,0,0,50,0,0,0,0,0,0,0,0,0,0,0,0,0,0,0,0,0,0,0,0,0,0,30,60,50
5,60,5,5,55,65,80,80,65,50,55,75,50,40,35,35,35,25,25,35,30,20,30,25,20,10,0,15,0,60,0,0,0,0,0,0,0,0,0,0,0,0,0,0,0,0,0,0,0,0,0,0,0,0,0,0,0,0,0,0,0,65,55,10
70,5,65,55,15,65,80,60,65,70,55,50,35,40,35,25,30,30,30,35,30,35,35,30,20,15,0,0,15,55,0,0,0,0,0,0,0,0,40,0,5,0,0,0,0,0,0,0,0,0,0,0,0,0,0,0,0,0,0,0,0,25,65,50
55,5,5,5,70,55,80,65,75,70,45,50,35,35,30,30,35,25,25,30,25,25,35,30,25,25,0,0,20,0,0,0,0,0,0,0,0,0,30,0,0,0,0,0,5,0,0,0,0,0,0,0,0,0,0,0,0,0,0,0,50,0,5,0
55,5,5,5,65,5,60,50,80,55,50,40,45,40,35,40,40,30,25,25,30,25,25,35,35,30,20,0,0,15,0,0,0,0,0,0,0,0,0,20,0,0,0,0,0,0,0,0,0,0,0,0,0,0,0,0,0,0,0,0,0,0,10,5
5,15,55,5,10,60,60,65,45,40,60,30,75,45,35,55,35,40,20,25,25,25,25,25,25,0,15,0,20,60,0,0,0,0,0,0,0,0,90,5,0,0,5,0,0,0,0,0,0,0,0,0,0,0,0,0,0,0,0,0,0,35,45,70
5,5,20,60,60,20,55,70,50,55,70,55,35,40,35,35,30,35,25,25,25,25,25,20,25,5,0,0,15,50,0,0,0,0,5,0,0,0,0,75,0,0,0,0,0,0,0,0,0,0,0,0,0,0,0,0,0,0,0,0,40,85,60,0
5,35,5,10,60,60,55,70,50,45,50,50,40,50,35,35,40,25,20,25,30,25,25,20,25,15,0,0,50,0,20,0,0,0,0,0,0,0,0,0,0,0,5,0,0,0,0,0,0,0,0,0,0,0,0,0,0,0,0,0,40,0,70,55
10,10,5,60,55,50,55,45,50,55,50,75,35,40,50,30,25,25,30,25,25,25,25,20,25,10,0,0,15,40,0,0,0,0,0,0,0,0,5,0,50,0,0,0,0,0,0,0,0,0,0,0,0,0,0,0,0,0,0,0,0,55,35,70
65,60,5,5,65,55,60,55,70,55,50,55,40,55,30,45,30,25,25,35,20,25,25,25,25,25,0,0,5,55,0,0,0,0,0,0,0,0,25,0,0,0,0,0,0,0,0,0,0,0,0,0,0,0,0,0,5,0,0,0,0,80,60,65
50,60,5,10,60,70,50,50,45,50,65,45,45,40,45,40,45,40,20,20,25,20,20,25,20,15,0,0,15,50,0,0,0,5,0,0,0,0,0,75,0,0,0,0,0,0,0,0,0,0,0,0,0,0,0,0,0,0,30,5,0,0,60,65
5,5,5,10,50,50,60,60,75,80,60,50,50,45,40,45,25,25,30,25,30,30,20,25,25,10,0,15,0,50,0,0,0,0,0,5,0,0,0,0,0,20,0,0,0,0,0,0,0,0,0,0,0,0,0,0,0,0,0,0,0,65,55,0
5,5,70,70,10,70,5,60,60,80,70,50,45,45,40,35,55,35,30,25,25,25,30,30,25,25,10,0,20,0,0,0,0,0,0,0,0,0,0,45,0,0,0,5,0,0,0,0,0,0,0,0,0,0,0,0,0,0,0,0,0,40,0,55
25,5,70,70,5,55,60,65,65,55,80,50,50,40,55,45,50,35,25,35,20,25,25,25,35,10,0,0,55,20,0,0,0,0,0,5,0,0,0,0,85,0,0,0,0,0,0,0,0,0,0,0,0,0,0,0,0,0,0,0,0,60,55,55
5,55,5,65,50,60,50,60,55,80,65,65,45,40,50,35,25,20,30,25,25,25,25,25,10,25,0,0,15,0,50,0,0,0,0,0,0,0,0,30,0,5,0,0,0,0,0,0,0,0,0,0,0,0,0,0,0,0,0,0,0,55,5,10
50,55,0,5,5,50,65,70,45,65,50,50,65,40,40,35,40,35,35,25,25,25,30,20,25,0,5,0,20,55,0,0,0,0,0,0,0,0,25,0,0,0,5,5,0,0,0,0,0,0,0,0,0,0,0,0,0,0,0,0,0,10,5,50
5,10,10,25,10,55,55,55,50,60,55,25,50,45,30,25,25,30,25,30,25,30,25,25,30,15,0,0,20,0,55,0,0,0,0,0,0,0,85,0,0,0,0,0,0,0,0,0,0,0,0,0,0,0,175,0,0,0,0,0,0,60,60,10
5,50,55,5,15,30,50,60,75,60,55,50,40,50,40,40,50,40,25,25,30,20,35,25,25,0,0,20,0,45,0,0,0,0,0,0,0,5,70,0,0,0,0,0,0,0,0,0,0,0,0,0,0,0,0,0,0,0,0,0,0,30,35,50
5,5,5,10,55,60,50,75,55,60,60,60,60,60,55,65,60,40,50,55,60,60,70,50,50,0,0,0,20,50,0,0,0,0,0,0,0,0,0,50,0,5,0,0,0,0,0,0,0,0,0,0,0,0,0,0,0,0,0,0,0,60,50,50
60,5,60,10,5,5,55,50,60,55,60,35,35,90,30,35,30,30,30,25,35,20,30,20,10,0,25,0,15,0,0,0,0,0,15,0,0,0,40,0,0,0,0,0,0,0,0,0,0,0,0,0,0,10,0,0,0,0,0,0,0,60,45,45
55,10,5,10,60,55,60,75,50,55,50,60,50,40,40,40,40,40,20,25,25,20,20,30,0,25,15,0,60,5,0,0,0,0,0,0,0,0,35,0,0,5,0,0,0,0,0,0,0,0,0,15,0,0,0,0,0,0,0,0,0,65,60,0
55,40,50,5,5,75,60,50,70,65,60,140,55,55,45,45,40,25,25,30,20,25,20,25,25,15,25,0,0,15,0,55,0,0,0,0,0,0,0,0,0,0,0,0,0,0,0,0,0,0,0,0,15,0,0,0,0,0,0,0,0,0,50,65
