40,36,36,40,34,36,36,34,38,38,42,38,34,36,24,36,14,10,10,10,10,12,10,10,8,0,6,0,0,8,22,0,0,0,0,0,0,0,14,0,0,0,0,0,0,0,2,0,0,0,0,0,0,0,0,0,0,0,0,0,0,20,38,36
32,26,30,30,36,42,36,36,38,38,40,40,38,40,34,20,22,20,14,14,12,14,16,12,10,0,0,0,6,22,0,0,0,0,0,0,2,0,0,22,0,0,0,0,0,0,0,0,0,0,0,0,0,0,0,0,0,0,0,0,32,4,34,36
38,34,24,12,42,36,40,36,36,44,38,42,38,40,24,22,14,12,12,12,10,10,12,10,12,10,0,0,6,0,0,0,0,0,0,0,0,0,2,2,0,0,0,0,0,0,0,0,0,0,0,0,0,0,0,0,0,0,0,0,0,10,32,34
36,26,26,18,38,34,36,38,38,34,38,38,40,30,38,20,18,20,12,12,12,14,14,14,12,0,0,0,0,0,0,0,0,0,0,0,0,12,0,2,0,0,0,0,0,0,0,0,0,0,0,0,0,0,0,0,2,0,0,0,0,14,30,36
38,34,24,26,38,38,38,38,36,36,38,36,38,32,32,24,14,20,12,10,12,14,14,14,10,0,0,0,0,8,0,0,0,0,0,0,0,0,0,0,0,0,0,0,0,0,0,0,0,0,0,0,0,0,0,0,0,0,0,0,0,22,28,34
34,38,24,32,34,38,36,38,42,32,38,28,40,36,24,22,14,20,12,12,10,12,10,10,10,6,0,0,8,0,20,0,0,0,0,0,0,0,12,0,0,2,0,0,0,0,0,0,0,0,0,0,0,0,0,0,0,0,0,22,0,0,36,32
32,40,14,32,32,38,38,40,40,38,34,34,38,36,36,20,14,14,14,14,16,12,14,12,0,0,12,0,0,0,0,28,0,0,0,0,0,0,12,0,2,0,0,2,0,0,0,0,0,0,0,0,0,0,0,0,0,0,0,0,0,22,32,34
32,38,16,34,34,42,36,40,40,36,32,40,38,34,24,32,14,14,14,14,14,14,14,14,14,0,6,0,0,0,0,0,0,0,0,0,0,0,10,0,2,0,0,0,0,0,0,0,0,0,0,0,0,0,0,0,0,0,0,28,0,0,34,36
34,34,14,28,36,38,42,40,38,40,36,42,36,34,34,12,22,20,14,14,14,10,12,12,10,4,0,8,0,0,0,0,0,0,0,0,0,0,0,6,0,0,0,0,0,0,0,0,0,0,0,0,0,0,0,0,0,0,0,0,0,26,30,34
38,12,22,38,26,38,38,36,38,34,38,34,36,32,38,20,24,10,10,10,12,14,12,10,8,6,0,0,8,26,0,0,0,0,0,4,0,0,2,20,0,0,0,2,2,0,0,0,0,0,0,0,0,0,0,0,0,0,0,0,0,32,32,28
36,10,28,34,34,38,38,40,38,38,34,38,36,34,34,24,12,14,10,10,10,12,10,14,4,10,0,0,0,6,0,0,0,0,0,0,0,0,0,0,0,0,0,0,0,0,0,0,0,0,0,0,0,0,0,0,0,0,0,0,0,2,30,34
34,32,26,32,38,42,38,38,36,36,34,38,38,40,18,26,14,12,12,14,10,12,10,6,8,4,0,0,8,24,0,0,0,0,0,2,0,0,14,0,0,0,0,0,0,0,0,10,0,0,0,0,0,0,0,0,0,0,0,0,0,20,32,36
34,30,24,28,36,34,36,42,36,40,32,36,38,34,32,16,14,12,10,14,10,12,10,10,6,0,6,2,0,0,0,0,0,0,0,0,0,0,22,0,0,0,0,0,0,0,0,0,0,0,0,0,0,0,0,0,0,0,0,0,2,26,36,30
26,36,28,36,38,36,36,40,34,30,32,36,36,38,18,32,16,16,12,10,12,10,12,10,10,6,0,0,8,22,0,0,0,0,0,0,0,0,2,0,0,0,0,0,0,0,0,0,0,0,0,0,0,0,0,0,0,0,0,0,0,14,26,28
38,12,36,38,28,38,38,38,36,38,38,34,38,34,22,20,20,14,10,10,10,10,10,8,12,0,4,0,0,0,0,0,0,0,0,0,2,0,0,26,0,0,2,0,0,0,0,0,0,0,0,0,0,0,0,0,0,0,0,0,0,28,30,36
34,10,36,24,38,36,38,40,34,30,34,38,38,32,42,20,12,14,10,10,10,8,12,8,6,2,0,0,10,0,0,0,0,0,0,2,0,0,2,12,0,0,2,2,0,0,0,0,0,0,0,0,0,0,0,0,0,0,0,0,0,28,36,36
34,16,34,36,26,34,38,38,38,28,38,34,38,24,24,10,18,10,10,14,10,10,10,10,6,4,0,0,6,0,0,0,0,0,0,2,0,0,18,0,0,2,0,2,4,0,0,0,0,0,0,0,0,0,0,0,0,0,0,0,0,18,34,34
36,36,38,34,36,34,40,34,36,40,36,32,36,40,24,32,14,10,12,12,14,12,8,10,6,6,0,22,0,6,0,0,0,0,0,0,0,0,0,2,0,0,2,0,0,2,0,0,0,0,0,0,0,0,0,0,0,0,0,0,0,30,20,30
36,30,28,24,30,38,40,34,40,38,38,34,28,36,34,20,12,12,10,10,10,10,10,12,12,0,0,0,0,10,0,0,0,0,0,0,0,0,0,18,0,0,0,0,0,0,0,0,0,0,0,0,0,0,0,0,0,0,0,0,0,10,32,30
36,32,36,28,34,36,34,40,30,32,38,36,36,32,26,22,20,16,10,12,8,8,8,8,6,6,0,0,8,0,0,0,0,0,0,0,0,0,0,0,2,0,2,0,0,0,0,0,0,0,2,0,0,0,0,0,0,0,0,0,24,6,34,38
36,34,32,16,42,36,34,34,34,34,34,34,38,24,28,20,14,16,10,8,6,10,10,10,10,4,0,0,8,20,0,0,0,2,0,0,0,0,6,0,10,2,0,2,0,0,0,0,0,0,0,0,0,0,0,0,0,0,0,0,0,28,32,38
34,16,34,34,36,34,34,42,30,36,30,38,24,34,22,20,18,16,6,12,10,8,8,10,10,6,0,10,0,22,0,0,0,0,0,0,0,0,10,0,0,0,0,0,0,0,0,0,0,0,0,0,0,0,0,0,0,0,0,0,0,10,30,32
36,24,26,18,38,36,38,36,32,34,34,36,40,38,22,20,20,18,20,10,8,12,10,6,8,6,0,0,8,26,0,0,0,0,0,0,0,0,0,0,0,0,0,0,0,0,0,0,0,0,0,0,0,0,0,0,0,0,0,0,0,18,32,30
32,36,14,32,32,40,38,34,34,36,34,38,34,36,34,24,24,22,20,10,8,10,10,8,8,8,0,0,0,0,0,0,0,0,0,0,0,0,22,0,0,0,0,0,0,0,0,0,0,0,0,0,0,0,0,0,0,0,0,0,24,0,34,32
28,40,34,30,30,38,36,36,36,38,34,30,38,34,32,24,20,20,20,26,24,20,12,10,4,8,0,0,6,0,0,0,0,0,0,0,2,0,16,0,0,0,0,0,0,0,0,0,2,0,0,0,0,0,0,0,0,0,0,0,0,32,24,34
38,36,16,28,36,38,34,28,38,40,36,36,32,28,38,28,18,22,16,20,8,10,8,8,10,4,8,0,0,0,0,0,0,0,0,0,0,0,0,18,0,4,0,4,0,0,0,0,0,0,0,0,0,0,0,0,0,0,0,0,2,36,28,34
34,34,28,22,34,38,34,38,38,42,38,36,38,38,20,36,20,20,18,24,22,8,8,10,8,6,0,0,6,22,0,0,0,0,0,0,0,2,0,6,0,0,0,2,0,0,0,0,0,0,0,0,0,0,0,0,0,0,0,0,22,0,30,32
28,34,26,14,28,36,36,38,38,34,38,36,38,36,34,24,20,20,16,14,12,10,10,10,8,0,0,6,0,0,0,24,0,0,0,0,0,0,20,0,0,2,0,0,0,0,0,0,0,0,0,0,0,0,0,0,0,0,0,0,38,0,26,38
36,18,34,34,32,36,34,38,40,36,38,36,36,30,32,22,24,20,20,16,10,10,10,10,8,0,4,0,6,0,0,0,0,0,0,0,16,0,0,0,2,0,0,0,0,0,0,0,0,0,0,0,0,0,0,0,0,0,0,18,0,0,34,36
38,34,24,36,36,32,36,36,34,36,40,36,26,28,18,20,22,20,14,22,8,10,10,10,8,0,6,0,6,24,0,0,0,0,0,0,0,0,14,0,0,0,0,0,0,64,0,0,0,0,0,0,0,0,0,0,0,0,0,0,30,0,24,34
32,16,34,24,34,38,40,36,34,40,36,36,42,36,24,22,16,18,16,18,14,16,20,10,16,4,0,0,8,24,0,0,0,0,0,2,0,0,16,0,2,0,0,0,0,0,0,0,0,0,0,0,0,0,0,0,0,0,0,0,0,28,32,34
20,36,32,30,34,38,40,38,34,38,36,32,34,22,24,18,20,16,20,10,14,12,10,12,8,6,0,24,0,2,0,0,0,0,0,0,0,0,32,0,6,0,0,0,0,0,0,52,0,0,0,0,0,0,0,0,0,0,0,2,0,32,30,28
34,32,24,38,38,32,36,38,34,36,36,38,30,32,26,38,20,20,20,18,8,10,6,10,8,4,0,0,0,8,0,0,0,0,0,0,0,0,2,20,0,0,0,0,64,2,0,0,0,0,0,0,0,0,0,0,0,0,0,0,0,34,20,34
36,30,28,28,32,36,34,40,36,38,38,30,38,58,34,20,16,20,18,10,10,8,10,8,10,6,0,0,8,26,0,0,0,0,0,0,0,0,0,0,0,0,0,0,0,0,0,0,0,0,0,0,0,0,0,0,0,0,0,0,20,0,30,32
36,34,26,28,38,36,38,36,40,42,36,26,38,34,22,20,18,20,20,10,10,8,10,8,6,4,0,2,0,0,0,0,0,0,0,0,0,2,0,4,2,0,0,0,0,0,0,0,0,0,0,0,0,0,0,0,0,0,0,0,0,32,34,34
36,20,28,26,38,38,42,40,38,34,42,38,34,34,34,24,18,24,10,24,16,12,10,10,12,6,0,0,8,0,0,0,0,0,0,0,2,0,18,0,0,0,0,0,0,0,0,0,0,0,0,0,0,0,0,0,0,0,0,0,0,36,36,28
30,38,14,18,38,38,40,38,38,36,34,38,36,22,34,20,22,28,22,18,12,8,10,10,10,4,0,0,0,0,0,0,0,0,0,0,0,0,14,0,0,0,0,2,2,0,0,0,0,0,0,0,0,0,0,0,0,0,0,0,0,24,36,34
34,32,18,32,44,38,38,40,38,38,38,34,38,32,28,20,18,18,16,8,10,10,8,6,4,8,0,0,8,24,0,0,0,0,0,0,0,0,0,0,2,0,0,0,0,0,0,0,0,0,0,0,0,0,0,0,0,0,0,0,2,30,34,32
38,32,28,32,36,38,38,36,28,34,24,22,28,22,18,20,20,20,18,14,10,12,10,8,6,4,0,0,8,24,0,0,0,0,0,6,0,0,10,0,2,0,0,0,0,0,0,0,0,0,0,0,0,0,0,0,0,0,0,0,0,20,30,34
12,36,34,34,26,34,42,40,36,38,36,32,38,38,24,34,20,22,20,22,6,12,8,6,10,4,0,0,6,0,0,0,0,0,0,0,0,0,24,4,0,0,0,0,0,0,0,0,0,0,0,0,0,0,0,0,0,0,0,0,0,30,26,34
34,34,36,22,32,38,38,38,40,36,36,34,36,34,22,22,20,24,20,22,6,12,12,6,8,4,0,6,22,0,0,0,0,0,4,0,0,0,10,0,0,0,0,0,0,0,0,0,0,0,0,0,0,0,0,0,0,0,0,0,0,36,24,38
36,30,36,42,20,38,42,36,42,42,32,34,26,24,26,18,16,20,10,20,10,8,8,8,8,4,0,0,0,8,24,0,0,0,0,0,0,0,0,2,18,0,0,0,0,0,0,0,0,0,0,0,62,0,0,0,0,0,0,0,0,18,36,32
38,34,16,32,34,42,40,34,34,36,32,40,38,28,32,24,18,22,18,20,16,10,10,12,8,0,12,0,0,0,0,0,0,0,0,0,2,0,0,0,0,0,0,0,0,0,0,0,0,0,0,0,0,0,0,0,0,0,0,0,0,22,26,32
32,28,24,24,34,38,38,36,38,38,38,36,36,34,28,24,20,26,22,8,8,10,6,8,4,10,0,0,8,24,0,0,0,0,0,0,0,0,14,0,0,0,0,0,0,0,0,0,0,0,0,0,0,0,0,0,0,0,0,0,0,14,26,32
34,34,28,24,36,36,34,36,38,32,38,40,44,36,46,28,24,18,24,16,10,10,10,8,10,4,0,6,0,0,24,0,0,0,0,2,0,18,0,2,0,0,0,2,0,0,0,0,0,0,0,0,0,0,0,0,0,0,0,0,0,16,36,28
38,28,32,18,32,36,40,40,40,42,38,38,38,38,34,22,16,18,10,12,10,14,12,8,8,0,0,0,8,24,0,0,0,0,0,0,0,0,16,0,2,0,0,0,0,0,0,0,0,0,0,0,0,0,0,0,0,0,0,0,0,34,28,32
34,30,26,36,38,38,40,38,34,34,36,36,32,36,26,28,20,20,8,10,12,8,8,10,6,0,4,0,8,26,0,0,0,0,0,0,0,0,0,0,10,2,0,0,0,0,0,0,0,0,0,0,0,0,0,0,0,0,0,0,0,20,34,34
32,36,28,28,32,36,34,38,38,34,38,28,92,36,24,16,16,16,20,18,10,8,6,6,0,8,0,4,26,6,0,0,0,0,2,0,62,0,8,0,0,0,2,0,0,96,0,0,0,0,0,0,0,0,0,0,0,0,0,0,0,26,32,32
24,26,34,84,34,38,34,32,38,36,44,42,38,34,36,22,20,18,24,18,8,10,8,10,10,4,0,0,24,6,0,0,0,0,0,0,0,0,0,88,0,0,0,0,0,0,0,0,0,0,0,0,0,0,0,0,0,0,0,0,24,0,40,32
34,40,18,0,40,40,42,40,42,76,38,42,40,38,38,28,16,20,20,10,20,8,8,8,8,0,6,0,10,0,0,0,0,0,0,0,0,0,14,0,84,0,0,0,0,0,0,0,0,0,0,0,0,0,0,0,0,0,0,0,0,36,16,38
