12,48,54,6,18,54,60,72,66,60,48,48,54,66,66,66,48,66,0,48,48,0,6,66,0,0,0,0,0,24,0,0,0,0,0,0,6,0,36,6,0,0,0,0,6,0,0,0,0,18,0,0,0,0,0,0,0,6,0,0,0,72,54,60
18,60,12,24,54,60,48,48,90,60,54,66,54,60,72,54,42,54,30,66,54,60,72,54,0,0,0,0,0,0,0,84,0,0,0,0,0,0,6,24,0,6,0,0,0,0,0,6,0,0,12,0,0,0,0,0,0,0,0,0,24,42,0,48
12,18,54,66,36,54,54,54,84,54,48,60,66,42,60,48,66,54,42,60,60,54,66,60,18,0,0,0,0,0,6,0,0,0,0,0,0,0,42,0,0,0,36,6,0,0,0,6,0,0,12,0,0,6,0,0,0,0,0,0,0,18,54,18
60,60,12,24,42,30,42,60,60,48,60,42,48,48,48,48,48,48,48,60,48,66,48,42,0,0,0,0,18,0,0,0,0,0,0,6,0,0,0,0,0,0,0,0,0,0,0,6,0,0,0,12,0,0,0,0,0,0,0,36,0,0,48,48
24,54,12,60,42,54,72,42,48,78,48,60,48,48,48,48,36,18,0,66,66,6,72,0,54,0,0,0,60,0,0,0,0,0,0,0,0,0,0,0,0,0,0,0,0,0,0,0,0,0,0,12,6,0,0,0,0,0,0,0,0,12,48,48
24,66,6,12,42,12,48,60,84,72,54,48,48,60,54,42,30,42,48,18,60,54,72,48,0,0,0,0,0,0,0,0,78,0,0,0,0,18,0,0,0,0,36,6,6,0,6,6,0,0,12,0,0,0,0,0,0,0,0,0,0,6,60,48
48,18,24,54,18,66,66,42,90,60,66,54,54,54,48,48,48,30,78,48,60,60,66,36,48,0,0,0,0,0,0,0,0,0,0,0,0,0,0,0,24,0,6,0,0,0,0,0,0,30,0,0,12,0,6,0,0,0,0,0,0,0,48,42
18,0,54,6,42,48,60,48,42,42,42,60,60,48,48,54,48,54,66,72,72,72,54,30,0,18,0,0,0,0,0,0,0,0,0,0,0,0,0,0,0,0,6,6,6,0,0,0,6,0,0,0,12,0,0,0,0,0,0,0,0,6,30,30
18,18,6,12,36,36,102,48,150,162,114,48,54,54,60,48,48,48,54,66,60,54,54,42,0,0,0,0,0,0,0,0,0,0,0,12,0,0,0,54,0,6,0,0,12,0,6,0,0,6,0,0,18,6,0,0,6,0,0,0,0,42,24,84
84,30,6,72,36,84,60,102,84,54,48,48,54,54,48,42,54,78,48,84,60,42,72,12,18,0,0,0,0,0,0,0,0,0,0,12,0,0,42,0,0,0,42,0,0,0,0,0,0,0,0,0,18,0,0,0,0,0,0,0,0,18,42,48
12,30,36,36,24,36,36,78,72,60,60,66,54,72,60,60,48,60,72,78,72,72,78,60,0,0,0,0,84,0,0,0,0,0,0,6,0,0,6,54,0,0,0,0,6,0,6,6,0,0,6,0,12,6,0,0,0,0,0,0,0,42,12,42
30,48,24,24,48,54,36,54,66,60,54,60,48,66,48,48,60,54,60,66,72,66,54,72,30,0,0,0,0,0,0,0,0,0,0,6,0,0,0,30,0,6,60,6,0,12,18,6,18,42,6,18,0,0,0,6,0,0,0,18,0,48,0,36
54,42,54,36,42,60,66,54,48,84,54,54,54,72,48,54,36,30,66,48,24,72,180,72,66,6,0,0,0,0,0,0,0,0,0,0,0,0,0,24,78,0,0,24,120,6,0,6,0,0,0,0,12,0,0,0,0,0,0,0,0,18,36,48
30,12,6,6,48,42,60,66,60,60,48,48,48,48,42,54,30,30,18,18,72,66,54,48,36,0,0,24,0,0,0,0,0,0,0,0,0,0,0,42,0,6,0,0,0,90,6,0,0,0,0,0,6,0,0,0,0,0,0,0,0,12,36,24
42,24,6,36,30,42,42,66,84,60,48,60,60,60,84,42,42,78,36,66,54,78,60,66,30,0,0,0,0,0,0,0,0,0,0,0,0,0,0,0,48,0,0,0,0,6,12,6,0,0,0,0,6,0,0,0,0,0,0,0,0,30,36,30
36,36,30,36,36,60,42,60,66,54,72,66,48,66,60,48,42,48,42,54,36,48,54,54,0,0,0,0,0,0,0,0,0,0,0,0,6,0,6,60,0,0,0,48,0,18,0,0,0,0,0,18,0,0,0,0,6,0,0,18,0,0,30,30
30,48,42,42,48,60,54,72,72,54,78,72,54,54,42,54,48,54,60,60,72,72,60,72,54,0,0,0,0,0,72,0,0,0,6,0,0,0,12,54,6,0,0,0,0,6,0,30,0,6,0,0,0,0,0,0,0,0,0,0,0,6,24,60
18,24,24,42,42,48,54,72,90,54,54,54,48,60,42,48,42,54,66,60,48,54,60,60,0,0,0,0,0,0,0,0,0,0,0,0,0,0,0,42,0,0,36,0,0,0,0,0,0,6,6,6,0,0,0,0,0,0,0,0,12,0,36,30
18,36,24,6,30,30,72,30,48,72,54,60,66,72,48,66,42,54,60,48,48,48,54,60,0,0,0,0,0,24,78,0,0,0,0,0,0,0,0,6,54,0,18,0,0,0,6,0,6,0,0,0,0,0,0,0,0,0,0,0,18,0,30,36
42,24,6,42,30,96,30,42,60,60,66,72,72,60,78,48,48,48,54,48,72,60,60,48,0,36,0,0,0,0,84,0,0,0,0,0,0,6,36,0,0,0,36,12,12,6,6,0,6,0,0,6,0,0,0,0,0,0,0,0,30,0,48,42
30,30,30,30,30,42,36,72,78,66,66,78,66,66,78,54,60,48,66,60,60,48,60,54,0,0,0,0,60,0,0,0,0,0,0,0,0,0,0,60,6,0,0,0,0,0,0,0,42,0,0,0,0,6,0,0,6,0,6,0,0,42,18,48
18,24,6,30,24,48,42,66,78,66,54,66,72,84,72,66,54,48,48,54,66,54,66,54,72,0,0,0,0,0,0,84,0,0,0,0,6,0,0,42,0,0,6,0,0,24,42,0,6,0,0,0,0,0,0,0,0,0,0,0,0,30,36,36
42,30,48,54,48,48,54,90,72,54,48,60,60,66,54,48,48,60,54,60,72,48,60,60,42,0,0,0,0,0,0,0,0,0,0,0,0,0,0,18,0,6,24,0,0,0,30,0,6,0,0,0,0,0,0,0,0,6,0,0,0,12,30,42
36,48,0,36,48,6,78,48,72,48,54,66,48,60,60,42,60,36,72,66,24,60,72,60,30,0,0,0,0,0,0,0,0,0,0,6,0,0,6,0,42,0,6,0,0,6,6,30,0,0,0,0,0,6,6,0,0,0,0,0,0,18,30,42
54,6,6,54,18,36,54,66,72,66,78,60,60,60,60,60,48,60,60,66,66,66,72,60,0,0,0,0,0,0,0,0,0,0,0,0,0,0,0,54,0,0,12,60,0,0,6,24,0,0,6,0,0,0,0,0,0,0,0,0,36,0,42,36
30,30,24,42,30,66,36,30,60,84,60,156,54,60,72,96,72,72,72,66,60,60,72,54,0,0,0,0,0,0,0,0,84,0,0,0,0,0,0,42,0,6,0,12,6,0,0,0,6,6,0,0,0,0,0,0,0,0,0,18,0,0,42,42
42,18,18,18,54,48,60,72,90,48,60,60,60,72,66,54,60,72,72,66,78,66,78,66,0,0,0,0,0,0,60,0,0,0,0,0,0,0,0,30,0,0,30,6,0,0,6,0,6,0,0,0,0,0,6,0,0,0,0,0,0,36,12,30
30,6,30,54,30,48,42,72,102,54,66,72,54,48,42,60,48,54,54,66,72,72,54,60,0,66,0,0,0,0,0,0,0,0,0,0,6,0,0,0,0,0,6,0,6,18,36,6,6,0,0,0,0,0,0,0,0,0,0,0,12,0,42,42
24,48,18,48,48,48,42,72,78,66,42,48,84,66,78,48,66,60,54,72,66,60,54,42,0,12,0,0,0,12,84,0,0,0,0,0,0,0,48,0,0,0,0,24,0,0,12,0,0,0,0,0,0,0,0,0,0,6,0,0,0,0,36,30
48,42,54,24,36,60,48,96,60,48,60,54,54,54,54,72,54,60,48,66,66,66,54,42,78,0,0,6,0,60,0,0,0,0,0,0,0,0,0,12,6,36,0,0,0,0,6,6,0,0,6,0,0,0,0,6,0,0,0,0,0,30,48,42
42,18,6,48,42,66,48,48,60,72,72,48,72,66,48,54,54,54,54,66,72,60,60,54,48,0,0,0,0,0,0,0,0,0,0,0,0,0,0,0,126,0,30,0,0,0,0,0,0,0,0,0,0,0,0,0,0,0,0,0,0,0,54,36
36,12,42,24,60,66,48,42,54,54,60,60,60,78,66,54,54,60,54,66,60,60,60,54,72,0,0,0,0,72,0,0,0,0,0,0,0,0,36,0,0,18,0,0,18,0,0,0,0,0,0,0,0,0,0,0,0,0,0,0,0,30,42,48
18,54,54,54,24,24,48,78,78,66,78,60,54,66,72,60,60,60,60,54,66,54,60,72,60,0,0,0,0,0,0,0,0,0,6,0,54,0,0,0,0,0,0,0,0,12,0,0,0,6,0,0,0,0,18,0,0,0,0,0,0,30,36,60
48,24,30,24,18,48,48,72,48,60,48,54,60,84,60,60,54,60,54,60,54,60,48,48,48,0,0,0,0,0,0,72,0,0,0,0,0,6,54,0,0,0,0,0,6,6,0,0,6,0,0,0,0,0,0,6,0,0,6,0,36,0,48,60
48,36,24,6,48,54,42,60,96,78,54,60,66,54,66,60,54,48,60,66,66,54,54,0,72,60,12,0,0,6,0,0,0,0,0,0,0,0,0,0,0,48,0,6,0,6,6,0,18,6,0,0,0,0,0,0,0,0,0,0,0,30,60,60
6,24,54,6,60,54,48,78,108,54,60,66,60,84,60,66,54,66,72,60,60,72,54,84,84,0,0,0,0,0,0,0,0,0,0,0,0,6,60,6,0,0,30,30,0,6,0,0,0,42,0,0,0,0,0,0,0,0,0,0,0,18,42,42
18,12,6,36,18,54,54,54,72,66,60,72,54,66,72,54,60,48,54,60,48,66,66,60,0,54,0,0,0,0,0,0,0,0,6,0,0,0,36,0,6,0,24,0,6,0,6,6,6,0,0,6,0,18,0,0,0,0,0,0,0,18,48,42
42,18,18,30,36,60,60,72,78,48,72,54,72,66,60,54,60,54,54,60,60,66,60,60,24,0,0,0,0,0,0,0,0,0,0,0,0,0,0,42,30,0,0,96,255,0,0,0,0,0,0,0,0,0,0,0,0,0,0,0,0,12,42,42
18,30,24,42,36,12,66,36,78,78,66,60,72,60,60,48,66,60,60,54,60,60,54,0,60,36,0,0,0,0,90,0,0,0,0,0,0,0,6,78,0,0,0,18,0,0,0,6,0,0,0,0,0,0,0,0,0,0,0,0,0,6,30,54
48,48,24,30,48,66,60,42,72,84,60,54,72,66,54,60,66,54,60,54,66,72,60,60,36,0,0,0,0,0,0,0,0,0,0,0,0,48,0,0,0,0,0,66,6,0,6,6,0,0,0,0,6,0,0,0,0,0,0,0,0,18,72,24
6,36,0,30,48,36,48,66,60,72,72,78,60,60,48,72,60,60,60,54,60,54,60,66,42,0,0,0,0,72,0,0,0,0,0,0,0,0,84,0,36,0,12,0,0,0,6,6,0,0,0,0,0,0,0,0,12,0,0,0,0,30,6,18
30,12,54,24,42,42,36,84,72,72,60,66,72,60,54,72,72,54,72,78,60,72,66,60,0,48,0,0,0,0,0,0,0,0,0,0,0,0,36,6,0,60,0,60,0,36,0,6,0,0,0,0,0,0,0,96,0,0,0,0,42,0,6,36
36,24,36,6,24,42,42,66,54,84,54,60,66,66,78,120,60,48,54,60,72,60,54,60,0,0,66,0,0,72,0,0,0,0,0,0,6,0,0,54,0,0,6,0,0,0,0,0,0,0,0,0,0,255,0,0,0,0,0,0,12,0,42,60
42,42,48,18,18,54,54,60,72,60,72,66,60,60,60,60,60,54,60,48,60,60,78,66,0,60,0,0,0,0,72,0,0,0,0,6,0,0,0,30,0,0,18,0,6,0,0,0,0,0,0,0,0,0,0,0,0,0,0,0,0,6,42,48
6,48,54,24,42,60,48,60,78,60,60,72,72,60,48,54,54,60,78,54,60,60,54,60,0,60,0,0,0,0,0,78,0,0,0,0,0,0,0,102,0,36,0,18,0,0,18,6,0,0,0,0,0,0,0,0,12,6,0,0,0,6,30,60
54,24,30,54,54,42,72,60,66,72,60,60,60,60,54,72,60,54,54,60,60,60,60,72,60,0,0,0,0,0,0,0,72,0,0,0,0,0,0,12,0,0,0,0,0,0,0,0,12,0,0,0,0,0,0,0,0,0,6,0,0,18,48,30
24,54,24,18,60,60,72,54,78,72,72,60,72,72,78,60,60,60,60,54,60,60,60,0,54,0,0,0,0,0,0,0,0,0,0,0,0,0,0,84,6,0,0,0,0,0,0,0,0,0,0,0,0,0,0,0,0,0,0,0,0,24,54,66
66,66,18,6,36,54,66,66,66,54,48,42,60,54,48,60,60,54,54,60,54,60,60,48,54,0,0,0,0,0,90,0,0,0,0,0,0,0,36,0,0,0,30,0,0,0,0,0,0,0,0,0,0,0,0,0,0,0,0,0,6,0,60,66
72,18,6,66,66,72,60,66,78,72,66,54,78,66,84,60,48,60,60,48,54,60,48,48,0,36,0,0,0,84,0,0,0,0,0,0,0,0,0,30,0,18,252,96,0,0,0,0,0,0,0,0,0,0,0,0,0,18,0,0,0,12,48,78
12,24,60,24,60,48,42,48,60,72,54,78,60,60,102,42,54,48,60,60,54,48,48,48,48,0,0,0,0,0,0,0,0,0,0,0,0,0,0,42,0,0,0,0,0,0,0,78,0,0,0,0,0,0,0,0,0,0,0,0,0,0,24,48
