12,6,12,18,14,16,18,16,34,28,30,34,28,30,24,30,28,30,34,32,26,32,28,28,0,22,0,0,0,8,28,0,0,0,0,0,0,0,16,0,0,0,0,0,2,0,2,0,0,4,0,2,0,0,0,0,0,0,2,0,0,8,16,14
8,10,8,16,16,16,16,20,22,26,30,28,28,24,28,28,24,24,28,26,32,32,30,30,24,0,2,0,0,8,0,24,0,0,0,0,2,0,0,16,0,2,0,2,0,0,2,2,0,0,0,0,0,0,0,0,0,0,0,6,0,0,14,18
14,16,6,12,16,12,16,18,30,30,26,24,26,26,22,24,26,28,26,28,24,24,26,28,28,0,0,0,0,22,0,0,0,0,0,0,0,0,0,18,0,0,0,0,0,0,0,0,0,0,2,0,0,0,0,2,0,0,0,0,4,0,14,12
16,14,18,6,6,20,22,18,24,28,24,24,24,28,26,26,28,26,28,24,28,30,32,32,26,0,0,0,0,8,28,0,0,0,0,0,0,0,0,0,14,0,0,2,0,0,0,0,0,0,0,0,0,0,0,0,0,0,0,0,0,6,16,14
18,20,2,4,16,16,20,16,24,24,24,26,24,28,26,24,26,28,20,24,28,22,30,24,0,26,2,0,0,6,28,0,0,0,0,0,0,2,0,2,0,0,0,0,0,0,0,0,2,0,0,0,2,0,2,0,2,0,0,0,0,6,18,14
10,20,14,18,6,16,18,30,24,22,24,24,26,22,30,26,24,22,22,22,26,24,22,24,22,12,0,0,0,6,28,0,0,0,0,0,0,0,0,0,0,0,2,2,4,0,0,0,0,4,0,2,0,0,0,6,0,0,0,0,0,12,6,10
10,10,16,10,12,20,20,20,28,20,22,24,18,24,20,26,22,24,20,28,24,24,24,26,20,0,0,0,0,10,12,0,0,0,0,0,0,0,0,14,0,0,0,0,0,0,2,2,4,2,2,2,0,0,2,0,0,0,0,0,0,16,10,16
12,16,18,6,10,20,24,32,24,22,24,24,28,26,22,26,24,26,26,28,28,24,28,24,22,0,0,0,0,10,26,0,0,0,0,0,0,0,0,0,22,0,8,0,0,2,2,2,0,0,0,0,2,0,0,0,0,0,0,0,0,4,20,20
20,16,6,16,8,18,28,20,22,24,22,18,24,24,22,24,26,22,20,24,20,20,24,24,0,22,0,0,8,0,26,0,0,0,0,0,0,0,16,0,0,2,0,2,0,0,0,0,0,0,0,0,0,0,0,2,0,0,0,0,2,0,16,10
20,16,20,22,6,16,28,14,26,26,24,26,24,22,24,22,22,24,24,28,24,26,24,24,24,0,0,0,0,0,0,0,24,0,0,0,0,0,0,24,0,0,6,0,0,0,0,0,0,0,0,0,2,0,0,0,0,0,0,0,6,0,10,14
14,20,4,10,12,24,26,28,34,28,28,22,26,34,24,26,28,26,24,24,28,26,24,26,26,0,0,0,0,0,0,20,0,0,0,0,0,12,0,0,0,4,0,2,0,2,0,0,0,4,0,4,0,0,0,0,0,0,0,0,0,4,12,12
16,12,16,14,14,22,24,24,26,22,28,22,24,22,32,28,24,22,30,24,22,24,24,32,0,24,0,0,8,0,0,30,0,0,0,0,0,0,0,22,0,0,0,2,0,0,0,2,0,0,0,0,0,0,0,0,0,0,0,0,0,6,18,14
18,16,16,16,20,8,22,28,28,24,28,28,22,28,26,28,32,32,32,30,30,32,28,34,26,20,0,0,0,2,28,0,0,0,0,0,0,0,0,14,2,0,2,4,0,0,2,0,0,0,0,2,0,0,0,0,4,0,0,0,0,6,18,16
14,18,14,6,20,26,20,34,22,32,26,28,26,28,24,22,22,28,24,24,24,24,22,26,24,12,0,2,0,0,24,0,0,0,0,0,0,0,0,2,0,16,0,0,0,0,0,0,2,0,2,0,2,2,2,2,0,0,0,2,0,12,6,20
16,16,6,14,18,28,20,26,40,28,24,20,24,22,28,26,24,24,26,24,28,28,28,26,26,0,0,0,0,24,0,0,0,0,0,0,0,0,0,2,32,0,0,0,0,0,0,0,0,0,0,0,0,0,0,0,2,0,0,0,10,0,16,20
14,12,16,26,6,22,28,22,30,26,32,28,28,32,28,26,24,26,24,26,28,24,26,28,0,24,2,0,6,0,34,0,0,0,0,0,0,0,0,0,0,0,2,0,0,0,2,0,0,2,0,0,2,0,0,0,2,0,0,0,0,14,2,14
18,20,2,14,16,20,22,22,24,22,28,26,26,22,24,22,26,22,24,26,24,24,22,20,16,0,0,0,0,0,0,0,18,0,0,6,0,0,14,2,0,0,2,4,0,0,0,0,0,2,0,2,0,0,0,0,0,0,0,0,0,6,14,14
16,16,8,14,24,12,20,30,26,22,22,24,22,26,26,26,24,28,32,28,24,26,22,20,20,12,2,0,0,0,24,0,0,0,0,2,0,0,0,0,0,0,2,0,0,2,4,0,0,0,2,0,0,0,0,0,0,0,0,0,0,8,14,20
12,12,14,10,24,20,24,26,32,30,28,28,26,28,28,28,32,26,30,28,32,30,28,30,28,0,0,0,0,0,24,0,0,0,0,0,0,2,0,4,14,0,0,0,0,0,4,0,0,0,2,6,0,0,0,0,0,0,0,0,0,16,8,18
22,20,18,10,16,22,20,28,32,32,28,28,26,28,24,26,22,24,28,28,30,28,28,28,24,0,0,0,0,0,26,0,0,0,0,0,0,0,16,0,0,0,0,2,88,0,0,2,2,0,0,4,2,2,2,0,0,0,0,0,0,4,14,18
18,12,4,12,24,24,12,28,34,28,28,20,28,20,16,22,16,2,20,28,10,26,6,30,24,0,0,0,0,0,24,0,0,0,0,2,0,0,0,0,0,0,2,0,2,0,2,0,2,4,4,2,0,2,2,0,4,0,0,0,0,6,14,16
18,14,4,16,22,20,22,26,30,38,24,24,26,26,24,26,30,28,32,30,34,24,28,24,26,0,0,0,0,10,0,0,24,0,0,0,0,0,0,0,6,0,0,2,0,0,0,0,2,2,0,0,0,0,0,0,2,0,0,0,0,10,16,16
14,22,18,14,10,20,20,30,32,28,24,24,26,26,24,28,26,26,28,24,26,22,26,24,22,0,0,0,0,6,24,0,0,0,0,0,0,0,0,0,10,2,0,0,0,2,0,2,0,0,0,0,0,0,0,0,0,0,0,0,0,12,22,20
16,12,14,14,20,20,18,28,32,34,28,30,28,28,28,26,28,28,28,28,32,22,28,24,28,0,0,0,0,26,0,0,0,0,0,0,0,0,0,0,32,0,2,2,0,2,2,0,0,0,2,0,0,0,0,0,0,0,0,0,18,0,6,20
18,14,2,6,16,20,30,22,30,30,30,32,28,26,24,22,28,28,24,10,0,6,6,8,0,6,0,0,0,4,0,0,0,0,0,0,0,0,0,0,0,6,22,0,0,0,0,2,0,4,0,0,0,6,0,0,0,0,0,0,4,0,16,16
14,12,12,14,20,18,18,32,22,22,20,18,16,26,24,24,28,28,28,26,28,30,28,26,22,0,0,0,0,8,24,0,0,0,0,0,0,0,0,30,0,0,0,0,0,0,0,2,0,0,0,0,2,2,0,0,0,0,0,0,0,4,14,14
14,8,4,12,22,20,18,24,30,36,24,26,30,22,28,24,28,20,26,24,22,30,24,28,22,0,0,0,0,26,0,0,0,0,0,0,2,0,24,0,0,2,0,0,0,0,2,0,0,0,2,0,2,0,0,0,0,0,0,0,0,14,4,14
16,14,20,10,16,14,16,28,24,28,24,24,24,20,20,20,22,24,20,24,24,20,26,4,0,2,0,0,0,0,0,0,0,0,0,0,0,0,0,0,0,2,0,0,0,2,2,0,4,2,2,0,2,0,0,0,0,0,0,0,0,20,4,16
16,8,14,12,16,18,20,28,26,28,26,28,26,24,24,28,28,26,22,28,30,28,32,28,26,0,0,0,0,0,0,0,0,0,0,0,2,0,20,0,0,0,0,0,2,2,0,0,0,2,0,0,0,0,2,4,0,0,0,0,0,10,16,16
10,20,16,16,14,10,18,20,28,32,32,32,24,28,28,20,20,22,22,22,20,22,22,20,20,14,0,0,0,0,0,28,0,0,0,0,2,0,8,0,0,0,0,0,0,0,0,0,0,4,0,0,0,2,0,2,0,0,0,0,0,20,18,8
16,16,8,16,14,16,20,28,32,28,28,28,28,26,28,26,26,30,30,28,28,28,28,24,0,24,0,0,8,0,26,0,0,0,0,0,0,0,0,16,2,0,2,2,0,0,0,2,0,0,0,0,0,0,0,0,0,0,4,0,0,0,20,14
16,14,14,6,18,10,28,14,28,28,28,28,24,24,26,24,28,30,24,24,28,24,22,24,24,0,0,2,0,0,0,28,0,0,0,0,0,0,18,0,0,2,0,0,0,0,0,2,0,0,0,2,0,0,0,0,2,0,0,0,0,6,20,18
10,20,16,10,20,22,20,22,30,30,34,32,28,28,38,24,28,28,26,24,28,30,34,28,24,0,0,0,0,0,26,0,0,0,0,0,0,0,0,12,0,0,0,0,2,0,0,90,0,2,0,0,0,0,0,0,2,0,0,0,0,8,20,18
8,20,16,4,22,22,18,32,22,30,26,26,74,30,42,24,46,28,28,24,24,26,22,24,24,0,0,0,0,0,22,0,0,0,0,0,2,0,0,0,0,0,0,0,2,2,2,0,2,0,0,0,0,0,0,4,2,0,0,0,0,6,22,20
6,20,6,20,18,12,22,32,24,26,28,28,28,28,28,26,22,22,22,24,20,20,22,24,20,0,2,0,0,0,20,0,0,0,0,4,0,0,0,0,0,0,2,0,0,0,0,0,4,0,0,0,2,0,0,4,0,0,0,0,0,20,10,18
14,22,10,4,26,18,26,26,28,26,30,26,30,30,26,26,28,24,24,20,28,22,24,24,24,0,0,0,0,24,0,4,0,0,0,0,2,0,2,2,28,2,0,2,0,0,2,0,0,0,4,0,4,0,0,0,0,0,0,0,0,6,20,20
16,14,16,18,16,18,16,28,26,32,32,24,30,28,26,26,24,26,24,28,26,26,28,26,0,24,0,0,12,28,0,0,0,0,0,0,0,0,0,0,2,0,0,2,0,0,0,2,2,0,0,0,0,0,2,2,0,0,0,0,0,4,16,18
20,14,16,16,28,28,30,26,28,28,30,28,26,28,26,28,26,28,22,24,24,28,26,24,0,20,0,0,0,0,26,0,0,0,0,0,0,0,0,16,0,4,0,0,0,0,0,0,0,0,0,4,0,0,0,0,0,0,0,0,6,0,20,18
20,16,16,14,20,20,24,28,28,30,24,28,26,24,24,24,24,28,26,28,24,26,24,26,0,24,0,2,10,0,28,0,0,0,0,0,2,0,0,20,2,0,0,2,0,0,0,0,2,0,0,0,0,2,2,0,0,0,0,0,0,26,6,18
22,6,20,20,26,20,28,30,32,34,28,32,26,24,22,20,24,24,26,24,22,22,22,24,22,2,0,0,0,0,26,0,0,0,0,0,0,0,0,26,2,2,0,0,2,0,0,0,2,6,0,0,0,0,0,2,0,0,0,0,0,6,20,20
28,6,20,20,34,24,26,28,32,30,28,32,26,26,26,24,22,24,32,26,26,32,28,28,24,0,0,0,0,0,24,0,0,0,0,2,0,0,0,0,20,0,0,0,0,2,2,0,0,0,0,0,0,2,0,0,0,0,0,0,0,12,20,28
28,16,16,4,22,18,28,20,26,24,24,30,24,24,28,28,26,26,28,24,24,22,26,28,20,0,0,2,0,0,28,0,0,0,0,2,0,0,0,0,2,0,2,2,2,2,2,0,0,0,2,0,2,0,6,0,0,0,0,0,0,6,20,20
26,4,16,12,24,18,24,32,32,30,38,30,32,28,34,24,24,28,28,32,30,30,28,28,28,0,0,0,0,0,24,0,0,0,0,0,0,0,28,0,2,0,6,0,2,0,0,0,0,2,2,0,0,0,0,0,0,0,0,0,24,0,8,24
24,6,24,18,18,20,24,24,20,28,26,26,28,24,24,28,28,22,24,26,28,24,28,24,22,0,0,0,0,8,28,0,0,0,0,0,0,0,0,0,0,12,6,0,0,0,0,0,0,2,0,0,2,0,0,0,0,0,0,0,0,6,28,24
24,2,20,16,22,24,18,28,26,28,26,26,28,30,24,24,22,24,30,30,28,28,30,26,24,0,0,0,0,10,32,0,0,0,0,0,0,2,16,0,0,0,0,0,2,0,2,0,0,0,0,0,0,0,0,0,0,0,0,0,0,4,18,22
24,22,16,24,30,24,24,26,32,34,32,34,34,24,26,24,20,26,20,24,22,26,24,20,26,0,0,2,0,24,0,0,0,0,0,0,2,0,0,0,0,18,0,0,0,2,0,0,2,0,0,0,0,0,6,0,0,0,0,0,0,6,26,28
16,18,16,20,18,22,24,24,26,34,26,28,34,24,24,28,26,28,24,30,24,24,32,24,0,0,24,0,0,20,0,0,0,0,0,0,0,0,16,0,4,0,0,0,0,0,0,0,2,0,0,4,0,2,0,0,0,0,0,10,0,18,0,22
14,14,16,20,20,24,20,28,34,34,32,26,26,26,24,24,24,28,34,28,34,30,26,28,22,2,0,0,8,26,0,0,0,0,0,0,0,2,0,2,0,0,0,0,2,0,0,0,0,0,0,4,0,2,0,0,0,0,2,0,0,10,24,18
20,16,16,30,22,26,20,30,24,34,24,32,32,22,24,24,28,28,28,28,24,24,24,28,24,0,0,0,0,0,24,0,0,0,0,2,0,0,10,0,0,0,4,0,0,0,0,4,0,0,2,0,0,0,0,0,0,0,0,0,20,0,18,8
6,20,16,16,22,20,24,20,22,26,22,22,26,22,24,20,24,20,18,22,22,16,16,16,18,0,0,0,0,0,24,0,0,0,0,0,0,0,0,20,0,0,0,4,2,2,0,0,0,0,10,0,2,0,0,0,2,0,0,0,0,20,8,14
