3,11,9,12,13,13,11,11,17,12,11,13,12,14,12,12,12,12,13,13,12,12,12,14,12,0,0,0,0,0,10,0,0,0,0,0,0,0,4,0,0,0,0,0,1,0,0,0,0,2,0,0,0,0,0,0,0,0,0,0,2,0,9,10
11,7,1,3,11,13,11,10,10,17,15,12,12,12,14,14,14,16,16,16,17,14,16,14,12,0,0,0,0,0,11,0,0,0,0,0,0,0,10,0,0,1,1,1,0,0,0,0,0,0,0,0,0,0,0,0,0,0,0,0,0,11,5,7
8,8,5,10,11,12,12,12,14,14,20,12,10,12,12,11,14,12,14,14,14,15,16,12,2,0,0,0,3,0,13,0,0,0,0,0,0,0,0,10,0,0,0,4,0,0,0,0,0,0,0,0,0,0,0,0,0,0,0,0,0,13,3,15
12,10,3,3,10,13,12,11,12,15,13,12,13,12,13,13,14,12,12,13,13,14,14,16,13,0,0,0,0,0,0,0,0,0,0,0,0,0,8,0,0,0,0,0,5,0,0,0,0,0,0,0,0,0,0,0,0,0,0,0,0,1,13,10
10,10,3,12,10,15,13,13,15,16,14,14,14,12,12,12,13,15,14,12,13,12,12,12,0,12,0,0,0,4,11,0,0,0,0,0,0,0,0,0,9,1,0,1,0,0,0,0,0,0,0,0,0,0,0,0,0,0,0,0,0,5,13,7
3,1,12,5,14,14,8,11,16,15,14,13,12,13,14,12,14,12,13,11,13,11,12,14,12,0,0,0,0,0,16,0,0,0,0,0,0,0,0,13,0,1,0,0,0,0,0,0,0,0,0,0,0,0,0,0,0,0,0,0,0,3,9,10
10,4,13,10,4,7,10,10,12,13,12,16,14,12,11,13,15,12,13,14,14,14,15,13,11,0,0,0,0,9,0,0,0,0,0,0,0,0,0,1,1,0,0,0,0,0,0,0,0,0,1,0,0,0,0,0,0,0,0,0,0,8,12,5
7,13,4,12,8,10,13,14,12,11,14,13,12,12,12,15,14,13,12,14,12,12,1,12,10,0,0,0,0,16,0,0,0,0,0,0,0,0,0,12,2,0,0,1,0,0,0,0,0,0,0,0,0,0,0,0,3,0,0,0,0,8,11,2
11,4,9,3,13,13,11,12,17,11,13,12,10,13,11,12,12,13,12,14,12,14,13,10,12,0,0,0,0,4,11,0,0,0,0,1,0,0,0,12,2,1,0,0,0,0,1,0,0,0,0,0,0,0,0,0,0,0,0,0,1,0,9,11
11,11,2,12,8,14,10,10,16,15,17,12,12,19,17,14,12,10,11,14,14,13,10,13,12,0,0,0,0,0,0,9,0,0,0,0,0,0,0,8,0,1,0,1,0,33,0,0,0,0,0,0,0,0,0,0,0,0,0,0,0,1,9,11
10,8,3,12,4,13,14,11,11,17,14,12,16,15,10,12,12,11,12,13,11,13,13,13,0,12,0,0,0,14,3,0,0,0,0,0,0,0,0,0,2,0,0,0,0,1,1,1,0,0,0,0,0,1,1,0,0,0,0,0,0,1,9,11
4,13,3,12,12,14,12,12,12,16,12,14,12,12,11,10,13,13,12,12,12,12,13,12,13,0,0,5,0,0,0,11,0,0,0,0,0,5,0,0,0,0,0,1,0,1,0,0,0,0,0,0,0,0,0,0,0,0,0,0,0,3,9,12
10,12,11,4,14,13,11,11,10,16,12,13,12,11,15,11,12,13,12,13,12,14,12,12,13,0,0,0,0,11,0,0,0,0,0,0,0,0,0,0,3,0,0,0,0,1,0,1,0,0,0,0,0,0,0,0,0,0,0,0,0,3,10,11
8,12,2,12,12,11,12,14,14,16,12,14,10,12,12,11,10,12,13,13,12,12,12,10,14,0,0,0,0,0,0,0,0,0,0,0,0,1,0,16,0,2,1,2,43,0,0,0,0,1,0,0,0,0,0,0,0,0,0,0,0,2,15,10
3,10,4,9,11,9,12,12,11,16,14,12,10,10,13,14,12,12,12,12,12,12,9,12,10,0,0,0,0,5,15,0,0,0,0,0,0,0,7,0,1,0,0,0,2,0,1,0,0,0,0,0,0,0,0,0,0,0,0,0,0,8,9,12
3,3,6,12,8,10,10,13,11,13,15,11,14,11,12,14,13,14,14,11,12,13,13,0,11,11,0,0,0,4,0,0,15,0,0,0,1,0,0,0,10,0,1,0,0,2,0,0,0,0,0,0,0,0,0,0,0,0,0,0,3,0,7,9
8,3,4,7,14,15,10,12,18,13,17,12,12,11,13,11,12,12,13,12,12,12,12,12,10,0,0,0,0,0,13,0,0,0,0,0,0,0,0,4,0,1,1,1,1,1,1,1,0,0,0,0,0,0,0,0,0,0,0,0,1,0,13,10
8,3,2,9,10,12,12,13,12,14,18,10,12,10,13,12,12,12,12,13,12,13,13,14,0,11,0,0,0,5,10,0,0,0,0,0,2,0,0,5,0,2,0,0,0,1,1,0,0,0,0,0,0,0,0,0,0,0,0,0,8,0,28,30
27,26,23,27,27,24,26,26,22,19,21,19,22,23,10,19,12,12,11,12,12,12,12,12,12,0,0,0,0,0,12,0,0,0,0,1,0,0,7,0,0,0,0,1,1,0,1,0,0,0,0,0,0,0,0,0,0,0,0,0,0,9,19,20
25,25,23,27,21,26,22,17,21,21,20,23,23,23,11,22,11,13,12,11,13,10,10,11,0,0,12,16,0,0,5,0,0,0,0,0,0,0,6,0,0,0,1,0,0,0,0,0,0,0,0,0,0,0,0,0,0,0,0,0,12,0,20,21
19,21,20,14,23,19,22,21,23,21,21,23,21,26,12,21,9,11,14,11,12,11,12,12,11,0,0,0,0,4,11,0,0,0,0,1,0,0,7,0,0,0,0,1,0,0,0,0,0,0,0,0,0,0,0,0,0,0,0,0,0,12,14,18
16,18,20,16,17,19,19,21,23,19,19,20,19,19,16,13,10,10,11,11,12,12,12,11,12,0,1,0,0,10,0,0,0,0,0,0,0,0,0,0,0,0,1,0,0,0,0,0,0,0,0,0,0,0,0,0,0,0,0,0,15,15,0,16
16,16,15,16,16,19,17,17,21,18,17,18,19,16,20,10,13,12,11,11,13,11,13,12,11,0,0,0,0,0,10,0,0,0,0,0,0,0,0,6,2,0,0,1,1,0,0,0,0,0,0,0,0,0,0,0,0,0,0,0,0,9,14,14
18,19,21,15,16,15,14,18,14,15,19,14,17,12,16,10,10,12,11,12,11,11,10,12,7,0,0,0,0,10,0,0,0,0,0,0,1,0,0,0,0,0,2,0,0,0,0,0,1,0,0,0,0,0,0,0,0,0,0,0,0,17,12,15
11,14,13,15,13,16,17,15,15,14,17,15,13,12,13,12,12,11,10,13,14,14,15,13,12,0,0,0,0,0,0,8,0,0,0,0,0,0,0,0,6,0,0,0,1,0,0,0,0,0,0,0,0,0,0,0,0,0,0,0,0,9,15,18
15,13,14,14,19,17,15,17,17,16,14,15,16,14,13,13,13,10,10,13,10,11,11,12,12,0,0,0,0,0,10,0,0,0,0,0,0,4,0,0,1,0,0,1,0,0,0,0,0,0,0,0,0,2,0,0,0,0,0,0,0,8,19,15
12,15,12,13,13,15,16,14,15,16,17,18,16,14,11,10,10,10,10,10,11,10,11,12,12,0,0,0,0,0,11,0,0,0,0,0,0,5,0,2,0,0,0,0,0,0,0,0,0,0,0,0,0,0,0,0,0,0,0,0,0,9,17,16
16,16,12,12,18,17,16,16,19,17,16,17,16,17,16,10,10,10,11,12,13,11,10,10,12,0,0,0,0,11,0,0,0,0,0,0,0,0,0,5,0,0,1,1,0,0,0,1,0,0,0,0,0,0,0,0,0,0,0,0,8,0,19,17
13,15,12,12,16,17,16,17,16,13,15,17,13,14,12,10,9,12,10,11,13,10,10,10,7,0,0,0,0,0,0,12,0,0,0,0,1,0,0,1,1,0,0,1,0,0,0,0,0,0,0,0,0,0,0,0,0,0,0,0,11,0,8,14
11,15,13,16,14,14,14,16,17,13,17,15,14,14,11,11,11,11,12,12,12,11,12,10,11,0,0,0,4,11,0,0,0,0,0,0,0,0,0,0,0,0,1,0,1,0,0,0,0,0,0,0,0,0,0,0,0,0,0,0,0,5,11,14
9,13,7,11,16,13,15,17,16,14,15,13,10,10,11,10,11,11,10,11,11,12,11,9,0,13,0,0,0,8,0,0,0,0,0,0,0,0,0,0,1,0,1,0,0,0,0,0,0,0,0,0,0,0,0,0,0,0,0,0,8,0,8,11
12,9,13,13,15,16,13,14,12,16,14,10,10,11,10,10,11,10,12,13,12,13,12,11,9,0,0,0,0,10,0,0,0,0,0,0,0,1,0,14,1,0,0,1,0,0,0,0,0,0,0,0,0,0,0,1,0,0,0,0,9,0,15,17
17,16,13,17,16,17,19,19,18,18,18,19,11,16,10,11,10,11,10,15,13,11,12,14,8,0,0,0,0,18,0,0,0,0,0,0,0,1,0,4,0,0,1,1,0,0,0,0,0,0,0,0,0,0,0,0,0,0,0,0,5,0,15,15
14,13,13,13,16,15,16,17,19,14,16,18,17,11,11,10,10,12,12,14,13,13,11,12,9,0,0,0,0,0,9,0,0,0,0,0,0,0,0,5,0,0,0,0,0,0,0,0,0,0,0,0,0,0,0,0,0,0,0,0,0,6,7,14
13,12,12,16,16,18,17,15,17,14,16,14,12,10,10,10,12,10,11,10,13,10,10,0,11,9,0,0,4,0,0,0,16,0,0,0,0,0,0,0,0,0,0,0,0,0,0,0,0,0,0,0,0,0,0,0,0,0,0,0,8,0,18,17
16,18,19,19,17,20,20,18,19,21,24,18,18,17,8,9,10,8,9,8,10,8,9,8,0,9,0,0,0,16,0,0,0,0,0,0,0,0,0,5,0,0,0,0,1,0,0,0,0,0,0,0,0,0,0,0,0,0,0,0,0,17,10,17
18,13,15,16,18,21,17,20,20,19,19,19,14,12,13,10,10,12,11,12,11,10,10,10,0,10,0,0,0,0,11,0,0,0,0,0,0,0,0,4,0,0,0,0,1,0,0,0,0,0,0,0,0,0,0,0,0,0,0,0,0,9,15,15
13,17,13,17,17,18,18,20,19,22,18,19,9,10,11,8,10,11,10,11,11,12,10,12,11,0,0,0,0,15,0,0,0,0,0,0,0,0,0,4,0,0,1,0,0,0,0,0,0,0,0,0,0,0,0,0,0,0,0,0,10,0,15,13
13,12,16,19,12,19,19,21,21,20,19,19,13,9,20,10,11,10,14,10,12,11,12,13,11,0,0,0,0,0,4,0,0,0,0,0,0,0,0,9,1,0,1,0,0,0,0,0,0,0,0,0,0,0,0,0,0,0,0,0,8,0,19,18
23,20,15,18,20,23,23,22,25,22,23,23,16,14,10,10,9,9,12,13,14,13,12,13,11,0,0,0,0,0,0,16,0,0,0,0,0,0,0,0,0,0,1,0,0,0,0,0,0,0,0,0,0,0,0,0,0,0,0,0,0,9,6,13
14,14,14,11,15,20,23,26,24,21,20,21,21,21,10,10,10,10,15,15,14,14,14,13,12,0,0,0,0,0,15,0,0,0,0,0,0,0,0,0,4,1,0,0,0,0,0,0,0,0,0,0,0,0,0,0,0,0,0,0,0,18,15,18
14,21,18,23,18,23,24,14,20,15,23,20,21,23,12,18,12,12,10,11,13,11,13,11,10,0,0,0,0,0,9,0,0,0,0,0,0,0,0,3,0,0,0,1,0,0,0,0,0,0,0,0,0,0,0,0,0,0,0,0,0,8,13,14
12,13,10,10,14,14,17,20,14,21,23,21,22,30,10,12,11,11,12,13,11,15,12,9,12,0,0,0,0,0,0,17,0,0,0,0,0,3,0,10,0,3,0,0,2,0,0,0,0,0,0,1,0,0,0,0,0,0,0,0,0,7,8,13
12,7,13,8,12,14,14,13,11,14,16,16,9,10,12,12,13,9,13,11,11,12,13,11,10,12,0,0,0,0,17,0,0,0,0,0,1,0,0,3,0,8,1,0,0,0,0,0,0,0,0,0,0,0,0,0,1,0,0,4,0,9,0,16
14,13,8,18,25,27,21,26,28,23,23,21,20,23,19,10,10,11,11,9,13,14,13,12,14,0,0,0,0,0,0,12,0,0,0,0,0,0,0,0,0,0,0,0,0,0,0,0,0,0,0,0,0,0,0,0,0,0,0,0,0,5,20,12
12,11,9,9,13,15,26,25,24,28,20,26,15,13,10,12,10,12,9,11,11,14,12,10,13,0,0,0,0,12,0,4,0,0,0,0,0,0,1,0,0,8,0,0,0,0,0,0,0,0,0,0,0,0,0,0,0,0,0,0,0,5,8,14
14,10,11,15,15,17,15,14,17,16,15,13,14,11,12,10,11,9,14,11,14,16,12,12,12,0,0,0,0,0,12,0,0,0,0,0,0,0,0,0,0,0,0,0,0,0,0,0,1,0,0,0,0,0,1,0,0,0,0,0,0,14,6,12
10,12,9,9,14,12,14,14,17,13,16,14,11,11,10,10,12,11,12,11,10,12,14,14,13,0,0,0,0,0,9,0,0,0,0,0,0,0,0,0,0,0,0,1,0,0,0,0,0,0,0,0,0,0,0,0,0,0,0,0,0,3,11,12
14,9,8,10,14,14,15,16,11,12,10,12,10,16,12,10,10,10,14,14,15,14,14,14,14,0,0,0,0,9,0,0,0,0,0,0,1,0,14,0,0,0,0,1,1,0,0,0,1,0,0,0,0,0,0,0,0,0,0,0,0,4,8,11
9,11,11,13,8,14,12,16,13,14,12,13,12,16,9,11,9,14,12,13,13,14,14,13,12,0,0,0,0,5,0,14,0,0,0,0,0,0,7,3,0,0,2,0,0,1,0,0,0,0,0,0,0,0,0,0,0,0,0,0,0,6,12,14
