60,12,54,42,18,48,72,72,72,78,96,72,72,72,60,60,60,54,60,54,54,48,66,42,0,42,0,0,0,102,0,0,0,0,0,0,0,0,0,0,36,12,0,18,0,6,0,0,0,0,0,0,0,0,6,0,0,0,0,0,0,0,54,60
48,30,66,12,18,48,60,72,78,78,84,84,78,72,72,78,72,78,72,84,72,90,78,72,42,0,0,0,0,66,0,0,0,6,0,0,0,0,78,0,6,0,0,0,36,0,0,0,0,0,0,0,0,0,0,0,0,0,0,0,0,6,54,66
12,60,18,12,48,48,42,84,78,84,84,78,72,72,72,78,78,84,90,60,78,78,84,78,0,0,60,0,0,0,60,0,0,0,0,0,6,0,0,60,6,0,0,18,0,0,6,0,0,0,0,0,0,0,0,0,0,0,0,0,0,0,60,66
24,60,48,12,42,60,48,78,84,102,90,84,72,90,78,84,78,72,84,72,84,72,72,84,66,0,0,0,0,0,0,66,0,0,0,0,0,0,42,0,0,6,12,30,0,0,0,0,0,0,0,0,0,0,0,0,0,0,0,0,6,0,60,66
12,60,12,60,48,72,54,72,96,72,102,90,78,90,84,84,78,96,84,84,78,90,84,84,72,0,0,0,0,0,0,90,0,0,0,0,12,0,0,0,0,0,0,0,0,0,0,0,0,0,0,0,0,0,0,0,0,0,0,0,0,72,42,72
48,60,12,42,54,60,78,84,84,66,90,78,108,72,90,84,72,78,72,84,78,90,72,78,54,0,0,0,0,0,72,0,0,0,0,0,0,0,0,60,0,0,0,0,0,0,0,0,0,0,0,0,0,0,0,0,0,0,0,18,0,0,72,72
48,18,48,54,12,54,66,78,72,78,84,72,66,60,60,54,60,66,66,60,60,54,54,60,48,0,0,54,0,0,60,0,0,0,0,0,0,0,0,0,0,6,0,0,0,0,0,0,0,0,0,0,0,0,0,0,0,0,0,0,0,30,60,18
48,60,48,36,12,42,66,66,66,66,96,66,78,96,66,66,72,60,66,78,60,60,60,72,0,66,0,0,0,0,60,0,0,0,0,0,0,0,30,0,0,0,0,0,0,0,0,0,0,0,0,0,0,0,0,0,0,0,0,0,0,66,6,66
66,12,60,42,18,54,90,54,78,72,78,84,84,84,72,66,66,60,54,72,60,72,66,60,54,0,0,0,0,0,72,0,0,0,0,0,0,6,0,30,0,0,0,18,0,0,0,0,0,0,0,0,0,0,0,0,0,0,0,0,0,0,72,54
54,12,12,30,48,48,60,72,78,84,96,72,66,72,90,60,48,60,54,72,60,54,54,60,0,0,42,0,0,0,96,0,0,0,0,0,0,6,0,0,0,0,0,0,0,0,0,24,0,0,0,0,0,0,0,0,0,0,0,0,0,6,72,60
48,12,66,18,6,48,84,78,96,66,84,96,90,84,72,78,72,78,72,72,84,72,84,72,48,0,0,0,0,0,0,0,0,0,0,0,0,0,0,0,0,6,0,36,0,0,0,0,0,0,0,0,0,12,0,12,0,0,0,0,0,18,66,54
48,48,12,54,18,60,54,72,84,72,96,126,78,84,78,78,84,78,84,84,84,84,72,72,0,60,0,0,0,54,0,0,0,0,0,0,0,0,24,0,0,0,0,36,0,0,0,0,0,0,0,0,0,0,0,0,0,0,0,6,0,0,72,66
48,18,72,12,72,84,12,66,72,84,90,84,84,84,78,84,84,84,96,84,78,84,84,84,0,60,0,0,0,0,108,0,0,0,0,0,0,6,0,72,0,0,0,30,0,0,0,0,0,0,0,0,0,6,0,0,0,0,0,18,0,0,66,42
18,54,54,12,60,84,18,90,72,84,84,72,78,72,48,60,66,60,54,60,60,60,60,54,0,54,0,0,0,0,0,0,0,0,0,0,0,0,24,0,0,0,255,0,0,0,0,0,6,0,0,0,6,0,0,0,0,0,0,0,0,90,12,54
72,6,12,48,54,54,54,78,84,90,78,84,78,96,78,66,84,90,84,78,84,90,72,72,0,0,0,0,0,0,54,0,0,0,0,0,0,0,0,48,12,0,0,0,0,0,0,0,0,0,0,6,6,0,0,0,0,0,0,0,0,0,48,66
66,72,12,54,60,66,66,72,72,90,84,84,72,84,72,60,60,60,60,60,60,60,72,60,66,36,0,0,0,102,0,0,0,0,0,0,0,90,6,6,0,0,0,114,0,0,0,0,0,0,0,0,0,0,0,0,0,0,0,0,0,6,78,72
60,54,48,60,18,18,72,96,66,90,66,84,72,78,66,60,54,66,54,72,60,54,60,72,48,0,0,0,0,0,60,0,0,0,0,0,0,0,0,42,0,0,0,54,0,0,0,6,0,0,0,0,0,0,0,6,0,0,0,0,0,6,60,90
12,66,54,66,66,72,54,90,96,84,96,72,72,72,84,72,84,72,78,72,72,84,84,18,78,0,0,0,0,0,54,0,0,0,0,0,0,12,30,0,0,0,12,0,0,0,6,6,0,0,0,6,0,0,0,12,0,0,0,0,0,0,72,72
60,54,18,60,12,54,18,78,84,90,78,90,78,66,78,72,48,60,60,60,54,60,72,54,0,54,0,0,0,0,0,0,0,0,0,0,0,0,60,0,0,0,12,0,0,0,0,0,0,0,0,0,0,0,0,0,0,0,0,0,0,6,78,12
72,18,66,12,66,96,66,78,66,84,78,84,78,96,96,102,78,78,72,78,90,84,78,84,60,0,0,0,0,0,60,0,0,0,0,0,0,0,0,0,6,0,0,0,0,0,0,0,0,0,0,0,0,0,0,0,0,0,0,0,0,84,6,60
60,48,54,60,18,54,78,66,84,66,78,84,78,72,60,84,54,60,60,66,60,72,54,60,0,0,72,0,0,0,102,0,0,0,0,0,0,0,0,0,72,0,0,0,6,0,0,6,6,0,0,0,0,6,0,0,0,0,0,0,0,6,84,66
12,12,54,42,12,60,54,78,84,84,84,78,84,90,78,78,72,72,66,72,66,60,78,72,0,0,0,0,0,0,96,0,0,0,0,0,0,0,72,0,0,30,6,0,0,0,0,0,0,0,0,0,0,0,0,0,0,0,0,0,0,0,72,66
60,18,60,18,66,60,60,84,84,84,72,96,72,60,72,54,66,60,54,54,60,60,54,60,48,0,0,0,0,0,54,0,0,0,0,0,0,0,0,0,0,0,0,0,255,0,0,120,18,0,174,66,96,96,24,48,0,0,66,0,30,0,12,66
18,12,78,12,54,54,84,78,96,72,96,66,120,72,72,54,66,60,54,54,60,54,54,54,54,18,0,0,0,66,0,0,0,0,0,0,0,0,0,48,6,0,0,0,6,0,0,0,228,0,0,162,12,18,0,96,0,0,0,0,0,0,48,84
48,60,12,60,72,72,84,72,72,90,84,66,72,174,162,72,96,102,54,54,66,72,48,60,126,12,0,0,0,0,96,0,0,0,0,0,0,0,0,66,0,0,0,18,0,0,0,174,0,0,0,0,0,0,0,0,0,0,0,60,0,0,48,72
60,54,12,18,72,36,60,54,96,90,84,102,108,102,96,78,84,180,66,102,84,84,114,90,66,0,0,0,0,102,0,0,0,0,0,0,0,0,84,0,12,0,6,0,6,0,0,0,0,0,0,0,0,0,0,0,0,0,0,0,0,6,60,60
48,6,12,48,66,66,60,84,72,78,78,96,78,84,66,60,60,54,72,60,48,60,48,66,42,0,0,0,0,0,66,0,0,0,0,0,0,0,54,0,0,0,0,0,0,42,0,0,0,0,0,0,18,0,0,0,0,0,0,0,12,0,54,84
72,12,12,66,72,60,66,84,66,84,90,72,84,96,78,78,72,84,96,36,84,66,48,54,48,0,0,0,0,0,66,0,0,0,0,6,0,0,0,0,0,255,0,0,0,0,0,255,0,0,24,0,0,0,0,0,0,0,0,0,6,0,66,66
12,42,72,6,66,60,42,96,90,90,78,84,78,84,84,84,66,66,72,66,72,78,72,66,66,0,0,0,0,60,0,0,0,0,0,0,0,0,0,0,0,0,30,0,0,0,0,0,0,0,0,0,0,0,0,0,0,0,6,0,0,60,0,60
60,30,18,72,60,66,72,102,84,84,78,96,72,72,54,66,54,66,60,66,66,54,48,54,48,0,0,0,0,0,0,66,0,0,0,0,0,0,0,78,12,0,0,6,0,0,0,0,0,0,6,0,0,0,0,0,6,0,0,0,0,6,78,60
12,66,48,54,66,60,90,60,84,78,108,90,84,84,72,72,78,66,78,72,84,54,84,66,0,60,0,0,0,0,72,0,0,0,0,0,0,0,0,72,0,0,0,0,0,0,0,0,0,0,0,0,0,0,0,0,0,0,0,0,0,72,30,72
72,18,48,12,84,54,60,96,78,96,84,66,78,84,72,54,78,60,72,60,60,66,60,48,78,0,0,0,0,0,0,60,0,0,0,0,0,0,18,18,0,0,0,0,0,0,0,0,0,0,0,0,0,0,0,0,0,0,0,0,6,0,60,72
18,60,6,72,48,48,78,72,78,90,96,84,72,72,72,66,48,54,48,54,66,54,60,72,48,0,0,0,0,0,60,0,0,0,0,0,0,0,0,66,0,0,0,0,0,0,138,6,0,0,0,0,0,0,0,0,0,0,0,0,0,12,72,90
12,72,6,6,60,60,72,90,72,72,90,78,66,66,72,54,60,54,60,60,72,66,60,66,54,0,0,0,0,90,0,0,0,0,0,0,0,0,90,6,0,0,0,0,0,0,0,0,0,0,0,0,0,12,0,0,6,0,0,0,0,6,54,72
78,24,6,66,66,66,78,90,78,96,78,72,96,66,60,54,54,48,60,60,60,54,54,48,0,48,0,0,0,0,90,0,0,0,0,0,6,0,0,138,0,12,0,36,0,6,6,0,0,0,0,0,0,0,6,0,0,0,0,0,0,24,66,84
12,60,18,60,6,60,66,72,78,90,90,72,72,66,72,60,60,48,54,60,72,66,78,78,60,0,0,0,0,0,0,102,0,0,0,0,0,0,54,0,0,6,0,0,6,0,6,0,0,0,0,0,0,0,0,0,0,0,0,0,0,12,12,72
72,12,72,42,72,60,66,84,96,90,90,84,72,90,78,72,60,54,48,66,66,72,72,72,48,0,0,0,0,0,66,0,0,0,0,0,0,0,0,18,0,0,12,6,0,0,0,0,0,0,0,0,0,0,0,0,0,0,0,0,18,0,66,72
72,12,12,72,36,72,60,78,84,96,84,72,72,72,66,72,48,54,54,48,66,66,66,66,42,0,0,0,0,0,54,0,0,0,0,0,0,0,0,0,84,0,0,6,0,0,0,0,6,0,18,0,0,0,0,0,0,0,0,0,0,24,66,72
54,66,6,12,60,60,60,84,78,96,72,84,84,66,72,54,48,54,60,48,60,54,84,60,0,0,0,0,0,0,0,102,0,0,0,0,0,0,0,66,0,0,0,0,0,0,0,0,0,0,6,0,0,0,0,0,0,0,0,0,0,6,60,54
60,18,66,18,42,84,60,72,72,72,102,78,72,72,66,60,60,54,48,54,72,78,72,66,66,0,0,0,0,0,0,0,66,0,0,0,0,0,0,72,0,0,0,0,6,0,6,0,0,0,0,0,0,0,0,0,0,0,0,0,0,42,60,60
12,60,18,12,72,60,90,78,72,90,78,90,72,66,54,66,66,54,72,60,54,60,54,48,48,36,0,0,0,0,84,0,0,0,0,0,0,0,0,42,0,6,0,30,0,0,0,0,0,0,0,0,0,0,0,0,0,0,0,0,0,6,72,60
48,12,60,18,48,72,90,72,72,78,78,78,84,54,66,66,48,54,72,78,72,84,60,72,54,0,0,0,0,0,0,102,0,0,0,0,0,0,0,0,0,0,0,42,0,0,0,0,0,0,0,0,0,0,0,0,0,0,0,0,0,0,72,72
12,54,18,18,42,84,72,78,96,84,78,84,66,72,84,60,60,60,54,66,54,54,66,60,0,42,0,0,0,0,0,108,0,0,0,0,0,0,30,0,18,0,0,0,6,0,0,0,0,0,0,0,0,0,0,0,0,0,0,0,0,12,60,72
60,18,54,18,72,54,78,78,72,84,60,78,72,66,60,90,54,54,54,54,48,60,54,54,48,0,0,0,0,0,108,0,0,0,0,0,0,6,0,72,0,0,0,0,0,0,6,0,0,0,0,0,0,0,0,0,0,0,0,0,0,0,72,72
18,72,12,12,60,54,84,90,72,90,72,90,84,72,78,48,66,48,60,60,54,60,54,60,48,0,0,108,0,0,0,0,0,0,0,0,0,0,0,0,60,0,0,0,0,0,0,0,0,0,0,0,0,0,0,0,0,0,0,12,0,78,0,66
30,12,18,72,48,66,84,54,84,84,90,72,78,60,72,66,48,54,48,54,66,72,60,72,0,60,0,0,0,0,90,0,0,0,0,0,0,0,0,36,0,0,0,0,0,6,6,0,0,0,228,0,0,0,0,0,0,0,0,0,0,12,84,48
48,6,66,72,12,54,60,108,102,84,84,78,84,114,96,96,114,90,78,90,84,96,72,0,84,66,0,0,0,96,0,0,0,0,0,0,0,6,0,0,0,102,0,0,6,0,0,0,0,0,0,0,0,0,0,6,0,0,0,0,0,6,96,84
42,60,12,72,18,60,60,72,72,78,90,72,78,72,72,72,84,84,72,60,84,72,54,72,54,0,0,0,0,0,72,0,0,0,0,0,0,0,0,0,54,0,0,0,0,0,0,0,0,0,0,0,0,0,0,18,0,0,0,0,0,12,54,54
6,42,54,60,72,54,66,60,72,84,90,66,66,66,78,66,54,60,78,54,60,72,54,84,30,0,0,0,0,60,0,0,0,0,0,0,6,0,84,0,0,6,0,0,0,0,0,0,0,0,0,0,0,0,12,0,6,0,0,0,0,6,90,84
24,12,18,66,66,72,54,72,84,84,84,72,72,84,54,72,48,60,60,48,54,60,60,48,48,0,0,0,0,0,0,102,0,0,0,0,0,36,0,0,42,0,0,0,0,0,0,0,0,0,0,0,0,0,0,0,0,0,0,0,0,6,72,18
