6,12,54,42,78,84,84,72,78,60,66,78,84,66,54,60,66,60,60,72,66,60,66,66,66,0,0,0,0,0,60,0,0,0,0,0,0,54,0,0,0,0,0,0,0,0,0,0,0,0,0,0,0,0,0,6,0,0,0,0,0,0,48,60
60,30,24,48,66,54,60,96,72,72,84,66,54,66,54,60,66,72,66,66,72,60,66,66,60,0,0,0,0,0,108,0,0,0,0,0,0,0,36,0,0,0,6,0,0,0,0,6,0,0,0,0,0,0,0,0,6,0,0,0,0,6,48,54
42,6,12,18,78,66,84,84,78,84,84,84,66,72,108,60,78,72,60,60,66,78,78,84,0,0,0,0,0,0,60,0,0,0,0,0,0,0,12,18,0,0,0,30,0,0,0,0,0,0,0,0,0,0,0,0,0,0,0,0,12,0,12,102
54,30,18,6,72,60,72,72,84,96,66,60,66,66,60,72,60,78,60,78,78,66,78,72,60,0,0,0,0,18,0,90,0,0,0,0,0,0,0,72,0,0,0,0,0,0,0,0,0,0,0,0,0,0,0,0,0,0,0,0,0,0,48,72
48,18,18,60,78,84,60,90,66,72,66,66,72,54,60,60,54,60,66,66,66,78,72,78,0,36,0,0,0,72,0,0,0,0,0,0,0,0,0,0,0,0,0,0,0,0,0,0,0,0,0,0,0,0,0,0,0,0,0,0,0,66,12,54
18,12,54,60,60,78,66,72,72,84,72,66,72,54,66,66,48,60,72,72,78,72,84,0,72,0,0,0,0,66,0,0,0,0,0,0,0,0,0,30,0,12,0,0,6,0,0,0,0,0,0,0,0,0,0,0,0,0,0,0,0,6,42,66
54,54,24,12,66,72,78,78,96,72,60,48,66,66,54,48,54,72,72,60,84,78,72,66,0,0,0,18,0,96,0,0,0,0,0,0,0,0,0,48,0,0,0,12,6,0,0,0,0,0,0,0,0,0,0,0,0,0,0,0,78,6,0,48
48,60,12,24,72,90,84,84,84,72,90,72,60,42,54,66,72,66,66,84,78,72,66,60,72,0,0,0,0,0,66,0,0,0,0,0,0,0,0,96,0,0,0,0,42,0,0,0,0,6,18,18,0,0,6,6,0,0,0,0,0,6,48,54
66,12,6,66,60,66,72,66,72,84,84,60,54,78,48,72,54,66,54,72,60,66,60,66,48,0,0,0,0,48,0,0,0,0,0,0,0,0,0,90,0,0,6,0,0,0,0,12,0,0,0,0,6,0,0,0,0,0,0,0,0,6,42,60
66,54,12,18,60,72,72,66,78,84,60,72,66,72,60,54,60,66,72,84,66,66,72,66,60,0,0,0,0,60,0,0,0,0,0,0,0,0,0,0,0,0,18,0,6,0,0,0,0,0,6,0,0,0,18,0,0,0,0,0,0,60,60,6
54,48,18,78,18,60,66,90,78,66,72,72,60,60,54,72,66,72,72,66,60,66,60,66,60,0,0,0,0,30,0,66,0,0,0,0,0,0,6,42,0,0,0,6,0,0,12,0,0,0,0,0,0,0,0,0,0,0,0,0,0,6,60,66
12,54,18,12,54,84,84,66,90,72,72,78,60,54,60,60,72,60,72,60,60,54,60,72,60,0,0,0,0,60,0,0,0,0,0,0,0,0,0,0,0,0,0,6,0,0,0,0,0,0,6,0,0,0,0,12,0,0,0,0,0,0,66,60
54,66,66,6,54,84,42,96,66,66,84,54,66,60,66,60,54,54,66,66,66,60,60,66,54,0,0,0,0,0,60,0,0,0,0,0,0,0,0,0,0,0,0,0,0,6,0,12,6,0,6,0,6,0,0,0,0,0,0,0,0,6,60,72
60,12,42,12,72,60,72,72,96,78,78,54,54,60,66,66,54,54,60,72,60,72,72,54,66,0,0,0,0,96,0,0,0,0,0,0,0,12,0,0,60,6,0,0,0,0,0,0,6,0,12,12,6,6,0,0,0,0,0,0,0,54,6,84
12,60,12,18,84,78,90,66,72,96,60,72,60,60,66,60,60,60,66,60,60,66,60,42,72,0,0,0,0,0,60,0,0,0,0,0,0,0,54,0,0,0,0,18,0,0,0,6,6,0,0,6,0,0,6,6,6,0,0,0,12,0,18,54
60,18,18,90,72,66,78,78,96,84,66,54,48,60,48,60,60,60,60,72,66,60,60,66,42,0,0,0,96,0,0,0,0,0,0,0,0,6,0,24,0,6,0,0,0,0,0,6,18,0,0,0,0,0,6,12,0,0,0,0,0,54,6,42
6,66,12,18,72,60,66,72,66,78,72,66,60,60,48,54,60,54,48,54,54,60,72,78,0,60,0,0,18,0,42,0,0,0,0,0,0,0,0,6,72,0,0,30,0,0,6,0,6,0,0,6,0,0,0,0,0,0,0,0,6,0,72,12
18,18,18,60,66,66,84,72,96,72,72,72,90,66,60,60,60,60,54,60,60,60,60,54,66,0,0,0,54,0,0,0,0,0,0,0,6,6,0,0,0,0,18,6,0,0,0,0,12,6,0,0,0,0,0,0,30,0,0,0,0,54,60,60
66,54,6,6,66,78,78,78,72,78,78,72,60,54,48,60,72,66,72,72,72,78,78,78,72,0,0,12,0,0,96,0,0,0,0,0,0,12,0,78,0,0,0,12,0,0,0,0,6,12,30,0,0,0,0,0,0,0,0,0,0,6,42,6
48,60,66,12,60,60,84,72,78,84,60,66,60,66,60,66,54,72,72,72,54,60,66,72,0,0,72,0,0,0,102,0,0,0,0,0,0,6,18,0,0,0,0,0,0,0,0,0,0,0,0,0,0,0,0,0,0,0,0,0,6,0,60,60
54,66,12,60,66,66,84,72,66,78,60,84,60,48,60,126,60,60,54,60,60,60,60,60,66,0,0,24,0,0,102,0,0,0,0,0,0,0,72,0,0,0,0,6,12,0,0,0,0,0,0,0,0,0,6,0,0,0,0,0,0,6,42,60
60,42,18,18,72,84,66,78,90,72,78,66,72,66,66,66,60,66,72,60,66,72,60,78,0,48,0,0,0,0,60,0,0,0,0,0,6,0,0,12,0,0,24,24,0,12,0,0,0,6,0,0,0,0,0,0,0,0,0,0,6,0,12,48
18,48,18,18,60,60,72,60,90,96,66,72,66,66,72,60,54,60,60,54,72,60,60,66,54,0,0,0,0,0,48,0,0,0,0,0,0,0,0,60,0,18,0,0,0,0,0,0,0,0,0,0,0,6,0,0,0,0,0,0,0,30,6,48
18,48,72,30,72,60,66,66,72,66,66,60,48,54,54,48,54,66,66,72,72,54,72,66,54,0,0,0,24,0,96,0,0,0,0,0,0,6,60,0,0,6,0,0,0,0,0,0,6,6,0,0,0,0,6,0,0,0,0,0,0,6,30,54
60,18,42,60,72,72,66,78,72,84,78,60,60,48,60,54,48,48,60,60,60,66,72,72,60,0,0,0,24,0,0,0,0,0,0,0,0,0,36,0,0,18,0,18,0,0,0,0,0,0,0,0,0,0,0,0,0,0,0,0,0,6,72,12
60,60,18,12,60,84,78,66,72,66,72,72,84,60,54,54,48,54,66,60,66,66,60,60,60,0,0,0,0,0,66,0,0,0,0,0,0,0,42,0,12,0,0,0,6,0,0,0,0,0,0,0,0,0,0,0,0,0,0,0,0,0,66,60
24,60,18,12,60,60,78,66,66,90,78,66,54,60,60,60,72,60,72,66,72,66,78,72,66,0,0,0,0,0,54,0,0,0,0,0,6,0,0,0,24,0,0,6,0,0,0,0,0,0,0,0,0,0,0,0,0,0,0,0,0,6,60,72
30,72,60,12,54,72,66,72,84,84,78,60,54,60,48,60,60,60,72,66,60,66,60,60,0,42,0,0,18,0,0,108,0,0,0,0,0,0,0,30,0,0,0,6,0,0,0,0,0,0,0,0,0,6,6,0,0,0,0,0,0,30,66,42
66,18,48,72,66,84,72,78,72,90,78,66,60,60,54,48,54,60,60,60,60,66,60,54,60,0,0,0,42,0,0,96,0,0,0,0,0,0,6,30,12,0,0,0,0,0,0,0,0,0,0,0,0,0,6,0,0,0,0,0,0,0,12,42
30,12,18,54,66,72,114,78,72,72,78,72,60,78,60,72,60,66,60,60,66,60,72,0,54,66,0,0,66,0,0,0,0,0,0,0,6,0,0,42,0,12,0,0,0,0,0,0,0,0,6,0,0,0,0,0,0,0,0,0,0,12,18,60
6,54,18,66,18,60,66,90,66,84,108,66,66,66,48,66,60,54,66,60,72,72,78,54,66,0,0,18,0,0,48,0,0,0,0,0,0,0,0,48,0,6,0,0,0,0,0,0,0,0,0,6,0,0,6,0,0,0,0,0,0,6,72,42
54,48,12,66,42,66,84,54,72,66,84,48,66,54,54,54,60,78,66,66,72,60,72,78,60,0,0,0,0,0,102,0,0,0,0,0,0,0,0,12,30,0,0,0,6,0,0,0,0,0,0,6,0,0,0,0,0,0,0,0,6,48,0,54
48,48,72,84,72,6,66,72,72,78,72,72,60,60,60,72,60,60,66,72,66,72,60,60,60,0,0,30,0,96,0,0,0,0,0,0,0,6,60,0,0,0,6,0,0,0,0,0,0,0,0,0,0,0,0,0,0,0,0,0,0,12,36,66
12,48,12,48,48,72,72,66,60,66,66,72,72,66,66,60,60,66,60,66,66,72,66,72,60,0,0,0,0,0,72,0,0,0,0,0,24,0,0,6,48,6,0,6,0,0,0,0,0,0,0,0,0,0,0,0,0,0,0,0,0,0,66,30
54,60,12,18,60,54,72,78,66,78,66,60,72,54,60,54,54,72,78,60,72,60,66,66,60,0,0,0,24,0,48,0,0,0,0,0,0,0,24,0,0,0,12,0,0,0,0,6,0,0,6,0,0,0,0,0,0,0,0,0,0,6,6,72
18,12,18,54,48,72,60,90,102,60,66,72,78,60,72,60,84,60,60,60,60,54,78,60,60,0,0,0,0,0,0,0,66,0,0,0,0,0,0,72,0,0,0,0,0,0,0,0,0,0,0,0,0,0,0,0,0,0,0,0,0,12,48,54
48,54,60,6,66,60,72,66,90,66,72,60,72,72,60,60,132,60,66,60,72,60,60,72,30,0,0,0,0,0,48,0,0,0,0,0,0,0,54,30,6,0,0,162,0,0,0,0,0,6,0,0,0,0,0,114,0,0,0,0,0,12,60,60
66,6,24,12,66,66,60,72,72,72,60,60,84,78,66,72,90,54,66,60,66,78,126,66,60,0,0,0,0,0,0,0,54,0,0,0,0,0,0,0,0,0,12,6,0,0,0,0,0,0,0,0,0,0,240,0,18,0,0,0,0,30,6,60
12,54,18,54,12,72,54,66,72,84,84,84,126,60,60,54,54,66,66,66,66,54,66,66,54,0,0,12,0,0,84,0,0,0,0,0,0,0,36,6,0,0,6,0,204,0,0,0,6,0,0,0,0,0,0,0,0,0,0,0,0,18,60,60
54,6,66,72,12,60,60,72,60,78,78,72,60,60,42,54,54,60,60,72,66,66,60,60,0,36,0,18,0,0,0,0,0,0,0,0,0,0,72,0,0,0,6,0,6,0,0,0,0,0,0,0,6,0,0,0,0,0,0,0,0,30,48,42
18,12,60,12,72,66,60,78,96,84,72,72,90,72,72,72,60,72,66,66,66,54,60,60,72,0,0,0,0,0,0,54,0,0,0,0,0,0,0,84,0,0,0,6,0,0,0,0,0,0,0,0,0,0,0,0,0,0,0,18,0,0,54,72
54,54,12,18,72,60,66,60,66,90,78,72,66,78,66,66,66,72,72,84,84,72,66,78,78,0,0,0,0,0,60,0,0,0,0,0,0,0,0,90,0,0,0,255,0,0,0,0,0,0,0,6,0,0,0,0,0,0,0,0,6,0,42,72
48,42,18,18,72,66,72,84,66,96,72,78,72,78,60,60,60,60,78,72,72,60,60,0,78,0,0,0,0,0,90,0,0,0,0,0,0,0,60,0,6,6,0,0,0,0,0,0,0,0,0,0,0,0,12,0,0,0,0,0,0,6,36,60
60,6,54,24,48,66,54,66,84,102,72,60,60,84,66,72,60,54,66,78,84,72,84,78,60,0,0,0,0,0,72,0,0,0,0,0,0,0,72,0,0,0,0,0,0,0,0,0,0,0,0,0,0,0,0,0,0,0,0,0,0,6,42,54
12,12,60,60,66,72,72,66,78,78,60,66,72,60,54,78,66,60,66,66,78,66,66,72,60,0,0,0,24,78,0,0,0,0,0,0,0,0,0,72,6,0,0,12,6,0,0,0,0,0,0,0,0,0,0,0,0,0,0,0,6,0,72,36
12,48,72,6,60,78,66,60,72,84,78,60,72,66,72,66,84,78,84,78,84,84,78,72,54,0,0,0,0,0,60,0,0,0,0,0,0,18,0,0,18,0,0,48,0,0,0,0,0,0,0,0,0,0,0,12,0,0,0,0,0,6,42,36
42,54,12,54,60,54,72,72,84,66,90,78,60,60,60,60,84,72,72,84,84,72,78,78,0,48,0,0,0,0,84,0,0,0,0,0,0,12,0,90,0,0,0,6,0,0,0,0,0,0,0,0,0,0,0,0,0,0,0,0,0,6,48,6
12,42,18,48,18,78,66,72,78,72,60,78,66,60,72,60,84,66,78,60,66,60,66,72,0,0,0,0,24,0,42,0,0,0,0,0,0,0,60,0,0,6,0,0,0,0,6,0,0,0,0,0,0,6,0,0,0,0,0,0,0,6,60,36
60,72,12,60,48,84,72,90,96,66,60,84,54,60,78,66,66,78,78,72,54,78,84,72,0,0,0,0,0,0,84,0,0,0,0,0,0,0,0,18,36,18,0,6,0,0,0,0,0,0,0,0,0,0,0,0,0,0,0,0,0,6,54,30
66,12,18,48,12,60,66,60,96,84,72,66,72,60,72,72,60,72,84,66,72,84,84,72,72,0,0,0,0,0,60,0,0,0,0,0,0,0,24,0,0,0,6,0,0,6,0,0,0,0,0,0,0,6,0,0,0,0,0,0,0,6,6,42
