170,160,140,170,120,180,180,170,170,170,190,170,140,120,120,110,100,130,120,110,130,140,130,120,100,0,0,0,0,180,0,50,0,0,0,0,0,0,0,20,0,10,0,0,0,0,10,0,0,30,0,0,50,0,0,0,0,0,0,0,0,60,170,120
190,170,150,200,150,180,200,210,180,150,200,130,130,110,100,100,100,120,120,120,120,120,130,120,130,0,0,0,0,40,0,0,110,0,0,0,10,50,0,0,10,10,0,0,0,0,10,0,0,0,0,0,0,0,30,20,0,0,0,0,10,0,130,130
80,100,100,120,110,130,120,130,120,160,130,120,100,110,120,100,100,130,120,130,130,120,120,110,130,0,0,0,0,100,30,0,0,0,0,0,0,0,0,0,0,0,0,0,50,0,0,0,0,10,20,0,0,0,0,0,0,0,0,0,0,120,70,120
110,110,90,90,90,110,130,120,100,170,130,140,110,100,110,110,100,110,120,120,140,130,140,130,100,0,0,0,0,30,0,90,0,0,0,0,0,0,0,20,0,0,10,0,20,0,0,0,0,0,0,10,0,0,0,0,0,0,0,0,0,10,100,120
110,80,90,110,100,110,130,120,120,130,130,120,140,100,100,80,100,90,90,80,100,110,100,100,0,100,0,0,0,40,90,0,0,0,0,0,0,0,0,0,0,0,0,40,10,10,0,10,20,0,10,30,0,0,10,0,0,0,0,0,70,120,0,100
110,130,80,80,130,100,110,100,120,120,140,110,140,110,110,100,120,120,130,140,120,130,110,130,120,0,0,0,40,0,100,0,0,0,0,0,0,0,20,0,60,0,10,0,80,0,0,0,0,0,0,0,0,0,0,0,0,0,0,0,0,70,20,150
150,140,120,100,160,120,100,100,170,100,120,130,110,100,90,110,110,110,120,120,110,130,120,130,120,0,0,0,0,50,160,0,0,0,0,0,0,0,0,0,110,0,0,0,50,10,0,0,0,0,0,0,0,0,0,10,0,0,0,0,0,10,150,90
110,150,80,90,130,100,90,100,120,110,150,100,120,100,140,80,110,120,130,120,120,100,120,120,0,130,0,0,0,0,150,0,0,0,0,0,0,0,50,0,0,20,0,0,0,0,10,0,0,0,10,20,0,0,10,0,0,0,0,0,0,90,10,100
140,140,170,160,160,190,200,190,230,180,170,120,110,140,120,100,110,120,120,120,140,140,110,130,120,0,0,0,0,40,100,0,0,0,0,0,0,50,0,0,0,0,20,0,0,20,0,0,0,0,0,0,0,0,0,0,0,0,0,100,0,0,120,120
100,110,120,120,110,120,120,160,100,120,110,130,100,110,100,110,110,110,120,130,140,120,110,140,0,0,120,30,0,0,0,90,0,0,0,0,0,0,10,0,0,0,0,10,30,10,10,0,10,0,0,0,20,0,0,0,0,0,0,0,0,110,160,100
170,140,130,140,170,170,160,180,170,160,120,130,100,130,110,110,120,120,120,110,120,130,140,120,130,0,0,0,0,160,0,0,0,0,0,0,0,0,40,10,0,0,0,110,0,0,0,0,0,10,0,0,0,0,0,0,0,0,0,0,0,30,140,100
100,120,100,120,110,120,120,130,120,120,120,120,120,100,100,130,90,120,120,110,130,120,130,120,100,0,0,0,0,0,0,120,0,0,0,0,40,0,0,60,0,0,0,50,0,0,10,0,10,0,0,0,10,0,0,0,0,0,0,0,0,60,110,140
90,100,120,110,110,120,140,110,140,120,140,120,110,110,100,100,110,120,130,140,120,130,120,110,90,0,0,0,0,150,50,0,0,0,0,0,0,0,0,80,0,0,0,70,20,0,0,0,0,0,30,0,0,0,0,0,0,0,0,0,0,70,90,130
140,140,140,180,150,110,100,100,140,140,160,130,130,90,120,100,110,130,110,110,120,120,130,110,110,0,0,0,0,0,100,0,0,0,0,0,0,0,100,0,0,10,0,0,20,0,0,0,0,0,0,0,0,0,0,0,0,0,0,10,0,0,120,120
140,100,100,140,130,130,150,100,140,140,140,110,140,130,130,100,100,110,130,120,120,130,120,120,120,0,0,0,0,40,0,100,0,0,0,0,0,0,0,100,0,0,30,0,0,0,0,30,0,0,0,0,0,20,0,0,0,0,0,0,60,0,130,110
80,100,120,70,110,120,120,100,120,150,120,140,110,100,90,120,100,120,120,140,120,120,140,120,110,0,0,0,0,0,110,0,0,0,0,0,0,0,0,60,40,0,0,10,0,0,0,0,0,0,0,0,0,0,0,0,0,0,0,0,0,110,10,140
100,100,100,70,110,100,90,80,130,140,140,120,90,120,100,110,120,140,120,140,100,130,130,120,120,0,0,0,0,0,120,0,0,0,0,0,0,0,30,0,0,20,0,0,50,0,0,0,0,0,0,0,0,0,0,0,0,0,0,0,0,100,30,170
90,110,120,90,80,120,130,120,120,120,150,110,90,120,100,110,100,110,130,130,130,140,120,130,90,0,0,0,0,0,0,150,0,0,0,0,0,10,0,0,90,0,50,10,10,0,0,0,0,0,0,0,0,0,0,0,0,0,0,0,0,80,90,120
120,90,120,50,130,100,130,130,120,140,130,120,80,120,90,80,90,100,90,110,100,110,100,90,70,0,0,0,0,0,0,0,100,0,0,0,20,0,100,0,0,0,40,20,0,0,0,0,0,0,0,0,0,0,0,0,0,0,0,0,0,10,120,130
120,110,120,110,120,110,110,140,130,120,160,110,100,100,120,110,120,100,120,110,120,120,130,110,110,70,0,0,0,0,100,0,0,0,0,0,0,0,0,0,140,0,10,50,0,0,0,0,0,0,0,0,0,0,0,0,0,0,0,0,0,80,120,120
100,110,110,120,100,120,120,130,120,120,150,130,100,120,110,160,150,120,120,140,120,140,110,140,140,0,0,0,0,40,110,0,0,0,0,0,0,0,0,0,0,10,0,20,0,10,0,10,0,0,0,10,0,0,0,0,0,0,0,0,0,100,140,100
90,90,80,110,130,100,120,130,140,110,140,100,120,100,100,110,120,120,120,120,120,110,110,130,110,0,0,0,0,40,0,120,0,0,0,0,0,0,0,30,0,0,10,30,0,20,0,0,0,0,0,0,0,0,10,0,0,0,0,0,0,20,70,140
90,120,100,140,60,100,120,130,120,160,140,100,120,110,110,110,110,110,110,120,120,130,120,110,100,0,0,0,0,100,30,0,0,0,0,0,0,0,0,80,0,10,0,40,0,0,0,0,0,0,0,0,0,0,0,0,0,0,0,0,0,110,20,80
120,90,40,90,110,120,140,130,140,130,150,130,120,120,100,120,120,90,140,140,150,120,120,130,0,0,0,0,0,0,160,0,0,0,0,0,0,10,0,80,0,0,20,0,0,30,0,0,0,0,0,0,0,0,0,0,0,0,0,0,0,80,130,110
100,120,100,110,100,80,110,120,100,140,110,140,110,90,90,120,120,140,130,130,120,130,120,120,120,0,0,0,0,0,100,0,0,0,0,0,0,0,100,60,0,0,10,0,0,0,0,0,0,0,0,0,0,0,0,0,0,0,0,0,0,60,110,100
120,100,100,100,110,100,120,100,130,170,140,100,100,120,90,110,100,120,110,110,110,110,120,130,80,0,0,0,0,50,100,0,0,0,0,0,0,0,0,130,0,10,0,20,0,0,0,40,0,0,0,0,10,0,0,0,10,0,0,0,0,100,10,100
60,80,110,90,100,90,110,100,100,130,120,100,100,80,90,80,110,100,100,110,100,100,100,100,110,0,0,0,0,50,0,120,0,0,0,0,0,0,0,0,10,0,70,0,0,0,0,0,0,10,20,0,0,0,0,0,0,0,0,0,0,90,10,100
90,100,70,100,100,110,120,120,140,150,130,120,100,130,100,100,130,110,110,120,120,130,130,110,120,0,0,0,0,40,0,100,0,0,0,0,0,0,100,0,0,30,0,10,0,0,0,0,0,0,10,0,20,0,0,0,0,0,0,0,30,0,120,70
120,110,110,120,80,100,100,110,120,150,120,130,120,100,120,120,90,120,110,110,110,110,110,120,0,110,0,0,0,40,80,0,0,0,0,0,0,0,0,100,0,10,0,20,0,0,0,10,0,0,0,0,0,0,0,0,10,0,0,0,40,0,90,130
120,110,100,110,110,110,120,130,150,120,110,110,100,110,110,100,130,120,130,130,120,130,140,110,0,0,0,0,0,0,170,0,0,0,0,0,0,0,10,30,0,0,50,10,0,0,30,0,0,0,0,0,0,0,0,0,0,0,0,0,0,70,100,130
110,100,100,120,110,130,130,120,130,150,170,120,120,120,100,100,110,110,130,120,120,110,140,0,120,100,0,0,0,0,80,0,0,0,0,0,0,0,0,0,0,0,10,60,10,0,10,10,0,0,0,0,0,10,0,0,0,0,0,0,140,80,0,120
120,80,120,80,120,150,110,110,130,120,150,140,110,110,110,120,100,120,160,110,120,110,130,120,90,0,0,0,0,0,100,0,0,0,0,0,0,0,0,90,0,10,170,0,70,10,0,0,0,0,0,0,0,0,0,0,0,0,0,0,0,50,130,140
110,110,120,110,90,140,110,130,120,150,110,120,110,110,120,120,100,100,100,110,110,130,110,100,110,0,0,0,0,40,80,0,0,0,10,0,0,0,0,70,0,0,20,10,0,0,255,0,0,0,10,10,10,0,0,0,0,0,0,0,70,0,90,140
120,140,140,140,160,150,170,150,90,130,150,110,120,120,100,100,100,100,120,120,120,120,110,120,0,120,0,0,0,170,0,0,0,0,0,0,0,0,0,0,0,80,0,0,0,0,0,0,10,0,0,0,0,0,0,0,0,0,0,0,0,120,10,110
140,110,130,80,90,120,100,120,120,150,140,120,110,100,100,100,100,120,120,120,130,120,140,120,110,0,0,0,0,0,100,0,0,0,0,0,0,0,0,0,90,0,0,10,20,0,0,0,10,0,0,0,0,0,0,0,0,0,0,70,0,10,70,0
110,70,80,30,110,140,120,100,110,150,100,130,100,100,90,100,100,110,130,130,120,120,100,130,110,0,0,0,0,170,0,0,0,0,0,0,0,0,70,0,0,0,10,0,0,30,0,0,0,10,0,0,0,0,0,0,0,0,0,0,0,80,120,120
80,100,90,110,110,120,130,110,100,140,120,120,100,110,100,100,110,120,140,100,130,140,120,130,110,0,0,0,0,0,0,0,0,0,0,0,0,30,0,90,30,0,0,70,10,0,0,0,0,0,0,0,0,0,0,0,0,0,0,0,0,10,120,100
90,110,100,110,110,120,120,150,100,130,130,120,140,120,120,110,100,130,130,120,130,140,130,0,120,0,0,0,0,30,0,0,140,0,0,0,0,70,0,0,0,0,10,50,0,0,0,0,10,0,20,0,0,0,0,0,10,0,0,0,0,60,100,120
120,90,110,80,100,130,100,110,130,130,100,120,120,110,120,110,130,120,120,130,140,140,160,130,0,100,0,0,0,0,100,0,0,0,0,0,0,0,0,100,0,0,0,20,0,0,0,0,0,0,0,10,20,0,10,0,0,0,0,0,0,30,140,120
90,120,70,110,60,120,130,120,100,150,140,120,110,100,100,120,100,130,130,120,130,130,150,120,0,120,0,0,0,0,80,0,0,0,0,0,0,0,0,70,0,10,0,10,20,0,0,0,0,0,0,0,0,0,10,0,0,0,0,0,0,70,30,100
100,110,130,120,100,110,120,120,120,120,110,130,110,130,140,120,120,150,130,150,120,120,140,100,120,0,0,0,0,30,90,0,0,0,0,0,20,80,0,0,10,0,10,0,90,10,0,0,0,10,0,0,0,0,0,0,0,0,0,0,0,70,0,100
110,40,100,100,110,100,100,120,120,150,120,130,120,100,100,120,120,120,120,140,120,130,120,120,110,0,0,0,0,40,90,0,0,0,0,0,0,0,0,80,0,10,0,10,60,10,0,0,10,0,40,0,0,10,0,0,20,0,0,0,0,70,100,80
120,130,100,100,160,100,160,130,120,140,100,150,120,120,140,120,120,130,140,140,130,120,140,130,130,0,0,0,0,40,0,170,0,0,0,0,10,0,20,0,0,0,0,0,50,10,0,0,0,0,20,0,0,0,50,0,0,0,0,0,10,0,110,90
140,100,50,80,110,130,140,130,120,150,150,130,120,120,120,130,120,110,140,140,130,130,120,130,0,140,0,0,0,0,0,0,100,0,0,0,0,0,0,110,10,0,0,10,20,50,10,10,0,0,0,10,0,10,0,0,10,0,0,0,80,0,80,110
110,80,40,100,110,80,110,120,100,140,100,110,140,100,120,100,120,120,110,110,120,130,120,140,110,0,0,0,0,130,0,0,0,0,0,0,0,30,70,0,0,10,0,0,0,10,0,0,0,0,10,0,0,10,20,20,10,0,0,0,30,0,100,100
80,110,120,90,100,100,110,110,120,120,130,110,110,100,90,100,100,110,110,140,130,120,120,120,110,0,0,0,0,90,50,0,0,0,0,0,0,0,0,20,40,0,20,0,0,0,0,0,0,0,0,0,0,10,0,0,0,0,0,10,0,0,80,60
130,90,10,120,100,90,110,130,100,140,170,120,100,90,90,100,140,110,120,130,140,110,100,110,110,0,0,0,40,0,90,0,0,0,0,0,30,0,100,0,0,0,0,10,10,0,0,0,0,20,0,0,0,0,0,0,0,0,0,0,0,10,130,110
110,110,90,80,130,110,100,110,110,140,150,90,120,120,90,120,100,140,110,130,120,100,130,10,120,0,0,0,0,0,120,0,0,0,0,0,0,0,0,0,0,0,10,0,20,0,0,0,10,0,10,0,0,0,0,0,0,0,0,0,0,100,20,80
50,100,100,120,100,120,110,100,100,130,120,110,130,110,90,100,120,120,120,130,120,140,120,100,0,120,0,0,0,30,70,0,0,10,0,0,0,0,0,0,10,0,0,20,10,0,0,10,0,60,0,0,0,30,0,0,0,0,0,0,0,40,60,90
90,70,110,100,90,120,90,110,120,160,160,100,100,90,100,100,90,120,110,110,120,110,120,90,70,0,0,0,0,100,0,0,0,0,0,0,10,0,10,30,0,0,0,0,70,0,0,10,10,0,0,30,40,20,0,0,0,0,0,0,0,70,120,10
