91,14,84,7,35,91,84,77,98,105,91,84,63,91,70,63,49,70,56,63,63,56,49,63,28,56,0,0,0,14,0,63,0,0,0,0,7,0,56,21,7,0,0,0,0,0,0,0,0,0,0,0,0,0,0,0,0,0,0,0,7,0,77,63
56,84,77,49,21,70,70,70,98,91,98,49,84,56,91,49,63,56,63,56,70,56,77,70,56,35,0,0,0,21,0,77,0,0,0,7,0,0,0,35,0,0,0,0,0,7,7,0,0,0,63,0,0,0,0,0,0,0,0,0,0,70,98,91
63,63,28,42,70,98,84,105,98,91,84,91,91,84,56,56,56,56,49,49,56,63,70,56,56,35,0,0,0,0,70,0,0,0,0,0,0,0,7,42,0,7,0,0,0,0,0,0,0,0,0,0,0,0,0,0,0,0,0,0,0,7,77,77
14,77,35,77,84,84,77,112,105,84,119,91,98,77,77,56,70,49,56,56,63,56,49,70,70,35,0,0,21,0,0,91,0,0,0,0,0,0,0,84,14,0,0,0,0,0,0,0,0,0,0,0,0,0,0,0,0,0,0,0,0,7,84,63
91,84,21,14,98,119,84,77,91,112,70,91,70,77,63,70,56,63,49,49,56,42,49,49,49,0,0,0,28,0,0,77,0,0,0,0,0,0,0,0,0,0,0,0,0,0,0,0,7,0,0,0,0,0,0,0,0,0,0,0,0,21,98,77
91,56,21,105,35,84,91,84,70,91,70,84,84,63,63,70,49,56,70,56,63,63,63,56,56,0,0,0,0,28,0,0,70,0,0,0,0,0,0,105,0,0,0,0,7,0,0,0,0,0,0,0,0,0,0,0,0,0,0,0,7,84,91,0
77,91,21,91,56,91,98,77,84,112,84,98,84,98,77,70,63,56,42,56,56,49,63,63,56,42,0,0,0,0,91,0,0,0,0,0,0,77,0,0,7,0,0,0,0,0,0,0,0,0,0,0,0,0,0,0,0,0,0,0,0,84,7,91
77,42,84,14,91,84,105,84,98,112,105,98,91,84,56,56,49,63,56,49,56,56,56,49,56,35,0,0,0,0,70,0,0,0,0,0,0,0,0,0,49,0,7,7,0,0,0,0,0,0,0,0,0,0,0,7,0,0,0,0,0,7,56,84
70,21,49,105,77,84,91,84,119,98,133,91,91,91,56,70,77,56,56,49,49,56,49,49,49,35,0,0,0,0,84,0,0,0,0,0,0,0,0,21,84,0,0,0,7,0,0,0,0,0,0,0,0,0,0,0,0,7,0,0,0,14,7,14
98,70,63,21,63,84,91,84,98,70,84,49,77,70,56,49,56,126,49,56,42,49,56,49,56,0,35,0,0,0,70,0,0,0,0,0,0,0,0,70,0,0,0,0,0,7,7,0,0,0,0,0,0,0,0,0,0,0,0,14,0,0,77,91
77,70,7,91,28,84,98,98,98,98,84,98,77,56,70,56,56,56,49,49,63,49,42,49,49,70,0,0,0,0,70,0,0,0,0,0,0,7,0,56,0,0,0,0,0,7,0,0,0,0,0,0,0,0,0,0,0,0,0,0,0,70,7,56
77,14,98,77,21,84,105,98,98,98,98,98,84,91,77,84,63,49,49,49,49,56,42,63,56,28,0,0,0,0,77,0,0,0,0,0,0,0,0,91,0,0,0,0,0,0,0,0,0,0,0,0,0,0,0,0,0,0,0,0,0,42,77,84
7,14,84,91,35,77,84,98,84,77,84,84,63,70,56,56,56,56,42,56,56,56,56,56,28,49,0,0,0,70,0,0,0,0,0,0,0,0,0,7,28,0,0,0,0,0,0,0,0,0,0,0,0,0,0,0,0,0,0,0,0,91,35,70
98,7,56,14,91,91,77,84,126,91,98,84,70,70,63,63,56,63,49,70,56,42,49,49,49,35,0,0,28,0,84,0,0,0,0,0,0,0,84,0,0,0,0,0,0,0,35,0,0,0,0,0,0,0,0,0,0,0,0,0,7,0,70,56
14,91,21,56,35,84,91,112,112,84,91,119,84,84,112,49,63,70,56,56,35,56,63,63,56,42,0,0,0,70,0,0,0,0,0,0,0,0,21,0,0,7,0,0,0,0,0,0,0,0,0,0,0,0,0,0,0,0,0,0,21,0,91,91
98,7,84,63,49,84,84,91,105,105,84,98,91,63,70,49,84,56,49,56,63,49,49,49,49,0,28,0,0,0,91,0,0,0,0,0,0,0,35,0,7,0,0,7,0,0,0,0,0,0,0,0,0,0,0,0,0,0,0,0,0,63,0,28
21,84,84,14,28,91,84,84,112,98,105,98,91,84,56,84,63,56,56,56,63,63,56,49,0,49,0,0,28,0,0,91,0,0,0,0,0,0,0,21,0,0,0,0,0,0,0,0,0,0,0,0,0,0,0,0,0,0,0,0,42,0,70,91
77,21,98,70,21,98,91,91,112,98,91,84,98,77,84,70,56,49,49,56,56,56,49,56,56,0,0,0,0,0,63,0,0,0,0,0,0,0,0,0,0,7,0,0,0,0,0,0,0,0,0,0,0,0,0,0,0,0,0,0,0,7,49,63
7,77,14,14,70,98,77,84,98,84,98,84,112,84,49,42,49,56,63,56,49,49,42,56,56,42,0,0,0,0,0,0,84,0,0,0,0,0,0,49,0,0,0,0,7,0,0,28,35,0,0,0,0,0,0,0,0,0,0,0,0,49,70,56
70,14,14,77,91,91,84,77,77,98,84,77,91,98,70,49,63,49,56,49,49,49,49,56,49,0,0,0,0,0,0,84,0,0,0,0,0,0,0,42,0,0,0,7,0,0,0,0,0,0,0,0,0,0,0,0,0,0,0,0,0,7,77,98
91,84,21,35,98,84,91,84,91,84,91,77,70,70,63,63,70,42,56,56,56,56,49,49,42,42,0,0,0,70,0,0,0,0,0,14,0,0,0,0,0,0,0,0,0,0,0,0,0,0,0,0,0,0,0,0,0,0,0,0,0,84,0,84
84,7,84,84,98,91,98,105,77,84,84,84,84,49,56,56,49,49,56,56,56,49,49,56,28,56,0,0,0,0,70,0,0,0,0,0,0,0,49,0,0,0,0,0,0,0,0,0,0,0,0,0,0,0,0,0,0,0,0,0,0,56,7,98
7,49,7,77,56,98,70,84,91,84,91,91,56,91,56,49,56,63,63,56,63,49,56,63,56,0,0,0,21,84,0,0,0,0,0,0,0,7,0,0,49,7,0,0,0,0,0,0,0,0,0,0,0,0,0,0,0,0,0,0,7,0,70,7
77,77,77,84,84,56,84,84,112,77,91,84,77,84,63,63,63,56,49,56,56,70,49,56,56,42,0,0,0,0,84,0,0,0,0,0,0,0,0,7,0,0,0,0,0,0,7,0,0,0,0,0,0,0,0,0,0,0,0,0,0,70,35,70
14,77,7,91,70,35,70,98,70,84,84,70,70,77,56,49,56,49,56,49,63,56,49,49,56,0,35,0,0,0,77,0,0,0,0,0,14,0,0,49,0,0,7,0,0,0,0,0,0,0,0,0,0,0,0,0,0,0,0,0,7,0,77,77
56,14,84,14,63,84,77,77,119,84,70,70,84,63,63,56,77,49,49,56,56,56,56,63,56,0,0,0,0,0,84,0,0,0,0,0,7,0,35,0,0,21,0,0,0,224,0,0,0,0,0,0,0,0,0,0,0,0,0,0,0,7,56,84
77,77,14,14,63,91,84,70,84,77,91,77,84,91,56,49,56,49,56,70,63,49,56,63,56,42,0,0,0,77,21,0,0,0,0,0,0,0,0,0,70,28,0,0,175,0,7,0,7,0,0,0,0,0,0,0,0,0,0,0,49,7,0,14
63,70,77,84,49,77,84,91,84,98,84,77,70,91,49,84,49,63,56,63,63,56,63,56,77,49,0,0,0,98,0,0,0,0,0,0,0,0,0,0,63,7,0,0,7,0,0,0,0,0,0,0,0,0,0,0,0,0,0,0,0,49,84,56
70,84,14,63,70,77,70,84,77,84,98,63,77,63,49,49,49,49,56,56,49,49,49,56,56,0,0,0,0,84,0,0,0,0,0,0,7,35,0,0,0,14,0,0,0,0,0,0,0,0,0,0,0,0,0,0,0,7,0,0,0,21,84,49
14,63,14,63,91,63,77,119,70,77,84,77,70,63,70,56,70,56,56,56,70,56,63,70,70,35,0,0,0,0,84,0,0,0,0,0,0,0,35,0,7,0,7,0,0,7,0,0,0,0,0,0,0,0,0,7,0,0,0,0,0,0,77,77
77,21,21,84,49,91,84,84,84,91,84,84,70,70,63,70,49,77,56,56,56,49,63,70,70,0,0,0,0,0,77,0,0,0,0,0,0,7,0,0,98,0,0,7,0,0,0,0,0,0,0,0,0,0,0,0,0,0,0,0,0,70,0,70
70,84,14,70,84,77,77,91,98,105,112,112,98,84,91,112,84,105,98,0,84,56,70,49,35,0,0,42,0,0,77,0,0,0,0,0,0,35,0,42,14,0,0,0,0,0,0,0,0,0,0,0,0,0,0,0,0,0,0,0,0,7,84,77
77,7,14,14,84,91,105,98,105,98,91,77,84,56,63,63,49,49,49,49,49,49,56,28,49,49,0,0,0,0,77,0,0,0,0,0,0,21,0,0,98,0,0,0,0,0,0,0,0,0,0,0,0,0,0,0,0,0,0,0,56,0,56,7
70,84,49,14,84,91,70,112,112,84,84,84,98,77,77,70,56,49,42,49,56,56,84,56,49,0,0,0,0,0,70,0,0,0,0,7,0,0,0,70,0,0,0,0,0,0,0,0,0,0,0,0,0,0,0,0,0,0,0,0,0,56,70,98
21,70,14,70,91,84,70,77,70,105,84,84,77,63,77,56,56,63,63,56,56,56,63,56,0,56,0,0,0,0,84,0,0,0,0,0,0,70,0,0,7,0,0,0,0,0,0,0,0,0,0,0,0,0,0,0,0,0,0,0,0,0,56,84
77,56,7,84,91,84,84,91,98,98,98,84,84,98,56,77,56,56,56,49,56,56,63,63,63,0,0,0,0,77,0,0,0,0,0,0,0,0,0,70,0,0,0,0,0,7,0,0,0,0,0,0,0,0,0,0,0,0,0,0,0,84,7,70
63,70,35,77,84,84,91,98,84,77,84,84,84,56,56,63,84,63,77,63,56,56,63,70,56,0,0,0,0,49,70,0,0,0,0,0,0,7,0,77,0,7,0,0,0,0,0,0,0,0,0,0,0,0,0,0,0,0,0,0,0,7,84,56
77,77,70,14,84,70,77,112,84,112,84,84,91,77,70,77,70,70,70,56,56,56,56,70,56,0,0,0,0,0,84,0,0,0,0,0,0,0,70,7,0,0,0,0,0,0,0,0,0,0,0,0,0,0,0,0,0,0,0,0,0,0,49,77
84,70,70,14,49,77,77,119,91,84,91,98,70,77,70,56,56,70,70,70,77,70,63,70,63,0,0,0,0,0,0,77,0,0,0,0,0,0,0,56,0,0,0,0,0,0,0,0,0,0,0,0,0,0,0,0,0,0,0,0,56,0,77,70
70,14,14,35,84,98,119,77,77,70,105,98,70,70,84,63,63,49,70,77,56,77,56,0,49,56,0,0,0,84,28,0,0,0,0,0,0,77,0,0,0,0,0,7,0,0,255,0,0,0,0,0,0,0,0,0,0,0,0,0,0,84,63,98
84,63,14,77,70,70,77,112,105,112,84,84,77,63,63,56,84,63,70,70,70,70,56,63,35,56,0,0,0,0,0,84,0,0,0,0,0,0,0,42,0,0,0,0,0,0,0,0,0,0,0,0,0,0,0,0,0,0,0,0,0,63,7,49
70,84,14,70,98,77,84,105,98,91,98,98,77,70,70,49,63,70,63,70,70,56,70,63,63,0,0,0,0,0,70,0,0,0,0,0,14,0,0,0,0,7,0,0,0,0,0,0,0,0,0,0,0,0,0,0,0,0,0,0,0,70,70,70
84,7,14,70,84,77,84,98,91,98,105,91,98,84,63,70,63,63,70,63,70,77,70,63,63,0,0,0,0,0,0,70,0,0,0,0,0,0,56,0,0,0,7,0,0,0,0,0,0,0,0,0,0,0,0,0,0,0,0,0,0,7,70,84
21,56,77,14,14,70,70,105,91,84,77,70,70,56,49,56,63,63,70,70,70,56,63,70,56,0,0,0,0,0,0,70,0,0,0,0,0,0,0,21,0,0,0,7,0,7,0,0,0,0,0,0,0,0,0,0,0,0,0,0,42,0,70,91
77,70,14,98,84,91,84,105,77,91,84,70,56,70,70,70,56,63,56,70,56,70,49,84,70,49,0,0,0,63,0,0,0,0,0,7,0,0,0,84,0,0,0,0,0,0,0,0,0,0,0,0,0,0,0,0,0,0,0,0,0,7,84,91
70,84,14,21,70,91,91,84,105,98,91,91,91,84,70,63,56,49,63,70,63,70,63,56,56,0,0,0,0,0,77,0,0,0,0,0,0,0,0,77,0,0,0,0,0,0,0,0,0,0,0,0,0,0,0,0,0,0,0,0,0,0,112,91
14,63,7,21,70,84,70,91,105,98,77,91,77,84,77,63,63,63,63,63,56,70,56,63,56,49,0,0,0,0,63,0,0,0,0,0,0,0,0,0,0,0,7,0,0,0,0,0,0,0,0,0,0,0,0,0,0,0,0,0,0,7,14,42
14,84,84,35,56,84,91,84,84,98,91,77,84,56,70,63,56,56,70,56,70,70,63,56,70,0,0,0,0,0,63,0,0,0,0,0,0,0,7,0,14,0,0,0,7,0,14,0,0,0,0,0,0,0,0,0,0,0,0,0,0,70,77,77
56,21,84,70,84,70,105,77,91,98,84,91,98,77,70,84,56,63,56,63,77,70,63,56,49,0,56,0,0,98,0,28,0,0,0,0,0,0,70,0,0,7,0,0,0,7,0,0,0,0,0,0,0,0,0,0,0,0,0,0,0,7,63,56
84,7,70,84,49,77,77,77,77,91,77,70,84,49,77,70,56,63,56,56,56,56,63,56,63,35,0,0,0,0,0,56,0,0,0,0,0,0,0,98,0,0,0,0,0,0,0,0,0,0,0,0,0,0,0,0,0,0,0,0,0,7,84,84
