36,30,45,24,42,24,42,42,42,45,45,36,30,27,30,27,24,30,24,30,30,30,30,27,24,18,0,0,24,12,0,0,0,0,0,0,0,3,24,0,0,0,0,0,0,0,0,0,0,0,0,0,0,0,0,0,0,0,0,0,0,33,21,6
24,24,36,42,21,48,42,39,39,42,45,36,27,27,30,27,27,27,27,36,30,30,30,27,0,27,0,0,0,0,24,0,0,0,6,0,0,0,0,36,0,3,0,0,135,0,0,0,0,0,0,0,0,0,0,0,0,0,0,0,0,3,27,30
9,42,15,33,42,36,42,39,39,36,36,42,27,27,30,27,24,27,93,30,24,30,30,36,30,0,0,0,0,0,0,30,0,0,0,0,3,0,21,0,0,6,0,0,0,0,0,0,0,0,0,0,0,0,0,0,0,0,0,0,0,15,42,39
42,33,33,42,39,45,42,33,42,51,39,33,36,27,24,24,27,24,27,30,27,30,27,24,27,0,0,0,0,27,0,0,0,0,0,0,0,27,0,0,3,0,0,0,0,0,0,0,0,0,0,0,0,0,0,0,0,0,0,0,0,9,39,36
39,27,24,42,45,51,42,42,45,42,39,39,24,27,24,24,24,24,30,30,27,27,30,24,0,24,0,0,0,0,0,0,0,21,0,0,0,0,9,18,0,0,0,0,0,0,0,0,0,0,0,0,0,0,0,0,0,0,0,0,0,15,18,36
51,36,21,48,48,60,51,39,36,45,51,42,57,24,45,21,27,36,24,30,27,24,30,27,27,0,0,0,0,0,36,0,0,0,0,0,0,0,0,33,0,0,0,0,0,0,0,0,0,0,0,0,0,0,0,0,0,0,0,0,0,27,9,36
36,30,24,24,36,48,42,42,42,36,42,42,27,30,30,27,27,27,27,27,27,30,24,24,27,0,0,0,15,30,0,0,0,0,0,0,0,0,0,18,0,0,0,0,0,0,0,0,0,0,0,0,0,0,0,0,0,0,0,0,0,30,6,39
45,42,21,21,48,45,48,54,42,48,42,42,36,27,27,30,30,24,30,30,30,24,24,42,30,0,0,0,0,24,0,0,0,0,0,0,6,0,0,0,48,3,0,3,0,0,0,0,0,0,0,0,0,0,0,0,0,0,0,0,0,3,36,42
42,3,39,3,39,39,42,42,54,42,42,45,27,24,24,24,24,24,30,30,27,39,24,30,24,0,0,0,0,0,24,0,0,0,0,3,0,6,0,0,54,0,3,0,0,0,0,0,0,0,0,0,0,0,0,0,0,0,0,0,0,15,15,30
6,39,42,24,48,27,45,42,48,42,51,39,30,27,33,24,27,24,27,27,27,27,24,27,27,0,0,0,0,0,24,0,0,0,0,0,3,0,12,0,0,0,0,0,0,0,0,0,0,0,0,0,0,0,0,0,0,0,0,0,0,3,42,30
6,6,39,42,3,42,45,42,39,39,39,48,36,27,24,24,24,21,24,24,24,24,24,21,24,0,0,0,0,0,24,0,0,0,9,0,0,0,18,0,3,3,3,0,0,0,0,0,84,0,0,0,0,0,0,0,0,0,0,0,0,15,36,36
21,36,6,36,42,42,48,51,39,42,45,42,30,27,30,24,24,33,27,21,21,24,30,24,24,0,0,0,0,0,27,0,0,0,0,0,0,27,0,3,0,0,0,0,0,0,0,0,0,0,0,0,0,0,0,0,0,0,0,0,6,36,0,39
39,3,36,6,42,45,36,42,48,36,42,42,42,30,21,24,30,30,30,30,30,27,30,24,27,0,0,0,0,0,27,0,0,0,0,0,0,0,0,0,24,3,0,0,9,3,0,0,0,0,0,0,0,0,0,0,0,0,0,0,0,15,36,33
21,27,21,24,54,42,42,42,45,45,48,42,24,27,30,24,27,30,30,30,30,30,24,30,24,0,0,0,0,18,30,0,0,0,0,3,0,0,0,0,33,3,0,0,0,0,0,0,0,0,0,0,0,0,0,0,0,0,0,0,0,45,21,48
42,3,3,36,45,45,48,48,48,42,51,42,30,36,30,27,24,24,24,30,30,30,27,24,33,0,0,0,0,0,24,0,0,0,0,0,0,0,0,0,30,0,63,0,0,0,0,0,0,0,0,0,0,0,0,0,0,0,0,0,0,42,15,42
39,6,21,42,36,45,39,45,48,45,45,39,66,33,24,33,27,30,27,27,30,24,27,30,24,0,0,0,0,0,0,30,0,0,0,0,0,0,30,3,0,0,0,0,0,0,0,0,0,0,0,0,0,0,0,0,0,0,0,3,0,0,36,27
39,48,30,33,48,51,45,42,48,42,42,33,27,24,30,27,24,24,27,24,24,27,21,24,24,0,0,0,0,0,0,24,0,0,0,0,0,0,0,12,3,0,0,0,3,6,0,0,0,0,0,0,0,0,0,0,0,0,0,0,0,3,39,33
3,42,3,42,6,45,42,42,45,39,39,36,27,30,36,24,24,27,24,24,24,24,24,27,21,0,0,0,0,0,24,0,0,0,0,0,0,0,0,0,12,0,3,0,0,0,0,0,0,0,0,0,0,0,0,0,0,0,0,0,0,30,0,45
6,39,24,24,39,51,48,48,48,42,42,36,30,24,24,33,27,24,27,39,33,30,30,30,21,0,0,0,0,0,0,0,0,0,0,0,3,33,0,0,0,0,12,0,0,0,0,0,0,0,0,0,0,0,0,0,0,0,0,0,0,3,36,33
45,3,6,39,39,48,42,39,42,39,39,36,27,21,30,21,24,24,24,30,27,27,30,24,33,0,0,0,0,0,0,48,0,0,0,0,0,0,0,42,0,0,0,3,0,0,0,0,0,0,0,0,0,0,0,0,0,0,0,0,0,12,45,39
42,24,21,42,45,42,54,39,42,42,54,33,33,27,27,27,24,30,36,33,27,33,30,0,27,30,0,0,0,45,0,0,0,0,0,0,0,18,0,0,0,0,0,0,0,3,0,0,3,3,0,0,0,0,0,0,0,0,0,0,0,42,24,48
6,39,3,39,45,45,48,42,42,42,51,51,36,27,24,24,27,27,33,33,30,30,30,24,30,0,0,0,0,0,45,0,0,0,0,0,0,3,0,0,0,51,3,0,0,0,93,0,0,0,0,0,0,0,0,0,0,0,0,0,0,0,36,45
39,3,36,6,51,48,54,42,48,51,33,39,42,21,24,24,30,21,27,24,36,30,30,24,27,0,0,0,0,30,0,0,0,0,0,0,0,0,0,15,0,0,0,0,0,0,0,0,0,0,0,0,0,0,0,0,0,0,0,0,0,9,3,45
42,3,6,42,3,48,48,45,42,42,45,36,21,24,36,24,24,30,33,30,30,30,27,30,0,30,0,0,48,12,0,0,0,0,0,0,0,0,42,0,3,3,0,0,0,0,0,0,0,0,0,0,6,0,0,0,0,0,0,0,0,3,39,24
9,48,42,21,21,54,48,48,48,42,42,63,27,36,33,27,27,27,30,27,27,27,30,21,33,0,0,0,0,15,0,36,0,0,0,0,0,0,0,0,36,0,0,0,0,0,0,0,0,0,0,0,0,0,0,0,0,0,0,0,3,0,21,42
27,3,42,6,18,42,48,42,39,45,42,36,30,39,30,30,27,30,27,27,27,33,27,33,27,0,0,0,0,12,30,0,0,0,0,0,9,0,0,0,48,0,0,0,0,0,0,0,0,0,0,0,0,0,0,0,0,0,0,0,0,27,36,42
39,36,3,39,33,39,45,36,48,36,39,39,36,36,24,27,27,33,30,30,33,36,27,27,30,0,0,0,0,0,0,30,0,0,0,0,0,0,0,18,0,0,0,0,0,0,0,0,0,0,0,0,0,0,0,0,0,0,0,0,3,0,27,39
36,3,12,27,36,39,48,45,48,51,42,48,24,30,30,24,24,27,30,33,27,33,27,27,21,0,0,0,9,0,30,0,0,0,0,0,0,0,15,3,0,0,0,0,0,0,0,0,0,0,0,0,0,0,0,0,0,0,0,0,3,0,36,30
36,42,9,6,3,42,42,45,45,45,45,45,36,24,27,21,30,30,27,24,33,27,30,30,30,0,0,0,0,0,0,30,0,0,0,0,0,0,21,0,0,3,0,0,0,0,0,0,0,0,0,0,0,0,0,0,0,0,0,0,0,3,18,39
24,33,42,39,21,33,42,45,36,30,42,45,27,27,27,30,27,24,24,24,30,30,27,24,27,0,0,0,0,0,27,0,0,0,0,0,0,0,0,3,36,0,0,0,0,0,0,0,0,0,0,0,0,0,0,0,0,0,0,3,0,0,30,42
42,33,3,30,9,39,36,39,42,42,36,42,33,30,24,27,24,27,30,33,33,30,30,27,30,0,0,0,0,27,0,0,0,0,0,0,3,0,24,3,0,0,0,0,0,0,0,0,0,0,0,0,0,0,0,0,0,0,0,0,0,21,42,39
12,3,6,36,3,45,51,45,42,42,51,42,24,24,33,24,24,27,27,27,30,27,24,24,24,0,0,0,0,0,48,0,0,0,0,0,0,0,0,3,3,0,3,0,0,0,0,0,0,0,0,0,0,0,0,0,0,0,0,0,0,6,30,36
33,30,24,21,24,45,54,45,48,42,51,30,42,36,30,30,27,24,33,30,36,30,30,24,27,0,0,0,0,27,0,0,0,0,0,0,0,0,36,3,6,0,0,0,0,0,0,0,0,0,0,0,0,0,0,0,0,0,0,0,0,18,27,27
15,36,42,6,33,48,39,39,45,42,48,45,30,27,24,24,24,30,27,30,24,27,24,24,21,0,0,0,0,0,30,0,0,0,0,0,0,0,0,0,0,0,0,0,0,0,0,0,0,0,0,0,0,0,0,0,0,0,0,0,0,36,27,42
9,9,3,45,45,45,42,45,45,51,42,48,27,24,24,21,24,27,27,30,24,33,27,24,24,0,0,0,0,30,0,0,0,0,0,0,0,0,21,3,0,0,0,0,0,0,0,0,0,0,0,0,0,0,0,0,0,0,0,0,0,3,39,36
42,6,42,21,30,45,36,48,45,48,48,39,51,30,24,24,24,24,30,30,24,24,27,0,27,27,0,0,0,0,0,24,0,0,0,0,0,0,0,15,3,0,0,3,0,0,0,0,0,0,0,0,0,0,0,0,0,0,0,0,0,21,3,39
3,36,39,6,42,39,42,51,48,45,57,30,42,36,24,24,27,27,33,30,30,33,30,21,24,0,0,0,0,42,0,0,0,0,0,0,0,0,0,0,0,0,0,0,0,0,0,0,0,0,0,0,0,0,0,0,0,0,0,0,15,39,0,36
39,45,15,36,42,42,48,48,48,48,51,48,30,24,30,27,30,30,30,30,30,30,30,24,0,0,36,0,0,0,42,0,0,0,0,0,0,0,0,0,21,3,0,0,0,0,0,0,0,0,0,0,0,0,0,0,0,0,0,0,0,3,21,48
3,3,6,42,42,45,48,48,48,45,51,48,36,30,30,30,30,33,30,30,30,30,30,30,30,0,0,0,0,0,30,0,0,0,0,0,0,0,0,0,0,0,3,0,0,0,0,0,0,0,0,0,0,0,0,0,0,0,0,0,0,18,45,33
39,6,33,39,48,57,42,48,48,51,51,42,30,24,24,27,27,33,39,33,27,36,36,27,27,0,0,0,0,48,0,0,0,0,0,0,0,0,0,0,18,0,0,0,0,0,0,0,0,0,0,0,0,0,0,0,0,0,0,0,0,0,36,39
36,6,39,36,39,45,48,51,51,48,39,42,48,27,27,27,30,21,27,24,30,30,33,30,0,0,27,0,0,27,0,0,0,0,0,0,0,6,0,36,0,0,0,0,0,0,0,0,0,0,0,0,0,0,0,0,0,0,0,0,30,9,0,39
3,42,39,6,6,45,45,51,45,51,45,48,36,24,30,33,33,30,30,30,27,30,30,30,27,0,0,0,0,0,30,0,0,0,0,0,3,0,0,21,3,0,0,0,15,3,0,0,0,0,0,0,0,0,0,0,0,0,0,0,0,24,33,42
6,3,42,3,33,42,36,48,45,42,36,36,24,27,42,24,21,30,27,30,30,30,30,24,27,0,0,0,0,12,27,0,0,0,0,0,0,0,0,0,0,0,84,0,0,0,0,0,0,0,0,0,0,0,0,0,0,0,0,3,0,0,30,21
21,36,24,45,39,48,51,48,51,36,51,48,39,33,33,27,27,27,27,33,30,30,30,24,27,0,0,0,0,0,30,0,0,0,0,0,0,0,21,3,0,0,0,0,0,0,0,0,0,0,0,0,0,0,0,0,0,0,0,0,0,9,36,24
3,6,6,30,6,54,45,48,51,36,48,27,51,42,24,27,24,30,21,27,24,24,24,27,30,0,0,0,0,0,0,27,0,0,0,0,0,0,24,0,0,0,0,0,0,0,0,0,0,0,0,0,0,0,0,0,0,0,0,0,3,0,24,36
39,39,15,42,36,51,36,36,45,54,48,36,27,24,24,24,24,21,30,27,27,30,36,27,27,0,0,0,0,0,30,0,0,0,0,0,0,0,30,0,0,0,0,0,0,0,0,0,0,0,0,0,0,0,0,0,0,0,0,0,0,15,36,36
39,39,42,3,48,36,39,45,42,42,45,48,57,30,24,21,21,42,24,24,30,27,24,36,21,0,0,0,0,0,24,0,0,0,0,3,0,0,0,30,0,3,0,0,102,0,0,0,0,0,0,0,0,0,0,0,0,0,0,0,0,0,24,51
45,12,36,3,3,48,48,48,42,51,48,51,27,24,36,21,27,24,24,54,27,27,24,24,21,0,0,0,0,0,27,0,0,0,0,0,0,0,0,36,0,3,0,0,0,0,0,0,0,0,0,0,0,0,0,0,0,0,0,0,0,24,3,45
24,3,30,42,27,51,51,42,51,45,48,33,48,27,24,21,24,24,21,24,24,24,24,21,27,0,0,0,0,0,0,27,0,0,0,0,0,24,3,0,3,0,0,0,0,0,3,0,0,0,0,0,0,0,0,0,0,0,0,0,0,3,30,39
9,9,42,45,42,33,45,48,51,45,42,51,21,24,21,24,30,30,24,24,27,27,27,30,24,0,0,0,0,0,0,48,0,0,0,0,0,0,0,3,0,24,0,0,0,0,0,0,0,0,0,0,0,0,0,0,0,0,0,0,0,9,27,39
