80,72,80,64,88,80,64,88,96,120,136,104,104,112,96,104,120,120,112,120,112,112,112,80,104,0,0,0,0,0,80,0,0,0,0,0,0,0,64,0,0,0,0,0,0,16,0,0,0,0,0,0,0,0,0,0,0,0,0,0,64,0,80,88
64,64,80,64,80,80,80,128,104,96,104,112,112,96,96,88,112,112,128,120,128,112,0,120,0,0,112,0,0,0,56,0,0,0,0,0,0,8,0,80,8,8,0,0,0,0,0,8,0,0,0,0,0,0,0,0,0,0,0,0,0,24,56,96
88,80,56,64,80,88,88,72,96,96,96,80,88,96,96,96,88,96,96,112,104,96,112,96,88,0,0,0,0,0,0,80,0,0,0,0,0,0,0,0,0,64,0,0,0,8,0,0,8,0,8,0,0,0,0,0,0,0,0,0,48,72,0,104
56,88,8,104,80,104,104,88,88,88,104,80,80,88,80,96,80,72,72,80,72,80,72,88,0,0,80,0,0,0,64,0,0,0,0,8,0,0,0,40,8,0,0,0,0,224,24,0,16,0,0,0,0,0,0,0,0,0,0,0,0,48,112,96
80,88,80,96,72,112,104,112,120,128,96,96,112,96,104,96,96,112,104,128,104,112,128,112,112,0,0,0,0,64,0,0,0,0,0,8,0,64,0,0,0,0,8,0,0,0,0,0,8,0,0,0,0,0,0,0,0,0,0,0,0,8,64,72
96,80,64,80,80,88,80,112,104,128,104,96,88,104,104,104,104,96,112,112,128,112,112,104,80,0,0,0,0,0,64,0,0,0,0,0,0,0,0,40,80,0,0,0,0,0,0,8,0,0,0,0,0,0,0,0,0,0,0,0,0,96,16,64
80,80,80,72,88,80,80,80,72,112,104,96,96,80,96,88,72,80,80,72,80,72,72,72,0,0,80,0,80,0,0,0,0,0,0,8,0,0,0,0,0,112,0,0,240,8,0,16,0,0,0,0,0,0,0,0,0,0,0,0,0,24,88,96
88,88,64,80,96,80,88,96,88,112,120,112,96,120,96,128,112,96,112,120,104,112,120,112,80,0,0,0,0,0,64,0,0,0,0,0,0,0,0,48,0,8,0,0,0,0,8,0,0,0,0,0,0,0,0,0,0,0,0,0,16,0,96,96
72,72,80,88,96,104,96,104,96,104,104,112,144,88,192,112,104,112,120,136,120,112,128,80,112,0,0,0,0,0,64,0,0,0,0,0,0,0,0,0,64,0,0,8,0,0,0,0,8,0,0,0,0,0,0,0,0,0,0,0,80,0,64,64
88,112,8,88,64,80,96,88,96,96,88,96,96,112,96,80,80,80,72,72,64,88,88,64,56,0,0,0,0,0,0,128,0,0,0,0,0,0,0,64,0,0,0,0,0,0,8,0,0,0,0,0,0,0,0,0,0,0,0,0,0,80,72,88
8,80,112,96,88,128,112,88,96,96,96,96,128,96,96,96,112,120,120,128,120,128,96,112,0,88,0,0,0,72,0,0,0,0,0,0,0,0,0,72,0,0,0,0,0,8,0,0,0,0,8,0,0,0,0,0,0,0,0,0,0,48,64,72
56,80,64,72,72,80,72,112,80,88,128,96,96,104,96,96,104,112,120,112,112,120,96,120,80,0,0,0,0,0,128,0,0,0,0,0,0,8,0,0,0,0,24,0,8,0,0,0,8,0,0,0,0,0,0,0,0,0,0,0,0,80,80,56
64,80,64,72,88,96,80,72,96,80,104,80,80,88,88,88,72,80,72,64,80,80,88,64,0,72,0,0,0,0,56,0,0,0,0,0,64,0,0,0,8,0,0,0,8,0,0,0,0,0,0,0,0,0,0,0,0,0,0,0,0,40,56,64
64,56,64,64,64,96,88,72,96,104,80,88,88,96,88,88,88,96,80,80,80,72,88,80,72,0,0,0,0,0,128,0,0,0,0,0,0,8,0,0,0,0,0,0,8,8,0,0,16,0,0,0,8,0,0,0,0,0,0,0,0,16,56,80
56,88,56,80,72,80,80,96,80,96,112,96,96,104,96,104,104,104,104,104,128,112,112,80,128,0,0,0,0,0,88,0,0,0,0,0,0,0,0,0,80,8,0,0,0,40,0,0,0,0,0,0,0,0,0,0,0,0,0,0,0,48,88,72
64,64,72,72,88,80,96,64,88,104,96,112,80,88,88,80,120,104,112,88,104,112,104,112,88,0,0,0,0,80,0,0,0,0,0,0,0,0,0,80,0,0,0,0,0,0,0,0,0,0,0,0,0,0,0,0,0,0,0,0,0,56,80,88
72,64,48,80,72,56,80,96,80,112,96,80,104,72,80,80,88,80,128,72,80,72,80,64,80,0,0,0,0,0,0,56,0,0,0,0,0,0,0,80,48,0,0,0,0,0,8,0,0,0,0,0,0,0,0,0,0,0,0,0,64,0,64,72
80,56,80,64,88,80,96,80,96,96,96,88,80,96,80,72,88,80,64,80,80,80,72,80,80,0,0,0,0,0,120,0,0,0,0,0,0,0,0,16,0,0,0,0,0,0,0,0,0,40,0,0,0,0,0,0,0,0,0,0,56,0,72,104
56,64,56,64,88,64,80,80,88,80,80,88,88,80,72,80,80,80,80,96,88,80,80,88,0,56,0,0,0,64,0,0,0,0,0,0,0,0,0,40,8,0,0,0,0,0,32,0,0,0,0,0,0,0,0,0,0,0,0,0,0,80,8,80
64,88,48,48,72,80,112,80,104,96,120,96,96,96,104,96,104,120,112,104,128,112,120,120,72,0,40,0,0,80,0,0,0,0,0,0,0,0,0,0,0,0,0,0,0,255,0,0,0,0,0,0,0,0,0,0,0,0,0,0,0,72,8,96
72,64,72,72,96,88,96,72,80,120,96,96,112,96,96,112,104,112,128,104,104,120,112,120,0,0,0,0,56,0,16,0,0,0,0,0,0,0,56,0,0,0,0,8,0,0,0,0,0,0,0,0,32,0,0,0,0,0,0,0,0,8,80,64
80,80,88,96,96,96,112,88,80,96,112,80,72,96,88,80,80,80,80,72,80,80,80,96,80,0,0,0,0,80,40,0,0,0,0,0,0,0,0,0,16,0,0,0,0,0,0,0,0,0,0,40,0,0,0,0,0,0,0,0,0,8,80,80
80,80,8,80,56,96,88,88,96,96,104,104,96,112,104,112,96,120,112,112,104,112,112,96,120,0,0,0,0,56,0,0,0,0,0,0,0,0,0,0,80,0,0,0,0,0,0,0,0,0,0,0,0,0,0,0,0,0,0,0,40,0,56,80
16,48,64,88,72,104,88,72,96,104,112,96,96,96,255,112,96,112,112,104,104,120,144,112,96,0,0,0,0,0,0,0,0,0,0,0,0,0,0,40,0,0,0,0,0,0,0,0,0,0,0,0,0,0,0,0,0,0,0,0,0,40,56,56
56,88,104,88,112,96,112,96,96,96,80,248,80,80,88,80,88,88,80,88,80,144,80,128,104,0,0,0,0,56,0,0,0,0,0,0,0,72,0,0,0,0,0,8,8,0,0,0,0,0,0,0,0,0,0,0,0,0,0,0,32,0,88,80
72,72,64,80,64,80,96,112,104,96,80,80,80,96,80,80,80,80,104,96,112,88,104,104,120,0,0,0,0,40,128,0,0,0,0,0,0,0,0,72,0,255,0,0,0,0,0,0,0,0,0,0,0,0,0,0,0,0,0,0,8,0,96,72
96,48,72,96,80,96,80,88,88,96,88,88,72,88,192,80,72,72,88,72,72,72,80,72,0,88,0,0,0,0,0,128,0,0,0,0,0,0,0,8,88,0,0,0,0,8,0,0,0,0,0,0,0,0,0,0,0,0,0,0,0,40,56,88
80,88,80,56,80,96,80,80,80,112,112,120,112,96,104,112,104,112,128,104,120,120,128,120,0,104,0,0,136,0,0,0,0,0,0,0,0,0,0,0,56,8,0,0,0,0,0,0,24,0,0,0,32,0,0,0,0,0,0,0,0,8,80,8
72,80,88,80,96,96,72,96,72,96,112,120,120,96,104,112,112,112,120,112,96,120,120,112,0,0,0,0,0,64,0,0,0,0,0,0,0,0,8,96,0,0,0,0,0,16,0,0,0,0,0,0,16,0,0,0,0,0,0,0,8,96,104,0
80,88,88,56,96,88,80,80,72,112,96,104,104,96,104,112,104,104,128,104,112,104,112,120,104,0,0,0,0,0,64,0,0,0,0,0,8,0,0,40,0,0,8,0,0,8,0,0,0,0,8,0,0,0,0,40,0,0,0,0,16,0,96,64
104,64,64,88,64,88,88,104,80,96,96,112,80,104,88,88,88,88,88,96,96,96,112,0,104,104,0,0,0,48,0,0,80,0,0,0,0,0,64,0,0,0,8,0,0,255,0,0,0,0,0,0,0,56,0,0,0,0,0,0,48,0,8,80
56,80,96,96,96,72,96,80,112,96,88,96,72,72,224,80,72,80,80,80,72,80,80,152,64,0,0,0,0,0,0,64,0,0,0,0,0,0,72,0,0,16,16,0,0,0,0,0,0,0,0,0,0,0,0,0,0,0,0,0,0,16,56,88
80,64,96,88,64,96,80,104,80,96,104,112,112,96,104,96,104,104,112,96,112,120,120,112,96,0,0,0,0,64,0,0,0,0,0,0,0,0,16,64,0,0,0,8,8,0,0,0,0,40,0,0,0,0,48,0,0,8,0,0,0,24,56,80
104,80,56,56,88,96,72,104,88,104,88,112,88,80,96,96,96,80,80,88,80,72,72,80,0,72,0,0,0,0,0,0,112,0,0,0,0,0,0,0,0,8,0,8,0,8,0,0,0,0,48,0,0,0,0,0,0,0,0,0,8,40,80,88
72,80,80,96,56,56,88,96,104,80,88,96,112,88,120,96,104,96,96,112,112,88,112,0,96,96,8,0,0,0,64,0,0,0,0,0,0,0,8,56,0,8,0,0,0,0,0,0,0,24,0,0,0,0,0,0,0,0,0,0,0,24,96,56
96,8,96,112,64,96,112,72,80,128,104,112,120,96,104,128,96,112,88,96,96,120,104,112,88,0,0,0,0,0,128,0,0,0,0,0,0,0,0,0,0,80,0,0,0,8,0,0,0,0,16,0,0,0,0,0,0,0,0,8,64,0,8,96
80,112,80,96,96,96,104,80,88,104,96,88,80,72,80,104,88,72,96,64,72,88,80,80,0,80,0,0,0,64,0,0,0,0,0,16,0,0,0,56,0,0,0,0,0,0,0,0,0,0,0,0,0,40,0,0,0,0,0,0,0,24,64,80
80,72,32,48,96,80,80,88,104,96,112,112,104,104,112,112,104,112,112,112,128,112,112,112,0,96,0,0,0,64,0,0,0,0,0,0,0,0,8,40,0,0,0,0,8,0,0,0,0,0,0,0,72,0,0,0,0,0,0,0,8,8,72,96
96,72,112,80,80,104,80,88,96,88,96,112,96,112,104,88,104,96,96,112,112,96,88,112,72,0,0,0,0,0,72,0,0,0,0,0,0,72,0,0,0,0,0,0,8,0,0,0,0,0,0,0,0,0,0,0,0,0,0,0,0,40,80,96
72,64,40,64,64,88,88,96,88,96,96,80,80,80,96,104,80,80,112,128,128,136,128,0,88,96,0,0,0,0,80,0,0,0,0,0,0,0,0,80,0,0,0,0,0,0,0,0,0,0,0,0,0,0,0,0,0,0,0,0,0,8,64,56
112,88,24,88,112,112,80,80,80,104,96,80,72,80,80,80,80,96,80,88,64,80,80,88,0,72,0,0,0,0,112,0,0,0,0,0,0,24,0,0,0,208,0,0,0,0,0,0,0,0,0,0,0,0,0,0,0,0,8,0,0,0,72,80
64,88,64,136,72,72,88,80,96,120,112,120,128,104,104,96,112,104,112,120,104,120,128,120,0,96,0,0,0,40,64,0,0,0,0,0,0,0,24,80,0,0,0,0,0,0,0,0,0,0,0,0,0,0,0,0,0,0,0,0,0,56,16,80
80,88,72,40,72,64,96,88,88,96,112,128,112,112,96,104,104,112,112,112,112,112,112,96,128,0,8,0,0,0,0,0,112,0,0,0,0,0,0,8,88,0,32,0,0,0,0,0,0,0,0,0,0,0,0,0,0,0,0,0,16,0,96,96
88,80,80,104,88,104,112,96,120,104,120,112,120,112,120,112,136,112,128,120,112,128,120,112,88,0,0,0,0,0,80,0,0,0,0,0,0,0,0,120,0,0,0,0,0,0,8,0,0,0,0,0,0,40,0,0,0,0,0,0,0,16,64,80
48,88,64,112,56,88,88,72,88,112,136,112,120,96,104,128,112,112,120,112,128,112,104,120,104,0,0,0,0,0,72,0,0,0,0,0,0,0,0,40,0,0,224,0,0,0,0,0,0,0,0,16,0,0,0,0,0,0,0,0,0,56,48,56
80,32,8,48,64,104,120,104,104,120,104,120,88,104,96,88,80,112,112,96,96,96,104,88,72,0,0,0,0,32,80,0,0,0,0,0,0,0,0,64,0,0,136,0,0,168,0,8,0,0,0,0,24,0,0,0,0,0,0,0,0,48,48,120
72,64,64,64,16,128,88,96,104,112,112,88,80,96,88,96,88,80,80,88,96,80,88,88,88,0,255,0,0,96,0,0,0,0,0,0,0,0,48,0,0,0,40,8,0,24,0,0,0,0,0,40,0,0,16,0,0,0,0,0,0,16,72,72
112,56,72,96,80,88,72,96,96,96,88,104,80,96,80,128,96,168,80,88,80,88,88,80,80,0,0,0,0,32,80,0,0,0,0,0,0,0,0,80,0,0,24,0,0,0,0,0,0,0,0,0,0,0,0,0,0,0,0,0,0,8,56,64
120,96,80,96,88,128,96,80,96,112,80,104,80,80,80,88,80,80,80,80,80,64,80,80,64,0,0,0,0,0,56,0,0,0,0,0,0,0,0,8,48,0,0,8,0,8,0,0,0,0,0,0,0,0,0,0,0,0,0,0,0,80,16,56
80,96,112,88,88,80,72,96,64,80,112,88,80,80,80,112,112,88,96,80,80,80,64,88,0,88,0,0,0,0,64,0,0,0,0,0,8,0,0,88,16,0,0,0,0,8,0,8,0,0,0,0,0,0,0,0,0,0,0,0,0,56,80,48
