36,45,30,42,24,42,24,42,42,45,36,45,27,30,30,30,27,24,24,30,30,30,30,27,24,0,18,0,0,24,12,0,0,0,0,3,0,0,0,24,0,0,0,0,0,0,0,0,0,0,0,0,0,0,0,0,0,0,0,0,21,0,33,6
24,24,36,42,21,48,39,42,39,42,36,45,27,27,30,27,27,27,27,36,30,30,30,0,27,27,0,0,0,0,24,0,0,0,0,0,6,0,0,36,3,0,0,0,0,135,0,0,0,0,0,0,0,0,0,0,0,0,0,0,0,27,30,3
33,9,15,42,36,42,39,42,39,36,36,42,30,27,27,24,27,93,27,30,24,30,36,30,30,0,0,0,0,30,0,0,0,0,0,0,3,0,21,0,0,6,0,0,0,0,0,0,0,0,0,0,0,0,0,0,0,0,0,0,0,15,42,39
42,33,33,39,42,33,45,42,42,51,39,33,36,27,24,24,27,24,27,27,30,30,27,27,24,0,0,0,0,0,27,0,0,0,0,0,0,0,27,0,3,0,0,0,0,0,0,0,0,0,0,0,0,0,0,0,0,0,0,0,0,9,39,36
39,27,24,42,51,42,45,42,42,45,39,24,39,27,24,24,24,30,24,27,30,30,27,24,24,0,0,0,0,0,21,0,0,0,0,0,0,9,0,18,0,0,0,0,0,0,0,0,0,0,0,0,0,0,0,0,0,0,0,18,0,15,0,36
36,51,21,60,51,48,48,36,45,39,42,51,57,45,27,24,21,36,24,27,30,30,24,27,27,0,0,0,0,0,36,0,0,0,0,0,0,0,33,0,0,0,0,0,0,0,0,0,0,0,0,0,0,0,0,0,0,0,0,0,0,27,9,36
36,24,36,30,24,42,48,42,36,42,42,42,30,27,30,27,27,27,27,27,30,27,24,24,27,0,0,0,15,0,30,0,0,0,0,0,0,18,0,0,0,0,0,0,0,0,0,0,0,0,0,0,0,0,0,0,0,0,0,0,0,30,6,39
45,42,21,21,48,45,54,42,48,42,48,42,27,30,27,36,30,24,30,30,30,24,24,42,30,0,0,0,0,0,0,24,0,0,0,0,0,6,48,0,0,0,3,3,0,0,0,0,0,0,0,0,0,0,0,0,0,0,0,0,0,3,42,36
42,39,3,3,39,39,42,42,54,42,42,24,45,24,27,24,24,30,24,30,27,24,39,30,24,0,0,0,0,24,0,0,0,0,0,0,3,0,6,54,0,0,3,0,0,0,0,0,0,0,0,0,0,0,0,0,0,0,0,0,15,0,15,30
6,39,24,42,27,48,42,45,48,51,42,39,30,27,24,33,24,27,27,27,27,27,24,27,27,0,0,0,0,0,24,0,0,0,0,0,12,3,0,0,0,0,0,0,0,0,0,0,0,0,0,0,0,0,0,0,0,0,0,0,0,3,42,30
6,42,6,3,39,42,45,42,39,39,36,39,48,24,27,24,24,21,24,24,24,24,24,24,21,0,0,0,0,0,24,0,0,0,0,0,0,9,3,18,3,0,3,0,0,0,0,0,0,84,0,0,0,0,0,0,0,0,0,0,15,0,36,36
21,6,36,36,42,42,48,39,51,45,42,42,30,27,24,30,24,27,21,33,24,21,30,24,24,0,0,0,0,0,27,0,0,0,0,0,0,0,27,0,3,0,0,0,0,0,0,0,0,0,0,0,0,0,0,0,0,0,0,0,6,0,36,39
36,39,6,3,42,36,45,42,42,48,42,36,42,30,24,21,30,30,30,30,27,30,30,27,24,0,0,0,0,0,0,27,0,0,0,0,0,0,0,3,24,0,0,0,9,3,0,0,0,0,0,0,0,0,0,0,0,0,0,0,0,15,36,33
21,27,21,24,42,42,42,45,54,45,42,48,30,27,24,24,27,30,30,30,30,30,24,30,24,0,0,0,18,0,30,0,0,0,0,0,0,3,0,33,0,3,0,0,0,0,0,0,0,0,0,0,0,0,0,0,0,0,0,0,0,45,21,48
42,3,3,36,48,45,45,48,48,51,42,42,30,30,27,36,24,24,24,30,30,30,24,27,33,0,0,0,0,0,24,0,0,0,0,0,0,0,0,30,0,0,63,0,0,0,0,0,0,0,0,0,0,0,0,0,0,0,0,0,0,42,15,42
39,6,36,21,45,42,39,48,45,45,45,39,33,66,33,24,27,27,30,27,27,30,24,24,30,0,0,0,0,0,30,0,0,0,0,0,0,0,3,30,0,0,0,0,0,0,0,0,0,0,0,0,0,0,0,0,0,0,0,0,0,27,3,36
48,39,33,30,48,51,42,45,48,42,42,33,27,24,27,30,24,24,27,24,24,27,24,21,24,0,0,0,0,0,24,0,0,0,0,0,0,0,12,0,0,3,0,3,0,6,0,0,0,0,0,0,0,0,0,0,0,0,0,0,0,3,33,39
42,3,3,6,42,45,42,39,42,36,45,39,27,36,30,24,24,24,27,24,24,24,27,24,21,0,0,0,0,24,0,0,0,0,0,0,0,0,0,0,0,12,0,0,3,0,0,0,0,0,0,0,0,0,0,0,0,0,0,0,0,0,30,45
39,6,24,24,39,51,48,48,42,48,42,30,36,24,24,33,24,27,39,27,30,33,21,30,30,0,0,0,0,0,0,0,0,0,0,0,0,3,0,33,0,12,0,0,0,0,0,0,0,0,0,0,0,0,0,0,0,0,0,0,0,3,33,36
45,3,6,39,39,48,42,42,39,39,39,30,36,27,21,21,24,24,24,30,27,27,30,33,24,0,0,0,0,0,48,0,0,0,0,0,0,0,0,42,0,3,0,0,0,0,0,0,0,0,0,0,0,0,0,0,0,0,0,0,0,12,45,39
42,24,21,42,45,39,42,42,42,54,33,54,33,27,27,27,36,30,24,33,27,30,30,33,27,0,0,0,0,0,45,0,0,0,0,0,0,18,0,0,0,0,0,0,3,0,0,0,3,3,0,0,0,0,0,0,0,0,0,0,0,24,42,48
6,39,39,3,48,42,45,45,42,42,51,51,36,27,24,27,33,24,27,30,33,30,30,0,24,30,0,0,0,0,0,0,45,0,0,0,0,51,0,3,3,0,0,0,0,93,0,0,0,0,0,0,0,0,0,0,0,0,0,0,0,0,36,45
39,36,3,51,6,48,54,42,51,48,33,39,24,42,24,21,30,21,24,27,30,36,24,27,30,0,0,0,0,0,30,0,0,0,0,0,0,0,0,0,15,0,0,0,0,0,0,0,0,0,0,0,0,0,0,0,0,0,0,0,3,0,9,45
42,3,42,3,6,48,48,45,42,42,45,36,21,36,24,24,24,33,30,30,30,27,30,30,0,30,0,0,0,12,48,0,0,0,0,0,0,42,3,0,0,0,3,0,0,0,0,0,0,0,0,0,6,0,0,0,0,0,0,0,3,24,0,39
9,42,21,21,48,54,48,48,48,42,36,42,63,27,27,33,27,27,27,30,27,30,27,33,0,21,0,0,0,0,15,36,0,0,0,0,0,0,36,0,0,0,0,0,0,0,0,0,0,0,0,0,0,0,0,0,0,0,0,0,0,21,3,42
27,6,3,42,18,48,42,42,39,42,45,30,39,36,27,30,30,30,27,27,33,27,33,27,27,0,0,0,0,12,30,0,0,0,0,9,0,0,0,48,0,0,0,0,0,0,0,0,0,0,0,0,0,0,0,0,0,0,0,0,0,27,36,42
39,36,33,3,39,39,45,36,36,39,48,39,36,36,24,27,33,27,33,30,30,36,27,27,30,0,0,0,0,0,30,0,0,0,0,0,0,0,0,18,0,0,0,0,0,0,0,0,0,0,0,0,0,0,0,0,0,0,0,0,3,0,27,39
3,27,36,12,36,48,45,39,48,51,42,48,30,24,24,30,24,27,30,33,33,27,27,27,21,0,0,0,0,9,0,30,0,0,0,0,0,3,0,15,0,0,0,0,0,0,0,0,0,0,0,0,0,0,0,0,0,0,0,0,0,3,30,36
36,9,42,3,6,42,45,42,45,45,45,45,21,36,27,24,30,30,27,24,33,30,0,27,30,0,30,0,0,0,0,30,0,0,0,0,3,0,21,0,0,0,0,0,0,0,0,0,0,0,0,0,0,0,0,0,0,0,0,0,0,3,18,39
33,24,21,42,39,45,33,42,42,36,45,30,27,27,30,27,24,27,24,30,30,24,27,24,27,0,0,0,0,0,27,0,0,0,0,0,0,0,0,36,3,0,0,0,0,0,0,0,0,0,0,0,0,0,0,0,0,0,0,0,0,30,3,42
33,42,3,30,39,9,36,42,39,36,42,42,33,30,24,27,30,27,24,30,33,30,33,30,27,0,0,0,0,0,27,0,0,0,0,0,3,0,0,3,24,0,0,0,0,0,0,0,0,0,0,0,0,0,0,0,0,0,0,0,0,21,39,42
12,3,6,3,36,45,51,42,45,42,51,42,24,24,33,24,24,27,27,27,30,24,27,24,24,0,0,0,0,0,48,0,0,0,0,0,0,0,0,3,3,0,3,0,0,0,0,0,0,0,0,0,0,0,0,0,0,0,0,0,0,6,30,36
30,33,24,24,21,45,45,48,54,51,42,36,30,42,30,30,27,24,30,33,30,36,30,24,27,0,0,0,0,0,27,0,0,0,0,0,0,0,6,36,3,0,0,0,0,0,0,0,0,0,0,0,0,0,0,0,0,0,0,0,18,0,27,27
36,15,6,42,33,48,39,48,39,45,42,45,30,24,27,24,24,30,27,30,27,24,24,24,0,21,0,0,0,0,30,0,0,0,0,0,0,0,0,0,0,0,0,0,0,0,0,0,0,0,0,0,0,0,0,0,0,0,0,0,0,36,27,42
9,9,45,45,3,45,42,45,45,48,51,42,27,24,21,24,24,27,24,27,30,27,33,24,24,0,0,0,0,30,0,0,0,0,0,0,0,0,3,21,0,0,0,0,0,0,0,0,0,0,0,0,0,0,0,0,0,0,0,0,0,3,39,36
42,42,6,21,30,45,48,36,45,48,48,39,51,24,30,24,24,30,24,30,24,24,27,27,27,0,0,0,0,0,0,24,0,0,0,0,0,0,15,0,3,0,0,3,0,0,0,0,0,0,0,0,0,0,0,0,0,0,0,0,0,3,21,39
36,39,3,6,42,39,42,51,48,45,57,42,36,30,24,24,27,27,33,30,30,30,33,21,24,0,0,0,0,0,42,0,0,0,0,0,0,0,0,0,0,0,0,0,0,0,0,0,0,0,0,0,0,0,0,0,0,0,0,15,0,0,39,36
39,45,15,36,42,48,42,48,48,48,51,48,30,30,27,24,30,30,30,30,30,30,36,30,24,0,0,0,0,0,42,0,0,0,0,0,0,0,0,3,21,0,0,0,0,0,0,0,0,0,0,0,0,0,0,0,0,0,0,0,0,3,21,48
3,6,3,42,42,45,48,48,48,51,45,48,36,30,30,30,30,33,30,30,30,30,30,30,0,30,0,0,0,0,30,0,0,0,0,0,0,0,0,0,0,0,3,0,0,0,0,0,0,0,0,0,0,0,0,0,0,0,0,0,0,18,33,45
39,33,6,39,48,57,48,48,42,51,51,24,42,30,24,27,27,39,33,33,36,27,36,27,27,0,0,0,0,0,48,0,0,0,0,0,0,0,0,18,0,0,0,0,0,0,0,0,0,0,0,0,0,0,0,0,0,0,0,0,0,0,39,36
36,39,36,39,6,45,48,51,51,42,48,39,27,48,21,27,27,30,27,24,30,33,30,30,27,0,0,0,0,0,27,0,0,0,0,0,6,0,0,36,0,0,0,0,0,0,0,0,0,0,0,0,0,0,0,0,0,0,0,0,0,9,30,39
42,3,6,6,39,45,51,45,51,45,45,33,48,36,30,24,33,30,30,30,30,27,30,30,27,0,0,0,0,0,30,0,0,0,0,0,3,0,0,21,0,3,0,0,3,0,15,0,0,0,0,0,0,0,0,0,0,0,0,0,0,24,33,42
42,6,3,3,33,42,36,48,45,42,36,36,24,42,30,27,24,27,21,30,30,30,30,24,27,0,0,0,0,12,0,0,27,0,0,0,0,0,0,0,0,0,0,84,0,0,0,0,0,0,0,0,0,0,0,0,0,0,0,0,0,3,21,30
36,24,21,39,45,48,51,51,36,48,51,39,48,33,27,33,27,27,27,33,30,30,30,24,27,0,0,0,0,30,0,0,0,0,0,0,0,0,0,21,0,3,0,0,0,0,0,0,0,0,0,0,0,0,0,0,0,0,0,0,0,9,36,24
6,3,6,30,6,54,45,51,48,48,51,42,36,24,27,27,24,30,27,21,24,27,24,30,24,0,0,0,0,0,27,0,0,0,0,0,0,0,0,0,24,0,0,0,0,0,0,0,0,0,0,0,0,0,0,0,0,0,0,0,0,24,3,36
39,39,15,36,36,42,36,51,45,54,48,27,36,24,24,24,21,24,27,27,30,30,36,27,27,0,0,0,0,30,0,0,0,0,0,0,0,30,0,0,0,0,0,0,0,0,0,0,0,0,0,0,0,0,0,0,0,0,0,0,0,15,36,36
39,39,42,3,48,45,36,39,42,42,45,48,57,30,24,42,21,21,27,24,30,24,36,21,24,0,0,0,0,0,24,0,0,0,0,0,3,30,0,0,0,0,3,0,102,0,0,0,0,0,0,0,0,0,0,0,0,0,0,0,0,0,24,51
45,3,12,3,48,36,48,48,51,42,48,51,27,24,36,21,24,27,24,54,27,27,24,24,0,21,0,0,0,27,0,0,0,0,0,0,0,0,36,0,0,3,0,0,0,0,0,0,0,0,0,0,0,0,0,0,0,0,0,0,0,3,24,45
24,27,3,51,30,42,51,45,51,48,42,33,27,48,24,24,24,21,21,24,24,24,27,24,21,0,0,0,0,0,27,0,0,0,0,0,0,0,24,3,0,3,0,0,0,3,0,0,0,0,0,0,0,0,0,0,0,0,0,0,0,3,30,39
9,45,42,9,33,42,48,45,51,45,42,51,21,24,24,21,24,30,24,30,27,27,27,24,30,0,0,0,0,0,48,0,0,0,0,0,0,0,24,0,0,3,0,0,0,0,0,0,0,0,0,0,0,0,0,0,0,0,0,0,0,9,27,39
