72,90,108,81,90,108,108,126,117,153,171,255,144,108,126,144,153,162,144,117,108,117,135,0,108,0,0,0,0,36,135,0,27,0,45,0,0,0,9,81,9,0,0,255,0,9,0,0,0,0,0,0,0,0,0,0,0,0,0,0,0,0,99,117
9,99,117,255,90,126,135,126,126,144,144,255,126,117,135,126,126,126,171,126,135,153,135,126,135,0,0,0,27,0,72,0,0,0,0,0,0,0,0,0,0,255,0,0,0,255,0,0,0,27,0,0,0,0,0,0,0,0,0,0,0,108,108,72
81,9,63,108,18,144,117,126,153,126,153,153,144,135,135,135,144,207,144,135,162,144,162,144,18,0,0,0,0,36,0,81,0,0,0,0,0,0,0,72,9,0,0,0,0,0,0,0,126,0,0,0,0,0,0,0,0,0,0,0,0,108,9,90
126,90,81,27,99,126,117,108,144,255,144,126,126,126,135,144,255,153,153,144,144,153,144,162,108,0,0,0,0,72,0,99,0,0,0,0,0,0,0,0,0,255,0,9,0,0,0,0,0,0,0,0,0,0,0,0,0,0,0,0,0,72,9,135
81,63,72,99,108,255,126,117,144,153,162,126,108,117,126,144,144,162,153,171,153,171,162,117,153,0,0,0,0,36,90,0,0,0,0,0,0,0,0,99,0,255,0,0,171,0,0,243,0,0,0,0,0,0,0,0,0,9,0,0,0,9,54,90
72,90,54,255,144,108,144,108,117,144,171,162,135,135,255,162,144,144,153,153,144,153,144,135,0,108,0,0,0,36,0,90,0,0,0,0,0,255,0,0,0,0,0,0,0,0,0,0,0,0,0,0,0,0,0,0,0,0,9,0,0,9,81,108
99,90,72,144,108,108,126,126,126,180,153,153,135,135,255,135,135,171,144,153,144,162,162,153,126,0,0,0,0,9,108,0,0,243,0,0,0,0,0,144,0,0,0,0,0,0,0,0,144,0,0,0,0,0,0,0,0,0,0,0,108,0,126,9
243,27,81,135,117,135,117,117,117,162,144,144,117,255,126,162,255,153,144,171,162,144,171,162,117,0,0,0,0,72,45,0,0,0,0,0,0,90,0,255,0,18,0,0,0,0,0,0,0,0,0,0,0,0,0,0,0,0,0,0,90,0,9,81
99,108,72,90,108,108,108,108,117,180,171,144,117,117,117,126,126,126,153,162,153,144,153,0,153,0,0,0,0,36,0,81,0,0,207,0,0,0,72,0,0,0,0,0,0,0,0,0,0,0,0,0,0,0,0,0,0,0,0,0,0,9,72,117
99,117,99,81,126,135,117,126,126,180,162,144,153,117,198,126,144,153,162,153,153,162,144,153,135,0,0,0,0,90,45,0,0,0,0,0,0,0,0,0,99,9,0,0,9,0,0,0,9,0,0,0,0,0,0,0,0,0,0,9,0,108,0,63
99,108,108,126,108,171,117,135,126,153,171,144,126,99,117,126,153,153,135,144,162,144,162,153,117,0,0,0,0,36,90,0,0,0,0,0,0,72,0,9,0,0,0,0,0,0,0,0,0,0,0,0,0,0,0,0,0,0,0,0,0,36,9,81
117,117,81,117,9,126,117,126,108,162,144,255,144,126,162,255,171,144,153,144,162,153,153,144,0,171,0,0,0,90,45,0,255,0,0,0,0,0,0,99,255,0,0,0,9,0,0,0,0,0,0,0,0,0,0,0,0,9,0,0,0,108,18,99
108,108,90,126,81,108,135,144,144,153,153,153,126,108,99,153,162,162,162,171,153,153,162,144,99,0,0,0,27,0,72,0,255,0,0,9,0,255,0,0,0,9,0,0,0,9,0,0,0,0,0,0,0,27,0,0,0,0,0,0,0,9,99,90
90,54,18,144,90,117,135,117,126,180,135,162,126,126,126,135,234,153,135,153,153,144,144,135,0,36,0,0,0,81,27,0,0,0,0,0,0,0,0,0,0,0,0,255,255,18,255,0,0,0,180,0,0,0,27,0,0,0,0,0,0,9,108,108
90,90,99,99,54,108,108,117,126,162,171,135,135,135,117,144,135,126,162,162,144,144,135,171,9,0,0,0,36,0,99,0,0,0,0,0,0,0,0,99,255,0,0,0,0,0,0,0,0,255,0,0,0,36,0,0,0,0,0,0,0,9,72,108
117,81,36,81,81,126,144,117,153,117,255,126,117,117,108,255,144,144,171,126,153,126,135,162,90,0,0,0,36,0,0,90,0,0,0,0,0,0,0,144,255,0,9,225,18,0,0,126,18,0,0,0,0,36,0,0,0,0,0,0,0,9,72,72
81,99,198,108,117,108,117,126,117,255,108,126,135,171,144,189,255,144,135,144,153,153,153,135,126,0,0,0,0,72,27,0,0,0,0,0,0,0,0,255,0,9,0,0,9,0,0,0,0,255,0,0,0,0,0,27,0,0,0,0,0,9,90,108
81,63,90,81,117,108,108,108,126,135,171,144,117,135,126,144,255,144,162,153,153,144,0,153,0,153,0,0,0,36,126,0,0,0,0,0,9,0,0,63,0,0,9,0,0,0,0,0,0,0,0,0,0,0,0,0,0,27,0,0,0,54,117,90
81,45,63,135,90,90,126,126,144,153,144,144,135,108,135,255,255,144,144,126,144,135,144,144,0,0,0,0,36,0,81,0,0,0,216,0,0,0,9,135,9,0,0,0,0,255,0,0,0,0,0,0,0,0,0,0,0,0,9,0,0,81,18,126
81,108,9,117,90,90,255,117,162,144,135,135,126,126,153,171,144,126,144,162,153,153,135,153,108,0,0,0,0,36,63,0,0,0,0,0,0,0,9,27,0,0,0,9,9,255,0,0,0,0,0,0,0,0,0,0,0,0,0,0,9,0,45,126
90,81,63,81,126,126,99,135,255,126,144,108,108,99,126,108,126,108,126,108,108,126,135,126,0,0,90,36,0,0,90,0,0,0,0,0,0,0,27,255,9,9,0,0,0,0,0,0,0,0,0,0,0,0,0,0,0,0,0,0,0,9,63,117
90,63,99,90,81,108,117,135,171,117,144,153,99,108,117,126,255,117,126,117,117,108,99,99,45,0,0,0,0,45,90,0,0,189,0,0,0,255,0,54,18,0,0,0,0,117,18,0,0,0,0,0,0,0,0,0,0,0,0,0,0,81,81,90
144,108,99,90,108,126,135,126,144,126,126,135,108,117,108,207,117,117,117,99,117,108,99,126,0,0,0,0,72,36,0,0,255,0,0,0,0,0,0,0,0,0,0,0,0,0,0,0,0,0,0,0,0,0,0,0,0,0,0,0,0,9,117,81
81,189,27,108,90,135,135,126,162,135,126,144,126,99,108,108,153,135,126,153,126,135,126,126,126,0,0,0,36,0,72,0,0,0,0,0,0,0,81,0,0,9,0,0,0,0,0,0,0,0,0,0,0,0,0,0,0,0,0,0,0,9,117,108
117,255,9,63,144,144,126,108,126,144,126,99,108,126,90,126,126,126,126,135,108,126,126,0,108,0,0,0,0,72,36,0,0,0,0,0,0,0,63,0,0,18,0,0,0,0,0,0,0,0,0,0,0,0,0,0,0,0,0,0,0,117,18,81
90,90,0,81,117,108,126,126,144,153,126,144,117,117,117,126,126,126,144,126,117,117,117,90,126,0,0,0,0,27,90,0,0,0,0,0,27,0,0,0,0,0,0,9,0,108,0,0,0,0,0,0,0,0,0,0,0,0,9,0,0,18,108,108
108,90,117,72,81,135,126,117,126,144,126,108,108,108,108,117,108,126,117,108,135,135,117,108,0,0,0,0,0,36,108,0,0,0,0,0,0,0,0,72,0,0,0,0,0,0,0,0,0,0,0,0,216,0,0,0,0,0,0,0,0,9,108,126
90,90,81,108,126,126,135,135,144,144,144,126,117,108,108,108,108,126,135,144,144,135,144,81,135,0,0,0,0,0,27,72,0,0,0,0,0,0,0,63,0,0,0,0,0,0,9,0,0,0,0,0,0,0,0,0,0,0,0,0,0,9,99,90
117,108,36,108,90,99,126,144,117,207,153,144,108,99,255,99,126,126,126,135,144,144,126,90,135,0,0,0,0,45,99,0,0,0,0,0,0,0,0,72,0,0,0,0,9,0,255,9,0,0,0,0,0,0,0,0,0,0,0,0,0,45,0,108
117,117,81,9,108,108,135,126,126,189,144,171,144,117,126,135,153,144,144,144,135,162,135,108,126,0,0,0,0,27,72,0,0,0,0,0,0,0,27,0,0,0,0,0,0,0,0,0,135,0,0,0,0,0,0,0,0,0,0,0,0,9,126,135
90,45,90,90,135,126,126,126,153,126,153,108,144,135,117,144,255,117,135,144,108,126,108,117,0,72,0,0,0,90,45,0,0,0,0,0,0,0,0,27,0,0,0,0,0,0,0,18,81,0,0,0,0,0,0,0,0,0,0,18,0,0,108,108
99,90,81,27,117,162,126,135,126,198,144,144,126,90,255,99,117,126,126,108,144,117,135,126,126,0,0,0,0,36,90,0,0,0,0,0,9,0,63,0,0,0,0,0,0,0,0,0,0,9,0,0,0,0,0,0,0,0,0,0,0,9,90,108
108,108,81,90,117,153,144,126,144,126,135,135,99,108,108,117,126,117,135,117,144,135,144,126,0,0,0,0,0,99,45,0,0,0,0,0,9,0,0,0,0,9,0,0,0,0,0,0,0,0,0,0,0,0,0,0,0,0,0,0,9,0,90,99
90,27,255,144,126,135,144,135,144,135,126,135,126,126,108,135,108,144,144,135,144,144,135,90,135,0,0,0,0,45,90,0,0,0,255,0,0,0,0,0,63,0,9,0,0,0,0,0,0,0,0,0,0,0,0,0,0,0,0,0,108,0,9,108
126,99,72,117,135,126,126,162,126,135,126,162,126,108,117,108,144,126,144,126,135,99,144,126,144,0,0,0,90,0,36,0,0,0,0,0,0,0,9,0,0,0,9,0,0,0,0,0,255,0,0,0,72,0,0,0,0,0,0,0,0,9,126,90
135,90,108,72,126,126,135,126,126,153,162,153,135,90,108,117,255,135,108,144,135,126,144,135,99,0,0,0,36,0,72,0,0,0,189,0,0,0,9,108,0,0,0,0,0,0,0,0,255,0,0,0,0,0,0,18,0,0,0,0,0,9,108,135
99,45,90,126,117,108,99,108,126,153,126,108,126,108,126,99,126,135,117,126,144,144,126,90,126,0,0,0,0,0,36,81,0,0,0,0,0,0,0,72,9,0,0,108,0,0,36,0,0,0,0,0,63,0,0,0,0,0,0,0,0,9,72,144
72,90,45,63,144,126,126,135,153,162,144,135,126,108,117,117,108,126,117,135,126,126,99,126,135,0,0,0,0,36,90,0,0,0,0,0,0,0,0,0,36,9,0,0,0,0,0,255,63,0,0,0,0,0,63,0,0,0,0,0,18,0,99,126
126,99,81,108,72,135,144,126,153,135,126,117,126,108,117,108,126,135,144,108,135,108,126,135,90,0,0,0,0,81,27,0,0,9,0,0,0,0,0,99,0,0,0,9,0,0,27,45,216,0,0,0,0,0,54,0,0,0,0,0,0,45,144,81
144,90,108,72,126,135,126,126,144,144,135,126,117,99,108,99,108,108,126,117,117,117,126,99,117,0,0,0,0,45,0,90,0,0,0,0,0,45,0,0,0,0,9,0,0,0,0,0,0,0,0,0,0,0,0,0,0,0,0,0,0,9,99,117
9,90,90,117,108,117,126,126,126,171,126,126,117,135,126,108,126,126,135,117,126,117,108,90,117,0,0,0,45,90,0,0,0,0,0,0,0,0,0,0,117,9,0,0,0,0,0,0,0,0,0,0,0,0,0,0,45,0,0,0,0,72,9,99
117,90,99,180,144,126,135,126,153,153,126,144,135,99,90,99,126,108,255,108,117,99,0,99,117,0,0,0,0,90,36,0,0,0,0,0,0,0,0,18,0,9,0,0,45,0,0,0,0,0,0,0,0,0,0,0,0,0,0,0,0,9,99,99
90,90,72,144,135,126,135,135,144,153,144,117,117,108,108,99,99,117,108,117,126,126,108,126,0,99,0,0,0,36,72,0,0,255,0,0,0,0,27,54,0,0,0,0,9,0,0,0,0,126,0,0,0,0,0,0,0,0,0,0,0,126,9,117
108,9,99,126,255,135,135,144,180,144,135,144,126,90,99,99,135,108,99,117,144,126,117,117,0,0,0,0,36,0,90,0,0,0,63,18,0,0,0,81,0,0,9,0,0,45,9,63,0,0,0,0,0,0,0,0,0,0,0,0,9,0,126,90
117,72,45,72,135,144,144,135,153,144,135,117,153,108,108,90,99,108,117,108,117,135,117,81,117,0,0,0,0,81,27,0,255,0,0,0,9,0,0,0,0,9,0,0,9,0,135,0,0,0,126,0,0,0,0,0,0,0,0,0,0,9,108,180
90,108,72,117,108,255,126,126,117,144,153,144,90,99,108,108,108,117,117,135,117,126,117,90,117,0,0,0,0,27,0,81,0,255,0,0,0,0,117,0,18,0,9,0,0,9,144,0,0,0,0,0,0,0,0,0,0,0,0,0,0,9,126,99
72,90,9,27,255,126,108,153,153,126,144,108,153,99,108,108,126,126,126,108,117,99,126,117,126,0,0,0,63,0,0,99,0,0,0,0,0,0,99,0,0,0,0,9,0,0,255,189,0,0,9,0,0,0,9,0,0,0,9,0,0,9,126,90
108,126,126,126,126,90,108,171,126,144,153,126,117,81,108,90,108,99,117,144,135,117,108,117,0,72,0,0,0,36,81,0,0,0,0,0,0,0,0,72,9,0,0,0,0,0,0,0,0,0,0,0,0,0,0,0,0,0,0,0,0,63,144,126
108,72,108,81,99,117,126,117,135,153,108,126,108,108,99,99,99,126,126,135,126,117,0,126,99,0,0,0,0,207,0,108,0,0,0,0,0,0,18,72,0,0,9,0,0,0,0,0,0,0,252,0,0,0,0,0,0,0,0,0,0,0,81,108
126,108,90,108,99,126,126,135,135,144,135,135,108,108,108,99,108,99,108,108,135,108,99,117,0,108,0,0,27,0,90,0,0,0,0,0,0,0,0,0,0,0,0,0,0,0,0,0,0,36,0,255,0,0,0,0,0,0,0,0,0,0,108,99
