42,54,48,66,48,12,72,96,90,84,84,102,96,96,96,96,102,108,102,96,102,72,78,18,102,84,0,0,0,0,0,60,0,0,0,0,6,0,0,0,36,0,0,0,0,0,0,0,255,0,0,0,0,0,0,0,0,0,12,0,0,0,72,0
42,42,42,12,18,42,60,90,90,84,84,96,96,102,102,90,102,96,96,102,96,60,84,102,54,0,0,0,0,0,0,96,0,0,0,0,0,0,0,12,0,0,0,0,0,0,0,0,0,12,0,0,0,0,0,0,0,0,0,0,0,0,6,90
42,72,42,6,78,54,84,72,72,96,90,96,90,96,90,96,102,96,102,96,96,120,96,102,102,54,0,0,0,24,72,0,0,0,0,0,0,0,54,0,0,0,0,0,0,0,0,0,0,0,18,0,0,0,0,0,0,0,0,0,0,0,12,30
84,12,60,48,48,60,84,90,78,96,96,90,96,96,84,90,96,102,96,96,66,72,72,72,60,0,0,0,0,0,48,6,0,0,0,0,0,0,0,0,42,0,0,0,0,0,0,0,0,0,0,0,0,0,0,0,0,0,0,0,12,0,54,6
90,42,42,54,42,84,66,72,96,78,90,90,96,108,96,108,90,84,84,102,78,60,102,78,72,48,0,0,0,0,30,60,0,132,0,0,0,6,0,0,60,0,0,0,6,0,0,0,0,0,0,0,0,0,0,0,0,0,0,0,0,0,12,72
18,60,42,12,60,60,72,84,84,90,84,102,84,84,90,96,90,114,90,102,72,66,66,60,66,0,0,0,12,0,36,66,0,0,0,0,0,0,0,0,0,0,0,0,0,0,12,0,0,0,0,0,0,0,0,0,0,0,0,0,0,0,24,72
60,72,6,54,18,42,78,84,72,84,96,90,90,96,84,84,84,84,96,90,96,90,96,84,90,0,0,0,0,0,0,96,0,0,0,0,0,0,6,0,138,0,6,0,0,12,0,0,0,255,0,0,0,0,0,0,0,0,0,0,6,6,0,78
72,48,48,36,12,60,72,96,96,72,96,90,102,84,96,84,90,96,54,96,72,84,84,90,90,0,84,0,0,0,30,0,72,0,0,0,0,6,0,0,0,0,0,0,0,0,0,0,0,0,6,0,0,0,0,0,0,0,0,0,0,0,18,6
66,18,48,54,60,66,60,78,102,72,78,96,96,102,84,96,90,96,102,96,48,60,60,60,60,18,0,0,0,0,54,0,0,0,0,0,0,0,0,0,0,96,0,0,0,0,0,180,0,0,0,0,0,0,0,0,0,0,0,0,0,24,0,72
54,66,60,48,18,78,66,78,72,90,84,114,96,84,84,84,96,102,96,84,66,72,78,102,84,60,0,0,0,0,30,0,60,0,0,0,0,0,0,0,60,0,0,0,0,246,0,0,0,0,0,0,0,0,0,0,0,0,0,0,0,48,0,30
72,60,60,54,12,66,78,84,72,90,96,84,96,96,102,90,90,96,102,90,78,84,90,102,66,0,0,60,0,0,54,0,24,0,0,0,0,6,0,0,78,6,0,0,0,0,0,0,0,0,0,0,0,0,0,0,0,0,0,0,0,0,12,18
48,60,54,18,54,72,78,66,84,96,72,84,90,84,102,96,102,102,102,102,96,102,96,102,0,102,54,0,0,0,30,0,60,0,0,0,0,0,0,0,18,0,0,18,0,0,0,0,0,138,0,0,0,0,0,0,0,0,0,6,0,0,0,30
42,78,48,18,48,72,48,72,78,78,84,96,96,108,102,96,102,102,108,90,90,78,90,96,72,48,0,0,0,0,48,0,0,0,0,0,0,0,0,0,72,0,0,0,0,0,0,0,0,0,0,0,0,0,0,0,0,0,0,0,0,0,6,72
72,48,54,30,60,36,84,48,84,78,84,84,96,102,96,90,102,102,84,96,78,90,114,108,96,0,0,0,0,24,0,0,72,0,0,0,0,0,0,0,0,0,12,6,0,0,0,0,0,0,0,0,0,0,0,0,0,0,0,0,18,0,0,30
72,12,48,60,60,12,84,78,84,102,72,96,96,96,90,78,102,90,72,84,66,90,90,96,90,78,0,0,0,0,24,0,60,0,0,0,0,6,0,0,0,30,6,18,0,6,0,0,0,0,0,0,0,0,0,0,0,0,0,0,0,0,36,96
48,48,54,12,78,42,84,78,72,90,78,84,96,84,90,96,108,96,72,90,78,60,72,72,60,48,0,0,0,0,18,0,0,60,0,0,0,0,0,0,48,0,0,0,0,0,0,0,0,0,0,0,6,0,0,0,0,0,0,0,0,0,6,24
54,48,54,78,12,48,72,72,84,84,90,84,96,90,90,102,96,90,96,102,96,90,90,96,96,0,0,0,0,0,0,54,0,0,0,0,0,0,0,0,0,6,0,6,6,0,0,0,0,0,0,0,0,0,0,0,0,0,0,0,0,0,6,42
72,60,12,66,24,36,78,60,96,72,84,90,78,96,90,96,96,255,90,108,96,108,96,108,96,0,72,0,0,30,0,54,0,0,255,0,0,0,0,84,12,0,0,0,0,0,0,0,0,0,0,0,0,0,0,0,0,0,0,0,0,0,18,42
60,42,60,48,48,60,78,84,84,84,78,102,114,96,96,96,96,90,102,96,102,102,78,96,102,0,0,78,0,0,30,12,60,0,0,0,0,6,0,0,78,0,0,6,0,0,0,0,0,180,0,0,0,0,0,0,0,0,0,0,0,0,6,72
30,84,18,60,48,12,66,84,78,84,84,90,96,96,90,90,102,108,102,102,96,96,102,96,102,0,0,0,0,0,30,72,0,0,0,0,6,0,0,0,42,0,0,0,0,0,0,0,0,0,0,78,0,0,0,0,0,0,0,0,0,0,30,78
72,48,66,18,54,72,72,78,78,96,78,114,96,96,96,96,90,102,96,96,102,102,114,90,90,78,0,0,0,0,60,24,0,0,0,0,0,0,0,0,30,0,0,0,0,0,0,0,0,0,84,0,0,0,0,0,0,0,0,0,0,12,42,0
66,72,72,48,48,78,72,78,90,126,102,96,108,96,255,102,96,90,102,96,96,90,90,84,102,60,0,0,0,0,18,24,0,0,0,0,0,162,0,0,30,0,0,0,0,0,0,0,255,0,0,0,0,0,0,0,0,0,12,0,0,6,0,84
96,255,18,36,18,84,48,96,78,72,84,90,90,90,84,84,90,96,96,102,96,78,90,102,114,0,72,0,0,0,30,66,0,0,0,0,0,102,0,0,0,0,0,0,0,0,0,0,0,0,0,0,0,0,0,0,0,0,0,0,0,0,6,12
60,78,66,66,42,72,60,66,84,84,96,90,96,102,114,96,96,96,96,102,90,102,102,102,114,0,0,24,0,30,0,66,0,0,0,0,0,0,0,255,24,0,12,0,0,0,0,0,48,0,0,0,0,0,0,0,0,0,0,0,0,0,30,66
96,84,18,30,72,96,72,108,90,84,72,96,96,96,102,84,84,84,84,78,84,84,84,78,78,60,0,0,30,0,0,72,60,0,0,0,0,6,0,0,54,0,0,0,0,0,0,0,0,0,0,0,0,0,0,0,0,0,0,0,0,0,6,60
72,72,120,18,12,72,60,72,102,102,90,90,114,102,108,96,96,96,255,102,96,96,96,78,84,72,0,0,0,0,24,48,0,0,0,0,0,0,12,0,36,0,0,0,0,0,0,60,0,0,0,0,0,0,0,0,0,0,0,0,0,0,30,42
54,54,84,12,60,66,186,84,78,78,84,102,96,102,102,108,96,102,96,102,102,114,78,96,0,108,0,0,0,36,0,0,0,54,0,0,0,0,0,84,0,0,0,0,0,6,24,0,0,54,0,0,0,0,0,0,0,0,0,0,0,12,0,96
84,48,66,42,18,54,90,96,84,78,102,90,120,96,96,114,96,102,102,72,78,72,72,102,48,96,0,0,0,0,30,60,0,0,126,0,0,6,30,0,6,0,6,0,0,0,0,114,0,0,0,0,0,0,0,0,0,0,0,0,0,0,12,60
54,48,66,12,18,66,54,84,84,84,78,96,120,108,90,96,255,114,108,72,96,84,96,84,72,90,0,0,0,0,0,24,72,0,0,0,0,0,0,42,0,0,0,6,0,0,6,0,0,0,0,0,0,0,0,0,0,0,6,0,0,0,6,60
54,54,18,18,42,78,84,78,90,102,84,102,108,96,96,102,108,102,108,120,90,114,102,108,90,0,90,0,0,0,66,24,0,0,0,0,0,0,0,48,0,12,18,0,0,0,0,0,72,0,0,0,0,0,0,12,0,0,0,0,0,0,18,30
72,42,18,42,48,60,54,72,102,102,72,114,102,108,96,120,102,108,102,60,90,90,96,84,96,0,0,0,0,0,72,24,0,0,0,0,0,0,6,0,48,0,0,0,0,0,54,0,6,18,0,0,0,24,0,0,0,0,0,0,0,0,42,6
42,36,42,48,90,66,60,84,78,84,108,102,108,102,108,102,114,108,84,120,84,84,72,90,0,0,0,0,0,24,54,0,0,0,0,0,6,0,66,0,0,0,0,0,0,24,0,0,0,0,0,30,0,0,0,0,0,0,0,0,0,6,48,0
72,42,36,60,18,42,60,72,66,96,114,102,114,102,114,102,114,120,96,72,90,72,114,102,78,96,0,0,0,0,0,30,66,0,0,0,0,0,0,0,6,18,0,0,0,0,0,0,132,0,18,0,0,0,0,0,0,0,0,0,0,12,0,90
66,48,54,18,54,72,60,72,78,114,90,96,114,114,114,108,114,102,84,96,84,78,84,60,78,72,0,0,0,0,18,42,0,0,0,0,0,0,6,0,48,0,0,0,0,0,0,0,0,0,0,0,18,0,0,0,0,0,0,0,0,0,6,18
30,48,54,48,18,54,84,60,78,102,90,120,108,102,96,102,255,102,102,84,60,72,84,90,84,0,0,0,0,0,30,0,72,0,0,0,0,0,6,0,48,0,0,0,0,0,0,0,0,0,0,0,0,24,0,0,0,0,0,0,0,0,6,18
60,72,42,66,54,48,54,78,84,96,90,96,102,96,126,102,120,108,102,60,78,102,96,102,78,18,0,0,0,0,54,24,0,0,0,0,0,6,0,0,36,6,0,0,0,6,0,0,0,0,0,0,0,18,0,0,0,0,0,84,0,0,0,6
48,54,48,42,18,78,96,60,72,102,108,114,102,102,108,102,96,102,108,96,102,90,114,96,108,12,0,0,0,0,0,48,0,0,0,0,0,0,0,6,30,0,0,0,6,0,0,0,0,0,0,0,0,0,0,0,18,0,0,0,0,36,0,78
66,78,78,90,138,30,66,72,102,84,102,108,114,90,102,96,102,102,108,102,96,114,102,108,102,0,0,0,0,24,0,0,0,60,0,0,132,0,0,0,18,0,0,0,0,0,0,0,0,0,0,0,0,0,0,24,0,0,0,0,0,0,6,72
66,54,42,18,36,54,66,96,84,96,102,96,120,84,96,96,96,102,84,102,78,102,96,90,66,0,0,18,0,0,18,102,0,0,0,0,0,0,0,6,0,30,0,0,0,6,0,6,0,0,0,0,0,0,66,0,0,12,0,0,0,0,198,48
78,30,54,18,42,60,84,66,96,102,102,108,102,102,102,102,96,102,60,102,102,102,114,108,108,0,72,0,0,6,0,0,0,66,0,0,0,12,0,0,0,12,0,0,6,0,0,0,6,0,0,0,0,0,0,0,0,0,0,0,0,30,0,30
60,72,18,12,54,54,72,78,66,96,108,96,96,96,84,90,90,102,96,102,90,84,84,96,0,0,0,96,0,0,24,0,72,0,0,0,0,18,0,0,48,12,0,0,0,0,0,0,156,6,0,0,0,0,0,0,0,0,0,0,0,0,6,54
72,90,12,54,54,42,72,84,72,72,96,102,96,96,90,96,96,90,90,96,84,78,78,84,84,84,0,0,0,0,30,66,0,0,0,0,6,0,0,0,0,42,0,0,18,0,0,0,0,0,0,0,0,0,0,0,0,0,0,0,0,0,72,12
78,252,48,48,60,72,48,72,66,108,96,96,102,132,96,102,90,96,78,120,96,84,96,84,78,72,0,0,0,0,24,66,0,0,0,0,0,0,0,6,0,0,0,0,0,0,186,0,0,0,0,192,0,0,0,0,0,0,6,0,0,24,0,18
60,66,12,60,54,72,72,90,96,96,84,90,102,90,102,96,180,96,84,96,102,102,108,114,60,0,0,0,0,0,60,0,0,0,0,0,0,0,0,0,0,42,66,0,0,42,0,255,0,255,0,0,0,0,0,96,0,0,0,0,186,0,42,0
48,84,60,12,72,18,60,96,72,96,108,96,102,84,84,90,102,102,84,120,84,108,108,90,102,0,0,0,0,0,18,60,0,102,0,0,0,0,0,0,0,24,6,0,6,0,0,0,0,0,0,0,0,0,0,0,0,0,0,0,0,0,24,36
72,96,72,12,54,60,102,84,84,72,78,96,102,186,90,120,96,90,96,108,96,96,102,96,72,96,0,0,0,0,30,96,0,0,0,0,0,0,6,0,0,0,0,0,0,0,0,0,0,0,0,0,0,0,0,0,0,0,0,0,0,0,6,60
78,60,66,18,60,90,84,72,102,66,102,96,90,90,90,84,84,96,102,96,84,96,102,102,96,0,0,0,0,0,0,0,0,0,0,0,0,0,0,0,84,0,0,0,0,0,0,0,0,0,0,0,0,0,0,0,0,0,0,0,0,0,18,60
54,42,48,18,60,60,78,84,114,108,90,90,96,90,96,90,96,96,90,96,96,78,72,84,90,12,0,0,0,0,30,0,60,0,0,0,0,0,0,0,48,0,0,0,6,0,0,6,0,0,0,0,0,0,0,0,0,0,0,0,0,0,6,84
30,18,42,42,84,48,84,90,96,102,102,90,96,90,102,96,96,96,90,78,84,96,96,84,0,0,0,0,24,0,54,0,0,0,0,255,0,0,72,0,0,6,6,0,0,0,0,252,6,0,6,0,0,0,0,0,0,0,0,0,90,0,24,0
54,78,24,48,54,84,84,84,114,72,84,96,96,102,96,102,96,102,84,72,78,90,90,90,72,18,0,0,0,24,0,60,0,0,0,0,0,0,0,0,0,12,0,0,6,0,0,168,6,0,0,0,0,0,0,0,0,0,0,0,0,0,48,30
