24,10,12,28,22,26,24,28,26,32,28,28,96,22,24,24,28,26,24,28,24,28,26,28,24,0,0,0,10,0,20,0,0,0,0,0,0,0,0,0,14,2,0,0,0,0,0,88,0,0,0,0,0,0,0,0,0,2,0,0,0,2,10,14
24,26,6,30,16,32,28,32,28,30,28,26,26,24,24,22,24,24,24,24,28,28,26,26,0,0,0,0,0,42,0,20,0,0,0,0,0,0,0,34,0,4,0,0,0,0,56,0,0,0,0,0,0,0,0,0,0,0,0,0,0,16,2,30
14,24,20,12,12,30,30,32,28,26,30,28,24,22,24,24,24,66,24,30,28,28,26,24,20,0,0,0,0,8,24,0,0,0,0,0,0,0,0,8,0,0,2,0,10,0,0,0,0,0,0,0,0,0,0,0,0,0,0,0,0,2,20,24
10,26,4,10,10,28,28,28,24,34,24,32,26,22,24,28,32,24,24,24,28,28,24,24,16,0,0,0,0,0,8,24,0,0,0,0,2,0,0,6,18,0,0,0,0,0,0,0,0,0,0,0,0,0,0,0,0,0,0,0,0,6,20,28
6,12,14,6,28,34,30,26,32,28,26,28,22,28,24,22,24,28,24,28,24,26,26,0,24,20,0,0,0,22,8,0,0,0,0,0,2,0,2,14,0,2,0,0,0,0,0,0,0,0,0,0,0,0,0,0,0,0,2,0,0,2,34,18
14,22,6,6,32,34,32,28,28,28,26,36,30,24,20,24,26,24,22,24,20,26,26,22,4,0,0,0,0,8,20,0,0,0,0,0,2,0,0,14,0,0,0,0,0,88,0,0,0,0,0,0,0,0,0,0,0,0,0,0,0,2,12,28
14,10,28,6,36,26,28,22,36,30,28,38,28,20,20,20,22,20,20,20,20,20,22,20,20,0,0,0,0,10,20,0,0,0,0,0,2,0,0,4,0,0,0,0,0,0,0,0,0,0,0,0,0,0,0,0,0,0,0,0,0,6,24,28
14,28,6,10,24,28,30,28,26,30,28,32,24,30,24,22,26,28,26,26,26,28,24,32,0,24,14,0,0,6,16,0,0,0,0,0,0,0,2,0,0,2,0,0,8,0,0,0,0,0,0,0,48,0,0,0,0,0,2,0,24,0,4,24
26,14,10,26,26,32,30,32,28,28,24,28,28,24,24,22,28,26,24,24,24,24,28,26,22,0,14,0,8,0,22,0,0,0,0,0,2,0,96,4,24,0,0,0,2,0,0,0,0,0,0,0,0,0,0,0,0,0,0,0,2,0,20,20
22,8,30,22,8,26,26,30,30,24,26,24,26,26,24,22,22,26,28,26,22,24,22,24,0,0,0,0,6,0,18,0,0,0,0,2,0,0,2,30,0,0,0,2,0,0,0,0,0,0,0,0,10,0,0,0,0,0,0,0,0,10,24,36
22,18,10,26,26,28,32,30,28,26,26,28,24,22,22,22,24,26,26,20,24,28,28,0,4,26,0,0,0,8,20,0,0,0,0,0,0,0,0,6,0,0,0,0,0,0,0,0,0,0,0,0,6,0,0,0,0,0,0,0,0,16,28,28
26,6,24,24,30,30,28,28,24,30,26,32,24,24,24,24,24,24,28,24,28,24,24,22,28,0,0,0,0,6,24,0,0,0,0,0,0,0,0,28,2,0,2,0,0,0,0,0,0,0,0,0,0,0,4,0,0,0,0,0,0,28,4,24
28,20,10,24,24,30,32,24,32,30,28,28,26,22,24,26,24,24,26,28,24,26,24,20,0,24,0,0,6,0,0,0,26,0,0,0,0,0,0,12,0,0,0,0,2,0,0,6,0,0,0,0,0,0,0,0,2,0,0,0,0,6,32,28
6,8,6,50,26,28,32,30,26,26,28,30,84,24,20,24,20,20,24,26,24,22,26,28,16,0,0,0,8,0,30,0,0,0,0,0,0,0,0,0,24,0,0,0,0,0,50,0,0,0,0,0,0,0,0,0,0,0,0,0,0,6,56,28
24,16,14,6,32,30,30,32,28,28,28,24,28,20,24,24,22,24,26,28,28,28,30,28,0,20,0,0,0,10,22,0,0,0,0,0,0,64,0,0,14,0,0,0,68,2,0,0,0,0,0,0,0,0,0,0,0,0,0,0,0,20,20,28
20,8,24,6,30,28,30,26,32,26,28,28,24,28,24,22,24,28,24,24,22,28,28,26,24,0,0,0,10,0,24,0,0,0,0,0,64,0,14,0,0,0,0,0,0,0,0,0,0,0,0,0,0,0,0,0,0,0,2,0,0,20,2,22
8,24,30,8,28,26,26,32,28,28,26,26,28,22,28,22,26,24,24,26,24,28,24,28,20,0,0,0,0,6,22,0,0,0,0,0,0,0,0,0,0,0,6,0,0,54,0,0,0,0,0,0,0,0,0,0,0,0,0,0,0,6,30,28
16,8,26,24,32,24,28,30,28,32,32,34,32,24,28,24,26,32,26,24,28,24,24,24,0,20,0,0,0,10,0,22,0,0,0,30,34,0,16,0,0,2,0,0,0,0,0,18,0,0,32,0,10,0,0,0,0,0,2,0,0,8,14,18
24,6,26,52,14,38,42,32,34,30,30,28,26,22,24,26,30,28,48,26,28,26,28,18,30,0,0,0,0,8,24,0,0,0,0,26,0,0,8,4,0,0,0,2,0,0,0,0,0,0,0,2,0,0,0,0,0,0,0,0,2,2,22,30
26,14,10,22,24,30,28,32,30,30,28,30,28,28,28,28,26,28,28,28,28,30,24,0,24,0,0,18,0,0,6,0,22,0,0,0,0,0,2,0,0,24,0,0,0,0,56,0,0,0,0,0,0,0,0,0,0,0,0,0,2,0,24,24
10,10,4,46,26,28,32,28,32,24,34,28,24,32,26,26,24,24,22,24,24,24,28,24,18,0,0,0,0,6,18,0,0,0,0,0,0,0,0,12,0,0,0,0,0,0,0,0,0,0,0,0,0,0,0,0,4,0,0,2,0,18,0,28
28,28,8,8,30,24,28,32,32,32,30,30,28,28,28,26,28,26,26,26,30,26,28,26,22,0,0,0,0,28,6,0,0,0,0,0,38,0,0,0,16,0,0,0,0,0,0,0,0,0,0,0,0,0,0,0,0,2,0,0,2,0,96,16
10,26,26,14,28,26,24,30,26,34,24,32,28,24,24,30,28,30,24,30,36,28,30,30,0,0,0,0,96,24,0,8,0,0,0,0,0,0,0,16,2,0,0,0,0,0,0,0,0,0,0,0,0,0,0,0,0,0,0,0,0,6,32,34
16,22,28,6,36,32,30,28,32,26,32,32,32,30,26,32,30,32,28,30,24,28,32,32,0,0,0,0,0,10,0,24,0,0,0,0,0,0,28,0,0,0,2,0,0,0,0,0,0,0,0,0,0,0,0,0,0,0,0,0,0,14,94,24
28,26,10,24,28,32,32,28,28,28,30,24,38,22,24,18,20,22,20,20,20,20,20,18,20,0,0,8,0,0,0,0,22,0,0,0,0,0,10,0,0,0,0,0,0,2,2,0,0,86,0,0,0,4,0,0,0,0,2,0,0,28,28,2
10,22,30,6,28,32,34,26,30,24,28,26,24,30,26,22,24,24,28,24,32,28,32,26,20,0,0,0,0,6,72,0,0,64,0,0,0,0,0,0,0,0,2,0,0,0,0,0,0,0,0,0,0,0,0,0,0,0,0,0,0,14,26,28
26,10,6,6,28,22,32,26,28,28,28,28,24,24,24,28,24,30,28,30,32,24,24,22,4,0,0,0,0,22,14,0,0,0,2,0,0,0,0,10,0,0,0,2,0,0,0,0,0,0,0,0,0,0,0,0,0,0,0,0,18,4,94,24
24,26,26,6,28,32,32,32,28,32,32,30,36,26,22,24,22,26,28,30,28,24,28,24,26,0,0,0,8,0,46,0,0,0,0,0,0,0,0,6,14,0,0,0,0,36,0,0,0,0,0,96,0,0,0,0,0,0,0,0,0,4,16,24
20,26,10,8,28,28,30,30,32,30,26,28,28,26,28,26,24,26,28,24,26,26,22,24,20,0,0,0,0,14,26,0,0,0,0,0,0,18,0,2,0,0,0,0,2,0,0,6,0,0,0,12,0,0,0,0,0,0,0,0,0,2,18,18
26,10,26,14,28,28,28,28,28,30,24,28,28,28,64,26,26,28,26,28,70,28,28,24,0,22,0,0,0,0,8,0,94,0,0,0,0,0,8,14,0,0,0,0,70,0,0,0,0,0,0,0,0,0,0,0,0,0,0,0,16,0,4,26
24,8,14,16,24,32,28,26,24,26,34,28,28,28,32,30,26,76,24,30,28,28,26,30,0,0,0,0,0,10,22,0,0,0,0,0,0,0,0,38,0,4,0,0,0,0,0,0,0,0,0,0,0,0,0,0,0,0,2,0,0,14,32,2
24,8,6,32,10,28,6,30,28,24,32,34,34,28,28,28,28,26,28,50,28,24,28,22,24,0,0,0,0,6,22,0,0,0,0,0,96,0,0,2,0,4,0,4,0,0,0,0,0,0,0,0,0,0,0,0,0,0,2,0,0,12,30,26
12,24,14,8,26,30,30,30,24,28,28,26,28,30,26,28,26,50,24,28,26,24,26,24,16,0,0,0,0,6,28,0,0,0,0,0,0,0,24,0,0,0,2,0,2,58,0,0,0,0,0,0,0,0,0,0,0,0,0,0,0,34,6,30
24,10,6,24,26,28,32,30,32,28,30,26,32,28,22,22,28,28,28,24,26,20,28,26,20,0,0,0,0,6,26,0,0,0,0,0,0,0,10,2,0,4,0,0,0,0,2,6,0,28,0,2,0,0,0,0,0,0,2,0,0,6,28,24
28,8,6,22,24,32,30,36,28,28,28,30,34,24,26,26,24,24,24,24,20,26,24,0,24,0,0,0,8,0,0,26,0,0,0,0,0,0,0,0,16,0,0,0,0,0,0,0,0,0,0,0,0,0,0,0,0,0,2,0,0,4,24,28
10,10,8,24,8,20,34,24,32,24,30,28,24,24,24,28,26,28,26,26,24,28,30,22,0,6,0,96,0,22,8,0,0,0,0,0,0,0,0,0,4,0,0,0,0,0,0,0,0,0,0,0,0,0,0,0,0,0,0,0,6,0,22,20
24,12,14,8,14,28,28,32,28,26,28,26,28,24,24,24,22,26,28,24,20,28,28,18,26,0,0,6,0,0,24,0,0,0,0,0,0,2,0,22,0,0,2,0,0,0,0,0,0,0,0,0,0,0,0,0,0,0,2,0,0,10,24,26
28,10,10,24,30,26,26,28,30,28,32,24,28,26,28,28,26,24,28,28,28,30,28,20,20,0,0,0,0,8,24,0,0,0,0,0,0,0,0,0,18,0,0,0,0,0,0,0,0,0,0,0,30,0,0,0,0,0,0,2,0,18,2,26
10,16,8,6,24,24,28,32,30,28,28,30,28,24,22,30,24,26,22,26,24,28,30,30,18,0,0,0,0,8,0,96,0,0,0,0,0,48,0,0,22,2,0,0,0,0,0,0,0,0,0,0,0,0,0,0,0,0,0,0,0,70,2,16
28,28,14,14,10,28,28,30,28,28,30,24,28,28,30,24,30,26,24,28,26,30,28,20,0,26,0,0,0,86,8,0,8,0,0,0,0,0,14,0,0,4,0,0,0,0,0,0,0,2,0,0,0,0,0,0,0,0,0,0,10,0,24,24
20,22,8,6,34,24,28,22,24,24,28,30,26,24,26,24,28,30,22,28,26,26,30,22,0,30,0,0,0,10,24,0,0,0,0,0,4,0,0,8,0,4,0,0,0,6,0,0,0,0,0,0,0,0,0,0,0,2,0,0,0,2,12,86
24,18,6,24,14,26,32,26,34,26,26,22,28,24,24,22,20,22,22,24,24,28,28,28,22,0,0,0,0,10,16,0,92,0,0,0,0,2,0,20,0,2,4,0,0,0,0,0,0,2,0,0,74,0,0,0,0,0,0,0,0,4,74,96
20,12,8,4,30,28,28,28,26,30,24,26,34,20,22,24,24,20,32,24,24,24,24,24,0,0,0,0,0,24,0,10,0,0,0,0,0,2,0,16,0,2,0,0,0,0,0,0,0,0,0,0,0,0,0,0,0,0,0,0,0,68,6,30
10,20,28,6,28,28,26,30,24,32,24,28,30,22,20,26,22,24,96,20,20,22,22,26,0,0,0,0,94,8,0,28,0,0,0,0,0,0,0,24,0,0,0,0,96,0,0,0,0,0,0,0,0,60,0,0,0,0,0,0,0,4,22,24
22,6,10,6,26,30,28,28,28,26,28,22,22,28,20,46,24,24,18,24,52,20,20,20,0,0,0,0,0,0,4,96,0,0,0,0,0,0,0,0,0,0,10,0,0,0,0,0,0,0,0,0,0,0,0,0,0,0,2,0,0,2,20,10
16,6,6,24,28,30,34,30,32,30,28,26,28,22,20,22,20,20,24,20,18,20,24,20,2,0,0,0,0,6,24,0,0,0,0,0,0,0,0,0,20,0,0,0,0,0,2,0,0,0,0,0,0,0,0,0,0,0,0,0,0,16,2,6
8,6,4,22,20,30,28,28,32,28,32,32,32,20,22,22,20,20,22,22,24,22,20,22,16,0,0,0,0,8,28,0,0,0,0,0,2,0,18,0,0,0,2,0,0,0,0,0,0,64,0,0,0,0,0,0,0,0,2,2,0,28,0,16
24,22,6,12,28,36,30,32,28,28,32,28,26,24,20,20,22,20,22,26,26,20,24,24,18,0,0,0,0,26,74,0,0,0,0,0,0,14,0,0,16,0,0,6,0,0,2,0,0,0,0,0,0,0,0,0,0,0,0,0,68,10,0,6
26,24,8,8,14,28,22,28,26,26,30,24,22,20,24,22,20,24,22,26,18,24,20,18,0,0,0,0,0,10,0,24,0,0,0,0,2,0,0,0,8,0,0,0,0,0,0,24,0,0,0,0,0,0,96,0,96,0,0,2,0,4,10,16
10,16,6,4,10,8,28,32,24,28,28,30,28,28,24,26,24,26,26,22,28,24,24,20,22,0,0,0,0,8,26,0,0,0,0,0,0,24,0,0,0,6,0,0,0,0,0,0,0,0,0,0,0,0,0,0,0,0,0,0,0,2,18,24
