44,16,36,12,48,44,48,48,44,56,48,56,56,56,172,52,28,32,36,32,32,28,32,28,0,24,0,0,0,0,0,48,0,0,0,0,0,0,16,0,0,0,0,0,0,0,0,20,0,8,4,0,0,0,0,0,0,0,0,0,0,8,24,40
52,12,32,16,48,48,56,52,48,60,40,56,56,40,48,192,48,48,40,44,40,40,48,44,28,0,0,0,0,36,20,0,0,0,0,0,0,0,0,0,60,0,0,4,0,0,0,8,0,0,0,0,0,0,0,0,0,0,0,0,0,4,28,32
40,32,12,44,16,52,52,48,44,48,64,48,48,52,52,44,48,48,40,48,48,36,48,44,32,0,0,0,0,0,32,0,4,0,0,4,0,4,4,24,4,0,0,0,0,0,0,0,0,0,0,8,0,0,0,8,0,0,0,0,0,4,36,56
32,28,12,8,36,44,48,52,52,52,72,52,48,48,56,48,48,44,44,40,60,40,52,32,48,0,0,0,0,0,36,0,0,0,0,0,4,0,0,4,16,0,0,0,0,0,0,0,0,0,0,0,0,0,0,0,0,0,0,0,4,0,192,36
36,16,32,36,48,48,48,56,48,48,52,52,44,60,40,32,28,32,32,32,40,32,28,28,28,0,0,36,0,0,0,0,0,0,0,0,0,0,12,20,0,0,4,0,0,0,156,0,104,0,0,0,0,0,0,0,0,0,0,0,0,12,24,28
40,36,48,12,40,48,48,48,56,52,60,52,48,56,44,40,40,44,44,48,48,36,48,48,0,44,0,0,0,0,8,40,4,0,0,0,0,4,4,28,0,4,0,4,0,0,0,0,0,0,0,160,0,0,0,0,0,0,0,0,0,16,20,40
40,8,40,40,40,40,44,56,56,48,56,64,64,56,48,48,48,48,44,48,48,48,40,44,40,0,0,0,0,0,44,0,0,0,0,0,0,0,4,0,0,0,0,0,8,0,0,0,0,0,0,0,0,0,0,0,0,0,0,0,0,8,40,40
40,40,12,36,44,40,44,52,48,60,56,48,56,44,44,24,40,28,16,20,20,24,24,20,24,0,0,0,24,0,40,0,0,4,0,0,0,0,0,0,24,0,0,0,4,0,8,0,40,0,0,0,0,0,0,0,0,0,0,0,0,8,88,28
40,44,16,44,48,44,48,48,48,48,68,48,52,60,40,40,36,44,36,32,44,44,44,32,32,0,0,0,0,0,44,0,0,0,0,0,0,0,0,52,0,0,8,0,0,0,188,0,0,0,0,0,0,0,0,0,0,0,0,0,4,24,0,32
48,12,36,12,40,48,56,64,60,52,60,60,52,48,44,40,44,44,48,32,48,52,48,56,40,48,0,0,28,0,112,0,0,0,0,4,0,0,0,64,8,0,0,0,0,0,40,0,0,0,0,0,0,0,0,0,0,0,0,0,0,92,8,48
32,28,12,12,48,48,44,52,56,48,48,48,52,44,40,48,40,48,48,52,108,40,40,36,28,20,8,0,0,48,20,0,0,0,0,0,0,0,0,56,4,0,0,0,0,0,0,0,0,0,0,0,0,0,0,0,0,0,0,0,0,8,36,52
40,40,12,32,40,56,44,44,52,56,48,56,52,36,44,28,28,28,28,28,28,32,24,24,20,0,0,0,0,0,40,0,0,0,0,0,0,0,0,0,48,0,4,0,0,68,0,0,0,164,0,0,0,0,0,0,0,0,0,0,8,28,0,0
36,44,12,12,36,48,48,56,52,48,48,60,52,48,44,40,24,88,32,20,24,16,32,20,12,16,0,0,0,0,0,40,0,0,0,0,0,0,0,0,0,0,0,0,0,0,0,0,0,0,0,0,0,0,0,0,0,0,0,0,0,0,4,48
36,32,12,40,40,48,44,48,48,48,48,52,48,40,36,36,28,28,32,24,28,28,28,28,24,0,0,0,0,0,44,0,0,0,0,0,0,0,0,0,0,0,0,0,12,0,0,0,0,0,0,0,0,0,0,0,0,0,0,0,4,16,0,32
40,32,16,32,28,48,48,48,52,48,48,48,40,36,40,48,28,32,32,32,28,32,24,16,32,0,0,0,0,0,68,0,0,0,0,0,0,0,0,0,0,0,0,0,0,0,0,0,0,0,0,0,0,0,0,0,0,0,0,0,20,0,40,28
40,4,44,40,40,52,44,48,40,56,40,40,56,44,40,32,36,32,28,36,24,36,36,24,32,0,0,0,0,0,48,0,0,0,0,0,0,0,0,8,32,0,0,4,0,0,0,0,0,0,0,0,0,0,4,0,0,0,0,0,0,8,32,24
40,32,12,40,52,32,48,44,52,48,56,52,48,40,32,40,40,36,32,28,40,36,32,32,28,0,0,0,0,0,32,0,0,0,0,0,4,0,0,4,20,0,4,0,0,0,0,0,0,0,0,0,0,0,0,0,0,0,0,0,0,12,28,52
48,12,12,52,36,44,52,48,48,48,52,60,52,40,32,40,32,32,32,32,32,32,28,28,0,32,0,0,0,0,36,0,0,0,0,0,0,4,0,40,0,0,0,8,0,0,0,0,0,0,0,0,0,0,0,0,0,0,0,0,0,8,20,80
84,40,64,88,104,88,112,100,104,108,104,116,92,112,104,40,32,32,32,40,32,28,32,36,24,0,0,0,0,0,32,0,0,0,0,0,0,0,0,4,40,0,0,0,0,0,0,4,0,0,0,0,0,0,0,0,0,0,0,76,0,0,100,84
84,80,92,100,100,96,96,84,88,92,88,92,32,84,76,32,32,28,32,32,28,36,28,32,32,0,0,0,0,0,44,0,0,0,0,0,4,0,4,0,0,0,4,0,0,0,0,0,0,0,0,0,0,0,0,0,0,0,0,0,76,0,80,80
92,92,64,56,88,88,100,104,80,88,84,84,80,40,92,48,40,40,40,48,44,44,32,48,44,0,0,0,0,36,0,0,112,0,0,0,0,0,0,0,24,0,0,0,0,0,0,0,0,0,0,0,0,0,0,0,0,0,0,0,0,68,96,96
84,64,88,76,40,76,40,88,48,88,48,48,48,48,44,36,28,32,40,36,36,32,40,24,24,0,0,0,0,48,28,24,0,0,0,0,0,0,0,36,0,0,0,0,56,64,0,0,0,0,0,0,0,0,0,0,0,0,0,0,0,68,84,92
72,68,24,60,56,60,44,40,44,56,44,44,40,40,40,32,28,20,20,24,12,24,20,16,28,0,0,0,0,44,0,0,0,0,0,0,0,0,0,40,0,4,0,0,0,0,116,0,0,0,0,0,0,0,0,0,0,0,0,0,0,44,72,76
92,84,76,68,76,64,60,40,44,52,56,68,40,40,28,36,32,32,32,36,36,24,28,28,16,0,0,0,0,0,48,0,0,0,0,0,0,4,0,0,0,0,0,0,0,0,0,0,0,0,0,0,0,0,0,0,0,0,0,0,0,40,92,80
56,84,76,16,92,52,60,44,48,48,48,48,52,44,120,32,32,24,28,28,32,28,32,32,20,0,0,0,0,0,0,44,0,0,0,0,0,0,0,20,0,0,0,0,0,0,0,0,0,0,0,0,0,0,0,0,0,0,64,0,0,76,0,84
64,76,40,40,40,40,40,48,40,56,48,40,48,48,32,44,40,40,48,48,48,40,28,36,24,0,0,20,0,0,192,0,0,0,0,0,4,0,0,0,4,0,4,4,20,0,0,0,0,0,0,0,0,0,0,0,0,0,0,0,56,76,0,60
88,84,88,64,64,96,104,108,60,112,160,56,60,48,60,32,36,32,32,32,32,36,40,0,28,0,0,0,0,36,0,0,0,0,0,0,0,0,20,0,0,0,0,0,0,0,0,112,0,0,0,0,0,0,0,0,0,0,0,0,0,64,96,100
92,96,48,48,72,48,48,48,60,48,56,60,68,48,48,28,32,28,28,24,28,28,28,20,24,0,0,0,24,40,0,0,0,0,0,0,0,0,0,12,4,0,0,0,0,0,0,0,0,0,0,0,0,0,0,0,0,0,0,0,0,100,0,84
100,152,84,44,92,64,44,48,56,48,48,56,56,52,96,44,28,28,32,32,36,40,40,28,36,28,0,0,0,0,0,40,0,0,0,0,0,0,0,0,28,0,0,0,12,0,0,0,0,0,0,0,0,0,0,0,0,0,0,0,0,0,56,116
52,96,84,40,44,52,48,52,44,48,52,40,48,44,44,40,40,36,44,40,40,40,40,40,0,40,0,188,0,0,0,40,0,0,0,0,0,0,0,56,4,0,0,0,0,0,0,0,4,0,0,0,0,0,0,0,0,0,0,60,0,0,100,116
112,100,76,36,40,88,48,48,48,52,48,56,48,44,52,40,40,40,36,40,32,36,48,44,44,0,0,0,0,0,36,0,0,0,0,0,0,0,4,0,0,4,0,0,0,108,0,0,0,0,0,0,0,0,0,0,0,0,0,0,0,92,100,104
100,120,36,32,44,48,44,48,48,48,56,44,40,40,168,52,40,40,40,40,40,40,36,36,40,0,0,0,0,16,36,0,0,0,0,0,0,0,0,0,28,0,0,0,0,0,0,0,0,0,0,0,0,0,0,0,0,0,0,0,64,0,184,92
80,36,36,40,40,40,56,56,48,44,52,52,48,56,52,52,48,48,44,48,36,48,48,48,28,0,0,0,0,20,40,0,0,0,0,0,0,0,36,0,0,0,4,0,0,0,148,0,0,0,0,0,0,0,0,0,0,0,0,0,0,48,160,80
84,84,40,28,52,40,40,56,56,48,52,52,56,44,48,40,44,40,40,40,36,48,40,44,48,0,0,0,0,68,0,0,0,0,0,0,0,0,40,0,0,0,0,0,12,0,0,8,0,0,0,0,0,0,0,0,0,0,0,44,0,76,0,84
76,40,84,32,40,44,44,56,60,56,56,48,56,44,44,44,52,52,44,44,48,56,40,40,24,0,0,0,0,16,40,0,0,0,0,0,0,0,0,0,20,4,0,0,0,0,0,0,0,0,0,0,0,0,0,0,0,0,0,0,0,28,92,96
84,88,36,32,40,48,52,56,48,60,48,48,56,48,152,48,44,48,48,40,40,48,48,48,0,0,40,0,0,20,48,0,0,0,0,0,0,0,0,24,0,0,0,0,0,4,0,0,0,0,0,0,0,0,0,0,0,0,0,116,0,0,84,84
84,84,48,68,92,48,48,48,40,48,60,44,52,52,48,48,28,48,28,28,28,28,28,32,24,0,0,0,0,0,48,0,0,0,0,0,0,0,0,0,12,4,0,0,0,0,0,4,0,0,0,0,0,0,0,0,0,0,0,0,0,28,92,92
68,72,56,92,36,48,36,84,52,52,56,60,48,44,40,68,32,40,40,64,36,40,40,40,56,0,0,0,0,0,0,0,40,0,0,0,4,0,0,40,0,4,0,0,0,0,0,0,0,0,0,0,0,0,0,0,0,0,0,0,0,68,112,96
96,88,24,32,72,52,64,44,56,60,64,56,52,144,56,52,48,56,48,56,44,48,44,48,0,40,0,0,0,8,40,0,0,0,0,0,0,0,36,0,0,0,0,4,0,0,0,0,0,0,0,0,0,0,0,0,0,0,0,0,0,96,192,36
92,68,40,32,44,48,44,48,48,52,56,160,56,44,44,44,44,48,48,44,44,48,56,52,36,0,0,0,0,0,0,40,0,0,0,0,0,0,0,0,44,4,4,0,0,0,0,0,0,0,0,0,0,0,0,0,0,0,0,0,0,76,96,84
40,96,40,28,40,52,64,60,52,56,48,52,48,44,48,44,40,40,24,28,20,24,28,32,0,20,0,0,0,36,0,0,0,0,0,0,0,0,4,0,20,0,0,0,0,0,0,0,0,0,12,0,4,0,0,0,0,0,0,0,0,28,76,24
32,56,36,40,56,48,56,44,48,56,52,56,52,48,100,44,48,52,44,44,56,48,44,32,36,0,0,0,0,0,40,0,0,0,0,0,0,0,4,36,0,0,0,0,0,0,0,0,0,0,0,0,0,0,0,0,0,0,0,0,0,20,44,76
40,40,32,40,56,44,48,56,48,52,52,56,52,52,48,100,56,48,44,52,40,36,40,40,28,0,100,0,0,0,32,0,0,0,0,0,0,0,4,12,12,0,0,0,0,0,0,0,0,0,0,0,0,0,0,0,0,0,0,0,0,40,52,84
44,56,32,44,40,52,56,52,44,44,52,56,52,48,48,36,40,32,28,84,40,32,32,32,20,0,0,0,0,16,48,0,0,0,0,0,0,0,0,0,0,8,0,0,0,0,0,0,0,0,0,0,0,0,0,0,0,0,0,0,0,20,44,68
36,60,48,44,36,48,52,48,64,60,48,64,36,52,164,44,28,28,36,40,40,44,40,32,28,0,0,0,0,0,40,0,0,0,0,0,0,0,0,0,28,0,0,0,0,0,0,0,0,0,0,0,0,28,0,0,0,0,0,0,0,8,40,12
32,48,44,44,48,48,48,44,60,44,52,56,184,68,56,92,48,52,48,44,52,48,52,44,32,0,0,0,0,0,0,44,0,0,0,0,0,0,0,28,4,4,0,4,0,0,4,0,0,0,0,0,0,20,0,0,0,0,0,0,32,0,48,36
44,28,28,40,48,44,56,56,64,40,48,48,52,48,44,40,28,32,32,28,28,36,32,32,0,0,0,24,0,40,0,0,0,0,0,0,0,0,0,4,12,0,0,0,0,0,0,0,0,0,0,0,0,0,0,0,0,0,0,0,0,16,36,40
52,36,32,44,40,48,48,40,44,48,48,44,40,48,44,48,44,52,56,56,64,56,64,52,32,0,0,0,0,0,40,0,0,0,0,0,0,0,48,0,0,0,4,0,0,0,0,0,0,0,0,0,0,0,0,0,0,0,0,0,12,0,20,44
40,40,40,32,40,48,52,48,56,56,52,56,56,60,60,48,56,56,56,48,56,60,56,56,36,0,0,0,0,16,36,0,0,0,0,0,4,0,0,32,0,4,0,0,0,0,164,0,0,0,0,0,0,0,0,0,0,0,0,0,0,12,28,20
24,44,36,40,48,44,56,48,52,52,56,52,48,48,48,48,52,88,44,52,28,36,56,48,12,0,0,0,0,0,40,0,0,0,0,0,0,0,24,0,0,0,4,0,0,0,0,0,0,0,0,0,0,0,0,0,0,0,0,0,0,4,28,24
