20,16,16,6,22,26,28,24,28,20,38,32,24,28,28,28,32,26,32,30,24,22,26,26,0,24,0,0,0,20,0,8,10,0,0,0,0,0,0,0,28,0,0,0,0,0,2,16,0,0,0,0,0,0,0,0,0,0,0,0,0,2,14,26
24,18,8,6,20,18,22,24,22,30,28,32,24,28,24,28,28,28,32,26,28,26,26,26,0,24,0,0,0,10,20,0,0,30,0,0,0,0,22,0,0,0,0,0,2,2,46,0,0,0,0,0,0,0,0,0,0,0,0,0,0,14,6,28
18,8,20,10,18,24,24,30,22,26,32,32,24,26,26,24,28,26,22,24,20,20,24,16,20,0,0,0,0,10,0,24,0,0,12,0,0,0,0,26,0,0,0,2,0,0,0,34,0,0,0,0,0,0,0,0,0,0,0,0,0,2,32,20
20,18,4,26,18,26,24,34,20,26,34,26,34,26,28,30,24,24,32,28,32,28,34,30,18,0,0,0,0,10,20,0,0,0,0,0,0,0,24,0,0,0,0,0,0,0,0,0,0,0,0,0,0,0,0,0,0,0,0,0,2,0,10,22
20,28,18,16,12,16,28,24,22,28,36,28,32,32,26,30,28,30,26,26,32,30,28,32,0,0,18,0,0,8,24,0,0,0,0,0,0,0,0,20,4,0,0,58,0,0,0,0,0,0,0,0,0,0,0,0,0,0,0,2,0,0,26,16
18,24,4,16,24,14,22,22,30,22,38,30,28,28,26,28,28,30,22,32,20,18,24,24,20,0,0,0,0,22,10,0,0,0,0,0,2,0,0,0,4,0,0,0,0,2,84,0,0,0,0,0,6,0,0,0,2,0,0,0,0,4,10,12
14,10,20,90,6,28,10,18,20,24,34,32,32,34,26,28,28,26,30,34,30,26,36,28,22,0,0,8,0,0,22,0,0,0,0,26,0,0,16,0,0,2,0,0,0,0,0,0,0,0,0,0,0,0,0,2,0,0,0,0,16,2,0,28
18,18,20,28,16,22,22,24,26,32,24,34,28,30,28,28,30,28,32,26,28,32,28,24,20,26,0,0,20,0,0,6,0,0,0,0,0,2,16,0,4,0,0,0,0,0,34,0,0,0,0,8,0,0,0,0,0,0,0,0,0,4,22,24
18,20,8,92,30,20,24,32,28,32,22,28,26,26,32,32,28,32,28,22,26,28,34,24,30,0,0,0,0,0,8,0,20,86,0,0,0,2,0,0,0,0,76,0,0,0,0,0,0,0,0,0,0,0,0,0,0,0,0,0,0,2,14,16
22,14,56,6,16,22,20,20,20,24,32,38,30,28,22,22,20,16,20,20,24,18,24,20,18,16,0,0,0,2,24,0,0,96,0,0,0,0,0,0,0,0,0,0,0,0,88,0,0,0,16,0,6,0,0,0,70,0,0,0,2,0,16,8
16,18,6,18,18,24,28,20,22,30,32,36,26,26,28,32,30,30,30,28,32,28,28,28,20,28,0,0,0,20,10,0,0,0,0,0,0,0,0,14,2,2,0,0,0,0,0,0,0,0,16,6,0,0,0,0,0,0,0,0,0,20,4,14
18,22,6,96,16,16,20,22,24,34,28,32,32,60,50,30,34,38,36,32,32,28,36,32,22,0,0,0,0,8,20,0,0,0,0,0,0,0,0,4,0,0,0,0,0,24,0,0,0,0,0,0,0,0,0,6,0,0,0,0,0,6,26,16
20,20,4,14,24,16,22,24,28,20,36,32,26,26,30,80,28,28,28,28,28,32,28,28,28,0,0,0,0,8,28,0,0,0,0,0,0,0,0,0,2,0,0,0,0,0,0,40,18,0,0,0,0,0,0,0,4,0,0,0,0,8,12,20
18,16,8,12,22,26,22,26,20,32,32,32,28,28,26,28,34,28,34,32,26,32,32,32,24,0,0,0,0,22,8,0,0,0,0,0,0,0,0,14,0,0,0,0,0,24,0,2,0,0,0,0,0,0,0,0,0,0,0,0,0,2,14,30
26,16,16,14,20,18,26,16,26,32,22,28,28,34,28,32,32,30,28,32,32,38,32,34,22,0,0,0,0,6,20,0,0,0,0,0,0,0,0,2,0,26,0,0,0,0,0,0,0,0,0,0,0,0,0,0,0,0,0,0,0,2,6,16
16,10,58,74,16,20,22,20,22,24,32,32,34,28,34,30,38,34,34,28,30,40,30,28,6,0,0,0,0,8,0,20,0,0,0,0,0,0,0,0,0,0,0,52,0,0,0,0,0,0,0,0,0,0,0,0,0,0,0,0,0,2,14,14
16,6,6,6,14,26,22,26,28,28,38,30,32,26,30,26,26,30,96,30,38,32,32,0,28,0,0,0,0,10,20,0,0,0,0,0,0,0,10,0,0,0,0,8,0,6,0,20,0,0,0,0,0,0,0,0,0,0,0,0,0,2,22,18
24,4,16,78,20,26,28,22,26,26,28,26,28,24,24,24,76,24,24,16,24,24,20,20,24,0,0,0,6,0,16,0,0,0,2,2,0,0,4,0,2,0,0,0,0,0,0,80,6,0,0,0,0,0,0,0,0,0,0,2,0,0,14,22
14,16,14,18,6,22,24,30,30,24,26,32,26,24,22,24,26,96,26,22,24,24,24,26,24,0,14,8,0,24,0,0,0,0,0,0,0,0,0,20,0,0,0,0,0,0,0,0,0,0,0,0,0,0,0,0,0,0,0,0,0,4,18,20
20,22,6,6,16,28,24,24,24,24,24,24,26,24,26,26,26,24,22,24,26,30,22,22,24,0,0,0,0,6,20,0,0,0,0,0,0,0,0,0,0,0,2,0,0,0,0,0,0,0,0,0,0,0,0,0,0,0,0,0,0,2,10,24
20,16,14,16,20,26,26,24,24,22,24,26,26,24,24,22,24,24,20,24,26,26,28,26,22,0,0,0,0,8,22,0,0,0,0,0,0,0,0,0,2,0,0,0,2,0,0,0,0,0,42,40,0,0,0,0,0,0,0,0,0,2,10,16
18,10,58,10,20,24,26,24,28,34,30,28,32,32,28,30,28,20,28,20,24,26,20,20,22,0,0,0,24,0,8,0,0,0,0,0,2,0,16,0,4,0,0,0,0,0,0,0,0,0,0,0,0,0,0,0,0,0,0,0,0,14,4,24
12,14,20,16,14,28,22,22,22,24,32,28,24,24,24,26,24,24,26,28,28,30,22,24,22,0,10,6,0,14,22,0,0,0,0,0,0,0,24,0,0,0,0,0,0,0,0,0,0,0,0,0,0,0,0,0,0,0,0,0,0,0,44,34
16,16,10,12,24,22,28,22,26,22,30,28,24,26,28,26,24,28,30,26,22,28,24,26,0,22,0,10,0,0,0,26,0,0,0,0,0,0,2,0,0,38,0,0,0,0,64,0,0,14,46,0,0,0,0,0,0,0,0,0,0,4,12,14
24,20,6,10,20,22,16,20,20,32,24,32,30,28,44,28,26,30,26,28,54,30,32,30,0,28,0,0,0,0,0,20,0,0,0,0,0,0,0,4,0,0,0,0,0,0,0,0,0,0,46,0,0,0,0,0,0,0,0,0,0,2,20,22
18,18,56,50,20,22,28,28,28,32,26,34,36,38,34,38,58,20,22,20,22,22,22,20,22,0,0,0,0,8,30,0,0,0,0,0,0,0,10,0,2,0,2,0,0,56,0,0,0,0,0,0,0,0,0,0,0,0,0,2,0,10,18,18
20,16,42,6,18,26,30,30,28,44,34,32,26,28,30,24,28,26,30,30,26,28,28,24,0,0,24,0,10,0,24,0,0,0,0,0,0,0,0,0,0,2,0,0,0,0,0,80,0,0,0,0,0,0,0,0,0,0,0,0,2,0,14,20
24,20,16,32,24,28,42,24,28,26,38,28,32,28,26,30,28,26,64,26,20,28,32,22,32,0,0,0,0,80,22,0,0,0,0,2,0,0,0,20,0,0,0,0,0,0,0,0,74,0,0,0,0,0,0,0,0,0,0,0,0,2,8,24
24,8,20,70,24,20,22,24,28,32,26,34,32,28,28,26,32,32,32,30,28,30,30,34,22,0,0,0,8,0,18,0,0,0,0,0,0,0,0,18,0,0,0,0,0,0,0,0,2,2,0,0,28,0,0,0,0,0,0,0,0,12,2,24
8,18,2,4,24,26,22,28,26,28,28,34,30,24,26,22,56,24,24,24,24,24,24,26,0,18,16,0,0,8,0,24,0,0,0,0,0,0,0,0,0,0,0,4,0,0,96,0,0,0,0,0,0,0,0,0,0,0,0,0,4,0,14,22
16,6,4,20,20,24,30,28,26,32,32,38,30,34,34,30,28,28,32,26,34,32,32,36,0,0,22,0,0,8,0,0,20,42,0,0,0,0,16,0,0,0,0,0,0,0,92,0,0,0,60,0,0,0,0,0,0,0,0,0,0,0,14,20
18,20,6,10,20,26,24,28,24,30,34,34,34,30,30,32,32,30,32,28,30,32,34,24,32,0,0,0,8,22,0,0,92,0,0,0,0,0,0,14,0,0,2,0,0,0,0,46,0,0,0,0,0,0,0,0,0,0,0,0,0,18,2,16
20,80,10,10,20,26,26,26,34,26,28,42,34,28,30,28,34,28,26,38,32,32,34,28,28,0,0,0,0,4,16,0,0,0,0,0,0,0,18,0,10,0,0,2,0,2,0,0,0,0,0,0,0,0,0,0,0,0,0,0,2,0,18,10
14,16,20,4,28,28,14,26,28,24,28,32,28,24,24,68,24,22,24,76,22,28,28,22,0,26,0,0,0,10,20,0,0,8,0,0,0,0,18,0,0,0,0,0,0,0,0,82,92,0,0,0,0,0,0,0,0,0,0,0,0,14,4,20
22,8,20,30,10,30,26,26,26,30,40,34,34,28,32,32,24,96,28,28,28,28,30,22,26,0,0,0,0,8,0,94,0,0,0,0,2,0,0,0,0,0,0,0,2,0,0,0,0,0,0,0,0,0,0,0,0,0,0,0,0,4,22,10
18,24,10,22,26,8,16,30,34,32,32,28,24,24,24,24,28,26,28,28,26,28,24,30,0,26,0,0,0,10,18,0,0,0,0,0,0,0,0,0,18,0,0,0,0,0,0,0,0,0,0,0,0,0,0,0,0,0,0,0,0,2,34,30
6,6,16,8,24,28,26,30,26,28,32,32,32,28,30,26,28,26,34,28,26,34,34,50,28,20,0,0,0,0,18,0,0,6,0,0,0,0,4,0,22,16,2,26,0,0,0,0,0,0,0,0,0,0,0,0,0,0,0,0,0,2,20,22
28,16,10,24,22,26,22,26,30,28,36,30,24,24,24,24,26,32,78,36,24,28,34,28,38,0,0,0,0,4,16,0,0,0,0,0,0,0,18,0,6,0,2,0,0,0,0,0,14,0,0,0,0,0,0,0,0,0,0,0,10,0,16,20
22,6,20,22,24,30,28,28,26,34,28,30,26,26,26,30,28,28,34,28,28,28,34,32,24,0,0,0,0,16,6,0,0,0,28,0,0,2,0,0,0,0,0,0,0,0,0,0,40,0,0,0,0,0,0,0,0,0,0,0,0,0,6,22
18,24,10,16,4,28,30,30,28,32,28,36,30,32,30,96,34,30,32,24,34,38,34,30,22,0,0,0,0,6,24,0,0,0,0,0,0,0,0,24,0,0,0,4,0,0,0,0,0,12,0,10,0,0,0,0,0,0,0,0,0,6,24,16
24,20,10,22,16,26,24,22,24,22,36,30,50,28,70,24,74,24,28,64,26,28,24,28,0,28,0,0,0,6,0,22,0,0,0,0,0,0,16,0,0,0,0,0,2,0,0,0,0,0,0,0,0,0,0,0,0,0,0,0,0,6,10,22
16,6,10,8,16,24,22,24,32,22,36,30,24,26,24,24,66,30,26,26,24,30,26,20,24,0,0,0,0,10,22,0,0,0,0,0,0,0,0,0,0,32,0,0,0,0,0,0,36,0,0,0,0,0,0,0,0,0,0,2,0,0,14,78
20,16,6,20,16,32,22,32,22,20,32,30,34,28,24,24,24,32,28,24,26,24,24,28,24,0,12,0,0,20,2,0,0,0,0,0,0,0,0,20,0,0,0,0,0,0,2,0,28,70,0,0,0,0,0,0,0,0,0,0,6,0,28,24
18,14,24,20,26,24,28,32,26,30,32,36,34,26,22,24,34,26,22,22,24,28,26,30,0,22,0,0,8,0,22,0,0,0,0,0,0,2,0,0,0,2,0,0,0,0,0,0,20,0,42,0,0,0,0,0,0,0,0,0,0,12,6,24
18,6,24,6,30,30,28,32,30,32,28,28,28,24,26,94,32,24,24,20,28,28,28,24,26,0,0,0,0,10,24,0,0,0,0,0,2,0,0,20,0,0,0,2,0,0,0,0,0,0,0,0,0,0,0,0,0,0,0,0,0,6,24,28
6,22,14,22,6,26,28,24,24,22,28,36,26,24,24,26,22,24,24,30,28,24,26,24,20,0,0,0,0,0,0,20,0,0,0,0,0,0,0,18,0,0,0,0,0,0,0,12,0,20,0,74,0,0,0,0,0,0,0,0,0,10,24,32
8,22,24,20,20,30,24,30,28,28,30,28,24,30,24,24,22,26,26,24,30,26,30,20,22,0,0,0,0,10,20,0,0,0,0,0,0,0,0,0,24,2,0,0,0,0,0,0,0,0,0,32,0,0,0,0,0,0,0,0,0,6,14,16
16,16,26,24,32,28,26,26,24,24,30,36,26,26,20,20,28,24,20,26,24,24,24,24,20,0,0,0,0,0,8,22,0,0,0,0,0,0,0,10,2,0,0,2,0,0,2,54,92,0,0,0,0,0,0,0,0,2,0,0,0,8,16,20
20,18,8,32,6,26,20,30,28,28,32,46,38,34,32,32,40,34,32,38,34,34,28,36,20,0,0,0,0,8,88,0,0,0,0,0,0,0,0,16,0,0,0,0,0,0,0,34,2,0,0,28,0,0,0,0,0,0,0,2,0,12,4,18
60,20,14,24,22,20,28,24,28,24,28,30,34,26,28,28,26,28,30,24,30,26,24,24,24,0,0,0,0,22,10,0,0,0,0,2,0,0,0,20,0,0,0,0,0,2,0,0,0,0,0,0,0,0,0,0,0,0,0,0,2,0,8,18
