21,21,14,91,14,77,77,112,112,91,98,91,70,70,77,231,70,70,70,70,105,91,91,98,42,84,0,0,0,28,0,77,0,0,0,0,0,0,0,70,0,0,0,0,0,0,0,0,0,0,0,0,0,0,0,0,0,0,0,0,0,21,105,98
91,98,28,91,49,98,98,84,91,91,84,98,91,77,98,84,77,77,77,77,98,77,98,105,91,0,0,0,0,35,70,0,0,0,0,0,0,0,21,35,0,0,0,0,0,0,0,0,0,0,0,0,0,0,0,0,0,0,0,0,35,0,28,70
84,7,21,98,28,98,77,91,91,77,112,105,105,98,98,98,91,98,84,91,84,84,70,77,70,0,0,0,14,0,56,0,0,0,0,0,14,0,0,0,49,0,0,0,0,0,7,0,0,7,0,0,0,0,0,0,0,0,0,0,0,7,28,105
84,14,21,84,98,77,98,105,84,105,98,91,91,70,77,84,77,98,98,70,91,84,63,63,84,0,0,0,0,21,70,0,0,0,0,0,0,0,49,0,0,21,0,0,0,0,7,0,0,0,0,0,0,0,0,0,0,0,0,0,0,7,77,105
84,70,70,21,98,91,77,91,84,98,84,98,84,84,84,91,91,91,84,105,84,98,91,77,70,0,0,0,0,28,84,0,0,0,0,0,0,0,0,77,0,0,0,0,0,0,0,0,7,0,0,0,0,0,21,0,7,0,21,0,0,91,21,105
14,77,14,14,98,84,84,84,84,84,112,105,98,105,98,105,105,98,91,91,84,77,77,84,77,0,0,0,0,0,0,77,0,0,0,0,0,0,63,0,14,0,7,0,126,0,0,0,0,0,0,0,0,0,0,0,0,0,0,0,21,0,49,91
84,14,7,49,21,98,63,91,84,84,84,105,77,84,84,77,77,70,70,84,77,70,84,84,0,77,0,0,0,35,245,0,0,0,0,0,0,0,0,14,0,0,0,0,0,0,0,0,0,0,0,35,0,0,0,0,0,0,0,0,0,49,0,91
70,14,70,28,84,70,84,112,84,91,84,84,98,70,98,77,77,84,84,77,63,84,77,77,49,0,0,0,0,21,84,0,0,0,0,0,0,0,7,0,7,0,0,0,0,0,0,0,0,0,0,0,0,0,0,0,0,0,0,0,0,7,56,112
21,21,63,21,84,98,84,77,91,105,112,105,112,98,91,91,84,105,98,98,84,98,98,98,77,0,0,0,0,84,35,0,0,0,0,0,7,0,0,91,0,0,0,0,0,0,0,0,0,0,0,0,0,0,0,0,0,0,0,0,14,0,77,84
77,84,42,21,77,98,84,84,77,84,98,91,98,91,84,84,91,91,77,84,105,91,84,84,77,0,0,0,0,0,112,0,0,0,0,0,0,0,21,77,0,7,0,0,0,119,0,0,0,0,0,0,7,49,0,0,0,0,0,0,0,7,84,77
84,84,28,21,84,70,84,91,98,91,84,91,84,77,175,77,77,70,126,77,84,91,84,70,70,0,0,0,0,0,84,0,0,0,0,0,0,0,0,21,0,56,0,0,0,255,0,0,0,0,0,0,0,0,0,0,0,0,0,0,0,105,14,255
21,91,14,98,98,63,91,84,84,98,98,119,105,98,84,98,84,77,84,203,84,98,91,98,0,147,0,0,0,0,70,0,0,0,0,0,0,0,7,70,0,0,84,0,0,0,0,0,0,0,0,0,0,0,0,0,0,0,0,0,0,7,70,91
63,14,70,56,84,21,84,84,91,84,84,91,84,77,77,70,77,84,84,77,70,70,70,77,21,0,0,0,255,0,0,0,0,0,0,0,7,0,0,35,0,0,0,0,0,0,0,28,0,0,0,0,0,0,0,0,0,0,0,0,0,7,84,255
98,91,70,70,98,105,84,98,84,84,91,84,84,77,105,77,84,70,77,77,84,84,70,77,0,70,0,0,0,84,35,0,0,0,0,0,0,7,0,70,0,0,7,0,0,0,0,7,0,0,0,0,0,0,0,0,0,0,0,0,0,35,70,84
77,84,35,70,28,77,84,70,84,91,77,84,105,98,70,70,84,77,70,77,77,70,84,84,70,0,0,0,0,28,84,0,0,0,0,0,0,0,0,70,14,7,0,0,0,0,0,0,0,0,0,0,0,0,0,0,0,0,0,0,0,14,21,91
21,21,14,21,84,49,91,77,91,84,98,70,84,77,77,70,70,70,70,70,70,84,84,77,63,0,0,0,0,28,63,0,0,0,0,0,0,0,0,0,84,0,0,0,0,0,0,0,0,0,0,0,7,0,0,0,0,0,0,0,0,21,0,70
84,14,98,14,84,84,70,84,98,98,98,112,105,84,84,91,91,105,84,91,105,91,98,91,84,0,0,0,84,0,28,0,0,0,0,0,0,0,126,0,0,0,0,0,0,7,0,0,0,0,0,0,14,0,0,0,0,0,0,0,35,0,98,91
63,77,63,70,98,70,91,84,77,98,98,84,77,77,70,84,84,84,77,77,91,98,84,77,0,49,0,0,28,0,133,0,0,0,0,0,0,0,0,7,35,0,0,0,0,0,0,7,0,0,0,0,0,0,0,0,0,0,0,0,112,49,0,84
14,14,77,28,70,77,105,105,91,84,98,91,70,84,70,91,84,84,77,70,175,70,84,63,70,0,0,0,0,70,0,0,0,0,0,0,0,0,0,0,35,0,0,7,0,0,0,0,0,0,0,0,0,0,0,0,0,0,0,0,0,56,14,70
49,84,7,56,70,91,112,105,98,98,91,98,84,77,70,70,84,77,70,77,84,77,70,70,70,70,0,0,0,255,35,0,0,0,0,0,0,0,98,0,0,0,0,0,0,0,0,0,0,0,0,70,0,21,70,56,7,0,0,63,0,56,0,98
77,28,91,56,14,105,98,98,98,105,98,84,105,84,91,84,91,98,84,84,77,84,84,91,70,0,0,0,0,70,35,0,0,0,0,0,0,0,0,0,77,7,0,0,0,0,0,0,0,0,0,0,0,0,0,21,210,0,0,0,0,14,98,63
21,84,14,84,112,112,91,84,77,91,91,84,84,98,77,70,70,77,70,70,63,98,70,77,0,0,0,0,0,255,35,0,0,0,0,0,0,0,0,112,0,0,0,0,0,0,0,0,0,0,0,0,0,0,0,0,0,0,0,0,0,84,21,77
84,21,91,70,7,84,84,98,98,112,98,126,84,84,98,91,91,84,147,84,91,77,84,84,77,0,0,0,0,0,0,0,84,0,0,0,0,0,0,56,0,14,0,0,0,35,0,0,0,0,0,0,0,0,0,0,0,0,0,0,0,70,77,14
77,14,98,14,84,98,84,84,84,105,105,126,105,84,91,91,91,91,84,91,84,98,98,98,70,0,0,0,0,0,84,0,0,0,0,0,0,0,0,70,0,0,0,0,0,0,0,0,0,0,0,0,0,0,0,0,0,0,0,0,0,28,70,91
98,84,56,63,84,84,98,84,84,91,84,77,84,84,77,77,70,70,84,147,70,70,84,63,77,0,0,0,56,84,0,0,0,0,0,0,0,0,0,0,0,7,7,0,0,140,0,0,0,0,175,0,0,0,0,0,0,0,0,0,0,35,119,84
84,35,49,105,28,42,98,119,98,84,98,84,84,77,77,63,77,84,77,255,84,77,91,70,70,0,0,0,0,21,91,0,0,0,0,0,0,0,70,0,0,0,0,0,0,0,0,0,0,0,0,112,0,0,0,14,0,0,0,0,56,7,0,84
84,84,21,42,35,112,98,91,84,84,84,77,84,91,77,84,70,70,70,84,77,84,77,70,0,0,49,0,0,21,112,0,0,0,0,0,0,0,0,42,0,0,7,0,0,0,0,0,0,0,0,0,0,0,0,0,0,0,0,0,84,0,105,7
84,91,14,49,84,56,98,84,98,119,119,91,98,84,112,84,77,84,77,98,91,98,91,84,0,84,0,35,0,105,0,0,0,0,0,0,0,0,0,84,0,0,0,0,0,0,0,0,0,0,0,63,0,0,0,0,0,0,0,0,0,7,98,77
14,77,21,84,21,91,91,84,98,77,112,91,84,91,84,77,70,98,63,77,63,84,63,70,56,0,0,0,0,35,84,0,0,0,0,0,0,0,14,0,0,14,0,0,0,0,0,0,0,0,0,0,0,0,0,0,0,0,0,0,0,84,105,35
84,14,14,21,21,84,98,84,84,98,91,77,91,84,84,84,77,77,77,77,98,84,84,70,56,0,0,0,28,0,91,0,0,0,0,0,0,0,0,42,0,0,7,0,0,0,0,0,0,0,0,0,0,0,0,0,0,0,0,0,0,7,84,77
84,84,21,98,21,63,112,77,91,119,98,112,98,98,84,98,91,84,112,91,98,91,98,91,98,0,0,0,0,35,255,0,0,0,0,0,0,0,42,0,0,7,14,0,0,0,0,0,0,0,0,0,0,0,0,0,0,0,0,0,0,7,98,112
91,7,98,21,70,105,84,84,84,77,91,98,84,70,77,70,63,70,84,63,77,77,84,70,77,0,0,0,77,28,0,0,0,0,0,7,0,0,0,77,0,0,7,0,0,0,0,0,0,7,0,0,0,0,0,0,0,0,0,0,0,14,63,77
21,77,35,14,14,105,98,98,91,84,105,84,98,70,70,70,84,84,84,84,91,70,84,84,70,0,7,0,0,105,28,0,0,0,0,0,0,0,0,91,7,0,7,0,0,0,7,0,0,0,7,7,0,0,0,0,0,0,0,0,0,0,77,84
84,70,21,14,84,84,84,119,91,84,98,98,98,70,84,84,70,77,84,91,70,77,84,77,84,0,0,0,0,77,21,0,0,0,0,0,0,0,0,0,0,0,0,0,0,0,0,0,0,7,0,0,0,0,0,0,0,0,0,0,0,35,56,70
14,7,77,14,91,105,84,77,84,91,98,98,105,91,91,77,98,84,91,84,91,84,84,112,56,0,0,0,0,28,84,0,0,0,0,0,0,0,7,0,0,0,0,0,0,0,0,0,7,0,0,0,0,0,0,255,0,0,0,0,0,70,0,56
77,84,28,7,98,70,91,98,98,98,77,98,70,91,77,77,105,70,63,70,63,77,77,0,0,0,77,14,0,21,77,0,0,0,0,0,0,0,0,35,0,0,0,0,0,0,0,0,0,7,0,0,0,0,0,0,0,0,0,0,0,7,77,56
91,21,84,35,77,105,84,21,84,105,84,70,70,84,77,70,77,70,112,70,56,77,70,84,0,77,0,0,21,0,84,0,0,0,0,0,0,0,0,0,119,0,7,0,0,0,182,7,0,0,21,0,0,0,0,0,0,0,0,0,0,0,63,70
91,84,14,35,63,98,98,84,98,119,98,98,105,98,77,84,84,84,91,77,84,84,91,91,70,0,0,0,0,0,70,0,0,0,0,0,0,0,0,0,0,0,0,0,0,0,0,0,7,0,0,154,0,0,0,0,0,0,0,0,0,84,28,84
14,84,14,63,63,91,98,91,91,91,98,84,91,98,77,255,77,84,70,70,77,70,77,63,70,0,0,0,0,28,0,84,0,0,0,0,0,0,0,119,0,0,0,0,0,7,0,0,7,0,0,0,0,0,0,0,0,0,0,0,35,0,105,77
14,14,63,77,56,105,84,91,112,119,91,84,98,84,84,77,84,84,91,98,84,70,91,70,98,0,0,28,0,0,84,0,0,0,0,0,7,0,0,70,0,0,0,0,0,0,0,0,0,0,0,0,0,0,0,0,0,0,0,0,0,7,84,98
70,14,14,98,14,112,119,112,105,84,91,112,84,70,77,70,77,70,77,255,70,63,70,77,63,0,0,0,0,0,7,147,0,0,0,0,0,7,0,91,7,0,0,0,0,0,0,0,7,0,0,0,0,0,0,0,0,0,0,0,0,63,7,112
84,14,14,77,84,91,91,91,112,105,91,112,84,77,105,84,84,91,98,91,98,56,91,98,91,0,0,0,0,0,0,98,0,0,0,0,0,0,0,0,7,0,0,7,0,0,7,0,0,0,0,0,0,0,0,0,0,0,0,0,0,35,112,63
70,14,14,14,105,98,84,91,91,91,84,84,77,77,70,77,77,84,70,70,63,70,70,77,21,0,0,0,0,0,91,0,0,0,0,0,0,0,56,0,28,0,0,0,0,0,0,0,0,0,0,0,0,0,0,0,0,0,0,0,0,0,91,42
70,70,21,98,14,84,84,84,98,98,112,84,91,119,84,84,84,84,91,91,84,98,84,91,0,63,0,0,0,35,0,0,98,0,0,7,0,0,14,0,7,56,0,0,0,7,7,0,0,0,0,0,0,0,0,0,0,0,0,0,0,7,91,255
21,77,14,56,84,112,105,77,105,84,98,84,84,84,84,84,84,70,77,77,63,77,70,77,56,0,0,0,0,35,255,0,0,0,0,0,0,0,21,0,0,7,0,7,0,0,0,0,0,0,0,0,0,0,0,0,0,0,0,0,0,105,35,112
84,14,84,21,84,98,91,84,84,84,91,91,70,77,77,77,84,77,63,63,77,63,77,0,0,84,0,0,0,35,84,0,0,0,0,0,0,0,0,7,0,0,0,0,0,7,7,0,0,0,0,0,0,0,0,0,0,0,0,0,0,14,91,70
14,14,112,14,98,77,84,91,84,98,119,91,91,84,91,77,84,77,84,91,98,84,77,84,63,0,0,0,0,84,28,0,0,0,0,0,0,42,0,21,0,7,0,0,0,0,0,0,0,0,0,0,0,7,0,0,0,0,0,0,0,35,84,119
91,84,21,14,91,91,84,77,84,91,112,98,84,84,91,91,91,91,91,84,91,91,84,84,91,0,0,0,98,0,28,0,0,0,0,0,0,0,7,0,77,0,7,0,0,0,0,0,0,0,0,0,0,0,0,0,0,0,0,0,0,7,91,63
21,105,14,105,77,98,77,84,105,91,91,98,77,70,77,77,70,70,70,70,77,63,0,77,63,0,0,0,0,84,0,0,0,0,0,0,0,0,0,77,0,7,0,0,0,0,0,0,0,0,0,0,0,0,0,0,0,0,0,0,0,14,84,28
91,21,14,84,91,7,105,98,105,91,105,77,70,98,255,77,84,77,84,70,77,98,91,70,77,0,0,0,0,21,0,70,28,0,0,0,98,21,0,255,7,0,119,0,0,14,0,0,0,0,0,0,0,0,0,0,0,0,0,0,91,0,21,84
