15,7,5,14,12,4,10,14,13,16,13,16,18,12,10,12,10,9,10,8,10,9,11,10,10,6,0,0,0,0,5,13,0,0,0,0,0,0,1,0,8,0,0,0,0,0,0,0,0,0,0,0,0,0,0,0,0,0,0,0,0,0,1,12
7,5,13,11,7,17,21,12,15,15,17,13,11,14,10,17,14,15,12,12,12,12,11,11,10,11,0,0,0,0,3,11,0,0,0,0,0,0,0,0,10,0,14,0,18,1,0,0,0,0,0,3,0,0,0,0,0,0,0,0,0,0,14,8
14,4,12,6,13,16,16,13,14,14,15,15,14,12,9,10,9,18,10,10,10,11,10,11,10,11,0,0,0,0,3,11,0,0,0,0,2,0,0,0,1,0,11,0,0,0,0,46,0,3,1,0,0,0,0,0,0,0,0,0,0,0,6,13
16,12,7,5,14,7,15,17,17,16,16,16,14,12,11,13,12,11,10,10,10,10,10,10,10,8,0,7,0,5,0,0,0,11,0,0,0,0,0,0,5,0,1,0,0,0,0,0,0,2,0,3,0,0,0,0,0,0,0,0,0,0,1,7
2,15,6,11,11,12,12,15,17,17,15,16,16,14,12,10,10,9,12,10,7,8,11,8,11,5,0,0,0,0,3,12,0,0,0,0,0,0,0,0,0,2,0,1,0,0,10,0,3,0,0,0,0,0,1,0,0,0,0,0,7,0,0,9
12,7,11,14,16,8,18,16,19,16,18,16,14,11,10,11,10,13,10,13,11,12,11,11,10,0,9,0,0,0,3,12,0,0,0,0,0,1,0,0,0,10,0,0,0,0,0,8,0,0,2,0,0,0,0,0,0,0,0,0,0,0,3,10
8,8,3,11,1,17,15,20,16,17,15,14,12,16,10,11,11,11,10,12,10,10,12,11,11,0,10,0,0,0,5,14,0,0,0,0,0,0,0,0,0,1,12,0,0,2,1,0,0,0,0,0,11,0,0,0,0,0,0,0,0,0,5,10
15,11,10,11,16,12,15,18,15,16,16,16,13,10,10,10,9,9,8,10,11,11,8,8,9,12,0,0,0,0,4,0,10,0,0,0,2,0,0,2,0,0,0,0,0,0,1,0,47,0,0,0,0,0,0,0,0,0,0,0,0,2,0,15
12,6,3,11,10,16,13,16,16,18,15,15,16,14,12,41,10,11,11,10,11,10,11,11,10,8,7,0,0,0,4,13,0,0,0,0,0,0,0,0,16,0,0,0,2,1,0,0,2,0,0,0,0,0,0,0,0,0,0,0,0,0,3,14
12,16,3,12,6,13,18,15,14,17,37,17,13,9,16,12,10,9,10,12,10,10,9,10,10,10,0,0,0,0,0,12,0,0,0,0,0,0,0,0,14,0,0,4,0,1,3,0,0,0,0,0,0,0,0,0,0,0,0,0,0,0,1,11
14,12,4,11,1,12,16,18,17,19,15,14,16,15,11,13,10,12,11,12,12,9,10,10,10,11,0,0,0,0,12,0,5,0,0,1,0,0,0,10,0,2,4,0,0,0,0,0,0,0,0,0,0,0,0,0,0,0,0,0,0,0,14,3
11,16,14,13,17,11,16,17,16,15,16,13,12,14,10,12,10,11,10,11,14,10,12,14,12,10,0,0,0,0,0,10,0,0,0,0,0,0,0,0,11,0,0,0,0,0,1,0,0,0,0,0,0,0,0,0,0,0,0,0,0,0,12,8
12,5,12,2,3,17,16,15,16,16,16,16,16,14,10,11,11,12,12,11,12,10,11,10,12,0,9,0,0,0,10,0,0,0,0,0,1,0,1,0,7,0,0,1,0,1,1,0,3,0,0,0,0,0,0,0,0,0,0,0,0,7,0,2
3,12,0,1,9,17,15,14,13,12,15,16,11,14,10,12,10,11,12,12,10,12,13,12,12,11,8,0,0,0,0,12,0,0,0,0,0,0,0,0,9,0,0,0,0,1,0,46,0,0,0,0,0,0,0,0,0,0,0,0,0,1,0,7
13,3,8,2,11,12,16,14,16,19,15,14,14,12,11,12,10,12,10,12,10,14,11,12,11,10,0,0,0,0,0,11,0,0,0,0,0,0,0,0,10,0,0,0,0,0,0,0,0,0,0,0,0,0,18,0,0,0,0,0,0,7,0,7
14,10,5,3,12,11,16,16,15,16,14,16,17,14,10,10,11,10,11,12,11,12,12,11,12,0,10,0,0,0,0,12,0,0,0,0,0,0,0,0,12,0,0,1,0,0,42,0,0,0,0,0,0,0,0,0,0,0,0,0,0,0,7,5
3,6,3,4,10,13,16,16,14,16,16,18,11,12,14,11,10,12,11,13,13,12,13,11,12,0,10,0,0,0,0,9,0,0,0,0,0,0,0,0,9,0,0,1,0,0,0,32,0,0,47,0,0,0,0,0,0,0,0,0,0,0,2,6
15,10,13,1,17,13,16,7,20,16,15,16,15,10,10,11,12,12,12,10,10,11,11,12,11,0,9,0,0,0,14,8,0,0,0,0,0,0,0,8,0,1,1,1,0,0,0,0,0,1,0,0,2,0,0,0,0,0,0,0,0,0,4,12
6,14,8,5,13,12,17,13,19,16,18,16,11,16,11,29,11,37,11,11,10,13,10,14,11,0,11,0,0,0,0,11,0,0,0,0,0,1,0,0,12,0,0,0,0,14,0,0,46,0,0,3,0,0,0,0,0,0,0,0,0,0,4,10
15,12,9,8,15,16,17,16,16,16,17,19,17,19,19,19,20,10,39,10,11,10,8,9,0,10,10,0,0,0,4,0,12,0,0,0,0,0,0,0,0,0,0,0,0,0,1,0,0,0,0,0,0,0,4,0,0,24,0,0,0,0,3,4
14,12,11,3,10,14,17,17,17,17,17,16,14,19,19,19,18,18,12,14,11,11,13,12,12,12,8,0,0,0,4,13,0,0,0,0,0,0,0,8,0,0,0,1,15,0,0,0,0,0,0,0,0,0,0,0,22,0,0,0,0,0,11,7
5,10,6,3,8,14,12,12,16,17,16,14,15,17,19,19,19,17,13,9,9,11,8,9,9,9,0,0,0,0,3,13,0,0,0,0,0,1,0,0,0,14,0,0,0,0,7,0,3,0,0,0,0,0,0,0,0,0,0,0,0,2,0,14
17,12,7,5,6,11,11,16,15,17,15,14,13,21,19,12,12,12,11,11,12,12,14,12,11,0,0,10,0,0,0,0,13,0,0,0,0,0,0,0,10,1,0,0,0,0,0,0,0,0,0,0,0,0,0,0,0,0,0,0,0,1,0,7
9,7,2,13,4,12,11,15,16,13,14,10,14,18,19,19,19,14,8,10,13,14,10,12,10,12,0,0,0,14,4,0,0,0,0,0,0,0,1,0,12,0,0,1,0,1,0,0,0,0,0,0,0,0,1,0,0,0,0,0,0,0,2,8
10,5,10,11,12,8,14,14,16,12,12,19,13,12,10,11,9,12,12,11,11,12,12,12,12,9,0,0,0,0,4,13,0,0,0,0,0,0,0,0,0,0,0,0,0,2,0,0,0,1,0,0,0,0,0,0,0,0,0,0,0,0,0,8
10,3,9,5,15,12,14,11,14,16,14,13,16,11,12,11,11,11,12,11,12,13,12,10,12,10,0,0,0,0,0,12,0,0,0,1,0,0,0,0,3,0,0,0,1,0,0,0,13,0,0,0,0,0,0,0,0,0,0,0,0,2,0,13
12,6,10,3,14,10,15,15,15,14,14,11,46,14,37,12,46,11,11,9,13,10,13,12,10,12,0,0,0,0,0,12,0,0,0,0,0,0,0,0,0,13,0,0,0,1,0,1,0,0,3,0,0,0,0,0,0,0,0,0,0,1,0,9
10,10,13,10,5,5,12,14,14,13,13,14,18,14,11,12,10,10,12,12,12,11,12,11,12,25,0,0,0,0,5,14,0,0,0,18,0,0,0,0,7,0,0,1,0,2,0,42,0,3,0,0,0,0,0,0,0,0,0,0,0,0,1,8
12,12,7,12,14,15,14,14,14,14,16,14,10,16,12,10,10,10,10,10,11,12,10,10,9,12,0,0,0,0,5,14,0,0,0,0,0,0,0,10,0,0,1,1,0,0,0,0,0,0,0,0,0,0,0,0,0,0,0,0,0,0,1,8
12,7,9,13,1,14,16,15,16,15,15,13,21,17,48,11,10,12,11,11,12,14,10,12,10,10,0,7,0,0,5,13,0,0,0,0,0,0,0,0,0,5,0,1,0,1,0,0,0,43,0,0,0,0,0,0,3,0,0,0,0,9,0,5
13,9,11,6,13,13,13,16,14,15,15,16,14,15,16,11,8,12,11,12,13,12,11,12,13,0,11,0,0,0,3,13,0,0,48,0,0,0,0,8,0,0,3,0,0,0,0,0,15,0,0,1,0,0,0,1,0,0,0,0,0,0,2,5
12,13,6,10,9,12,12,15,15,17,13,17,12,12,10,9,10,30,11,10,9,11,11,11,12,10,0,0,0,0,13,4,0,0,0,10,0,1,0,0,14,0,0,0,0,1,0,0,0,0,0,0,0,0,0,0,0,0,0,0,0,1,0,12
8,8,15,10,10,7,17,17,14,15,19,16,10,16,12,11,12,11,12,10,10,12,11,11,13,9,0,0,0,0,0,0,12,0,36,0,0,0,1,10,0,0,0,0,0,5,0,0,0,0,0,0,0,0,0,0,0,0,0,0,0,0,4,6
11,12,11,14,8,12,15,15,14,17,12,14,16,16,11,11,11,10,11,11,12,14,10,12,9,12,0,0,0,4,0,12,0,0,39,0,0,0,1,23,0,0,0,8,0,0,0,0,0,0,1,0,0,0,0,0,0,0,0,0,0,0,2,9
10,10,3,10,4,12,15,14,17,13,16,12,15,12,10,17,10,10,12,11,11,11,11,11,12,0,10,0,0,0,0,11,0,0,0,6,0,0,0,0,7,1,0,0,0,0,0,0,0,48,0,0,0,0,0,0,0,0,0,0,0,0,7,2
15,8,14,8,12,16,13,15,12,14,13,13,14,11,10,12,10,11,10,11,11,10,10,7,9,0,0,6,0,0,5,14,0,0,0,0,0,0,0,7,0,0,0,1,1,0,0,0,0,1,0,0,0,0,0,0,0,0,0,0,0,0,4,12
9,12,11,12,3,13,18,15,13,17,15,16,16,11,10,10,10,11,9,11,12,10,12,9,11,11,0,0,0,0,0,12,0,0,0,0,0,0,0,0,0,8,4,0,0,0,35,0,0,0,0,0,0,0,0,0,0,0,0,0,0,0,1,10
14,12,11,10,14,6,13,15,19,17,15,12,15,11,13,9,9,10,9,10,10,11,10,12,11,10,0,0,0,0,3,12,0,0,0,0,0,0,0,0,2,4,0,0,0,0,1,2,0,0,0,0,0,0,0,0,0,0,0,0,0,0,4,15
15,16,13,11,12,12,21,15,15,16,18,17,14,12,33,12,12,13,10,10,12,9,10,11,10,0,8,0,0,0,0,14,0,0,38,0,0,0,1,0,8,3,0,0,1,0,0,0,0,10,0,0,1,0,0,0,0,0,0,0,0,0,0,12
17,15,8,12,7,15,16,12,15,15,15,14,13,17,13,26,18,19,16,11,10,12,11,12,10,5,0,0,0,0,3,14,0,0,0,0,0,0,1,0,11,2,0,0,0,0,0,0,0,0,0,0,0,0,0,0,0,0,0,0,0,7,0,7
13,10,12,8,11,10,14,14,14,12,14,16,12,23,13,10,11,10,12,12,10,11,13,11,8,10,0,0,0,0,4,12,0,0,0,0,0,1,0,0,11,0,0,0,0,1,8,33,0,0,0,0,0,0,0,0,0,0,0,0,0,0,1,6
12,7,10,12,6,14,14,15,15,14,17,17,13,15,29,10,12,11,11,13,11,8,10,9,0,9,10,0,0,0,0,12,0,0,0,0,1,0,0,0,10,0,0,0,0,0,0,0,22,0,0,0,0,0,0,0,0,0,0,0,0,0,1,8
12,12,10,10,7,14,17,14,15,15,14,17,16,10,13,11,10,10,13,10,10,10,9,12,10,12,0,0,0,0,12,0,0,0,0,0,0,5,0,0,1,2,0,0,0,0,0,0,35,0,0,0,0,0,0,0,0,0,0,0,0,0,1,14
17,13,14,13,12,17,10,17,14,15,15,13,14,9,9,9,10,9,35,10,11,9,9,10,12,10,0,0,0,0,0,10,0,0,0,0,0,0,0,9,0,0,6,0,0,1,1,27,0,0,0,0,0,1,0,0,0,0,0,0,0,0,1,6
14,10,13,12,12,12,16,14,18,15,13,12,12,15,14,12,16,17,15,11,17,16,17,14,14,19,0,0,0,0,3,12,0,0,0,0,0,1,0,0,5,1,1,0,7,8,0,0,0,0,0,0,0,0,0,0,0,0,0,0,0,0,5,14
12,9,8,10,16,12,15,16,15,15,16,14,10,14,12,41,11,12,9,12,8,12,10,13,10,12,0,0,0,4,0,0,12,0,0,0,0,0,0,0,37,0,0,0,0,1,0,0,0,0,0,0,0,0,0,0,0,0,0,0,0,4,0,12
7,14,12,14,10,15,14,13,16,15,14,16,11,14,12,11,10,11,12,12,10,8,8,10,11,12,0,0,0,0,3,12,0,0,0,0,0,0,0,0,11,1,0,0,1,0,0,17,0,0,0,0,0,0,0,0,0,0,0,0,0,0,1,7
10,9,7,11,12,14,15,16,17,15,16,15,12,13,10,34,12,11,12,12,12,12,12,12,12,10,0,0,0,5,0,14,0,1,0,0,0,0,0,8,0,1,1,1,1,2,0,48,0,12,0,0,0,0,0,0,0,0,0,0,0,0,4,7
14,16,12,11,1,14,16,14,15,14,18,17,12,48,12,10,11,10,10,11,9,11,10,10,9,10,0,0,0,0,0,11,0,0,0,11,0,0,0,1,8,0,0,0,1,0,0,0,0,0,0,0,0,0,0,0,0,0,0,0,0,0,5,13
10,13,10,15,9,11,14,17,16,17,19,15,15,11,10,11,10,15,9,9,11,11,10,11,14,11,0,0,0,0,3,0,10,0,0,0,0,0,0,4,1,0,0,2,3,0,0,0,0,0,0,0,0,0,0,0,0,0,0,0,0,0,6,2
