255,49,7,7,49,255,84,105,126,112,98,112,119,84,77,77,84,70,84,91,112,84,84,91,84,98,0,0,0,0,21,84,0,0,0,0,21,0,0,0,0,14,0,0,35,0,77,14,133,21,0,0,0,0,0,0,0,0,0,0,0,14,0,91
70,98,70,14,21,77,49,84,119,119,98,119,98,112,84,77,63,84,84,77,70,70,70,84,77,77,0,0,0,0,84,28,0,0,0,0,7,0,0,49,7,0,7,0,0,0,7,21,0,0,0,0,0,0,0,0,0,0,0,0,0,0,14,255
255,56,98,28,56,238,126,84,126,119,126,105,112,84,77,70,70,70,84,84,77,91,84,84,70,0,84,0,0,0,28,84,0,0,0,0,0,0,0,0,0,0,0,0,0,0,0,0,14,0,0,0,0,0,0,0,0,0,0,0,7,0,203,0
84,49,126,84,14,84,91,119,98,112,133,112,112,98,70,77,84,91,84,70,70,84,84,70,84,70,0,0,0,0,84,0,0,189,0,0,0,0,0,0,7,140,0,0,21,0,0,252,0,0,0,0,0,7,14,0,0,0,0,0,0,70,0,42
49,105,35,70,42,77,49,119,91,119,119,98,119,105,98,84,70,77,84,91,105,105,98,98,84,91,0,0,49,0,0,84,0,0,0,0,42,0,0,0,140,0,0,0,84,0,14,0,0,14,0,0,161,0,0,0,7,0,0,0,0,0,77,14
70,133,119,21,49,7,70,112,91,133,105,119,105,98,126,105,119,119,119,112,182,91,112,84,112,84,0,0,0,0,28,84,0,0,0,255,0,0,0,0,56,0,0,7,21,0,0,140,0,0,98,0,0,0,0,0,0,0,0,0,0,0,42,7
105,84,7,7,63,70,77,84,126,105,105,112,98,70,98,70,77,70,77,98,84,98,84,98,77,98,0,0,0,21,0,0,255,0,0,0,210,7,0,49,0,0,0,0,0,0,7,0,0,0,0,0,0,49,0,0,0,0,0,0,0,0,63,133
84,112,84,56,14,77,98,98,112,98,105,119,105,98,91,70,98,84,77,84,98,98,112,98,98,77,56,0,0,0,255,70,0,0,0,0,0,7,0,0,28,0,0,0,0,7,0,98,0,0,14,0,0,0,0,0,0,0,0,0,0,0,7,70
77,49,49,14,49,49,70,56,133,133,126,133,133,105,77,224,70,77,70,91,84,84,77,84,84,0,77,0,0,0,91,28,0,0,255,0,0,0,0,49,0,0,7,0,21,0,7,0,255,0,0,0,0,35,0,0,0,0,0,0,0,7,0,63
98,56,56,14,70,21,105,98,119,119,119,133,126,112,252,77,91,105,70,84,91,98,105,77,98,84,0,0,0,21,0,91,0,0,0,0,0,0,0,0,0,0,77,0,14,0,0,0,0,154,0,0,28,0,0,0,0,0,0,0,0,0,7,84
105,63,21,161,70,21,91,84,126,133,112,133,112,91,84,84,91,112,98,91,91,112,98,91,84,98,0,0,0,0,21,77,0,0,0,0,0,0,7,0,63,21,0,0,21,21,0,0,0,0,0,0,0,0,0,0,0,0,0,0,0,0,7,42
91,63,105,7,7,56,119,112,126,112,119,112,112,84,91,98,91,98,70,98,154,91,77,84,0,84,0,70,0,0,28,0,77,0,0,0,7,0,0,0,42,0,0,7,0,0,7,0,175,0,0,0,0,0,0,0,0,0,0,0,0,0,28,98
84,63,77,7,63,49,70,133,91,112,126,105,147,70,77,126,63,84,77,84,77,77,70,77,77,70,0,0,0,0,7,84,0,0,0,0,0,0,0,0,49,0,7,0,0,0,0,7,0,7,0,7,0,0,7,0,0,0,0,0,0,14,0,63
84,56,77,56,49,98,147,84,119,105,133,119,91,98,91,189,255,70,91,98,105,84,112,98,91,0,91,0,0,0,0,56,0,0,0,0,0,49,7,0,7,0,0,0,7,0,7,56,14,255,0,21,0,0,0,0,28,0,0,0,0,0,70,21
105,98,7,70,84,7,98,105,126,119,112,105,91,91,91,84,255,98,84,91,77,98,112,91,91,98,0,0,0,0,21,0,91,0,0,182,0,0,0,0,0,7,84,0,7,0,0,0,255,0,0,7,0,0,0,0,0,0,0,0,0,0,7,63
112,84,91,7,63,14,77,112,98,98,112,91,98,91,70,70,112,98,84,105,84,105,84,98,112,84,0,0,0,0,35,84,0,0,0,0,0,252,0,0,0,0,0,0,7,7,0,0,0,0,0,14,189,0,0,0,0,0,0,0,0,0,7,112
84,70,7,98,56,56,126,84,112,126,112,98,91,77,175,91,84,77,77,84,91,70,84,84,84,77,0,0,0,0,35,84,0,0,63,0,0,0,0,0,0,0,0,0,0,7,0,255,0,0,0,28,0,7,0,0,0,0,0,0,0,0,14,63
126,56,7,21,35,84,84,84,133,105,119,91,112,77,84,70,70,77,105,91,98,84,77,84,70,98,0,0,0,0,28,84,0,0,0,0,0,0,0,0,42,0,0,7,0,0,0,14,255,7,0,0,0,0,0,14,0,0,0,0,0,56,91,0
70,56,84,7,231,56,77,84,119,112,112,112,98,112,84,98,98,98,112,98,98,98,105,91,98,98,0,0,0,0,0,84,21,0,0,0,0,0,0,0,49,0,0,0,0,21,0,7,35,0,0,0,0,0,7,0,0,0,0,0,0,0,42,70
91,105,7,56,14,63,63,77,105,112,112,91,105,84,77,175,84,84,91,105,91,98,91,98,98,84,0,0,0,0,0,0,70,0,224,0,0,0,0,0,49,7,0,0,0,0,0,0,70,21,0,0,0,0,0,0,7,0,0,0,0,7,0,56
105,70,91,14,21,112,91,112,119,119,119,98,91,70,70,84,70,255,91,70,70,70,77,77,70,70,0,0,0,0,0,77,0,0,0,0,0,7,0,0,70,0,0,0,7,0,0,255,7,0,0,0,0,0,0,0,7,0,0,0,0,7,98,0
91,70,105,56,70,14,84,70,91,98,98,105,91,84,77,77,255,84,70,84,91,84,98,70,84,77,0,0,0,0,35,98,0,0,0,0,140,0,0,0,0,0,14,0,0,0,0,21,0,0,0,28,0,0,0,0,0,0,0,0,0,0,77,7
133,91,56,21,154,77,77,112,105,112,105,112,98,98,84,84,98,98,105,98,91,112,98,105,84,98,0,0,0,0,42,133,0,0,0,0,0,255,0,0,0,0,7,0,0,7,0,0,0,14,0,0,147,0,0,0,0,0,0,0,0,0,140,70
112,70,14,70,56,84,84,77,77,91,98,105,105,77,70,77,91,70,70,84,77,77,84,77,70,70,0,0,0,0,77,28,0,0,0,0,0,0,0,0,28,0,0,0,0,0,0,28,255,0,0,0,0,0,0,0,0,21,0,0,0,7,0,63
56,56,119,7,14,63,77,119,56,112,105,98,112,84,77,98,98,84,105,119,105,105,98,98,91,77,0,0,0,0,70,0,0,0,0,0,0,0,0,0,0,7,0,0,7,7,77,255,0,0,0,0,0,0,14,0,0,0,0,0,0,0,42,84
84,98,70,21,63,63,105,112,105,105,112,105,105,77,70,161,217,91,70,70,91,77,91,77,70,0,77,0,0,0,35,70,0,0,0,0,7,0,0,21,0,7,7,0,7,0,161,77,21,0,0,0,0,0,0,0,0,0,0,0,0,0,70,28
84,112,70,56,56,49,84,105,91,98,105,105,112,70,91,105,105,112,91,77,70,91,84,84,91,0,0,91,0,0,28,84,0,0,0,0,0,0,0,0,63,0,0,7,0,7,255,0,21,0,0,0,0,0,0,0,0,0,0,0,0,49,0,7
98,14,56,49,63,21,105,84,98,112,112,105,98,63,84,91,91,98,98,91,91,98,105,119,112,84,0,0,0,0,0,70,0,0,0,0,133,0,0,35,0,0,0,35,0,0,0,0,21,0,0,0,0,0,0,0,0,0,0,0,0,0,7,49
84,84,21,217,49,49,98,84,98,98,98,112,112,77,70,77,70,70,70,84,84,70,70,70,77,0,70,0,0,0,35,91,0,0,0,0,0,0,0,0,42,7,0,7,35,0,0,21,0,0,28,0,0,0,0,0,0,0,0,0,0,7,0,49
98,63,91,14,14,56,77,91,98,112,84,105,105,91,70,70,70,70,84,77,84,77,98,84,84,77,0,0,0,28,0,77,0,0,196,0,0,0,0,0,91,0,0,0,0,0,7,0,0,14,0,0,0,0,0,0,0,0,0,0,0,0,7,49
49,84,98,42,70,7,91,84,105,126,91,105,105,112,98,91,84,91,119,91,91,91,91,98,98,70,0,0,0,42,0,84,0,0,84,217,0,0,0,0,21,63,0,0,21,0,0,161,0,21,0,0,21,0,0,0,0,0,0,0,0,0,21,70
98,91,14,14,56,70,70,98,77,84,98,105,98,98,77,91,63,91,77,84,77,84,84,84,70,77,56,0,0,0,0,70,0,0,0,0,0,0,0,49,0,0,14,0,0,0,0,0,0,0,7,0,0,0,0,0,0,0,0,0,0,0,7,42
70,84,21,14,84,70,91,105,105,105,112,112,91,84,77,70,77,70,91,77,77,84,84,84,77,0,84,0,0,0,35,0,77,0,0,0,0,0,0,0,98,0,0,21,0,0,0,0,21,0,0,0,0,0,0,7,0,0,0,0,0,0,35,98
7,98,84,0,49,56,98,84,112,105,105,126,91,105,98,84,105,105,84,98,91,105,98,105,112,77,0,0,0,0,77,21,0,0,0,21,0,0,0,0,0,0,7,0,14,0,7,0,0,0,21,0,0,0,0,0,0,0,0,0,0,0,7,70
98,91,14,7,42,255,70,91,91,105,98,98,105,77,77,63,63,77,70,77,84,70,84,70,70,70,0,0,28,0,0,84,0,0,231,0,0,0,14,70,0,0,0,0,28,0,28,0,255,0,0,28,0,0,0,0,0,0,0,0,28,0,0,49
84,105,14,14,70,28,77,105,112,112,98,98,105,98,98,91,91,119,98,84,84,91,91,98,84,77,0,0,0,0,0,84,0,0,0,7,119,217,0,7,7,7,84,0,0,63,0,203,0,21,0,0,0,0,0,0,0,0,0,0,0,0,7,42
98,84,14,7,63,84,56,84,84,105,105,105,84,91,70,84,77,70,84,84,77,77,77,77,84,0,70,0,0,0,28,84,0,0,0,0,0,0,7,0,63,0,0,0,0,255,0,42,0,0,0,21,0,0,21,0,0,0,0,0,0,0,42,77
84,14,14,56,77,56,84,84,84,77,84,84,98,91,84,91,77,84,84,98,98,105,84,98,77,0,0,0,0,28,84,0,0,0,0,0,0,0,0,0,0,91,0,0,0,0,0,21,7,0,0,28,0,0,0,0,0,0,0,0,0,56,21,0
91,56,91,7,7,49,91,98,112,91,133,84,98,84,77,255,77,70,84,70,84,77,77,84,70,63,0,0,0,0,84,0,0,0,0,0,0,7,0,0,77,0,0,0,7,0,28,0,0,0,0,0,0,0,0,0,0,0,0,0,0,0,7,70
56,91,21,63,49,70,91,70,84,98,98,91,91,84,70,70,98,84,91,70,84,70,84,77,77,84,56,0,0,0,28,77,0,0,0,49,0,0,0,126,0,0,0,0,14,0,35,0,0,0,0,0,0,0,0,0,0,21,0,0,0,7,0,49
35,91,7,84,63,21,63,98,84,84,77,84,84,91,105,77,77,98,70,84,98,98,105,84,84,0,105,0,0,0,21,84,0,0,255,182,0,0,0,0,21,0,28,0,0,0,0,0,0,0,14,0,0,0,0,0,0,0,0,0,14,0,0,42
84,7,168,84,70,91,56,112,98,105,105,98,98,63,70,63,77,56,70,84,84,98,77,70,77,0,91,0,0,0,0,70,0,0,0,56,0,0,0,28,0,0,0,0,210,0,0,0,255,7,0,28,0,0,0,0,0,0,0,0,0,0,91,35
91,14,84,255,49,70,49,70,98,91,84,98,91,77,77,77,70,77,70,84,112,98,98,84,98,84,0,0,0,0,98,35,0,255,0,0,0,0,0,0,84,0,0,0,0,14,0,255,7,0,0,0,0,0,0,0,0,0,0,0,0,0,7,35
70,35,35,21,7,42,70,77,77,98,98,98,98,63,91,84,105,91,105,105,84,98,84,91,84,70,0,0,0,0,35,70,0,0,0,0,0,0,0,0,0,7,0,0,0,7,0,0,0,0,0,0,0,0,0,0,0,0,0,0,0,0,84,7
161,112,140,119,49,119,84,98,91,105,91,105,98,70,70,63,84,70,84,70,77,77,84,70,84,70,56,0,0,0,0,70,0,0,0,0,255,0,0,84,0,0,0,7,0,21,7,0,56,0,0,0,0,0,0,0,0,0,0,0,0,0,14,49
105,21,91,63,14,56,91,189,175,119,105,175,98,105,70,77,63,77,63,63,70,77,84,70,63,84,49,0,0,0,0,84,0,175,0,0,0,0,0,84,0,0,0,0,0,7,0,0,0,14,0,0,0,0,0,0,0,0,0,0,0,0,14,105
126,112,126,112,175,196,91,98,98,98,112,98,105,77,84,77,84,70,84,84,77,70,77,77,0,49,70,42,0,0,77,0,0,0,0,0,0,0,56,0,0,0,0,0,0,7,0,255,14,0,0,0,0,0,0,0,0,0,0,0,7,42,0,0
133,112,70,98,98,175,126,175,154,147,154,161,119,112,98,84,84,84,91,0,84,112,119,105,112,77,0,0,0,0,42,119,0,0,255,0,0,0,0,70,0,0,28,7,0,0,14,0,0,14,7,0,0,0,0,0,0,0,0,0,0,0,28,84
161,105,112,175,133,133,98,119,98,105,91,105,98,77,98,91,84,91,84,105,98,98,98,84,84,35,70,0,0,0,0,0,0,70,0,0,0,0,0,0,70,0,0,7,7,7,14,0,0,0,126,0,0,0,0,0,0,0,0,0,0,0,7,112
133,147,112,119,112,119,154,84,98,98,91,105,91,84,98,77,84,77,84,84,84,98,91,84,98,84,0,0,0,0,7,84,0,0,0,0,0,0,0,0,49,7,7,14,0,175,14,7,21,0,0,0,0,0,0,0,0,0,0,0,0,0,77,21
