60,72,6,78,72,96,90,84,78,96,96,96,102,66,72,60,60,72,66,72,78,60,78,72,0,0,0,0,0,18,54,0,0,0,0,0,6,0,0,0,6,60,0,0,0,0,0,0,0,0,0,0,0,0,0,0,0,0,0,0,0,6,42,66
72,12,66,6,72,84,84,84,96,96,84,108,84,72,72,72,72,78,72,66,72,72,78,84,30,0,0,0,0,0,0,48,0,0,0,6,0,0,0,0,0,0,6,12,0,0,255,0,0,144,0,0,0,18,6,60,60,0,0,0,0,6,60,30
6,12,12,42,72,90,96,96,108,72,90,54,66,90,72,72,60,72,78,72,60,78,60,72,48,0,0,0,18,0,78,0,0,0,0,0,0,0,0,48,0,6,0,0,0,0,0,0,0,0,0,0,0,0,0,0,0,0,0,0,0,6,42,30
84,0,78,102,78,96,102,90,84,84,90,66,90,90,72,96,96,84,96,96,84,84,96,84,96,0,0,0,0,36,78,0,0,0,0,0,0,0,0,48,0,0,0,24,0,0,0,0,0,0,0,0,0,0,0,0,0,0,0,0,0,60,0,30
12,60,24,30,66,96,84,96,96,78,90,84,84,72,78,66,60,60,54,48,66,60,54,54,0,0,0,0,0,30,78,0,0,0,0,0,0,60,0,0,6,0,0,0,0,0,0,0,0,0,0,0,0,0,0,0,0,0,0,6,0,0,24,42
102,18,24,48,96,84,84,96,90,90,96,90,72,72,72,78,72,60,72,60,72,72,60,66,0,84,0,0,0,24,0,60,0,0,0,0,0,0,0,6,0,66,0,0,18,0,0,0,0,0,0,0,0,0,0,0,0,0,0,0,6,0,48,78
84,72,12,72,72,78,78,90,84,102,102,72,102,72,60,72,60,72,54,60,60,60,54,54,0,60,0,0,24,0,66,0,0,0,0,0,12,0,0,18,6,0,0,0,0,0,0,0,0,0,0,0,0,0,0,0,0,0,0,0,0,42,24,72
102,60,48,6,84,72,102,90,96,96,78,96,72,60,60,66,72,60,66,60,60,60,60,66,48,0,0,0,0,72,30,0,0,0,0,0,6,0,0,24,0,0,0,0,0,0,0,0,0,0,0,0,0,0,0,0,0,0,0,18,0,0,54,48
72,72,6,66,84,108,84,96,96,96,96,90,66,66,66,66,66,66,30,66,60,72,60,66,0,42,0,0,0,12,0,60,0,0,0,0,0,0,30,6,0,18,0,6,0,0,6,0,0,0,0,0,0,0,0,0,0,0,0,0,0,18,36,78
78,66,54,54,78,78,84,96,96,90,90,96,60,72,84,84,72,60,60,60,84,54,66,60,18,54,0,0,0,0,72,0,0,0,0,0,0,0,0,48,0,0,0,0,0,18,0,0,0,0,0,0,0,0,0,0,0,0,0,0,0,6,48,42
72,78,42,30,72,72,84,90,96,108,114,90,72,60,66,72,60,72,78,72,66,60,60,54,48,0,0,0,12,0,0,0,0,0,0,0,0,0,0,0,42,6,0,0,0,0,0,0,0,0,0,0,0,0,0,0,0,0,0,0,0,0,72,54
72,72,12,66,66,84,84,96,96,90,96,90,66,66,66,72,60,72,60,72,66,60,66,60,60,0,0,0,0,0,78,24,0,0,0,0,0,0,6,0,0,0,6,0,6,0,0,0,0,0,0,0,0,0,0,6,0,0,0,0,0,12,96,66
60,72,36,54,84,90,96,84,96,78,90,84,78,60,72,66,60,60,72,60,72,60,72,60,60,0,0,0,0,30,60,0,0,0,0,0,0,18,0,0,0,0,18,0,0,0,0,0,0,0,0,0,0,0,0,0,0,0,0,0,0,12,48,54
54,30,72,48,84,60,72,96,84,84,84,90,66,72,72,60,72,60,66,72,66,60,60,60,42,0,0,0,0,24,66,0,0,0,0,0,0,0,84,0,0,0,0,0,0,6,0,0,0,0,0,0,0,0,0,0,0,0,0,0,18,0,42,48
72,6,72,66,84,72,96,84,96,84,84,90,84,78,60,60,66,72,66,60,66,66,60,66,48,0,0,0,0,30,0,72,0,0,0,0,0,0,0,66,12,0,0,0,0,0,0,24,0,0,0,0,0,0,0,0,0,0,0,0,0,48,18,54
84,72,72,72,6,84,72,72,84,90,102,72,72,108,72,60,60,60,60,66,66,72,60,0,60,48,0,0,0,24,0,78,0,0,0,0,0,0,0,42,0,0,12,0,0,0,0,0,0,0,0,0,0,0,0,0,0,0,0,0,0,0,48,78
90,72,42,66,60,72,84,90,102,90,96,90,96,78,66,60,72,66,66,72,66,66,66,0,42,60,0,0,0,66,30,0,0,0,0,0,0,0,0,6,0,0,0,0,18,0,0,0,0,0,0,0,0,0,0,0,0,0,0,0,0,24,78,54
72,72,12,72,72,96,90,90,84,90,90,102,72,96,90,66,72,60,66,72,66,60,0,72,60,48,0,0,0,72,0,24,0,0,0,0,0,0,0,42,0,0,0,0,84,0,0,6,0,0,0,0,0,0,0,0,6,0,0,0,0,12,66,78
84,42,60,72,84,96,90,102,96,96,84,90,96,60,66,66,54,66,72,66,60,60,66,60,42,0,0,0,0,18,0,66,0,0,0,0,6,0,0,0,60,0,0,0,0,6,0,0,0,0,0,0,0,6,0,0,0,0,0,0,0,6,42,48
90,18,66,42,66,90,90,96,96,84,96,66,90,72,72,60,60,66,60,60,66,66,54,60,48,0,0,0,0,60,24,0,0,0,0,0,6,0,0,78,0,0,18,6,6,0,0,0,0,0,0,0,0,0,0,0,0,0,0,0,0,0,54,48
78,6,72,84,66,84,90,108,114,96,90,78,78,78,72,60,66,48,66,48,60,66,60,66,0,0,0,0,0,30,66,0,0,0,0,0,0,0,0,48,12,6,0,0,6,0,0,0,0,0,0,0,0,0,0,0,0,0,0,0,0,48,48,84
66,12,66,72,12,96,90,96,90,84,84,102,78,84,66,78,72,78,66,72,60,60,54,60,42,0,0,0,0,18,60,0,0,0,0,0,0,0,0,0,0,0,0,0,0,0,0,0,0,0,0,0,0,0,0,0,0,0,0,48,0,36,12,0
72,24,12,6,84,90,96,90,90,84,90,84,90,84,78,78,72,60,78,66,48,54,42,42,0,60,0,0,0,18,0,84,0,0,0,0,0,18,0,60,0,0,12,6,6,0,6,0,0,78,0,0,0,0,0,0,0,0,0,0,0,24,6,72
18,42,6,78,84,96,84,96,84,102,78,96,84,66,72,72,72,60,72,72,66,60,72,60,0,0,0,0,0,60,0,0,24,0,0,0,6,0,0,36,0,6,0,0,0,0,0,0,0,0,0,0,0,0,0,0,0,0,0,0,12,0,48,54
60,12,66,18,90,72,102,90,90,102,96,84,84,72,60,60,66,60,54,72,54,78,60,60,48,0,0,0,24,0,0,66,0,0,0,0,0,0,0,54,0,12,0,0,6,0,0,0,0,78,0,0,0,0,0,0,0,0,0,0,0,12,72,42
72,60,30,6,72,84,84,90,96,96,90,90,90,78,114,72,78,78,60,54,66,66,72,66,54,0,0,0,30,0,66,0,0,0,0,0,0,0,0,54,12,0,6,0,240,144,0,0,0,0,0,0,0,0,0,0,0,0,0,0,0,48,48,90
66,12,6,78,90,12,84,90,90,84,84,84,66,78,84,66,66,48,60,60,48,54,72,60,42,0,0,0,0,30,66,0,0,0,0,0,0,48,0,0,0,0,0,0,255,0,0,0,0,0,0,0,0,0,0,0,0,0,0,0,0,54,6,60
66,78,12,60,78,96,96,84,96,96,96,102,72,84,72,60,60,54,42,36,60,54,60,66,36,0,0,0,0,0,60,0,0,0,0,0,0,0,0,0,0,12,0,6,0,0,6,168,0,0,0,0,0,0,0,0,0,0,0,0,0,6,36,66
60,78,12,12,66,84,108,102,84,96,102,102,72,84,72,60,60,54,72,54,48,60,72,60,48,0,0,30,0,0,66,0,0,0,0,0,0,0,0,66,0,0,0,0,0,0,0,18,0,0,0,0,0,0,0,0,0,0,0,0,0,0,48,54
66,0,66,72,72,90,90,90,90,90,102,84,60,66,78,60,102,54,48,60,60,54,48,60,36,0,0,0,0,24,0,0,60,0,0,0,6,0,60,6,0,0,0,0,0,0,0,0,0,0,0,0,0,0,6,0,0,0,0,0,0,18,54,78
54,78,84,0,78,96,96,90,108,96,96,66,108,66,66,60,60,48,60,48,54,54,60,48,42,0,0,0,0,24,0,54,0,0,0,0,0,0,96,0,0,0,0,18,0,0,0,150,0,0,0,0,0,0,0,0,0,0,0,0,0,42,6,60
66,66,66,6,72,90,96,90,102,90,84,114,84,90,72,60,60,54,48,54,60,60,60,54,0,30,0,0,66,0,24,0,0,0,0,0,0,0,0,6,0,12,0,0,0,0,6,0,0,0,0,0,0,0,0,0,0,0,0,0,0,42,6,48
60,6,12,84,12,90,96,96,96,90,96,90,72,72,66,54,60,60,54,48,66,54,72,48,66,0,0,0,0,24,72,0,0,0,0,0,0,0,0,48,6,0,0,0,0,0,0,0,0,0,0,0,0,0,0,0,0,0,6,0,0,18,42,48
30,24,6,66,72,84,84,96,114,90,96,84,108,60,60,66,60,60,54,60,60,66,54,54,54,0,0,0,0,18,78,0,0,0,0,0,0,0,0,30,0,0,0,0,0,96,0,0,0,0,0,0,0,0,0,0,0,0,0,0,0,18,48,42
72,90,66,12,36,96,90,102,96,84,102,78,84,72,66,78,78,60,72,60,42,60,66,60,60,0,0,0,0,30,84,0,0,0,0,0,0,0,84,0,0,6,0,0,0,6,0,0,0,0,0,0,0,0,0,0,0,0,0,0,0,0,42,60
66,72,48,78,84,72,84,96,96,84,96,78,84,72,60,72,60,66,60,48,54,66,60,48,0,48,0,0,0,18,54,0,0,0,0,0,0,0,0,48,0,0,18,0,0,0,0,0,0,0,0,0,0,0,0,0,0,0,0,0,0,18,24,54
78,6,72,6,102,60,84,84,90,78,96,102,84,78,78,54,66,60,66,48,54,60,60,0,48,0,60,12,0,0,54,0,0,0,0,0,0,0,0,0,0,72,0,0,0,0,0,0,0,0,0,0,0,0,0,0,0,0,0,18,0,0,60,42
66,6,18,78,84,84,90,102,84,120,84,102,72,60,72,60,60,54,66,54,66,66,54,48,0,42,0,0,0,30,84,0,0,0,0,0,0,0,48,0,0,0,6,0,0,18,0,0,0,0,0,0,0,0,0,0,0,0,0,6,0,36,0,66
36,66,6,96,18,90,102,84,102,90,90,84,66,66,102,66,60,54,60,66,60,60,60,54,36,0,0,0,0,24,66,0,0,0,0,0,0,0,0,0,72,0,0,0,0,0,0,0,0,0,0,0,0,0,0,0,0,0,0,0,0,6,36,30
78,6,72,12,78,78,66,84,96,84,84,102,84,78,60,66,60,42,66,48,60,54,60,48,42,0,0,0,0,24,84,0,0,0,0,0,0,0,6,60,0,0,24,0,0,0,30,0,0,0,0,0,0,0,0,0,0,0,0,0,0,6,66,54
60,60,18,60,72,84,96,96,84,84,90,96,72,84,84,60,66,48,48,60,66,66,66,60,42,0,0,0,0,30,72,0,0,0,0,0,0,0,0,0,66,6,0,0,0,0,0,0,0,0,0,0,0,0,0,0,0,0,0,0,0,18,42,42
84,48,18,72,66,78,78,90,84,96,78,96,90,78,84,72,66,72,66,66,84,60,72,78,0,0,42,0,0,18,84,0,0,0,0,0,0,0,0,6,12,0,0,0,0,18,0,0,0,0,0,0,0,0,0,0,0,0,0,0,0,36,60,48
60,60,48,12,84,84,84,84,102,96,96,96,96,72,66,66,72,48,186,54,48,54,72,42,48,0,0,0,0,24,60,0,0,0,0,0,0,0,0,0,42,0,12,6,0,0,0,0,0,0,0,0,0,0,0,0,0,0,0,0,0,12,48,72
84,6,54,78,72,96,78,72,96,90,96,84,66,78,90,54,60,72,60,66,60,66,66,60,0,54,0,0,0,60,18,0,0,0,0,0,0,0,0,36,0,0,0,0,84,0,0,54,0,0,0,0,0,0,0,0,0,0,0,0,0,6,42,72
72,36,90,78,84,90,12,102,90,84,102,84,84,66,84,72,60,66,60,66,54,60,60,60,36,0,0,0,0,30,0,84,0,0,0,0,0,0,78,0,0,0,0,0,0,0,0,18,0,0,0,0,0,0,0,0,0,0,0,0,0,0,36,42
66,18,66,78,12,78,96,102,96,90,96,96,78,96,60,66,60,60,60,54,60,54,54,66,42,0,0,0,0,66,24,0,0,0,0,0,0,0,0,84,0,0,0,0,0,0,0,0,0,0,0,0,0,0,0,0,0,0,0,0,0,30,36,66
84,30,72,96,12,72,96,72,96,102,102,72,66,84,72,54,60,54,54,54,54,48,48,54,42,0,0,0,30,0,72,0,0,0,0,0,6,0,0,54,0,0,0,0,6,0,0,42,0,0,0,0,0,0,0,0,0,0,0,0,0,0,36,66
12,66,72,72,84,78,84,96,90,96,90,84,78,72,66,66,60,60,60,48,60,60,54,60,48,0,0,0,0,24,66,0,0,0,0,0,0,0,0,0,0,12,0,0,0,0,180,0,6,0,30,6,0,0,0,12,0,0,0,0,0,6,36,72
66,36,48,60,54,90,72,96,96,84,90,84,78,66,60,78,72,90,84,96,108,84,84,78,84,0,0,0,0,0,0,60,0,0,0,0,0,0,0,48,0,0,0,0,0,0,156,0,0,0,0,0,0,0,84,0,0,0,0,0,6,0,30,36
54,72,48,36,84,78,96,102,102,108,72,78,78,66,60,60,72,72,66,54,72,60,66,60,54,0,48,0,0,30,72,0,0,0,0,0,0,6,0,78,0,36,0,6,18,216,0,0,0,0,0,0,0,0,0,0,0,0,0,0,0,18,30,42
