28,28,56,14,28,49,56,84,255,105,105,91,98,98,98,91,105,105,91,112,91,105,98,105,77,0,77,0,0,0,0,7,0,175,84,0,0,0,63,0,175,255,7,0,0,49,0,0,0,0,0,0,0,0,0,0,0,0,0,0,14,21,91,56
112,84,105,98,126,84,112,91,98,119,255,98,98,98,112,91,98,91,84,91,119,119,105,98,84,0,0,91,175,7,35,0,0,0,0,0,35,0,255,0,0,42,0,0,0,35,0,0,7,0,0,0,0,0,0,0,0,0,0,0,14,21,7,56
42,56,0,35,42,255,70,49,112,112,112,84,91,84,105,98,98,84,91,112,98,98,105,98,84,0,0,98,0,231,0,0,0,126,0,7,77,0,210,0,0,21,7,7,28,0,0,0,0,0,0,0,0,0,0,0,0,0,0,0,21,21,126,63
112,49,84,42,140,255,175,98,133,105,126,98,98,98,98,91,84,112,105,91,98,98,98,98,0,105,0,91,7,0,231,7,0,0,0,105,0,0,7,14,14,0,84,255,0,0,0,0,0,0,0,0,0,0,0,0,0,0,0,7,0,77,28,42
7,42,98,84,255,56,21,84,91,255,105,91,84,98,105,98,105,91,98,105,112,91,98,91,0,49,0,0,91,0,0,77,0,0,112,0,119,0,0,63,0,255,0,0,0,0,0,0,0,0,0,0,0,0,0,0,0,0,7,0,14,14,21,21
91,119,7,119,105,84,63,49,112,255,112,98,126,91,105,91,119,105,91,98,98,112,91,98,0,0,0,7,56,0,14,161,0,0,0,0,0,42,7,255,35,35,35,0,0,7,0,0,0,0,0,0,0,0,7,0,0,0,0,0,28,21,42,112
98,84,91,35,70,98,105,255,98,98,105,255,119,98,91,91,98,98,98,112,98,91,105,91,0,0,0,91,0,0,0,196,0,0,0,112,7,84,0,7,255,0,14,35,0,0,0,0,0,0,0,0,7,0,0,0,0,0,0,0,63,35,21,70
14,42,98,35,28,49,133,84,91,112,112,255,98,98,98,98,112,98,105,112,98,105,98,98,0,98,0,105,21,0,0,238,0,0,0,0,49,255,0,49,7,7,21,35,0,0,0,0,0,0,0,0,0,0,7,0,0,0,0,0,28,7,21,42
0,56,28,21,63,35,63,245,91,91,112,105,98,84,98,91,105,98,84,98,112,112,84,98,0,77,0,63,133,7,0,7,0,84,0,0,133,189,14,35,49,255,35,7,7,0,0,0,0,0,0,0,0,0,0,0,0,0,0,0,14,28,56,77
35,35,7,56,42,56,255,77,91,98,161,98,98,84,77,84,84,98,98,98,105,91,91,84,0,0,0,98,0,0,77,0,0,0,91,0,0,0,255,49,14,28,35,0,14,0,0,0,0,0,0,0,0,0,0,0,0,0,0,21,0,28,35,49
28,35,84,49,35,77,77,98,77,105,98,98,112,91,105,98,98,112,112,119,119,98,112,98,0,0,0,70,224,7,0,7,0,0,119,0,0,77,0,7,0,255,14,0,0,7,0,0,0,0,0,0,0,0,0,0,0,0,0,0,14,42,63,28
35,49,21,63,21,42,70,98,255,98,98,105,105,98,98,105,105,105,98,112,112,112,112,0,112,0,84,0,0,161,0,0,0,112,0,0,0,49,98,7,21,255,0,7,0,0,0,0,0,0,0,0,0,0,0,0,0,0,0,0,35,14,42,35
35,42,7,35,255,21,70,56,98,91,98,255,98,98,98,112,98,112,112,119,112,98,112,0,112,70,84,7,0,0,0,0,0,210,0,0,0,7,175,255,0,7,7,21,0,0,0,0,0,0,0,0,14,0,0,0,0,0,0,0,35,21,77,21
77,35,14,56,91,91,56,255,98,98,98,84,91,84,98,98,105,112,84,112,105,98,112,77,98,0,91,0,7,0,0,0,105,0,140,0,112,0,0,0,63,49,0,255,7,0,7,0,0,0,0,0,0,0,0,0,0,0,0,7,28,0,7,56
28,35,7,70,98,84,70,255,77,98,112,98,98,105,98,105,91,91,119,119,112,112,91,105,0,84,0,112,0,245,0,0,0,0,119,182,0,0,147,255,0,14,63,0,42,0,0,0,0,0,0,0,0,0,0,0,0,7,0,0,14,21,70,0
49,35,35,28,63,91,63,255,105,91,98,105,98,105,98,112,98,98,105,105,98,112,105,84,0,252,0,126,7,7,189,0,0,126,0,0,147,189,0,0,0,255,14,0,0,0,0,0,0,0,0,0,0,0,0,0,0,0,0,14,0,28,28,98
7,77,112,21,119,119,255,98,98,98,98,98,255,84,84,91,105,91,98,91,112,98,105,98,91,0,7,84,14,7,161,0,140,0,0,0,21,189,42,255,0,35,14,0,7,0,0,0,0,0,0,0,0,0,0,0,0,0,0,0,42,21,84,63
91,119,28,84,161,35,91,84,84,84,105,255,105,91,98,84,98,98,105,91,98,84,105,98,84,0,0,112,0,0,0,0,7,0,119,0,21,0,112,255,49,0,35,0,14,0,0,0,7,0,0,0,0,0,0,0,0,0,0,0,28,28,77,77
28,105,0,21,63,56,84,255,77,91,112,112,91,98,91,112,98,105,98,119,105,105,112,0,105,0,0,63,7,126,0,0,147,0,0,0,98,7,112,0,77,0,0,255,0,0,0,0,0,0,0,0,0,0,0,0,0,0,0,21,0,21,84,21
42,84,28,42,91,49,49,84,255,105,98,77,84,112,98,84,91,98,105,98,98,105,98,98,0,84,0,0,0,0,0,7,0,0,133,0,0,196,49,255,21,42,0,21,0,0,0,0,0,0,0,0,0,0,0,0,0,0,0,0,0,70,35,84
49,28,7,56,91,70,255,105,105,98,84,98,98,105,98,98,91,98,105,105,112,105,105,84,0,0,84,0,0,182,0,0,7,0,0,98,0,126,21,7,255,70,7,21,0,0,0,0,0,0,0,0,0,0,0,0,0,0,0,0,14,21,84,77
35,42,28,42,63,63,70,98,84,70,105,98,105,98,84,105,112,105,105,98,105,112,112,105,0,0,112,0,0,168,0,0,0,0,0,133,0,133,70,35,255,7,0,0,7,0,0,0,14,0,0,0,0,0,0,0,0,0,7,0,14,0,28,21
21,21,35,7,49,105,98,255,91,98,105,112,91,98,98,98,98,105,105,105,105,105,105,112,0,0,0,91,0,0,14,0,0,56,0,63,0,7,7,98,35,255,0,63,0,35,0,0,0,0,0,0,0,0,0,0,0,0,0,7,14,84,14,49
28,7,49,49,49,147,98,63,84,91,91,84,98,98,105,98,112,105,91,98,112,98,105,105,0,0,0,98,0,210,7,0,0,0,133,0,189,0,56,14,255,255,7,0,14,0,0,0,0,0,0,0,0,0,0,0,0,0,0,21,0,21,77,35
56,7,14,84,49,84,70,255,84,98,98,98,98,98,105,105,91,98,98,105,98,112,77,105,0,105,0,105,0,0,0,0,0,133,119,0,0,35,255,14,42,70,0,14,0,0,0,0,0,0,0,0,0,0,0,0,0,0,0,0,21,77,35,63
63,35,63,35,49,63,77,98,224,98,126,91,98,91,105,91,105,91,119,112,105,112,98,84,98,0,0,70,0,0,0,0,133,0,0,0,0,196,0,0,14,0,255,42,0,0,0,0,7,0,0,0,0,0,0,0,0,0,0,7,7,14,35,49
56,35,49,98,42,35,255,98,91,98,91,91,91,98,91,98,98,112,98,105,105,112,105,98,0,0,91,0,7,0,0,0,0,0,126,0,147,0,0,255,56,70,7,0,7,0,0,0,0,0,0,0,0,0,0,0,0,0,0,0,7,7,35,70
28,35,70,98,42,63,63,84,91,98,98,126,105,105,91,77,84,84,84,84,98,105,91,63,98,0,0,77,0,0,7,133,0,0,0,0,70,0,7,0,84,14,14,255,0,0,7,0,7,0,0,0,0,0,0,0,0,0,0,0,0,7,49,105
56,255,56,7,84,119,98,91,112,255,105,98,91,112,98,91,98,84,91,91,98,98,105,0,0,105,0,56,0,0,224,0,0,28,182,0,0,0,91,255,49,0,7,7,0,7,0,7,0,0,0,0,0,0,0,0,0,0,0,35,0,28,14,91
49,42,28,35,84,42,112,255,98,105,105,91,98,91,98,98,91,91,255,91,105,105,98,98,0,91,0,0,84,0,7,0,0,0,0,0,140,154,255,7,14,0,49,42,0,7,0,0,0,0,0,0,0,0,0,0,0,0,0,14,0,21,112,63
91,21,28,70,49,56,91,105,255,91,98,91,84,91,84,84,91,84,98,84,91,98,84,84,0,0,84,0,0,7,0,0,0,161,0,0,7,105,0,255,7,56,21,0,7,0,0,0,0,7,0,0,0,0,0,0,0,0,0,21,7,28,63,35
56,21,35,35,77,42,56,217,98,112,98,84,84,91,91,98,98,105,98,112,98,105,105,98,70,0,98,0,0,7,0,0,14,0,0,0,0,133,0,49,0,14,14,7,0,0,0,0,0,0,0,0,0,0,0,0,0,0,0,0,28,14,91,56
70,49,14,28,35,91,98,255,112,105,91,105,105,84,112,105,98,98,105,112,105,105,112,105,0,91,0,84,231,0,126,0,0,0,133,0,0,0,0,7,14,91,255,0,0,0,28,0,0,0,0,0,0,0,0,0,0,0,0,0,21,21,21,91
56,84,126,0,255,112,84,255,105,255,105,91,98,98,91,98,105,84,105,112,112,105,105,98,70,0,77,0,7,119,7,0,196,0,0,0,0,0,0,56,255,77,28,0,0,0,0,0,0,0,0,0,0,0,0,0,0,0,0,0,7,70,70,70
63,70,21,28,35,21,84,105,91,119,112,98,91,98,105,98,105,91,105,105,112,112,112,70,105,0,0,98,0,133,0,14,0,7,133,0,0,0,0,98,28,21,255,7,0,0,0,7,0,0,0,0,0,0,0,0,0,0,0,0,21,35,14,70
21,91,35,98,77,70,98,98,98,98,105,255,105,91,91,105,98,98,105,112,98,0,105,112,119,91,0,0,0,0,161,0,0,0,0,98,0,112,0,84,255,0,7,0,7,0,7,0,0,0,0,0,0,0,0,0,0,0,0,0,7,42,70,63
21,21,28,77,21,70,91,255,105,112,98,98,91,98,105,105,112,112,91,98,98,91,105,112,0,0,0,0,77,182,0,14,0,0,105,0,0,70,0,14,35,255,7,7,0,0,7,0,0,0,0,0,0,0,0,0,0,0,0,7,0,28,28,98
49,63,7,105,35,98,112,91,119,255,112,98,98,84,91,84,91,84,91,98,98,84,98,105,77,0,0,7,91,0,0,0,161,0,0,0,0,105,0,42,0,28,0,0,7,0,0,0,0,0,0,0,0,0,0,0,0,0,0,0,14,21,21,21
42,49,14,21,42,91,98,56,112,112,105,105,255,98,98,84,112,98,91,91,98,98,105,105,84,0,0,0,0,98,0,105,0,0,0,84,7,0,98,0,0,14,0,0,0,0,0,0,0,0,0,0,0,0,0,0,0,0,0,0,7,21,35,119
84,77,7,56,98,119,119,255,112,112,105,84,98,98,98,98,91,119,112,91,105,98,112,98,77,0,0,133,0,175,14,0,0,0,0,154,0,49,42,7,42,56,0,255,7,0,0,0,0,0,0,0,0,0,0,0,0,0,0,14,7,21,49,42
21,133,7,21,35,63,35,91,98,255,105,91,84,84,91,77,91,84,98,91,105,98,91,98,0,70,0,0,133,0,0,7,0,0,0,0,0,189,70,0,14,255,35,0,0,0,0,0,0,0,0,0,0,0,0,0,0,0,0,0,42,7,63,35
49,35,28,56,217,105,70,112,105,84,112,91,91,255,84,84,98,77,98,98,119,98,98,105,0,77,0,7,84,0,0,7,0,0,0,255,0,0,0,35,21,35,0,0,0,0,0,0,0,0,0,0,0,0,0,0,0,0,0,0,21,28,56,112
91,84,119,28,70,63,77,119,98,98,255,105,98,84,84,91,77,91,98,98,105,98,98,98,0,0,0,84,7,161,7,0,0,0,91,0,70,119,0,255,63,14,42,7,0,0,0,0,0,0,0,0,0,0,0,0,0,0,0,0,21,35,56,63
14,35,84,56,56,84,42,70,84,91,105,255,84,84,91,84,91,98,84,84,98,91,98,0,91,0,91,0,0,0,0,0,0,0,0,7,112,0,112,0,255,21,7,0,0,0,14,0,0,0,0,0,0,0,0,0,0,0,0,0,21,28,70,84
63,21,21,49,49,35,98,28,84,91,105,255,98,91,84,84,98,105,98,98,98,84,112,105,0,0,0,70,0,0,161,0,0,0,0,126,0,84,255,14,0,98,7,0,0,0,0,0,0,0,0,0,0,0,0,0,0,0,0,0,14,84,21,77
91,35,56,35,84,84,70,77,119,255,98,105,98,84,84,77,98,98,84,105,91,98,98,91,0,0,0,0,77,7,217,0,0,0,98,154,0,0,133,0,255,0,0,21,0,0,0,0,0,0,0,0,0,0,0,0,0,0,0,7,14,28,56,35
91,77,255,35,35,126,77,98,70,98,105,98,98,91,91,91,98,84,98,84,84,91,84,98,0,0,77,0,0,0,0,0,105,0,0,0,0,77,255,56,7,0,14,0,28,0,7,0,0,0,0,0,0,0,0,0,0,0,0,0,14,98,21,35
21,35,56,84,42,255,98,91,119,119,98,126,98,98,98,255,91,84,84,98,98,91,98,112,0,0,0,112,0,21,0,63,0,0,0,0,255,112,0,70,0,7,0,7,0,0,0,0,0,0,0,0,0,0,0,0,0,0,0,0,35,35,21,7
42,14,63,28,35,49,63,91,98,105,112,255,91,91,91,84,91,98,98,84,105,112,98,98,49,0,0,0,84,0,0,0,0,0,0,98,0,0,84,255,0,14,63,0,0,0,0,0,0,0,0,0,0,0,0,0,0,0,7,0,0,14,35,7
56,42,35,7,70,98,91,112,255,112,98,84,84,98,91,112,84,91,112,98,84,91,98,98,0,0,0,77,21,161,7,7,0,0,0,70,112,119,0,21,42,255,0,0,7,0,0,0,0,0,0,0,0,0,0,0,0,0,0,0,14,21,84,35
