60,60,60,100,40,80,60,255,120,150,160,170,170,160,160,170,180,170,160,160,140,150,170,170,0,0,200,0,210,0,0,0,0,0,0,210,0,210,130,0,255,0,30,0,0,0,10,0,0,0,0,0,0,0,0,0,0,0,10,10,0,120,120,50
40,10,30,50,90,255,130,110,100,255,150,140,160,160,170,160,160,170,190,180,180,170,170,180,100,0,0,210,20,255,0,0,0,0,150,0,0,160,150,0,20,10,10,0,0,10,0,0,0,0,0,0,10,0,0,0,0,0,0,0,20,40,10,100
70,20,30,50,30,150,120,255,100,100,160,170,150,160,160,160,150,180,170,150,170,190,200,0,150,0,0,0,150,255,0,0,20,0,120,0,0,0,210,0,255,10,0,0,60,50,0,0,0,0,0,0,0,0,0,0,0,0,30,10,0,110,30,40
30,40,40,50,230,50,120,110,160,120,190,160,170,150,170,160,170,170,160,170,170,180,200,0,170,150,20,0,160,255,0,10,210,0,0,0,0,0,255,160,100,10,0,0,0,30,0,0,20,0,0,0,0,0,0,0,0,0,0,10,30,170,80,150
130,40,20,70,30,100,130,100,130,80,150,150,150,160,150,160,170,170,180,180,160,180,170,130,0,160,0,190,10,10,0,255,0,0,0,0,150,0,150,255,30,0,10,20,0,0,0,0,0,0,0,30,20,0,0,0,0,0,10,10,20,100,100,80
70,50,20,30,100,100,130,255,120,150,160,150,140,160,150,180,160,160,170,180,170,170,180,170,0,0,0,0,120,255,0,0,0,0,0,250,0,80,240,20,0,0,255,0,20,10,0,0,10,0,0,40,0,0,0,0,0,0,0,10,50,80,80,50
50,180,30,110,30,140,120,130,120,130,140,170,150,160,180,160,170,190,170,170,190,190,180,170,0,0,0,180,10,0,0,255,0,0,0,230,0,0,10,30,0,255,0,60,0,0,10,10,0,0,0,0,30,0,40,0,0,0,10,10,20,120,70,70
50,40,50,40,255,70,120,120,110,140,150,150,160,150,160,170,170,180,150,190,180,180,160,160,0,0,0,170,0,70,0,250,0,0,0,0,170,255,10,130,0,80,0,70,0,0,0,0,10,0,0,0,0,0,0,0,0,0,0,0,60,60,100,40
80,50,10,10,110,255,80,130,140,110,150,160,150,140,160,170,180,170,160,170,160,170,160,170,120,0,0,160,10,0,0,220,0,0,0,140,0,0,240,30,0,255,80,255,0,10,0,10,20,0,0,0,0,0,0,30,0,0,10,0,10,80,90,90
10,40,20,20,130,110,255,120,120,150,140,150,130,160,180,140,160,140,170,180,170,170,170,0,170,0,170,0,30,255,0,0,30,0,220,0,0,120,170,0,30,255,40,0,50,0,10,0,0,0,0,0,0,0,20,0,0,0,10,0,20,150,50,50
60,40,40,90,70,70,190,140,150,150,140,140,255,190,170,170,160,160,140,170,150,180,170,0,180,100,0,190,10,230,0,0,0,240,0,0,0,0,255,30,50,40,30,40,0,20,10,30,10,0,0,50,0,0,0,0,0,0,0,0,0,70,90,100
30,20,0,60,120,140,160,255,160,140,140,150,140,150,160,140,160,160,160,160,180,150,160,170,0,160,0,0,0,210,0,210,0,0,0,0,0,30,0,255,40,0,20,0,100,10,10,0,0,0,0,0,0,0,0,10,0,0,0,10,10,40,30,90
40,0,30,40,60,160,255,150,130,150,160,160,255,150,140,140,170,140,160,140,150,160,160,100,150,0,0,160,0,10,240,0,250,0,0,0,255,0,10,0,130,0,0,0,0,0,0,0,255,0,0,0,0,0,0,0,0,0,0,0,0,30,255,90
20,10,80,50,90,120,255,130,255,160,140,140,170,150,140,160,170,160,160,150,170,170,180,170,0,0,210,0,20,30,0,0,0,0,0,0,0,30,0,255,10,80,90,0,0,0,10,0,0,0,0,0,0,10,0,0,0,0,0,0,30,70,70,70
120,10,10,50,140,50,130,120,130,120,170,150,255,140,160,140,160,150,150,160,150,160,160,160,0,170,120,0,250,0,0,0,0,0,240,0,255,0,120,20,0,0,50,0,0,0,0,0,0,0,20,0,0,0,0,0,0,0,0,10,10,50,90,80
30,50,100,40,50,140,140,130,240,120,140,160,150,255,140,160,170,170,170,180,170,120,170,160,190,0,0,200,10,0,255,0,0,0,255,0,0,110,90,255,0,10,60,0,0,0,0,0,0,0,0,0,0,0,0,0,0,0,0,0,20,30,100,70
0,40,50,20,60,150,160,170,255,130,170,160,140,160,150,160,150,160,160,170,170,170,170,160,0,0,0,0,120,0,10,255,0,0,0,10,255,0,0,30,0,20,0,40,70,20,0,0,0,0,0,10,0,0,0,0,0,10,0,0,30,50,150,80
60,30,10,20,50,140,255,100,140,120,150,130,255,160,150,150,150,160,170,170,170,170,180,160,0,0,0,150,10,255,20,0,10,0,0,0,255,230,80,20,150,10,0,70,10,0,255,0,0,0,20,0,0,0,0,0,0,0,0,20,10,70,110,80
80,30,10,40,70,130,110,130,200,130,140,150,255,140,150,150,170,160,180,160,180,160,160,150,110,0,0,160,10,0,255,0,0,255,0,0,255,0,0,0,10,255,50,0,10,0,30,0,0,0,0,0,0,0,0,0,0,0,0,10,20,110,80,70
50,80,70,30,40,150,130,140,120,120,140,255,140,170,160,150,150,150,190,180,180,170,170,190,0,0,0,160,0,0,0,0,20,0,0,0,0,0,0,255,60,10,10,70,0,10,0,0,0,0,0,0,0,10,0,0,0,0,0,10,10,30,110,80
40,70,80,80,40,160,150,255,130,140,150,140,150,255,150,160,150,180,150,160,160,180,180,150,100,0,160,0,0,10,0,240,0,0,0,200,0,0,210,255,10,10,90,0,0,0,0,0,0,10,0,0,0,0,10,0,0,0,10,0,70,0,50,20
50,70,40,70,50,160,120,255,150,100,140,255,140,150,140,140,150,150,180,150,150,170,150,160,0,0,0,150,10,10,0,0,0,0,255,0,20,0,255,0,90,0,0,60,0,0,120,0,0,0,0,10,0,0,0,0,0,0,0,120,0,10,90,80
60,20,30,40,110,170,230,120,255,130,150,255,150,160,150,160,170,160,150,170,160,170,150,0,160,0,0,190,0,10,0,0,0,0,0,0,210,0,0,130,255,150,10,0,0,10,0,0,0,0,0,0,0,0,10,0,0,0,10,0,0,80,30,80
160,30,30,140,140,120,150,120,255,120,140,190,140,150,170,160,150,160,170,110,120,120,140,140,0,0,0,140,0,0,10,10,0,0,255,0,40,0,10,255,40,80,20,30,0,20,0,20,0,0,0,0,0,0,0,0,0,20,0,20,10,60,70,60
10,30,30,130,90,100,60,100,255,140,140,140,140,140,150,140,150,170,160,160,110,120,180,140,0,0,0,170,10,0,0,10,255,0,0,0,220,200,0,70,10,40,0,0,60,0,0,0,10,0,0,0,0,0,0,0,0,0,0,10,0,70,120,70
80,40,110,140,120,70,90,255,100,140,140,150,140,160,140,140,160,170,150,130,140,160,150,120,0,0,0,150,30,0,255,0,0,0,0,220,0,255,0,40,0,10,10,10,20,0,10,10,0,0,0,0,0,0,10,0,0,0,0,10,10,70,50,70
80,70,40,20,120,100,140,120,255,120,160,140,160,160,160,160,170,170,150,150,100,160,160,130,0,0,190,0,0,0,255,0,0,0,10,0,0,10,180,10,255,60,0,0,0,0,0,0,0,0,0,0,0,0,0,0,0,20,0,0,0,60,50,140
120,70,0,30,140,160,255,90,150,120,160,150,140,140,140,150,130,160,140,150,150,170,160,150,0,100,0,160,255,0,0,20,0,0,0,0,200,255,120,10,30,0,20,50,0,0,0,0,0,0,0,0,0,0,0,0,30,0,0,10,60,170,30,120
60,30,30,100,130,140,120,130,90,140,255,160,130,160,140,130,180,170,140,150,160,160,160,150,0,0,190,0,10,255,0,10,0,250,0,0,0,0,120,90,255,0,20,0,0,0,0,0,0,10,0,0,0,0,0,0,40,0,0,10,100,30,170,80
50,40,50,80,120,130,255,130,100,140,140,170,140,150,140,255,160,160,110,160,170,160,170,170,0,0,0,0,140,0,240,0,0,0,10,0,250,255,0,100,30,80,20,0,0,0,0,0,255,0,0,0,0,0,40,0,0,0,30,0,0,100,60,60
50,70,30,40,130,170,130,120,100,100,140,140,160,130,150,150,150,140,170,170,170,160,160,170,0,0,0,150,10,10,200,0,0,0,0,0,250,170,20,0,50,255,10,10,0,0,0,0,0,0,0,0,20,0,40,0,0,0,90,0,0,0,130,130
50,50,70,40,110,110,160,255,255,100,150,130,140,120,160,140,160,130,150,150,160,150,160,160,0,0,0,160,0,230,0,0,0,10,190,0,0,255,100,10,255,30,10,40,10,0,0,0,10,255,0,0,0,0,30,0,0,0,0,0,20,50,30,40
70,40,60,50,40,120,255,110,100,140,140,150,255,150,150,160,150,150,150,160,170,160,150,170,0,0,180,0,20,255,0,250,0,0,240,0,0,255,40,130,70,60,0,10,0,0,0,10,0,0,0,0,0,10,0,30,0,0,0,0,30,30,80,70
50,40,90,70,40,130,120,100,120,255,150,140,160,140,140,150,160,150,140,140,150,150,150,0,150,0,80,180,0,0,0,255,0,0,120,0,0,190,10,50,10,0,80,20,0,10,40,0,0,0,0,0,0,0,0,0,0,30,0,0,10,70,120,70
70,60,10,90,130,50,150,255,110,100,170,140,150,255,150,150,160,160,160,160,160,170,160,150,0,0,190,0,0,0,255,10,0,0,0,255,0,0,255,0,0,30,10,0,0,0,0,0,0,0,0,0,0,0,0,0,0,0,20,10,0,50,160,110
50,110,40,20,40,130,110,110,140,255,140,130,140,150,160,140,150,140,160,170,170,170,160,180,0,0,0,170,0,255,100,0,0,0,0,0,0,0,120,70,30,130,255,10,0,0,10,0,10,0,0,20,0,0,0,0,0,0,0,10,20,100,70,40
90,30,70,60,140,130,180,255,100,100,150,160,255,150,140,150,140,150,170,150,160,170,160,120,150,0,0,190,10,255,0,10,180,0,0,0,255,80,0,0,170,10,20,0,0,0,255,0,0,0,10,0,0,0,0,0,0,0,0,10,10,140,50,90
40,40,170,70,40,110,160,120,150,110,255,160,130,160,140,150,160,170,170,150,170,170,170,170,0,120,0,140,10,255,0,0,10,250,255,0,0,0,255,0,40,30,30,10,0,0,10,0,0,0,0,0,0,0,0,0,0,0,0,30,0,50,140,80
20,20,10,30,80,140,120,120,100,255,140,150,150,150,140,150,160,150,190,120,160,160,160,190,120,0,0,140,255,0,30,0,0,0,250,0,230,0,0,255,255,40,0,0,20,110,0,0,0,0,0,10,0,0,0,0,0,0,0,10,30,80,80,100
120,40,60,50,70,120,255,150,100,130,255,140,140,160,150,150,160,160,150,170,170,170,170,170,120,0,0,190,10,255,0,0,0,0,0,250,255,0,0,255,30,140,20,10,0,0,10,0,0,20,0,0,0,0,0,0,0,0,0,10,80,20,70,80
80,40,0,70,160,120,130,150,255,140,150,140,150,140,140,130,180,140,160,170,160,160,170,160,140,0,0,150,0,255,0,0,30,160,240,0,0,0,50,140,0,0,0,255,0,0,0,0,0,10,0,0,10,0,0,0,0,0,20,0,10,40,80,40
120,20,60,255,70,160,255,120,100,150,160,140,160,140,150,160,140,170,160,170,170,160,170,170,0,130,0,255,170,10,0,0,10,0,0,0,0,10,0,0,50,0,80,255,10,10,0,0,0,0,0,0,0,0,0,0,0,0,10,0,20,30,70,30
50,70,255,80,50,130,255,140,120,120,255,160,140,150,140,150,170,170,150,160,160,150,160,160,0,0,160,0,0,255,0,0,0,0,0,200,240,0,130,20,20,0,0,0,0,0,0,50,0,0,0,0,0,0,0,0,0,10,0,0,0,80,60,110
50,70,20,90,255,120,120,150,150,130,100,255,130,140,160,150,180,170,160,180,180,160,160,170,0,0,0,190,10,190,0,0,0,0,0,0,0,0,255,10,0,40,0,30,0,0,0,255,0,0,0,0,0,0,0,0,0,0,10,0,30,60,100,60
60,50,255,120,50,120,120,110,120,140,130,150,190,140,150,140,150,150,160,150,170,160,150,160,0,0,160,0,255,0,0,0,0,0,160,0,0,160,150,20,255,0,10,10,0,100,10,10,0,0,0,10,0,0,0,0,0,0,0,0,30,50,10,120
50,30,60,40,110,170,255,120,140,120,160,255,160,130,150,160,140,170,170,160,160,170,150,170,0,0,0,0,0,0,0,0,230,0,255,0,0,180,20,0,0,60,0,10,255,10,0,0,0,0,0,0,20,0,0,0,0,30,0,0,0,50,100,70
190,10,30,50,140,130,120,120,255,170,150,140,130,150,180,150,140,150,150,140,170,190,170,180,130,0,0,170,0,0,0,0,0,0,0,0,220,0,120,0,90,10,255,10,0,30,0,0,0,10,0,0,0,0,0,0,0,0,0,10,10,30,120,90
20,100,50,100,160,50,110,110,110,255,150,160,140,150,180,160,150,150,130,150,160,170,170,170,110,0,0,120,10,0,255,190,10,0,0,0,255,0,70,20,0,255,0,0,10,0,0,0,0,0,0,0,20,0,0,0,0,0,10,10,30,10,110,80
70,60,60,30,180,180,120,150,120,130,150,140,150,170,160,160,150,150,170,150,150,160,150,160,0,0,0,160,10,255,40,255,0,0,0,0,240,30,0,255,60,0,40,0,70,0,0,0,0,0,0,0,0,0,0,0,0,0,10,0,20,50,120,70
60,90,30,130,90,100,140,255,110,140,140,140,140,140,150,150,150,160,150,160,150,140,160,160,0,0,0,0,140,0,0,10,120,0,170,0,0,0,100,0,90,0,255,0,10,0,0,0,0,0,0,0,0,0,0,0,0,0,0,0,20,20,70,120
