120,30,30,140,120,130,90,90,140,150,160,140,140,140,150,150,170,160,140,130,140,160,160,140,160,0,0,30,120,0,0,0,0,0,0,0,10,230,0,50,0,40,50,0,10,10,0,0,0,0,0,10,0,0,0,0,0,0,0,0,20,160,0,140
140,20,30,130,50,130,140,120,160,140,170,170,140,150,140,150,140,170,140,160,160,160,170,170,0,0,0,160,20,255,10,0,0,150,0,0,0,255,0,0,160,70,40,0,10,0,10,0,0,0,0,10,0,0,0,0,0,0,0,0,10,110,60,80
130,20,50,30,120,120,140,160,100,140,150,160,150,160,160,140,160,160,160,170,140,170,170,0,170,0,0,120,10,30,0,200,0,0,0,230,0,0,0,70,0,150,0,10,0,0,0,0,0,10,0,0,0,0,0,0,0,0,0,10,0,50,80,50
120,10,40,120,70,100,150,170,140,160,130,140,140,150,160,150,150,160,170,160,160,160,170,150,110,0,0,10,170,255,30,0,10,0,0,255,110,0,0,10,0,0,80,20,0,0,10,0,0,0,0,10,0,0,0,0,0,0,0,10,10,40,110,140
110,120,50,80,140,20,130,140,140,120,150,140,130,140,170,140,160,170,140,160,170,160,140,120,160,0,120,0,30,10,100,0,0,0,0,0,0,0,0,130,120,30,0,50,0,80,0,0,0,0,0,0,0,0,0,0,0,0,0,0,20,50,130,50
50,100,30,30,100,160,130,120,130,150,150,150,140,140,140,140,160,160,160,140,150,140,150,140,0,0,0,110,20,0,255,0,0,0,0,0,0,230,10,120,0,10,70,10,10,0,0,0,10,0,0,0,0,0,0,10,0,0,10,10,0,50,110,130
100,30,70,0,110,130,140,120,120,140,180,140,160,140,140,140,150,160,160,160,160,160,160,170,0,0,0,130,10,20,255,0,0,255,0,0,140,10,0,80,10,0,0,50,10,0,0,0,0,0,0,0,0,0,0,0,0,0,0,0,10,30,140,120
30,10,30,30,110,120,170,140,120,160,140,160,160,160,150,150,170,180,170,170,180,160,190,170,0,0,0,30,120,0,250,0,10,0,160,0,0,120,10,80,0,0,10,30,0,30,10,0,0,0,0,0,0,0,0,0,0,0,0,0,10,40,110,50
120,90,40,30,120,40,120,140,140,160,140,140,140,140,150,160,160,140,170,160,170,170,160,160,0,0,0,140,10,10,0,210,255,0,0,0,0,230,0,90,0,0,0,10,80,0,0,10,0,0,0,0,0,0,0,0,0,10,0,0,30,30,90,100
100,40,120,120,130,140,40,120,140,170,140,130,150,160,160,140,130,130,140,130,150,170,160,140,150,0,130,0,40,255,0,0,0,0,0,0,255,0,30,170,10,50,0,50,0,0,0,0,0,0,30,0,0,0,0,0,0,0,0,0,70,10,180,120
110,60,30,10,60,110,110,160,140,150,150,170,150,140,140,150,160,160,150,160,160,150,150,140,110,0,0,30,180,255,150,0,0,250,0,0,0,60,0,0,120,0,10,0,40,0,0,0,0,10,0,0,10,0,0,0,0,0,0,0,0,30,100,110
80,40,30,50,130,60,140,150,140,140,150,140,160,150,150,150,150,170,160,170,160,160,160,0,170,0,0,10,210,0,0,0,20,0,0,0,0,0,80,10,40,0,20,0,0,10,0,0,0,0,0,0,0,10,0,0,0,0,0,0,30,10,110,160
170,30,20,120,20,50,150,140,160,140,160,160,150,150,140,150,150,170,140,160,190,160,140,170,0,0,140,0,10,10,170,0,10,0,0,255,0,0,10,240,160,0,10,0,0,10,0,0,0,0,10,0,0,0,0,0,0,0,0,0,10,40,80,90
50,20,110,30,140,160,120,140,150,140,160,150,150,140,140,150,130,150,140,180,140,160,160,170,0,0,160,0,10,255,10,0,255,0,0,0,0,0,0,0,40,0,0,0,10,20,0,0,0,0,0,0,0,0,0,0,10,0,0,0,0,30,50,130
90,100,40,20,100,120,160,120,160,130,140,140,140,130,170,150,150,150,140,170,180,190,160,170,120,0,140,10,0,230,20,0,0,0,0,0,0,10,0,50,180,10,10,50,0,0,0,0,0,0,0,0,0,0,0,0,0,20,0,0,0,50,80,160
90,80,120,110,90,180,110,150,140,140,160,140,150,140,140,170,130,160,160,170,150,170,170,170,140,0,0,140,30,0,0,250,0,0,0,0,0,130,140,30,50,0,10,50,0,10,0,10,0,0,0,0,0,0,0,0,0,0,0,0,20,120,150,100
110,0,30,100,120,70,140,170,170,140,170,130,150,160,150,160,150,160,170,140,140,160,160,180,0,0,0,20,150,20,0,0,255,0,0,0,0,10,0,20,80,10,10,0,0,80,0,0,0,0,0,0,0,0,0,0,0,0,0,0,0,30,100,120
130,70,50,100,80,120,170,130,160,140,160,170,160,150,130,140,140,160,150,170,150,130,140,160,0,0,0,10,200,0,0,0,20,255,0,0,0,255,0,0,190,30,10,0,0,0,0,0,0,0,0,0,0,0,0,20,0,0,0,0,10,50,50,120
90,110,100,10,150,90,120,150,150,160,150,150,150,140,120,140,170,150,160,160,160,180,140,160,0,0,0,140,10,255,90,30,0,0,0,0,0,110,0,0,10,190,40,0,120,0,0,0,0,0,0,0,0,0,0,0,0,0,30,20,0,100,90,140
50,30,60,0,140,120,140,140,140,150,150,150,140,160,140,170,150,170,150,150,150,150,160,190,0,0,120,150,50,255,0,0,10,0,0,0,130,0,180,0,20,50,20,0,0,10,0,0,10,0,0,0,0,0,0,0,0,0,0,0,10,30,40,120
0,10,120,110,70,140,100,160,130,150,160,160,160,160,140,150,180,130,140,150,140,180,160,160,120,0,160,0,10,255,0,0,255,0,0,0,0,255,0,0,10,90,50,0,0,10,10,20,40,0,0,0,0,0,0,0,0,0,0,0,0,30,110,70
70,50,110,30,80,130,140,120,140,170,180,180,170,160,150,170,160,140,160,170,160,150,160,110,160,0,0,180,0,0,255,0,255,0,0,0,0,0,0,0,0,110,0,60,0,0,10,0,0,0,0,0,0,0,0,0,0,0,0,0,0,80,50,110
100,110,40,80,70,140,120,150,130,180,160,160,160,160,140,140,140,140,160,160,120,160,140,0,0,160,0,140,10,240,0,0,0,0,0,0,255,0,0,90,70,0,0,90,10,0,80,0,0,0,0,0,0,0,0,0,0,0,0,0,80,70,50,120
110,160,30,40,60,140,120,140,140,140,160,130,140,140,160,140,170,130,160,140,160,150,160,140,0,0,140,0,20,0,100,0,0,0,0,240,0,0,120,0,140,0,10,0,20,0,0,0,0,10,0,0,0,0,0,0,0,0,0,0,0,80,90,150
30,80,90,30,160,70,140,140,150,140,140,160,140,140,140,150,160,160,130,110,120,140,170,140,0,0,110,0,30,20,0,0,0,0,0,0,0,255,0,0,150,100,0,20,40,40,40,0,0,0,0,0,0,0,0,0,0,0,0,10,0,100,90,140
60,120,100,30,30,130,150,130,140,140,140,140,150,140,160,140,170,150,140,140,150,140,150,180,0,100,0,160,20,0,90,0,0,0,0,0,0,0,10,140,10,30,0,50,0,50,0,0,0,0,0,0,0,0,0,0,0,0,0,0,40,80,0,130
120,100,120,0,160,70,120,130,140,130,140,150,150,150,140,160,160,140,150,160,150,160,140,110,170,0,0,160,0,0,255,30,0,0,0,0,255,0,0,30,170,80,0,0,0,0,0,0,10,0,0,0,0,0,0,20,0,0,0,0,90,0,90,140
80,50,140,50,80,130,120,130,140,130,160,160,160,140,150,140,160,160,140,170,170,150,170,160,120,0,0,170,10,255,10,0,160,0,0,0,0,100,0,0,120,170,0,0,0,0,0,0,0,0,0,0,0,0,0,0,0,0,0,10,0,30,100,80
50,20,130,20,100,140,120,130,150,210,150,160,160,150,140,200,140,130,130,140,160,140,140,160,0,0,0,20,110,255,0,30,0,0,0,210,0,0,10,20,0,60,10,10,0,0,0,0,10,0,0,0,0,0,0,0,0,10,0,0,0,80,40,130
150,40,40,30,130,120,140,170,130,170,160,150,150,150,160,130,180,160,150,160,170,160,180,160,0,0,0,140,20,20,0,255,0,0,0,0,160,0,0,90,0,80,10,0,10,0,0,10,0,0,0,0,0,0,0,0,0,0,0,0,70,10,120,120
30,120,30,50,120,140,60,150,140,160,160,140,150,150,140,160,150,140,110,150,160,140,160,150,0,0,140,0,10,0,0,0,0,0,0,0,255,0,0,100,30,0,50,10,0,10,0,0,0,0,0,0,0,30,0,0,0,0,0,0,0,30,100,140
120,20,130,150,130,120,100,150,140,170,160,160,140,140,180,140,160,170,140,180,150,170,150,140,0,0,0,30,150,0,20,0,0,10,0,0,0,255,0,70,30,20,20,30,10,10,0,0,0,0,0,0,0,0,0,0,0,0,0,0,20,130,140,50
10,50,120,140,20,130,120,120,160,140,140,150,150,140,150,150,140,140,150,160,140,140,160,140,0,0,0,10,255,120,0,0,0,0,0,0,0,140,0,30,0,60,40,20,0,0,0,0,0,0,0,0,0,0,0,0,30,0,0,20,20,0,80,210
0,20,120,150,30,160,120,90,140,140,160,160,160,140,150,160,140,160,170,150,130,150,150,150,0,0,0,140,255,30,0,0,0,0,0,0,255,0,100,20,70,110,30,80,60,60,50,60,40,50,40,30,50,40,60,0,20,0,0,30,0,40,70,110
120,70,30,120,140,40,170,150,140,150,160,170,160,150,160,140,140,130,160,140,170,140,160,160,0,0,0,140,255,30,0,0,0,0,170,0,0,10,0,80,30,0,20,0,0,0,0,0,0,0,0,0,0,0,0,0,0,0,0,0,10,60,80,110
120,50,50,20,160,120,150,120,150,160,140,140,170,140,160,140,140,160,140,160,160,160,150,0,150,0,0,160,255,10,0,10,0,10,0,0,255,0,100,20,210,0,30,10,20,0,0,0,0,0,0,0,10,0,0,0,0,0,0,0,10,60,40,100
100,120,120,40,120,120,140,140,130,140,140,150,150,150,140,140,150,150,150,140,140,170,170,170,110,0,160,0,255,20,0,10,0,190,0,0,0,250,100,0,0,10,0,20,20,20,0,0,10,0,0,0,0,0,0,30,0,0,0,30,0,100,60,40
10,100,110,60,160,130,120,150,180,120,170,190,170,170,150,170,160,170,130,120,180,160,170,200,0,0,0,130,10,0,255,10,0,0,180,0,0,0,160,0,0,0,10,0,60,0,10,0,0,0,0,10,0,0,0,0,0,0,20,0,40,30,180,130
100,10,0,100,80,170,100,120,170,180,170,180,160,170,170,180,180,160,170,170,130,170,170,210,0,0,0,255,120,30,0,0,0,0,0,0,255,0,0,0,0,90,140,0,0,10,0,0,10,0,0,0,0,0,0,0,10,0,0,0,50,20,100,100
20,120,120,130,130,120,170,130,110,180,180,160,170,160,150,160,170,190,160,170,190,200,190,0,180,30,0,0,10,140,0,10,0,0,160,0,0,150,0,0,0,10,50,0,50,0,0,0,0,0,0,0,0,0,0,0,0,0,0,0,10,50,90,140
20,100,20,30,140,60,150,180,170,190,170,160,160,190,170,170,140,160,150,120,170,190,0,180,150,0,150,0,10,0,10,255,0,0,0,250,0,0,0,20,30,150,0,100,0,0,0,0,0,0,0,0,10,0,0,0,0,0,0,10,0,70,120,120
80,120,110,30,70,170,110,150,170,170,180,160,150,160,170,170,200,180,140,170,180,190,170,140,0,0,0,0,110,0,10,0,0,0,0,0,160,0,0,80,20,30,0,0,10,10,0,0,0,40,0,0,0,0,0,0,0,0,0,0,0,40,70,140
30,100,100,100,100,120,120,130,150,200,150,170,160,170,210,190,180,160,170,150,140,190,190,160,0,0,0,10,255,130,0,0,0,0,0,0,0,255,0,180,20,30,0,0,0,0,0,0,0,0,0,0,0,0,0,0,0,0,0,0,20,40,70,100
20,40,50,30,140,140,130,130,190,180,170,170,170,160,160,170,170,100,160,180,180,210,200,160,0,0,0,140,10,255,80,0,0,0,0,255,0,120,0,90,10,20,20,10,10,0,0,0,0,0,0,0,0,0,0,0,0,0,10,0,10,60,70,120
140,10,30,100,140,120,130,120,170,190,170,180,170,170,170,180,170,180,190,160,200,180,190,130,0,0,0,150,30,0,0,0,0,0,0,0,0,0,10,30,0,0,10,70,0,0,10,0,0,0,0,0,0,0,0,0,20,0,0,0,0,90,100,140
30,110,40,170,70,120,140,120,180,170,170,180,150,160,150,180,190,180,190,200,170,190,190,0,170,0,0,30,110,140,0,0,190,0,0,0,0,100,0,80,60,40,0,0,0,0,0,0,0,0,0,0,0,0,0,0,0,0,0,0,140,30,70,130
120,130,50,40,140,100,140,160,150,170,180,180,160,190,190,160,180,200,160,190,180,200,200,190,0,0,0,140,10,255,10,0,0,0,0,250,0,0,10,0,50,30,10,50,10,0,0,0,0,0,0,0,0,0,0,0,0,0,0,0,110,30,110,80
30,100,100,60,60,120,140,140,140,170,160,180,170,160,160,190,160,190,180,180,200,170,180,170,0,0,150,30,0,10,0,0,0,230,0,0,0,0,0,30,0,0,0,180,10,0,10,0,0,0,0,0,0,0,0,0,0,0,0,0,100,0,90,160
120,10,30,40,110,140,130,160,160,190,170,160,170,180,160,190,160,180,150,150,190,190,200,0,190,0,0,0,120,0,10,255,0,0,0,0,0,0,255,0,50,130,150,20,0,30,10,20,0,0,0,0,0,0,0,0,0,10,0,0,0,60,50,130
120,130,20,110,120,170,120,140,170,170,170,170,170,180,180,190,190,190,190,200,200,180,190,190,0,0,0,160,10,255,0,0,0,0,0,0,255,0,40,140,0,100,10,0,0,10,0,0,0,0,0,0,0,0,0,0,0,0,10,0,10,80,150,150
