12,12,8,12,20,16,12,24,94,30,34,34,32,32,36,34,32,32,34,28,32,30,34,34,0,0,40,0,0,42,0,0,0,0,0,42,0,26,42,0,96,0,6,0,0,0,2,0,0,0,0,0,0,0,0,0,0,0,2,0,2,24,24,10
8,6,10,2,18,26,22,74,20,28,96,32,30,32,32,32,34,38,34,36,36,34,36,34,0,20,0,42,66,4,0,0,30,0,0,0,32,0,30,4,2,0,2,0,0,2,0,0,0,0,0,0,2,0,0,0,0,0,0,0,4,2,8,20
14,10,4,6,24,6,30,20,32,20,96,34,32,32,30,30,32,36,30,34,34,38,40,30,0,0,30,0,0,62,0,0,4,24,0,0,0,0,42,0,96,2,0,0,0,10,0,12,0,0,0,0,0,0,0,0,0,0,0,6,2,22,6,8
8,6,10,46,10,8,24,22,24,38,32,32,34,32,30,34,34,34,40,34,32,34,34,36,0,30,0,32,4,70,0,2,0,42,0,0,0,0,96,32,2,20,0,0,0,6,0,0,4,0,0,0,0,0,0,0,0,0,0,2,6,34,16,30
26,8,4,6,14,26,20,20,16,30,26,30,30,30,32,34,34,36,32,36,32,34,32,36,0,26,0,38,2,0,2,74,0,0,0,0,30,30,0,96,6,0,2,4,0,0,0,0,0,0,0,4,0,6,0,0,0,0,2,2,4,20,20,16
14,10,4,6,20,20,26,94,24,30,30,32,28,32,30,32,36,32,34,34,36,34,34,36,0,0,0,24,0,72,0,0,0,0,0,0,50,48,16,4,0,0,96,0,2,4,0,0,2,0,0,0,8,0,0,0,0,0,0,2,16,10,10,16
10,36,6,22,6,24,28,26,24,26,28,34,30,32,34,32,36,34,38,34,36,38,34,38,0,0,0,36,2,54,0,0,0,0,0,0,0,46,2,0,6,96,12,0,0,0,2,0,2,0,0,0,6,0,8,0,0,0,2,4,2,24,14,14
10,8,8,84,14,10,24,24,28,22,30,30,32,30,32,34,34,36,36,30,38,36,32,32,0,0,34,0,0,14,0,0,0,50,0,34,0,88,2,0,16,0,26,14,0,0,2,0,0,0,0,0,0,0,0,0,0,0,0,0,12,12,20,8
10,2,22,16,2,26,16,82,28,22,30,30,32,28,32,32,34,36,34,34,34,32,34,24,32,0,0,32,2,0,0,44,0,0,0,0,28,48,0,6,94,0,16,52,0,2,0,2,0,4,0,0,0,6,0,0,0,0,2,0,2,16,18,18
8,2,26,4,22,4,24,78,24,30,28,30,26,36,28,32,32,36,34,34,34,28,34,34,0,0,0,34,6,0,52,6,0,0,44,0,24,0,34,0,96,8,6,0,10,0,0,2,0,0,0,0,0,4,0,0,0,0,0,2,4,10,10,30
12,8,18,8,14,14,38,28,30,28,96,34,30,28,38,34,32,32,34,28,36,34,30,36,0,20,38,0,46,0,2,0,48,0,0,0,0,0,6,96,10,8,6,8,4,0,2,6,2,0,0,0,10,0,0,0,0,0,0,0,0,20,14,18
4,6,0,24,12,28,32,92,32,28,28,30,28,32,30,28,32,32,32,32,36,30,32,34,0,0,0,0,32,42,0,0,0,0,42,0,0,6,0,8,96,4,20,0,0,2,2,0,0,0,0,0,0,0,2,0,0,0,0,2,2,8,6,18
8,8,0,12,6,32,92,30,26,30,32,94,32,30,28,34,30,28,28,32,32,28,32,30,20,0,0,2,32,48,0,0,50,0,0,0,96,2,0,0,0,26,0,0,0,0,0,94,0,0,0,0,0,0,0,0,0,0,0,0,0,6,76,18
4,2,16,10,18,26,86,24,96,32,28,28,34,28,30,32,32,34,32,34,30,34,36,34,0,0,0,4,0,42,6,0,0,0,0,0,0,0,6,2,96,18,0,16,0,2,0,0,0,0,0,0,0,2,0,0,0,0,0,0,6,14,14,14
24,2,2,10,10,28,26,26,24,24,34,30,96,28,32,30,28,32,32,30,32,30,32,32,24,0,0,34,50,0,0,0,0,0,0,0,96,48,24,0,4,0,10,0,0,0,0,0,0,4,0,0,0,0,0,0,0,0,0,2,2,16,10,18
10,6,20,10,8,28,48,26,28,24,28,32,30,94,28,32,34,34,34,34,36,32,34,0,38,24,0,40,2,0,70,0,0,52,0,0,0,96,22,0,18,12,2,0,0,0,0,0,0,0,0,0,0,0,0,0,0,0,0,0,4,20,6,14
0,8,4,10,30,12,34,32,26,62,34,28,32,30,30,32,32,32,32,34,34,34,32,34,0,0,0,24,0,54,0,0,2,0,0,66,0,0,2,6,0,4,8,14,0,4,0,0,0,0,2,0,0,0,0,0,0,2,0,0,6,30,10,16
12,6,2,4,80,10,28,28,26,30,24,20,30,94,30,30,32,34,32,34,34,34,36,32,0,0,0,30,2,64,4,2,0,0,0,46,0,16,4,96,30,2,14,0,96,2,0,0,0,0,4,0,0,0,0,0,0,0,0,4,2,22,16,14
2,6,16,8,22,14,26,26,26,40,92,28,30,28,34,30,36,30,32,36,32,32,30,32,22,0,0,32,0,2,72,0,0,62,0,0,96,0,0,0,2,96,10,0,2,0,0,6,0,0,0,0,0,0,0,0,0,0,2,0,4,16,22,14
16,10,14,8,6,26,30,24,28,24,28,28,34,96,32,30,30,30,36,38,36,34,34,38,0,0,0,32,0,0,0,4,0,0,0,0,0,0,0,12,96,2,2,14,0,2,0,0,0,0,0,0,0,2,0,0,0,0,0,2,6,2,22,16
8,16,14,8,16,56,30,26,32,28,30,30,28,30,94,32,30,32,36,30,32,36,30,36,20,0,0,32,2,0,48,0,0,0,40,0,0,0,42,96,2,2,18,0,0,0,0,0,2,0,0,0,0,0,2,0,0,0,0,0,2,10,14,4
14,10,14,8,10,32,24,94,20,30,28,96,30,28,28,30,28,30,30,36,34,30,32,30,0,0,0,30,2,2,0,0,0,0,56,0,0,0,92,18,4,0,12,0,0,24,0,0,0,0,0,2,0,0,0,0,0,0,0,0,2,24,18,16
12,8,4,6,22,34,24,60,46,26,30,84,30,30,32,32,34,32,30,32,34,34,30,32,0,0,0,38,0,2,0,0,0,0,0,42,0,0,0,26,30,96,2,2,0,0,0,0,0,0,0,0,0,0,2,0,0,0,0,2,0,6,16,16
32,6,28,30,6,24,28,24,24,96,28,38,28,30,34,30,32,32,22,34,24,28,24,28,0,0,0,28,2,0,2,0,62,0,0,0,0,8,96,2,8,4,16,0,6,4,0,0,4,0,0,0,0,0,0,0,0,4,0,2,4,14,12,12
6,2,18,6,26,12,20,20,88,28,28,28,28,30,28,30,34,32,28,22,32,24,36,28,0,0,34,74,0,2,0,0,2,0,0,0,40,44,0,2,14,0,8,0,12,0,0,0,2,0,0,0,0,0,0,0,0,2,0,0,0,24,14,14
16,8,14,22,28,24,94,18,20,28,28,30,28,32,28,32,30,28,34,26,28,24,32,30,0,0,0,30,66,6,0,0,0,0,0,44,0,0,96,0,8,2,2,4,2,0,2,2,0,0,0,0,0,0,2,0,0,0,0,2,2,14,14,10
14,16,8,24,4,20,94,28,32,24,28,24,32,32,32,32,34,34,20,30,30,32,26,32,0,0,0,38,0,0,0,74,0,0,0,36,2,2,0,2,12,96,0,0,0,0,0,0,0,0,0,0,0,0,0,0,4,0,0,0,0,12,10,28
14,24,32,6,0,54,28,18,24,30,30,32,28,28,28,28,30,26,30,32,34,30,30,32,20,0,0,32,0,0,4,68,0,0,40,0,0,96,2,24,0,6,4,10,0,0,0,0,0,0,0,0,0,0,0,6,0,0,2,0,34,6,24,12
6,12,20,6,26,26,28,24,18,74,28,32,26,32,28,26,36,30,34,28,32,32,30,0,32,0,0,38,2,62,0,2,0,0,50,0,0,18,0,24,96,4,0,0,0,0,0,0,0,2,0,0,0,0,8,0,0,0,0,6,20,2,34,16
8,16,10,24,10,26,26,20,96,28,34,28,30,28,28,94,32,32,34,22,32,32,34,34,0,0,0,28,0,0,48,0,2,0,0,0,92,50,20,0,6,0,16,0,0,4,0,0,0,96,0,0,0,0,8,0,0,0,0,0,20,6,12,12
10,6,8,14,34,26,26,20,24,20,28,28,32,30,26,30,30,28,34,34,32,34,34,32,0,0,0,2,30,2,40,0,0,50,0,0,0,34,0,4,10,2,2,96,0,0,0,0,0,0,0,0,0,4,0,8,0,0,0,0,0,18,26,26
10,8,10,14,72,22,20,22,32,96,30,26,28,24,28,32,32,26,30,32,30,30,32,0,32,0,0,32,46,0,0,0,38,2,0,0,60,20,0,2,6,96,2,8,2,0,0,0,80,2,0,0,0,0,6,0,0,0,0,0,4,10,6,8
14,12,8,8,10,24,94,22,20,30,30,28,28,30,96,32,30,30,30,32,32,34,34,30,0,0,0,36,4,64,0,0,50,0,0,48,0,96,26,0,8,14,12,0,2,0,0,2,0,0,0,0,0,0,2,6,0,0,0,6,6,0,16,14
10,8,14,18,8,24,26,24,94,20,28,30,28,32,28,30,30,32,28,28,30,30,30,30,16,0,0,36,0,0,0,64,0,0,24,0,0,38,2,10,2,4,0,16,2,0,0,8,0,0,0,0,0,0,0,0,6,0,0,2,0,14,14,24
14,12,2,18,26,10,30,66,20,22,34,28,94,30,30,30,32,32,32,32,32,32,34,0,30,0,38,0,0,0,2,76,0,0,66,0,0,0,96,0,0,6,2,0,0,0,0,0,0,0,0,0,0,0,0,0,0,0,4,2,0,10,32,22
10,22,8,8,4,26,22,22,96,28,28,26,30,28,28,28,32,32,30,34,34,32,34,36,0,0,34,0,0,20,66,0,0,0,0,0,0,0,24,14,6,26,96,2,2,0,0,2,0,0,4,0,0,0,0,0,0,0,2,0,4,20,8,14
18,6,12,36,14,28,26,68,30,20,32,20,30,96,28,30,28,34,30,30,32,34,30,32,24,0,0,38,2,60,0,2,0,36,0,0,94,0,16,0,34,4,2,0,0,0,0,92,0,0,2,0,0,0,0,0,0,0,0,2,2,28,10,18
8,8,8,34,14,32,22,24,30,22,32,26,32,96,28,30,34,34,32,30,34,34,34,34,0,0,24,28,62,2,0,2,0,50,0,96,0,0,52,0,6,8,6,0,2,0,0,2,0,0,0,0,0,0,0,0,0,0,0,0,6,10,16,28
4,4,2,6,16,28,24,24,20,30,96,30,28,30,28,30,32,30,38,32,38,24,32,32,0,0,28,24,60,0,0,6,0,0,50,0,0,70,0,46,8,96,0,4,0,22,0,0,0,0,2,0,0,0,0,0,0,0,0,2,6,16,20,16
24,10,8,12,24,30,14,26,92,20,94,28,28,30,30,32,32,32,34,30,34,34,34,34,24,0,0,38,2,0,62,0,0,0,0,50,0,92,62,0,6,4,2,28,2,0,0,0,0,4,0,0,0,0,0,0,0,0,0,2,16,4,14,16
16,8,14,0,32,30,24,26,92,28,30,30,28,28,28,26,28,34,36,32,32,32,34,32,28,0,30,0,0,0,64,0,6,32,0,0,0,48,28,10,0,0,0,92,0,0,0,2,0,0,0,0,2,0,0,0,0,0,4,0,2,8,16,8
24,12,52,4,14,32,88,20,24,32,30,28,32,32,28,30,28,34,34,32,32,34,34,34,26,0,0,34,2,0,54,2,0,0,0,0,0,2,0,10,0,0,2,16,94,0,2,0,0,0,0,0,0,0,0,0,0,0,2,4,0,6,14,6
14,92,10,10,26,16,28,24,92,24,28,94,28,32,30,34,30,34,30,32,30,32,32,32,0,0,0,32,66,0,0,0,0,40,0,0,0,48,4,26,4,0,0,0,0,10,0,0,0,0,0,0,0,0,0,0,0,0,0,2,0,12,16,22
10,14,4,24,18,88,30,24,20,26,92,30,28,32,26,30,36,34,36,32,34,32,36,32,0,0,0,38,2,38,0,0,0,0,0,0,64,0,0,2,0,8,0,6,0,0,0,0,96,0,0,0,0,0,0,0,0,0,2,0,6,12,20,12
12,10,88,10,24,24,22,24,24,30,28,26,28,28,30,38,34,30,30,32,30,32,30,32,0,0,0,32,54,0,0,0,0,32,0,0,0,30,32,4,96,2,0,2,20,0,2,2,0,0,2,0,0,0,0,0,0,0,0,0,6,10,24,2
6,10,12,22,8,94,34,28,24,24,32,96,32,30,26,28,32,34,34,34,32,32,34,30,0,0,0,0,0,0,0,0,46,0,0,96,0,36,0,0,4,96,12,0,0,2,2,0,0,0,0,0,0,0,4,0,0,0,0,0,6,10,14,20
38,2,10,26,6,28,24,24,34,26,28,94,30,28,36,30,30,30,30,28,34,38,36,26,34,0,34,0,0,0,0,0,0,0,0,0,44,0,0,24,2,18,2,94,6,0,0,2,0,0,0,0,0,0,0,0,0,0,0,2,2,24,6,18
4,20,10,10,32,20,22,22,22,98,30,32,28,36,30,30,32,30,30,26,32,34,34,34,22,24,2,0,64,0,0,0,2,0,38,0,0,66,4,14,0,96,0,0,2,0,0,0,0,0,4,0,0,0,0,0,0,0,2,2,2,22,16,6
12,14,12,36,6,36,24,30,26,24,30,30,28,34,32,30,32,30,30,34,30,30,32,32,0,0,0,32,2,72,8,0,0,54,0,48,0,96,0,6,0,12,0,8,14,0,0,0,0,0,0,0,0,0,0,0,0,0,0,2,4,10,24,14
18,12,6,26,28,18,20,78,28,22,28,28,28,28,30,30,32,30,30,32,28,32,30,0,32,0,0,0,28,0,24,2,0,34,0,0,0,0,20,0,18,96,0,2,0,0,0,0,0,0,0,0,0,0,0,0,0,0,0,4,4,14,24,0
