12,54,42,48,36,255,66,90,96,90,114,96,255,96,90,84,96,96,96,84,96,78,102,72,102,0,84,0,210,12,0,12,252,0,0,0,102,72,0,12,6,24,6,24,255,6,6,0,0,0,0,0,0,0,0,0,0,0,0,0,30,42,48,132
18,42,42,24,48,66,84,78,255,90,96,102,102,90,96,90,102,102,102,102,126,96,102,102,0,84,0,0,0,0,0,0,114,0,0,96,0,6,42,0,72,6,255,6,0,0,0,0,0,0,0,0,0,0,0,0,0,0,0,0,24,6,36,78
54,24,60,42,54,72,72,72,84,72,96,102,96,96,102,90,108,102,102,84,96,96,90,96,96,60,0,0,0,204,0,0,0,0,0,0,0,180,72,0,0,24,6,6,0,0,0,0,0,0,0,0,0,0,0,0,0,0,0,0,12,18,60,0
48,42,42,48,12,66,66,66,72,90,255,102,96,114,102,102,96,102,102,102,102,102,96,102,84,0,84,0,6,12,144,0,0,0,0,96,0,255,114,12,18,42,0,18,0,0,6,0,0,0,0,0,252,0,0,0,0,0,0,0,18,48,66,48
54,42,42,24,210,78,66,72,255,96,102,96,102,102,102,102,102,108,90,96,108,102,90,72,0,96,0,96,0,126,0,0,0,0,102,0,102,0,0,66,255,42,0,6,30,6,0,0,0,0,0,0,0,0,0,0,0,0,0,0,0,18,36,36
48,18,12,42,24,30,255,42,84,84,102,255,108,96,102,102,96,102,102,108,102,108,96,108,66,0,0,102,0,0,0,24,0,0,255,0,0,54,12,12,12,48,6,12,255,0,0,0,0,0,0,0,0,0,0,0,0,0,0,6,0,30,36,255
42,24,18,24,48,48,90,84,255,84,120,90,96,90,102,108,96,96,108,114,102,96,90,102,0,0,0,186,72,6,138,0,0,0,0,0,0,0,102,0,66,12,255,0,0,0,0,0,0,0,0,0,0,0,0,0,0,0,0,12,0,30,48,60
30,30,36,252,24,54,30,66,72,255,96,96,96,96,96,96,96,96,90,96,96,102,96,0,102,0,0,0,84,198,18,84,0,222,0,0,0,42,24,6,12,0,24,0,12,255,0,0,0,0,0,0,0,0,0,0,0,0,0,0,6,36,30,174
60,24,30,48,24,66,36,255,78,96,108,102,102,114,108,114,102,114,96,102,102,96,102,96,72,0,0,72,0,6,0,18,0,0,0,78,0,0,0,0,12,255,42,6,0,0,0,0,0,0,0,0,0,0,0,0,0,0,0,0,36,18,66,54
60,18,18,36,78,255,252,72,78,78,90,102,96,96,96,90,96,102,114,102,96,102,102,0,96,0,0,108,0,0,0,6,216,0,0,0,174,0,255,18,36,6,0,0,36,6,0,6,0,0,0,6,0,0,0,0,0,0,0,18,0,42,42,48
42,54,48,78,42,66,72,72,114,180,96,96,96,102,96,96,84,102,102,90,84,102,90,96,72,0,0,96,0,0,0,0,0,0,0,0,0,138,66,255,0,0,18,0,0,0,6,18,0,0,0,0,0,0,0,0,0,0,0,0,0,42,30,42
66,66,48,36,72,90,66,72,78,96,90,96,96,96,96,102,96,96,108,96,102,108,96,90,0,0,84,0,0,18,0,0,0,0,0,6,0,108,78,255,6,60,0,6,0,0,0,0,0,0,0,0,0,0,0,0,0,0,0,0,6,48,30,42
18,36,36,12,18,36,72,255,84,96,102,96,96,102,96,102,108,108,102,96,108,102,96,102,60,0,0,108,6,0,66,0,6,0,0,120,0,0,114,12,0,255,0,0,0,30,12,0,0,0,0,0,0,0,0,0,0,0,0,0,6,42,42,42
42,42,48,36,60,36,126,96,78,96,84,255,96,96,102,96,108,102,108,96,96,96,102,84,66,0,0,108,0,168,0,0,6,0,255,102,78,0,84,18,6,6,6,24,255,42,0,0,12,6,0,0,0,0,0,0,0,12,0,18,0,66,42,228
48,54,84,18,60,114,78,255,78,96,96,90,96,120,102,96,102,90,96,96,96,102,102,90,60,0,0,96,0,0,204,18,0,0,144,0,138,96,12,0,6,255,12,18,0,0,0,0,0,0,0,0,0,0,0,0,0,0,0,0,12,54,60,60
18,138,36,78,60,72,78,72,255,84,96,96,108,96,102,102,96,102,108,96,114,96,96,102,0,0,102,0,0,6,18,192,162,0,0,0,0,0,0,0,255,30,6,0,0,0,0,0,6,6,0,0,0,0,0,0,0,0,0,24,0,54,60,60
6,30,18,18,18,18,255,84,84,84,96,90,96,255,102,120,102,114,102,90,108,108,102,102,0,90,78,12,0,0,0,96,0,0,0,120,0,0,6,6,0,60,18,0,0,18,0,0,0,210,0,0,0,0,0,0,0,0,0,6,0,60,36,60
24,48,60,6,42,48,42,180,48,96,102,96,102,102,96,96,102,102,102,108,102,102,114,78,96,0,0,66,6,0,174,0,114,6,0,0,54,0,0,6,72,6,18,12,6,0,0,36,0,0,0,0,0,0,0,0,0,0,0,0,24,48,54,72
42,42,30,60,42,54,255,84,72,96,102,96,96,84,96,255,90,102,108,114,102,102,102,96,0,0,0,102,0,180,0,0,120,6,0,0,48,0,24,30,255,42,18,0,0,12,0,6,0,0,0,0,0,0,0,0,0,0,0,0,18,30,6,66
24,36,30,18,42,36,132,78,84,90,96,255,72,90,84,96,96,108,102,96,96,102,102,78,96,0,102,0,0,144,0,0,0,0,72,0,96,0,255,0,6,6,12,12,0,0,0,6,0,0,0,0,0,0,0,0,0,0,0,6,0,12,60,36
60,18,12,18,42,78,60,66,84,234,96,90,84,90,96,102,102,96,108,96,108,114,96,96,0,0,0,90,12,0,18,144,0,0,0,0,108,0,36,42,255,0,6,0,0,24,0,6,0,0,0,0,0,0,0,0,0,0,0,0,60,12,18,48
30,36,24,42,36,90,66,120,78,96,84,96,102,90,90,102,96,96,96,102,96,90,102,96,0,0,0,72,0,0,0,6,0,0,0,108,6,0,0,72,255,12,42,0,6,0,30,0,6,0,0,0,0,0,0,0,0,0,0,0,30,54,60,60
18,30,192,42,60,48,30,54,66,96,255,96,96,90,90,102,114,96,102,96,102,108,90,102,0,0,0,72,6,150,6,0,0,102,0,0,0,6,114,255,12,0,12,0,24,0,0,0,0,0,0,0,0,0,0,0,0,0,0,0,30,12,12,12
66,30,36,18,72,54,84,78,255,90,90,108,102,102,102,102,96,102,96,102,102,108,108,90,72,0,0,102,0,0,138,0,0,12,0,0,0,12,42,18,255,54,6,0,6,0,0,0,0,0,0,0,0,0,0,0,0,0,0,0,6,30,30,60
30,60,24,60,24,72,66,72,84,84,78,255,96,90,96,102,96,102,102,102,102,102,120,0,96,0,0,90,186,6,0,24,0,0,0,0,0,114,255,6,12,72,42,6,6,0,0,6,0,6,0,0,0,0,0,0,0,0,0,0,24,78,0,60
54,18,6,42,18,42,60,78,255,96,96,126,96,90,96,96,102,78,96,84,84,96,108,96,0,78,96,0,6,0,0,0,0,6,0,0,96,6,0,204,54,255,6,0,0,0,0,0,0,0,0,0,0,0,0,0,0,0,0,6,0,36,36,0
0,12,0,6,24,48,66,72,54,255,90,90,102,96,102,96,96,96,102,96,96,102,96,96,0,72,0,72,0,108,0,114,0,0,0,108,0,138,255,0,60,30,24,0,0,0,0,0,0,0,0,0,0,0,0,0,0,0,0,0,6,42,60,78
12,42,6,18,60,54,66,36,66,255,102,90,90,90,84,90,102,102,96,96,96,90,102,96,72,0,48,18,0,12,12,0,0,0,0,0,0,12,78,48,0,6,12,0,6,0,0,0,0,0,0,0,0,0,0,0,0,0,0,0,6,60,6,36
24,12,24,36,24,42,84,84,78,96,96,255,96,96,90,90,90,102,90,96,102,102,84,90,66,0,0,0,90,66,0,0,0,96,0,0,192,0,6,18,0,255,66,0,6,6,0,6,0,0,0,0,0,0,0,0,0,0,0,18,54,0,48,30
66,42,6,54,66,204,60,72,78,84,255,84,96,108,96,90,102,96,96,96,108,96,90,72,90,0,0,78,0,0,0,0,0,0,0,0,132,108,0,0,6,255,0,12,0,6,0,0,0,6,0,0,0,0,0,0,0,0,0,0,6,42,42,42
24,24,42,186,36,54,54,72,60,84,255,84,90,90,96,102,102,96,96,84,96,96,78,96,96,0,96,0,0,0,0,0,0,0,0,120,0,0,255,12,6,0,96,84,0,12,0,0,0,6,0,0,0,0,0,0,0,0,0,0,6,42,36,96
60,36,36,66,30,72,30,84,255,108,84,90,102,90,102,96,90,96,90,96,96,102,90,78,90,0,84,0,12,6,0,144,0,0,90,0,0,0,36,0,6,6,255,30,84,0,0,246,0,0,0,0,0,0,0,0,0,0,0,0,18,72,42,54
60,66,30,48,60,255,72,42,84,90,84,255,102,96,96,102,96,96,96,102,96,96,84,102,84,0,84,0,120,6,6,0,0,0,0,216,0,0,30,12,0,18,0,0,6,6,18,6,0,0,0,0,0,0,0,0,0,0,0,6,0,48,42,30
12,18,12,18,30,84,78,222,66,72,84,102,96,84,96,96,96,90,102,96,96,96,102,96,78,0,0,96,84,6,0,0,0,0,0,90,0,0,0,84,0,12,18,0,6,12,0,0,0,0,0,0,0,0,0,0,0,0,0,30,0,18,60,42
30,12,18,84,30,54,42,255,66,72,84,96,96,96,108,96,108,102,90,102,90,96,96,96,0,0,0,72,6,6,210,0,6,0,0,0,0,126,0,0,42,0,0,255,0,0,0,0,0,0,0,0,0,0,0,0,0,0,0,6,0,30,24,66
66,6,30,108,54,48,24,78,48,255,96,90,114,96,96,96,90,96,90,102,96,96,78,96,66,0,0,12,84,0,6,42,0,0,6,0,0,84,84,255,0,18,0,18,0,0,24,0,6,0,0,0,0,0,0,0,0,0,0,12,0,42,0,30
54,18,48,24,54,84,78,210,72,96,78,84,255,96,90,96,108,102,102,114,114,96,108,102,0,24,0,84,0,18,0,228,0,0,96,0,0,0,255,42,6,6,0,18,0,0,0,0,0,0,0,0,0,0,0,0,0,0,0,0,42,6,18,60
54,42,0,6,30,54,78,66,126,84,72,96,96,90,96,102,90,90,90,102,96,90,102,108,0,78,0,6,102,180,0,0,0,108,0,0,0,0,84,72,24,6,24,30,0,0,0,0,0,0,0,0,0,0,0,0,0,0,0,0,24,6,42,48
48,12,54,72,36,192,60,60,84,72,102,102,96,96,102,96,102,90,84,108,96,102,90,96,0,0,6,0,72,0,0,0,0,114,192,66,0,0,60,0,24,18,24,0,12,255,0,6,0,0,0,0,0,0,0,0,0,0,0,0,18,36,60,255
60,12,30,36,54,30,78,255,78,66,84,90,108,96,90,90,96,84,90,96,84,90,84,84,66,0,96,12,0,0,6,0,72,0,0,0,60,30,0,6,0,255,18,6,36,0,0,0,0,0,0,0,0,0,0,0,0,0,0,0,6,60,60,24
24,114,36,0,72,42,72,78,78,255,96,84,96,102,90,90,102,96,96,90,102,90,96,72,96,0,0,84,6,0,0,0,0,0,6,0,90,60,0,255,30,18,6,0,6,0,0,6,0,0,0,0,0,0,0,0,0,0,0,0,18,36,30,42
30,18,60,18,36,72,72,72,78,72,84,96,255,90,96,90,96,96,102,90,90,102,90,72,84,0,0,6,96,0,78,0,0,0,0,0,96,0,18,12,24,60,6,0,6,255,0,0,0,0,0,0,0,0,0,0,0,0,0,0,246,24,66,48
30,30,24,12,72,66,255,72,60,84,84,90,90,102,96,96,90,84,84,102,84,96,96,114,84,0,0,90,162,0,0,0,0,150,108,0,132,66,0,6,60,30,6,255,0,0,0,0,0,0,0,0,0,0,0,0,0,0,0,0,6,66,18,54
66,42,6,12,30,72,72,78,72,246,90,96,102,96,90,90,90,84,84,78,90,96,84,60,84,0,72,0,0,0,138,108,0,0,0,0,0,255,96,90,6,30,48,0,60,0,0,0,0,0,0,0,0,0,0,0,0,0,0,0,12,66,60,66
84,36,36,48,66,72,66,72,246,90,78,90,96,84,96,255,96,90,90,96,78,96,84,72,0,90,0,72,0,30,6,0,0,0,0,255,138,0,42,84,30,0,0,24,0,6,0,0,255,0,0,0,0,0,0,0,0,0,0,18,6,6,114,60
6,36,18,18,60,30,255,78,78,90,84,72,96,96,84,96,96,84,102,90,96,90,96,96,0,0,72,96,0,156,6,0,114,120,0,0,66,0,0,6,255,18,0,0,0,6,0,0,0,0,0,0,0,0,0,0,0,0,0,0,6,36,42,42
24,18,66,24,36,42,54,90,255,90,72,90,96,90,96,96,84,96,90,96,78,90,102,96,0,72,0,114,6,0,168,12,0,0,0,0,0,60,0,0,0,255,66,6,0,0,0,0,0,0,0,0,0,0,0,0,0,0,0,0,48,6,30,54
48,60,0,42,246,54,102,72,84,66,255,96,90,96,96,90,90,96,90,84,72,84,84,78,96,0,0,96,0,0,0,0,0,0,0,84,84,0,0,255,24,60,24,66,0,0,0,0,0,0,0,0,0,0,0,0,0,0,0,0,6,36,54,48
24,48,36,18,54,72,96,66,72,84,255,102,84,84,96,90,102,84,90,78,90,84,102,84,90,72,0,0,0,0,6,0,0,0,0,0,6,54,0,48,0,60,0,18,0,0,0,0,0,0,0,0,0,0,0,0,0,0,0,0,12,42,18,72
42,18,30,24,66,66,60,234,72,84,84,255,84,96,90,102,90,84,84,84,78,84,90,84,0,0,0,90,6,6,0,0,0,0,0,0,255,72,0,30,18,6,0,0,246,0,0,0,0,6,0,0,0,0,0,0,0,0,0,0,18,0,18,18
