21,18,15,27,15,51,33,33,57,141,48,51,48,45,45,48,42,48,42,42,42,42,45,39,48,0,0,48,0,0,0,0,30,0,0,42,0,0,24,18,144,0,0,3,21,0,0,0,0,0,0,0,0,0,0,0,0,0,0,0,0,12,0,21
0,0,0,21,15,24,12,135,42,36,48,42,48,48,48,45,45,48,54,45,45,42,48,30,42,0,0,0,36,105,0,12,0,0,0,0,0,51,30,36,0,144,0,54,24,0,0,3,12,0,0,0,0,0,0,0,0,0,0,0,0,15,24,18
15,6,3,0,21,27,141,129,36,48,42,42,42,45,48,42,39,42,48,42,42,45,48,48,0,0,0,57,72,0,0,24,3,0,0,0,0,54,12,0,3,33,6,6,0,0,0,0,0,0,0,0,0,0,0,0,0,0,0,0,3,18,18,24
15,21,24,99,15,0,36,36,33,36,51,144,39,42,48,45,48,45,42,48,48,45,42,39,39,0,51,0,0,12,0,0,0,0,0,0,0,48,9,144,12,9,3,0,0,0,6,0,9,0,0,0,0,0,0,0,0,0,0,0,0,15,21,21
21,24,3,9,15,42,36,30,51,45,42,39,45,48,54,48,45,48,42,45,39,42,48,42,33,0,0,45,0,0,72,0,0,0,0,0,45,69,24,0,6,144,12,18,0,0,3,0,0,0,0,0,0,0,0,0,0,0,0,3,0,21,27,24
15,0,9,15,21,96,33,36,39,144,42,45,42,39,45,45,42,45,48,51,45,45,42,39,30,0,0,42,0,108,3,0,0,0,0,63,0,69,0,144,6,3,6,0,15,0,0,0,0,0,0,0,0,0,0,0,0,0,0,0,0,21,15,24
21,18,18,6,18,24,102,48,45,48,144,30,48,45,48,45,45,48,48,42,48,45,45,45,48,0,0,48,3,3,0,0,0,0,0,105,144,48,0,3,42,9,6,21,0,3,0,0,0,0,0,0,0,0,0,0,0,0,0,0,0,24,18,42
3,18,27,6,33,42,45,36,42,108,42,45,45,42,51,48,51,48,42,51,48,51,48,42,36,0,0,0,54,84,0,0,0,0,66,0,0,6,36,144,6,0,3,0,15,0,0,0,0,0,0,0,0,0,0,0,0,0,0,0,0,42,30,15
12,36,18,15,3,15,42,39,45,42,42,48,51,48,48,45,48,42,48,42,45,45,48,51,48,0,0,15,30,0,0,3,0,0,0,54,0,0,36,6,30,3,12,0,0,0,0,0,0,0,0,0,0,0,0,0,0,0,0,0,0,9,24,27
24,111,21,15,33,75,42,45,138,45,45,42,48,48,51,51,42,45,45,48,54,48,48,42,0,0,0,3,51,42,0,0,0,0,57,0,36,0,0,0,27,42,0,144,0,0,0,0,9,0,0,0,0,0,0,0,0,0,0,0,0,18,0,21
15,18,0,12,21,42,45,24,144,39,45,36,42,33,39,42,45,39,48,48,42,42,45,48,36,0,0,42,0,0,0,0,0,0,0,0,48,0,3,0,21,0,144,0,0,0,0,0,0,0,0,0,0,0,0,0,0,0,0,0,0,21,18,15
21,18,39,30,27,126,39,36,39,144,45,42,45,51,45,51,48,45,51,51,45,57,48,30,48,54,0,0,0,3,93,0,0,0,0,0,42,0,6,144,9,15,0,3,0,9,0,0,0,0,0,0,0,0,0,0,0,0,0,21,0,0,18,30
18,21,9,6,48,30,39,120,30,42,48,45,42,42,45,42,48,48,48,48,42,42,36,48,0,45,33,0,3,0,51,0,0,0,42,0,90,3,0,0,138,21,0,9,15,0,0,6,0,0,0,0,0,0,0,0,0,0,0,0,3,30,27,21
36,33,9,75,24,24,39,39,45,39,141,36,42,45,45,45,39,42,48,42,48,51,36,45,0,0,0,48,0,93,0,0,57,0,0,0,0,75,141,6,6,0,21,0,0,0,12,3,0,0,0,0,0,0,0,0,0,0,0,0,6,12,33,21
3,21,9,12,27,21,27,126,27,42,42,42,48,45,42,48,48,48,42,45,39,42,42,45,30,0,0,36,0,3,0,0,54,0,0,0,48,0,0,144,3,24,9,0,0,0,0,0,0,0,0,0,0,0,0,0,0,0,0,0,0,21,33,21
15,21,21,36,45,30,39,90,33,42,42,48,36,117,48,51,42,42,42,42,42,48,48,45,33,0,0,54,0,78,0,0,141,0,51,0,93,24,0,0,6,0,15,0,12,144,0,0,0,0,0,0,0,0,0,0,0,0,0,0,12,12,39,144
12,9,9,24,27,33,33,42,144,45,36,42,42,45,39,39,42,45,45,45,45,45,45,48,0,36,0,36,0,6,60,0,0,3,0,0,0,0,0,27,144,9,9,0,9,0,0,0,6,0,0,0,0,0,0,0,0,0,0,0,48,0,39,0
0,3,9,21,12,39,105,30,42,36,48,144,42,45,42,45,42,51,39,45,51,51,45,45,30,0,0,57,0,0,36,0,0,0,141,72,0,0,0,0,6,3,3,9,0,21,0,0,0,0,0,0,0,0,0,0,0,0,0,0,3,18,30,18
18,21,21,30,12,36,39,33,33,51,144,36,48,42,45,48,45,48,48,48,48,51,45,48,0,0,0,51,93,0,0,0,0,51,0,0,0,39,0,0,0,0,6,3,0,0,144,3,0,0,0,0,0,0,0,0,0,0,0,0,0,75,12,12
36,18,15,6,36,144,36,36,42,39,36,36,48,144,39,48,48,42,42,39,48,42,45,48,0,33,0,45,0,96,3,69,87,0,0,0,0,144,30,0,9,42,21,3,0,0,0,0,0,0,0,0,0,0,0,0,0,0,0,3,0,21,9,36
18,15,6,18,75,18,21,33,36,144,39,39,36,36,39,39,36,36,42,42,45,42,45,39,0,0,0,45,51,0,0,0,0,18,0,0,0,48,0,12,0,21,21,0,0,0,0,0,3,0,0,0,0,0,0,0,0,0,0,0,0,15,15,21
27,30,24,15,27,39,39,39,39,36,144,48,42,42,42,45,45,48,45,51,36,45,45,48,30,0,0,57,3,30,9,0,0,0,45,0,0,0,69,0,0,15,9,0,27,0,0,0,0,0,0,0,0,0,0,0,0,0,0,0,21,3,30,33
0,21,0,3,18,24,45,36,30,72,51,48,33,39,144,48,45,42,48,45,45,45,48,51,36,0,0,0,48,27,63,36,0,0,0,51,0,0,144,0,24,42,0,6,0,0,0,0,0,0,0,0,0,0,0,0,0,0,0,0,0,6,15,24
6,9,18,24,15,21,30,39,42,42,42,51,42,45,48,45,48,39,48,45,45,42,39,33,45,0,0,45,0,0,0,36,0,0,0,0,15,0,51,3,3,144,0,0,0,0,0,0,0,0,0,0,0,0,0,0,0,0,0,0,0,21,18,30
18,33,36,42,30,54,27,30,69,42,33,144,48,39,42,48,42,42,42,42,42,45,45,0,45,0,0,48,0,0,0,0,0,0,0,0,0,60,63,0,9,0,0,3,0,0,0,0,0,0,0,0,0,0,0,0,0,0,0,0,0,15,21,33
21,30,21,27,42,9,36,33,48,141,42,42,42,45,39,39,45,39,42,42,45,42,48,48,57,30,0,0,3,75,0,0,0,0,0,78,0,0,0,0,3,3,21,9,0,0,0,0,0,0,0,0,0,0,0,0,0,0,3,0,0,15,24,15
15,27,27,33,12,30,36,123,33,39,42,39,48,117,45,48,48,42,45,36,51,42,48,30,33,0,39,0,0,99,0,0,0,0,0,0,141,0,48,0,9,0,0,9,0,0,0,0,0,0,0,0,0,0,0,0,0,0,0,0,0,18,21,24
0,15,12,15,21,21,21,15,36,42,45,45,36,39,42,39,42,42,45,48,42,42,30,42,42,0,36,0,0,108,15,0,0,60,0,0,0,0,144,0,48,6,0,6,0,0,3,0,0,3,0,0,0,0,0,0,0,0,0,0,0,12,15,3
15,27,30,6,36,21,126,36,33,36,45,141,48,45,48,48,45,42,42,45,42,36,48,30,39,0,0,0,48,99,0,0,0,0,0,57,0,0,144,3,0,21,3,0,0,3,3,0,0,0,0,0,0,0,0,0,0,0,0,0,0,15,21,21
15,3,9,18,36,21,45,93,42,39,30,45,33,39,42,42,42,45,42,39,42,48,48,39,30,0,63,0,111,0,0,75,0,57,0,0,0,0,6,39,9,9,0,0,0,0,0,0,0,0,0,0,0,0,0,0,0,0,0,0,0,27,0,0
0,6,0,12,21,36,24,39,27,144,39,45,42,45,45,42,42,39,48,45,45,45,45,42,39,0,0,42,0,0,0,102,0,0,0,0,0,0,18,0,0,3,6,9,0,3,9,0,0,0,0,0,0,0,0,0,0,0,0,0,0,15,21,18
24,21,3,33,36,39,30,27,39,144,36,45,42,42,42,48,48,45,42,36,48,42,42,42,0,0,0,54,3,15,0,0,0,3,0,57,0,75,3,39,9,0,144,0,15,9,0,21,0,0,0,0,0,0,0,0,0,0,0,0,15,21,21,15
24,12,6,60,15,21,33,48,144,39,42,42,45,42,42,39,48,48,39,39,48,45,45,0,42,30,0,30,9,21,3,0,0,0,45,0,0,0,144,27,6,12,30,0,0,0,0,0,0,0,0,0,0,0,0,0,0,0,3,0,9,30,24,24
21,24,24,30,9,30,111,36,39,48,42,36,39,45,36,42,42,39,144,39,42,42,39,39,48,0,0,48,0,30,0,0,66,0,129,0,33,60,0,0,24,3,6,0,144,0,0,0,0,0,0,0,0,0,0,0,0,0,0,9,0,0,21,111
30,15,21,3,33,24,39,30,42,42,39,45,141,45,36,45,54,48,45,51,42,45,45,48,0,45,0,0,0,3,0,45,0,0,0,0,30,144,0,54,0,15,3,0,0,6,0,0,0,0,0,0,0,0,0,144,0,0,0,0,21,0,33,30
21,18,24,21,24,45,45,144,33,42,48,48,39,42,51,51,45,42,45,51,48,48,45,48,30,0,0,48,0,90,9,0,3,54,0,0,0,27,9,3,0,144,36,0,0,0,0,0,0,0,0,0,0,0,0,0,0,0,0,0,0,45,36,21
3,6,9,36,21,30,42,42,144,36,36,42,39,39,42,39,39,42,42,39,51,48,45,42,0,0,0,0,60,0,102,0,0,0,57,60,0,0,33,9,0,12,0,144,0,24,0,0,0,0,0,0,0,0,0,0,0,0,0,0,12,0,24,36
69,36,24,30,33,24,33,39,144,42,42,42,36,42,39,42,39,42,45,45,42,45,42,42,0,30,0,63,48,0,0,0,9,0,0,0,0,42,0,30,0,144,0,0,6,0,0,0,0,0,0,0,0,0,0,0,0,0,0,0,0,9,30,21
9,21,0,18,9,18,39,24,42,48,144,33,42,45,48,48,57,51,42,36,48,51,42,42,30,0,0,24,39,42,3,3,0,0,0,0,42,48,144,6,27,0,3,0,0,0,0,0,0,0,0,0,0,0,0,0,0,0,0,0,6,33,0,30
6,24,21,3,30,39,42,36,102,36,36,48,48,48,138,48,51,42,42,45,45,48,45,54,0,42,0,57,3,0,0,0,0,0,0,0,48,0,144,9,0,0,21,0,21,0,0,0,0,0,0,0,0,0,0,0,0,0,0,0,12,6,21,18
18,27,12,9,39,36,21,39,42,36,36,36,42,33,144,39,36,45,36,39,42,45,39,0,42,0,0,48,3,78,0,141,0,0,75,0,0,0,6,24,6,18,51,0,0,144,0,0,0,3,9,0,0,0,0,0,0,0,3,0,0,21,141,21
21,15,39,15,30,30,9,144,42,45,51,42,36,45,36,39,36,42,45,42,45,45,45,51,0,33,42,0,0,78,0,0,0,57,0,0,0,138,0,21,18,3,12,0,0,0,0,75,0,0,0,0,0,0,0,0,0,0,0,0,0,18,18,24
51,18,9,12,36,144,33,36,36,42,39,39,33,36,36,144,36,39,42,42,39,42,39,30,42,0,0,0,57,105,3,0,0,63,0,0,0,144,69,0,0,21,6,6,0,0,0,0,0,0,0,0,0,0,138,0,0,0,0,21,6,0,21,42
6,9,3,18,3,27,18,36,42,42,42,120,51,48,45,51,51,51,45,45,42,42,51,45,42,0,0,39,0,0,0,0,0,0,0,51,0,21,141,0,36,15,0,0,0,144,3,0,0,0,0,6,0,0,0,0,0,0,3,0,0,15,21,24
6,6,3,21,12,36,36,42,42,39,42,42,141,39,42,36,42,39,42,39,45,42,39,42,0,21,0,0,51,66,0,0,0,57,0,0,144,66,0,0,0,3,9,0,0,9,0,0,3,0,0,0,0,0,0,6,0,0,0,15,0,0,18,0
9,15,3,36,33,45,18,42,45,141,42,36,33,33,36,45,42,48,45,36,48,51,45,42,0,0,0,51,0,0,0,0,69,0,0,0,72,0,0,45,144,0,6,3,3,0,0,0,0,0,0,0,0,0,0,9,0,0,0,0,6,21,18,30
3,21,3,21,15,18,48,141,39,48,42,48,48,144,48,51,48,48,48,51,45,42,42,39,48,0,0,42,0,3,0,78,0,0,0,0,24,33,144,0,0,0,0,3,0,0,12,0,0,0,0,0,0,0,0,3,0,0,0,0,12,9,18,30
3,9,24,15,15,39,30,33,45,39,48,144,51,36,48,48,54,42,51,48,51,48,45,42,0,0,0,30,0,0,42,0,3,0,0,60,0,0,15,0,144,6,9,0,0,6,0,0,0,0,0,0,0,0,0,0,0,0,0,0,18,0,24,15
24,24,18,9,24,24,39,30,36,42,42,48,45,45,48,51,51,48,45,51,45,48,0,39,42,42,0,45,0,3,0,0,0,42,0,0,63,0,0,24,12,3,144,0,0,0,0,3,0,0,0,0,9,0,0,0,0,0,0,0,3,21,24,21
30,24,24,0,33,24,42,36,45,42,42,51,45,42,36,36,48,48,48,48,48,48,51,42,45,0,0,48,0,93,0,0,0,0,0,60,0,48,3,144,0,0,0,9,0,0,0,0,0,0,0,0,0,0,0,0,0,0,3,0,0,27,15,24
