8,36,32,28,24,180,44,60,76,64,60,188,64,60,64,56,64,64,56,64,64,52,68,68,48,0,0,56,8,0,140,0,8,68,168,0,0,0,48,8,4,4,16,16,192,4,0,4,0,0,0,0,0,0,0,0,0,0,0,0,28,20,32,88
12,28,28,44,16,32,56,192,52,60,64,68,68,60,60,64,68,68,68,68,84,64,68,0,68,0,0,56,0,0,0,76,0,0,0,0,64,4,0,28,4,48,192,0,0,4,0,0,0,0,0,0,0,0,0,0,0,0,0,0,4,16,24,52
36,16,40,28,36,48,48,48,56,48,68,64,64,68,64,60,68,72,64,68,56,64,60,64,0,0,40,0,64,136,0,0,0,0,0,0,0,120,48,0,16,0,4,4,0,0,0,0,0,0,0,0,0,0,0,0,0,0,0,12,8,0,0,40
32,28,8,28,32,44,44,44,48,60,192,68,64,68,68,76,68,64,68,68,68,68,68,64,56,0,0,56,8,4,96,0,0,0,0,0,64,188,76,8,12,12,28,0,0,0,4,0,0,0,0,0,168,0,0,0,0,0,0,0,12,32,44,32
28,36,28,140,16,52,44,48,192,68,64,64,68,68,68,68,68,72,60,64,60,64,72,48,68,0,0,84,64,0,0,0,0,0,0,68,68,44,0,192,0,0,28,4,4,0,20,0,0,0,0,0,0,0,0,0,0,0,0,0,0,24,12,24
8,32,12,28,16,20,28,56,56,180,68,192,72,64,68,64,68,68,68,68,72,64,72,72,0,44,0,68,0,0,0,0,16,192,0,0,0,36,8,8,8,8,32,4,192,0,0,0,0,0,0,0,0,0,0,0,0,0,0,0,4,20,184,24
16,28,16,12,32,32,56,60,192,60,56,80,64,60,68,72,64,64,72,64,68,76,60,68,0,0,0,48,4,124,92,0,0,0,0,0,0,0,68,0,192,44,8,0,0,0,0,0,0,0,0,0,0,0,0,0,0,0,0,0,8,32,20,40
20,20,16,24,36,168,48,20,44,64,64,188,64,64,64,64,64,60,64,64,64,64,68,68,0,0,0,56,0,132,0,56,0,148,12,0,0,28,8,16,4,8,0,16,176,0,0,0,0,0,0,0,0,0,0,0,0,0,0,4,0,20,24,116
16,40,20,16,32,44,24,192,52,64,72,68,76,68,76,76,68,72,68,68,64,64,68,64,48,0,0,48,0,4,0,0,12,0,52,0,0,0,0,8,28,0,4,192,0,0,0,0,0,0,0,0,0,0,0,0,0,0,0,12,0,24,44,36
40,12,12,24,168,48,52,52,176,52,60,64,68,64,64,60,68,64,76,68,68,64,68,64,0,0,0,72,0,0,4,0,144,0,0,0,116,188,0,12,24,0,4,4,24,0,0,4,0,0,0,4,0,0,0,0,0,0,0,0,12,28,28,32
28,36,32,52,28,48,44,48,120,76,64,64,64,64,68,64,68,56,56,60,68,68,60,64,48,0,0,64,0,0,0,0,0,0,0,0,0,92,44,0,188,12,0,0,0,0,12,4,0,0,0,0,0,0,0,0,0,0,0,0,0,20,28,28
32,44,24,44,44,48,60,48,52,64,64,64,60,64,64,68,64,64,72,64,68,64,72,60,0,0,0,0,56,12,0,0,0,0,0,4,0,72,192,52,40,0,4,4,0,0,0,0,0,0,0,0,0,0,0,0,0,0,0,0,4,32,20,28
12,8,24,12,24,24,48,56,184,64,68,64,68,68,64,64,72,72,64,68,72,64,68,40,0,68,0,72,4,44,0,0,0,4,0,80,0,0,76,8,192,0,0,0,0,20,8,0,0,0,0,0,0,0,0,0,0,0,0,0,28,4,28,28
28,28,32,24,84,40,24,64,52,56,64,192,64,64,68,68,64,72,64,68,72,64,64,44,56,0,72,0,0,4,112,0,0,0,188,0,68,52,12,56,4,4,16,4,192,28,0,0,0,8,4,0,0,0,0,0,0,0,8,0,28,12,44,152
36,56,32,12,76,40,52,192,52,64,64,60,64,68,80,60,68,64,64,64,64,68,68,60,40,0,0,64,0,0,136,12,0,96,0,0,92,0,8,8,64,192,4,12,0,0,0,0,0,0,0,0,0,0,0,0,0,0,0,0,8,40,36,40
12,24,92,52,40,48,52,48,56,64,192,64,64,72,68,68,68,72,64,64,76,64,64,68,0,0,0,68,4,0,12,108,128,0,0,0,0,0,0,0,20,192,4,0,0,0,0,4,0,4,0,0,0,0,0,0,0,0,0,16,36,0,40,40
20,4,12,12,12,12,188,56,56,56,64,60,64,192,68,80,68,60,76,72,68,72,68,68,60,0,0,52,0,8,0,0,64,0,80,0,0,0,4,4,0,40,0,12,0,0,12,140,0,0,0,0,0,0,0,0,0,0,0,0,24,4,40,40
16,40,32,4,28,32,28,32,120,68,64,64,68,68,64,64,68,68,72,68,68,68,76,52,64,0,0,4,44,116,0,0,0,4,76,0,0,36,4,0,48,4,8,12,0,4,24,0,0,0,0,0,0,0,0,0,0,0,0,0,16,32,36,48
28,28,20,40,28,56,36,184,64,48,68,64,56,64,64,68,184,68,60,72,68,0,76,68,64,0,0,0,68,120,0,4,0,0,80,0,32,0,20,192,16,0,12,28,0,8,0,4,0,0,0,0,0,0,0,0,0,0,0,0,12,20,44,4
16,20,12,28,24,24,88,52,56,48,192,60,64,60,56,68,64,72,64,64,64,68,68,64,52,0,0,0,96,68,0,0,0,0,48,0,0,64,192,4,4,0,8,8,0,4,0,0,0,0,0,0,0,0,0,0,0,0,24,0,0,4,8,40
40,8,12,12,28,40,52,44,156,56,60,64,60,56,64,68,68,72,64,64,72,64,76,0,64,0,0,8,60,12,96,0,0,0,0,0,72,0,28,24,0,192,4,0,16,0,4,0,0,0,0,0,0,0,0,0,0,0,0,0,12,8,40,32
20,28,24,24,16,80,60,44,52,56,64,68,64,60,68,60,64,64,64,68,64,60,68,0,64,0,0,48,0,4,0,0,0,0,0,72,0,4,48,0,8,188,0,28,4,20,0,4,0,0,0,0,0,0,0,0,0,0,0,0,20,36,40,40
20,12,128,28,32,40,36,64,20,44,172,64,64,60,60,68,64,76,68,68,60,64,0,72,68,0,0,48,100,4,0,0,4,68,0,0,76,0,4,192,8,8,0,0,16,0,0,0,0,0,0,0,0,0,0,0,0,0,0,0,8,20,8,8
20,24,44,12,48,36,56,52,192,60,72,68,60,68,64,68,68,68,68,64,72,48,72,0,68,60,68,0,0,0,92,0,0,8,0,0,8,0,28,12,192,36,4,0,4,0,0,0,0,0,0,0,0,0,0,0,0,0,0,0,4,20,20,40
40,20,40,16,16,44,48,52,48,56,180,56,64,60,64,64,68,68,68,68,68,80,68,64,0,0,0,60,16,4,124,0,0,0,0,76,0,0,192,4,8,4,28,48,4,0,0,4,0,4,0,0,0,0,0,0,0,0,0,0,16,0,52,40
36,4,12,12,28,40,28,188,64,64,52,84,60,64,64,64,68,64,52,56,56,64,72,64,52,0,0,4,64,0,0,0,4,0,0,64,0,4,136,0,36,192,4,0,0,0,0,0,0,0,0,0,0,0,0,0,0,0,0,0,4,24,24,0
0,0,8,16,4,44,32,36,48,60,188,60,64,68,68,64,64,64,68,64,68,64,64,64,48,0,0,48,72,0,0,0,76,0,0,72,0,0,92,192,40,20,16,0,0,0,0,0,0,0,0,0,0,0,0,0,0,0,0,0,4,28,52,40
8,28,4,12,36,40,24,44,44,188,68,60,60,60,60,56,68,64,68,64,64,60,68,48,64,0,0,12,32,8,8,0,0,0,0,0,52,8,32,0,0,4,4,8,0,0,0,0,0,0,0,0,0,0,0,0,0,0,0,0,4,40,4,24
16,16,8,16,52,24,28,56,56,64,64,64,184,64,60,60,60,68,60,68,64,56,68,60,44,0,0,0,60,44,0,0,64,0,0,0,0,128,12,4,192,0,44,0,4,0,4,0,4,0,0,0,0,0,0,0,0,0,0,0,36,12,20,32
28,4,44,36,136,40,44,52,48,56,192,72,64,56,60,64,64,68,64,64,64,60,72,60,0,48,0,52,0,0,0,0,0,0,0,0,88,72,0,0,192,4,0,0,8,4,0,4,0,0,0,0,0,0,0,0,0,0,0,0,28,4,28,28
16,16,28,24,124,36,36,48,40,56,188,60,60,64,56,56,68,68,64,64,64,64,64,64,52,0,0,64,0,0,0,0,0,0,80,0,0,4,0,8,192,0,64,0,56,0,8,0,0,0,4,0,0,0,0,0,0,0,0,4,0,24,28,64
24,40,24,44,20,48,20,56,60,176,72,56,60,68,64,68,60,60,64,64,64,68,60,60,52,0,0,8,56,4,0,96,0,0,0,0,0,60,0,24,4,192,56,20,4,0,0,164,0,0,0,0,0,0,0,0,0,0,0,0,12,48,28,36
40,44,20,32,40,180,28,48,56,188,60,64,56,64,68,68,64,64,64,68,56,64,64,56,68,0,0,56,4,80,0,0,4,0,0,144,0,0,20,8,0,12,0,4,0,4,12,4,0,0,0,0,0,0,0,0,0,0,0,0,4,28,20,32
8,8,12,20,12,52,148,56,44,68,48,56,64,56,64,64,64,60,64,64,68,64,64,68,52,0,64,0,4,0,56,0,0,0,0,60,0,0,0,56,0,12,8,0,4,8,0,0,0,0,0,0,0,0,0,0,0,0,0,0,12,20,28,40
20,12,8,20,56,28,36,48,192,44,56,64,64,64,64,72,72,68,68,60,60,64,64,0,64,0,0,48,4,4,140,0,4,0,0,0,0,0,84,0,28,192,0,0,0,0,0,0,0,0,0,0,0,0,0,0,0,0,0,0,4,20,44,16
4,44,20,32,72,16,36,32,52,192,64,60,64,76,64,64,60,64,64,60,68,52,64,44,64,0,0,8,56,0,4,28,4,0,0,56,0,0,56,184,0,12,12,0,0,16,0,4,0,0,0,0,0,0,0,0,0,0,0,0,0,28,8,20
36,12,32,16,56,36,140,48,52,52,64,56,192,64,72,60,68,64,68,64,76,76,72,68,16,0,56,0,12,152,0,0,0,0,64,0,0,28,0,192,4,4,12,0,0,0,0,0,0,0,0,0,0,0,0,0,0,0,0,4,0,28,12,40
36,28,0,4,20,44,36,84,52,48,56,64,64,64,68,60,60,60,68,60,64,68,60,72,0,52,0,68,4,120,0,0,0,0,72,0,0,0,48,56,16,4,16,0,20,0,0,0,0,0,0,0,0,0,0,0,0,0,0,0,4,16,32,28
32,36,8,48,128,40,24,40,48,56,68,64,64,68,68,68,60,64,64,72,60,56,68,0,64,0,0,48,0,4,0,128,0,0,76,44,0,0,0,40,16,16,12,8,0,0,192,4,0,0,0,0,0,0,0,0,0,0,0,0,12,24,40,176
40,8,20,24,36,52,20,192,44,52,56,60,72,60,64,60,56,64,56,60,64,60,56,56,0,44,0,8,64,0,4,0,0,48,0,40,0,0,20,0,192,4,12,24,4,0,0,0,0,0,0,0,0,0,0,0,0,0,0,0,4,40,16,40
16,24,0,76,48,48,28,52,52,192,64,56,64,68,60,60,68,64,64,60,68,64,60,64,48,0,0,56,0,4,0,0,0,4,0,0,40,60,0,192,20,0,12,4,4,0,0,4,0,0,0,0,0,0,0,0,0,0,0,12,0,24,20,28
12,20,40,12,24,48,48,48,52,48,192,64,56,60,60,64,64,64,68,60,68,60,60,56,0,48,0,64,4,0,0,0,0,0,52,0,0,64,12,16,8,40,0,4,4,192,0,0,0,0,0,0,0,0,0,0,0,0,0,0,16,44,164,32
20,20,8,16,44,48,188,48,40,56,56,60,60,68,64,60,64,56,56,68,56,64,64,76,0,56,60,0,0,108,0,0,100,0,72,0,0,88,44,4,20,40,192,0,0,4,0,0,0,0,0,0,0,0,0,0,0,0,0,0,4,36,44,12
44,4,28,8,20,48,48,48,52,60,164,64,64,60,68,60,60,56,52,60,56,64,56,56,40,0,48,0,0,72,0,92,0,0,0,0,64,0,20,60,192,4,40,32,0,0,0,0,0,0,0,0,0,0,0,0,0,0,0,8,44,0,40,44
24,56,24,44,44,32,48,48,164,52,60,60,56,64,192,64,64,60,60,64,52,64,56,60,48,0,0,48,0,4,0,20,0,0,0,192,92,0,28,20,56,0,0,16,4,0,0,0,192,0,0,0,0,0,0,0,0,0,0,4,12,4,76,40
4,24,12,12,40,20,52,192,52,48,56,60,64,64,56,64,68,56,64,60,60,64,64,64,48,0,0,0,64,0,104,4,80,0,76,0,44,188,0,0,4,12,0,0,0,4,0,0,0,0,0,0,0,0,0,0,0,0,0,0,24,4,28,28
44,16,24,12,16,28,36,188,48,60,60,60,60,64,64,64,56,60,64,64,52,60,68,64,48,76,0,0,4,112,0,0,0,8,0,0,0,40,0,0,0,192,4,44,0,0,0,0,0,0,0,0,0,0,0,0,0,0,0,0,32,20,4,36
32,0,40,28,164,36,68,48,56,44,64,192,64,64,60,64,60,60,60,56,48,56,64,56,52,0,0,0,0,64,0,0,0,0,0,56,56,0,0,192,16,40,16,0,44,0,0,0,0,0,0,0,0,0,0,0,0,0,0,0,4,36,32,24
32,16,24,12,36,48,64,48,44,192,56,56,56,68,64,68,60,60,56,52,60,56,60,48,68,56,0,0,0,4,0,0,0,0,0,0,4,36,0,32,40,12,0,0,0,0,0,0,0,0,0,0,0,0,0,0,0,0,0,0,8,12,28,48
20,28,12,16,44,44,156,40,48,56,56,192,64,56,68,60,60,56,52,56,56,56,60,0,56,0,0,60,4,4,0,0,0,0,0,0,48,192,20,0,4,12,0,0,0,0,0,164,4,0,0,0,0,0,0,0,0,0,0,0,12,12,0,12
