9,18,3,30,6,48,138,48,48,51,54,51,48,48,48,48,51,48,42,42,51,48,45,51,0,36,0,48,0,0,0,9,0,0,0,0,78,0,12,6,3,30,6,6,3,0,0,0,3,0,3,0,0,0,0,0,0,0,0,0,9,0,24,24
27,30,30,39,36,39,45,42,144,48,57,48,51,45,48,48,45,45,45,42,48,45,48,45,36,0,0,63,3,108,51,0,0,45,0,0,0,0,120,36,12,0,144,3,0,0,0,3,0,0,0,0,0,0,0,0,3,0,0,0,30,21,27,36
30,42,0,9,30,30,39,27,144,42,51,42,51,48,48,39,48,42,45,36,45,39,48,45,42,0,0,42,6,6,0,0,3,0,0,63,0,0,39,0,24,144,0,0,33,0,0,0,0,0,0,0,0,0,0,0,0,0,0,0,30,24,21,27
15,33,60,21,18,42,42,36,144,51,51,54,42,48,48,48,48,48,45,42,42,48,45,51,33,0,0,0,60,0,0,72,0,0,0,0,0,9,66,0,141,0,9,3,0,0,0,0,0,0,0,0,0,0,0,0,0,0,0,15,0,3,30,24
30,30,21,21,39,45,141,45,45,57,45,48,144,51,48,45,54,45,51,54,48,45,45,51,39,0,72,0,3,84,0,0,0,0,0,0,144,0,30,0,15,3,3,6,3,0,3,0,0,3,0,0,0,0,0,0,0,0,0,0,3,30,15,30
3,30,15,12,21,30,36,39,129,45,60,48,45,42,48,42,48,45,45,48,54,48,51,48,0,39,0,3,57,3,6,0,102,0,0,0,0,27,0,12,0,0,144,0,3,3,0,0,0,0,0,0,0,0,0,0,0,0,0,0,15,0,30,24
15,9,33,57,33,36,51,45,54,42,51,54,54,57,51,48,45,48,48,51,48,54,48,51,0,36,69,0,0,0,0,0,0,0,0,42,0,60,0,0,3,144,21,6,3,0,3,0,0,0,0,0,0,0,0,0,0,0,0,0,30,0,30,24
33,21,33,36,33,42,39,48,48,144,48,51,54,48,51,51,48,51,45,42,45,48,51,54,0,0,0,48,0,0,0,0,9,0,0,0,0,0,0,9,144,9,9,0,0,6,0,0,0,0,0,0,0,0,0,0,0,0,0,0,12,36,6,12
33,30,9,24,36,30,120,45,57,48,51,51,51,144,54,48,48,51,48,51,42,48,51,48,36,0,0,60,0,105,0,3,0,0,0,0,99,0,144,15,0,15,3,6,15,0,3,0,0,0,0,0,0,0,0,0,0,0,0,0,0,36,33,27
27,3,12,30,39,36,42,141,48,54,51,63,57,51,51,54,54,51,51,51,48,48,42,51,24,42,0,0,0,0,111,3,0,0,0,90,0,0,0,144,42,3,12,12,33,0,0,3,0,0,0,0,0,0,0,0,0,0,0,0,12,36,3,33
27,21,27,24,24,21,33,48,33,48,141,60,48,57,54,48,45,63,48,39,54,45,51,48,33,0,0,57,0,108,0,6,0,0,3,0,75,0,9,21,144,42,9,0,3,0,0,0,0,0,0,0,0,0,0,0,0,0,0,3,0,15,39,24
27,24,18,60,30,42,42,45,48,144,45,45,63,45,51,60,51,51,51,48,57,54,48,48,33,0,0,63,105,0,0,0,0,0,0,24,0,0,78,9,0,9,12,0,3,3,0,6,0,0,0,0,0,0,0,0,0,0,0,0,18,36,27,30
36,24,36,21,24,21,48,42,42,48,51,144,48,57,54,54,48,51,51,45,54,51,51,45,39,0,0,51,0,75,0,3,0,0,0,42,0,33,0,9,3,12,9,0,144,6,0,0,0,0,0,0,0,0,0,0,0,0,0,24,0,15,39,135
15,15,18,3,33,42,42,36,39,48,144,51,51,54,60,54,48,48,51,48,51,51,45,48,51,0,0,3,6,0,48,0,0,54,0,0,0,144,0,0,3,0,0,30,0,15,0,0,0,0,0,0,0,0,0,0,0,0,3,0,6,30,15,24
36,30,9,6,36,45,45,42,48,51,51,144,57,48,51,48,51,54,42,48,54,51,45,57,33,0,3,0,57,105,27,0,0,0,0,0,0,75,15,33,33,24,3,0,3,0,0,0,0,0,0,0,0,0,0,0,0,0,0,3,0,30,3,30
18,6,12,18,24,33,39,36,99,51,48,54,51,108,54,54,54,48,48,51,48,48,51,57,0,0,0,39,9,102,0,3,0,0,0,0,57,21,0,3,39,144,0,0,15,0,0,0,0,0,0,0,0,0,0,0,0,0,0,0,3,21,42,30
15,12,15,30,39,27,48,42,42,51,51,48,51,51,51,54,51,48,54,51,54,51,57,0,51,0,57,0,9,0,0,54,0,0,0,0,0,0,3,63,144,0,0,39,0,3,0,0,0,0,0,0,0,0,0,0,0,0,0,0,3,15,27,15
12,33,18,21,36,60,36,45,21,42,51,48,144,51,51,45,48,48,48,51,54,57,51,48,0,0,0,51,3,0,0,99,0,0,0,0,54,39,0,0,144,51,3,6,0,0,0,0,0,0,0,0,0,0,0,0,0,0,0,9,0,24,15,24
24,39,39,30,42,42,42,48,141,48,48,51,54,51,48,48,51,45,48,48,48,48,42,36,57,0,0,60,0,96,0,15,0,0,0,0,96,51,12,0,144,0,3,3,0,15,0,0,0,0,0,0,0,0,0,0,0,0,0,0,3,24,9,24
24,6,21,36,42,63,42,45,48,45,141,45,48,42,51,48,48,45,45,42,45,42,48,45,0,0,0,57,0,0,0,6,0,0,45,0,0,0,66,60,9,3,3,6,3,9,0,0,0,0,0,0,0,0,0,0,0,0,0,0,3,30,24,9
27,33,30,21,24,30,135,42,36,42,48,42,48,45,42,42,45,51,42,48,45,48,54,57,0,0,0,45,3,3,0,0,0,72,0,141,0,36,0,15,51,0,0,3,0,0,0,144,3,0,0,0,0,0,0,0,0,0,0,0,0,9,33,132
21,15,24,36,15,18,138,33,138,36,48,51,51,48,48,48,48,51,54,48,57,54,0,51,51,0,57,0,0,0,99,0,0,0,0,0,99,0,48,141,3,0,12,0,24,0,0,0,3,0,0,0,0,0,0,0,0,0,0,0,21,30,27,27
30,24,18,12,51,21,42,45,45,48,144,48,51,51,54,48,54,51,45,51,45,51,45,51,0,48,0,6,51,3,33,0,0,0,3,0,141,0,0,3,0,3,3,3,0,144,0,0,3,0,0,0,0,0,0,0,0,0,0,3,0,21,27,27
24,24,9,36,132,42,48,45,57,48,54,51,57,51,42,144,48,51,48,48,51,51,45,33,0,48,0,9,60,0,0,60,0,0,0,0,0,69,27,45,0,144,6,3,30,0,0,3,0,0,0,0,0,0,0,0,0,0,0,0,30,15,30,6
6,12,15,15,123,42,36,120,30,141,54,51,54,45,48,51,51,45,45,42,54,51,45,48,36,0,0,9,57,0,0,3,0,0,78,0,63,6,36,144,0,15,18,6,3,0,0,0,0,0,0,0,0,0,0,0,0,0,9,0,0,33,30,36
21,21,9,6,39,42,72,42,45,45,45,144,54,51,48,48,48,51,51,45,48,51,54,0,51,0,0,0,78,57,0,6,0,0,0,0,0,33,0,144,36,0,3,6,3,0,0,0,0,0,0,0,0,0,0,0,0,0,0,0,3,27,12,12
36,15,36,18,9,24,36,102,36,51,48,138,51,51,48,51,45,48,57,48,51,51,48,51,30,0,0,0,81,42,0,0,0,0,0,0,87,144,9,24,15,24,138,0,0,0,0,0,0,0,0,0,0,0,0,0,0,0,0,0,12,3,24,24
24,12,18,90,21,45,42,144,45,45,51,48,45,48,45,51,48,54,42,48,48,48,48,42,48,0,60,0,0,0,0,0,42,0,0,0,0,0,0,6,0,3,144,0,0,0,3,9,0,0,0,0,0,0,0,0,0,0,0,0,3,18,36,24
3,24,66,21,36,36,132,33,42,51,48,45,48,45,45,45,45,51,51,51,54,54,48,45,0,0,0,42,33,0,0,0,36,0,0,0,0,48,51,0,141,0,0,0,0,0,0,0,0,0,0,0,0,0,0,0,0,0,0,0,0,27,21,21
18,24,30,30,24,24,27,42,33,45,42,45,42,144,48,45,45,48,48,48,45,42,45,45,33,0,60,0,3,57,0,0,0,0,0,60,0,0,144,3,3,3,9,0,0,0,0,0,3,0,0,0,0,0,0,0,0,0,0,0,30,3,30,24
6,30,12,33,30,39,39,75,48,48,48,54,48,51,144,48,48,51,51,51,48,45,48,51,30,0,0,60,0,84,0,0,0,0,0,57,141,63,9,51,0,0,0,15,3,0,18,6,0,0,0,144,0,0,0,0,0,0,0,0,0,27,18,3
27,27,9,129,21,33,30,27,129,36,45,42,45,48,45,48,42,48,48,42,51,39,45,42,0,0,60,0,3,0,30,45,0,0,0,3,0,87,0,6,12,144,6,3,6,0,0,3,0,0,0,0,0,0,0,0,0,0,0,0,3,24,36,15
33,15,27,30,15,126,36,33,36,27,144,45,45,45,48,42,48,48,48,42,48,48,48,51,0,0,0,51,3,0,0,0,3,0,0,63,0,78,0,144,0,0,3,3,0,0,0,0,0,0,0,0,0,0,0,0,0,0,0,0,3,12,21,30
27,3,6,24,24,36,33,141,33,51,51,42,42,48,39,48,45,45,42,51,45,48,51,48,0,0,0,0,42,105,0,3,0,0,51,0,0,0,0,24,144,0,24,0,0,0,0,0,0,0,0,0,0,0,0,0,0,0,0,0,0,3,39,33
27,24,18,24,9,105,39,51,33,45,42,45,42,45,48,45,42,51,48,42,48,45,42,51,0,33,0,45,0,3,3,0,0,0,0,0,0,69,144,21,3,15,15,3,9,0,3,0,0,0,0,0,0,0,0,0,0,0,0,0,0,42,30,30
24,30,24,24,33,36,36,108,36,57,54,48,48,48,48,141,48,51,51,51,48,48,45,39,0,36,0,60,0,108,0,3,0,51,0,0,0,57,9,0,0,0,12,81,9,0,0,0,0,0,0,0,0,0,0,0,0,0,0,0,24,33,30,24
30,15,33,6,39,12,27,42,51,36,54,45,45,48,48,51,48,45,45,42,54,48,45,57,0,0,0,0,54,90,0,0,0,0,42,0,0,60,6,24,3,3,15,138,0,0,0,3,0,0,0,0,0,0,0,0,0,0,0,0,3,21,30,9
15,30,30,21,36,30,24,33,30,51,57,141,54,51,57,51,48,51,51,57,51,51,48,45,45,0,0,51,3,0,3,93,0,0,0,0,78,144,0,0,0,0,39,0,6,0,0,0,0,0,0,0,0,0,0,0,0,0,0,0,0,3,27,30
15,15,21,33,30,42,24,123,36,48,48,48,42,48,45,48,48,51,45,51,48,54,57,51,0,42,0,54,3,6,0,0,63,0,0,0,0,57,0,0,21,144,12,0,3,0,0,0,0,0,0,0,0,0,0,0,0,0,0,0,0,15,54,27
33,12,18,30,21,57,36,123,27,30,48,42,48,48,48,51,51,51,48,51,51,48,45,42,0,0,0,48,0,0,0,0,0,0,0,69,0,0,9,21,144,36,0,6,0,0,0,3,0,0,0,0,0,0,0,0,0,0,0,0,3,30,6,30
18,21,18,45,21,15,30,117,144,57,45,48,54,51,51,51,57,51,48,48,54,57,45,57,0,0,0,39,48,0,0,0,0,0,0,0,0,60,3,0,33,36,144,0,0,0,0,0,0,0,0,0,0,0,0,0,0,0,0,0,3,21,21,27
21,27,6,111,30,39,21,33,144,36,48,42,48,45,48,51,48,51,51,51,51,57,51,54,30,0,0,0,48,3,18,0,0,6,0,0,0,0,33,0,144,18,0,6,6,0,0,0,3,0,0,0,0,0,0,0,0,0,0,0,6,12,27,27
12,9,9,24,33,21,78,33,33,48,51,48,51,45,48,48,48,51,48,45,48,51,48,39,45,0,0,42,3,0,102,12,0,0,0,0,81,141,54,3,6,0,30,3,0,0,6,0,6,0,0,0,0,0,0,0,0,0,0,27,0,6,33,36
24,6,24,6,24,30,39,24,90,51,42,48,45,48,48,54,51,51,48,45,51,51,51,54,0,0,0,54,0,57,0,0,0,0,0,0,0,84,0,0,144,27,6,0,3,0,0,0,0,0,0,0,0,0,0,0,0,0,0,0,24,12,24,30
18,27,3,18,30,51,33,27,48,27,141,45,48,45,48,51,48,42,48,51,60,51,48,48,42,0,0,60,0,84,0,0,0,0,0,69,0,42,0,144,18,0,15,0,3,0,6,0,0,0,0,0,0,0,0,0,0,0,0,3,0,24,27,27
33,27,3,24,21,36,72,36,39,45,144,51,51,54,51,54,45,48,42,45,51,42,45,39,0,0,45,0,3,3,0,0,54,0,0,0,54,54,144,6,6,3,0,0,36,0,0,6,0,0,0,0,0,0,0,0,0,0,0,0,27,3,30,24
3,15,24,30,21,15,24,96,39,51,51,48,54,48,51,48,48,45,48,45,48,51,51,30,48,0,0,54,3,99,0,0,0,0,0,93,0,0,3,0,3,144,12,0,0,0,0,0,0,0,0,0,0,0,0,0,0,0,0,0,0,30,39,30
33,6,9,66,18,36,36,27,42,42,42,48,45,48,45,48,48,42,51,48,48,54,57,36,51,0,54,0,3,0,0,102,69,0,0,0,0,6,0,57,0,3,144,0,0,0,0,0,0,0,0,0,0,0,0,0,0,0,0,0,0,9,39,27
3,21,6,27,15,24,18,144,54,30,48,42,45,48,45,51,48,45,45,51,57,51,51,54,36,0,0,54,0,0,66,0,0,0,0,72,0,0,54,144,3,0,3,15,0,0,9,0,0,0,0,0,0,0,0,0,0,0,0,0,3,27,24,24
3,21,24,15,36,24,27,42,36,132,48,48,48,45,51,51,48,45,42,48,48,45,54,45,30,0,0,3,63,69,0,0,0,75,0,0,0,144,0,0,9,93,3,21,0,0,9,3,0,0,0,0,0,0,0,0,0,0,0,21,0,21,27,0
