15,25,30,25,5,60,80,60,45,75,60,60,65,65,65,60,55,60,55,65,50,55,60,55,40,0,50,10,0,0,0,0,0,0,0,75,70,0,40,0,0,0,25,20,0,0,0,0,0,0,0,0,0,0,0,0,0,0,50,0,0,40,0,40
65,15,70,60,55,60,50,40,240,80,65,70,55,60,60,70,65,60,65,75,60,75,65,60,0,50,0,70,0,0,110,70,0,85,0,0,0,0,80,240,10,0,5,75,5,0,0,0,0,0,0,0,0,0,0,0,0,0,0,0,0,25,20,55
25,10,40,35,50,70,80,115,85,90,75,90,80,60,240,60,60,75,65,65,65,80,60,65,55,0,0,60,15,0,50,0,0,140,240,0,0,75,0,0,0,10,30,55,0,0,0,0,0,0,0,0,0,0,0,0,0,0,0,0,15,35,40,25
40,35,10,75,30,20,55,70,95,80,235,85,90,85,80,60,65,65,65,65,60,70,0,60,70,60,0,85,5,165,0,0,0,0,0,0,80,0,50,240,10,45,0,0,0,0,0,0,0,0,0,0,0,0,0,0,0,0,0,0,60,0,25,55
60,25,25,50,40,65,90,70,80,60,75,70,70,65,70,60,60,70,65,70,60,80,60,60,60,0,0,65,0,90,0,0,95,0,0,0,0,30,65,15,0,240,5,25,5,5,0,0,0,0,0,0,0,0,0,0,0,0,0,0,0,20,40,45
60,60,25,75,25,80,235,80,70,90,70,70,70,240,60,70,65,55,70,50,65,55,60,50,60,0,0,70,5,0,0,5,125,85,0,0,0,0,240,50,40,0,5,40,5,0,0,0,0,0,0,0,0,0,0,0,0,0,0,0,25,5,45,30
50,35,30,20,40,45,170,50,75,60,70,60,60,60,60,240,45,50,50,45,60,55,60,45,50,0,0,65,155,0,0,0,0,0,0,0,80,80,240,5,5,5,0,0,0,0,0,0,0,0,0,0,0,0,0,0,0,0,0,0,0,35,20,40
10,50,40,50,45,80,50,75,70,60,65,230,55,65,60,70,65,55,60,55,50,50,45,50,50,0,0,55,0,160,55,0,0,0,90,5,0,0,25,5,5,240,0,0,15,0,0,5,0,0,0,0,0,0,0,0,0,0,0,0,20,25,70,40
60,40,15,15,55,50,225,40,75,75,70,60,60,60,240,60,55,50,60,40,50,50,55,55,50,0,0,60,0,5,105,0,0,0,75,0,0,0,240,60,0,5,0,0,0,0,0,0,0,0,0,0,0,0,0,0,0,0,0,0,25,0,25,60
40,65,50,20,30,75,45,80,80,240,80,55,65,65,50,45,50,50,55,50,50,45,50,55,0,65,0,60,0,5,5,55,0,0,0,45,0,25,15,0,240,0,5,15,0,0,0,0,0,0,0,0,0,0,0,0,0,0,0,0,0,25,30,30
45,25,25,35,50,225,65,60,80,65,60,65,60,70,210,60,65,55,60,55,50,50,60,50,55,0,0,65,0,0,0,165,0,0,0,0,100,0,50,0,25,0,0,5,5,0,0,0,0,0,0,0,0,0,0,0,0,0,0,0,35,15,60,40
50,35,20,25,55,25,25,75,240,60,85,70,70,60,60,55,60,55,55,60,55,60,55,60,50,0,0,60,5,5,0,0,80,0,0,0,0,0,5,50,40,0,10,15,0,50,0,0,0,0,0,0,0,0,0,0,0,0,0,0,15,0,55,70
55,25,60,30,70,20,150,75,75,240,75,80,70,65,70,60,60,50,55,55,55,60,50,50,50,0,65,0,5,5,0,0,0,120,0,0,70,0,70,50,240,10,0,5,0,0,0,0,0,0,0,0,0,0,0,0,0,0,0,5,0,25,50,45
35,15,0,60,30,85,90,80,70,75,80,65,55,65,55,60,60,50,50,50,60,50,55,35,55,0,0,0,60,0,0,0,70,0,0,0,40,0,0,40,5,0,240,0,0,0,0,0,0,115,0,0,0,0,0,0,0,0,0,0,0,55,15,20
45,20,0,15,65,195,70,80,60,70,70,240,75,60,65,60,50,50,60,50,45,50,50,50,50,55,0,0,0,115,0,0,0,165,215,0,0,0,10,0,45,20,0,15,5,0,0,240,0,0,0,0,0,0,0,0,0,0,0,10,0,5,55,45
0,25,240,5,60,60,50,50,60,240,55,60,60,50,60,50,50,50,50,50,50,45,60,50,50,0,0,0,60,135,0,0,0,0,95,0,0,45,240,15,0,0,10,0,0,0,240,0,0,0,0,0,0,0,0,0,0,0,0,0,0,15,20,150
30,35,5,50,40,75,85,240,70,60,60,70,60,60,55,50,50,50,50,50,50,45,45,45,45,0,0,45,10,160,5,0,95,0,0,0,0,0,50,0,0,10,0,240,0,0,0,0,0,0,0,0,0,0,0,0,0,0,0,0,0,10,20,15
50,35,200,25,65,60,70,70,75,240,75,70,80,50,60,45,65,50,55,50,55,55,50,55,0,45,0,0,5,75,0,0,120,0,0,0,0,0,235,55,0,240,0,0,0,0,0,0,0,0,0,0,0,0,0,0,0,0,0,0,15,35,35,40
50,45,30,20,40,220,65,45,55,240,50,60,70,70,45,50,55,50,55,55,45,40,50,45,50,0,0,70,0,0,0,160,85,0,0,0,0,40,40,0,240,55,5,0,0,0,0,0,0,0,0,0,0,0,0,0,0,0,0,0,0,50,35,40
40,45,20,10,50,175,70,70,70,75,50,240,60,50,60,50,50,45,50,50,55,55,50,50,55,0,55,0,0,120,40,0,0,80,230,0,0,0,0,0,10,0,0,10,5,0,0,0,5,0,0,0,0,0,0,0,0,0,0,0,5,30,60,30
40,20,40,25,50,35,70,85,70,60,110,65,80,60,70,40,55,45,45,55,60,50,50,45,40,0,0,70,0,0,0,5,0,0,0,0,20,0,40,5,5,235,0,0,0,0,0,0,0,0,0,0,0,0,0,0,0,0,0,0,30,0,25,5
40,35,20,30,40,85,80,85,70,60,60,70,240,70,65,45,45,50,50,55,55,60,55,50,40,0,0,70,0,175,0,5,0,0,240,0,0,130,60,5,0,0,5,0,0,0,0,0,0,0,0,240,0,0,0,0,0,0,0,0,0,25,20,50
25,35,220,25,55,60,60,70,60,185,60,65,60,60,45,240,50,45,55,60,70,70,60,55,40,0,0,55,0,15,0,75,0,0,0,80,240,110,0,30,0,0,5,0,20,0,0,0,0,0,0,0,0,0,0,0,0,0,0,0,0,10,20,25
20,60,65,50,35,80,70,50,55,70,235,70,65,55,60,60,70,60,50,55,55,65,65,55,50,0,0,40,0,5,125,0,80,0,0,0,105,0,10,240,35,0,10,0,0,0,240,0,0,0,0,0,0,0,0,0,0,0,0,0,5,30,50,15
20,40,30,35,80,65,240,70,65,80,70,65,240,60,60,65,60,50,60,55,60,65,65,60,0,65,0,5,60,0,0,0,0,95,0,0,0,0,0,240,25,0,15,0,0,0,0,0,0,0,0,0,0,0,0,0,0,0,15,0,0,35,15,30
55,40,40,50,20,50,60,240,60,60,60,60,50,50,50,50,55,50,65,55,70,60,55,55,50,0,0,5,55,155,5,0,0,0,0,0,0,0,0,75,0,5,5,0,0,0,0,0,0,0,0,0,0,0,0,0,0,0,0,20,0,0,0,50
45,35,15,20,35,35,80,85,75,65,240,50,45,55,60,50,55,60,50,60,55,65,60,60,0,0,0,70,0,0,0,75,0,0,150,0,0,0,45,5,35,0,240,50,0,0,0,0,0,0,0,0,0,0,0,0,0,0,0,0,0,25,45,65
40,50,10,15,220,45,55,45,60,60,60,55,240,60,55,60,60,60,60,65,60,70,60,45,65,0,0,55,5,5,45,0,0,85,0,0,0,65,140,0,15,0,5,0,0,20,0,0,0,0,0,0,0,0,0,0,0,0,0,0,5,60,25,15
35,55,70,40,70,60,70,75,65,65,235,70,75,60,55,60,65,60,60,60,70,60,60,65,55,0,0,0,70,175,0,70,0,105,0,0,0,0,0,10,240,0,5,0,65,0,0,0,0,0,0,0,0,0,0,0,0,0,0,0,0,25,45,55
25,15,20,50,25,40,230,70,65,70,70,60,60,70,65,55,60,55,70,60,60,60,70,50,55,0,0,60,0,0,0,0,0,105,0,70,85,5,0,25,5,5,240,0,0,0,0,45,0,0,0,0,0,0,0,0,0,0,25,0,5,35,0,45
15,5,35,35,40,35,40,240,75,210,50,60,50,60,55,60,60,60,60,70,70,70,70,0,0,60,0,15,60,130,0,5,0,0,95,230,0,0,90,0,10,5,15,0,0,0,0,0,0,0,0,0,0,0,0,0,0,0,0,0,0,20,55,40
25,60,50,65,35,45,60,55,70,70,70,50,65,50,50,65,60,60,55,60,70,70,60,70,0,45,0,70,165,0,0,0,5,0,0,0,0,0,10,205,0,35,0,0,0,0,0,0,0,0,0,0,0,0,0,0,0,0,0,0,0,15,15,30
45,15,30,60,60,70,55,75,50,65,75,70,60,55,50,60,50,60,60,50,60,60,55,70,50,0,0,60,180,10,0,0,5,80,0,0,0,5,60,240,55,0,15,0,35,0,0,0,0,0,0,0,0,235,0,0,0,0,0,0,5,25,5,55
55,30,60,45,55,55,45,50,80,60,65,60,60,60,65,65,55,65,60,60,60,60,60,60,55,0,0,55,20,130,0,0,0,90,0,50,75,20,0,0,35,240,170,0,0,0,0,0,0,0,0,0,0,0,0,0,0,0,0,0,0,20,50,35
25,35,60,25,50,60,50,45,70,70,65,65,240,60,65,60,55,60,65,60,60,65,60,60,0,0,0,60,0,0,110,0,0,0,0,85,0,0,5,25,10,0,0,15,0,0,0,0,0,0,0,0,0,0,0,0,0,0,0,0,0,10,5,15
65,25,60,30,70,60,65,40,85,70,205,70,60,55,55,70,60,70,75,65,70,65,70,65,45,0,0,0,75,35,175,0,0,80,0,0,0,80,0,25,40,15,0,0,0,0,0,0,0,0,0,0,0,0,0,0,0,0,0,0,35,0,45,60
60,40,5,15,35,75,45,40,65,70,65,240,65,65,55,55,65,50,65,70,60,65,65,60,0,40,0,70,0,15,0,165,0,0,80,0,0,0,10,0,0,0,10,240,0,0,0,0,0,0,0,0,0,0,0,0,0,0,0,0,5,25,35,20
235,25,60,35,35,60,40,40,225,60,60,70,60,55,235,55,50,50,50,60,60,55,40,65,0,50,0,50,10,165,0,0,0,0,0,0,0,80,85,5,240,0,20,0,0,0,0,0,5,0,0,0,0,0,0,0,0,0,0,0,0,20,15,50
50,40,45,20,60,55,210,70,65,70,60,75,60,240,75,60,70,65,70,70,60,75,60,70,0,0,0,0,0,55,175,5,0,105,0,0,65,0,0,0,0,10,5,45,0,0,0,0,0,0,0,0,0,0,0,0,0,0,0,0,0,60,15,30
45,20,60,20,50,55,50,70,65,240,60,50,55,80,55,55,60,60,60,55,55,60,70,50,0,0,0,60,0,150,10,5,0,0,0,5,85,0,0,40,240,40,10,0,5,0,5,0,0,0,0,0,0,0,0,0,0,0,0,0,15,30,50,35
60,35,35,50,35,55,55,70,70,235,60,55,50,50,70,75,50,55,60,50,45,55,65,60,40,0,0,60,25,0,0,0,5,0,0,0,50,30,0,5,40,240,0,0,0,0,0,0,0,0,0,0,0,0,0,0,0,0,0,0,25,50,0,55
40,55,30,25,25,225,45,40,70,55,65,240,70,55,50,65,50,60,55,60,55,60,60,55,45,0,0,5,55,10,5,0,95,0,5,0,240,0,60,15,20,5,0,25,0,0,0,0,0,0,0,0,0,0,0,0,0,0,0,0,0,5,15,35
70,40,15,10,50,60,45,50,80,65,70,60,60,50,70,60,70,60,60,65,60,65,60,65,45,0,0,65,0,125,0,0,85,0,0,0,110,0,0,160,5,240,10,0,0,10,0,0,0,0,0,0,0,0,0,0,0,0,0,0,50,25,0,50
55,45,25,5,40,85,70,205,55,80,60,55,55,50,55,55,50,50,60,50,60,65,45,0,0,60,70,0,0,0,15,0,35,35,165,0,0,5,240,0,55,0,0,0,25,0,0,0,0,0,0,0,0,0,0,0,0,0,0,0,25,0,15,10
35,50,35,20,70,55,65,40,75,210,55,60,50,60,55,50,55,50,60,45,50,65,55,60,50,0,65,0,160,5,10,0,0,95,0,0,0,105,0,0,240,0,10,0,0,20,0,0,0,0,0,0,0,0,0,0,0,0,0,0,0,20,40,80
45,60,20,25,35,50,45,190,85,65,60,60,55,240,60,55,65,60,60,70,65,65,60,50,0,0,60,60,10,165,0,5,0,85,0,0,240,0,25,80,40,0,5,15,10,240,0,0,0,0,0,0,0,0,0,0,0,0,0,0,0,50,20,45
25,60,5,30,65,225,45,60,55,75,55,70,75,55,65,50,55,50,65,55,70,65,0,70,60,0,0,85,0,0,120,5,45,0,0,210,0,25,5,5,0,20,0,5,0,240,0,0,0,0,0,0,0,0,0,0,0,0,0,0,10,10,40,0
25,15,210,20,25,70,65,80,75,240,70,80,90,75,50,60,50,60,60,40,55,50,70,50,40,0,85,0,0,45,115,0,0,85,0,0,0,0,25,235,45,10,0,0,0,240,0,0,0,0,0,0,0,0,0,0,0,0,0,0,0,40,50,35
20,20,45,35,50,240,50,60,80,70,60,65,240,50,50,45,55,65,50,50,50,65,70,75,0,0,0,5,165,60,0,0,0,80,240,0,0,115,0,25,5,10,30,30,0,0,0,0,0,0,0,0,0,0,0,0,240,0,0,0,10,55,15,40
50,15,35,15,235,70,50,70,85,95,70,70,50,80,240,50,50,55,55,50,60,60,65,0,60,0,0,5,60,0,5,0,0,0,0,40,5,0,0,95,240,40,15,0,0,5,0,0,0,0,0,0,0,0,0,0,0,0,0,0,0,20,60,35
