49,56,35,56,7,133,119,105,140,98,98,255,91,84,112,91,91,98,91,105,84,91,0,77,98,0,0,98,35,56,7,0,7,0,126,70,0,0,70,255,7,7,0,56,0,0,0,0,0,0,0,0,0,0,0,0,0,0,0,35,0,7,21,98
49,77,21,63,56,63,63,224,112,98,84,105,84,84,98,98,98,119,98,105,105,112,119,0,98,0,0,7,84,238,0,0,0,0,112,0,70,0,70,0,7,255,0,0,42,0,7,0,0,0,0,0,0,0,0,0,0,0,0,0,7,42,28,21
84,14,56,84,255,70,63,77,112,98,98,112,91,91,84,105,84,98,98,105,91,119,105,119,0,0,0,98,7,0,224,0,0,0,0,0,112,56,14,255,14,7,0,49,0,49,0,0,0,0,0,0,0,0,0,0,0,0,0,0,21,28,7,84
49,21,7,63,98,84,70,255,133,84,98,84,91,98,84,91,91,98,77,91,112,112,98,70,112,0,0,133,0,0,7,98,0,147,0,0,112,0,0,21,0,245,255,0,0,7,0,0,0,0,0,0,0,0,0,0,0,0,0,0,7,35,70,77
56,42,35,35,84,224,98,105,112,119,255,98,112,105,84,91,91,105,105,105,105,112,98,105,77,0,0,0,98,231,0,0,0,133,0,0,147,147,255,0,7,14,0,0,0,0,0,0,0,0,0,0,0,0,0,0,0,56,0,0,14,70,28,35
49,28,35,28,56,203,105,84,119,105,112,84,98,255,98,98,91,105,98,98,98,98,84,0,98,0,0,98,0,7,7,175,0,0,0,7,0,255,7,21,119,14,7,0,7,0,0,0,0,0,0,0,0,0,0,0,0,0,0,0,0,21,0,42
49,56,63,7,21,63,63,77,112,255,98,84,84,84,84,91,105,91,91,98,112,119,98,84,0,0,70,21,0,7,98,0,0,126,0,0,0,189,0,7,14,0,21,0,42,0,7,0,0,0,0,0,0,0,0,0,0,0,0,0,28,7,42,63
70,7,84,35,35,133,119,119,91,91,98,105,112,84,91,98,98,98,112,105,91,105,77,112,0,0,0,112,0,0,238,0,0,126,0,0,0,0,255,0,0,14,14,35,0,0,0,0,7,0,0,0,0,0,0,0,0,0,0,0,35,7,21,84
56,0,42,21,35,56,56,77,255,98,105,91,98,84,84,91,84,84,119,84,105,91,98,98,70,0,0,112,14,231,21,0,0,133,0,0,0,84,21,84,0,56,255,7,0,0,0,0,0,0,0,0,0,0,0,0,0,0,0,0,14,63,21,56
21,70,49,63,105,56,112,98,255,126,112,105,91,84,91,91,98,84,91,84,98,105,91,0,77,0,0,126,0,0,0,0,0,119,0,0,0,0,126,56,255,7,21,0,0,0,0,0,0,0,0,0,0,0,0,0,0,0,0,0,0,35,63,70
98,63,14,35,98,84,84,133,112,105,112,255,84,98,112,98,98,105,98,98,91,84,91,98,77,0,0,112,0,21,255,0,7,0,0,0,0,112,0,21,245,0,0,84,0,7,0,7,0,0,0,0,0,0,0,0,0,0,0,0,0,35,21,49
21,14,0,35,91,77,56,70,126,98,91,112,255,91,98,105,112,105,119,119,112,105,119,126,77,0,91,0,14,196,0,21,0,0,0,0,7,0,77,112,255,0,7,21,0,0,0,0,0,0,0,0,0,0,0,0,0,0,0,0,49,7,42,56
70,21,49,7,35,98,238,126,84,112,91,105,255,91,98,77,98,112,126,119,105,133,133,0,133,0,0,0,98,0,0,0,182,0,0,0,105,255,0,14,14,7,7,0,255,0,0,0,0,0,0,0,0,0,0,0,0,0,0,0,0,35,63,35
42,21,49,7,98,35,255,91,126,119,112,91,98,112,105,91,98,105,112,105,105,105,112,98,0,0,0,84,7,7,7,0,0,0,0,0,98,84,0,255,14,14,14,49,0,0,0,0,0,0,0,0,0,0,0,0,0,0,0,0,7,21,49,63
56,49,7,21,28,35,231,105,140,98,112,98,255,98,112,105,105,112,112,119,119,105,126,119,0,0,0,112,7,14,0,161,7,0,0,0,0,70,14,161,7,255,63,0,7,0,0,0,7,0,0,0,0,0,0,0,0,0,0,0,28,21,70,49
35,56,35,168,84,28,105,98,140,119,255,98,98,91,98,98,98,105,119,119,112,112,105,112,0,0,0,119,70,0,0,0,0,84,0,0,98,255,0,14,0,42,14,42,0,0,0,0,0,0,0,0,0,0,0,0,0,0,0,0,7,0,77,84
35,14,7,91,112,105,98,98,119,255,112,98,105,98,98,91,112,119,112,112,119,112,119,119,98,0,0,105,7,14,0,196,0,0,133,0,0,7,0,70,7,255,7,7,0,0,0,0,0,0,0,0,0,0,0,0,0,0,0,0,21,35,35,77
42,21,49,7,126,77,98,105,105,255,98,112,98,98,91,98,105,98,98,112,119,105,105,105,0,0,112,0,0,217,0,0,0,0,133,0,84,0,98,255,0,0,35,0,0,7,0,0,0,0,0,0,0,0,0,0,0,0,0,35,0,7,56,63
28,21,35,14,35,56,255,77,133,91,112,91,98,98,105,112,98,98,112,112,119,112,112,105,0,0,119,0,7,0,49,0,0,0,140,0,0,98,0,0,0,255,14,28,0,0,0,21,0,0,0,0,0,0,0,0,0,0,0,42,7,42,49,63
35,28,56,42,21,98,126,98,133,126,105,112,91,91,112,105,98,98,98,91,105,126,0,119,105,0,0,112,0,210,0,0,0,126,0,0,0,0,0,28,255,0,21,0,0,0,0,0,0,0,0,0,0,0,0,0,0,0,0,0,35,14,14,0
42,7,28,42,14,56,126,70,126,112,126,112,255,91,105,98,98,98,98,91,98,119,98,70,0,0,0,98,7,0,7,0,70,0,7,140,0,0,0,255,14,7,0,70,7,0,0,0,0,0,0,0,0,0,0,0,0,0,0,7,0,21,21,56
42,21,84,35,49,84,70,105,147,112,105,126,112,112,255,91,91,98,105,119,126,119,112,0,119,0,105,0,7,231,0,14,0,255,196,154,0,154,0,0,35,84,7,7,0,0,255,0,0,0,0,0,0,0,0,0,0,0,0,0,14,21,77,255
35,21,42,49,63,49,70,70,255,105,98,98,105,98,105,112,105,105,98,105,105,98,98,70,91,0,0,140,203,0,21,7,0,0,0,119,255,0,133,14,49,0,21,0,0,7,0,0,0,255,0,0,0,0,0,0,0,0,0,0,28,56,28,42
255,28,77,35,63,56,35,63,255,140,91,98,119,84,84,84,91,112,105,105,91,119,98,77,0,0,0,21,0,182,84,28,0,126,0,0,0,105,21,255,14,14,21,0,0,0,0,0,0,0,0,0,0,0,0,0,0,0,0,7,0,70,56,35
7,63,28,70,112,70,98,255,105,126,98,84,98,77,70,70,84,105,98,91,70,98,105,112,0,0,119,0,0,7,63,0,0,0,7,119,0,84,0,112,56,14,21,0,0,14,0,0,0,0,0,0,0,0,0,0,0,0,0,0,7,0,21,42
49,14,49,126,63,49,70,77,255,84,84,98,77,77,70,98,98,84,98,70,105,119,105,70,0,0,0,98,210,0,0,0,14,126,0,0,0,56,7,84,255,7,7,0,35,0,0,7,0,0,0,0,0,0,0,0,0,0,0,0,0,70,28,56
98,28,49,21,49,49,112,255,126,98,91,56,84,255,70,84,63,77,0,77,42,91,112,0,35,0,133,0,0,0,196,0,7,0,112,255,0,0,21,56,14,0,42,28,0,0,0,0,0,0,0,0,0,0,0,0,0,0,0,0,0,42,35,35
70,56,84,112,35,112,105,140,119,98,255,105,112,91,84,77,119,35,119,98,84,112,105,70,0,0,0,98,0,14,70,147,0,14,21,14,140,0,255,84,49,0,56,0,0,42,91,0,7,7,7,0,0,0,0,0,0,0,0,0,84,70,7,0
42,28,49,56,56,49,91,231,119,91,98,49,133,119,154,91,91,56,98,105,49,112,49,28,0,0,0,105,0,203,0,0,0,0,0,35,147,0,255,0,14,0,21,28,0,7,0,7,0,0,0,0,0,0,0,70,7,0,7,7,14,7,35,77
7,56,49,28,70,98,161,98,112,91,98,98,255,84,84,84,77,84,84,77,119,112,112,42,0,0,0,112,7,0,0,0,147,0,0,0,70,255,0,14,77,7,7,0,0,7,7,0,0,0,0,0,0,0,0,0,0,0,0,7,0,28,35,28
70,56,28,49,70,84,98,105,105,189,98,70,77,112,84,91,91,112,98,98,98,133,84,105,0,0,112,0,112,0,0,0,7,0,0,126,0,126,133,14,0,105,0,0,0,0,0,0,0,0,0,0,0,0,0,0,0,0,0,0,7,21,42,21
49,56,35,14,63,70,105,119,91,98,112,255,70,105,84,91,98,105,91,105,119,105,84,70,0,0,112,0,231,0,0,0,0,0,147,0,0,0,98,255,21,0,0,21,0,0,0,0,0,0,0,0,0,0,0,0,0,0,0,0,7,0,28,42
42,56,49,35,42,70,49,133,70,126,112,77,77,70,255,56,77,70,70,98,84,49,91,0,35,0,21,0,56,255,14,0,0,0,0,0,0,255,0,14,56,0,0,0,0,0,7,0,0,0,0,0,0,0,0,0,0,0,0,7,0,14,14,7
35,35,21,56,98,70,77,98,119,105,98,98,255,84,91,42,63,98,91,0,77,84,84,0,0,0,0,7,0,77,84,0,0,112,0,0,0,0,255,70,21,7,245,0,0,0,42,0,0,0,0,0,0,0,0,0,0,0,0,0,28,70,56,70
56,70,28,70,49,14,84,133,119,217,84,63,56,255,70,70,98,63,14,98,119,91,91,0,0,35,0,0,98,182,7,0,0,0,133,0,0,0,7,0,119,84,7,0,0,0,0,0,0,0,0,0,0,0,0,0,0,0,0,0,7,28,28,84
70,49,56,21,35,49,77,84,84,84,84,77,84,84,77,84,70,98,91,0,0,112,119,84,35,105,0,0,0,14,0,0,49,0,0,133,0,0,0,77,0,255,0,0,0,0,0,0,0,0,0,0,0,0,0,0,0,0,0,0,21,0,70,14
21,84,0,49,42,133,56,70,112,98,84,91,255,77,70,84,91,98,112,70,98,91,98,112,0,0,224,0,91,21,0,0,14,0,147,0,255,126,70,0,21,35,7,0,0,0,0,0,0,0,0,0,0,0,0,0,0,0,0,21,35,0,35,63
70,56,21,70,84,56,126,91,112,105,105,255,77,98,84,84,98,105,56,84,105,112,98,56,0,0,0,84,7,0,7,91,0,112,0,0,0,0,0,255,112,0,0,21,0,0,0,0,0,0,0,0,0,0,0,0,0,0,0,0,21,0,21,70
42,42,63,56,105,63,255,63,119,105,105,77,77,70,70,98,84,56,77,112,105,119,56,0,98,0,0,147,210,0,7,7,0,119,0,0,0,70,35,70,0,7,0,255,7,0,0,0,0,0,0,0,0,0,0,0,0,0,0,0,28,14,49,21
49,98,7,35,49,63,77,112,77,105,63,70,70,98,84,84,77,112,56,0,0,98,7,0,0,0,0,98,21,7,182,0,14,0,0,133,0,0,154,14,21,255,28,84,0,0,0,0,0,0,0,0,0,0,0,0,0,0,0,0,63,7,21,63
56,35,56,70,189,49,119,77,112,91,255,70,84,84,91,77,63,49,49,42,105,14,14,0,0,21,0,119,7,147,0,7,0,133,0,0,0,255,28,7,14,0,0,0,0,0,0,0,0,0,0,0,0,0,0,0,0,0,0,21,0,56,14,56
21,35,35,7,21,105,105,245,112,98,255,98,91,70,56,77,84,77,70,77,70,84,0,77,42,0,0,119,231,7,0,0,0,0,140,0,105,49,7,21,255,7,0,0,7,0,0,0,0,0,0,0,0,0,0,0,0,0,0,0,7,21,56,49
63,49,28,21,56,49,119,112,255,98,84,98,70,91,77,42,49,42,7,77,49,98,91,0,7,0,0,98,0,84,0,84,0,0,203,119,0,21,7,35,14,255,0,0,0,0,0,0,0,0,0,0,0,0,0,0,0,0,0,0,7,21,56,63
42,28,21,42,21,91,84,91,255,98,70,84,77,77,70,63,63,21,70,35,98,91,77,63,0,0,0,77,0,7,0,0,196,0,0,0,105,14,35,28,255,0,0,0,0,7,0,0,0,0,0,0,0,0,0,0,0,0,0,0,0,21,70,70
35,84,49,70,21,84,77,196,255,77,84,63,63,63,56,35,63,35,84,77,119,98,28,0,35,0,14,112,0,21,49,0,7,0,0,0,154,0,14,0,0,0,255,49,0,0,0,0,0,0,0,0,0,0,0,0,0,14,0,0,77,0,77,63
245,70,7,35,28,70,70,84,84,70,77,70,84,70,63,56,112,7,35,98,91,14,35,35,0,0,0,91,0,0,105,7,7,0,0,98,0,70,7,21,255,21,7,42,0,0,0,0,0,0,0,0,0,0,0,0,0,14,0,0,7,14,70,0
21,63,42,21,42,255,77,77,112,112,98,70,255,35,105,70,70,77,77,112,70,84,63,98,0,0,0,84,14,0,147,7,0,7,0,0,0,147,84,49,255,21,7,7,0,0,0,0,0,0,0,0,0,0,0,0,0,7,0,7,0,49,28,0
42,21,7,14,28,77,70,63,63,84,70,63,63,255,70,84,77,28,21,0,21,0,14,0,112,0,0,98,21,182,7,7,0,0,154,0,0,255,98,0,0,49,7,0,7,0,0,0,0,0,0,0,0,0,0,0,0,0,0,0,7,35,35,28
56,63,70,84,91,28,91,112,105,84,255,63,91,98,84,56,84,84,56,98,28,91,42,28,0,0,0,0,84,0,105,7,0,0,0,0,0,0,255,56,7,7,0,0,0,0,0,0,0,0,0,0,0,0,0,0,0,0,0,7,28,0,28,7
112,35,70,35,35,91,98,98,105,98,119,91,255,70,70,70,84,91,21,0,98,77,35,14,0,0,0,98,0,0,238,7,0,255,0,0,0,147,7,14,0,7,35,0,255,0,0,0,0,0,0,0,0,0,0,0,0,0,0,0,49,7,105,56
