13,5,5,2,16,12,13,16,16,11,44,12,13,14,16,13,13,15,14,15,14,15,14,0,14,0,0,15,0,31,0,0,0,0,0,17,0,0,0,0,48,1,7,0,0,0,0,0,0,0,1,0,0,0,0,0,0,0,0,0,3,2,4,5
9,1,13,5,6,15,42,12,16,16,18,12,16,13,14,16,12,13,12,15,14,12,14,10,0,0,0,14,0,9,0,0,21,0,0,17,0,13,0,0,1,48,0,1,0,1,0,0,0,0,0,0,0,0,0,0,0,0,0,2,3,3,5,8
11,10,1,9,3,10,13,16,47,16,14,17,13,11,14,12,14,12,15,14,15,16,12,16,0,0,0,1,12,1,0,0,0,15,0,0,21,0,2,19,10,48,0,0,0,0,1,0,0,0,0,0,0,0,0,0,0,0,0,3,0,0,7,9
5,10,25,7,10,13,12,15,15,12,15,13,12,12,12,11,12,15,13,14,14,14,15,14,0,0,0,14,0,0,0,14,0,0,0,0,0,0,8,48,1,1,0,1,0,0,0,0,0,0,0,0,0,0,0,0,0,0,1,0,0,4,4,4
19,7,3,11,12,12,39,17,13,16,44,15,12,12,14,13,13,12,13,12,13,14,14,16,0,0,0,0,14,0,1,0,0,9,0,0,0,0,19,0,48,2,0,0,0,3,0,0,0,0,0,0,0,0,0,0,0,0,0,0,4,6,3,3
7,8,7,5,10,43,10,10,16,15,14,14,48,12,13,12,12,13,14,16,14,17,16,12,0,0,0,0,14,0,12,0,0,1,0,0,47,1,0,19,0,10,0,0,0,48,0,0,0,0,0,0,0,0,0,0,0,0,0,0,3,5,11,8
4,6,2,8,5,48,12,11,18,16,13,12,14,13,13,14,13,14,16,15,16,16,16,14,0,0,0,0,12,23,0,0,0,0,0,0,0,0,0,1,4,7,48,0,0,0,0,0,0,0,0,0,0,0,0,0,0,0,0,0,1,4,12,5
9,5,8,7,10,13,16,48,21,15,13,12,13,12,15,11,14,14,12,18,15,13,13,15,0,0,0,25,17,0,0,0,0,16,0,0,0,17,18,0,0,11,5,48,1,0,0,0,1,0,0,0,0,0,0,0,0,0,0,0,5,2,5,3
39,7,9,12,5,5,12,12,48,18,15,14,15,13,14,14,13,14,12,15,15,18,0,16,0,0,16,12,0,0,1,0,0,0,0,18,0,0,24,2,1,48,1,0,2,0,0,0,0,0,0,0,0,0,0,0,0,0,0,0,3,5,10,7
7,3,7,5,17,37,12,16,14,16,48,17,11,13,14,12,16,14,14,14,15,16,12,16,0,0,0,0,12,0,0,0,0,12,0,1,48,7,0,4,5,0,0,1,7,0,48,0,0,0,1,0,0,0,0,0,0,0,0,2,2,3,14,35
3,5,3,12,3,12,14,16,48,14,16,45,12,15,14,13,14,13,13,15,14,16,13,13,0,0,0,15,0,0,0,28,19,0,0,0,18,0,0,5,1,48,0,0,1,0,0,0,0,0,0,0,0,0,0,0,0,0,0,0,5,8,4,4
21,8,3,6,48,7,11,16,12,16,45,16,13,14,12,12,15,14,13,15,13,14,13,7,0,0,14,0,0,3,21,27,0,0,0,0,17,0,47,0,0,0,0,3,0,0,0,0,0,0,0,0,0,0,0,0,0,0,0,0,2,6,6,8
11,9,5,9,13,10,11,10,33,15,15,13,14,16,12,14,13,15,14,16,14,15,13,14,0,0,0,14,1,0,0,0,0,17,28,0,0,0,2,8,0,48,7,3,0,0,0,0,0,0,0,0,0,0,0,0,0,0,0,1,4,6,4,7
2,11,8,4,6,8,48,15,17,16,43,15,16,11,14,12,13,13,16,14,14,18,11,17,0,0,0,16,0,1,3,0,0,17,0,0,0,0,0,1,48,9,0,0,0,0,0,0,0,0,0,0,0,0,0,0,0,0,0,0,3,3,8,4
12,6,9,46,6,12,13,10,16,48,14,15,14,12,12,11,14,14,15,13,15,13,16,14,0,0,0,1,10,0,0,0,0,0,15,0,47,0,14,0,46,14,0,0,1,0,0,0,0,0,0,0,0,0,0,0,0,0,0,0,3,4,0,1
3,9,7,1,8,29,13,13,16,48,12,13,12,13,11,11,14,13,12,15,15,14,15,13,0,0,0,19,0,0,35,0,0,17,0,0,26,0,48,8,1,0,1,3,0,0,0,0,1,0,0,0,0,0,0,0,0,0,0,1,3,3,6,9
6,8,5,11,8,30,16,18,14,12,15,14,48,13,12,14,12,12,14,13,14,16,12,15,0,0,0,14,0,0,0,0,26,0,14,0,0,0,48,3,0,0,3,1,0,0,0,0,0,0,0,0,0,0,0,0,0,0,0,0,3,3,5,1
5,6,4,4,10,15,16,15,14,15,48,14,13,13,12,12,13,12,14,14,14,16,13,13,0,0,0,13,0,0,0,14,0,0,0,0,0,27,8,48,3,0,3,0,11,0,0,0,0,0,0,0,0,0,0,0,0,0,0,0,3,7,6,14
5,10,6,11,8,12,14,12,17,17,14,16,16,15,14,14,12,17,15,13,14,15,14,11,14,0,0,12,33,0,2,0,0,16,0,20,22,0,1,0,48,0,0,6,0,0,0,0,0,0,0,0,0,0,0,0,0,0,0,2,1,4,8,5
8,11,7,9,11,27,13,11,18,16,12,48,14,12,14,14,14,15,16,15,15,15,16,12,0,0,0,0,16,0,0,18,0,0,26,0,0,9,0,6,0,7,0,0,1,0,0,0,0,0,0,0,0,0,0,0,0,0,0,0,4,1,3,4
4,5,9,4,18,14,11,11,16,39,15,13,13,11,15,14,13,17,15,16,17,16,14,14,12,0,0,12,0,3,0,0,0,0,0,14,0,0,48,1,1,0,0,1,0,0,0,0,0,0,0,0,0,0,0,0,0,0,2,0,0,6,9,5
0,1,1,5,13,11,14,14,19,17,17,48,14,25,15,16,14,16,14,15,17,16,16,0,14,0,0,14,0,0,0,0,23,0,0,48,0,14,5,5,1,0,2,0,0,0,0,0,0,0,0,0,0,0,0,0,0,2,0,0,7,6,12,3
7,7,5,2,11,14,14,12,26,19,13,15,12,14,14,14,12,15,16,16,14,18,17,19,0,0,0,13,1,31,0,3,26,0,0,0,0,1,16,0,8,2,48,0,4,0,0,0,0,0,0,0,0,0,0,0,0,0,0,4,3,1,5,9
5,6,5,17,6,11,12,12,16,47,10,15,14,12,15,14,14,15,16,17,14,17,15,14,10,0,0,14,2,0,0,0,14,0,0,12,0,0,0,0,3,8,0,3,0,0,0,0,0,0,0,0,0,0,0,0,0,0,0,3,0,1,4,3
10,11,6,5,12,14,7,19,17,44,13,17,14,13,14,14,16,14,13,16,18,16,17,16,0,0,0,12,0,0,23,0,0,0,0,19,0,0,23,1,0,1,1,2,0,0,0,0,0,0,0,0,0,0,0,0,0,0,0,2,3,3,4,7
9,5,7,26,3,15,12,42,17,11,17,12,14,13,13,13,13,16,15,16,17,18,17,0,15,0,0,13,0,0,0,0,0,0,10,0,0,22,1,48,13,5,2,0,0,0,0,0,0,0,0,0,0,0,0,0,0,0,1,0,5,2,3,7
7,7,5,5,7,15,12,15,12,15,15,15,16,14,13,48,16,15,17,19,17,18,18,0,18,0,0,14,0,0,0,26,0,0,19,0,0,3,23,0,1,0,48,0,0,0,2,0,0,0,1,0,0,0,0,0,0,0,0,0,7,1,8,13
5,6,10,48,17,13,13,14,45,15,17,14,14,13,13,14,15,14,16,17,16,18,0,17,17,0,0,16,0,0,0,0,23,17,0,22,0,0,0,0,0,1,0,1,48,0,0,0,0,0,0,1,0,0,0,0,0,0,0,0,3,3,5,4
14,4,10,8,7,16,12,12,18,48,16,14,17,15,16,15,15,16,16,16,16,17,16,11,0,10,0,0,0,0,0,0,0,0,0,13,0,1,19,15,48,4,1,1,0,0,0,0,0,0,0,0,0,0,0,0,0,0,0,0,1,10,4,7
4,3,6,12,10,14,13,48,18,48,14,15,14,14,15,17,15,15,16,16,17,16,17,15,13,0,0,17,0,5,1,0,0,0,26,18,0,13,1,1,0,48,5,0,0,0,0,0,0,0,0,0,0,1,0,0,0,0,2,0,0,2,5,1
10,5,5,7,10,14,13,12,14,48,15,17,14,18,14,12,16,16,17,18,17,16,17,16,0,0,0,17,35,0,0,0,0,0,0,0,25,0,47,6,2,3,3,0,0,0,0,0,0,0,0,1,0,0,0,0,0,0,0,0,5,3,4,6
8,4,3,5,10,13,11,15,14,19,14,14,13,15,13,14,15,17,17,17,16,17,17,16,0,0,12,0,4,0,0,0,17,0,0,2,21,0,48,0,10,10,0,0,0,0,0,0,0,0,0,0,0,0,0,0,0,0,0,0,2,5,1,9
7,9,1,4,8,15,12,15,40,15,14,14,14,16,13,16,14,14,15,13,16,14,16,13,0,0,0,0,13,25,0,20,0,0,21,0,0,0,48,0,13,1,5,6,0,0,0,0,0,0,0,0,0,0,0,0,0,0,0,1,6,3,3,8
8,1,6,6,15,12,10,12,15,47,18,15,14,12,16,14,14,15,16,16,16,16,16,18,0,0,13,0,0,1,0,0,0,19,0,0,0,0,9,3,0,8,0,0,0,1,0,1,0,0,0,0,0,0,0,0,0,0,0,0,4,3,3,3
4,7,3,14,6,39,14,17,12,20,15,18,14,14,16,17,16,16,16,18,16,15,17,13,20,0,12,20,0,0,0,0,0,17,0,0,0,48,0,0,3,0,6,0,0,1,0,0,1,0,0,0,0,0,0,0,0,0,0,0,3,3,6,6
10,10,1,7,9,11,12,10,17,14,17,17,16,16,16,14,16,48,15,16,19,14,16,16,0,0,0,14,1,0,0,0,1,30,0,1,11,48,0,3,0,8,5,0,0,0,0,0,0,0,0,1,0,0,0,0,0,0,0,2,3,4,4,7
6,3,7,3,12,14,16,33,13,16,14,13,14,15,16,16,16,15,16,14,15,17,17,13,15,0,0,0,14,1,0,13,0,19,0,0,7,0,0,3,1,6,48,0,0,0,0,0,0,0,0,0,0,0,0,0,0,0,0,4,0,4,7,4
8,6,24,4,10,11,7,11,48,16,15,13,12,15,14,17,16,17,15,17,16,16,15,0,15,10,12,0,0,28,0,0,1,0,17,0,0,0,16,48,0,0,1,0,0,0,2,0,0,0,0,0,0,0,0,0,0,0,0,2,3,3,7,8
8,10,8,10,12,13,25,14,17,14,14,15,12,13,13,13,15,15,18,16,15,15,17,14,0,0,0,13,0,1,9,1,0,0,0,14,26,48,0,15,3,3,0,1,1,0,0,0,0,0,0,0,0,0,0,0,0,0,0,2,1,8,6,3
7,1,14,1,11,14,11,11,16,18,47,16,15,14,13,14,14,15,16,14,16,15,17,13,0,9,0,14,0,29,2,0,1,0,21,0,0,0,18,48,1,0,1,0,1,0,0,0,0,0,0,2,0,0,0,0,0,0,0,0,6,4,4,5
5,4,5,9,14,5,16,12,16,15,48,12,12,11,12,11,14,13,14,14,14,14,14,0,14,0,0,18,0,22,0,0,0,0,0,0,20,48,2,16,2,1,1,1,0,0,0,0,0,1,0,0,0,0,0,0,0,0,0,3,0,3,4,7
5,7,1,14,8,10,12,12,43,17,14,13,12,12,12,13,14,16,12,15,15,16,16,14,0,0,0,14,0,13,19,0,0,0,31,0,0,0,48,7,2,0,1,2,0,0,0,0,0,0,0,0,0,0,0,0,0,0,0,3,3,4,10,10
8,9,5,5,8,11,19,14,17,15,48,13,14,14,12,12,14,12,15,13,14,15,0,16,17,0,0,18,0,0,0,0,11,0,0,0,5,45,0,0,18,7,0,0,0,0,0,0,1,0,0,0,0,0,0,0,0,0,0,5,0,5,10,6
9,4,9,4,6,10,8,14,10,16,12,14,14,12,13,14,14,13,15,16,15,15,15,16,10,0,0,14,0,0,0,1,0,0,0,22,0,0,12,1,8,48,0,0,0,0,0,0,0,0,0,0,0,0,0,0,0,0,1,0,0,5,7,10
5,0,10,5,10,12,8,12,16,15,12,44,12,12,12,15,14,14,15,15,17,16,12,15,0,0,0,15,1,30,14,0,0,0,19,0,0,2,48,0,12,10,0,2,1,0,0,0,0,0,0,0,0,0,0,0,0,0,0,0,5,5,2,4
10,4,0,11,4,11,10,12,15,14,15,12,12,48,14,15,13,14,14,16,16,16,16,16,0,0,0,12,0,0,0,27,0,0,0,18,19,48,1,12,2,7,0,0,0,0,0,0,1,0,0,0,0,3,0,0,0,0,0,0,2,4,10,5
3,12,6,5,9,12,11,12,13,45,13,10,12,12,12,11,14,14,15,14,16,14,15,0,16,0,12,0,1,26,0,0,0,0,20,0,21,8,1,1,0,48,6,0,0,0,1,0,0,0,0,0,0,0,0,0,0,0,0,3,4,2,4,3
8,0,5,7,5,14,13,10,48,12,15,12,12,12,12,13,12,13,14,16,15,15,13,15,0,0,0,14,0,27,1,1,0,0,17,0,0,7,10,0,48,0,2,3,0,2,0,0,2,0,0,0,0,0,0,0,0,0,0,4,0,3,3,0
3,10,5,12,7,12,12,47,13,15,17,13,14,14,12,13,16,15,13,14,17,17,14,12,11,0,0,16,0,0,27,0,0,17,0,0,21,0,0,10,1,48,3,0,0,8,0,0,1,0,0,0,0,0,0,0,0,0,0,4,1,4,5,7
11,7,8,9,16,13,14,48,14,46,13,13,11,11,11,12,12,13,12,13,15,17,16,14,0,0,0,0,14,3,0,0,0,0,0,17,0,0,16,0,2,0,3,11,0,3,0,1,0,1,0,0,0,3,0,0,0,0,0,0,3,5,8,2
