18,36,9,15,48,39,36,30,39,33,135,36,33,27,33,141,30,27,39,39,33,51,24,30,0,0,0,33,0,9,0,0,0,36,0,0,3,0,6,21,144,6,39,0,0,0,0,0,0,0,0,0,0,0,0,0,0,0,0,0,6,30,27,6
24,21,15,27,21,75,48,42,33,39,36,144,39,42,18,21,24,30,0,45,48,9,24,21,0,0,0,39,0,93,0,0,0,0,0,132,30,63,0,6,12,0,0,0,0,0,0,0,0,0,0,0,0,0,0,0,0,0,0,0,0,18,15,45
21,3,138,27,3,33,21,123,39,33,42,39,30,36,30,30,24,36,42,36,15,30,0,36,0,48,24,0,90,0,48,0,0,0,0,0,0,0,0,0,30,144,3,0,0,0,0,0,0,0,0,0,0,0,0,0,0,0,0,0,0,18,30,15
9,21,3,9,36,144,15,36,48,30,123,27,30,24,21,30,33,30,24,0,45,21,27,0,24,0,0,42,3,3,0,54,0,0,0,18,0,0,3,33,3,3,12,144,60,0,0,0,0,0,0,0,0,0,0,0,0,0,0,0,0,9,12,15
72,12,21,3,15,39,45,36,48,36,144,36,36,24,24,27,27,24,18,42,18,18,12,39,0,0,57,0,0,3,78,0,0,0,63,0,0,69,0,3,3,0,21,0,0,0,0,0,0,0,0,0,0,0,0,0,0,0,0,0,6,3,18,30
21,12,6,24,18,21,24,24,36,30,36,144,27,24,30,27,30,18,33,0,39,15,0,45,0,0,0,33,3,96,0,0,51,0,30,144,0,36,6,30,0,0,3,0,0,0,0,0,0,0,0,0,0,0,0,0,0,0,0,30,3,0,30,21
21,21,9,12,27,57,36,36,42,36,36,33,36,36,21,27,33,36,21,33,33,45,0,42,0,0,0,39,0,3,3,0,15,0,0,0,36,0,0,15,12,15,126,0,0,0,0,0,0,0,0,0,0,0,0,0,0,0,0,0,0,12,12,30
18,12,24,9,15,39,24,30,30,141,30,30,24,33,24,30,36,36,36,33,45,36,42,12,15,36,0,0,0,0,0,42,54,0,0,0,0,0,144,0,0,3,0,0,0,0,0,0,0,0,0,0,0,0,0,0,0,0,0,0,0,15,6,21
21,18,21,3,15,15,27,132,48,27,27,24,30,30,24,27,24,27,24,27,24,36,36,30,0,0,0,39,3,105,6,0,63,57,0,0,0,0,21,0,24,15,144,3,3,0,0,0,0,0,0,0,0,0,0,0,0,0,0,3,0,24,6,15
21,24,24,18,27,138,36,30,141,30,30,30,24,33,27,27,24,33,0,27,39,30,36,0,24,24,0,33,0,0,60,0,0,0,0,0,0,0,0,48,3,144,96,0,0,0,0,0,0,0,0,0,0,0,0,0,0,0,0,0,3,12,9,24
36,6,9,21,15,18,30,42,30,36,30,144,30,24,30,24,24,30,21,33,0,36,27,30,0,0,0,42,0,93,36,0,0,0,63,0,0,0,3,15,0,0,15,9,0,0,0,3,0,0,0,0,0,0,0,0,0,0,0,3,0,6,12,33
24,3,21,9,33,30,24,21,33,141,30,30,27,27,30,30,24,24,27,24,36,27,27,30,0,0,0,9,90,27,0,0,0,69,0,39,0,0,39,0,144,0,0,9,0,0,0,0,0,0,0,0,0,0,0,0,0,0,0,0,3,15,21,30
21,27,12,45,3,24,42,42,48,30,36,144,36,36,24,21,27,30,30,36,33,30,36,45,0,0,42,0,9,3,0,0,0,0,0,0,54,3,0,0,9,3,3,0,0,0,0,0,0,0,0,0,0,0,0,0,0,0,0,0,21,9,24,21
18,9,15,30,36,27,30,33,114,45,33,33,30,30,24,27,24,30,27,27,21,45,18,30,0,48,0,0,63,0,0,3,0,0,0,57,0,15,0,42,3,144,0,6,0,0,0,0,0,0,0,0,0,0,0,0,0,0,0,0,6,24,15,30
24,21,111,21,9,21,39,30,33,30,30,30,30,30,30,27,24,30,27,27,27,24,0,27,33,0,0,0,27,0,0,3,0,36,0,0,0,138,0,0,15,0,18,6,0,0,0,0,0,0,0,0,0,0,0,0,0,0,0,0,3,18,24,36
27,9,0,24,21,30,18,105,33,36,27,27,27,36,27,30,27,39,30,24,39,30,30,0,30,0,0,42,0,0,0,0,0,51,0,0,0,0,0,39,3,144,9,0,0,0,0,0,0,0,0,0,0,0,0,0,0,0,0,0,0,12,18,30
21,3,6,9,30,18,66,21,48,33,24,27,30,144,24,27,27,27,33,27,0,36,39,24,0,0,6,0,21,78,0,3,0,39,0,0,0,144,3,42,0,0,12,0,0,0,24,0,0,0,0,0,0,0,0,0,0,0,9,0,0,15,15,9
18,21,6,15,24,24,27,36,45,141,30,36,33,42,27,24,30,21,21,0,30,42,15,21,0,0,30,0,0,0,0,66,0,0,0,48,0,3,0,0,144,0,0,0,3,0,0,0,0,0,0,0,0,0,0,0,0,0,0,0,12,0,21,36
36,6,27,3,12,30,24,141,24,42,30,30,42,24,24,24,33,27,30,0,45,18,30,36,0,0,0,45,0,6,69,30,0,51,0,0,0,0,51,30,0,144,15,0,0,0,0,0,0,0,0,0,0,0,0,0,0,0,0,0,0,6,0,24
9,9,33,15,30,33,9,30,30,30,33,30,39,27,30,27,30,24,33,27,24,0,42,27,48,0,0,0,0,90,3,0,0,0,51,0,141,60,48,0,3,3,0,0,0,0,0,0,0,0,0,0,0,0,0,0,0,0,0,0,15,0,21,27
12,15,6,15,21,24,42,30,36,123,33,33,33,27,24,15,9,33,36,24,30,27,18,21,0,0,42,0,3,84,0,48,0,0,0,51,0,21,0,144,36,60,0,0,0,0,0,0,0,0,0,0,0,0,0,0,0,0,0,0,0,27,27,18
15,3,3,12,33,24,30,36,138,21,24,30,24,21,21,21,18,24,24,27,27,18,0,0,0,0,0,36,3,84,0,24,0,0,0,0,0,48,0,0,0,144,0,24,3,0,0,3,0,0,0,0,0,0,0,0,0,0,0,0,0,6,24,18
15,24,6,12,33,27,42,30,36,144,36,39,42,27,18,15,15,15,9,9,15,15,6,0,0,0,0,45,0,69,69,0,54,0,0,0,0,141,0,24,0,3,0,9,0,0,0,0,0,0,0,0,0,0,0,0,0,0,0,15,0,0,21,18
3,18,33,0,24,39,33,36,117,36,42,30,27,30,21,21,18,30,24,21,0,39,21,27,0,42,0,0,0,9,0,0,69,0,0,0,57,0,0,42,3,0,144,0,0,0,0,0,0,0,0,0,0,0,0,0,0,0,0,0,3,12,9,24
6,24,18,6,30,24,33,36,144,33,27,30,30,27,30,24,18,21,21,21,24,27,0,0,0,0,0,0,36,96,0,6,0,0,0,0,51,0,0,144,3,0,0,0,0,0,0,0,0,0,0,0,0,0,0,0,0,0,0,0,0,15,15,21
21,33,27,6,39,48,21,132,27,30,36,27,21,24,21,21,24,24,27,15,21,21,27,0,0,36,0,33,3,0,0,39,0,0,0,0,36,24,0,48,144,21,36,3,0,0,0,0,0,0,0,0,0,0,0,0,0,0,0,0,3,24,27,21
27,15,3,12,81,27,42,30,27,30,36,33,36,24,18,27,21,33,33,0,27,48,33,0,21,0,0,36,6,3,63,3,0,0,63,0,0,0,57,144,0,3,0,0,0,0,0,0,0,0,0,0,0,0,0,0,0,0,0,0,30,0,0,18
12,24,15,21,24,30,126,36,30,27,39,33,39,24,18,21,21,30,24,24,39,39,24,0,0,0,0,39,0,0,69,0,0,0,54,0,0,33,0,3,3,0,0,0,144,3,0,0,0,0,0,0,0,0,0,0,0,0,0,0,3,30,12,24
12,57,12,15,45,36,30,48,36,30,30,33,30,30,24,15,21,21,21,24,24,24,27,30,0,0,0,42,0,36,0,42,0,0,0,0,0,75,0,3,144,36,0,0,0,0,0,0,0,0,0,0,0,0,0,0,0,0,0,0,0,27,24,15
21,9,21,9,42,27,30,105,33,21,27,24,15,24,24,21,21,24,21,0,33,12,21,0,15,0,36,0,0,78,0,0,0,54,0,0,0,0,30,0,144,9,3,0,0,0,0,0,0,3,0,0,0,0,0,0,0,0,0,0,0,15,9,27
21,18,30,3,24,69,18,36,33,141,30,30,24,24,24,24,33,21,36,0,30,30,27,18,0,0,0,30,90,3,0,3,0,63,66,0,0,0,144,30,6,0,0,0,3,0,0,0,0,0,0,0,0,0,0,0,0,0,0,0,24,0,9,27
24,27,12,15,69,12,36,45,24,141,36,39,36,27,21,24,21,30,0,24,33,30,27,30,0,0,0,39,9,48,0,54,0,0,0,78,0,0,36,24,144,3,0,6,0,0,0,0,0,0,0,0,0,0,0,0,0,0,0,0,0,9,24,21
27,6,3,30,30,138,30,30,30,27,30,144,33,24,27,24,24,24,24,0,39,30,0,30,0,36,0,0,96,69,0,0,0,0,0,0,57,3,0,144,6,0,108,0,0,0,0,0,0,0,0,0,0,0,0,0,0,0,0,0,3,21,15,24
18,9,12,33,24,90,30,36,30,114,45,144,24,30,21,24,24,24,27,30,24,30,21,21,0,0,0,39,0,96,0,3,0,0,0,0,42,75,0,0,144,21,0,0,0,0,0,0,0,0,0,0,0,0,0,0,0,0,0,0,24,24,33,21
24,0,18,9,30,30,144,24,30,24,30,27,36,24,21,21,24,24,33,27,30,30,18,0,42,0,0,42,0,0,0,0,0,57,0,0,0,36,3,0,27,144,21,0,0,0,0,0,0,0,0,0,0,0,0,0,0,0,0,0,18,24,24,3
18,12,15,93,12,33,27,30,36,42,144,27,21,30,21,24,24,24,27,0,0,27,42,30,0,0,0,39,3,0,57,0,0,0,57,0,21,0,6,144,0,6,0,9,0,0,0,0,0,0,0,0,0,0,0,0,0,0,0,0,15,0,9,24
9,30,6,27,27,33,30,33,48,36,33,36,27,33,30,24,27,24,36,27,30,30,0,0,0,0,0,0,45,84,0,0,3,0,60,0,0,3,9,0,30,24,132,3,0,0,0,0,0,0,0,0,0,0,0,0,0,0,0,0,0,3,30,18
15,12,3,33,21,30,30,144,21,33,33,30,21,21,30,24,27,24,33,27,30,24,0,3,18,0,0,42,6,0,75,0,0,0,57,0,0,51,36,144,6,9,9,0,0,0,0,0,138,0,0,0,0,0,0,0,0,0,0,3,0,15,6,30
24,24,42,9,21,27,144,36,36,39,42,27,33,18,24,30,27,27,42,27,0,27,33,0,0,0,0,45,0,42,0,0,75,0,0,0,0,6,54,3,9,141,0,0,0,15,0,0,0,0,0,0,0,0,0,0,0,0,0,0,3,15,18,27
24,24,24,39,27,21,141,33,33,39,27,24,27,30,27,24,126,24,24,27,0,39,27,27,0,0,39,0,0,102,63,0,0,51,0,0,0,0,144,0,27,12,0,0,3,0,0,0,0,0,0,0,0,0,0,0,0,0,0,0,3,33,6,15
30,12,3,21,18,39,21,90,27,42,24,21,33,24,141,30,27,24,21,24,36,0,30,0,0,0,0,6,48,0,21,0,57,0,0,0,3,144,0,0,27,0,30,0,0,0,0,0,0,0,0,0,0,0,0,0,0,0,0,0,15,0,21,27
36,15,15,15,27,15,111,30,33,33,30,27,27,30,24,27,30,30,36,39,30,36,45,36,0,0,21,0,9,0,60,6,0,0,45,0,0,6,57,0,0,144,27,0,0,0,0,0,0,0,0,0,0,0,0,0,0,0,0,0,6,6,9,30
30,9,15,15,42,21,27,36,39,27,33,30,24,24,30,24,27,27,27,33,30,39,30,21,0,0,48,0,0,78,0,0,0,0,0,0,0,0,18,3,144,0,45,0,0,0,3,0,0,0,0,0,0,0,0,0,0,0,0,0,0,9,18,24
21,3,24,12,12,24,39,30,45,30,36,36,144,30,24,24,21,24,27,30,36,0,36,30,0,0,0,0,39,3,3,0,0,141,0,0,0,42,48,0,3,3,3,0,0,0,144,0,0,0,0,0,0,0,0,0,0,0,0,0,0,15,21,138
9,24,30,39,12,36,36,36,144,36,36,27,33,30,36,15,30,9,0,15,48,0,30,9,0,0,0,39,0,0,84,0,0,0,0,57,0,0,144,0,3,12,0,0,0,0,0,0,102,0,0,0,0,0,0,0,0,0,0,0,0,15,24,27
24,33,3,15,33,24,42,42,33,27,45,36,24,21,24,36,27,30,45,24,0,15,15,0,21,0,0,3,36,0,0,0,0,0,0,48,0,0,0,9,0,138,6,0,21,0,0,0,0,0,0,0,0,0,0,0,0,0,0,0,3,15,21,24
24,18,3,30,15,15,105,24,33,30,39,24,30,27,24,21,30,30,15,0,0,39,27,9,0,0,0,15,36,0,69,3,0,51,0,0,144,3,57,27,0,0,0,0,0,0,0,0,0,144,0,0,0,0,0,0,0,0,0,0,3,12,12,18
27,15,141,24,21,36,36,42,144,30,42,39,141,30,24,24,33,30,0,24,0,6,39,0,0,0,0,42,78,0,3,0,0,39,0,0,0,60,0,144,21,0,0,0,0,0,0,0,0,0,0,0,0,0,0,0,0,0,0,0,6,27,30,30
18,24,9,27,36,27,39,30,117,36,30,30,27,24,21,21,24,33,24,30,6,0,36,21,0,0,0,33,96,3,9,0,54,0,0,0,0,39,39,3,9,0,15,0,0,0,0,0,0,0,0,0,0,0,0,0,0,0,0,0,0,12,27,21
9,27,9,21,36,18,24,141,36,24,24,27,18,21,21,30,30,21,24,9,0,36,0,27,15,0,48,0,0,81,36,0,3,0,0,0,0,0,0,3,0,120,48,0,0,0,0,0,0,0,0,0,0,0,0,0,0,0,0,0,0,6,21,24
