40,8,64,255,96,24,104,128,255,104,96,128,136,208,136,152,136,136,152,136,136,128,136,0,152,0,0,112,0,0,0,8,0,0,0,224,200,104,255,8,0,24,16,56,48,0,0,0,0,0,0,0,0,0,0,0,0,0,16,0,8,56,40,32
64,16,56,72,112,128,112,96,255,96,136,136,136,136,128,136,136,128,112,136,120,120,144,128,0,104,0,0,88,0,8,0,0,0,8,0,160,224,8,255,112,0,64,0,48,0,0,0,0,0,0,0,0,0,0,0,0,0,0,8,8,56,24,56
0,24,16,96,136,56,255,136,120,136,120,136,136,128,255,136,136,128,144,136,128,128,136,0,112,0,0,0,64,88,0,0,0,0,0,96,0,0,128,24,255,8,0,40,0,0,0,0,0,0,0,0,0,0,0,0,0,0,8,8,40,8,56,56
8,40,56,16,104,255,120,96,112,112,128,104,255,136,136,128,136,128,128,120,136,136,128,112,0,0,0,104,0,80,16,8,0,0,0,128,0,0,0,255,80,96,32,8,0,0,0,0,0,0,0,0,0,0,0,0,0,0,0,8,80,96,40,64
56,40,96,88,128,104,96,104,88,96,120,128,144,128,136,120,112,120,120,112,104,128,136,136,0,0,0,8,80,224,0,0,0,0,144,0,0,144,112,0,0,0,255,16,0,0,0,0,0,0,0,0,0,0,0,0,0,0,0,0,56,8,40,96
32,40,64,16,144,80,104,112,128,255,112,128,128,128,136,128,128,128,128,112,120,128,112,112,0,0,0,96,0,0,0,0,0,0,168,0,0,24,136,88,255,16,0,48,8,0,0,0,0,0,0,0,0,0,0,0,0,0,0,0,0,32,40,56
128,72,16,48,80,104,104,128,120,104,136,112,128,128,136,152,136,128,112,120,120,136,120,112,0,0,0,112,0,208,0,0,0,136,0,0,0,200,0,0,16,255,0,32,0,0,0,40,0,0,0,0,0,0,0,0,0,0,0,0,24,8,40,88
96,24,56,128,40,112,112,120,112,120,104,104,128,136,144,120,128,128,136,128,120,120,136,128,0,0,0,96,8,8,8,0,112,0,168,0,152,16,0,48,255,0,40,0,32,0,0,0,8,0,0,0,0,0,0,0,0,0,0,16,24,48,40,56
72,16,32,16,120,80,255,112,104,112,128,112,136,128,255,152,128,120,136,128,136,112,136,136,0,0,0,8,112,0,0,255,0,0,0,0,0,255,88,0,0,80,24,0,16,0,0,0,0,0,0,0,0,0,0,0,0,0,0,0,32,24,72,8
16,16,64,120,48,96,120,112,200,96,104,128,120,128,128,160,136,136,120,128,136,136,120,0,136,0,0,112,0,8,255,0,0,0,152,0,0,0,8,112,0,96,16,8,0,0,0,0,0,0,0,0,0,8,0,0,0,0,0,0,40,16,32,24
24,8,96,80,96,112,104,104,255,120,104,128,128,255,128,128,128,136,128,128,128,120,0,136,136,0,0,112,0,0,255,0,0,8,152,0,184,112,8,64,48,8,0,0,0,0,0,0,0,0,0,0,0,0,0,0,0,0,0,0,8,96,48,72
8,24,24,0,104,120,104,88,96,136,255,136,144,136,144,136,128,136,128,112,136,136,104,112,0,0,0,96,0,0,0,0,0,0,0,0,136,80,144,8,0,255,8,8,0,0,0,0,0,0,0,0,0,0,0,0,0,0,0,0,8,40,56,48
80,24,40,96,96,120,136,120,96,96,255,96,128,128,120,136,136,152,120,128,128,136,128,0,128,0,0,0,112,0,120,0,0,200,0,0,255,8,8,40,128,48,0,0,0,16,8,0,0,0,0,0,0,0,0,0,0,0,0,8,0,24,88,56
64,32,64,128,48,88,112,80,96,136,96,128,136,136,136,144,120,128,128,120,128,136,104,0,120,56,0,112,0,64,0,8,0,0,0,0,72,0,16,160,255,8,56,0,8,0,32,0,0,0,0,0,0,0,0,0,0,0,0,48,0,8,80,24
32,104,64,48,80,128,255,104,112,104,255,120,128,128,136,136,136,128,112,136,112,136,136,136,0,0,0,136,0,8,255,0,0,0,0,0,144,136,0,255,0,8,0,8,40,8,0,8,0,0,0,0,0,0,0,0,0,0,0,0,40,8,24,24
72,72,0,152,112,128,112,104,255,96,120,144,136,128,128,128,136,136,120,112,136,128,128,128,0,0,80,0,8,0,0,0,200,0,0,0,224,8,0,0,40,255,8,0,32,0,0,0,0,0,0,0,0,0,0,0,0,0,0,0,0,40,48,24
80,120,32,128,112,128,104,255,96,88,128,128,255,120,128,136,120,120,128,112,128,120,112,0,144,104,0,112,16,0,0,0,208,0,0,0,0,112,8,168,0,0,8,24,0,0,0,8,0,0,0,0,0,0,0,0,0,0,0,16,48,40,48,40
32,16,0,40,120,128,112,255,112,96,104,144,144,128,120,112,120,112,120,136,112,120,112,88,96,0,0,112,0,8,0,128,0,0,128,0,80,0,0,64,0,255,16,8,0,0,0,0,0,0,0,0,0,0,0,0,0,0,0,8,0,80,80,64
112,112,80,16,112,96,112,255,128,112,104,255,120,136,128,120,120,120,128,112,104,120,128,104,0,0,0,0,96,224,8,0,0,0,0,152,0,40,255,8,24,24,0,0,32,0,0,0,0,0,0,0,0,0,0,0,0,0,0,8,8,80,24,24
40,16,48,80,112,96,112,112,104,128,128,120,128,128,120,128,128,136,128,120,112,112,128,128,0,0,0,8,120,0,0,0,8,8,0,168,0,176,8,80,8,0,255,0,0,0,0,0,0,0,0,0,0,0,0,0,0,0,0,8,0,40,96,24
56,24,40,88,96,128,152,144,255,104,120,128,120,136,255,128,120,152,112,120,112,128,136,120,0,0,0,128,128,8,0,0,0,0,160,0,0,208,136,8,255,0,56,8,0,0,0,8,0,0,0,8,0,0,0,0,0,8,0,0,32,0,32,112
32,16,72,24,128,104,104,255,96,120,112,112,128,136,120,136,136,120,128,136,136,120,128,128,0,0,0,200,16,80,0,0,0,0,128,0,0,56,144,0,24,8,0,0,0,0,0,0,0,0,0,0,0,0,0,0,0,0,0,0,8,32,72,56
104,24,56,80,112,255,104,112,112,128,255,120,128,136,136,136,136,128,128,112,104,144,120,104,88,0,0,112,24,0,0,0,0,0,224,0,255,0,152,0,8,32,0,0,0,255,0,0,0,0,0,0,0,0,0,0,0,0,0,8,40,72,48,16
24,64,255,48,88,96,80,255,88,104,120,128,255,128,136,128,136,128,112,128,112,112,120,120,0,0,0,120,24,56,0,8,0,0,0,168,56,0,0,80,0,24,0,8,0,64,0,0,0,0,0,0,0,0,0,0,0,0,0,0,16,120,16,24
32,32,24,64,255,128,88,112,152,255,112,128,144,144,128,112,128,128,152,112,120,128,128,112,0,0,0,96,8,0,0,0,144,0,0,0,104,72,0,255,16,0,80,0,64,0,0,0,0,0,0,0,0,0,0,0,0,0,0,16,8,80,24,64
24,88,24,96,88,72,144,255,112,128,104,120,128,255,136,136,128,128,120,136,104,144,120,128,0,0,0,0,104,255,8,0,0,0,0,136,0,255,0,0,16,16,0,0,0,8,0,0,255,0,0,0,0,0,0,0,0,0,0,0,8,32,8,64
56,24,88,96,24,255,120,80,80,255,96,136,144,152,128,128,128,112,136,112,128,96,96,104,104,0,0,112,8,0,0,8,0,0,0,0,168,0,128,160,255,32,72,0,0,0,0,8,0,0,0,0,0,0,0,0,0,0,0,0,8,112,56,48
56,72,40,32,128,120,96,255,104,96,112,112,120,255,128,136,128,128,128,88,112,120,88,128,0,0,0,112,0,136,0,0,0,0,0,0,160,255,112,8,0,0,255,0,24,0,0,0,0,0,0,0,0,0,0,0,0,0,0,0,8,24,56,32
80,40,16,96,24,88,88,255,96,112,255,152,112,128,128,120,104,104,96,120,96,128,128,0,120,0,112,0,0,0,0,0,0,64,0,0,0,160,0,120,16,0,8,24,8,8,0,0,0,0,0,0,0,0,0,0,0,0,0,8,40,56,64,88
112,24,0,96,88,96,128,104,88,96,112,128,255,120,112,112,128,112,120,112,128,112,120,120,0,0,0,0,112,0,0,240,0,0,0,0,0,0,168,255,40,8,0,8,8,0,0,0,0,0,0,0,0,0,0,0,0,0,0,0,8,24,24,80
104,32,96,96,32,96,104,152,80,120,112,120,120,120,255,128,136,136,88,112,104,112,128,88,0,0,0,0,104,0,0,16,0,255,0,0,8,8,128,0,0,0,96,0,16,255,0,0,0,0,0,0,0,0,0,0,0,0,0,8,0,56,72,56
255,24,16,16,80,112,120,88,88,255,112,112,128,136,128,152,128,120,112,112,112,128,104,112,0,0,0,136,0,0,8,208,0,0,8,0,0,0,0,255,8,40,40,64,0,0,0,0,0,0,0,0,0,0,0,0,0,0,0,0,16,40,64,48
24,24,64,24,128,120,112,96,88,96,104,112,128,136,128,128,120,136,136,104,136,104,128,128,0,0,0,112,0,0,0,255,0,0,0,0,128,88,255,112,16,0,8,0,24,0,0,0,0,0,0,0,0,0,0,0,0,0,0,8,40,48,56,48
56,48,8,104,88,120,136,120,104,96,144,112,128,152,128,120,128,128,112,120,112,112,128,255,0,0,0,0,104,0,16,200,0,0,0,0,8,56,128,255,56,0,8,216,24,0,0,0,0,0,0,0,0,0,0,0,0,0,0,0,40,0,32,48
56,24,32,24,120,120,96,96,96,112,112,120,255,136,136,136,128,144,128,128,128,104,128,112,0,0,0,96,0,8,16,200,0,0,0,0,160,255,0,255,0,16,8,8,0,0,0,0,0,0,0,0,0,0,0,0,0,0,0,8,8,24,16,56
88,32,24,8,96,104,104,96,80,104,112,144,128,104,112,128,152,120,128,120,112,128,0,0,128,120,0,112,0,0,0,0,0,0,0,0,0,32,96,8,80,80,16,8,0,8,0,0,0,0,0,0,0,0,0,0,0,0,0,16,8,48,64,56
80,56,8,96,112,104,112,120,120,255,128,112,104,136,144,136,120,120,120,128,112,120,120,0,88,104,0,0,0,0,0,128,8,0,0,160,0,112,0,40,16,255,40,0,0,0,0,0,0,0,0,0,0,0,0,0,0,8,0,0,0,32,64,56
24,16,96,64,64,80,136,112,136,112,255,120,128,128,112,120,128,128,120,120,112,128,0,112,96,0,0,0,112,0,16,0,192,0,0,0,8,104,0,80,255,16,8,8,0,0,0,0,0,0,0,0,0,0,0,0,0,0,0,8,0,24,32,16
32,72,16,64,144,104,80,160,96,255,96,112,120,128,136,120,136,120,112,128,112,128,128,128,0,0,0,104,0,0,0,0,0,0,0,0,168,136,128,255,0,8,24,0,0,0,0,0,0,0,0,0,0,0,0,0,0,0,0,0,24,8,152,24
80,8,40,32,120,104,96,255,96,96,104,136,104,120,104,104,136,128,112,88,128,136,96,0,136,0,0,112,0,0,255,0,0,0,0,144,0,64,0,8,16,64,8,255,0,0,0,0,0,0,0,0,0,0,0,0,0,0,0,8,0,40,48,48
48,112,112,32,104,112,104,96,255,112,112,112,128,112,120,112,120,128,120,112,128,112,120,120,0,0,0,0,120,232,0,8,0,0,0,136,0,0,0,255,0,0,0,32,0,0,0,0,0,0,0,0,0,0,0,0,0,0,0,8,8,32,72,72
16,48,8,56,128,64,128,255,96,96,104,112,112,128,136,128,120,120,128,120,112,104,104,120,0,0,0,136,0,0,8,200,0,0,128,0,0,200,40,8,8,0,255,8,0,8,0,8,0,0,0,0,0,0,0,0,0,0,0,0,16,64,24,80
40,0,48,96,120,80,96,96,255,104,120,255,152,120,128,152,144,128,128,128,128,144,128,88,104,0,0,0,112,0,16,0,200,0,0,0,0,128,88,255,8,8,0,0,0,0,0,0,0,0,0,0,0,0,0,0,0,0,0,8,40,64,32,32
8,40,8,0,120,88,255,120,112,128,255,104,112,128,136,120,120,128,128,128,128,128,120,120,0,0,0,8,0,128,0,0,128,0,0,0,0,0,40,255,8,0,24,0,0,0,0,0,8,0,0,0,0,0,0,0,0,0,0,0,24,8,24,96
104,48,8,96,56,255,88,120,120,104,136,128,255,120,128,120,120,128,112,120,120,120,128,0,112,0,0,8,96,0,0,0,0,0,0,0,0,136,255,16,56,0,24,32,0,0,0,0,0,0,0,0,0,0,0,0,0,0,0,16,0,40,128,48
40,24,32,24,96,112,104,80,96,112,112,136,128,120,128,136,128,120,120,112,112,128,128,120,0,0,0,112,192,8,0,0,0,0,152,0,0,112,0,255,128,56,8,104,8,0,0,0,0,0,0,0,0,0,0,0,0,0,8,0,0,88,40,56
48,56,8,64,96,112,96,255,104,120,112,112,128,120,128,136,120,120,104,112,104,120,128,104,0,112,0,0,0,255,0,8,0,0,0,0,96,0,0,0,16,255,8,0,8,0,0,0,0,0,0,0,0,0,0,0,0,0,0,0,24,40,40,48
152,8,32,48,64,96,104,88,255,104,96,104,136,128,128,128,128,112,112,112,120,112,104,48,112,0,0,0,80,24,0,0,255,0,0,8,0,0,104,48,0,0,24,0,8,0,0,0,0,0,0,0,0,0,0,0,0,0,0,16,8,32,80,56
104,40,32,136,24,104,255,96,112,96,112,136,112,128,255,128,112,128,128,112,120,136,128,104,0,0,0,152,0,255,0,0,0,0,0,0,224,112,255,0,8,8,152,16,0,0,0,0,0,0,0,0,0,0,0,0,255,0,0,0,8,104,24,40
96,16,56,24,24,112,255,88,112,104,112,112,128,128,112,136,112,120,128,128,112,120,104,0,120,0,0,96,0,8,216,0,0,0,0,0,152,0,0,0,255,8,0,8,0,0,0,0,0,0,0,0,0,0,0,0,0,0,0,0,40,16,32,56
