48,84,255,48,18,96,102,96,96,108,102,102,255,102,114,108,114,114,108,102,96,102,120,102,0,0,0,66,0,24,0,108,0,0,0,0,126,0,0,0,12,42,18,0,0,0,6,0,0,0,0,0,0,0,0,0,0,0,0,0,36,96,0,12
24,246,18,18,60,78,48,96,72,96,102,102,102,114,102,102,96,108,108,102,96,102,108,114,0,0,84,0,0,0,72,0,0,0,6,0,0,156,0,0,0,6,12,255,0,0,36,0,0,0,0,0,0,0,0,0,0,0,0,48,0,0,78,72
42,36,54,90,60,108,72,78,84,96,255,120,108,102,114,108,114,90,114,114,108,108,114,102,0,0,0,90,168,0,0,0,0,0,0,0,108,0,102,0,0,12,24,12,48,0,0,0,0,0,0,0,0,0,0,0,0,0,0,0,18,78,30,90
30,72,48,18,48,66,84,78,198,108,90,120,114,102,108,108,108,114,102,102,114,102,120,0,120,0,0,72,0,0,0,90,0,0,0,0,132,180,0,54,30,255,12,0,18,0,0,0,0,0,0,0,0,0,0,0,0,0,0,0,12,60,66,0
48,66,30,30,12,78,255,72,84,114,102,102,102,108,114,102,114,102,96,108,114,108,96,102,0,0,0,84,0,30,0,156,0,0,6,0,96,6,24,0,0,54,12,255,6,0,0,0,0,0,0,0,0,0,0,0,0,0,0,0,18,30,78,78
60,54,12,255,42,102,96,84,90,108,108,255,114,102,102,102,108,90,108,102,96,96,102,102,0,0,0,72,0,0,114,0,0,0,0,150,84,0,255,12,0,0,18,0,0,0,0,0,0,0,0,0,0,0,0,0,0,0,0,0,6,6,54,60
18,30,0,42,96,78,162,72,102,102,126,102,102,102,108,96,108,108,108,126,114,108,120,108,0,0,0,84,0,0,84,18,0,0,0,0,0,96,255,6,66,18,6,6,72,6,0,6,0,0,0,0,0,0,0,0,0,0,0,6,36,42,60,54
6,36,36,84,18,60,72,60,96,102,102,120,102,102,96,108,255,102,102,114,102,102,102,114,0,0,96,0,0,0,102,0,0,0,0,108,48,102,12,255,6,0,6,0,48,0,0,0,0,0,0,0,0,0,0,0,0,0,0,0,36,0,30,6
12,60,54,36,54,72,84,228,90,108,102,102,114,114,255,102,102,96,96,102,102,102,102,102,0,0,0,84,0,18,0,0,0,96,0,0,0,72,0,255,30,0,12,12,0,0,0,6,0,0,0,0,0,0,0,0,0,0,0,6,12,18,66,30
36,30,12,18,84,72,252,84,114,84,108,114,108,255,126,102,114,102,96,96,102,102,102,90,0,72,0,84,0,0,102,6,0,0,90,0,0,0,0,18,255,54,30,18,0,0,0,0,0,0,0,0,0,0,0,0,0,0,0,0,12,24,30,48
60,72,60,66,66,78,102,102,78,102,102,108,102,96,102,108,96,102,102,96,96,96,90,102,0,0,0,84,0,0,6,0,156,0,0,0,162,0,0,36,0,255,24,0,0,0,0,0,0,0,0,0,0,0,0,0,0,0,0,0,6,36,24,24
30,42,6,18,240,60,60,84,255,102,96,114,102,132,108,144,120,90,96,96,102,108,108,114,0,0,0,96,0,162,6,6,0,0,96,0,0,114,0,12,0,255,18,12,0,0,0,6,0,0,0,0,0,0,0,0,0,0,6,0,0,0,12,42
24,36,12,72,48,84,72,84,72,102,102,96,102,114,255,108,102,102,96,90,102,84,108,0,96,0,0,90,0,0,6,0,0,0,0,84,0,30,0,255,6,6,0,192,0,0,0,18,0,0,0,0,0,0,0,0,0,0,0,0,0,42,12,60
96,60,18,30,60,60,60,255,102,102,96,96,108,102,102,102,108,108,84,102,102,96,96,102,0,0,0,66,0,0,0,0,78,0,0,0,72,78,18,0,6,36,255,12,0,0,6,0,0,0,0,0,0,0,0,0,0,0,0,0,6,30,36,6
48,42,60,240,60,66,54,60,102,90,114,255,114,102,96,102,102,96,96,96,102,108,102,102,0,0,60,0,0,6,0,84,0,0,0,0,168,102,255,6,24,0,0,0,6,6,0,0,0,0,6,0,0,0,0,0,0,0,0,0,12,36,24,66
60,30,48,24,72,66,72,90,162,114,102,102,96,102,102,102,96,96,96,102,90,102,96,114,0,0,84,0,12,0,168,0,0,0,0,0,0,48,66,0,24,0,255,0,0,0,24,0,0,0,6,0,0,0,0,0,0,0,0,0,12,54,18,78
78,6,78,192,60,72,84,72,78,114,102,102,102,108,102,96,102,96,114,120,120,114,126,84,108,0,0,6,96,18,0,120,0,0,0,0,0,48,0,255,30,66,0,0,0,0,0,0,0,0,0,12,0,0,0,0,0,0,0,12,0,30,24,72
30,0,6,84,66,60,78,72,84,96,108,108,108,108,108,255,96,96,108,114,102,96,102,0,114,0,84,102,0,0,0,24,0,0,0,96,0,0,0,162,12,24,0,0,12,0,0,0,0,0,0,6,0,0,0,0,0,0,0,12,0,24,78,42
36,90,24,0,36,72,42,66,90,114,96,108,102,255,126,102,102,96,102,114,96,90,90,96,0,0,0,78,0,12,84,0,0,0,0,255,162,6,18,6,78,12,18,0,12,0,0,0,0,0,0,0,0,0,0,0,0,0,0,0,12,48,30,60
24,66,42,30,72,90,84,78,84,150,108,114,102,114,102,114,102,96,114,108,102,108,96,114,0,0,0,0,90,6,0,0,84,0,0,144,0,0,84,12,72,36,0,18,0,0,0,0,6,6,0,0,0,0,0,0,0,0,0,42,6,0,6,78
42,18,54,252,84,54,78,60,60,96,90,108,102,102,108,114,102,114,90,114,96,114,102,114,0,0,0,0,78,138,0,0,6,0,0,120,0,0,96,6,0,6,24,60,0,48,0,0,0,0,0,0,0,0,0,0,0,0,0,12,36,6,18,36
78,42,30,78,78,48,66,186,84,102,102,114,102,102,96,108,255,114,96,108,108,108,96,96,0,0,0,78,0,0,12,0,0,0,114,0,255,168,0,6,0,84,24,0,12,0,0,12,0,0,0,0,0,0,0,0,0,0,0,0,6,48,78,48
66,60,18,0,60,78,72,96,90,102,114,126,96,108,102,114,108,102,102,96,102,90,90,96,0,0,0,72,0,114,0,0,0,0,0,144,0,0,96,90,0,255,0,30,0,0,6,12,0,0,0,0,0,0,0,0,0,0,6,0,18,78,36,42
54,0,30,72,18,108,66,84,78,114,255,108,108,114,102,114,102,102,108,96,102,96,96,0,102,0,0,96,6,18,138,0,0,0,84,150,0,6,0,255,0,24,0,12,0,0,0,6,0,0,0,0,0,0,0,0,0,0,0,12,42,66,30,66
48,42,24,60,78,255,72,60,96,102,108,255,108,114,102,120,96,102,108,108,102,108,126,108,0,0,0,84,0,0,0,60,6,0,0,0,72,6,96,30,255,18,6,0,0,12,0,0,0,0,0,0,0,0,0,0,0,0,0,0,18,54,72,60
36,30,0,72,42,30,84,222,78,102,102,102,102,96,114,102,102,114,90,96,96,120,102,0,114,6,0,84,12,0,0,72,0,0,6,0,48,0,60,30,36,42,0,255,6,24,0,0,0,0,0,0,0,0,0,0,0,0,0,24,0,6,48,48
48,54,6,0,66,30,78,255,96,120,108,102,96,114,120,102,102,102,102,102,102,108,114,102,6,0,0,96,0,0,102,0,0,18,84,0,42,0,6,48,66,0,18,255,0,6,0,0,0,0,0,0,0,0,0,0,0,0,0,6,0,30,72,36
72,216,36,48,48,66,72,84,108,96,255,102,102,114,102,102,108,114,102,108,90,102,108,96,0,0,72,0,0,0,198,0,12,0,0,0,0,0,120,0,36,12,18,12,6,0,0,0,0,0,0,0,0,0,0,0,0,0,0,0,36,12,72,42
30,30,30,96,18,255,30,60,84,96,96,102,114,108,108,114,96,108,120,102,126,114,114,120,84,0,0,78,0,0,126,6,0,0,0,0,102,0,96,30,6,12,255,36,0,36,0,18,0,0,0,0,0,0,0,0,0,0,0,18,12,54,36,30
66,48,12,108,66,96,60,54,114,108,102,114,120,114,108,96,102,108,126,108,78,114,108,126,0,0,0,78,0,0,150,0,0,0,0,126,0,108,255,42,18,0,30,12,0,0,0,0,0,0,0,0,0,0,0,0,0,0,0,0,12,30,30,84
6,84,18,36,6,84,84,255,108,126,120,150,108,114,132,126,120,114,114,102,120,120,114,114,0,0,84,18,0,0,108,0,0,0,108,0,0,102,24,12,6,6,96,0,0,0,0,0,0,0,0,0,0,0,0,0,0,0,0,6,0,78,48,6
78,240,60,30,0,72,84,84,114,114,114,114,108,114,114,138,114,114,96,102,114,66,108,114,0,0,0,66,0,180,0,0,6,0,102,108,0,0,0,48,0,6,30,42,0,0,0,0,0,0,0,0,0,0,0,0,0,0,0,0,42,12,66,66
48,0,6,66,18,72,60,162,114,120,114,114,255,126,108,126,126,114,102,102,114,126,102,102,96,0,0,78,0,30,0,114,6,0,0,6,0,114,0,255,90,0,18,6,6,0,0,0,0,0,0,0,0,0,0,0,0,0,0,6,0,78,24,30
42,54,42,48,24,72,204,78,96,114,114,255,126,126,114,126,120,114,114,120,114,102,120,102,0,0,0,72,0,0,0,0,0,0,0,0,0,42,90,255,24,0,6,54,30,0,0,0,0,0,0,0,0,0,0,0,0,0,0,12,54,36,12,78
24,42,36,36,78,60,66,102,108,255,120,114,132,120,120,102,108,102,120,114,102,132,120,0,114,0,0,96,0,42,0,0,0,0,0,126,0,0,0,0,0,255,42,0,36,6,0,6,0,0,0,0,0,0,0,0,0,0,0,0,18,66,84,48
24,0,72,42,72,72,84,84,78,120,126,120,114,255,108,120,114,114,120,108,120,114,114,96,0,0,0,0,72,96,0,0,90,0,0,102,0,255,42,0,0,18,48,0,0,0,0,0,0,0,0,0,0,0,0,0,0,0,6,0,0,30,66,60
6,54,42,54,0,66,60,72,192,114,114,120,126,114,132,120,126,102,108,120,102,108,108,0,90,0,0,72,0,18,0,150,48,0,0,90,6,0,0,30,0,6,24,0,18,6,0,0,0,0,0,0,0,0,0,0,0,0,0,0,54,24,84,90
36,6,42,54,96,60,102,96,60,120,108,132,255,102,114,114,114,120,108,126,114,120,132,114,0,0,0,72,0,132,12,0,6,0,0,120,0,255,0,138,0,30,6,12,0,0,0,0,0,0,0,0,0,0,0,0,0,0,0,0,0,24,18,96
18,84,30,78,54,66,72,84,144,60,126,132,126,120,126,138,114,114,120,114,120,120,126,102,0,0,0,0,90,6,0,12,126,0,0,0,96,6,0,6,102,255,0,6,0,0,6,0,0,0,0,0,0,0,0,0,0,0,0,0,12,30,60,72
54,84,0,96,36,192,90,84,114,90,255,138,114,120,126,108,114,108,102,102,114,108,96,90,0,0,0,66,0,108,0,0,0,0,0,114,252,114,0,18,6,0,0,84,0,0,0,0,0,0,0,0,0,0,0,0,0,0,0,18,0,18,66,54
6,36,36,12,12,72,60,120,114,114,54,120,114,126,108,120,120,96,114,114,114,120,126,102,0,0,0,72,0,0,108,0,0,0,0,0,0,96,0,0,255,48,0,60,0,0,0,0,0,0,0,0,0,0,0,0,0,0,0,12,6,0,84,84
60,30,0,30,54,84,96,255,126,138,114,120,120,102,114,108,114,120,114,126,126,132,102,0,114,0,0,84,0,0,0,114,0,0,0,0,78,138,0,0,0,54,255,6,0,30,0,0,0,0,0,0,0,0,0,0,0,0,12,0,0,42,0,84
252,42,6,66,84,54,48,42,114,102,255,132,126,126,126,114,132,114,120,114,108,114,120,120,0,60,0,0,6,30,6,0,0,0,0,0,255,0,0,54,18,6,0,18,0,0,0,0,0,0,0,0,0,0,0,0,0,0,0,0,12,30,30,102
90,30,6,30,72,48,72,114,60,255,126,126,120,120,108,132,120,132,108,120,120,108,102,114,102,0,72,0,0,0,30,0,0,0,0,6,72,6,0,0,24,255,18,0,6,0,0,0,0,0,0,0,0,0,0,0,0,0,0,0,12,18,72,78
48,24,24,138,60,78,72,102,255,120,126,126,114,114,120,114,108,114,126,108,126,132,108,108,0,0,0,84,24,12,0,0,0,0,6,0,0,255,12,0,96,30,255,18,0,0,6,0,0,0,0,0,0,0,0,0,0,0,0,0,12,24,78,60
72,0,255,30,72,72,96,84,96,255,120,144,114,120,114,120,132,126,114,114,126,114,108,102,90,0,0,90,0,0,0,120,0,102,0,0,0,0,0,72,12,255,0,0,48,0,0,0,0,0,0,0,0,0,0,0,0,0,0,0,30,0,72,60
84,60,48,30,6,54,60,84,102,126,120,138,114,126,114,114,120,120,126,126,120,108,114,114,0,0,0,90,0,0,12,210,0,0,114,0,0,168,138,0,6,0,42,255,0,0,0,0,0,0,0,0,0,0,0,0,0,0,0,0,0,24,12,60
222,36,48,48,30,78,96,66,96,114,255,126,114,114,114,108,114,102,114,102,120,126,114,108,0,78,0,0,0,42,0,126,0,0,6,0,0,0,255,108,48,0,0,0,0,0,0,0,0,0,0,0,0,0,0,0,0,0,0,18,0,12,6,78
60,6,60,24,24,42,84,78,255,120,126,126,126,126,114,108,108,114,114,108,108,102,114,126,0,0,0,90,0,0,204,6,0,0,0,114,0,54,12,0,30,255,78,18,0,0,0,0,0,0,0,0,0,0,0,0,0,0,6,0,0,24,72,48
54,12,42,72,72,108,66,90,72,255,108,120,114,108,114,108,120,108,114,102,114,114,120,120,0,0,0,0,84,0,0,0,0,0,0,108,255,0,36,0,6,24,18,0,6,0,0,0,6,0,0,0,0,0,0,0,0,0,0,6,0,42,72,84
