12,18,18,30,42,33,42,123,33,45,48,48,48,48,48,51,48,51,39,36,30,42,42,39,0,0,0,42,0,0,0,0,45,0,0,0,42,0,21,9,144,3,15,30,0,0,0,0,0,0,0,0,0,0,0,0,0,0,0,3,6,12,12,15
27,12,30,36,27,24,24,45,48,144,45,42,51,48,51,45,42,51,39,42,42,39,33,36,18,0,0,0,42,0,0,51,0,0,0,0,30,0,69,144,3,27,3,0,3,0,3,0,0,0,0,0,0,0,0,0,0,0,0,3,9,9,9,24
18,18,6,42,36,33,36,126,33,42,42,51,48,51,45,48,54,45,54,33,42,33,33,24,0,0,0,30,3,69,0,0,0,0,48,0,57,27,51,0,0,144,6,9,0,18,0,0,0,0,0,0,0,0,0,0,0,0,0,9,0,24,30,30
33,9,6,24,36,27,27,42,57,42,144,48,45,51,48,48,48,51,45,45,42,36,36,0,48,0,33,0,96,0,0,0,3,0,0,15,51,0,144,36,9,3,24,0,0,0,0,0,0,0,0,0,0,0,0,0,0,0,0,3,0,3,42,9
12,30,3,27,21,39,105,45,48,36,45,39,48,48,144,48,51,51,39,36,42,48,36,42,0,0,0,39,0,81,84,3,0,0,0,48,144,0,0,6,30,3,0,0,0,3,0,0,0,0,0,0,0,0,0,0,0,0,0,0,3,12,21,30
18,30,30,15,36,45,36,36,39,42,42,48,42,45,45,42,48,42,54,42,45,39,48,33,6,0,0,33,0,72,0,0,3,0,0,0,63,33,0,0,12,117,9,0,0,0,0,0,0,0,0,0,0,0,0,0,0,0,0,0,15,3,9,18
12,21,36,33,36,36,129,36,45,42,42,42,42,144,48,45,48,42,36,42,36,42,0,39,36,3,0,45,0,0,0,75,0,0,0,0,51,60,30,0,144,3,15,0,0,3,0,0,0,0,0,0,0,0,0,0,0,0,0,0,9,0,18,21
6,12,9,21,36,33,51,36,42,42,42,144,45,45,42,42,45,54,48,33,33,48,42,0,36,0,0,39,0,0,0,99,0,0,0,0,48,0,6,0,144,3,0,0,0,0,0,0,0,0,0,0,0,0,0,0,0,0,9,3,0,15,18,30
51,9,9,36,42,42,126,42,48,36,42,42,45,45,48,51,144,48,36,39,48,39,42,0,36,0,0,36,0,84,39,0,0,0,0,51,0,15,144,12,36,0,0,15,3,0,0,0,0,0,0,0,0,0,0,0,0,0,0,3,0,15,15,24
3,36,3,12,36,42,39,39,36,39,42,54,48,42,42,48,48,45,27,36,30,39,48,36,0,0,33,9,0,0,0,6,99,0,0,0,3,3,39,144,3,0,9,0,9,0,0,0,0,0,0,0,0,0,0,0,0,0,0,0,24,3,15,45
12,9,9,21,33,108,54,42,42,42,39,42,60,42,141,42,48,51,42,42,42,33,39,0,33,0,0,45,0,0,0,42,0,0,0,0,57,0,42,9,3,144,0,27,0,0,0,0,0,0,0,0,0,0,0,0,0,0,0,0,9,15,18,36
30,30,18,24,51,42,39,36,36,48,144,51,36,42,36,45,39,36,42,42,39,42,39,36,0,42,0,0,0,0,0,81,0,0,0,48,144,42,0,0,36,0,6,6,0,24,0,0,0,0,0,0,0,0,0,0,0,0,0,0,9,30,12,21
18,33,9,36,36,39,51,42,48,39,138,45,42,45,42,36,42,51,36,33,36,36,36,45,0,0,0,36,0,0,42,0,0,0,3,0,48,57,0,42,15,144,54,0,0,0,3,0,0,0,0,0,0,0,0,0,0,0,0,6,0,6,18,15
6,30,9,3,36,36,135,45,42,42,45,42,42,51,48,51,51,39,48,42,45,36,36,24,0,0,0,3,45,0,0,0,81,93,0,0,39,0,0,24,0,0,36,144,15,0,0,0,0,0,0,0,0,0,0,0,0,18,0,0,0,15,21,6
15,141,30,3,42,42,48,42,42,39,144,48,48,48,45,51,48,42,45,36,36,39,45,36,0,0,39,0,0,0,0,3,0,0,0,0,42,144,0,0,6,6,21,3,0,0,0,0,0,0,0,0,0,0,0,0,0,0,0,0,18,3,0,9
24,27,27,21,42,42,45,45,42,45,96,48,48,48,48,51,42,42,42,36,39,45,42,33,0,0,36,0,0,99,0,0,0,3,54,0,0,0,0,3,0,9,0,144,78,3,0,3,0,0,0,0,0,0,0,0,0,0,0,9,3,15,30,45
9,39,27,111,30,42,39,36,48,54,144,45,51,51,48,45,51,45,42,36,36,45,36,33,0,0,0,36,0,105,0,0,0,0,0,84,0,144,0,0,6,6,6,0,9,0,0,0,0,0,0,0,0,0,0,0,0,0,0,0,3,15,21,30
12,12,27,3,39,36,36,51,57,42,42,45,42,48,48,42,39,48,39,36,39,30,36,36,0,0,0,0,42,0,0,51,3,0,0,54,0,0,3,0,0,9,27,0,3,0,0,0,0,0,0,0,0,0,0,0,0,0,0,0,12,9,36,36
6,27,27,33,24,33,39,30,30,42,51,48,48,144,45,45,45,48,51,33,42,33,42,0,33,0,36,0,0,0,0,3,0,0,30,0,120,84,3,6,6,27,9,0,0,3,3,0,0,0,0,0,3,0,0,0,0,0,0,0,3,24,30,27
30,15,9,18,54,42,36,39,39,36,123,48,42,42,39,45,42,48,45,45,48,39,42,42,0,0,45,0,0,102,3,3,0,48,0,0,45,0,0,3,144,9,0,0,0,0,0,0,0,0,0,0,0,0,0,0,0,0,0,0,6,9,12,30
36,33,12,30,45,141,45,48,105,45,42,45,36,39,48,39,36,39,39,36,42,36,39,36,0,0,51,0,0,0,0,0,0,0,0,54,0,42,54,3,0,141,0,0,12,3,0,0,0,0,0,0,0,0,0,3,0,0,0,0,9,12,27,24
6,27,24,36,36,42,42,45,39,39,144,45,60,42,48,42,45,36,39,36,39,30,36,30,0,0,33,0,3,12,0,3,57,0,0,0,0,33,0,12,18,144,3,0,84,0,0,0,0,0,0,0,0,0,0,0,0,0,0,0,3,27,9,12
33,24,15,9,33,36,36,144,48,36,45,42,48,48,45,48,42,45,39,36,39,39,27,42,0,0,0,0,6,30,0,0,3,0,57,0,3,0,30,12,0,9,0,144,6,0,0,0,0,0,0,0,0,0,0,0,0,0,0,0,3,9,27,36
39,36,30,15,45,36,36,45,144,39,39,42,48,42,45,48,48,36,30,42,36,39,45,30,18,0,0,45,0,0,0,0,0,51,0,0,0,90,0,9,15,144,18,0,9,0,0,0,0,0,0,0,0,0,0,0,0,0,0,0,9,24,27,33
30,33,15,30,39,36,42,42,144,42,42,54,48,48,51,42,42,48,39,36,36,42,39,30,24,0,0,0,0,36,0,0,3,81,45,0,42,0,0,0,144,6,0,3,18,0,0,0,0,0,0,0,0,0,0,0,0,0,0,0,3,9,33,9
36,36,21,21,144,45,129,36,48,42,141,42,42,51,45,48,48,48,33,45,42,42,33,36,0,0,0,39,0,0,0,57,3,0,0,0,0,0,144,30,48,6,0,6,0,0,0,0,0,0,0,0,0,0,0,0,0,0,0,0,3,3,30,15
12,21,36,33,30,33,42,126,39,39,42,42,42,39,42,144,51,45,42,42,39,36,48,0,33,0,36,3,3,0,18,0,0,3,0,0,0,144,42,3,0,9,0,45,9,0,114,0,0,0,0,0,0,0,0,0,0,0,3,0,9,3,21,21
33,9,144,24,9,36,39,117,42,42,39,45,141,51,36,45,45,42,42,39,42,36,36,39,0,6,0,0,45,0,108,0,0,0,57,69,141,21,0,0,30,18,6,0,0,0,0,144,0,0,0,0,0,0,0,0,0,0,0,0,9,3,18,24
30,144,21,24,42,24,75,48,39,48,42,45,45,45,144,51,48,48,39,27,42,39,42,0,30,0,0,48,0,0,0,78,138,0,0,0,30,0,39,18,6,144,12,3,3,0,0,0,0,0,0,0,0,0,0,0,0,0,0,0,9,21,36,9
21,36,12,30,27,12,144,39,42,135,42,42,42,48,42,48,54,48,45,42,42,42,42,0,0,30,36,3,0,51,0,66,6,0,0,48,0,0,0,3,0,3,24,0,3,0,0,0,0,0,0,0,0,0,0,0,0,0,0,0,30,3,24,39
21,6,24,30,12,24,48,36,144,42,51,48,51,48,51,48,48,48,51,39,42,36,48,39,0,0,0,42,0,0,90,0,0,3,0,0,69,0,51,144,42,9,0,0,0,3,3,0,0,0,0,0,0,0,0,0,0,0,0,0,21,0,0,15
27,12,24,12,36,42,48,36,42,39,48,144,45,48,45,57,48,51,54,51,39,54,36,48,15,0,0,33,0,0,90,0,0,0,0,48,0,66,9,144,6,3,3,9,0,0,0,0,0,0,0,0,0,0,0,0,0,0,0,0,15,33,0,12
30,30,6,15,39,42,42,45,39,45,48,144,48,48,42,45,51,48,45,39,42,42,36,0,42,0,0,9,30,3,96,0,0,12,0,0,0,48,144,66,3,24,3,0,0,3,0,0,0,0,0,0,0,0,0,0,0,0,0,0,0,24,15,21
9,6,6,21,24,33,42,129,36,48,42,48,45,45,42,48,48,42,48,36,33,42,39,39,36,0,0,36,3,0,0,0,0,0,0,42,0,57,45,3,3,9,144,9,0,0,0,0,0,0,0,0,0,0,0,0,0,0,0,0,6,12,36,30
24,33,30,15,30,15,45,36,39,144,42,42,42,39,42,45,42,48,54,48,42,36,42,0,36,0,0,63,0,30,0,6,69,0,0,0,48,42,30,0,144,12,6,3,0,0,3,0,0,0,0,0,0,0,0,0,0,0,0,0,3,12,18,24
27,18,15,33,36,39,135,39,42,42,36,45,144,39,42,48,42,42,39,45,33,36,36,36,0,0,0,0,0,48,0,87,0,0,0,0,45,0,45,144,0,15,12,3,0,0,0,0,0,0,0,0,0,0,0,0,0,0,0,3,0,15,36,18
30,3,33,45,30,42,21,129,42,48,42,42,45,45,144,45,45,42,45,36,39,36,39,36,0,0,0,48,0,6,0,0,51,0,0,0,51,0,144,6,30,15,30,9,0,0,0,0,0,0,0,0,9,0,0,0,0,0,0,0,15,9,6,24
24,6,18,21,42,45,105,33,42,45,36,42,48,48,45,54,57,45,36,42,42,42,42,42,0,0,0,36,3,87,51,0,0,0,0,0,60,39,6,15,3,42,0,144,3,0,3,0,0,0,0,0,0,0,0,0,0,0,0,0,9,18,30,24
24,30,3,9,30,33,36,33,27,144,48,42,45,45,48,48,48,51,33,42,57,45,45,33,0,0,0,36,0,9,0,0,63,0,0,0,0,33,144,0,6,18,0,3,6,0,0,0,0,0,0,0,0,0,0,0,0,0,0,0,3,12,18,36
33,21,24,27,15,30,84,42,42,42,42,39,138,48,45,42,45,45,36,45,39,36,45,0,39,0,0,36,0,0,0,39,0,0,0,42,0,66,0,144,9,24,3,6,0,0,0,0,0,0,0,0,0,0,0,0,0,0,0,0,3,18,33,42
21,27,9,9,27,24,30,33,144,42,39,45,42,45,42,48,48,45,36,39,33,45,42,36,0,0,0,0,36,96,0,6,30,0,0,57,0,12,48,0,144,3,27,0,3,0,117,0,0,0,0,0,0,0,0,0,0,0,0,0,0,18,21,18
12,18,24,33,9,33,27,111,36,45,39,144,39,45,54,48,48,42,45,39,42,48,36,45,0,0,0,33,0,0,90,3,0,0,42,0,27,144,6,6,21,9,3,18,3,0,0,3,0,0,0,0,0,0,0,0,0,0,0,0,0,9,15,39
27,12,36,30,30,21,42,39,39,93,42,42,45,45,45,45,48,45,51,54,42,48,33,39,0,0,0,0,36,0,0,45,0,3,0,0,39,66,0,36,3,36,0,144,0,0,0,0,0,0,0,0,0,0,0,0,0,0,0,6,3,33,30,6
30,6,15,0,30,138,27,27,42,36,42,48,144,45,42,51,60,54,51,36,42,48,45,42,0,0,0,36,0,0,96,3,0,0,90,0,57,21,45,3,6,0,144,3,21,0,0,0,0,0,0,0,0,0,0,0,0,0,0,0,3,36,9,24
30,27,9,18,30,30,144,39,57,45,42,54,42,48,48,42,45,45,48,39,30,48,42,0,36,6,0,0,39,9,0,51,0,0,0,6,27,0,6,6,144,21,0,3,0,0,0,0,0,0,0,0,0,0,0,0,0,0,0,0,9,9,18,30
30,15,30,24,30,30,33,39,126,42,39,54,42,144,48,48,45,48,48,39,45,39,45,48,0,42,0,0,0,0,0,78,0,3,0,141,0,0,3,45,12,12,0,3,21,0,0,0,0,0,87,0,0,0,0,0,0,0,0,0,0,12,33,24
6,6,30,144,30,39,30,144,30,42,39,42,39,42,48,42,48,42,39,39,39,45,45,36,48,0,0,36,0,3,0,63,0,0,72,0,54,135,0,36,21,0,6,3,3,0,0,0,0,0,0,0,0,0,0,0,0,0,0,6,6,0,9,15
33,15,30,39,45,30,24,39,33,42,144,42,45,48,48,48,45,51,51,54,42,36,42,0,36,0,0,48,0,3,0,0,0,0,0,45,0,0,93,0,0,3,0,0,24,0,0,0,0,0,0,0,0,0,0,0,0,0,0,0,12,30,15,18
18,30,6,24,21,36,30,48,123,36,36,45,45,48,51,45,42,51,42,36,45,45,51,45,0,0,0,0,36,0,66,0,9,0,144,57,0,57,0,36,21,0,15,3,0,0,0,0,0,0,0,0,0,0,0,0,0,0,0,3,9,36,15,30
15,18,15,9,15,36,39,27,39,66,45,48,42,42,51,45,45,48,36,48,42,42,36,36,0,39,0,0,0,0,57,0,0,0,0,3,0,57,24,144,0,30,3,3,39,0,0,0,0,0,0,0,0,0,0,0,0,0,0,0,6,18,42,33
