2,6,6,7,8,19,15,14,13,48,16,14,14,14,15,15,14,14,15,14,14,14,15,13,12,0,0,12,0,0,0,0,0,0,0,19,0,23,0,3,48,0,1,4,1,0,0,0,0,0,0,0,0,0,0,0,0,0,0,3,0,0,4,12
5,3,7,7,6,46,13,15,14,16,14,14,17,14,13,14,15,14,12,13,13,15,15,13,0,0,0,12,0,0,0,0,0,0,0,17,0,0,0,0,48,1,0,1,5,6,1,0,0,0,0,1,0,0,0,0,0,0,0,1,2,7,7,10
2,8,8,0,5,10,44,16,16,10,14,16,14,48,16,16,14,14,16,12,14,14,14,13,13,0,0,1,17,0,0,22,0,0,0,0,0,0,9,48,8,2,3,0,1,0,0,0,5,0,0,0,0,0,0,0,0,0,0,0,0,11,2,6
9,7,9,6,4,14,13,15,16,14,17,15,16,15,14,21,14,14,14,12,12,14,18,8,15,0,3,0,19,26,0,0,0,20,0,0,0,7,48,3,10,1,2,1,0,1,0,0,1,0,0,0,0,0,0,0,0,0,0,1,1,13,11,14
5,15,41,14,9,10,14,12,15,16,18,16,17,17,18,16,16,16,17,18,17,17,16,12,19,0,0,14,1,17,0,1,0,15,0,0,0,26,2,13,48,4,0,0,0,5,0,0,0,0,0,0,0,0,0,0,0,0,0,0,3,2,8,14
7,2,6,3,11,18,11,11,17,15,48,16,16,14,14,13,14,14,14,12,14,14,14,16,10,0,0,1,15,29,1,3,24,17,0,0,0,21,1,14,12,0,48,0,0,0,0,0,0,0,0,0,0,0,0,0,0,0,0,0,0,12,8,11
3,15,7,15,2,11,10,48,17,16,20,18,16,16,15,14,13,15,16,18,14,16,15,14,0,0,0,1,10,0,1,1,24,0,0,0,18,14,0,48,12,2,0,1,0,0,0,0,0,0,0,0,0,0,0,0,0,0,1,2,0,4,6,9
3,10,7,8,11,47,14,13,14,17,19,18,18,21,17,20,17,17,16,14,16,14,16,14,0,0,0,15,3,31,0,0,0,0,48,0,0,0,1,8,2,12,0,0,0,0,48,0,0,0,0,0,0,0,0,0,0,0,0,0,4,3,12,47
14,2,2,32,17,7,9,14,44,17,14,14,13,14,14,16,14,14,14,16,13,15,15,14,0,0,0,0,13,0,0,0,0,15,0,0,34,1,0,3,4,3,48,0,7,0,0,0,0,1,0,0,0,0,0,0,0,0,0,0,5,5,7,8
10,11,3,7,10,5,13,15,15,48,16,14,15,13,16,14,15,13,14,14,13,14,13,9,13,0,0,13,0,0,0,8,0,0,0,0,15,0,0,1,48,8,1,0,0,0,0,0,0,0,0,0,0,0,0,0,0,0,0,0,1,5,15,10
1,17,8,7,12,17,12,13,37,19,16,15,17,14,12,14,14,14,13,14,16,12,13,13,9,0,0,16,0,0,8,0,0,21,0,4,0,11,3,0,1,48,0,0,0,0,0,0,0,4,2,0,0,0,0,0,0,1,0,0,1,4,16,7
5,4,16,13,7,14,6,14,15,17,47,16,16,17,17,10,14,14,14,14,15,14,13,0,13,0,0,12,0,0,0,26,0,2,0,0,14,48,20,2,8,2,1,7,1,0,4,0,0,0,0,0,0,0,0,0,0,0,0,4,4,0,8,5
14,8,13,12,11,7,16,17,10,48,15,14,16,15,14,15,14,15,14,13,14,15,14,13,10,0,16,2,0,0,4,1,10,0,7,0,0,21,0,2,5,17,0,4,0,1,0,0,0,0,0,0,0,0,0,0,0,0,0,0,0,2,9,13
9,13,9,5,30,8,9,11,15,16,14,48,14,16,15,14,16,14,18,16,14,13,16,13,17,0,19,0,1,28,1,0,0,18,5,0,1,23,1,2,7,0,0,8,0,0,0,0,0,2,0,0,0,0,0,0,0,0,0,1,4,4,5,11
7,4,6,7,19,11,12,38,17,16,17,17,41,18,17,17,17,17,18,15,16,18,16,15,0,0,0,1,20,32,0,0,1,0,0,0,47,32,19,1,1,3,1,1,25,0,0,0,0,0,0,0,0,0,0,0,0,0,0,0,1,7,16,8
13,5,6,12,15,10,11,43,14,21,14,12,13,14,14,14,13,13,13,13,15,14,13,11,14,0,0,15,0,3,0,0,0,0,0,0,20,0,0,11,7,48,1,0,5,0,6,1,0,0,0,0,0,0,0,0,0,0,0,0,7,3,8,14
9,10,8,4,12,10,11,13,14,19,17,15,14,13,18,12,13,14,14,14,14,14,16,11,16,0,12,0,0,1,0,0,0,0,0,0,19,1,0,48,1,1,9,0,0,0,0,0,0,0,0,0,0,0,0,0,0,0,0,0,6,4,5,8
4,8,10,6,7,12,11,44,15,16,14,14,14,15,17,14,15,14,16,16,15,13,13,16,10,0,0,0,15,2,1,0,17,0,27,0,15,0,0,0,8,12,0,48,0,0,0,0,0,0,0,0,0,0,0,0,0,0,0,0,5,1,4,14
4,2,9,25,7,10,16,15,16,48,18,22,16,17,19,17,19,19,17,17,18,17,17,16,14,0,0,13,1,28,25,0,1,19,0,0,0,10,2,13,2,0,1,0,0,0,0,0,0,0,0,0,0,0,0,0,0,0,0,0,4,0,8,4
12,9,1,8,9,10,11,12,44,20,19,20,18,17,19,20,18,18,17,18,17,16,18,19,11,0,0,17,0,0,0,0,14,0,0,15,0,0,26,2,1,2,1,1,0,0,11,0,0,0,0,0,0,0,0,0,0,0,0,0,3,10,12,5
10,6,7,11,7,10,14,10,19,48,18,19,18,17,17,19,17,18,16,17,15,17,20,19,0,0,0,14,0,0,19,0,0,0,0,0,0,19,19,48,0,7,4,3,0,0,0,0,0,0,0,0,0,0,0,0,0,0,0,1,3,7,9,8
5,8,10,4,10,11,44,12,14,17,15,17,48,18,16,16,14,15,14,14,15,14,13,16,8,0,0,14,1,0,0,1,10,0,14,0,1,0,26,5,48,1,4,5,0,0,0,0,0,0,0,0,0,0,0,0,0,0,1,1,0,5,14,7
7,7,8,7,7,11,10,13,20,16,14,16,13,16,15,13,14,14,14,14,14,14,13,15,10,0,0,10,0,26,0,1,0,0,19,0,0,0,27,0,8,48,0,9,0,0,0,0,0,0,1,0,0,0,0,0,0,0,0,1,3,6,12,8
3,6,6,5,13,25,11,14,15,48,17,13,14,14,13,14,13,14,12,14,12,15,14,10,12,0,12,0,0,3,0,0,0,0,1,0,0,0,48,0,0,4,2,0,0,0,0,0,0,0,0,0,0,0,0,0,0,0,1,0,0,6,11,10
10,5,11,12,10,11,14,14,14,28,15,13,15,14,13,13,13,13,13,11,12,12,14,13,12,0,0,12,0,0,1,11,0,14,0,0,0,10,0,18,7,7,1,0,0,0,0,0,0,0,0,0,0,4,0,0,0,0,0,0,6,14,1,10
6,3,2,17,12,10,10,11,16,14,16,16,14,13,16,12,12,13,14,15,16,15,14,16,7,0,0,14,0,23,0,0,0,1,20,0,0,25,0,48,3,7,1,0,4,0,1,0,0,0,0,0,0,0,0,0,0,0,0,0,8,3,7,7
5,12,2,9,7,3,19,14,15,16,15,48,16,14,16,16,16,16,15,16,16,16,16,16,12,9,0,17,3,0,0,0,21,0,0,30,0,0,48,1,1,2,7,7,0,0,0,0,0,0,0,0,0,0,0,0,6,0,0,0,0,7,11,7
4,2,6,6,10,14,9,14,17,43,11,16,14,14,12,12,13,15,13,13,12,13,13,13,10,0,0,15,2,0,0,4,0,22,0,9,10,0,7,48,0,1,2,0,0,1,0,0,0,0,0,0,0,2,0,0,0,0,0,0,5,8,5,5
3,10,10,10,2,14,44,14,17,12,47,16,17,14,13,14,13,14,14,12,12,14,12,15,10,0,0,10,31,2,0,4,0,29,0,0,0,48,0,0,2,9,1,0,0,0,46,0,0,0,0,0,0,0,0,0,0,0,0,0,1,12,3,0
4,7,1,13,47,9,16,14,25,16,15,14,14,14,17,14,12,13,14,13,15,13,13,13,0,11,0,17,1,0,35,0,0,0,16,24,0,12,0,46,4,0,2,5,0,0,0,0,0,0,0,0,0,1,0,0,0,0,1,0,2,6,11,8
5,5,3,8,5,11,14,11,48,16,14,12,14,15,14,14,15,14,13,14,14,14,14,14,12,0,0,15,0,1,0,0,14,0,0,0,8,0,2,0,13,0,7,3,0,0,0,0,0,0,0,0,0,0,0,0,0,0,1,0,7,0,5,11
0,10,4,7,18,6,12,11,48,16,14,14,16,16,13,13,13,12,14,13,14,13,12,14,12,0,0,37,16,1,0,0,3,17,0,0,0,0,3,16,48,2,0,6,0,0,0,0,4,0,0,0,0,0,0,0,0,0,0,1,1,4,9,13
8,8,5,14,9,14,13,14,12,14,14,14,14,12,13,11,14,15,12,14,14,14,15,12,0,0,0,14,0,2,0,0,0,0,0,0,15,7,1,0,9,0,6,3,2,0,1,0,0,0,2,0,0,0,0,0,0,7,1,0,0,5,7,11
10,6,11,4,11,13,12,46,14,14,15,12,14,14,16,14,12,12,12,14,13,14,12,14,0,0,14,1,0,8,0,22,0,0,0,14,0,0,7,1,48,0,0,0,16,0,0,0,0,0,0,2,3,1,0,0,0,0,0,0,7,9,4,10
14,5,18,6,4,11,13,12,16,15,13,48,18,15,14,15,16,15,14,16,11,16,15,15,5,0,0,11,0,26,0,1,3,16,0,2,16,0,48,8,1,4,0,0,7,0,0,0,0,0,0,0,0,0,0,0,0,0,0,0,6,7,1,10
3,6,8,6,10,10,12,13,16,46,12,14,15,13,24,12,14,18,14,16,13,15,12,0,16,0,0,15,3,0,18,0,0,0,0,13,0,0,16,3,48,0,7,1,0,1,0,0,3,0,0,0,0,0,0,0,0,0,3,0,0,4,7,8
16,2,7,3,8,11,41,11,13,13,15,14,48,17,14,16,13,15,14,11,14,14,13,13,10,0,0,1,16,24,0,1,0,0,17,0,13,0,48,1,15,0,3,0,0,0,0,0,0,0,0,0,1,0,0,0,0,0,1,0,0,6,10,3
9,9,4,7,7,15,11,14,17,12,13,13,14,13,16,14,12,14,14,14,14,16,15,14,0,0,0,15,0,0,0,0,22,0,0,2,5,0,0,0,7,48,0,0,1,0,0,1,0,1,0,0,0,0,0,0,0,0,0,4,6,0,9,6
12,3,21,15,5,10,48,14,5,14,15,15,16,18,18,14,14,12,14,17,13,13,13,15,10,0,17,0,0,7,0,20,0,0,0,0,19,0,11,1,2,5,11,1,0,0,0,0,0,0,0,0,0,0,0,0,0,7,0,0,2,17,3,10
8,6,1,6,8,12,13,45,13,12,15,14,17,14,14,17,13,12,12,13,14,16,8,14,0,0,13,0,0,0,25,0,0,0,0,21,0,15,0,4,20,3,1,1,6,0,0,0,0,0,1,0,0,0,0,0,0,0,0,0,4,5,10,12
8,5,12,4,21,10,16,14,15,48,14,14,13,13,14,18,14,15,15,16,17,17,17,17,13,0,16,0,1,0,26,0,1,17,0,0,0,20,0,0,13,48,6,1,0,0,0,0,0,0,0,0,0,0,0,0,0,0,0,7,0,6,11,6
6,0,8,7,7,33,13,15,48,14,15,14,16,14,15,14,12,12,14,14,15,13,13,14,0,0,0,15,0,26,0,0,0,0,0,0,12,0,1,14,11,1,1,0,0,0,0,0,0,0,0,0,0,0,0,0,0,0,0,0,4,9,5,9
10,11,1,9,15,5,14,15,36,16,14,14,16,14,12,14,14,14,13,13,14,16,13,10,14,0,0,33,0,15,0,3,0,0,0,18,0,1,1,0,8,48,3,8,0,0,0,0,0,0,0,0,0,0,0,0,0,0,0,0,7,8,9,10
11,7,8,5,41,10,11,12,17,17,48,16,13,13,12,14,15,13,12,15,14,14,14,13,0,19,0,0,0,0,16,0,0,0,0,18,0,0,47,6,1,4,1,2,0,0,0,0,0,0,0,0,0,0,0,0,0,1,0,0,4,1,9,5
10,8,5,7,11,6,15,15,35,15,14,16,19,14,12,12,12,12,14,12,14,15,13,13,0,0,17,0,0,19,0,1,19,0,0,0,0,0,16,2,0,0,0,48,0,0,0,0,0,0,0,0,0,0,0,0,0,0,0,0,3,6,4,7
7,17,14,6,14,11,14,11,12,14,14,15,13,12,14,13,15,13,13,12,12,13,12,14,11,0,0,17,2,1,23,0,0,0,0,0,0,12,24,0,48,1,0,3,0,0,0,0,0,0,0,0,0,1,0,0,0,0,0,0,0,7,13,8
12,6,7,3,8,7,20,12,15,14,14,48,15,14,13,14,13,13,13,14,13,14,13,0,16,11,0,0,0,0,32,0,0,0,17,22,0,12,48,1,2,0,0,8,0,0,1,0,0,0,0,0,0,0,0,0,0,0,0,1,0,3,5,6
14,3,7,5,6,13,9,16,12,14,14,14,15,12,15,14,12,13,14,14,14,13,14,0,0,14,0,14,1,10,0,16,0,22,0,0,1,0,1,6,3,48,2,4,0,0,0,0,0,0,0,0,0,0,0,0,0,0,0,3,1,8,7,14
3,5,6,4,13,15,13,10,14,17,47,13,13,13,13,14,16,14,14,19,18,18,18,16,0,0,0,0,13,3,0,0,0,24,0,0,0,2,48,0,7,2,8,0,0,0,0,1,0,0,0,0,0,0,0,0,0,0,0,0,1,7,7,17
9,10,6,3,11,15,13,14,48,16,15,14,13,16,14,14,12,12,14,13,13,13,14,10,0,11,13,0,0,0,0,0,0,0,14,0,0,10,1,14,1,48,0,9,0,0,1,0,0,1,0,0,0,0,0,0,0,0,0,0,0,3,7,9
