42,6,30,72,18,90,252,72,96,102,96,96,96,102,96,90,96,114,90,102,84,90,108,0,96,0,0,78,18,6,0,90,0,0,0,12,0,84,255,12,6,36,48,0,0,6,0,0,0,0,0,0,0,0,0,0,0,0,0,0,30,0,72,66
18,72,6,60,48,84,60,102,84,90,84,108,96,102,84,96,84,108,102,84,84,84,84,0,72,0,0,84,0,18,0,6,90,0,0,6,96,0,18,255,72,18,0,0,0,6,0,0,0,0,0,0,0,0,0,0,0,0,0,12,0,36,60,66
102,48,42,18,240,66,96,120,72,90,90,84,96,96,255,90,96,84,108,84,102,108,102,90,84,0,0,12,48,24,0,6,0,0,0,120,84,0,90,255,12,0,18,48,0,6,6,0,0,6,0,6,0,0,0,6,0,0,0,0,42,6,30,84
6,78,48,48,36,96,66,66,90,90,90,114,96,255,96,96,102,60,102,90,96,96,102,114,0,0,0,102,0,24,0,0,0,72,0,0,0,120,0,60,0,48,0,18,0,6,255,0,0,0,0,0,0,0,0,0,0,0,0,0,36,72,0,90
255,24,0,18,66,48,72,66,90,96,96,102,102,102,255,102,96,96,96,84,78,78,90,72,0,0,0,6,120,198,0,6,12,0,96,0,192,132,0,78,6,0,0,18,255,0,12,0,6,0,0,0,0,0,0,0,0,0,0,6,0,24,36,18
255,48,54,12,102,66,72,72,255,102,102,114,102,102,108,102,96,96,90,96,96,84,102,96,78,0,0,78,0,18,0,0,0,0,0,96,0,0,0,12,42,255,12,0,6,0,6,0,0,0,0,0,0,0,0,6,0,0,0,0,0,30,78,42
60,48,6,42,24,60,60,78,90,255,114,102,96,126,102,102,96,96,108,96,78,96,96,0,102,0,48,0,90,0,24,12,0,0,0,114,96,0,255,18,12,54,0,0,0,0,6,0,0,0,0,0,0,0,0,0,0,0,0,0,0,30,48,90
54,60,6,54,84,30,90,96,84,84,96,96,96,102,102,108,102,108,102,84,102,102,90,0,96,0,0,96,0,6,192,12,0,0,102,0,0,198,0,66,0,0,255,30,0,0,0,0,0,0,0,0,0,0,0,0,0,0,0,0,12,30,30,48
72,6,6,66,84,72,66,60,102,255,108,96,102,114,114,108,108,102,108,114,120,108,114,108,72,0,96,0,0,0,0,0,84,0,0,0,6,255,12,0,6,18,12,255,12,0,0,0,0,0,0,0,0,0,0,0,0,0,0,0,12,60,0,60
60,24,42,0,84,72,54,255,90,108,96,96,108,108,108,96,108,102,114,108,114,96,102,84,0,0,0,108,18,0,0,6,0,0,108,0,0,0,6,60,255,0,0,18,0,0,0,0,0,0,0,0,0,0,0,0,0,0,0,6,0,24,24,78
66,18,48,30,78,72,60,66,84,96,96,114,102,255,114,102,108,102,114,102,108,96,102,120,0,0,0,84,6,204,0,18,0,0,90,0,156,36,12,255,0,12,0,18,0,0,0,0,0,6,0,0,0,0,0,0,0,6,0,0,24,0,42,0
6,60,60,0,84,84,222,90,84,96,84,108,255,102,114,120,108,132,114,120,108,108,114,114,0,0,0,78,0,0,0,102,72,0,0,0,120,0,0,255,6,96,42,0,0,6,0,0,0,0,6,0,0,0,0,0,0,0,0,18,0,30,90,48
48,30,0,6,60,66,90,84,210,114,102,108,114,108,114,102,102,108,108,114,96,102,108,78,0,0,78,0,0,0,0,138,0,0,0,102,0,168,0,30,6,255,36,60,6,0,0,0,0,0,0,0,0,0,0,0,0,0,0,0,48,90,24,72
96,18,60,18,42,246,66,78,108,90,96,255,108,108,102,96,114,102,114,120,126,120,108,102,0,0,0,90,0,144,0,0,12,0,0,132,102,255,42,6,0,0,18,0,0,6,0,0,0,0,0,0,0,0,0,0,0,0,0,0,6,30,36,78
66,30,78,60,18,60,90,66,108,102,255,102,96,102,108,108,120,96,108,96,102,114,84,114,0,0,0,102,6,0,6,0,54,0,102,0,90,0,255,6,60,12,0,0,0,0,6,0,0,0,0,0,0,0,0,0,0,0,0,0,0,42,48,72
30,30,60,42,72,54,72,84,54,108,126,102,114,96,114,120,255,108,102,102,120,120,114,108,0,0,0,84,0,0,0,138,0,60,0,0,0,0,90,255,54,12,12,6,0,6,0,6,0,6,0,0,0,0,0,0,0,0,0,0,6,42,30,72
30,6,36,72,24,66,72,66,255,84,96,114,102,108,114,120,108,108,114,114,102,114,96,108,0,0,0,72,6,0,0,0,96,0,0,0,6,96,180,6,0,255,42,12,0,6,0,0,0,0,0,0,0,0,0,0,0,0,0,6,84,72,18,72
36,6,6,72,66,255,72,84,72,96,90,102,255,102,108,108,120,108,102,96,108,102,120,114,0,0,0,0,108,210,0,18,0,0,0,102,255,0,54,12,6,42,138,0,6,0,0,0,0,0,246,0,0,0,0,0,0,0,0,6,6,30,72,78
66,24,6,66,0,60,96,234,72,84,108,108,102,114,108,120,114,108,108,102,102,126,102,102,0,0,0,6,84,0,150,0,84,0,0,0,120,0,0,42,0,255,54,18,6,0,0,0,0,0,0,0,0,0,0,0,0,0,0,0,6,48,78,0
72,18,6,12,18,192,42,72,96,96,255,108,108,108,108,114,114,102,96,108,114,108,108,114,0,0,0,96,0,0,0,0,84,252,0,0,0,120,0,12,48,18,0,30,66,6,6,0,0,0,0,0,0,0,0,0,0,0,0,0,24,42,210,18
18,30,12,12,18,78,96,84,96,96,180,102,138,102,120,108,108,114,102,102,102,102,102,102,0,0,0,0,78,12,0,0,0,168,0,0,6,84,60,12,255,42,0,60,0,6,6,0,6,0,0,0,0,0,0,0,0,0,0,84,24,0,60,84
18,36,12,54,36,60,255,108,84,72,90,255,114,114,114,114,114,108,120,114,102,102,108,114,0,0,0,66,0,0,0,96,0,6,0,0,114,0,180,42,6,255,6,0,12,0,0,0,0,0,0,0,0,0,0,0,0,0,0,0,0,42,72,78
12,30,66,18,66,255,96,48,96,90,102,96,255,96,102,108,108,96,120,102,108,102,0,108,96,0,0,60,18,0,6,0,126,0,0,255,6,0,0,252,12,6,0,12,0,0,0,0,0,0,0,0,0,0,0,0,0,0,0,0,0,18,90,6
18,72,66,6,54,60,78,84,255,90,78,102,102,102,96,96,114,102,102,114,90,102,108,84,0,0,90,0,0,48,0,114,0,0,6,0,96,0,66,24,255,12,78,0,0,0,0,0,0,0,0,0,0,0,0,0,0,0,6,0,0,48,90,48
60,60,0,54,72,66,54,255,78,90,96,114,114,108,114,102,114,108,102,114,102,96,108,102,0,0,0,12,72,0,174,0,0,0,90,0,144,48,0,12,255,0,6,12,0,0,0,0,0,0,0,0,0,0,0,0,0,0,0,0,6,30,48,90
6,6,18,24,78,96,96,84,84,102,255,102,102,108,102,102,102,96,108,96,96,102,102,0,96,0,0,102,0,6,0,0,114,0,0,6,72,6,78,255,0,0,24,18,0,0,0,6,0,0,0,0,0,0,0,0,0,0,0,0,6,42,54,48
60,78,60,66,24,30,90,72,60,102,114,96,108,102,255,108,108,108,90,96,102,96,102,102,0,0,0,96,0,162,0,0,0,0,255,0,0,66,156,0,0,0,18,0,0,0,0,0,0,0,0,0,0,0,0,0,0,0,0,12,6,18,30,6
54,36,72,18,60,66,78,84,84,102,102,84,108,108,114,102,102,96,96,102,108,114,114,96,0,0,0,78,0,0,0,6,0,0,0,0,0,0,102,0,72,12,255,0,12,0,0,0,0,0,0,0,0,0,0,0,0,0,0,6,6,42,72,72
6,48,18,12,255,60,84,66,102,102,96,255,108,102,96,114,108,114,102,90,108,102,102,78,0,0,0,72,0,6,0,0,0,0,252,6,0,114,0,6,102,24,18,18,0,0,0,0,0,0,0,0,0,0,0,0,0,0,0,0,6,48,72,60
30,72,66,42,72,84,72,60,96,180,84,102,102,102,126,114,108,120,114,108,120,108,96,108,0,0,0,78,0,0,0,144,0,0,0,108,0,48,0,12,18,6,255,0,0,6,0,0,0,0,0,0,0,0,0,0,0,0,0,0,6,42,78,60
54,72,48,0,48,72,255,78,60,108,90,96,96,255,96,102,96,102,84,108,96,108,102,96,0,0,0,90,0,0,0,0,12,6,96,0,0,54,6,0,255,18,54,0,0,6,0,0,0,0,0,0,0,0,0,0,0,0,0,6,30,42,72,84
30,90,60,48,54,252,78,66,54,108,78,108,102,96,255,114,96,108,108,96,96,96,102,84,102,0,0,90,0,12,0,102,0,0,0,0,72,138,255,48,18,0,6,18,0,156,30,6,0,0,0,0,0,0,0,0,0,0,0,30,6,18,78,60
60,72,18,18,42,84,84,72,72,78,96,96,120,102,114,108,102,102,90,84,96,102,96,0,84,60,0,0,60,6,24,0,84,0,0,18,0,0,6,30,48,255,36,0,0,0,0,0,0,0,0,0,0,0,0,0,0,0,0,6,0,36,90,78
24,54,54,0,66,174,96,90,96,255,120,102,108,102,102,108,114,108,102,108,108,84,114,96,0,0,0,96,6,150,12,0,12,114,0,0,0,84,0,0,12,60,6,255,0,0,6,6,0,0,0,0,0,0,0,0,0,0,0,0,0,48,18,18
255,18,30,96,30,66,78,90,96,255,96,102,90,96,102,108,114,120,114,96,108,102,90,96,0,0,0,84,0,198,0,12,0,0,108,0,0,156,126,6,6,255,6,18,6,0,0,0,30,0,0,0,0,0,0,0,0,0,0,0,6,66,36,30
60,6,60,30,30,60,96,84,96,84,255,102,102,102,114,108,114,108,102,108,108,96,96,96,0,0,0,72,0,36,0,48,0,6,0,0,132,6,255,0,24,6,30,36,30,0,0,0,0,0,0,0,0,0,0,0,0,0,0,0,18,84,42,0
36,48,12,42,66,72,66,102,84,90,84,102,102,102,96,102,108,96,255,96,102,96,108,0,90,0,0,78,0,210,0,0,0,6,0,0,138,0,180,0,255,6,12,0,0,0,0,0,0,0,0,0,0,0,0,0,0,0,0,0,18,6,24,72
60,72,36,84,78,66,84,96,84,90,96,96,255,96,90,102,96,108,102,102,114,108,102,108,0,0,0,102,6,0,6,0,0,0,102,0,0,150,18,255,0,0,18,0,18,0,0,0,0,0,0,0,0,0,0,0,0,0,0,0,42,18,102,42
78,48,12,66,60,84,72,102,84,90,96,102,255,102,102,102,114,102,96,102,114,102,90,108,0,0,0,60,0,174,0,24,0,0,108,0,255,0,0,0,12,0,6,18,0,0,0,0,0,0,0,0,0,0,0,0,0,0,0,0,6,48,84,30
48,6,54,54,78,90,78,96,84,156,90,102,96,96,102,96,96,90,96,108,102,102,102,0,84,0,0,72,168,0,114,0,0,0,0,0,0,0,0,42,42,6,255,6,0,0,0,0,6,0,0,0,0,0,0,0,0,0,0,6,90,24,36,66
36,12,54,42,60,90,255,96,90,108,255,102,90,108,96,108,96,96,102,102,102,102,102,96,0,0,0,0,84,0,0,66,0,0,138,90,0,18,84,255,36,30,0,30,6,0,0,0,0,0,0,0,0,0,0,0,0,0,0,90,0,30,84,36
60,30,48,78,0,72,72,96,138,90,96,96,255,96,96,114,96,96,108,102,102,96,102,96,0,0,0,72,0,198,102,0,0,0,120,0,60,0,255,30,30,90,0,6,12,0,0,12,0,0,0,0,0,6,0,0,0,0,0,6,0,30,60,0
12,72,24,30,66,78,72,78,108,84,102,96,108,102,96,102,102,96,108,96,102,102,114,96,0,0,0,0,0,90,0,24,78,0,114,0,0,6,90,30,6,0,255,0,12,0,0,6,0,0,0,0,0,0,0,0,0,0,0,0,6,48,36,48
12,66,6,60,78,78,84,84,255,84,84,96,102,102,114,102,108,102,84,102,114,84,96,84,0,0,72,0,6,0,0,0,0,6,0,102,0,162,6,72,48,0,6,30,0,0,0,0,0,0,0,0,0,0,0,0,0,0,0,0,30,54,66,6
30,48,24,66,84,78,96,96,150,102,102,102,114,114,96,102,108,102,108,102,102,96,114,0,102,72,96,0,0,186,0,0,0,0,0,0,120,84,96,18,18,255,0,0,0,0,0,0,0,0,0,0,0,0,0,0,0,0,0,6,18,48,0,36
78,60,48,78,180,66,84,72,96,84,255,96,90,96,108,90,102,96,102,96,102,96,96,102,72,0,0,0,60,174,0,0,0,6,0,132,108,0,255,6,0,0,42,30,6,0,0,0,0,0,0,0,0,0,0,0,0,0,0,0,12,42,18,48
60,0,18,78,0,78,84,96,114,102,96,96,96,96,102,108,96,102,102,102,96,102,78,96,0,0,0,78,0,0,12,0,0,72,0,6,60,0,6,126,30,48,60,255,0,0,0,0,0,0,0,0,0,0,0,0,0,0,0,0,0,66,36,60
66,48,18,0,102,72,54,66,90,84,255,84,90,96,96,102,84,96,102,102,102,102,96,96,0,0,0,102,0,0,0,114,0,144,0,18,0,120,60,255,12,18,6,18,72,0,6,0,0,0,0,0,0,0,0,0,0,0,0,0,30,84,84,54
42,54,60,30,0,90,72,84,30,255,102,84,96,96,102,96,102,90,102,96,96,84,96,78,0,0,0,102,0,6,0,78,0,0,6,0,0,0,0,0,0,255,18,6,6,0,0,0,0,0,0,0,0,0,0,0,0,0,0,0,6,48,6,72
72,30,54,54,90,66,66,90,72,96,90,102,114,72,96,96,96,102,96,108,84,90,102,90,0,0,0,0,90,6,18,0,0,0,0,0,0,78,0,72,0,48,150,255,0,48,0,0,0,0,0,0,0,0,0,0,0,0,0,0,18,24,30,66
