7,42,42,84,105,105,112,91,255,112,112,112,126,105,133,105,98,98,98,98,84,98,112,112,70,0,0,112,0,98,0,105,0,0,0,119,77,0,0,63,7,255,0,0,0,0,0,0,0,0,0,0,0,0,0,0,0,0,0,0,0,49,7,35
56,21,28,91,119,119,84,91,255,140,133,98,112,105,112,119,112,105,112,112,105,133,112,0,0,0,0,14,0,112,7,140,0,14,0,0,0,112,126,91,255,56,0,28,0,7,196,0,0,0,0,0,0,0,0,0,0,0,0,0,0,0,49,21
21,28,56,231,21,126,91,98,119,112,126,255,112,119,98,119,133,112,112,112,126,119,112,98,0,0,0,98,14,231,0,14,0,0,224,0,0,0,255,7,84,7,14,14,147,0,0,0,0,0,0,0,0,0,0,0,0,0,0,0,0,28,7,49
0,63,35,77,112,112,98,105,147,255,119,119,119,105,105,112,119,91,105,119,126,126,105,112,0,0,0,140,0,0,0,119,0,0,224,0,140,14,0,133,255,56,7,56,7,0,7,0,0,7,0,0,0,0,0,0,0,0,0,0,0,21,21,56
49,70,91,84,126,98,255,105,119,105,119,105,105,255,119,112,119,98,126,112,112,119,0,140,91,0,0,0,133,133,7,119,0,0,0,21,255,0,0,161,14,49,14,7,0,147,0,0,7,0,0,0,0,0,0,0,0,0,0,0,0,14,35,42
35,28,42,126,98,112,112,119,140,255,126,112,119,112,112,105,119,112,133,119,133,126,126,133,0,0,0,119,0,245,14,7,0,0,140,0,168,0,0,7,255,7,0,0,21,0,0,0,0,0,14,0,0,0,0,0,0,0,0,0,7,35,21,63
49,49,91,105,105,105,98,98,133,105,112,105,255,91,112,112,105,98,126,98,119,98,98,119,0,0,84,0,0,14,0,14,0,147,0,0,0,182,0,56,0,0,0,0,7,0,0,0,0,0,0,0,0,0,0,21,0,0,0,0,0,35,21,119
21,42,126,105,112,119,119,168,105,119,119,105,112,112,84,98,98,98,112,98,119,112,119,98,0,0,70,105,0,7,255,7,0,0,0,119,196,49,0,28,84,0,7,0,7,0,0,7,0,0,0,0,0,0,0,0,0,0,0,0,0,28,21,42
42,7,42,84,84,119,84,255,98,119,105,112,105,112,126,98,91,112,119,119,112,112,119,105,0,0,147,0,0,0,245,0,210,0,0,0,210,77,0,35,255,98,98,14,7,0,7,7,0,21,0,0,0,0,0,0,0,0,0,0,14,14,42,112
70,70,77,70,255,119,77,140,119,98,105,112,105,98,255,105,98,98,98,98,105,91,140,112,0,0,91,0,0,0,0,0,21,0,0,140,0,70,255,217,35,7,7,0,7,0,7,7,0,0,0,0,0,0,0,0,0,0,0,42,0,0,63,28
98,77,14,84,147,119,196,133,91,255,98,112,98,98,98,105,105,98,98,98,112,126,112,119,0,0,0,133,255,21,0,14,0,161,0,0,0,0,0,28,7,7,255,255,0,7,0,0,0,0,0,0,0,0,0,0,0,0,0,0,0,14,28,28
21,77,77,0,112,119,112,133,255,98,98,112,112,98,105,98,112,98,140,119,119,105,119,91,0,105,0,0,0,0,140,84,0,0,0,0,154,0,21,84,49,255,14,21,7,0,0,0,0,0,0,0,0,0,7,0,0,0,0,0,0,35,7,63
56,35,70,70,119,126,98,255,119,119,112,112,105,112,98,255,84,98,105,105,105,112,105,98,0,0,0,21,77,7,0,35,0,0,0,0,98,98,255,0,28,210,56,0,0,0,7,0,0,0,0,0,0,0,0,0,0,0,0,0,0,28,35,0
63,49,84,63,98,119,70,119,147,105,119,126,112,112,112,105,105,126,112,140,112,126,112,133,0,0,0,98,168,7,0,0,0,0,0,7,0,0,0,119,21,7,0,0,0,0,0,28,7,0,0,0,0,0,0,0,0,0,0,0,0,28,91,21
21,35,56,70,91,98,91,91,126,133,119,119,105,98,98,105,119,105,105,112,126,70,140,133,0,0,0,7,252,126,7,0,0,0,0,0,182,0,210,42,63,0,0,0,0,0,7,0,0,7,0,0,0,0,0,14,0,0,0,0,0,56,28,7
35,49,49,84,70,112,105,255,112,119,112,112,119,119,98,105,112,98,112,105,119,119,133,98,0,0,0,112,0,0,7,49,0,0,0,0,196,0,21,0,42,255,49,0,0,0,0,0,0,0,0,0,0,0,0,0,0,0,0,0,28,0,49,49
42,35,56,84,98,91,105,255,133,154,119,98,105,98,105,105,112,98,91,84,126,112,133,0,0,0,0,133,0,0,203,14,0,0,0,196,0,0,14,98,0,35,84,255,0,7,0,0,0,0,0,0,0,0,0,0,0,0,0,0,0,21,42,35
56,255,77,63,91,56,91,98,133,147,105,255,91,112,98,98,105,84,84,0,105,105,98,112,0,0,0,105,7,238,0,0,7,119,0,0,255,98,161,0,21,14,7,14,255,0,7,0,0,0,0,0,0,0,0,0,0,0,0,0,0,35,28,56
21,0,77,77,91,112,84,126,255,105,112,112,112,112,112,105,91,98,112,112,105,112,119,112,0,91,0,98,0,49,0,56,0,0,28,0,140,14,0,147,255,0,49,21,0,0,0,0,0,0,0,0,0,0,0,0,0,0,0,0,14,14,35,35
56,0,91,91,119,255,91,98,112,98,182,105,91,98,105,112,91,105,119,98,119,112,77,98,0,0,0,0,105,0,255,14,0,0,0,255,0,0,147,0,49,70,14,0,21,7,0,0,7,0,0,0,0,0,0,0,0,0,0,0,0,84,7,70
49,35,77,98,91,112,98,98,133,112,105,112,255,112,112,91,112,98,98,112,112,140,98,0,112,0,0,7,133,0,245,0,147,0,0,0,119,105,14,255,98,14,0,42,0,0,0,7,0,0,0,0,0,0,0,0,0,0,0,0,0,21,70,35
21,84,63,91,77,84,91,255,77,133,119,133,98,119,112,98,112,112,112,119,98,119,119,0,70,0,0,14,98,0,126,196,21,0,0,0,0,0,63,0,105,14,255,224,7,35,0,0,0,0,0,0,0,0,0,0,0,0,0,0,21,0,49,28
63,70,0,98,56,84,91,112,84,119,98,119,105,255,112,112,105,112,119,112,105,98,112,70,0,0,0,77,0,168,28,0,0,70,0,255,0,105,21,21,77,7,49,21,0,0,7,0,0,0,7,0,0,0,0,0,0,0,0,0,0,35,63,28
70,98,42,77,112,98,105,133,112,98,98,98,105,112,84,98,98,98,112,112,105,91,105,112,0,0,0,133,0,7,0,133,0,0,0,0,147,0,182,28,255,7,49,0,0,0,0,7,0,0,0,0,0,0,0,0,7,0,0,0,28,0,42,56
21,84,28,98,84,77,255,105,112,112,105,112,105,112,98,98,105,98,98,91,98,105,119,105,0,0,0,112,0,0,0,42,0,0,0,0,0,0,0,35,112,7,7,14,7,255,0,7,0,0,0,0,0,0,0,0,0,0,0,0,0,7,21,105
91,35,255,112,84,91,105,119,105,126,112,126,112,105,112,126,119,112,126,119,98,112,112,98,63,0,0,84,7,0,224,0,0,0,98,0,147,252,35,0,14,77,0,21,14,0,0,0,7,0,0,7,0,0,0,0,0,0,0,0,0,49,28,98
28,84,84,91,77,98,91,84,119,133,112,119,255,112,112,112,112,126,112,140,126,119,147,112,0,0,0,98,0,0,133,0,0,0,0,7,0,196,0,42,14,255,7,7,63,14,0,0,0,0,0,0,0,7,0,0,0,0,0,0,0,56,49,42
14,28,21,98,77,98,255,91,147,112,112,105,133,119,112,255,126,119,133,119,112,147,112,140,0,0,0,133,0,0,255,7,0,0,0,0,119,161,255,0,49,21,0,0,0,0,7,0,0,0,0,0,0,0,21,0,0,0,0,0,0,112,28,70
84,84,84,84,84,112,98,98,112,126,112,119,112,255,119,112,105,112,112,119,133,133,133,126,0,0,0,112,0,0,21,0,14,0,255,0,0,168,7,0,70,0,0,0,0,0,7,0,0,0,0,0,0,0,255,0,0,0,0,0,0,21,21,245
56,63,28,70,70,112,255,98,133,126,112,112,112,255,112,91,105,112,98,119,119,119,105,91,0,133,0,119,21,154,0,7,0,0,0,0,126,7,0,255,28,7,14,7,21,0,0,0,7,7,0,0,0,0,0,0,0,0,0,0,0,28,35,14
84,91,98,84,98,84,98,91,255,126,126,133,126,112,119,112,112,112,119,119,105,133,126,126,0,0,0,0,119,14,0,217,0,7,0,0,126,7,84,7,21,255,0,126,0,0,0,0,0,0,0,0,0,0,0,0,0,0,0,0,21,0,42,28
28,35,42,70,105,119,98,98,126,119,112,112,112,119,98,255,119,126,105,119,119,112,119,119,0,0,0,119,7,0,224,161,0,0,0,0,0,196,255,14,63,70,7,14,0,0,0,0,14,0,0,0,0,0,0,0,0,0,0,14,0,35,7,49
56,56,7,77,105,119,91,255,84,112,112,98,119,119,119,126,133,119,119,112,140,119,119,133,0,0,119,0,0,0,0,133,217,0,0,0,0,0,7,105,255,42,119,0,21,0,0,0,0,7,0,7,0,0,0,0,0,0,0,0,21,49,21,56
70,70,7,77,84,98,112,98,112,255,112,112,112,105,112,112,112,98,105,119,126,112,112,126,0,84,0,0,0,0,0,0,119,0,0,0,21,112,49,133,14,255,35,0,0,0,0,0,7,0,0,0,0,0,0,0,0,0,0,0,0,0,35,21
56,105,28,35,105,255,98,105,77,98,126,98,105,98,255,91,112,112,119,112,147,133,133,0,91,0,112,0,0,0,63,0,0,0,255,0,0,0,7,175,91,0,0,7,0,7,7,0,14,0,0,0,0,0,0,0,0,0,0,28,0,0,42,56
49,70,70,77,119,133,84,98,112,98,119,255,119,98,105,98,105,105,105,119,98,126,70,112,112,0,0,0,91,0,7,0,0,161,0,0,140,0,14,0,7,255,7,7,0,0,7,0,0,7,0,0,0,21,0,0,0,0,0,0,21,21,42,42
84,224,70,119,98,119,105,133,112,112,119,255,119,98,119,105,105,119,98,105,112,119,112,84,0,0,0,0,112,0,112,0,0,0,0,7,175,0,21,175,255,35,0,28,7,0,7,0,0,0,0,0,0,0,14,0,0,0,0,0,0,14,21,35
7,14,70,98,98,126,105,255,105,112,91,112,119,112,105,98,98,112,91,98,112,112,119,105,0,0,0,7,0,105,0,14,0,0,0,119,0,126,217,35,255,0,14,28,0,7,0,0,0,0,0,0,0,0,0,0,0,0,0,0,0,14,28,63
21,21,77,7,84,238,91,98,119,112,112,112,255,112,133,98,112,105,119,105,98,119,112,0,0,0,0,35,84,231,0,21,0,0,35,255,119,0,182,28,7,49,7,0,28,0,7,0,0,0,21,0,0,0,0,0,0,0,0,28,0,0,77,28
21,77,21,77,84,98,91,91,112,133,255,112,119,133,105,133,119,119,133,119,119,133,133,119,0,0,0,0,119,0,28,0,0,0,21,0,105,7,112,0,28,7,7,0,7,0,70,0,0,0,0,0,0,21,0,0,0,0,0,28,35,0,63,70
28,84,63,70,70,91,98,255,126,140,147,112,119,112,98,98,98,119,133,126,133,154,140,147,0,0,0,105,0,112,0,0,7,0,0,0,49,161,0,0,49,35,255,14,7,0,0,0,0,0,0,0,0,0,0,0,0,0,0,0,21,35,70,49
49,28,70,98,255,98,98,91,119,119,119,119,126,255,126,140,112,119,133,112,133,133,112,0,140,0,0,105,0,0,21,168,0,0,0,7,0,112,0,0,49,7,0,7,0,0,203,0,7,0,0,0,0,0,0,0,0,0,0,0,28,0,14,21
28,105,70,84,91,84,91,84,126,119,255,133,119,112,133,126,126,126,133,133,119,140,126,119,0,0,0,105,7,231,0,0,14,0,0,189,0,0,0,91,42,0,255,21,0,0,0,0,7,21,0,0,0,0,0,0,0,0,0,0,0,28,63,28
63,84,21,126,70,105,119,84,161,119,255,112,126,112,112,119,112,112,119,119,119,119,119,0,0,119,0,0,98,0,0,245,0,0,0,255,161,182,161,7,7,7,0,0,7,0,56,7,0,0,0,7,0,0,0,0,0,0,0,0,14,14,42,28
49,84,21,112,77,98,84,98,105,112,133,119,105,105,98,126,91,105,105,119,126,126,119,112,0,0,0,112,0,84,7,0,70,0,0,0,35,70,21,255,0,21,7,7,0,0,0,0,0,0,0,0,0,0,0,0,0,0,0,0,0,14,42,35
28,21,28,77,98,105,255,98,105,126,112,112,126,112,133,133,112,98,119,91,105,119,105,119,0,0,0,105,0,0,7,196,0,0,28,0,0,0,0,56,7,14,0,255,14,0,0,0,0,7,0,0,0,0,0,0,0,0,0,0,0,14,7,42
105,255,21,77,77,119,84,112,119,119,255,112,112,119,105,126,112,105,126,119,126,119,91,126,0,0,0,0,154,0,0,105,7,0,0,252,0,255,0,7,7,7,77,49,0,0,0,35,0,0,0,0,0,0,0,0,0,0,0,0,0,35,35,56
42,35,98,77,98,98,91,112,119,255,112,98,119,112,112,98,119,133,119,140,126,140,140,126,0,0,0,98,0,245,56,0,0,119,0,0,0,7,255,140,0,49,7,7,0,0,0,0,0,0,0,0,0,0,0,0,0,0,0,0,14,0,14,63
35,112,21,84,91,84,231,91,98,133,112,119,105,112,98,105,255,140,126,119,133,112,112,133,0,0,0,84,0,189,0,0,7,0,0,7,0,98,0,14,56,7,255,7,21,0,0,7,0,7,0,0,0,0,0,0,0,0,0,0,0,42,35,35
84,35,77,105,98,91,105,105,252,98,98,98,112,91,105,70,91,112,77,119,105,126,126,255,0,0,0,0,105,0,0,154,0,0,0,0,14,255,231,0,63,0,0,0,0,28,0,0,0,0,0,0,0,0,21,0,0,0,0,0,35,0,14,28
