36,36,6,90,72,96,90,78,96,255,108,96,96,90,114,84,90,84,84,84,72,84,96,96,60,0,0,84,96,0,0,90,0,0,0,0,102,0,66,6,54,0,255,0,0,0,0,0,0,0,0,0,0,0,0,0,0,0,0,0,0,6,42,30
18,48,24,78,72,102,102,120,78,114,255,96,96,84,90,102,90,96,96,96,90,114,96,0,0,0,0,96,12,0,6,120,0,0,0,0,12,96,108,78,255,48,0,24,0,0,6,168,0,0,0,0,0,0,0,0,0,0,0,0,0,0,42,18
24,18,48,18,198,78,84,108,102,96,108,96,255,102,84,102,96,114,96,96,108,96,102,84,0,0,0,84,12,12,198,0,0,0,0,0,0,192,6,255,72,6,126,0,12,12,0,0,0,0,0,0,0,0,0,0,0,0,0,0,24,0,6,42
54,30,0,96,66,96,90,84,240,126,102,102,90,102,78,96,90,90,102,102,108,108,96,90,0,0,120,0,0,0,0,102,0,0,192,0,120,0,12,114,48,255,6,6,0,48,6,0,0,6,0,0,0,0,0,0,0,0,0,0,0,18,18,48
60,42,78,72,222,108,84,90,90,102,102,90,90,255,102,102,96,84,96,108,96,102,120,78,0,0,0,114,114,0,6,102,0,0,0,0,18,255,42,0,138,6,12,0,12,0,126,0,6,0,0,0,0,0,0,0,0,0,0,0,0,12,36,30
24,36,30,108,96,96,84,120,102,252,108,102,96,96,96,90,102,108,114,96,102,114,114,0,108,0,0,102,12,210,0,0,6,0,120,0,0,6,144,0,6,0,255,0,0,18,0,0,0,0,12,0,0,0,0,0,0,0,0,0,6,18,30,54
42,42,78,90,90,84,90,84,90,114,96,255,90,96,78,96,90,84,108,84,102,84,84,102,0,0,72,0,0,12,0,12,0,0,126,0,0,0,0,156,0,48,0,0,6,0,0,0,0,0,0,0,0,18,0,0,0,0,0,0,30,0,18,102
18,108,36,90,96,102,102,144,102,90,102,90,96,96,72,84,84,84,84,96,102,96,84,102,60,0,6,90,0,0,0,228,6,0,0,168,102,0,24,42,72,0,6,6,0,0,0,0,6,0,0,0,0,0,0,0,0,0,0,0,18,0,24,36
6,36,36,102,72,72,72,255,84,102,90,96,108,96,90,84,78,96,102,102,96,96,102,90,0,0,0,126,0,0,210,0,0,0,180,0,180,66,0,255,30,84,84,12,6,6,0,6,0,18,0,0,0,0,0,0,0,0,0,0,12,36,96,12
66,60,60,60,66,102,255,84,120,102,96,90,90,84,84,90,255,84,84,84,90,78,96,120,0,0,0,78,0,0,0,18,0,0,0,0,120,60,186,255,30,6,6,6,0,6,0,6,0,0,0,0,0,0,0,0,0,0,0,0,0,24,54,36
12,66,84,72,126,102,168,114,234,78,84,96,84,84,90,84,90,84,84,84,108,96,102,96,0,0,114,0,0,18,222,12,0,0,138,0,0,0,0,24,6,6,255,252,0,0,0,6,0,0,0,0,0,0,0,0,0,0,0,12,0,0,24,24
18,66,66,0,102,96,96,84,114,84,96,255,96,90,84,84,84,120,96,102,102,90,78,102,0,0,0,90,0,72,120,0,0,0,0,0,132,0,72,18,255,42,12,18,0,0,0,0,6,0,0,0,0,6,0,0,0,0,0,0,6,0,30,54
48,60,30,60,102,108,255,84,102,96,96,102,90,96,84,72,255,90,84,90,90,90,96,0,84,0,0,66,18,6,0,30,0,0,0,0,84,0,84,24,255,48,0,180,6,0,0,0,0,0,0,0,0,0,0,0,0,0,0,0,0,30,24,0
54,42,72,102,54,84,102,60,126,102,90,96,108,96,96,90,90,108,96,96,120,96,108,114,0,0,0,84,6,0,144,0,0,0,0,6,0,0,0,102,18,6,0,6,0,0,0,0,0,24,0,0,0,0,0,0,0,0,0,0,0,18,24,78
48,18,30,60,78,84,78,108,78,114,102,102,90,84,84,90,90,90,102,96,108,114,120,60,0,0,0,6,108,0,216,6,0,0,0,0,156,0,180,36,0,54,0,0,0,6,0,0,0,6,0,0,0,0,0,12,0,0,0,0,0,48,24,6
30,42,72,42,96,60,255,90,96,102,102,96,96,102,90,84,96,84,96,84,90,102,114,102,0,0,96,0,0,0,6,0,42,0,0,168,0,0,18,0,36,42,255,0,0,0,0,0,0,0,0,0,0,0,0,0,0,0,0,0,0,42,24,42
36,48,30,72,84,78,255,90,132,114,84,102,90,90,96,84,90,84,72,78,96,108,0,114,0,0,0,114,174,0,12,0,0,0,0,0,168,0,12,84,72,0,30,6,255,0,0,0,0,0,0,0,0,0,0,0,0,0,0,0,18,0,36,30
66,255,48,48,54,78,114,78,84,255,126,90,78,84,72,96,84,90,72,90,90,0,84,96,0,0,0,90,204,6,0,0,6,0,102,0,255,84,0,138,18,12,6,255,12,0,0,6,0,0,0,0,0,0,0,0,0,0,0,0,0,30,24,48
18,0,66,66,96,108,72,78,255,96,90,96,96,96,96,78,84,90,96,90,96,102,96,96,0,78,0,84,0,42,0,48,0,0,24,120,0,12,126,0,42,255,0,18,0,0,0,0,0,0,0,0,0,0,0,0,0,0,0,0,12,30,12,30
48,78,0,78,255,78,102,84,156,84,96,84,90,90,78,96,78,90,102,84,102,66,96,0,84,0,90,0,0,222,0,0,12,0,0,255,0,0,126,60,42,0,0,18,6,12,0,0,6,0,0,0,0,0,0,0,0,0,0,0,0,72,6,60
42,66,30,84,96,78,84,114,90,84,96,255,96,78,96,96,84,84,96,96,96,120,84,96,0,0,0,114,0,6,210,126,0,0,0,102,0,90,12,12,84,255,36,0,0,0,0,6,0,0,0,0,0,0,0,0,0,0,0,0,0,18,30,60
18,78,72,54,72,66,66,78,255,102,114,84,114,102,96,84,96,96,96,102,84,102,0,60,0,102,0,84,12,0,108,18,168,0,0,0,0,0,90,54,0,255,12,6,192,30,0,0,0,0,0,0,0,0,0,0,0,0,0,0,0,18,42,24
54,60,0,84,48,72,78,72,96,102,102,255,90,84,96,90,96,96,102,96,84,90,96,60,0,0,66,0,144,0,0,0,60,24,0,0,90,18,66,255,18,6,42,18,0,0,6,0,0,6,0,0,0,0,0,0,0,0,0,0,0,30,24,54
60,84,36,84,66,96,90,114,84,96,84,96,72,84,84,90,84,84,96,90,90,96,96,78,0,0,0,114,0,0,6,0,114,0,0,0,0,126,255,156,42,24,6,0,0,0,0,6,0,0,0,0,0,0,0,0,6,0,0,0,24,0,36,48
24,18,66,72,72,90,84,96,252,96,96,90,90,96,84,84,90,84,84,78,102,84,90,90,0,0,0,96,0,0,36,0,0,0,0,0,0,0,0,96,30,6,6,12,255,6,0,6,0,0,0,0,0,0,0,0,0,0,0,6,0,0,18,90
78,30,255,72,96,102,90,78,90,108,96,108,96,96,90,102,108,96,108,102,84,96,96,84,0,54,0,6,72,0,192,0,0,0,84,126,0,216,0,30,66,12,18,0,0,12,0,6,0,6,0,0,0,0,0,0,0,0,0,0,0,42,24,84
72,24,78,66,72,78,72,102,84,96,255,114,96,96,96,102,96,96,120,108,108,102,0,126,96,0,0,84,0,0,0,114,0,0,6,0,0,168,0,36,12,255,6,6,54,12,0,0,0,0,0,0,6,0,0,0,0,0,0,0,0,48,36,42
12,24,18,84,84,66,252,78,126,96,90,114,102,96,96,255,102,102,96,114,108,96,126,120,0,0,0,114,0,228,0,0,6,0,0,102,0,138,42,0,18,0,255,0,0,6,0,0,0,0,0,0,0,18,0,0,0,0,0,0,0,24,96,60
72,72,72,72,72,96,96,84,84,108,96,102,255,96,96,90,96,102,96,102,114,114,114,108,0,0,0,96,18,0,0,12,0,255,0,0,0,6,144,0,60,0,0,0,0,0,0,0,6,0,0,0,255,0,0,0,0,0,0,0,18,0,18,210
48,24,54,60,60,255,96,84,114,108,96,96,96,96,90,255,96,78,84,102,102,90,102,78,0,114,0,102,132,6,18,0,0,0,108,0,6,0,0,255,24,6,12,6,18,0,0,6,6,0,0,0,0,0,0,0,0,0,0,0,24,0,30,12
78,72,72,84,72,84,255,84,78,108,108,114,96,108,96,102,102,96,102,90,114,96,108,0,0,108,0,102,0,0,12,186,0,0,6,0,6,108,72,6,18,255,0,108,0,0,0,0,0,0,0,0,0,0,0,0,0,0,0,0,0,18,36,24
24,36,30,60,90,102,84,84,102,96,108,96,84,96,102,102,255,102,90,108,102,102,96,102,0,0,102,0,6,0,192,138,0,0,0,0,168,0,12,255,54,60,6,12,0,0,0,0,12,0,0,0,0,0,0,0,0,0,0,0,12,30,6,42
48,48,6,66,90,102,78,72,96,255,84,96,102,108,102,102,102,114,102,96,120,102,102,114,0,0,0,0,102,0,114,0,0,186,0,0,0,0,6,255,90,36,18,0,0,102,0,0,6,6,0,0,0,0,0,0,0,0,0,18,0,42,18,48
60,60,66,6,84,96,72,84,96,255,96,96,96,96,90,96,96,84,90,102,108,96,108,72,96,0,0,0,0,0,0,0,102,0,0,0,18,96,114,42,12,255,30,0,0,0,0,6,0,0,0,0,0,0,0,0,0,0,0,0,0,0,18,30
48,30,90,24,90,255,66,84,108,84,90,84,90,84,255,78,96,96,96,126,102,78,114,114,0,0,0,96,0,0,0,54,0,255,0,0,0,0,6,0,78,150,0,6,6,6,0,0,12,0,0,0,0,0,0,0,0,0,0,0,0,24,48,36
42,66,60,60,114,102,72,102,96,84,84,84,255,102,90,90,84,84,90,102,90,108,96,96,60,0,78,0,0,0,0,6,0,0,138,0,0,120,12,6,0,6,6,255,0,6,0,6,0,0,0,0,0,18,0,0,0,0,0,0,18,18,36,36
192,72,60,102,84,102,114,90,96,255,102,96,102,84,102,102,90,90,90,96,84,102,96,72,0,0,0,96,0,0,0,96,0,0,0,6,0,150,18,24,30,150,255,6,0,0,0,6,0,0,0,0,0,0,0,12,0,0,0,0,0,12,18,30
6,12,60,84,108,90,84,255,90,96,78,102,96,90,96,84,96,78,84,84,96,96,102,90,0,0,90,0,6,0,0,12,0,0,102,0,0,186,108,255,30,12,0,24,0,6,0,0,0,0,0,0,0,0,0,0,0,0,0,0,0,24,12,54
18,6,18,72,204,66,78,84,102,96,96,96,255,84,114,96,96,90,102,90,84,96,0,102,0,0,0,72,30,198,0,30,18,0,255,0,156,0,102,24,6,6,42,24,0,0,6,0,0,18,0,0,0,0,0,0,0,0,0,0,24,24,0,66
18,66,18,66,72,84,78,78,114,96,96,234,114,102,90,102,102,114,114,102,102,114,114,102,0,0,102,0,0,24,0,0,0,0,18,90,0,6,0,96,24,6,6,0,0,6,60,0,0,0,0,0,18,0,0,0,0,0,24,0,0,60,30,54
24,72,54,60,60,84,255,126,78,120,108,96,96,84,102,84,84,114,114,102,132,108,120,126,0,0,0,90,0,0,0,6,96,0,0,0,42,138,42,0,0,30,255,12,0,0,6,0,0,0,0,0,0,0,0,0,0,0,0,0,30,18,42,60
24,42,84,60,255,84,84,78,102,102,102,102,108,255,96,120,108,102,96,114,114,96,120,114,0,0,0,0,90,0,144,18,0,0,0,0,96,0,6,0,0,42,6,0,6,174,0,0,0,6,0,0,0,0,0,0,0,0,0,0,0,24,12,18
24,90,72,60,72,78,72,78,255,108,102,114,102,114,96,108,108,108,114,114,102,120,102,0,108,0,0,90,6,0,198,12,0,0,0,162,0,0,0,36,255,78,0,18,0,0,0,6,0,18,0,0,0,0,0,0,0,0,0,0,0,24,24,54
18,54,72,102,60,108,90,72,138,255,102,96,96,108,96,102,96,96,102,102,102,102,102,102,0,0,0,84,0,0,0,210,0,0,0,255,138,156,138,6,6,6,0,0,48,6,0,0,6,6,0,0,0,0,0,0,0,0,0,0,12,12,36,24
72,42,18,66,96,84,84,72,114,90,102,96,90,108,90,84,90,78,90,102,108,108,102,96,0,0,96,0,0,72,6,0,0,0,60,0,30,60,18,255,18,6,0,6,0,0,0,0,0,0,0,0,0,0,0,0,0,0,0,12,0,0,30,36
24,24,66,18,84,84,90,255,90,108,96,96,114,96,108,96,114,84,102,90,78,90,102,0,102,0,0,90,168,0,0,6,0,24,0,0,0,0,0,48,6,0,12,12,255,0,0,0,0,0,6,0,0,0,0,0,0,0,0,0,12,0,36,6
90,255,18,66,66,102,72,102,96,102,96,255,90,96,102,108,96,90,102,108,108,78,108,102,0,0,0,132,0,0,0,90,6,0,0,216,0,6,255,66,0,6,6,42,0,0,30,0,0,0,0,0,0,0,0,0,0,0,0,30,0,0,30,48
30,36,84,66,84,78,96,84,102,255,96,102,84,96,96,84,102,114,102,120,108,120,108,120,0,0,0,84,0,210,0,48,0,0,102,0,0,120,6,255,0,42,6,6,0,0,0,0,0,0,0,0,0,0,0,0,0,0,0,0,0,12,12,54
96,30,18,72,72,198,78,78,114,96,84,102,90,96,90,84,255,120,102,108,96,114,96,114,0,0,0,72,0,0,6,0,162,6,0,0,0,0,84,255,12,48,6,18,0,6,6,0,0,6,0,0,0,0,0,0,0,0,0,0,0,30,36,30
72,66,90,30,84,216,90,78,90,84,84,84,78,96,90,60,66,96,78,108,102,90,108,255,0,0,0,90,0,0,0,0,132,0,0,12,0,0,198,255,0,0,54,0,24,0,0,0,0,0,0,0,0,18,0,0,0,0,0,0,0,12,30,24
