77,70,112,56,35,84,112,105,154,98,84,255,77,84,70,70,70,70,119,84,77,98,91,98,84,0,0,112,0,0,0,0,217,0,0,119,0,14,63,7,35,255,112,147,0,0,0,7,0,0,0,0,0,0,0,0,0,0,0,0,7,49,56,35
49,14,0,77,98,112,112,112,112,77,105,255,105,77,77,70,70,77,77,77,70,77,84,63,0,91,0,105,7,7,133,0,0,0,0,0,133,21,0,7,42,0,0,0,49,182,7,35,0,0,0,0,0,0,0,0,0,0,0,0,21,49,56,35
77,14,70,84,105,112,255,98,98,105,84,77,84,63,70,70,70,84,70,112,84,98,84,98,0,0,84,0,0,231,21,0,0,119,0,0,0,49,0,0,84,21,255,0,7,7,0,0,14,0,0,0,0,0,0,0,0,0,0,0,0,35,35,56
84,245,14,77,63,105,119,98,255,77,98,84,70,77,70,70,56,77,70,70,84,77,77,91,77,0,77,0,161,21,21,0,0,0,112,0,35,0,21,28,7,255,0,0,28,0,0,0,0,0,0,0,0,0,0,0,0,0,0,28,0,21,42,56
56,35,28,14,70,77,98,98,98,77,91,77,255,70,70,70,84,77,84,84,91,105,84,84,70,0,0,119,0,35,0,0,63,0,0,119,0,21,255,7,7,14,84,0,210,0,0,70,0,0,0,0,0,0,0,0,0,0,0,0,14,35,63,49
77,0,105,21,77,98,105,147,98,91,77,70,84,84,98,70,255,77,84,84,84,84,70,98,77,0,119,0,21,0,0,0,126,0,0,255,14,140,133,7,7,0,21,0,7,0,0,0,0,0,0,0,0,0,0,0,0,0,0,0,0,28,49,14
21,35,63,49,70,77,91,91,84,105,91,255,70,105,70,70,70,77,84,63,98,91,91,98,0,77,0,98,7,119,0,28,0,0,0,98,84,0,21,255,0,7,14,42,14,0,0,0,0,0,0,0,0,0,0,0,0,0,0,0,21,35,70,56
42,49,77,63,84,98,91,255,98,84,84,91,84,84,255,91,77,77,70,77,77,70,77,56,56,0,35,0,126,252,7,0,0,0,0,0,0,217,35,0,0,255,0,21,0,7,0,0,0,0,0,0,0,0,0,0,0,0,0,0,7,42,28,56
56,7,7,98,70,98,105,84,98,98,84,98,91,77,84,70,77,70,77,70,63,70,77,77,84,0,0,105,0,42,0,0,0,0,0,0,77,56,0,140,7,28,0,255,7,0,7,0,0,0,0,0,0,0,0,0,0,0,0,0,28,35,0,49
35,255,42,70,84,84,84,84,91,98,255,98,91,70,77,70,91,70,77,70,70,70,70,70,0,70,0,77,21,175,0,0,0,70,0,0,0,98,255,0,56,21,42,0,0,0,0,0,112,0,0,0,0,0,0,77,0,0,0,0,14,28,56,35
35,77,28,77,77,56,98,84,196,63,70,63,77,70,70,91,84,84,77,70,84,70,70,84,77,0,0,105,0,14,0,0,210,133,0,0,0,0,21,7,7,0,0,255,0,0,0,0,119,0,0,0,0,0,0,0,0,0,0,7,0,56,49,49
56,255,77,42,70,105,84,98,105,91,91,84,84,98,84,98,84,63,63,70,70,77,56,70,0,0,56,126,7,238,0,0,0,35,133,0,0,175,255,14,14,98,21,21,0,0,0,0,7,0,0,0,0,0,0,0,0,0,0,0,0,49,56,63
91,70,49,77,98,98,98,255,98,91,112,84,98,70,84,70,63,63,84,63,63,70,70,84,56,0,0,105,231,0,0,21,0,133,161,0,0,0,0,70,7,0,255,0,21,0,0,0,0,0,0,0,0,0,0,0,0,0,0,0,14,21,42,63
14,84,252,98,77,105,112,112,255,91,98,91,70,70,70,84,77,77,91,91,84,98,70,0,0,0,84,98,0,0,21,245,0,112,0,0,161,7,70,255,42,0,0,0,0,0,0,0,161,0,0,0,0,0,0,0,0,0,0,0,0,28,56,49
70,49,91,21,70,105,98,84,98,84,112,255,84,84,77,63,77,63,91,84,84,84,70,70,77,0,0,119,0,0,0,161,0,0,105,0,0,77,255,0,14,21,21,196,0,0,0,0,0,119,0,0,0,0,0,0,0,0,0,0,14,35,63,35
21,21,77,56,70,77,84,255,91,63,77,84,98,91,77,77,77,84,84,77,70,77,77,98,56,0,0,0,112,0,0,0,0,0,0,0,112,0,21,7,0,70,0,255,0,0,0,0,0,0,0,0,0,0,0,0,0,0,0,0,42,0,35,56
56,21,21,7,91,70,84,98,98,126,77,84,84,70,77,91,84,77,84,70,84,84,91,91,70,0,140,0,7,0,0,0,0,0,0,0,0,7,0,0,255,0,14,84,0,7,0,0,196,0,0,0,0,0,0,0,0,0,0,42,0,7,56,42
70,42,35,63,56,98,98,98,91,84,77,98,77,70,91,84,70,63,84,84,84,77,63,49,0,0,0,105,0,0,245,0,0,0,0,0,175,0,0,255,42,0,0,42,0,0,0,0,0,14,140,0,0,0,0,0,0,0,0,0,21,21,21,56
56,91,42,70,105,91,91,91,255,91,84,77,98,84,84,84,84,77,84,84,84,63,63,77,70,0,0,70,14,7,154,0,0,0,105,0,0,7,21,154,255,0,98,0,21,0,91,0,0,0,0,0,0,0,0,0,0,0,0,14,0,77,63,49
77,56,21,56,91,255,105,91,77,255,112,91,63,77,77,77,63,70,56,70,70,77,77,70,0,63,0,91,14,0,0,105,14,0,0,105,14,0,7,98,255,28,0,7,0,0,0,0,98,0,0,0,0,0,0,0,0,0,0,0,7,28,49,98
77,84,35,49,112,98,105,255,91,98,84,84,84,112,255,70,77,84,77,98,84,84,70,84,77,0,0,133,0,0,0,7,119,0,0,203,91,154,14,7,7,0,7,7,0,0,154,0,0,0,0,0,0,0,0,0,0,0,0,0,21,49,42,77
84,63,35,49,98,84,105,91,98,84,255,77,77,77,77,70,70,70,77,70,70,70,63,63,0,70,0,98,0,0,0,0,0,28,0,0,0,0,255,182,0,7,0,0,0,14,0,0,0,0,0,0,0,0,0,0,0,0,0,0,14,28,49,70
84,21,56,98,21,84,112,98,105,126,84,84,84,255,70,84,98,84,77,70,77,77,70,70,63,0,0,91,7,0,217,0,0,0,0,126,0,0,255,21,0,42,0,0,0,255,0,0,126,0,0,0,0,0,0,0,0,0,0,0,35,0,35,42
70,255,7,70,70,91,105,255,77,91,255,91,77,77,77,77,70,56,63,70,70,77,70,63,70,0,0,0,105,49,0,0,147,0,133,0,0,21,255,35,0,14,0,0,0,0,14,0,0,0,0,0,0,0,0,0,0,0,0,0,49,0,35,49
70,35,70,49,84,98,91,91,91,84,70,84,84,98,84,70,255,70,70,70,70,70,70,77,0,63,0,98,7,231,0,0,0,0,112,147,0,0,7,255,0,7,0,0,21,0,0,0,0,0,0,0,0,0,0,0,0,0,0,21,0,14,21,63
35,84,42,63,49,98,112,98,105,255,98,70,91,91,63,70,70,70,63,56,77,70,56,56,0,63,0,119,0,0,0,182,0,0,0,0,77,56,42,28,21,7,255,77,0,0,0,0,0,0,0,0,0,0,0,0,0,0,0,0,0,21,35,56
42,28,49,84,91,91,112,105,133,98,84,255,84,84,70,70,63,77,70,63,70,63,84,70,70,0,0,91,0,231,0,0,0,119,0,0,0,0,255,21,7,70,0,7,0,0,0,0,0,0,0,0,0,0,0,0,0,0,0,0,0,56,21,49
28,84,77,63,7,91,91,70,255,98,77,98,70,84,70,70,70,70,70,77,70,56,70,77,0,0,56,0,112,133,182,28,0,0,0,0,0,0,0,21,0,182,255,112,35,0,0,0,0,0,0,0,0,0,0,0,0,0,0,21,42,0,70,70
175,28,14,49,56,98,84,84,105,255,105,91,70,70,77,84,70,70,63,77,77,70,70,84,63,0,70,14,0,231,7,0,0,119,0,0,154,0,0,0,255,21,21,7,0,0,0,0,0,0,0,0,0,0,0,0,0,0,0,0,0,35,49,70
49,28,35,35,84,84,91,255,105,112,105,98,77,84,63,77,77,70,70,70,84,70,84,77,0,0,56,84,0,7,0,217,7,0,0,98,0,0,161,35,0,255,0,0,42,0,147,0,0,0,0,0,0,0,0,0,0,0,0,0,7,70,42,63
35,28,77,112,14,98,105,77,84,91,98,91,98,84,84,70,84,77,91,84,84,70,77,70,84,0,0,119,0,238,7,0,0,0,91,0,0,154,21,14,255,7,0,7,0,21,0,7,0,0,0,0,7,0,0,0,0,0,0,0,14,14,91,56
42,77,56,77,49,84,112,112,255,77,77,70,84,91,98,77,70,77,91,98,84,91,70,70,70,0,42,98,7,210,0,0,0,0,0,0,0,0,140,7,255,35,7,28,42,0,0,0,7,0,0,0,0,0,0,0,0,0,0,0,35,21,21,49
56,70,21,28,84,84,224,84,98,84,84,255,91,98,84,77,70,77,91,70,84,70,77,63,0,0,63,70,28,0,0,0,0,0,0,0,7,42,255,7,14,35,0,0,21,0,0,0,0,0,0,0,0,0,0,70,0,0,0,0,21,28,56,42
63,42,14,49,255,84,91,91,112,91,255,84,105,98,84,119,70,84,91,84,70,84,77,84,0,70,0,91,0,0,84,14,0,0,0,49,119,0,255,7,133,56,0,126,91,0,0,0,0,0,0,0,0,0,0,0,0,0,0,0,28,0,28,56
91,70,21,56,21,112,91,112,255,98,84,84,77,84,70,77,70,63,77,77,63,84,63,70,63,0,0,84,210,7,0,0,49,0,140,0,21,0,7,42,0,7,7,255,0,7,0,0,0,0,0,0,0,0,0,0,0,0,0,0,0,14,21,91
70,49,21,77,70,91,98,84,112,98,91,98,91,77,77,70,70,77,84,84,77,70,70,84,84,0,0,0,91,224,0,0,0,175,119,0,0,7,49,255,0,0,7,0,0,0,0,0,0,0,0,0,0,0,0,0,0,0,0,0,7,21,42,49
7,35,35,84,98,84,98,112,119,255,84,112,84,91,105,84,70,84,91,84,84,84,91,98,84,0,0,98,0,21,0,0,0,0,14,126,77,0,112,0,255,0,14,7,0,0,56,7,7,0,0,0,0,0,0,0,0,0,0,0,49,7,35,70
56,98,91,35,255,77,84,91,98,98,84,255,91,77,98,77,91,84,70,84,91,84,84,70,77,0,0,105,0,0,0,7,196,0,0,126,255,84,7,7,0,49,49,0,7,0,0,0,0,0,0,0,0,0,0,0,0,0,0,0,7,42,56,84
63,49,91,70,98,21,105,112,245,98,91,98,98,84,70,70,77,70,77,77,84,77,77,70,77,0,0,112,0,21,0,210,196,0,0,126,0,126,7,0,0,49,126,14,49,0,0,0,0,0,0,0,0,0,0,0,0,0,0,0,7,35,35,35
98,42,84,35,161,105,84,112,105,255,91,105,84,84,77,84,70,77,70,63,63,84,70,84,77,0,0,7,105,126,0,0,0,0,126,0,0,84,49,255,0,56,0,35,0,133,0,0,0,0,0,0,0,0,0,0,0,0,0,0,56,35,77,56
70,42,91,77,35,98,98,84,91,91,105,112,77,91,77,56,56,42,49,49,56,70,84,77,98,0,0,91,0,245,154,0,0,0,133,0,0,119,0,0,7,84,7,255,7,14,0,0,0,0,0,0,0,0,0,0,0,0,0,0,0,28,35,70
35,28,98,21,255,84,98,84,91,119,255,119,63,91,56,70,77,77,77,98,91,84,91,84,56,0,84,0,7,231,0,0,0,0,112,0,0,196,255,133,7,91,70,0,0,255,0,0,0,98,0,0,0,0,0,0,0,0,0,0,21,56,35,35
56,91,28,49,231,112,255,105,98,98,98,91,84,84,70,84,56,70,77,70,84,77,84,91,49,0,0,0,231,98,154,0,0,119,0,0,0,84,28,7,0,7,255,0,21,0,0,0,0,98,0,0,0,0,0,0,0,0,0,0,0,35,49,35
49,245,77,7,91,105,105,84,91,255,84,98,98,77,84,70,70,70,84,84,84,84,84,77,0,98,0,84,0,119,0,0,0,0,0,0,14,126,255,0,0,0,28,175,0,0,0,0,0,0,0,0,0,0,0,0,0,0,0,0,0,42,28,56
21,35,14,105,91,70,91,77,255,91,84,77,84,98,84,70,70,63,91,84,70,91,84,105,98,0,0,105,0,21,0,0,0,0,175,21,0,133,0,105,7,7,255,224,0,0,0,0,0,0,0,0,0,0,0,0,0,0,0,0,0,28,35,42
28,35,70,63,255,98,112,98,91,255,98,98,84,84,84,84,84,84,77,98,84,91,77,98,0,84,0,0,119,224,0,0,0,231,0,112,0,21,7,0,255,0,0,35,255,0,0,7,0,0,0,0,0,0,0,0,0,0,0,0,0,21,21,42
42,0,14,21,98,98,255,91,105,84,84,91,77,84,91,77,70,70,70,84,77,84,84,84,70,0,0,7,84,210,0,0,0,0,0,133,0,0,255,98,7,21,0,0,0,105,84,21,0,0,0,0,0,0,0,0,0,0,0,0,7,21,35,35
119,21,56,70,112,70,77,91,91,98,77,84,91,84,77,77,56,70,84,84,77,70,77,84,98,0,112,0,0,35,140,0,0,0,224,161,0,0,7,49,28,21,0,126,0,0,0,0,0,0,0,0,0,0,0,0,0,0,0,0,21,56,0,49
21,70,42,49,84,77,98,255,91,84,98,91,91,84,91,77,63,70,70,63,77,70,70,70,0,49,0,105,0,0,0,196,0,7,175,0,0,98,98,7,14,0,255,84,0,0,0,0,0,0,7,0,0,0,0,0,0,0,0,0,7,21,21,28
14,42,63,70,91,196,98,84,77,98,255,91,77,91,98,70,56,77,91,84,70,70,91,77,84,0,0,112,7,21,0,0,189,0,0,0,126,0,35,0,133,7,0,255,0,0,0,0,0,0,0,0,0,0,0,0,0,0,0,0,49,28,49,84
