9,0,54,18,45,45,39,48,39,144,45,42,42,48,36,39,51,45,51,45,48,48,48,42,0,42,0,0,0,21,9,0,3,0,0,57,0,0,144,24,6,0,6,0,0,27,0,0,0,0,0,0,0,0,0,0,0,0,0,0,6,9,24,27
27,30,6,0,27,36,54,48,30,90,39,39,39,45,45,42,36,42,42,42,30,45,48,30,0,0,0,36,3,3,51,3,0,48,0,0,54,0,144,0,0,0,0,18,0,0,0,0,0,0,0,0,0,0,0,0,0,0,0,0,9,21,21,48
9,21,27,30,30,9,33,33,57,48,36,57,39,36,51,39,45,42,144,45,45,42,39,0,48,24,0,33,0,24,0,0,0,87,0,39,0,6,21,144,57,69,0,0,0,0,0,0,0,0,0,0,0,0,0,0,0,0,0,0,3,12,12,21
45,15,9,24,42,36,36,48,39,117,39,51,45,45,48,42,39,39,45,45,48,51,54,45,0,0,0,6,33,51,0,3,0,0,0,0,0,36,0,0,3,18,144,12,0,0,0,0,0,0,0,0,0,0,0,0,0,0,0,3,18,6,21,48
48,0,15,57,9,33,57,33,30,51,144,51,45,54,51,39,42,54,51,51,54,48,45,51,0,0,0,36,0,87,0,0,0,0,0,0,0,30,3,51,0,9,3,0,0,0,0,0,0,0,0,0,0,0,0,0,0,0,3,0,9,15,9,51
18,27,6,36,33,141,24,30,54,57,42,45,45,48,48,45,36,51,42,51,48,39,54,51,0,0,0,0,45,39,0,0,0,0,54,0,57,0,33,6,3,144,9,15,0,0,0,0,0,0,0,0,0,0,0,0,0,0,0,9,0,18,30,15
15,27,96,6,21,30,30,33,51,57,144,42,48,54,51,54,57,48,54,57,48,60,51,51,0,0,0,36,0,12,0,0,96,0,0,0,0,3,42,144,27,0,0,0,0,0,0,0,0,0,0,0,0,0,0,0,0,0,0,0,3,24,27,18
21,21,0,12,21,39,36,48,63,57,57,54,48,54,144,63,51,54,42,54,57,57,48,57,30,0,0,42,102,0,48,0,0,0,51,0,0,42,0,0,144,42,0,0,3,3,6,0,0,0,0,0,0,0,0,0,3,0,3,0,15,9,9,18
24,36,21,30,3,39,42,78,57,48,54,45,51,51,45,51,51,54,60,54,54,51,54,60,0,0,0,9,36,42,3,0,0,0,0,48,45,3,24,0,6,0,0,21,144,3,0,0,0,0,0,0,0,0,0,0,0,0,0,0,9,9,48,36
120,6,9,24,30,30,36,27,63,48,138,42,48,51,48,48,57,57,57,57,54,57,60,57,0,0,0,36,3,60,0,0,3,0,0,42,51,0,0,144,9,15,48,0,0,0,0,0,0,0,0,0,0,0,0,0,0,0,0,0,0,12,30,30
48,18,21,9,36,42,48,51,144,57,48,48,57,57,54,48,57,48,54,54,54,57,57,54,0,0,0,42,0,9,105,0,57,0,0,0,51,78,0,18,144,3,3,0,0,0,0,0,0,0,0,0,0,0,0,0,0,0,0,0,0,18,45,27
15,57,9,21,24,39,36,21,48,57,51,63,51,144,51,57,57,51,45,57,57,60,51,48,0,0,0,0,36,12,90,0,0,0,0,0,144,3,48,27,3,3,9,3,141,0,9,0,0,0,0,0,27,3,6,3,0,0,0,3,0,42,9,21
36,9,27,18,123,33,39,144,30,51,60,57,66,57,51,51,51,60,51,57,54,54,57,51,0,36,0,3,33,78,0,54,6,0,0,0,0,54,9,141,6,0,0,0,0,0,0,0,0,0,0,0,0,0,0,0,0,0,0,0,9,18,15,21
42,3,15,21,27,39,42,51,36,93,51,54,51,57,60,48,51,54,51,57,54,54,63,48,0,0,0,36,0,72,99,0,9,0,75,0,0,15,15,3,21,15,3,144,6,0,0,0,0,0,0,3,0,0,0,0,0,0,0,0,9,21,45,9
15,24,3,93,42,39,51,60,36,51,144,51,63,57,96,51,57,51,57,57,57,51,51,57,39,0,36,0,3,3,105,3,0,0,0,57,144,0,0,0,6,0,9,0,0,0,0,0,0,0,0,0,0,0,0,0,0,0,0,0,0,33,12,42
18,33,9,15,36,42,39,36,60,144,51,63,57,57,51,54,57,51,57,54,57,57,63,63,36,0,0,36,0,3,111,0,0,0,0,81,0,0,48,3,144,0,3,9,0,0,0,0,0,0,0,0,0,0,0,0,0,0,0,0,33,0,9,30
6,42,9,15,21,36,141,42,51,57,48,63,51,51,51,51,54,63,57,54,51,57,51,60,0,51,3,39,0,0,105,0,3,0,0,63,0,90,39,9,0,6,144,0,0,0,0,0,0,0,0,0,0,0,0,0,0,0,0,0,15,0,45,15
51,15,21,123,24,48,42,42,51,126,57,54,45,57,144,51,51,57,54,54,54,57,54,39,36,63,0,0,3,75,0,69,0,60,0,0,144,0,3,63,0,0,0,0,0,9,0,0,0,0,0,0,27,0,0,0,0,0,0,0,9,12,24,21
24,27,30,0,33,27,30,36,66,60,111,48,48,54,51,54,51,54,54,57,45,48,60,45,0,48,0,33,63,0,30,0,0,9,0,0,48,30,21,0,21,144,24,0,0,0,0,0,0,0,0,0,0,0,0,0,0,0,0,0,15,0,33,15
15,9,9,24,51,36,27,33,51,60,63,48,51,144,57,54,57,51,48,54,51,54,51,39,54,0,36,6,0,96,39,6,0,0,0,60,18,0,0,141,6,0,18,0,9,0,0,0,0,0,0,0,0,0,0,0,12,0,0,0,9,42,0,21
9,30,30,0,36,42,42,36,57,54,72,54,63,54,54,60,45,42,48,54,54,48,51,45,0,48,0,3,0,36,0,0,0,3,0,45,0,36,0,0,36,144,0,3,0,0,0,0,0,0,0,0,0,0,0,0,0,0,0,0,0,21,42,15
18,9,21,60,36,51,39,66,39,54,144,57,51,48,51,45,45,51,48,54,57,48,36,51,57,0,0,39,3,0,0,24,0,3,0,0,3,42,30,144,18,3,0,6,0,0,12,135,0,0,0,0,0,0,0,0,0,0,0,0,0,27,21,42
12,27,3,6,24,27,24,138,51,60,54,51,57,48,45,48,54,45,45,54,48,57,54,48,0,39,0,36,3,6,90,0,0,0,0,0,3,66,0,9,3,144,39,0,0,0,0,0,0,0,0,9,0,0,0,0,0,0,0,3,0,9,24,24
33,69,3,3,3,36,51,48,63,144,57,60,57,54,48,54,51,54,51,51,48,51,60,45,51,0,0,36,3,99,42,0,0,18,0,0,0,6,0,6,144,18,0,0,3,0,0,0,0,0,0,0,0,0,0,0,0,0,0,0,0,15,6,15
30,24,0,123,24,42,33,30,60,54,51,51,45,54,54,51,54,45,60,51,54,51,54,39,54,0,0,3,42,87,0,0,0,0,0,0,39,0,42,0,6,0,12,0,0,0,0,0,144,0,0,0,0,0,0,0,0,0,0,0,0,9,45,18
24,15,27,30,18,36,36,144,24,51,63,57,57,51,54,48,48,48,57,48,54,42,57,48,36,0,0,48,0,0,15,0,51,0,0,3,0,0,3,0,144,27,6,3,3,0,0,0,0,0,0,0,0,0,0,0,0,0,0,0,9,6,21,48
21,24,21,30,33,24,126,33,54,48,57,57,144,48,48,57,42,54,48,45,54,48,51,9,48,0,0,36,0,0,66,0,0,0,3,0,66,0,45,15,144,27,0,0,15,0,0,9,0,0,0,0,0,0,0,0,0,0,0,3,0,15,21,27
48,15,3,30,45,18,36,30,141,48,51,57,45,57,48,54,54,51,57,51,51,51,51,60,0,0,45,45,0,0,0,0,0,0,0,48,78,0,3,24,15,144,63,0,0,0,0,0,0,0,0,0,0,0,0,0,0,0,0,0,0,9,15,15
30,18,36,21,6,33,30,42,63,51,51,144,51,60,57,45,48,57,57,48,51,63,57,42,51,0,0,39,0,0,39,0,0,0,0,33,3,57,0,30,9,21,0,0,12,3,0,0,0,0,0,0,0,0,0,0,0,0,0,0,0,15,9,48
15,24,15,30,36,33,36,54,57,60,60,57,51,45,54,57,57,57,45,54,54,60,51,138,0,0,0,0,48,0,0,3,0,0,0,84,0,6,12,36,0,0,9,3,0,0,6,0,0,0,0,0,0,0,0,0,0,0,0,21,0,0,27,27
9,15,9,24,36,39,27,144,54,57,51,51,63,48,51,51,51,51,51,51,42,51,51,51,36,0,33,0,0,3,72,3,69,0,0,0,0,63,30,0,33,9,144,0,3,0,0,0,0,33,0,0,0,0,15,0,0,0,0,0,0,33,9,60
21,27,24,33,27,30,66,39,57,39,51,144,51,57,54,57,57,54,51,54,51,51,48,57,24,0,36,6,0,3,0,0,0,0,0,48,0,3,141,6,3,33,84,6,18,0,0,0,0,0,0,0,0,0,0,0,0,0,0,0,3,15,24,15
12,33,21,30,57,27,36,66,54,66,54,51,51,54,51,51,51,54,57,57,51,60,51,45,57,0,0,33,3,96,3,3,0,0,21,0,0,57,3,9,3,144,15,6,6,0,0,0,0,0,0,0,0,0,0,0,0,0,0,6,0,18,15,45
15,102,12,30,33,36,33,33,57,144,48,45,51,48,51,51,51,57,42,63,60,57,51,51,0,0,0,45,0,30,0,0,75,0,0,48,0,141,0,36,42,9,24,6,0,0,0,0,0,0,0,0,0,0,0,0,0,0,0,12,0,0,9,18
33,27,3,24,24,24,30,33,126,57,57,51,48,51,57,51,54,51,48,57,54,54,48,0,51,0,0,0,54,84,3,0,0,75,0,0,0,0,69,6,6,6,144,9,0,0,0,0,0,0,0,0,0,0,0,15,3,0,0,3,0,9,18,24
6,84,36,48,30,27,33,24,144,66,63,51,51,54,54,60,48,54,57,48,57,48,48,48,36,0,0,0,0,42,0,78,0,0,0,60,3,0,3,36,144,6,0,0,15,0,0,6,0,0,0,0,0,0,0,0,0,0,0,0,3,12,3,30
27,15,15,30,30,21,48,72,63,63,48,45,45,54,51,144,48,57,54,60,54,51,51,51,0,0,0,42,0,93,0,6,48,0,0,3,0,144,96,0,3,0,0,0,3,0,0,0,0,0,0,0,0,0,0,0,0,0,0,0,0,12,15,48
3,18,18,24,0,33,105,36,42,48,57,51,57,51,51,45,51,144,48,45,57,45,48,54,0,48,9,36,0,99,0,3,51,0,0,0,0,0,0,144,3,33,36,0,0,0,0,15,0,0,0,0,0,0,0,0,0,0,0,0,21,6,12,21
45,24,3,30,39,39,66,144,39,48,54,48,54,63,54,51,48,54,48,51,54,48,57,51,0,54,0,39,33,0,3,0,0,54,0,0,39,0,3,0,15,3,144,0,24,0,0,9,0,0,0,0,0,0,0,0,0,0,0,0,0,9,42,12
21,45,9,15,36,27,45,48,144,39,48,51,51,57,48,51,54,51,54,45,51,45,51,42,48,0,0,42,6,3,0,42,0,0,3,48,0,0,63,3,144,15,0,3,0,0,0,0,0,0,0,0,0,0,0,0,0,0,0,12,0,21,9,12
24,24,9,12,45,36,36,39,144,57,57,51,60,51,48,48,51,48,51,42,54,45,51,45,33,0,42,0,0,3,0,3,0,69,0,63,0,54,0,30,0,3,0,144,0,0,0,0,12,0,0,0,0,0,0,0,0,0,0,0,0,15,18,42
6,30,9,30,18,138,30,36,57,48,129,45,54,141,54,51,45,54,42,42,54,45,51,48,0,0,0,42,0,0,0,0,6,0,0,48,0,0,57,144,3,18,0,0,6,12,24,0,0,0,0,0,0,0,0,0,0,0,0,0,0,24,21,30
15,9,36,33,27,33,30,27,42,51,57,48,51,60,51,51,45,144,57,51,51,45,54,51,0,51,0,0,48,0,0,0,0,81,48,0,144,69,0,141,3,48,6,0,24,3,0,0,3,0,0,0,0,0,0,0,0,0,0,9,42,9,6,33
18,21,30,36,36,30,30,141,36,54,42,48,48,51,48,51,60,54,51,45,54,57,48,21,54,9,0,60,3,93,0,3,0,0,72,0,0,102,15,27,12,0,144,0,9,0,0,0,0,0,0,0,0,0,0,0,0,0,0,0,0,24,18,15
24,30,9,18,42,39,39,144,21,54,57,51,57,57,63,51,51,48,45,51,42,48,57,51,42,0,33,0,0,21,48,0,0,0,0,0,75,0,51,6,3,144,0,9,0,0,0,0,0,0,0,0,0,0,0,0,0,0,0,9,0,21,39,27
30,30,21,21,27,132,36,39,57,57,54,51,51,54,144,54,51,57,51,51,54,48,57,51,36,0,51,0,0,0,66,0,3,0,0,63,6,0,144,9,3,0,0,0,9,0,138,0,0,0,0,0,0,0,0,0,0,0,0,0,6,0,9,39
9,27,0,30,27,36,30,36,54,144,54,48,48,60,48,51,45,51,45,48,57,51,33,48,54,0,0,42,27,0,0,0,57,0,0,0,57,36,3,0,3,30,0,0,9,9,0,0,0,0,0,0,0,0,0,0,0,0,0,0,9,9,33,21
33,0,9,39,27,39,45,30,51,57,57,54,51,54,48,51,54,57,51,51,51,54,48,39,0,51,0,42,0,72,90,0,0,6,0,57,42,0,12,144,0,36,0,0,9,0,0,0,0,0,0,0,0,0,0,0,0,0,0,0,0,15,24,39
21,3,12,33,36,39,48,60,42,54,57,48,51,144,48,51,48,51,45,54,60,42,51,51,0,42,45,0,0,0,0,57,0,0,144,57,0,0,78,0,15,6,45,0,15,0,0,0,0,0,0,0,0,0,0,0,0,0,0,0,9,18,24,30
24,27,6,21,30,33,144,42,30,57,60,66,57,54,54,57,48,51,48,51,54,54,51,57,0,36,0,105,39,0,0,0,3,0,0,0,0,144,57,0,21,24,3,0,0,0,6,0,0,0,0,0,0,0,0,0,0,0,0,0,0,18,9,39
