60,35,60,75,65,80,100,75,75,80,75,220,70,70,75,90,70,70,80,75,75,85,80,70,0,75,0,0,5,145,0,0,0,0,0,0,0,0,0,55,5,5,35,5,0,0,0,0,0,0,0,0,0,0,0,0,0,0,0,5,0,25,55,60
15,25,0,55,60,55,55,140,70,70,65,70,70,240,70,75,75,75,75,80,85,75,70,100,0,0,0,15,85,0,25,0,0,0,0,0,105,0,45,10,240,15,0,85,0,0,0,0,0,0,0,0,0,0,0,0,0,0,0,0,15,65,65,70
70,30,35,20,30,80,70,80,75,90,240,80,95,80,75,90,85,80,85,70,85,75,85,0,75,0,0,70,0,0,0,5,0,0,0,0,140,40,0,15,240,45,30,0,50,0,5,0,0,0,0,0,0,0,0,0,0,0,0,0,65,10,60,0
60,15,15,60,50,85,75,240,80,85,80,80,70,95,70,80,70,80,95,70,95,80,95,60,0,0,80,0,0,0,0,110,0,0,5,0,50,55,90,0,55,40,0,240,0,0,0,0,0,0,0,0,0,0,0,0,0,0,0,0,40,25,70,55
10,50,35,55,55,80,85,60,85,85,80,85,75,80,85,80,75,90,90,80,85,95,85,0,75,0,0,70,5,90,0,0,0,0,0,0,85,35,240,0,15,15,0,0,0,0,0,0,0,0,0,0,0,0,0,0,0,0,0,0,15,20,65,15
50,20,75,20,25,70,70,70,70,75,90,80,85,80,85,80,85,90,85,85,85,85,85,0,0,80,0,70,170,0,0,0,0,0,0,105,240,0,15,0,15,5,25,0,0,0,0,0,0,0,0,0,0,0,0,0,0,0,0,0,15,10,60,0
60,20,25,30,60,80,65,220,85,80,80,110,75,60,80,75,80,85,85,85,80,85,95,70,65,0,0,0,70,5,5,90,0,0,0,95,0,90,110,10,0,5,25,0,0,5,0,0,0,0,0,0,0,0,0,0,0,0,0,0,10,20,30,55
20,55,35,25,30,80,60,70,50,80,70,70,240,80,70,75,75,85,80,95,85,95,80,85,0,0,85,0,0,0,160,5,125,0,0,0,105,95,0,20,240,25,0,0,5,0,0,0,0,0,0,0,0,10,0,0,0,0,0,10,5,25,85,25
80,25,20,45,60,80,80,60,80,215,90,80,85,80,80,80,85,85,80,80,75,75,90,0,85,0,0,70,0,155,5,0,0,0,0,60,0,70,65,5,240,15,5,0,5,0,5,0,0,0,0,0,0,0,0,0,0,0,0,0,55,0,40,30
20,10,60,45,175,65,65,70,75,95,80,90,80,80,85,85,85,95,90,85,80,85,90,0,80,0,0,55,0,0,0,115,0,5,95,0,0,100,240,5,0,0,15,45,0,0,0,0,0,0,0,0,0,0,0,0,0,0,0,0,0,30,55,20
0,25,50,15,55,65,75,70,230,70,75,80,80,75,85,80,85,85,85,100,75,95,85,80,0,0,55,0,0,0,0,0,0,80,0,95,0,5,0,70,0,20,240,5,0,0,0,5,0,0,0,0,0,0,0,0,0,0,0,0,10,25,45,40
15,55,0,45,220,65,75,70,75,80,240,75,80,80,90,80,80,90,85,80,90,95,90,90,0,0,0,60,0,0,0,0,10,0,0,0,0,120,0,240,25,40,5,10,5,0,0,0,0,0,0,0,0,0,0,0,0,0,0,0,35,15,50,35
55,55,25,15,0,55,85,200,75,200,90,75,85,80,85,85,85,85,85,90,85,80,85,85,0,0,0,70,0,165,0,0,10,0,0,85,0,90,5,0,25,30,240,0,0,0,0,0,0,0,0,0,0,0,0,0,0,0,0,0,5,40,25,70
50,50,65,50,60,70,80,105,85,90,85,240,80,95,75,95,90,90,100,95,85,100,95,90,0,0,0,60,0,0,0,0,0,0,0,0,0,55,30,240,25,5,60,0,0,0,0,0,0,0,0,0,0,0,0,0,0,0,0,0,20,40,70,70
35,65,30,0,60,70,85,80,80,165,85,95,85,80,80,85,90,80,85,85,85,85,100,65,0,0,0,80,0,100,0,0,0,0,0,100,60,0,35,45,240,0,10,5,0,0,125,0,0,0,0,0,0,0,0,0,0,0,0,0,10,25,35,60
20,65,20,40,70,70,75,85,70,85,95,85,80,80,80,80,85,90,95,75,105,95,80,75,0,0,0,50,10,70,0,0,0,0,0,235,0,60,0,0,0,5,0,0,0,5,0,0,0,0,0,0,0,0,0,0,0,0,0,15,0,25,30,75
10,40,10,20,65,70,75,70,70,80,220,80,85,75,80,85,75,80,85,85,75,85,90,85,0,0,60,0,5,5,0,0,70,0,0,115,0,0,15,0,240,5,0,0,0,0,0,0,0,0,0,0,0,0,0,0,0,0,0,5,0,40,25,15
80,20,0,0,35,65,65,85,85,185,75,85,70,80,225,75,85,95,95,80,80,90,80,0,90,0,0,70,0,15,0,0,0,5,0,90,0,0,60,130,240,30,15,25,0,0,0,0,0,0,0,0,0,0,0,0,0,0,10,0,35,50,60,75
30,60,10,0,55,65,60,80,85,85,240,80,80,85,85,80,80,80,85,80,85,80,0,80,0,0,0,70,0,40,0,0,160,0,0,0,10,0,70,5,10,45,0,240,0,0,0,0,0,0,0,0,0,0,0,0,0,0,0,0,10,15,55,0
50,60,190,45,80,65,60,65,80,95,85,90,80,80,75,85,80,85,90,95,95,90,0,85,85,0,0,0,60,10,160,0,0,0,0,110,0,0,30,240,0,35,5,30,0,0,0,0,0,0,0,0,0,0,0,0,0,0,0,5,0,80,25,75
50,60,60,40,30,15,80,60,95,85,80,85,85,80,80,240,80,95,85,90,85,100,85,90,0,0,60,0,5,0,0,0,5,0,110,0,0,65,5,10,45,60,0,0,0,0,0,0,15,0,0,0,0,0,0,0,0,0,0,0,5,35,60,70
15,35,25,40,85,55,85,60,230,70,80,90,75,80,85,85,80,85,85,80,75,100,85,95,0,0,0,70,170,0,0,0,5,70,5,0,105,0,85,10,240,0,10,40,0,0,0,0,0,0,0,0,0,0,0,0,0,0,0,20,0,20,75,30
25,20,10,55,65,70,160,60,65,80,80,240,80,85,80,80,80,90,85,80,90,85,90,75,0,0,0,50,5,0,25,0,130,0,0,0,95,5,240,20,10,5,5,35,0,0,0,0,0,0,0,0,0,0,0,0,0,0,0,0,0,35,60,25
35,15,10,55,55,70,60,70,190,80,90,80,85,85,75,80,85,90,80,95,90,95,90,0,0,80,0,70,5,45,5,0,0,0,0,0,0,45,5,0,15,240,30,0,40,0,0,0,0,0,0,0,0,0,0,0,0,0,0,0,15,50,65,45
30,75,10,80,40,190,85,75,85,85,90,70,85,240,80,85,80,90,90,85,85,90,85,95,0,0,0,90,0,0,5,0,0,0,240,0,125,55,60,0,15,240,45,5,5,0,0,0,0,0,0,0,0,0,0,0,0,0,0,0,15,25,60,70
30,15,15,60,65,85,230,75,75,80,85,240,80,80,80,85,115,90,90,85,90,100,105,75,0,0,85,0,130,0,5,0,0,0,90,0,0,60,95,15,240,25,20,0,0,0,0,0,0,0,0,0,0,0,0,0,0,0,0,0,5,20,0,50
70,20,0,30,60,240,75,85,80,80,85,80,85,90,85,80,80,95,95,75,70,65,80,65,0,0,0,0,75,0,75,0,0,0,0,90,0,35,0,5,15,55,0,30,240,0,0,0,0,0,0,0,0,0,0,0,0,0,0,20,0,25,60,60
5,0,60,0,70,75,60,240,70,70,85,95,85,75,90,90,90,90,85,70,95,85,75,85,0,0,0,50,0,160,0,0,0,0,0,0,85,65,5,0,20,240,15,20,0,0,0,0,0,0,0,0,0,0,0,0,0,0,0,0,20,15,65,60
40,20,0,60,50,140,70,65,75,90,240,85,95,80,85,90,90,85,75,95,95,95,90,0,80,0,5,0,85,0,125,0,0,0,95,0,60,0,240,0,0,5,50,0,20,0,0,0,0,0,0,0,0,0,0,0,0,0,0,20,5,15,65,60
10,15,20,10,60,60,85,70,65,80,95,85,240,80,80,90,80,85,105,100,90,85,95,75,0,0,0,155,70,0,0,0,0,0,100,240,0,5,80,5,5,60,0,5,0,0,0,5,0,0,0,0,0,0,0,0,0,0,0,0,20,25,30,65
15,15,55,50,65,70,80,75,105,75,85,135,95,80,95,75,90,80,90,95,95,95,85,85,0,0,0,75,0,5,20,0,125,0,95,0,0,0,0,15,240,5,5,35,60,0,0,0,0,0,0,0,0,0,0,0,0,0,15,0,15,50,25,65
45,35,40,60,70,190,75,75,70,100,85,85,75,240,85,80,80,90,90,65,100,75,80,70,55,0,70,0,0,0,0,5,0,230,0,110,5,115,95,0,15,35,15,0,45,0,0,240,0,0,0,0,0,0,0,0,0,0,0,60,0,25,80,70
75,75,240,5,70,25,80,70,80,210,80,80,85,80,80,90,85,85,240,85,100,85,100,0,100,0,0,5,60,0,60,0,5,105,5,0,0,65,0,10,0,5,0,0,0,0,0,0,0,0,0,0,0,0,0,0,0,0,0,0,10,10,5,80
15,20,25,35,60,60,85,80,170,80,95,90,85,80,95,85,85,95,95,90,90,95,85,0,95,0,0,60,10,0,105,0,5,0,110,0,0,0,10,5,55,0,240,0,0,30,0,0,0,0,0,0,0,0,0,0,0,0,0,20,0,20,20,70
20,60,60,60,70,65,75,80,75,240,80,75,90,70,80,80,85,85,70,90,55,75,100,80,0,0,0,55,80,15,0,0,0,0,0,90,60,0,240,60,20,5,20,0,0,0,0,0,0,0,0,0,0,0,0,0,0,0,0,0,10,15,35,70
20,25,60,15,65,65,110,95,70,240,80,95,85,85,80,80,90,95,95,95,90,85,85,95,0,0,0,55,125,15,0,0,0,0,0,105,0,0,5,0,35,240,10,0,0,0,0,0,0,0,0,0,0,0,0,0,0,0,0,0,0,40,20,70
25,60,0,30,75,70,80,75,90,85,240,85,95,85,85,80,80,85,80,65,75,75,80,100,55,0,0,70,0,0,0,110,0,0,0,85,0,240,0,0,5,0,0,15,0,40,0,0,0,0,0,0,0,0,0,0,0,0,5,0,15,20,60,65
20,30,15,60,50,75,85,85,80,95,85,85,85,80,80,85,85,80,60,70,60,70,70,80,50,0,0,60,0,0,5,160,0,0,50,0,0,5,80,240,0,45,20,0,15,0,0,125,0,0,0,0,0,0,0,0,0,0,0,0,65,0,25,55
30,20,75,65,80,80,75,165,75,80,85,80,80,75,230,75,80,85,90,95,95,80,80,0,0,80,0,0,65,0,5,0,0,0,0,105,240,0,30,0,40,5,15,15,0,240,0,0,0,0,0,0,0,0,0,0,0,0,0,5,0,55,25,235
75,65,70,65,65,80,80,80,230,80,80,90,85,80,80,70,85,80,85,80,85,85,95,240,65,0,0,0,80,5,0,65,0,0,0,85,0,0,75,240,5,15,5,65,10,0,0,0,0,0,0,0,0,0,0,0,0,0,0,0,70,25,70,70
70,65,20,50,85,75,55,115,70,85,80,85,70,90,75,85,85,80,80,85,80,85,85,0,0,90,0,55,10,25,0,0,0,0,95,0,0,0,5,0,5,25,240,0,5,0,0,0,0,0,0,0,0,0,0,0,0,0,0,0,15,70,10,60
20,70,75,10,80,75,70,100,240,85,90,95,75,95,80,80,80,85,70,70,70,75,80,80,55,0,0,55,5,0,125,10,0,0,0,0,0,75,0,0,40,0,240,10,0,5,0,0,0,0,0,0,0,0,0,0,0,0,0,15,0,65,65,70
60,75,35,50,75,70,195,65,65,85,80,240,70,70,75,80,80,80,80,90,85,85,85,95,0,0,0,65,0,0,0,0,0,0,0,85,0,240,0,75,0,0,0,25,5,15,0,10,0,0,0,0,0,0,0,0,0,0,0,0,0,20,50,15
15,50,0,10,80,80,75,145,70,85,70,75,75,80,80,70,75,90,70,65,85,85,85,0,75,0,85,0,0,0,0,0,80,95,0,0,85,5,70,0,240,45,10,5,0,0,0,0,0,0,0,0,0,0,0,0,0,0,0,0,0,50,15,80
70,20,20,70,50,75,90,240,80,85,80,80,80,85,90,90,85,90,80,80,75,75,80,85,60,0,70,0,5,0,15,130,0,0,0,0,25,0,100,0,5,10,240,0,0,0,0,0,0,0,0,0,0,0,0,0,0,0,0,0,15,10,65,30
25,55,10,85,65,65,70,75,75,85,75,240,80,75,90,80,70,80,80,90,80,80,90,80,0,20,0,55,0,95,135,0,0,85,0,0,0,240,10,0,0,0,15,25,0,5,0,0,0,0,0,0,0,0,0,0,0,0,0,0,10,40,75,30
65,35,70,10,75,65,75,80,80,85,70,70,85,80,70,70,70,80,85,75,75,90,85,80,0,0,70,0,15,65,0,0,0,0,0,0,75,0,0,50,5,20,35,5,30,0,0,15,0,0,0,0,0,0,0,0,0,0,0,0,15,25,30,60
45,25,0,215,25,70,95,50,75,85,80,80,80,85,200,80,85,85,70,85,90,90,90,0,80,0,0,0,65,65,0,0,0,0,0,85,0,65,90,240,5,5,55,65,0,0,0,0,0,0,0,0,0,0,0,0,0,0,0,10,55,60,70,20
55,65,0,5,80,100,80,70,80,70,80,85,75,85,80,80,70,80,80,75,75,85,90,100,0,50,0,65,15,140,0,5,0,0,100,0,240,0,0,0,0,40,5,0,0,0,0,0,0,0,0,0,0,0,0,0,0,0,0,0,5,55,30,25
50,65,5,15,70,80,80,70,125,80,95,80,80,80,70,75,85,80,85,80,80,70,70,85,0,0,0,70,0,0,0,0,5,0,75,0,0,40,105,25,5,240,10,10,0,0,0,0,0,0,0,0,0,0,0,0,0,0,0,0,15,10,70,60
