45,90,45,99,99,126,135,117,90,54,72,255,81,90,81,9,0,0,0,0,0,0,0,0,0,0,117,0,36,0,234,0,0,0,45,0,0,126,54,9,255,9,27,0,0,0,0,0,0,0,0,0,0,0,0,0,0,0,0,0,45,63,54,54
45,36,63,99,117,99,126,117,81,45,63,72,54,45,0,0,0,0,0,0,0,0,0,0,0,0,0,144,0,36,153,0,0,18,0,0,99,18,0,0,63,255,9,0,0,0,0,0,0,0,0,0,0,0,0,0,0,0,0,0,0,36,45,72
72,54,45,255,81,126,126,117,108,99,108,255,90,72,0,0,0,0,0,0,0,0,0,0,0,0,99,0,0,135,252,0,0,0,0,207,255,9,0,255,18,0,0,0,0,0,0,0,0,0,0,0,0,0,0,0,0,0,0,0,0,54,45,63
54,27,90,108,72,90,108,135,255,72,63,45,63,90,0,0,0,0,0,0,0,0,0,0,0,0,0,99,0,27,198,9,0,0,0,0,0,171,9,0,0,0,0,0,18,0,0,0,0,0,0,0,0,0,0,0,0,0,0,27,0,27,63,45
72,108,90,108,0,117,126,117,81,90,255,72,27,54,0,108,0,0,0,0,0,0,0,0,0,0,0,126,0,54,0,255,0,0,0,0,18,63,0,255,180,0,0,0,0,9,0,0,0,0,0,0,0,0,0,0,0,0,0,0,18,27,54,63
18,54,27,0,45,99,108,135,108,90,117,45,63,36,27,0,0,0,0,0,0,0,0,0,0,0,0,153,9,0,0,0,0,180,0,0,99,144,0,36,255,36,81,0,63,0,0,0,0,0,0,0,0,0,0,0,0,0,0,0,45,72,18,45
0,108,255,90,135,27,126,90,54,144,108,108,108,99,0,36,0,0,0,0,0,0,0,0,0,0,108,0,0,9,153,0,0,0,0,0,9,0,81,0,45,0,0,81,9,18,0,0,0,0,0,0,0,0,0,0,0,0,0,0,18,108,72,54
27,63,63,99,72,255,108,108,81,90,90,108,99,90,255,27,0,0,0,0,0,0,0,0,0,0,0,117,9,9,234,0,0,0,0,0,135,255,9,18,0,0,0,45,0,0,54,0,0,0,0,0,0,0,0,0,0,0,0,0,9,18,45,72
36,45,45,99,108,144,108,81,63,117,126,99,90,108,99,0,0,0,0,0,0,0,0,0,0,0,0,99,0,108,0,0,0,0,117,162,27,0,0,0,63,9,255,0,0,0,0,0,0,0,0,0,0,0,0,0,0,0,0,0,0,54,72,72
45,45,45,81,81,99,126,117,81,126,54,63,45,36,27,0,255,0,0,0,0,0,0,0,0,0,0,144,0,255,18,9,0,90,0,0,0,255,81,18,18,27,0,0,63,0,0,0,0,0,0,0,0,0,0,0,0,0,0,0,0,45,63,27
27,45,45,90,90,117,90,108,255,99,99,99,108,108,90,0,117,0,0,0,0,0,0,0,0,0,0,135,0,108,9,0,108,0,0,0,126,0,18,0,0,255,18,45,0,63,0,0,0,0,0,0,0,0,0,0,0,0,0,0,63,63,63,135
45,90,90,0,99,126,255,117,81,63,90,126,99,108,0,90,0,0,255,9,0,0,0,0,0,0,0,117,0,18,255,0,0,255,0,0,0,135,0,0,255,45,18,63,63,0,0,0,0,0,0,0,0,0,0,0,0,0,0,0,36,45,45,126
45,99,45,135,108,99,126,108,255,90,72,90,117,126,90,0,0,0,0,0,0,0,0,0,0,0,0,144,255,0,0,9,252,0,0,90,171,0,18,0,0,27,0,0,0,0,243,0,0,0,0,0,0,0,0,0,0,0,0,0,27,45,72,72
90,27,108,90,255,0,108,117,255,144,108,108,117,108,27,0,0,0,0,0,0,0,0,0,0,0,108,0,9,90,36,0,255,126,0,0,0,0,18,81,18,63,255,72,0,63,0,0,0,0,0,0,0,0,0,0,0,0,0,0,72,54,63,54
72,108,99,81,90,72,126,108,144,126,126,255,63,72,9,0,0,0,0,0,0,0,0,0,0,0,0,126,9,0,153,0,0,0,0,0,0,117,144,255,18,18,9,0,72,0,18,0,0,0,0,0,0,0,0,0,0,0,0,0,27,27,162,27
27,45,90,126,72,108,108,126,255,72,144,90,72,90,63,72,0,0,0,0,0,0,0,0,0,0,0,144,0,36,216,0,0,0,0,207,0,0,18,0,255,27,36,0,90,0,0,0,0,0,0,0,0,0,0,0,0,0,0,9,0,27,18,90
126,72,27,90,108,117,171,135,126,126,99,255,90,90,0,108,0,0,0,0,0,0,0,0,0,0,117,0,0,0,216,0,0,0,198,0,0,9,0,18,255,0,9,36,0,0,0,0,0,0,0,0,0,0,0,0,0,0,0,0,0,54,81,72
27,72,72,117,117,108,72,108,90,108,255,126,27,144,126,90,90,63,63,0,0,0,0,0,0,0,0,90,9,18,255,234,0,0,0,108,0,9,0,255,0,36,54,0,0,126,0,0,0,0,0,0,0,0,0,0,0,0,0,0,45,36,72,54
144,54,81,81,117,108,117,90,117,255,81,63,45,45,108,0,0,0,0,0,0,0,0,0,0,0,0,126,0,255,0,9,0,0,0,0,0,171,171,255,18,27,18,0,0,0,0,0,0,0,0,0,0,0,0,0,0,0,0,27,0,72,144,36
54,90,90,108,90,108,108,255,72,63,108,99,81,0,153,90,0,0,0,0,0,0,0,0,0,0,0,0,126,0,0,180,0,0,0,0,153,0,18,153,27,0,255,72,0,0,0,0,0,0,0,0,0,0,0,0,0,0,0,0,9,72,72,54
90,9,90,90,45,99,117,99,108,216,255,225,225,216,225,198,207,189,198,207,153,216,180,198,171,0,0,126,0,117,0,0,0,0,81,0,0,255,144,0,63,0,0,0,255,0,9,0,0,0,0,0,0,0,9,0,0,0,0,0,54,36,36,135
63,9,99,126,117,117,108,99,198,216,207,234,234,216,198,216,189,189,198,171,171,198,255,153,0,0,0,0,135,189,255,0,0,9,0,162,9,0,0,9,54,0,255,0,9,27,0,0,9,0,0,0,0,0,0,0,0,0,0,0,54,27,36,72
72,72,108,99,99,117,255,153,135,198,171,162,255,180,153,0,162,99,0,0,108,0,189,225,108,153,0,0,0,0,0,72,0,0,207,0,0,63,0,0,255,0,126,9,0,18,0,0,0,0,0,0,0,0,0,0,0,0,0,0,45,45,45,36
72,117,81,108,126,90,180,108,198,255,117,189,225,189,171,162,162,162,180,162,189,144,189,189,144,0,0,108,0,0,54,0,0,0,0,0,36,0,135,255,0,0,36,0,0,9,0,0,0,0,0,0,0,0,0,0,0,0,0,0,0,54,36,72
63,45,54,108,108,126,117,252,207,216,180,216,126,108,108,81,0,0,255,0,0,0,0,0,0,0,0,126,0,18,180,243,0,0,0,207,255,0,9,45,72,9,0,18,0,72,0,0,0,0,0,0,0,0,0,0,0,0,0,0,0,36,27,63
135,72,27,45,126,126,117,99,126,255,117,99,81,108,0,0,99,0,0,0,0,0,0,0,0,0,135,0,0,255,0,252,0,0,0,0,243,9,117,27,18,18,0,9,0,0,255,0,0,0,0,0,0,0,0,0,0,0,0,0,27,54,54,144
36,63,36,108,126,135,99,117,108,255,126,90,126,117,117,99,0,0,0,0,0,0,0,0,0,0,0,0,108,0,0,180,0,0,9,0,255,0,144,63,36,27,0,0,108,0,0,0,0,0,0,0,0,0,0,0,0,0,0,36,0,36,27,153
72,36,45,117,108,126,171,126,126,117,255,108,108,126,117,0,126,0,0,0,0,0,0,0,0,0,0,162,0,0,0,99,18,135,0,243,0,0,255,0,18,0,63,0,27,72,0,0,0,0,9,0,0,0,0,0,0,0,0,0,45,27,63,63
54,54,117,99,117,144,108,108,99,255,90,99,108,126,9,81,0,0,0,0,0,0,0,0,0,0,0,117,0,0,27,225,0,0,0,0,0,126,81,9,99,255,9,0,0,0,0,0,0,0,0,0,0,0,0,0,0,0,0,0,9,45,45,36
63,90,90,99,126,255,108,126,171,144,108,90,108,108,63,0,0,0,0,0,0,0,0,0,0,0,0,144,0,0,9,255,0,0,0,63,162,0,9,81,255,9,0,0,0,0,63,0,0,0,0,0,0,0,18,0,0,0,0,0,18,81,27,63
72,54,72,72,90,162,255,153,126,126,63,108,117,99,0,72,0,255,0,0,0,0,0,0,0,0,0,126,9,255,0,0,0,0,171,0,117,18,0,255,0,0,0,0,0,99,0,0,0,0,0,0,0,0,0,0,0,0,0,0,54,45,63,54
72,90,81,54,135,144,255,117,126,144,126,108,99,90,108,90,0,0,0,0,255,0,0,0,0,0,0,0,144,117,0,0,9,0,0,81,207,72,0,0,255,0,0,0,0,0,9,0,0,0,0,0,0,0,0,0,0,27,0,0,0,27,72,72
72,54,99,90,108,144,90,126,135,117,117,144,207,255,117,0,198,0,0,0,108,171,162,144,0,126,144,0,0,255,162,0,0,0,0,207,255,0,81,18,0,0,90,9,0,0,0,0,0,0,0,0,0,0,0,0,0,0,18,0,0,36,63,45
45,81,54,54,99,90,45,108,135,126,255,108,108,72,0,45,0,0,0,0,0,0,0,0,0,0,0,108,0,255,0,207,0,0,0,207,0,0,153,255,18,9,0,9,0,0,0,36,0,0,0,0,0,0,0,0,0,0,0,0,0,36,63,81
27,54,72,99,144,90,144,90,144,135,108,99,126,117,72,0,0,0,0,0,0,0,0,0,0,0,0,0,99,0,0,225,162,0,0,0,18,171,255,81,0,63,0,9,0,0,54,0,0,0,0,0,0,0,0,0,0,0,0,0,0,27,63,153
63,81,99,90,81,126,108,90,126,117,126,126,117,126,90,108,0,0,0,0,0,0,0,0,0,0,0,0,90,108,0,0,0,9,126,189,0,9,0,9,27,72,0,255,0,0,0,0,0,0,0,0,0,0,0,0,0,0,0,0,27,36,63,54
36,27,117,255,90,135,117,135,117,135,255,99,108,117,90,0,0,0,0,0,0,0,0,0,0,153,0,0,0,255,189,0,0,0,0,189,0,18,255,0,0,27,0,90,0,255,0,0,0,0,0,0,0,0,0,0,0,0,0,0,36,54,45,72
45,45,108,27,126,255,153,126,117,117,117,255,108,117,81,108,0,0,0,0,0,0,0,0,0,0,255,0,9,108,0,153,180,0,0,0,0,63,135,255,27,27,0,0,0,117,0,9,0,0,0,0,0,0,0,0,0,0,0,0,9,36,63,63
54,54,99,45,108,153,108,117,108,108,126,72,99,90,255,72,0,0,0,0,0,0,0,0,0,0,0,126,0,0,0,9,0,0,0,171,135,0,0,255,0,18,0,45,0,0,0,0,0,0,0,0,0,0,0,0,0,0,27,0,0,63,54,63
63,63,90,99,99,108,117,255,144,255,45,72,180,90,72,0,72,0,0,0,0,0,0,0,0,0,0,0,162,0,207,9,0,0,0,234,0,153,45,0,255,0,18,18,0,0,0,0,0,0,0,0,0,0,0,0,0,0,0,0,9,27,45,63
54,72,45,90,81,81,144,108,255,108,99,117,108,0,81,255,108,0,0,0,0,0,0,0,0,0,72,0,0,54,0,255,255,0,0,0,171,0,126,255,18,45,0,0,0,0,0,0,0,0,0,0,0,0,0,0,0,0,0,0,36,0,54,36
45,27,72,90,126,225,144,126,117,135,99,108,108,108,90,81,0,0,0,0,0,0,0,0,0,0,126,0,0,225,0,0,0,0,0,171,0,0,9,117,9,27,45,255,0,0,0,0,0,0,0,0,0,0,0,0,0,0,0,18,0,72,36,45
54,255,90,9,108,90,99,99,108,255,117,90,81,81,27,90,153,126,0,0,0,0,0,0,0,0,0,108,0,45,0,0,198,255,0,9,0,0,117,0,162,9,0,0,27,0,0,0,0,0,0,0,0,0,0,0,0,0,0,0,18,45,135,162
54,90,135,81,108,108,135,225,153,162,171,171,90,99,135,0,81,0,0,63,126,108,108,126,162,0,0,126,0,0,234,0,0,0,0,0,189,27,0,27,162,255,0,9,0,0,0,0,0,0,0,0,0,0,0,0,0,0,0,0,0,27,63,54
54,54,81,108,108,135,126,108,135,153,189,255,108,108,126,81,0,0,0,0,0,0,0,0,0,0,0,144,0,45,0,135,0,234,0,255,90,0,162,36,72,0,18,0,72,0,0,0,0,0,0,0,0,0,0,0,0,0,0,0,0,45,54,99
54,27,45,63,135,90,117,108,255,99,99,126,255,99,72,99,108,0,0,0,0,0,0,0,0,0,0,135,255,0,0,255,9,0,0,0,0,126,27,0,27,255,0,153,255,0,0,0,0,0,0,0,0,0,0,0,0,0,0,0,27,45,81,63
72,18,108,54,255,126,117,108,126,99,90,108,99,255,99,99,0,0,0,0,0,0,0,0,0,0,0,108,18,54,9,0,0,0,0,0,108,255,0,0,0,27,0,0,0,0,27,0,0,0,0,0,0,0,0,0,0,0,0,0,45,27,63,45
63,18,90,90,90,81,108,108,108,99,99,99,108,99,90,99,0,0,0,0,0,0,0,0,0,0,0,135,0,255,0,0,0,180,0,0,0,99,108,27,27,255,0,0,18,0,0,0,0,255,0,0,0,0,0,0,0,0,0,0,0,27,45,81
207,45,63,81,108,162,90,126,108,108,108,108,90,90,117,99,0,0,0,0,0,0,0,0,0,0,0,117,45,0,0,9,0,0,0,0,9,63,63,255,0,27,0,0,0,0,0,0,0,0,0,0,0,0,0,0,0,0,0,0,54,0,54,27
45,72,36,54,99,108,153,108,108,99,99,108,108,108,255,90,0,0,0,0,0,0,0,0,0,0,0,126,255,0,0,0,81,0,0,180,0,9,108,255,0,0,0,0,81,0,0,0,0,0,0,0,0,0,0,0,0,0,0,0,36,18,45,54
