12,40,48,28,24,40,56,48,40,100,96,192,112,88,92,96,104,104,92,92,92,92,96,96,0,0,0,56,4,32,0,32,0,0,0,0,0,112,0,44,0,192,40,32,4,0,0,4,0,0,0,0,0,0,0,0,0,0,0,4,16,0,20,24
12,12,36,32,0,56,92,68,64,104,92,100,100,96,104,92,192,84,96,84,88,92,88,64,0,0,0,64,4,96,0,0,0,0,0,0,112,0,32,192,12,8,56,28,0,0,0,0,0,0,0,0,0,0,0,0,0,0,0,12,0,24,16,28
52,32,20,24,52,60,52,60,188,84,88,88,88,96,100,96,92,88,100,88,108,104,100,76,0,0,0,48,0,0,0,4,0,0,0,64,0,0,0,0,20,192,0,28,0,0,12,0,0,0,0,0,0,0,0,0,0,0,0,0,12,12,16,28
20,12,16,48,164,64,52,68,96,100,100,192,92,100,104,100,104,92,84,96,112,96,84,76,0,0,0,48,16,0,84,8,76,0,0,80,0,192,0,36,4,28,28,24,0,0,4,0,0,0,0,0,0,0,0,0,0,0,0,0,8,16,16,24
20,24,12,20,28,48,52,92,60,100,44,192,100,100,100,112,100,92,104,92,92,108,104,76,0,0,0,56,0,0,0,12,0,0,0,92,0,84,12,84,192,56,0,0,28,0,0,0,0,0,0,0,0,0,0,0,0,0,0,0,20,12,24,20
40,12,20,40,44,28,48,60,192,104,72,120,116,104,96,112,100,76,84,104,84,96,104,96,0,0,0,36,0,0,0,0,4,0,0,0,92,32,20,4,12,192,0,28,48,0,0,0,0,0,0,0,0,0,0,0,0,0,0,28,4,24,16,32
68,12,24,40,40,52,48,56,100,100,192,100,112,100,100,96,100,92,104,96,76,104,88,104,60,0,64,0,0,8,0,116,92,0,76,0,0,0,0,192,32,44,0,0,4,24,0,20,0,0,0,0,0,0,0,0,0,0,0,4,0,16,28,20
20,16,20,20,48,56,52,56,60,96,100,112,108,116,108,116,108,116,104,104,92,100,100,84,0,0,0,56,0,4,4,0,0,64,0,100,0,0,4,0,192,28,28,24,20,0,0,0,0,12,0,0,0,0,0,0,20,0,0,0,0,20,12,48
4,28,28,36,52,40,52,60,108,108,104,104,108,192,112,112,108,108,112,104,88,104,92,100,88,0,0,52,0,0,4,56,0,0,0,0,64,0,40,192,40,8,4,24,48,4,0,0,0,0,0,0,0,0,0,0,0,0,0,0,16,20,20,20
40,28,12,20,24,56,52,68,60,104,104,192,116,104,108,100,104,100,108,100,104,88,100,84,0,0,0,48,4,128,4,12,0,0,76,0,0,188,40,8,0,28,0,0,0,24,0,0,0,0,0,0,0,0,0,0,0,0,0,0,12,24,24,8
20,20,16,12,40,56,48,48,48,100,96,100,92,100,92,96,92,104,76,84,88,96,84,76,0,0,0,0,92,56,0,104,0,0,0,0,0,0,32,4,56,0,192,4,0,12,0,0,0,0,0,0,0,0,0,0,0,0,8,0,0,20,40,60
32,4,132,24,40,40,52,84,48,192,100,104,108,100,92,88,96,88,80,88,104,88,40,88,0,0,0,56,16,0,0,132,0,0,0,0,0,0,28,56,0,40,0,32,0,28,0,0,0,0,0,0,0,0,0,0,0,0,0,0,16,32,20,20
28,20,12,20,32,40,60,184,88,52,112,88,96,92,96,96,100,84,88,84,84,92,84,84,0,0,0,52,0,32,0,76,0,80,0,0,0,4,0,52,0,192,40,0,20,0,24,0,0,0,0,12,0,0,0,0,0,0,0,0,16,8,64,28
16,16,24,16,84,48,48,60,92,104,192,92,92,100,88,100,104,100,80,96,96,76,80,84,0,0,0,4,48,116,52,0,0,4,0,0,92,4,192,32,48,24,4,16,0,0,4,16,0,0,0,0,0,0,0,0,0,0,0,0,12,24,36,16
24,24,16,40,16,40,52,92,192,96,84,100,96,100,108,96,100,100,80,84,84,88,84,84,68,0,0,0,40,4,148,0,0,0,0,0,76,0,76,0,64,60,0,192,0,0,24,0,0,0,0,0,0,0,0,0,0,0,0,0,12,20,12,28
16,112,16,8,36,40,52,56,184,100,100,100,108,92,92,88,96,92,92,84,84,92,100,0,80,0,0,56,28,0,0,0,0,132,0,0,32,20,0,28,44,20,0,28,192,0,0,20,0,0,0,0,0,0,0,0,0,0,0,0,12,4,28,32
60,60,76,40,156,40,48,48,84,92,192,92,100,100,104,96,92,96,100,104,84,92,92,92,0,0,0,56,0,0,0,100,0,0,4,0,64,32,20,4,8,192,28,24,4,0,0,0,0,0,0,0,0,0,16,0,8,0,0,0,16,28,12,20
20,20,40,56,152,48,64,100,64,96,192,92,92,88,96,96,100,88,92,92,84,96,96,84,0,0,0,64,0,0,100,0,0,0,0,0,108,48,0,192,32,0,0,24,0,4,0,0,0,0,0,0,0,0,0,0,0,0,0,16,0,20,32,20
12,8,12,20,40,48,44,104,60,104,92,100,104,84,100,92,104,96,88,96,84,92,92,100,0,0,56,0,0,56,0,0,0,132,0,0,68,8,0,24,12,32,0,20,192,0,20,0,0,0,0,0,0,0,0,0,8,0,0,0,12,32,12,20
32,176,28,28,40,44,44,88,48,192,96,100,112,96,104,104,104,104,96,100,96,92,92,96,0,0,0,0,60,0,0,108,0,4,0,0,92,0,64,8,192,44,0,28,0,0,20,0,0,0,0,0,0,0,0,0,0,0,0,12,0,8,24,24
24,4,24,24,40,188,52,48,60,92,92,100,96,108,104,100,80,104,100,92,92,192,92,92,72,0,0,60,0,0,84,0,0,0,4,88,36,0,56,192,0,16,8,0,0,28,0,0,12,0,0,0,0,0,0,0,0,0,0,0,16,16,16,12
56,12,12,36,44,140,48,52,80,104,92,192,96,108,100,100,96,88,104,96,100,92,76,84,64,0,64,0,20,0,0,92,0,128,0,156,0,48,0,84,24,0,32,0,20,20,192,0,0,0,0,0,0,0,0,0,0,0,0,8,0,20,184,12
16,52,28,40,32,44,192,60,72,92,104,100,108,96,100,100,92,96,192,84,88,84,96,92,0,0,0,64,0,0,8,56,0,4,0,0,84,32,0,8,44,28,0,8,0,0,0,20,0,0,0,0,0,0,0,0,0,0,0,0,16,28,16,48
24,20,20,12,40,48,40,100,60,92,100,96,104,108,96,104,100,96,96,92,92,96,88,96,76,0,0,8,48,132,0,0,0,72,0,0,4,60,4,0,8,32,192,4,20,0,20,0,0,0,16,0,0,0,0,0,0,0,0,0,12,36,28,28
12,172,8,16,40,44,52,48,64,92,192,104,108,100,100,100,96,92,92,88,100,92,92,92,0,0,0,56,0,0,0,104,0,0,0,0,88,48,192,0,20,24,0,36,0,0,0,0,20,0,0,0,0,0,0,0,0,0,0,24,0,16,28,24
28,28,44,8,32,40,52,40,172,96,104,96,108,96,104,92,100,76,104,96,92,88,88,84,0,0,0,64,0,0,140,0,0,0,0,0,0,4,84,0,0,20,0,0,32,0,0,20,0,0,0,0,0,0,0,0,0,0,0,16,16,0,32,16
32,60,20,40,44,48,48,84,44,192,92,112,100,100,108,100,112,100,104,84,108,92,8,8,8,0,0,44,152,4,12,12,0,0,0,0,88,0,0,192,32,24,52,0,8,0,0,0,0,0,0,0,0,0,0,0,0,0,0,0,8,12,28,52
20,20,28,32,32,44,64,44,100,192,108,104,92,108,100,104,100,104,88,52,80,104,84,68,60,0,0,0,52,28,0,24,12,0,0,52,4,0,84,0,24,28,0,12,0,24,0,0,0,0,0,0,0,0,0,0,0,0,0,0,12,12,20,4
28,8,48,52,32,40,72,188,100,40,100,100,112,100,104,112,104,188,96,100,112,92,100,80,0,0,0,48,0,0,0,0,4,0,0,0,72,0,60,192,28,28,0,48,0,0,0,20,0,0,0,0,0,0,0,0,0,0,0,0,12,12,28,36
20,24,24,32,40,56,44,96,188,44,100,96,100,104,100,112,108,108,96,88,100,92,88,96,0,0,0,64,20,0,0,0,0,0,0,0,0,24,92,0,0,64,192,0,20,0,0,0,0,0,0,0,0,0,0,0,0,0,4,8,0,24,12,40
52,32,20,12,40,40,40,44,192,92,104,100,112,108,104,120,92,104,104,104,104,104,68,96,96,0,60,0,0,108,0,0,0,0,0,0,92,104,0,68,0,12,0,20,0,12,20,0,0,0,0,0,0,0,0,0,0,0,0,0,12,12,32,8
12,16,24,52,20,48,44,44,52,104,96,100,100,96,112,108,88,108,92,84,104,84,112,80,116,0,0,48,0,96,0,0,0,0,0,104,0,128,0,0,24,48,0,0,0,192,40,0,0,0,0,0,0,12,0,0,0,0,0,0,16,32,12,40
180,8,32,20,56,48,48,48,56,192,100,112,104,116,108,104,112,100,116,80,112,104,96,0,104,0,0,0,56,0,0,104,0,0,0,76,0,68,0,0,4,192,0,28,0,28,4,0,0,0,0,0,0,0,0,0,0,0,0,0,28,40,24,20
40,12,20,16,40,48,188,44,48,104,188,92,104,104,112,104,108,84,96,96,100,112,96,92,0,0,0,48,120,8,0,4,0,0,72,0,0,0,76,192,20,48,4,24,0,0,20,0,0,0,0,0,16,0,0,0,0,0,0,0,12,16,16,36
20,32,16,28,40,40,52,188,56,108,116,104,96,104,104,116,104,104,88,104,100,112,108,92,0,0,0,56,0,4,0,120,0,0,64,0,0,0,0,16,4,192,0,20,8,0,0,20,0,0,0,0,0,0,0,0,0,0,0,0,12,24,40,32
12,12,28,36,156,48,52,52,60,192,112,100,112,100,104,112,108,104,92,88,104,88,104,100,0,0,0,52,0,0,0,96,0,0,4,0,0,0,192,0,48,24,28,0,0,32,0,20,0,0,0,0,0,0,0,0,0,0,0,4,8,20,40,32
12,32,40,44,48,40,44,48,112,44,104,104,112,104,100,116,104,96,92,104,92,100,100,88,60,0,0,60,0,0,132,0,0,68,0,0,0,0,56,0,8,44,180,0,4,0,0,0,0,24,0,0,0,0,0,0,0,0,0,0,20,28,20,36
12,12,40,8,40,44,52,92,56,108,192,116,116,104,104,100,92,100,88,100,96,100,0,88,92,0,0,68,4,20,4,0,0,48,0,0,8,0,108,24,8,28,0,0,16,20,0,20,0,0,0,0,0,0,0,0,0,0,0,0,20,12,28,20
24,20,20,40,40,44,44,48,104,112,184,104,100,112,100,100,100,108,92,92,88,100,100,72,0,0,0,8,68,100,0,4,0,0,0,100,0,68,0,0,0,192,0,0,0,28,0,0,0,0,0,0,0,0,0,0,0,0,0,0,28,8,32,20
24,20,56,20,44,64,44,52,60,192,100,100,112,108,100,104,104,104,100,100,108,108,100,92,0,0,0,40,4,80,4,0,0,8,108,0,0,0,8,40,8,44,4,0,12,0,24,0,0,0,0,0,0,0,0,0,0,0,0,0,16,8,40,12
24,36,12,48,40,56,52,48,44,112,192,104,104,108,108,116,108,104,104,108,96,100,92,0,64,0,0,60,0,0,4,136,0,0,0,0,156,12,0,192,0,0,12,0,0,0,28,0,20,0,0,0,0,0,0,0,0,0,0,0,12,24,16,20
8,4,32,24,172,48,52,48,52,112,96,104,104,108,108,108,104,108,104,112,84,116,128,0,104,0,0,8,44,100,0,4,0,0,0,0,0,192,48,4,56,20,20,0,28,0,20,0,0,0,0,0,0,0,0,0,0,0,0,0,32,4,16,36
12,24,12,20,40,52,52,188,44,104,116,124,112,100,112,100,92,96,84,108,104,108,84,112,0,0,0,4,12,0,60,0,0,0,0,88,100,4,0,8,20,192,0,28,0,0,0,16,0,0,0,0,0,0,0,0,0,0,0,0,8,8,36,32
24,24,20,12,32,172,56,64,48,104,88,192,96,112,104,104,112,108,104,104,104,100,108,112,0,0,0,68,4,92,0,0,4,0,0,88,0,0,12,12,192,4,48,28,0,0,0,0,0,0,0,0,0,0,0,0,0,0,0,0,16,20,12,40
28,20,28,48,32,192,48,60,104,68,104,112,96,108,192,104,104,100,0,112,104,100,100,108,76,0,0,56,0,0,92,0,0,0,4,0,0,96,0,192,12,32,0,0,64,28,0,0,0,0,0,0,0,0,0,0,0,0,0,4,12,28,8,32
20,32,44,48,32,56,48,44,52,192,96,112,100,120,100,104,104,92,88,92,100,92,80,0,0,0,0,56,0,0,16,0,76,0,0,0,40,188,40,4,8,24,0,32,0,0,0,0,0,0,0,0,0,0,0,8,0,0,0,0,28,52,12,40
16,12,20,20,56,56,44,40,100,92,104,96,100,100,100,108,96,104,104,100,104,92,112,0,104,72,0,56,0,0,0,104,0,4,0,0,56,52,28,0,0,40,0,192,28,0,0,0,0,0,4,0,0,0,0,0,0,0,0,0,12,12,28,28
20,20,152,48,16,48,56,56,52,192,104,112,100,104,112,112,100,76,100,100,104,92,104,108,0,0,0,56,0,0,0,76,0,0,0,76,0,0,64,192,20,60,4,0,28,0,0,0,0,0,0,0,0,0,0,0,0,0,0,4,0,16,44,24
20,16,32,64,28,48,40,44,108,104,84,108,104,108,192,120,116,96,100,92,92,104,88,92,0,0,0,44,12,4,56,12,0,0,0,0,48,76,4,192,0,28,32,4,0,0,0,0,0,0,0,0,0,0,0,0,0,0,0,0,8,16,8,28
20,60,0,48,40,60,56,192,48,104,40,104,120,112,116,112,100,104,112,112,100,104,108,92,0,0,0,0,68,8,124,0,0,0,0,0,100,0,40,192,60,48,0,0,4,12,0,0,0,0,0,0,0,0,0,0,0,0,0,0,16,12,40,44
