45,99,45,90,135,99,126,54,90,117,72,81,255,81,90,9,0,0,0,0,0,0,0,0,0,0,0,117,0,234,36,0,0,45,0,0,0,126,9,54,9,255,0,27,0,0,0,0,0,0,0,0,0,0,0,0,0,0,0,0,63,45,54,54
45,63,99,36,117,117,126,99,81,45,45,54,63,72,0,0,0,0,0,0,0,0,0,0,0,0,0,36,0,144,153,0,18,0,0,99,0,18,0,255,0,63,0,9,0,0,0,0,0,0,0,0,0,0,0,0,0,0,0,0,0,36,45,72
72,54,45,81,255,126,126,108,117,99,108,72,90,0,0,255,0,0,0,0,0,0,0,0,0,0,99,0,0,252,0,0,0,135,0,207,0,255,255,9,0,18,0,0,0,0,0,0,0,0,0,0,0,0,0,0,0,0,0,0,54,0,45,63
54,27,90,90,72,108,108,135,72,255,63,63,45,90,0,0,0,0,0,0,0,0,0,0,0,0,99,0,0,27,198,0,9,0,0,0,0,171,9,0,0,0,0,0,18,0,0,0,0,0,0,0,0,0,0,0,0,0,0,0,63,27,27,45
108,72,0,90,108,117,117,126,81,90,255,72,27,54,0,108,0,0,0,0,0,0,0,0,0,0,0,126,0,54,0,255,0,0,0,0,63,18,0,255,180,0,9,0,0,0,0,0,0,0,0,0,0,0,0,0,0,0,0,0,18,27,63,54
18,27,54,0,108,45,135,99,90,108,117,45,36,63,0,27,0,0,0,0,0,0,0,0,0,0,153,0,9,0,0,0,0,0,180,0,99,144,36,0,255,36,0,81,63,0,0,0,0,0,0,0,0,0,0,0,0,0,0,0,45,18,72,45
0,255,108,27,135,90,126,54,144,90,108,108,108,99,0,36,0,0,0,0,0,0,0,0,0,108,0,0,9,0,0,153,0,0,0,0,0,81,0,9,45,0,0,81,9,18,0,0,0,0,0,0,0,0,0,0,0,0,0,18,0,108,54,72
27,63,99,63,255,72,108,108,81,99,90,108,90,27,90,255,0,0,0,0,0,0,0,0,0,0,0,117,0,9,9,234,0,0,0,135,0,255,9,18,0,0,45,0,0,0,54,0,0,0,0,0,0,0,0,0,0,0,0,9,45,0,18,72
36,45,45,144,99,108,81,108,63,117,126,90,99,108,99,0,0,0,0,0,0,0,0,0,0,0,0,99,0,0,108,0,0,0,0,162,117,0,27,0,63,9,255,0,0,0,0,0,0,0,0,0,0,0,0,0,0,0,0,0,54,0,72,72
45,45,45,81,81,99,126,81,63,117,126,54,45,36,255,27,0,0,0,0,0,0,0,0,0,0,0,144,0,255,18,9,90,0,0,81,0,0,255,18,27,0,18,0,63,0,0,0,0,0,0,0,0,0,0,0,0,0,0,0,0,45,63,27
27,90,45,45,90,90,108,117,99,99,255,99,108,108,90,117,0,0,0,0,0,0,0,0,0,0,0,0,135,108,9,0,0,108,0,0,126,0,18,0,255,0,0,18,45,63,0,0,0,0,0,0,0,0,0,0,0,0,0,0,63,63,63,135
45,90,0,99,90,126,117,255,63,90,81,126,108,99,90,0,0,9,255,0,0,0,0,0,0,0,0,0,117,18,255,255,0,0,0,0,0,0,135,0,255,45,18,63,63,0,0,0,0,0,0,0,0,0,0,0,0,0,0,0,36,45,45,126
99,45,45,135,99,126,108,108,90,255,90,72,90,117,126,0,0,0,0,0,0,0,0,0,0,0,0,144,0,0,255,9,0,171,252,0,90,0,0,18,0,27,0,0,0,0,243,0,0,0,0,0,0,0,0,0,0,0,0,0,27,72,72,45
27,90,90,0,108,117,255,108,255,144,108,108,117,27,0,108,0,0,0,0,0,0,0,0,0,0,0,108,9,36,90,0,255,0,0,126,0,81,0,18,63,18,72,255,0,63,0,0,0,0,0,0,0,0,0,0,0,0,0,0,63,54,54,72
99,72,108,81,90,126,108,72,126,126,255,144,63,72,9,0,0,0,0,0,0,0,0,0,0,0,126,0,0,9,153,0,0,0,117,0,144,0,0,18,255,9,0,18,0,72,0,0,18,0,0,0,0,0,0,0,0,0,0,0,27,27,162,27
45,27,126,90,72,108,126,108,255,144,72,90,90,72,63,72,0,0,0,0,0,0,0,0,0,0,0,144,0,36,216,0,0,0,0,207,0,0,18,255,0,36,0,27,90,0,0,0,0,0,0,0,0,0,0,0,0,0,0,0,27,9,18,90
126,27,72,90,108,135,117,171,126,126,255,99,90,90,108,0,0,0,0,0,0,0,0,0,0,0,0,117,0,216,0,0,0,0,0,198,0,0,9,255,9,18,0,36,0,0,0,0,0,0,0,0,0,0,0,0,0,0,0,0,54,0,81,72
72,72,27,117,72,117,108,90,108,108,255,126,144,27,126,90,90,63,63,0,0,0,0,0,0,0,0,90,18,9,234,0,255,0,0,108,0,0,9,0,255,36,54,0,0,0,0,126,0,0,0,0,0,0,0,0,0,0,0,0,36,72,45,54
144,54,81,81,108,117,90,117,255,117,81,63,45,108,45,0,0,0,0,0,0,0,0,0,0,0,0,0,126,9,255,0,0,0,0,0,0,171,171,27,18,255,18,0,0,0,0,0,0,0,0,0,0,0,0,0,0,0,0,0,36,72,27,144
54,90,90,108,90,108,108,255,108,63,153,72,81,99,90,0,0,0,0,0,0,0,0,0,0,0,0,0,0,126,0,180,0,0,0,153,0,0,18,153,27,0,255,0,0,72,0,0,0,0,0,0,0,0,0,0,0,0,0,9,0,72,54,72
9,90,90,117,90,45,99,108,99,216,225,255,216,225,225,207,198,189,198,207,180,153,216,198,171,0,0,0,126,0,117,0,0,0,81,0,0,144,0,255,0,63,255,0,0,0,9,0,0,0,0,0,0,9,0,0,0,0,0,0,54,36,135,36
63,99,9,126,117,117,108,198,99,216,234,234,207,198,189,216,216,189,198,171,198,171,255,153,0,0,0,135,0,255,189,0,0,9,0,162,0,9,9,0,255,54,0,0,27,0,9,9,0,0,0,0,0,0,0,0,0,0,0,0,54,72,27,36
72,72,108,99,117,99,153,255,135,171,198,162,255,153,162,99,0,180,0,0,0,189,108,225,108,0,0,153,0,0,0,0,72,0,207,0,0,0,0,255,63,126,9,0,18,0,0,0,0,0,0,0,0,0,0,0,0,0,0,45,45,0,45,36
72,117,90,81,108,126,117,108,180,255,198,189,225,171,189,162,162,162,162,180,144,189,189,144,189,0,0,0,108,0,0,54,0,0,0,0,36,0,135,0,255,0,36,0,0,9,0,0,0,0,0,0,0,0,0,0,0,0,0,0,54,0,72,36
63,45,108,54,126,108,252,117,207,216,216,108,180,126,108,81,0,0,0,255,0,0,0,0,0,0,126,0,0,243,18,0,180,207,0,0,0,255,9,9,45,72,18,72,0,0,0,0,0,0,0,0,0,0,0,0,0,0,0,0,36,0,63,27
135,72,27,45,126,126,99,117,255,126,117,99,81,108,99,0,0,0,0,0,0,0,0,0,0,0,0,135,0,255,0,252,0,0,0,0,243,117,9,18,27,18,9,0,255,0,0,0,0,0,0,0,0,0,0,0,0,0,0,54,0,27,54,144
36,108,63,135,36,126,99,117,126,108,90,255,126,117,99,0,117,0,0,0,0,0,0,0,0,0,0,108,0,0,0,180,0,0,0,9,0,144,63,36,255,27,0,0,108,0,0,0,0,0,0,0,0,0,0,0,0,0,0,0,36,36,27,153
72,45,108,36,117,126,126,171,117,126,255,108,108,126,117,126,0,0,0,0,0,0,0,0,0,0,0,0,162,0,18,99,0,0,135,243,0,0,255,0,18,0,63,0,27,0,0,72,0,0,0,9,0,0,0,0,0,0,0,45,0,27,63,63
54,54,99,117,117,144,108,108,99,255,90,99,126,108,9,81,0,0,0,0,0,0,0,0,0,0,0,117,0,27,0,225,0,0,0,9,0,0,81,99,255,126,9,0,0,0,0,0,0,0,0,0,0,0,0,0,0,0,0,0,9,45,45,36
63,90,99,90,126,255,108,126,144,171,90,108,108,108,63,0,0,0,0,0,0,0,0,0,0,0,0,144,0,0,9,255,0,0,0,63,0,9,162,255,81,9,0,0,63,0,0,0,0,0,0,0,0,0,18,0,0,0,0,0,18,27,81,63
72,54,72,72,90,162,255,153,126,126,117,108,63,99,0,72,0,0,0,255,0,0,0,0,0,0,0,9,126,255,0,0,0,0,0,0,171,117,18,0,255,0,0,0,0,99,0,0,0,0,0,0,0,0,0,0,0,0,0,0,54,45,63,54
90,72,81,54,135,144,117,255,126,108,144,126,99,108,90,0,90,0,0,0,255,0,0,0,0,0,117,0,144,0,0,0,0,9,207,0,81,0,72,0,255,0,0,0,0,0,9,0,0,0,0,0,0,0,0,0,0,0,0,0,27,27,72,72
72,54,90,99,108,126,144,90,117,135,117,144,207,255,198,0,117,0,108,0,171,162,0,126,144,0,0,0,144,255,162,0,0,0,0,207,0,255,81,18,0,90,0,9,0,0,0,0,0,0,0,0,0,0,0,0,0,0,0,36,0,18,63,45
45,54,81,54,99,90,45,108,135,255,126,108,108,72,45,0,0,0,0,0,0,0,0,0,0,0,0,108,0,255,207,0,0,0,0,207,153,0,0,255,18,9,9,0,0,0,0,36,0,0,0,0,0,0,0,0,0,0,0,0,0,63,36,81
27,72,54,99,90,144,90,144,144,108,135,126,99,72,117,0,0,0,0,0,0,0,0,0,0,0,0,99,0,0,0,225,162,0,0,171,0,18,81,255,0,9,63,0,0,0,0,54,0,0,0,0,0,0,0,0,0,0,0,0,63,0,27,153
81,63,99,90,81,108,126,90,126,126,117,126,108,117,90,126,0,0,0,0,0,0,0,0,0,90,0,0,0,0,108,0,0,9,0,126,0,9,9,189,72,27,255,0,0,0,0,0,0,0,0,0,0,0,0,0,0,0,0,0,27,63,36,54
36,117,27,90,255,135,135,117,117,135,99,255,117,108,90,0,0,0,0,0,0,0,0,0,0,0,0,153,0,0,255,189,0,0,189,0,18,0,0,255,0,27,90,0,0,255,0,0,0,0,0,0,0,0,0,0,0,0,0,36,0,54,45,72
45,45,27,108,126,255,153,126,117,117,117,255,108,117,108,81,0,0,0,0,0,0,0,0,0,0,0,108,9,255,153,0,0,180,0,0,0,255,135,63,27,27,0,0,0,0,117,9,0,0,0,0,0,0,0,0,0,0,0,0,9,36,63,63
54,54,108,45,99,153,108,108,108,117,99,126,72,90,255,72,0,0,0,0,0,0,0,0,0,0,0,126,0,0,0,9,0,0,171,0,0,135,255,0,0,18,0,0,0,45,0,0,0,0,0,0,0,0,0,0,0,0,0,0,27,63,63,54
63,90,63,99,99,117,108,255,144,45,72,255,180,90,72,72,0,0,0,0,0,0,0,0,0,0,0,0,162,207,9,0,0,0,0,234,153,0,45,0,255,0,18,18,0,0,0,0,0,0,0,0,0,0,0,0,0,0,0,0,27,63,9,45
54,45,72,90,81,81,255,144,108,108,117,99,108,81,0,255,108,0,0,0,0,0,0,0,0,0,0,72,0,255,54,0,255,0,171,0,0,126,0,18,255,45,0,0,0,0,0,0,0,0,0,0,0,0,0,0,0,0,0,0,0,54,36,36
45,27,72,144,126,90,126,225,117,108,135,99,108,90,108,81,0,0,0,0,0,0,0,0,0,0,0,126,0,0,225,0,0,0,171,0,0,0,9,9,27,117,255,45,0,0,0,0,0,0,0,0,0,0,0,0,0,0,0,0,72,18,36,45
54,255,9,90,108,90,108,117,99,99,255,90,81,81,90,27,126,0,153,0,0,0,0,0,0,0,108,0,45,0,0,0,198,255,0,9,117,0,0,0,9,162,0,0,27,0,0,0,0,0,0,0,0,0,0,0,0,0,0,0,45,18,162,135
54,90,108,108,81,135,225,135,153,162,171,171,90,99,135,81,0,0,0,63,108,126,108,162,126,0,0,126,0,234,0,0,0,0,189,0,0,0,27,255,162,27,0,0,9,0,0,0,0,0,0,0,0,0,0,0,0,0,0,0,0,27,63,54
54,54,81,108,108,126,135,108,135,189,153,255,108,81,126,108,0,0,0,0,0,0,0,0,0,0,0,0,45,144,135,0,0,0,234,90,0,255,162,72,18,36,0,72,0,0,0,0,0,0,0,0,0,0,0,0,0,0,0,0,0,45,99,54
45,63,54,27,90,135,108,117,255,99,255,99,99,126,108,99,72,0,0,0,0,0,0,0,0,0,0,135,0,255,0,9,0,255,0,0,0,27,126,0,255,27,153,255,0,0,0,0,0,0,0,0,0,0,0,0,0,0,0,0,45,81,27,63
72,54,108,255,18,126,117,108,126,99,90,99,99,108,255,99,0,0,0,0,0,0,0,0,0,0,0,108,18,54,0,9,0,0,0,0,0,108,255,0,0,27,0,27,0,0,0,0,0,0,0,0,0,0,0,0,0,0,0,0,27,45,45,63
63,18,90,90,90,81,108,108,108,99,99,108,99,99,90,99,0,0,0,0,0,0,0,0,0,0,135,255,0,0,0,0,0,0,180,0,108,0,99,255,27,18,27,0,0,0,0,0,0,0,0,255,0,0,0,0,0,0,0,0,27,0,45,81
45,63,207,81,108,162,126,108,108,90,108,117,108,90,90,99,0,0,0,0,0,0,0,0,0,0,0,45,117,0,9,0,0,0,0,0,9,63,63,255,0,0,0,27,0,0,0,0,0,0,0,0,0,0,0,0,0,0,0,0,0,54,54,27
72,36,45,54,108,99,153,108,99,99,108,108,108,90,108,255,0,0,0,0,0,0,0,0,0,0,0,126,0,255,81,0,0,0,180,108,0,0,255,9,0,0,0,81,0,0,0,0,0,0,0,0,0,0,0,0,0,0,0,0,36,18,54,45
