27,27,27,30,39,36,144,39,75,63,75,72,69,129,69,63,69,54,63,48,57,60,60,57,0,0,0,0,30,0,0,3,0,51,0,0,3,141,36,0,15,0,6,0,0,0,0,3,0,3,0,0,0,3,0,0,0,0,0,0,27,6,9,27
24,21,27,15,33,30,42,36,138,66,75,75,69,69,63,69,63,75,57,57,54,51,57,51,0,0,0,48,0,3,0,27,0,48,0,0,51,0,0,12,144,0,6,12,0,0,138,0,0,0,0,0,0,0,0,0,0,0,0,0,18,12,18,33
9,15,15,39,27,36,36,138,78,54,78,81,81,75,66,69,66,60,57,60,63,69,57,51,48,0,36,0,3,78,0,0,9,0,0,57,63,0,0,42,0,21,144,6,6,0,0,6,0,0,0,0,0,0,0,0,0,0,0,0,15,21,3,33
24,30,99,30,18,42,36,48,72,75,144,66,69,57,63,60,63,63,60,57,57,54,60,57,0,42,45,0,3,6,0,0,0,33,0,0,84,33,144,9,42,0,0,24,0,0,3,0,0,0,0,0,0,0,0,0,0,0,0,0,18,9,18,30
24,3,3,36,36,36,45,42,69,144,69,75,69,72,72,69,57,54,54,57,57,54,60,54,0,0,0,30,69,6,0,9,0,0,0,0,48,36,0,3,144,15,33,9,0,12,9,0,6,0,0,0,0,0,0,0,0,0,0,0,6,33,9,24
36,33,24,27,30,78,36,69,42,69,72,75,72,144,69,69,63,69,72,60,72,69,54,63,48,0,0,0,42,0,0,21,0,0,0,57,144,15,0,30,9,0,3,0,12,0,0,0,0,0,0,0,0,0,0,0,0,0,0,9,0,21,15,45
30,30,3,9,36,39,69,39,138,39,75,75,78,69,69,72,69,63,69,63,63,72,66,0,57,0,48,0,3,57,0,0,0,0,0,3,51,0,24,0,144,12,90,3,0,0,0,3,0,0,0,0,0,0,0,0,0,0,0,0,3,27,21,6
21,9,6,24,42,39,33,42,144,63,72,69,75,60,63,69,63,63,69,57,60,69,63,0,60,0,30,0,6,81,0,3,3,54,0,0,0,24,39,9,144,0,3,3,6,0,0,0,0,0,0,0,0,0,0,0,0,0,0,0,0,15,15,21
39,12,24,33,18,117,42,30,63,66,75,69,69,72,78,144,69,72,66,60,69,63,66,60,54,0,0,42,0,9,108,0,0,0,63,144,0,0,9,27,12,12,12,3,9,0,0,3,3,0,0,0,0,0,0,0,0,0,0,9,0,18,0,21
30,3,24,30,36,24,36,42,144,48,72,69,69,69,69,72,78,57,69,69,60,51,63,57,51,0,0,33,3,0,0,0,3,0,48,0,0,0,48,15,48,6,9,3,0,0,0,0,0,0,0,0,0,0,0,0,0,0,0,0,12,30,15,27
3,6,36,0,36,18,111,63,39,69,75,75,69,72,72,72,72,63,63,63,60,117,60,54,0,0,0,36,6,3,99,9,0,0,54,0,0,0,75,0,12,6,144,18,0,0,0,0,0,0,0,0,0,0,0,0,0,0,0,0,9,9,33,24
39,18,21,21,36,42,36,36,63,66,144,75,69,69,78,63,72,69,57,63,66,63,63,57,0,0,0,42,0,0,9,57,0,0,0,6,27,144,99,9,36,3,3,3,0,0,0,0,0,0,0,0,0,0,0,0,0,0,3,0,15,9,21,21
33,0,9,30,45,36,42,141,42,69,72,69,72,63,69,66,63,63,60,63,63,63,57,57,0,0,0,24,3,3,123,0,15,0,0,39,0,48,12,24,144,15,12,3,6,3,0,3,0,0,0,0,3,0,0,0,0,0,0,0,6,9,27,24
24,3,24,6,39,42,144,48,60,66,69,75,66,72,69,75,63,60,57,60,63,57,57,0,63,0,0,30,0,0,0,36,0,0,3,0,57,90,57,0,15,144,18,9,3,0,0,0,0,0,0,0,0,0,3,0,0,0,0,0,15,3,18,111
15,15,30,36,24,36,42,36,69,144,66,75,60,72,66,69,69,51,63,51,57,57,63,36,48,0,0,42,3,105,0,0,15,0,0,96,0,0,141,9,36,18,0,0,0,0,0,0,0,0,0,0,0,0,0,0,0,0,0,0,3,21,18,21
9,30,15,33,15,33,39,30,66,66,66,66,69,63,66,60,60,60,54,57,63,57,63,63,0,0,0,39,3,57,0,0,0,0,0,54,0,0,45,0,138,30,0,12,0,0,0,3,0,0,0,0,0,3,0,0,0,0,0,0,15,6,15,12
57,39,9,18,33,42,42,42,63,69,144,69,66,69,69,69,63,60,54,51,60,60,66,57,0,0,0,45,0,0,0,0,0,0,0,3,48,0,144,15,27,6,0,0,6,3,0,6,0,0,0,0,0,6,0,0,0,0,0,3,6,9,33,33
33,21,15,18,24,30,30,126,54,63,63,63,63,141,69,60,63,51,60,48,54,54,57,57,0,0,0,0,42,0,9,0,39,93,0,0,0,9,51,3,18,0,3,9,6,0,3,0,0,9,0,0,0,9,0,0,0,0,0,0,3,21,18,18
27,9,30,9,45,39,36,63,30,63,144,57,57,57,60,63,57,63,57,57,66,57,57,0,54,0,0,3,45,6,3,96,0,0,51,81,0,6,0,12,18,30,144,9,0,0,0,0,0,0,0,0,0,0,0,0,0,0,0,0,9,21,48,36
33,6,78,12,36,30,45,69,36,144,66,66,63,57,63,69,63,57,57,66,57,60,60,60,0,0,0,51,0,0,0,0,0,0,6,81,0,42,15,36,12,9,0,0,0,0,0,0,0,0,0,0,0,0,0,0,0,0,0,21,0,3,21,15
24,12,9,6,30,33,36,39,66,66,63,66,129,66,66,57,60,48,57,60,63,57,42,57,0,0,0,51,105,0,0,3,0,51,54,9,0,0,144,6,24,9,15,6,0,0,0,6,0,0,0,0,0,0,0,0,0,0,0,0,6,15,15,12
12,3,9,24,30,27,36,132,60,69,66,69,69,72,60,60,54,60,60,63,57,63,51,60,45,0,0,30,0,78,0,6,0,0,54,0,0,0,12,27,15,15,9,144,9,0,12,0,0,0,0,21,0,0,0,0,0,0,0,0,9,27,24,30
30,3,3,30,33,33,39,42,63,60,144,63,57,63,60,57,60,57,57,54,57,54,57,60,0,0,0,48,0,0,0,0,54,0,3,57,0,144,9,45,0,24,12,0,0,0,0,15,0,0,0,0,0,0,0,0,0,0,3,0,0,15,30,30
36,24,27,12,48,36,39,33,63,144,60,63,69,60,60,63,57,63,51,57,54,57,54,0,0,0,54,30,0,75,0,3,3,51,0,3,0,0,0,144,0,96,6,21,6,0,15,12,0,0,0,15,0,0,0,0,0,0,0,0,12,33,18,21
9,30,18,36,39,21,45,42,36,63,63,63,63,144,63,63,63,63,51,57,51,63,60,0,57,0,0,36,84,0,3,0,3,42,0,0,0,0,6,0,0,3,0,33,0,0,0,0,21,0,0,0,0,0,0,0,0,0,0,9,0,6,27,24
48,24,30,24,30,36,36,33,138,63,66,63,63,66,63,69,63,69,63,57,63,57,57,57,0,0,0,30,0,0,54,6,0,0,0,0,48,0,12,0,21,144,3,0,0,0,0,3,0,3,0,0,0,0,0,0,0,0,0,0,18,15,18,24
36,51,18,3,39,105,39,42,66,36,63,66,144,66,63,54,54,60,57,60,54,63,57,0,57,0,0,0,48,6,69,0,87,51,0,0,0,3,144,48,18,30,3,42,12,27,18,6,0,0,3,0,18,0,0,0,0,0,0,9,12,15,21,48
9,33,36,21,36,36,39,33,132,63,63,60,63,57,66,57,63,66,57,57,57,63,57,63,0,0,0,0,36,3,72,0,0,0,39,0,3,0,0,0,9,144,3,36,0,6,0,15,0,0,0,3,0,0,0,0,0,0,3,0,9,21,9,12
15,24,3,9,45,39,141,45,54,63,60,60,63,60,138,63,72,63,51,51,51,63,57,0,54,0,0,42,3,63,0,0,0,3,51,45,0,36,0,144,0,3,24,0,0,3,27,0,0,0,0,0,0,0,0,0,0,0,0,3,12,21,30,24
27,15,15,42,24,24,39,57,39,57,63,60,63,60,144,60,63,57,63,57,57,54,57,57,57,0,0,42,3,42,0,0,0,0,3,144,0,30,63,0,18,0,12,15,18,0,0,0,18,0,0,0,9,0,0,0,0,0,0,0,6,9,15,21
27,6,24,30,45,39,36,60,39,57,63,141,63,60,57,60,63,63,54,57,57,60,54,57,48,0,0,60,9,0,0,0,0,0,0,0,0,30,144,0,48,12,15,0,0,0,0,6,9,0,0,0,0,0,0,0,0,0,0,9,0,18,21,30
6,27,30,3,33,45,27,45,66,69,63,63,69,63,60,57,69,57,57,57,57,63,57,54,0,0,0,48,3,3,6,0,48,3,0,48,0,9,51,144,9,6,36,18,0,0,12,12,0,0,0,0,0,0,0,0,0,0,0,0,21,9,30,27
27,42,9,24,84,30,42,42,57,60,69,144,60,63,63,66,57,54,51,51,54,57,60,51,0,0,0,36,0,6,93,0,0,0,45,0,60,144,3,0,0,12,15,21,78,6,0,0,3,0,0,0,0,0,3,0,0,0,0,0,24,9,33,33
36,24,24,24,30,33,42,42,69,141,69,66,60,66,69,66,57,63,60,60,60,57,57,57,0,0,42,0,0,12,51,0,0,0,48,0,0,18,0,12,45,12,144,6,0,0,3,0,0,0,0,0,0,0,0,0,0,0,0,0,6,18,21,21
15,27,27,33,36,39,144,60,42,69,69,63,69,66,69,63,63,63,66,63,57,60,66,63,36,0,0,42,0,0,54,12,63,0,45,0,0,3,15,0,6,3,21,15,144,0,0,0,0,0,0,0,0,0,0,0,0,0,0,0,21,21,24,15
18,9,3,24,24,45,42,36,144,63,60,69,63,60,69,57,57,54,51,57,57,57,57,54,0,0,0,0,33,3,90,0,0,0,0,48,0,0,0,0,0,144,6,6,21,0,0,0,0,0,0,0,0,0,0,0,0,0,0,0,27,15,6,18
27,9,24,30,30,36,39,60,129,60,69,60,63,57,60,57,60,57,60,57,57,57,51,0,57,0,24,0,84,3,0,0,0,0,0,0,30,9,36,0,3,6,3,15,0,3,0,0,15,0,0,0,0,0,0,0,0,0,9,0,24,0,15,21
48,21,27,18,30,36,138,33,60,63,66,66,60,69,60,63,54,63,57,54,57,57,63,51,51,30,0,24,3,3,0,12,48,0,0,0,45,36,6,3,24,6,144,3,0,0,0,0,0,0,0,0,0,0,0,0,0,0,0,24,6,6,21,30
48,24,21,9,27,39,39,42,63,60,60,144,60,66,60,69,63,63,57,60,63,63,63,0,0,54,0,0,48,0,0,0,12,51,0,84,0,48,144,0,0,15,3,3,36,15,3,0,0,0,0,3,0,0,0,3,0,0,0,0,15,9,24,9
18,15,12,18,27,30,45,126,63,66,63,60,66,63,66,63,63,69,57,57,69,69,57,66,54,39,0,51,0,0,0,45,0,6,0,51,18,0,3,15,24,9,21,15,144,0,3,0,0,0,0,0,0,0,0,6,0,0,0,9,0,27,15,21
18,24,30,45,30,42,39,39,144,63,69,66,63,63,63,60,63,60,57,66,63,60,60,51,0,0,0,36,0,96,0,0,0,0,0,51,24,54,0,144,15,15,6,0,0,0,0,0,0,0,0,0,0,0,0,0,0,0,0,0,6,9,21,24
21,3,24,9,33,42,39,39,63,63,69,66,63,144,63,60,60,63,60,69,63,60,66,66,0,0,0,48,0,18,9,0,0,0,0,0,66,42,144,0,27,6,15,0,36,0,0,3,0,0,0,0,3,0,0,0,0,0,0,9,0,21,15,33
3,18,27,21,42,42,42,36,63,144,60,63,63,63,63,66,60,57,63,60,60,63,63,45,63,0,0,42,0,3,27,0,0,0,51,0,0,0,0,12,144,0,0,0,0,3,0,9,0,0,0,0,3,0,0,0,0,0,0,6,0,18,33,0
39,9,36,15,30,36,36,48,69,69,63,69,69,144,63,60,63,63,63,63,63,51,63,57,45,0,0,3,30,93,0,0,0,0,0,57,144,51,9,33,9,0,24,0,0,15,0,0,0,3,0,0,0,0,0,0,0,0,12,0,0,12,12,48
45,6,15,30,33,36,42,39,141,57,63,66,66,63,66,75,63,54,63,54,60,54,57,0,63,0,0,30,78,0,0,0,0,0,0,51,0,51,15,144,9,0,6,9,0,6,0,15,0,0,0,6,0,0,0,3,0,0,0,9,24,9,15,0
30,18,6,21,33,42,45,144,63,63,66,69,69,63,63,66,66,60,63,60,63,63,63,57,0,0,33,0,0,6,9,0,45,0,0,0,57,63,0,3,30,9,144,0,6,0,12,0,0,0,0,6,0,0,0,0,0,0,0,0,3,15,15,42
9,9,21,36,18,42,39,39,63,63,69,63,63,66,69,69,69,66,57,60,63,69,63,63,57,0,0,0,42,0,0,42,0,6,51,0,51,0,0,144,9,0,21,30,0,0,0,0,0,0,0,0,0,0,0,0,0,0,0,9,0,12,18,15
30,3,12,36,30,36,39,138,75,66,63,66,66,69,63,63,63,69,63,60,63,57,69,66,0,48,0,3,24,3,3,0,99,30,0,0,0,42,3,0,24,6,15,0,3,9,0,0,0,0,0,0,0,0,0,0,0,0,0,0,6,9,24,24
21,24,30,12,21,33,36,42,60,72,144,63,69,63,63,69,66,57,60,57,60,69,54,63,45,0,0,0,33,99,0,0,9,0,57,0,0,63,0,144,3,21,0,9,0,0,0,0,0,0,0,0,3,0,0,0,0,0,0,0,15,6,21,24
36,6,6,18,45,27,141,39,66,69,69,66,63,63,69,63,60,57,66,57,63,63,42,57,57,0,27,42,0,0,57,9,0,0,0,3,0,0,24,3,63,0,6,144,0,0,0,0,3,0,0,0,0,0,0,0,0,0,0,0,9,15,18,21
