24,42,54,48,96,102,114,255,126,114,114,132,126,114,120,120,126,126,114,126,126,114,132,102,126,0,186,0,0,66,6,0,0,6,126,0,0,0,60,0,114,0,12,6,255,0,0,0,0,0,0,0,0,0,0,0,0,0,0,0,36,48,24,60
150,24,60,54,42,72,96,96,108,126,114,126,120,132,126,114,126,144,132,120,144,138,126,132,0,0,0,66,0,150,0,6,0,0,132,0,0,198,66,138,24,0,255,144,0,0,0,0,0,0,0,0,0,0,0,0,0,0,0,0,36,66,30,84
102,12,60,72,90,24,102,96,108,126,255,126,126,120,120,126,126,138,126,120,132,120,120,126,0,0,0,102,0,0,0,138,234,138,0,0,138,6,72,12,0,42,6,0,0,0,0,0,0,0,0,0,0,0,0,0,0,0,0,0,60,48,60,54
48,72,30,48,48,108,96,96,132,120,255,126,138,126,138,126,120,132,126,126,102,120,120,126,0,0,84,0,0,0,0,156,72,0,60,0,60,96,60,0,24,255,0,12,0,12,0,0,0,0,0,0,0,0,0,0,0,0,0,0,60,36,42,78
18,60,48,54,54,96,108,102,114,114,114,132,120,120,120,126,126,126,120,126,126,126,126,132,0,0,0,66,0,138,0,12,0,108,0,0,0,255,0,6,6,30,24,18,6,0,0,0,0,0,0,0,0,0,0,0,0,0,0,18,0,72,60,66
12,48,96,42,84,114,102,108,96,120,255,138,132,132,114,120,132,126,132,108,132,120,132,108,0,0,0,84,6,0,96,6,0,0,102,0,0,84,0,255,0,24,48,0,0,0,0,0,0,0,0,0,0,0,0,0,0,0,0,0,0,30,30,54
60,48,60,60,84,114,255,114,78,108,132,126,132,126,108,120,108,120,108,108,108,126,126,114,0,0,54,0,192,0,0,0,0,0,90,0,48,0,0,0,0,0,6,0,255,0,0,0,0,0,0,0,0,0,0,0,0,0,0,18,0,54,18,48
222,42,72,66,48,108,96,96,108,255,114,126,126,132,126,114,126,132,126,138,120,126,120,0,126,0,0,72,48,0,6,0,0,60,0,0,78,144,255,42,42,12,42,0,0,12,0,0,0,0,0,0,0,0,0,0,0,0,0,36,0,36,60,60
48,42,42,90,84,96,96,255,108,114,120,108,126,132,126,126,126,132,132,132,138,138,126,132,102,0,0,6,192,6,84,96,0,198,0,0,108,0,72,0,18,255,54,0,12,0,0,0,0,6,0,0,0,0,0,0,0,0,0,0,18,30,66,84
12,42,30,72,66,90,102,90,108,255,120,120,120,126,126,132,114,126,132,120,114,114,126,78,0,24,0,6,0,66,162,0,18,0,0,0,114,6,96,255,24,12,48,12,0,0,0,0,0,0,0,0,0,0,0,0,0,0,0,36,30,0,42,42
48,54,72,42,108,102,138,102,255,120,114,126,114,126,126,120,132,132,132,120,132,114,120,126,114,0,0,0,66,0,156,6,255,0,24,0,0,30,0,6,24,255,0,0,12,0,0,0,0,0,0,0,0,0,0,0,0,0,0,30,0,18,78,42
90,72,84,66,90,96,102,78,114,132,255,126,138,126,102,120,126,120,132,126,114,126,120,126,0,0,0,0,0,90,0,96,0,0,0,6,255,18,0,12,120,0,255,6,6,6,0,0,0,6,0,0,0,0,0,0,0,0,0,0,36,48,6,66
102,24,30,12,48,108,102,255,120,120,132,126,138,120,126,120,126,138,108,114,126,114,114,0,114,0,78,0,0,6,162,0,168,0,0,114,0,42,60,24,12,24,255,0,0,0,0,0,0,0,0,0,0,0,0,0,0,0,0,0,18,24,24,54
60,96,0,48,84,102,120,114,90,255,120,114,138,120,126,138,132,126,138,126,132,120,120,0,132,0,84,0,198,6,12,0,255,0,0,0,114,150,255,30,0,6,18,12,0,0,0,0,0,0,0,0,0,0,0,0,0,0,0,0,36,54,42,102
54,18,18,72,66,66,108,120,120,126,255,138,120,132,126,108,120,132,120,126,126,114,120,114,0,90,72,0,0,204,0,0,0,0,0,114,0,78,0,18,42,12,18,12,12,0,0,0,0,0,0,0,0,0,0,0,0,0,0,0,30,42,24,66
42,60,156,102,42,114,84,126,108,126,126,255,126,120,126,126,132,132,126,126,114,126,78,126,126,0,0,0,78,192,0,0,255,0,120,0,114,0,0,0,6,6,12,0,0,0,0,0,0,0,0,0,0,0,0,0,0,0,0,0,18,36,60,60
36,246,60,48,102,54,90,108,108,114,132,255,126,126,132,144,132,132,126,126,144,126,114,126,0,0,0,96,0,0,0,114,252,0,0,0,102,6,138,255,84,0,12,6,0,0,0,0,0,0,0,0,0,0,0,0,0,0,0,18,0,36,78,96
24,162,12,54,72,96,102,114,108,138,132,120,138,138,126,138,138,132,132,132,120,132,132,0,144,0,0,114,6,0,186,0,0,210,0,6,0,0,84,255,0,156,12,0,18,0,6,0,6,0,0,0,0,0,0,0,0,0,0,0,30,60,48,54
12,138,126,42,78,72,78,255,102,126,132,126,132,144,132,126,132,144,138,114,126,132,132,114,0,0,0,78,6,192,0,0,0,0,0,0,114,0,0,6,30,0,255,24,0,6,0,0,0,0,0,0,0,0,0,0,0,0,0,30,30,60,42,66
255,24,60,72,126,72,120,90,114,126,126,255,126,138,126,144,150,138,126,120,132,144,126,0,126,0,0,84,0,6,0,0,0,0,0,0,144,255,66,0,66,42,24,0,0,0,0,0,0,0,0,0,0,0,0,0,0,0,0,0,36,48,72,42
42,60,12,54,90,60,102,108,108,114,102,114,132,120,132,138,132,138,126,132,126,126,138,114,0,0,0,78,198,12,0,6,0,0,0,0,102,126,0,0,66,42,12,6,255,0,0,0,0,0,0,6,0,0,0,0,0,0,0,0,18,48,30,66
192,54,6,60,66,102,102,96,84,114,255,120,126,132,120,126,132,132,132,114,138,114,120,96,0,0,0,72,210,6,6,0,0,0,0,0,0,126,6,255,72,48,12,0,0,0,0,0,0,0,255,0,0,0,0,0,0,0,0,0,42,54,60,114
54,54,54,36,72,48,255,120,120,102,126,114,138,126,132,120,132,126,132,138,126,132,108,120,0,0,0,90,0,0,0,144,108,0,0,0,0,0,72,18,24,12,42,24,6,0,0,0,0,0,0,0,0,0,0,0,0,0,0,0,30,18,24,96
54,174,246,54,66,84,132,126,96,120,120,138,114,114,126,126,138,120,132,126,132,126,126,120,0,0,0,60,0,0,114,0,0,0,138,66,0,0,0,12,0,6,12,18,255,0,0,0,0,0,0,0,0,0,0,0,0,0,0,12,0,18,36,42
48,30,48,90,30,120,252,114,90,132,138,138,126,255,144,138,132,138,126,138,126,126,132,0,126,0,0,66,6,168,18,6,255,0,0,0,78,0,84,48,6,6,0,0,12,0,0,6,0,0,0,0,0,0,0,0,0,0,0,0,36,24,48,66
144,42,48,42,138,114,114,84,90,255,138,168,126,120,144,132,138,120,126,126,114,120,114,126,0,0,0,0,78,6,0,6,0,0,0,114,78,0,12,60,255,0,6,0,0,0,0,0,0,0,0,0,0,0,0,0,0,0,0,18,0,18,60,48
42,60,54,36,60,102,114,126,255,126,126,255,120,132,138,132,120,120,120,138,126,126,126,108,0,0,0,54,0,162,0,0,0,0,0,0,0,156,255,0,0,0,0,0,24,36,0,0,0,0,0,0,6,0,0,0,0,0,0,0,42,66,54,36
42,48,60,48,108,54,108,255,120,114,126,114,138,132,132,120,120,138,114,132,120,132,126,114,0,0,90,90,0,0,210,6,0,0,0,0,108,108,90,12,0,0,255,18,0,6,0,0,0,6,0,0,0,0,0,0,0,0,0,30,0,30,24,60
84,0,255,54,114,96,126,102,102,84,255,150,138,126,126,144,126,120,138,126,120,126,108,144,0,0,78,0,6,180,0,0,12,0,0,0,0,96,72,255,0,0,0,12,0,0,0,0,0,0,0,0,0,0,0,0,0,0,0,0,24,42,36,48
54,78,66,42,108,72,96,96,255,120,132,120,132,132,126,120,120,138,126,126,120,120,138,120,0,0,0,84,6,12,198,0,186,0,0,138,0,186,72,42,0,30,255,18,0,0,0,0,0,0,0,0,0,0,0,0,0,0,0,0,30,36,48,36
42,210,54,60,102,108,102,84,114,126,255,132,114,126,138,144,126,126,114,138,120,150,132,120,0,0,0,60,6,174,6,0,6,0,102,0,0,114,114,255,6,0,12,0,6,0,0,0,0,0,0,0,0,0,0,0,0,0,36,36,0,54,54,48
24,66,54,6,120,66,72,102,102,132,255,114,126,138,144,138,132,120,138,120,138,126,126,102,0,0,0,90,0,198,0,12,114,12,0,0,0,0,42,0,12,0,255,6,0,42,6,0,0,0,0,0,0,0,0,0,0,0,0,0,48,42,24,42
60,72,84,54,102,114,66,96,102,126,255,144,132,120,144,138,108,42,120,102,132,114,138,126,0,0,0,72,0,180,24,0,24,0,0,0,0,0,0,24,255,0,6,6,0,0,0,0,0,0,0,0,0,0,0,0,0,0,0,0,30,48,78,12
48,108,12,60,48,114,144,102,96,138,102,132,156,255,132,126,138,138,132,120,138,144,120,138,0,0,0,0,78,0,6,204,0,0,0,0,102,174,0,12,0,0,12,0,0,0,6,0,0,0,0,0,0,0,0,0,0,0,48,0,0,48,12,60
42,60,48,60,72,255,246,84,114,96,120,144,144,138,255,132,138,144,144,132,132,138,126,132,0,0,0,6,78,6,0,186,0,0,0,0,126,114,48,255,42,54,12,0,12,0,0,0,0,0,0,0,0,0,0,0,0,0,18,60,0,0,54,96
66,12,0,24,102,66,102,156,126,132,138,150,126,144,120,138,138,126,120,138,126,132,126,138,0,0,0,60,138,0,0,0,0,18,108,0,0,162,144,12,18,0,6,0,255,0,255,0,0,0,0,0,0,0,0,0,0,0,0,0,30,36,42,198
12,42,54,54,60,114,84,102,102,255,126,138,132,144,132,126,126,126,138,126,126,150,144,114,102,0,0,102,0,210,0,60,0,0,0,162,0,126,0,0,0,255,12,6,18,0,0,0,0,0,0,0,0,0,0,0,0,0,0,0,18,60,24,90
42,30,240,102,90,60,108,114,255,120,108,90,126,138,138,138,138,138,132,132,138,144,150,132,0,0,6,0,78,174,0,6,0,0,0,108,0,6,255,6,0,6,255,0,6,12,0,0,0,0,0,0,0,0,0,0,0,0,0,0,60,18,48,36
255,24,54,66,60,114,114,114,132,108,138,255,150,138,156,144,138,144,144,156,132,138,144,126,0,0,0,72,6,0,0,0,0,0,0,6,90,78,0,12,255,6,0,0,30,6,6,0,0,0,0,0,0,0,0,0,0,0,0,0,18,54,66,42
72,18,42,90,96,102,84,114,255,126,132,138,126,144,138,138,150,126,144,138,144,132,138,126,0,0,0,60,96,0,0,0,6,0,0,0,102,0,18,0,6,0,255,12,0,0,0,0,0,0,0,0,0,0,0,0,0,0,0,48,0,42,18,54
255,42,42,30,72,66,96,102,126,132,255,132,138,132,138,138,132,132,138,126,132,138,138,0,138,0,0,90,6,6,0,0,198,0,0,255,102,0,0,72,12,0,30,6,6,150,0,0,255,0,0,0,0,0,0,0,0,0,0,18,48,24,66,84
42,60,24,60,96,66,255,96,126,138,132,150,144,138,126,132,138,144,138,144,138,126,138,138,0,102,0,72,6,186,0,6,0,0,0,0,102,126,60,0,24,6,0,255,6,0,0,0,0,0,0,0,0,0,0,0,0,0,0,0,36,30,42,48
255,60,42,66,84,255,96,84,120,120,255,138,150,132,138,132,144,138,132,132,138,132,126,126,0,0,0,78,0,6,0,6,180,0,0,0,0,138,0,255,48,30,60,0,12,0,0,0,0,0,0,0,0,0,0,0,0,0,0,54,0,60,54,42
96,6,30,42,84,60,216,102,132,90,138,126,132,132,138,144,150,138,255,132,132,138,138,0,126,0,0,0,78,174,42,6,0,0,0,0,0,0,0,6,0,0,18,6,0,12,0,0,0,0,0,0,0,0,0,0,0,0,0,0,0,48,42,30
18,60,18,48,96,255,114,96,120,132,132,132,132,126,138,132,150,255,138,132,150,138,132,120,0,0,0,66,0,0,0,0,132,102,0,0,0,90,255,54,0,24,0,0,0,0,0,0,0,0,0,0,0,0,0,0,0,0,0,0,18,72,48,6
42,60,24,42,54,90,114,90,132,255,132,138,126,138,126,132,126,126,114,120,138,126,150,108,0,144,102,0,0,210,12,0,0,0,0,108,6,114,0,0,255,12,78,0,0,0,0,0,0,0,0,0,0,0,0,0,0,0,0,0,54,42,48,42
48,24,54,48,108,120,126,72,90,126,132,132,138,255,144,144,138,138,138,132,144,138,138,138,0,0,102,66,0,192,6,0,0,78,0,0,0,150,255,12,18,0,60,0,0,0,18,0,0,0,0,0,0,0,0,0,0,0,0,0,36,54,30,18
48,78,18,90,126,114,42,96,126,138,255,138,138,144,156,144,138,138,144,138,144,138,132,114,0,0,0,0,60,0,192,0,246,0,0,180,126,0,72,255,0,0,0,18,0,42,0,0,0,0,0,0,0,0,0,0,0,0,0,0,24,102,30,30
24,60,72,72,96,102,114,255,108,252,132,132,126,138,120,132,132,138,132,138,144,138,126,120,0,0,0,96,0,6,36,24,0,0,0,0,102,0,78,6,48,255,12,0,6,42,12,0,6,0,0,0,0,6,0,0,0,0,0,0,12,18,72,96
24,48,48,6,102,48,78,120,126,102,126,255,144,132,126,126,126,138,138,138,132,126,126,132,0,0,0,84,0,0,0,0,0,0,0,120,0,90,0,18,0,0,42,42,0,0,0,0,0,0,0,126,0,0,0,0,0,0,0,0,18,30,36,54
