255,7,98,70,91,98,77,112,84,154,255,126,147,161,147,119,133,119,140,126,154,133,147,161,0,0,0,0,91,161,84,0,7,0,140,0,0,91,255,147,7,14,7,14,0,0,0,0,0,0,0,0,0,0,0,0,0,0,0,0,14,84,42,161
42,21,14,56,91,98,84,105,147,154,161,161,168,140,154,154,255,133,147,168,126,147,154,154,0,0,0,7,91,154,245,0,0,0,119,0,0,0,49,7,21,7,0,14,0,7,0,0,7,0,0,0,0,0,0,0,0,0,0,0,28,77,84,70
98,105,0,70,35,133,98,98,91,133,161,154,154,255,140,147,154,161,147,147,133,147,147,133,126,0,0,119,7,168,0,0,0,0,0,140,140,0,255,7,0,42,84,0,7,0,0,0,0,0,0,0,0,0,0,0,0,0,0,0,56,98,70,70
175,28,84,84,255,98,105,84,91,147,255,154,147,140,133,140,119,140,140,133,126,154,112,21,140,0,0,0,0,21,0,0,119,0,0,0,0,105,112,245,0,21,0,0,0,0,0,7,0,0,0,0,0,0,0,0,0,0,0,49,0,35,56,70
14,70,56,70,112,91,91,84,140,119,154,133,255,147,140,133,126,147,154,133,147,133,147,140,0,0,0,84,7,14,7,224,119,0,126,0,255,0,119,91,21,14,35,255,238,0,7,0,0,0,0,0,0,0,0,0,0,0,0,0,91,49,0,161
84,70,56,77,91,84,105,255,98,140,154,133,147,140,133,140,255,119,133,126,140,140,133,0,154,0,0,0,112,255,0,56,7,0,0,133,0,196,168,14,255,7,21,0,14,0,42,0,0,0,0,0,0,0,0,0,0,0,0,35,14,91,63,42
56,84,56,77,70,133,98,91,133,147,133,133,133,140,255,140,140,140,119,119,133,140,133,133,0,126,0,0,119,0,21,126,0,0,0,112,175,0,0,140,255,7,21,255,0,0,0,7,0,0,0,0,0,0,0,0,0,0,0,0,98,42,84,56
182,98,7,98,70,112,255,98,84,147,140,147,126,140,119,140,140,133,140,255,133,119,119,126,0,0,0,0,105,0,224,14,0,147,0,0,0,175,84,255,7,35,7,7,0,0,0,0,0,0,0,0,0,0,0,0,0,0,0,0,35,98,70,70
210,63,35,84,77,84,112,255,98,147,147,161,147,126,133,133,119,140,133,140,119,133,126,112,0,0,0,0,98,98,0,0,0,0,126,0,0,231,0,63,7,7,255,0,0,21,14,0,0,0,0,0,0,0,0,0,0,0,0,0,21,84,63,133
28,0,84,56,49,98,91,84,126,147,140,147,133,133,133,154,147,119,126,112,147,154,126,140,0,0,0,7,98,0,98,0,7,0,0,0,126,126,0,7,255,49,7,0,14,0,0,0,0,0,0,0,0,0,0,0,0,0,21,0,56,56,56,63
77,63,28,77,182,105,255,91,105,147,147,147,147,119,133,140,133,119,140,168,119,154,140,147,119,0,0,119,196,28,7,0,0,0,91,0,133,0,42,0,28,0,255,0,0,0,0,0,0,0,0,0,0,0,0,0,0,0,0,0,21,63,14,98
77,224,21,119,84,112,126,105,112,154,255,175,154,154,161,140,147,154,147,133,112,161,133,112,0,0,0,98,0,0,0,56,0,161,0,161,0,0,255,0,49,56,21,0,7,0,255,0,0,0,0,0,0,0,0,0,0,0,0,21,70,84,126,98
21,28,63,98,84,105,84,91,119,154,140,147,133,126,147,133,119,126,133,140,133,133,161,133,112,0,98,0,0,238,14,0,49,154,0,0,7,0,168,7,0,0,0,7,255,245,0,0,0,0,0,0,0,0,0,0,0,0,0,0,49,49,77,91
255,28,98,63,105,77,98,98,105,154,255,133,133,126,147,112,126,140,140,119,119,133,126,126,0,0,0,112,0,0,7,217,0,0,7,0,84,105,0,255,0,63,21,35,7,0,0,7,0,0,0,0,0,0,0,0,0,0,28,98,0,84,49,70
63,21,119,70,112,70,98,98,255,119,140,126,126,133,140,119,133,126,126,119,140,140,133,112,133,0,91,0,0,0,98,0,0,238,0,154,7,133,0,70,0,35,21,0,0,49,0,0,0,0,0,0,0,0,0,0,0,0,0,21,21,70,77,255
63,21,84,105,112,77,112,98,105,147,255,140,147,147,133,119,133,126,140,112,133,140,154,154,0,0,0,0,91,0,0,0,0,0,0,0,112,238,255,42,14,21,7,49,21,0,0,0,0,0,0,0,0,0,0,0,0,0,0,35,0,98,70,70
77,70,70,70,91,98,112,112,255,126,133,133,147,133,140,126,133,112,105,105,112,112,126,133,0,0,0,77,0,252,0,14,0,0,0,126,0,84,210,84,0,255,21,0,0,0,0,0,0,0,0,0,0,0,0,0,0,0,0,0,14,91,98,255
56,84,70,70,49,112,255,98,98,147,119,133,147,255,126,133,126,126,140,119,147,133,133,119,126,0,0,0,98,0,0,0,224,0,0,0,0,98,91,255,42,7,35,7,7,0,0,0,0,0,0,0,0,0,0,0,0,0,0,0,77,49,84,35
154,70,63,84,56,105,105,255,126,140,126,140,147,126,140,126,126,147,119,119,133,119,126,0,126,0,0,0,98,0,0,0,0,0,0,105,0,147,0,77,7,21,255,0,28,0,0,0,0,0,0,0,0,0,0,0,0,0,0,35,35,63,161,84
84,28,70,56,14,112,112,105,126,133,147,140,255,147,161,147,119,126,147,133,133,119,140,140,140,0,0,105,0,14,224,0,0,0,7,0,112,21,255,28,70,0,0,7,14,14,0,0,0,0,0,0,0,0,0,0,0,0,0,0,91,21,28,91
56,98,168,105,63,255,105,98,112,154,133,147,255,140,140,133,140,126,140,133,133,147,161,140,0,0,0,119,245,0,119,0,0,35,0,0,255,0,0,84,7,49,0,255,0,0,0,7,0,0,0,0,0,0,0,0,0,0,0,0,35,70,28,77
56,49,63,77,255,28,98,105,105,147,255,147,154,133,133,133,119,140,147,133,133,140,147,0,154,0,0,0,0,98,154,0,0,0,0,119,168,7,0,255,0,56,63,0,0,0,7,0,0,0,0,0,0,0,0,0,0,0,0,0,84,21,119,56
42,98,7,91,70,91,133,112,255,147,161,140,140,161,147,161,147,147,154,161,140,140,147,119,140,0,0,98,0,0,0,154,0,7,0,0,112,203,49,7,0,7,0,255,0,0,0,0,0,0,0,0,0,0,0,0,0,0,0,21,77,77,70,255
210,112,42,49,0,112,119,140,133,147,255,147,154,147,161,161,147,140,161,161,147,168,147,161,0,0,0,98,7,28,0,0,182,175,0,255,0,7,0,91,14,35,21,14,7,0,0,0,0,0,0,255,0,0,0,0,0,0,0,7,0,70,49,70
70,63,49,255,91,84,112,91,98,154,147,154,147,168,147,147,147,161,154,161,168,133,126,161,126,0,126,0,0,238,0,14,0,133,0,0,0,0,147,175,7,0,119,0,0,21,0,0,0,0,0,0,0,0,0,0,0,0,0,21,84,77,255,70
42,7,21,77,70,77,119,255,161,98,147,147,154,161,154,161,161,154,147,168,147,161,154,0,154,0,119,0,7,7,0,7,0,154,0,0,0,63,14,7,21,56,0,255,0,28,0,0,0,0,0,0,0,0,0,0,0,0,0,0,35,56,84,70
70,35,168,70,105,119,112,98,119,161,255,175,175,168,175,175,175,189,161,175,175,175,147,161,0,0,0,7,84,112,224,0,0,0,119,0,0,7,35,255,14,35,0,42,0,0,7,0,0,0,0,0,0,0,0,0,0,0,0,0,77,21,56,133
119,7,63,70,119,112,112,255,161,112,161,175,161,168,161,154,161,175,168,154,119,154,161,161,0,0,0,98,0,0,63,0,0,0,0,0,7,0,56,98,35,42,255,14,0,7,0,0,0,0,0,0,0,0,0,0,0,0,0,0,77,0,35,119
21,98,35,98,63,112,105,105,154,175,255,154,147,175,182,168,175,147,147,133,147,168,161,119,147,21,0,112,0,14,0,0,0,0,0,0,0,255,7,255,0,0,63,0,255,14,0,0,14,0,0,0,0,0,0,0,0,0,21,0,0,77,84,255
49,56,77,56,7,105,255,168,98,161,147,154,147,255,168,161,147,161,161,140,133,154,133,147,0,0,0,98,7,0,238,63,7,0,0,0,147,119,14,255,56,0,255,0,7,0,0,0,0,0,0,0,0,0,0,0,0,0,0,0,28,84,35,161
21,91,35,98,21,98,255,119,147,175,161,154,161,147,133,147,161,140,126,161,154,161,161,119,0,0,0,84,0,252,0,28,0,0,0,126,0,203,84,21,0,255,0,28,0,0,7,0,0,0,0,0,0,0,0,0,0,0,28,0,70,0,84,21
28,105,56,98,91,63,98,161,126,255,168,154,154,147,182,161,168,147,140,133,133,154,147,147,119,0,0,70,0,245,0,0,21,0,0,0,98,147,255,0,21,7,7,0,21,189,0,0,0,0,0,0,0,0,0,0,0,0,28,0,0,42,77,63
84,63,98,84,35,126,119,112,255,147,189,161,175,161,161,161,175,161,168,168,147,161,161,147,0,0,133,0,0,98,245,0,196,0,0,133,0,70,0,98,56,255,14,0,14,0,0,0,0,0,0,0,0,0,0,0,0,0,0,0,0,77,70,77
255,21,21,105,112,255,105,112,147,147,168,161,168,168,175,154,168,147,147,133,147,147,175,0,154,0,0,98,0,0,35,133,0,0,0,14,112,0,0,42,0,0,21,255,0,0,0,0,0,0,0,0,0,0,0,0,0,0,0,21,0,49,119,84
154,77,14,77,84,98,112,119,168,168,175,168,175,161,161,161,161,133,161,168,154,154,175,140,0,0,0,112,0,0,0,0,14,0,0,119,140,0,119,14,255,21,98,21,0,0,0,0,0,0,0,0,0,0,0,0,0,0,0,0,21,70,21,70
77,70,35,56,98,112,112,147,182,231,168,175,161,161,255,161,147,133,154,154,119,175,154,133,0,0,0,98,70,0,0,35,0,0,7,0,0,140,168,255,56,21,210,0,0,0,0,0,0,0,0,0,0,0,0,0,0,0,0,21,21,63,28,70
77,49,70,35,105,112,255,91,84,154,161,161,182,161,175,161,189,147,147,154,161,154,154,119,133,0,0,84,0,231,0,14,0,0,126,133,0,0,0,0,7,70,255,0,0,255,0,0,0,0,0,0,0,0,0,0,0,0,0,35,21,56,77,217
56,35,21,112,84,119,98,238,175,168,161,168,161,175,175,175,168,182,154,189,154,175,154,0,0,147,0,119,0,0,0,0,0,0,77,238,0,0,133,21,255,28,21,35,0,0,0,0,0,0,0,0,0,0,0,0,0,0,0,35,0,112,70,63
98,77,7,56,84,84,255,112,175,175,168,175,175,168,189,168,161,161,182,161,154,161,161,161,0,0,0,84,0,7,0,119,0,0,14,112,0,7,133,35,21,28,0,255,7,0,7,0,0,0,0,0,0,0,0,21,0,0,0,70,21,21,70,98
70,14,77,98,105,98,255,112,168,154,154,147,168,154,161,175,175,161,140,140,154,168,161,0,147,0,0,112,0,21,0,126,0,0,0,14,0,0,0,98,28,0,0,255,0,0,21,0,0,0,0,0,0,0,0,0,0,21,0,0,7,70,21,84
255,21,105,21,42,42,112,147,182,161,140,154,255,154,147,161,161,161,161,147,161,175,161,0,154,0,0,0,119,7,0,0,0,0,0,0,112,255,63,0,14,0,7,0,0,0,21,0,0,0,0,0,0,0,0,0,0,0,0,0,91,70,77,84
210,70,42,77,14,255,105,63,154,161,133,119,255,161,147,147,154,119,126,154,140,161,168,133,0,0,70,0,0,0,126,0,14,0,161,0,0,255,84,0,7,21,7,0,0,0,0,0,0,0,0,0,0,0,0,0,0,0,63,0,21,7,84,91
21,63,63,112,84,112,91,105,147,154,161,255,168,161,161,161,154,147,154,182,154,168,133,161,0,0,0,35,63,0,0,119,7,0,0,0,133,133,0,14,255,98,0,0,63,0,7,0,0,0,0,0,0,0,0,0,0,0,0,0,56,7,63,63
28,70,7,168,49,84,98,119,77,168,147,147,255,147,161,147,147,147,147,133,147,147,161,140,0,0,0,112,0,0,0,175,0,0,0,0,133,119,255,14,56,49,56,0,255,0,0,0,0,0,0,0,0,0,0,0,0,0,0,21,0,126,70,70
63,21,70,119,0,56,133,255,168,154,147,154,161,168,161,147,147,168,154,140,147,168,161,0,161,0,0,0,98,0,210,0,0,0,0,0,112,56,0,21,255,63,21,14,0,0,0,0,0,0,0,0,0,0,0,0,0,0,0,0,35,70,70,70
14,7,84,21,91,105,98,98,255,112,175,175,161,147,168,161,147,161,147,126,147,126,133,133,0,0,0,63,7,84,14,14,0,0,0,7,0,70,98,7,49,21,7,35,7,0,7,0,0,7,0,168,0,0,0,0,0,0,0,0,14,49,35,91
21,98,63,70,98,98,112,98,168,255,154,147,147,147,175,161,161,154,154,133,161,161,147,154,0,0,0,0,91,0,189,0,0,0,119,0,0,0,7,42,255,21,70,0,7,0,0,0,0,0,0,0,0,0,0,0,0,0,0,0,21,77,35,21
63,63,84,105,112,119,112,105,105,154,154,154,255,147,161,147,147,133,147,147,147,161,126,0,0,154,0,7,98,245,0,7,154,0,0,0,161,0,255,70,84,7,0,0,14,245,0,0,0,119,0,0,0,0,7,0,0,0,0,0,91,70,70,77
42,84,77,98,105,255,105,147,112,154,161,154,161,161,168,154,182,168,154,147,126,175,154,161,0,0,0,119,21,0,0,0,7,0,0,0,133,154,0,35,0,255,0,7,42,0,0,0,0,0,0,0,0,0,0,0,0,0,0,0,28,63,35,98
21,56,112,196,28,112,98,112,140,175,161,175,196,255,168,175,161,147,161,161,140,175,161,0,147,0,0,77,0,112,7,0,0,168,133,0,0,28,28,0,0,0,21,0,0,7,0,168,0,0,0,0,0,0,0,0,0,0,14,0,49,119,91,84
