5,40,30,50,240,80,75,65,75,85,100,80,90,80,70,70,50,70,60,0,70,30,75,10,0,0,60,0,15,20,5,0,0,0,0,50,65,5,35,0,30,0,5,0,0,0,0,0,0,0,0,0,0,0,0,0,0,0,5,0,0,15,40,55
185,60,20,40,70,75,55,60,80,70,240,65,50,55,50,55,35,35,35,10,0,70,75,40,0,0,0,85,0,0,180,0,0,10,0,105,0,5,110,240,10,45,0,0,0,0,0,0,0,0,0,0,0,0,0,0,0,0,0,0,35,5,15,0
40,60,25,45,45,70,75,240,80,70,70,55,55,45,45,50,40,50,55,50,45,0,0,0,0,0,70,0,0,5,5,180,0,120,0,0,90,0,5,0,25,240,5,0,0,5,0,0,0,0,0,0,0,0,0,0,0,0,45,25,0,0,15,25
25,20,0,20,30,60,80,70,95,65,60,65,230,70,60,40,45,50,60,50,35,35,75,30,0,0,0,0,80,0,15,120,240,0,0,80,0,70,240,25,0,25,0,5,70,0,0,5,0,0,0,0,0,0,0,0,0,0,0,15,15,25,10,35
30,10,25,5,25,70,210,70,75,240,75,60,55,60,50,50,60,55,0,0,60,55,55,35,0,0,0,60,0,0,0,95,0,0,95,0,0,105,60,240,50,5,10,0,0,25,0,0,0,0,0,0,0,0,0,0,0,0,0,5,5,20,25,30
35,5,55,30,60,140,70,230,95,85,65,70,65,80,70,45,55,55,70,70,70,60,70,0,0,0,0,95,0,0,0,95,0,0,0,0,100,0,120,40,20,0,0,30,240,0,0,0,0,0,0,0,0,0,0,0,0,0,0,0,30,35,20,5
60,60,40,35,50,65,65,55,240,40,60,65,65,70,35,45,65,50,40,40,50,0,50,40,40,0,80,0,10,0,25,80,115,0,65,0,0,5,0,85,0,240,0,0,0,10,5,0,0,0,0,0,0,0,0,0,0,0,0,5,5,15,25,45
30,35,5,35,235,55,105,75,65,60,70,75,75,35,50,40,40,50,50,35,25,45,50,60,0,0,0,100,140,10,0,0,95,0,0,0,0,155,0,240,5,0,0,45,0,0,0,0,0,0,0,0,0,0,0,0,0,0,10,0,5,0,35,45
60,35,15,20,50,70,220,55,70,35,85,65,65,35,55,45,60,25,55,45,35,40,45,40,0,0,0,65,5,50,0,0,0,0,110,0,75,0,65,15,0,5,35,10,0,0,0,0,0,0,0,0,0,0,0,0,0,0,0,0,10,40,35,45
50,85,5,75,35,30,90,70,60,60,65,65,40,55,65,40,35,40,25,40,0,30,0,0,0,0,0,65,5,160,5,5,0,0,100,0,0,0,80,45,10,15,50,0,5,0,0,0,0,0,0,0,0,0,0,5,0,0,0,0,5,15,50,50
5,55,5,65,35,165,70,80,60,50,45,50,40,50,35,40,25,25,40,240,40,0,65,35,5,0,0,95,5,130,5,0,0,90,0,0,0,55,240,5,40,0,0,0,0,0,0,20,0,0,0,0,0,0,0,0,0,5,0,0,30,0,10,40
20,25,10,10,60,70,55,70,50,75,80,85,60,85,50,50,60,60,45,50,0,95,40,45,0,0,0,80,0,160,0,0,10,70,0,0,105,0,0,5,10,0,0,5,0,240,0,0,0,0,5,0,0,0,0,0,0,0,0,0,10,15,15,200
15,20,20,160,25,70,50,55,80,240,70,60,90,60,50,60,55,55,55,70,55,80,55,45,50,0,50,0,5,110,5,70,0,0,0,115,0,0,240,0,0,35,5,0,5,10,0,0,0,0,0,0,0,0,0,0,0,0,0,10,10,0,25,25
35,35,20,5,40,55,75,60,70,235,70,60,60,60,70,60,65,60,60,35,0,40,70,0,0,0,0,80,0,15,0,120,0,0,40,0,5,0,5,0,240,70,0,0,5,0,0,0,0,0,0,0,0,0,0,10,0,0,0,5,35,0,25,15
30,5,10,25,165,50,50,70,70,85,60,50,65,50,55,65,40,65,65,45,60,70,50,30,0,0,0,5,80,145,0,0,90,0,0,0,0,0,10,10,15,0,0,35,0,0,0,0,0,0,0,0,0,0,0,0,0,0,5,0,5,15,20,25
35,15,5,35,25,35,80,55,70,70,50,55,60,45,60,50,50,30,45,50,45,55,40,0,0,0,0,80,10,100,0,0,115,0,0,0,55,0,0,0,5,240,0,15,0,20,0,0,0,0,0,0,0,0,0,0,0,0,0,10,10,35,35,35
35,5,35,20,130,205,65,80,70,75,80,70,50,240,50,65,55,65,35,55,0,75,50,0,5,0,0,0,5,60,0,140,200,0,0,80,0,120,240,40,0,0,0,40,0,225,0,0,0,0,0,0,0,0,0,0,0,0,0,5,10,15,40,35
35,60,15,0,45,60,60,70,90,225,60,75,80,50,60,55,55,55,40,60,55,0,55,0,40,0,0,65,30,0,0,0,85,0,70,240,0,120,25,55,0,5,5,5,0,0,0,0,0,0,0,0,0,0,0,0,0,0,0,0,15,20,55,45
35,15,30,15,70,95,70,60,105,90,240,55,60,60,50,55,60,55,65,35,0,65,55,35,0,0,0,70,175,10,0,10,0,75,0,0,110,240,5,10,5,60,0,240,0,0,0,0,0,0,0,0,0,0,0,0,0,0,0,0,15,35,40,25
45,15,85,35,150,55,240,55,90,80,60,60,60,60,35,50,35,30,35,40,90,40,85,0,15,0,0,70,0,65,0,0,240,60,0,0,130,140,75,10,5,0,115,240,0,0,10,0,0,0,0,0,0,0,0,0,0,0,0,10,0,25,30,30
35,125,95,135,30,80,70,60,120,100,240,100,70,70,50,30,75,60,60,50,60,0,95,65,0,0,0,90,5,135,0,0,60,0,0,0,0,150,240,5,15,0,205,5,0,0,0,0,0,0,0,0,0,0,0,0,0,0,0,0,5,15,5,30
45,35,30,50,55,75,240,65,75,70,70,65,60,60,55,40,55,50,45,0,70,65,40,0,0,0,0,95,5,0,180,240,0,0,0,0,0,70,5,5,0,25,0,0,240,0,0,0,0,0,0,0,0,0,0,0,0,0,0,15,0,30,30,30
80,80,15,30,50,70,80,50,90,65,240,85,70,80,105,45,50,45,35,40,55,35,0,45,0,0,0,70,5,0,0,175,0,0,0,5,70,0,125,240,5,0,10,0,0,0,0,5,0,0,0,0,0,0,0,0,0,0,0,0,5,20,35,25
35,50,85,30,150,60,235,70,60,80,60,45,60,70,75,75,70,70,60,50,50,25,50,30,0,0,0,65,20,0,60,0,0,15,0,95,115,0,15,95,15,5,5,240,0,0,0,0,0,0,0,0,0,0,0,0,0,0,0,0,15,10,25,35
40,125,40,5,50,55,195,105,75,80,55,240,70,70,45,80,60,60,50,70,70,50,75,0,35,0,0,75,0,0,0,0,0,0,150,0,0,240,80,5,0,40,0,25,230,0,25,0,0,0,0,0,0,0,0,0,0,0,5,5,0,30,30,30
15,40,20,60,85,55,240,105,80,100,70,110,80,95,80,95,65,60,40,70,105,85,140,50,35,0,65,0,0,0,0,150,0,240,0,0,85,120,10,25,240,0,0,55,15,0,165,0,0,0,0,0,0,0,0,0,0,0,0,0,35,40,50,70
40,70,10,60,35,70,60,70,70,80,60,240,75,70,70,45,55,70,55,50,40,60,50,80,0,0,0,75,5,0,185,5,0,0,0,40,155,0,240,25,0,35,5,0,10,0,5,0,0,0,0,0,0,0,5,0,0,0,0,0,45,40,15,25
5,5,5,40,40,70,65,60,205,80,90,75,65,65,75,80,70,50,75,75,65,55,45,50,0,0,0,65,0,5,80,0,0,0,40,0,0,130,5,15,10,0,55,220,0,0,0,0,0,0,0,0,0,0,0,0,0,0,50,5,40,0,90,40
5,0,40,65,60,60,65,95,65,240,75,95,90,65,75,60,65,55,65,55,50,0,60,0,85,0,0,15,100,5,40,80,5,0,0,0,0,240,0,10,0,20,10,240,0,0,0,0,0,0,0,0,0,0,0,0,0,0,0,5,40,10,15,40
35,20,90,40,60,65,240,85,60,70,65,70,55,95,55,75,50,45,60,60,50,45,70,45,10,0,0,65,5,0,0,15,0,0,0,0,80,0,65,5,40,0,0,30,240,0,0,0,0,0,0,5,0,0,0,0,0,0,0,0,10,5,25,10
40,40,25,55,180,60,70,60,95,240,80,70,50,55,65,65,50,60,65,60,75,90,70,55,70,0,0,0,75,0,0,90,0,0,55,0,0,0,240,105,5,30,0,0,0,0,0,0,0,0,0,0,0,0,0,0,0,0,0,0,10,15,5,5
20,5,15,70,55,80,210,60,65,60,80,90,85,100,70,40,55,70,55,50,70,65,60,0,55,0,0,5,60,160,0,5,0,0,95,0,35,0,105,10,0,240,0,20,35,0,0,195,0,0,0,0,0,0,0,0,0,0,0,0,5,20,20,30
60,5,40,60,240,65,105,45,85,75,80,80,90,75,65,80,50,55,65,50,45,45,40,50,25,0,0,0,0,85,0,0,10,0,85,0,10,0,0,25,10,30,0,240,0,0,0,0,0,0,0,0,0,0,0,0,0,0,0,0,10,0,60,30
150,25,70,105,55,35,85,85,85,240,80,55,55,60,60,60,60,45,50,50,60,40,50,45,0,0,0,85,0,180,0,0,0,0,120,0,0,0,240,145,35,0,20,5,0,15,0,0,0,0,0,0,0,0,0,0,0,0,0,0,25,0,20,5
20,25,45,45,55,50,45,235,70,105,70,75,65,75,60,45,55,45,65,80,30,60,65,60,0,60,0,0,0,0,0,155,5,0,0,0,95,0,0,25,0,0,20,0,240,0,0,0,0,0,0,0,0,0,0,0,0,0,10,5,0,15,30,20
20,100,5,10,70,80,55,60,95,70,240,60,85,70,60,60,60,60,65,60,65,60,60,35,0,0,90,0,0,0,15,70,0,0,30,0,0,0,150,45,240,0,10,0,0,15,0,0,0,0,0,0,0,0,0,0,0,0,0,0,10,25,0,5
30,30,70,35,75,90,60,70,80,55,70,75,65,55,90,240,40,65,55,45,50,70,45,0,0,0,0,65,10,0,95,0,0,0,110,130,0,240,5,10,25,0,5,180,0,0,0,0,0,0,0,0,0,0,0,0,0,0,0,0,10,15,30,60
60,35,10,15,50,60,60,70,85,240,75,70,60,70,60,60,65,60,60,65,0,80,50,0,0,0,0,15,70,0,0,0,0,5,120,5,0,120,35,15,25,10,0,0,0,0,0,5,0,0,0,0,0,0,0,0,0,0,0,0,10,15,35,45
0,25,45,15,50,50,45,105,55,65,85,240,45,65,50,55,60,55,65,75,75,85,80,0,0,75,0,5,0,0,180,95,0,0,0,75,5,0,240,20,60,0,0,15,0,0,0,0,0,0,0,0,0,0,0,0,0,0,0,0,10,20,15,30
10,15,40,15,85,95,55,50,235,75,65,85,80,50,75,50,60,80,80,55,80,70,70,0,85,0,0,85,0,0,0,0,0,0,5,0,25,60,165,5,15,15,0,240,0,40,0,0,0,0,0,0,0,0,0,0,0,0,0,0,45,25,50,15
30,50,25,55,20,60,80,85,95,70,80,90,240,70,80,60,60,75,60,65,75,65,80,55,0,0,70,0,75,5,25,0,0,0,0,60,0,110,0,30,5,45,0,0,15,0,0,0,0,0,0,0,0,0,0,0,0,0,0,25,50,0,25,25
5,45,50,55,35,85,50,80,240,90,70,65,70,70,50,65,65,75,60,80,65,65,60,0,0,0,0,5,55,105,0,0,95,100,0,0,0,0,60,0,45,20,240,0,70,0,0,0,0,0,0,0,0,0,0,0,0,0,0,10,0,20,30,25
35,50,0,60,185,65,60,70,95,80,80,85,240,100,60,40,50,60,45,75,70,60,75,40,45,0,0,60,0,0,15,0,120,0,0,0,60,240,40,55,50,10,240,0,0,5,0,0,0,0,0,0,0,0,0,0,0,0,0,5,10,15,15,30
30,15,60,85,65,70,50,50,80,240,90,70,75,70,80,50,35,60,70,65,55,75,80,65,0,0,0,75,0,0,120,5,0,0,45,140,0,0,40,15,240,5,10,5,0,70,0,0,0,0,0,0,0,0,0,0,0,0,0,5,15,5,10,60
40,65,15,165,55,65,215,70,80,70,65,70,70,90,55,80,240,90,75,50,80,80,65,60,0,0,0,100,15,185,0,0,210,0,100,0,105,0,95,50,0,0,0,240,0,0,0,0,0,0,5,0,0,0,0,0,0,0,0,0,25,30,185,20
25,20,45,0,65,35,60,195,145,240,60,80,65,50,50,40,60,70,80,55,65,65,70,0,30,0,85,0,0,0,0,0,0,0,0,0,0,0,15,240,75,5,0,20,0,0,0,0,0,0,0,0,0,0,0,0,0,0,0,0,10,10,25,35
25,55,25,70,40,30,170,70,115,80,85,85,70,80,85,95,70,90,240,55,85,95,0,85,0,0,65,0,0,0,160,0,165,0,0,85,0,0,10,35,0,240,15,0,0,0,0,0,0,0,0,0,0,0,0,0,0,0,0,0,10,5,20,10
5,5,35,20,70,50,230,95,55,90,90,70,75,60,65,80,70,80,80,80,80,70,80,235,0,0,0,85,0,0,0,95,0,0,0,155,0,0,240,105,10,35,0,0,25,0,0,0,0,5,0,0,0,0,0,0,0,0,0,0,5,15,40,40
50,50,30,50,50,85,60,105,40,75,65,70,240,85,65,85,70,80,80,85,90,85,95,0,0,40,0,80,0,0,0,0,5,0,230,0,100,240,0,5,205,70,5,20,0,0,0,0,0,0,0,0,0,0,0,0,0,0,0,10,0,15,35,60
40,80,55,70,50,70,230,60,80,110,75,70,65,75,95,95,50,100,75,75,65,95,60,0,0,0,0,165,75,0,10,0,0,0,195,0,235,70,0,0,50,45,5,240,10,0,0,0,0,0,0,0,0,0,0,0,0,0,0,0,5,10,30,30
