184,32,32,88,96,104,104,104,136,208,208,255,192,192,184,168,112,160,152,136,176,152,176,136,160,0,0,120,0,0,0,136,0,0,0,8,64,136,0,16,56,24,64,0,0,0,0,0,8,0,0,0,0,0,0,0,0,0,0,0,16,72,56,24
24,0,8,88,128,80,112,120,168,192,120,192,184,168,200,208,160,208,24,144,152,184,144,136,0,0,0,112,0,0,0,255,255,0,72,0,0,40,0,0,128,16,24,0,0,0,0,0,0,0,0,0,0,0,0,255,0,0,0,0,32,80,200,112
16,16,48,112,104,96,128,144,255,192,168,168,160,192,176,184,152,136,136,144,192,168,128,0,160,0,0,168,0,104,0,0,0,0,104,0,0,16,64,24,0,16,255,0,0,0,0,0,0,0,0,0,0,0,0,0,0,0,0,8,64,40,88,112
24,104,48,112,96,128,128,112,184,104,255,192,160,216,208,200,192,168,184,160,176,184,176,152,0,0,0,112,0,0,255,0,16,0,152,255,0,0,88,32,8,216,0,8,0,0,0,0,0,0,8,0,0,0,0,0,0,0,0,16,0,80,80,96
88,96,8,96,112,112,104,136,120,255,176,192,200,208,216,184,160,184,128,168,144,160,152,144,0,0,0,128,0,0,255,0,128,0,0,0,0,0,24,80,8,0,255,0,32,0,0,0,0,0,0,0,8,0,0,0,0,0,0,40,0,24,120,104
40,88,88,104,104,240,112,128,112,184,184,208,176,255,200,200,176,184,184,176,184,168,144,192,0,0,0,112,0,0,8,0,0,255,0,0,8,0,112,8,56,0,56,64,0,0,0,255,0,0,0,0,0,0,0,0,0,0,0,8,96,24,88,96
255,48,24,96,96,104,152,184,136,192,112,200,200,192,200,192,255,200,168,168,160,0,176,0,0,0,0,0,112,0,144,24,0,0,0,0,0,255,16,16,0,64,56,16,0,0,255,0,0,0,0,0,0,0,0,0,0,0,0,0,16,80,136,112
88,32,24,255,120,120,112,255,184,168,184,200,192,184,216,160,184,168,176,144,168,144,136,144,0,128,0,0,0,0,40,208,0,0,0,0,16,80,0,0,0,32,136,255,0,0,0,0,0,0,0,0,0,0,0,0,0,0,0,0,64,40,128,248
80,16,40,112,104,112,96,112,255,184,200,200,208,192,168,192,152,168,152,192,168,152,152,0,0,0,0,136,0,0,255,0,16,0,255,0,0,0,40,24,80,255,0,0,16,0,0,0,0,0,0,0,0,0,0,0,0,0,0,0,8,88,96,72
136,24,40,112,56,96,112,112,168,200,200,208,255,208,184,144,176,176,144,168,144,152,184,136,0,0,0,0,96,0,160,0,0,40,0,0,144,8,255,255,88,32,0,0,8,40,0,0,0,0,0,0,0,0,0,0,0,0,0,0,0,48,16,56
8,40,80,96,128,64,128,255,112,176,200,184,176,200,184,160,168,176,160,184,184,128,168,136,0,0,0,136,0,0,0,224,0,0,0,112,0,8,112,40,128,8,0,255,0,0,136,0,0,0,0,0,0,0,0,0,0,0,0,0,40,32,64,16
120,24,96,24,112,112,104,112,176,184,208,184,208,208,176,176,168,200,168,120,168,152,152,112,96,0,0,0,0,224,0,0,8,0,0,0,168,128,224,255,0,16,40,0,0,0,8,0,0,0,0,0,0,0,0,0,0,0,0,16,0,88,112,128
16,32,64,88,16,80,255,136,104,184,200,184,224,176,184,176,168,136,0,152,152,168,152,168,0,0,120,0,24,0,8,240,0,128,0,0,0,96,24,80,48,96,8,255,0,0,0,0,0,0,0,0,0,0,0,0,0,0,0,0,72,24,0,112
104,56,16,56,112,104,112,120,255,200,184,176,184,184,176,208,176,168,168,160,136,168,168,0,136,0,0,112,0,255,8,0,0,0,0,160,16,160,240,0,48,16,8,8,0,0,0,0,0,0,0,0,0,0,0,0,0,0,0,0,16,40,88,48
80,56,24,64,104,255,128,96,176,168,152,200,184,255,160,184,168,112,8,88,184,0,160,168,0,0,0,136,0,0,0,0,0,0,0,0,200,104,255,255,40,32,16,56,0,0,255,8,0,0,0,0,0,0,0,0,0,0,0,24,0,88,32,72
64,40,8,104,80,120,120,144,128,200,160,192,200,184,192,184,200,160,160,160,152,184,168,0,0,120,0,88,8,255,0,8,0,72,152,0,136,0,0,0,0,80,255,32,0,0,0,0,0,0,8,0,0,0,0,0,0,24,0,0,0,88,96,32
104,8,40,104,16,128,104,128,144,255,200,208,232,184,136,200,152,128,112,168,200,128,144,160,0,0,120,0,0,0,0,0,216,8,0,0,0,8,112,80,255,32,24,0,160,0,0,0,0,0,0,0,0,0,0,0,0,0,0,8,0,24,96,80
96,8,104,48,120,120,128,112,160,184,192,176,192,255,200,136,208,168,152,136,168,200,0,184,0,0,0,112,0,0,0,8,0,0,208,0,255,0,152,48,48,40,32,255,0,0,16,0,8,0,0,0,0,0,0,0,0,0,8,0,8,24,88,64
128,80,40,88,144,184,255,168,152,208,200,208,208,232,192,216,0,168,184,168,176,176,255,120,0,0,0,112,0,0,0,40,0,0,0,120,168,0,0,136,0,255,0,32,0,0,56,0,0,0,0,0,8,0,0,0,0,0,0,0,40,16,32,128
48,56,104,88,72,255,104,136,112,184,200,200,216,208,184,192,200,192,152,160,144,192,152,144,0,0,0,0,112,0,0,224,0,0,0,120,0,8,8,0,56,255,0,255,0,0,0,0,0,0,0,0,0,0,0,0,0,0,0,112,0,24,96,80
152,96,48,88,96,112,104,152,255,200,120,200,200,184,192,200,184,168,152,128,152,184,152,0,152,0,0,128,0,0,0,255,8,0,0,160,0,64,16,255,80,24,8,0,0,8,0,0,0,0,0,0,0,0,0,0,0,0,0,0,8,24,40,40
64,40,112,0,255,104,120,112,176,96,192,184,216,200,168,168,176,152,152,144,136,152,152,152,0,0,120,0,0,0,64,232,0,0,0,120,0,0,0,40,0,255,24,0,0,0,0,0,0,0,8,0,0,0,0,0,0,0,0,16,24,48,80,80
112,24,8,96,112,112,255,128,96,176,192,208,192,192,184,184,176,168,184,144,152,152,176,0,0,0,112,0,0,0,0,0,0,0,0,0,0,0,0,0,0,40,16,0,0,8,255,0,0,0,0,0,0,8,0,0,0,0,0,0,8,72,64,48
8,48,64,80,104,112,120,255,104,208,200,200,200,192,208,192,160,168,144,152,152,152,144,0,96,0,0,120,24,0,0,128,0,0,0,128,0,16,208,80,255,0,0,0,0,0,0,0,0,0,0,0,0,0,0,0,0,0,0,0,24,32,40,112
80,56,40,16,112,120,120,255,192,112,184,184,255,192,160,168,144,152,128,128,144,144,0,152,0,128,112,0,0,255,0,0,0,216,0,0,255,192,16,0,8,72,24,0,0,8,0,0,0,0,0,0,255,0,0,0,0,0,0,24,80,24,88,64
120,16,96,80,128,112,255,176,128,184,224,192,216,208,176,200,168,168,136,152,160,144,184,176,0,0,0,0,128,8,0,96,0,0,8,0,40,136,40,0,0,80,255,32,0,0,0,0,0,0,0,0,0,0,0,0,0,24,0,0,0,32,136,72
16,56,128,56,136,40,112,112,255,192,176,184,184,208,208,200,144,184,152,144,120,168,168,136,0,0,0,0,144,8,8,0,0,144,0,0,0,200,8,0,128,255,8,0,0,0,0,0,0,0,0,0,0,0,0,0,0,0,0,0,8,40,16,24
40,72,96,80,112,120,128,120,120,208,184,200,192,184,192,160,184,144,176,112,160,120,160,152,0,0,0,0,16,0,0,0,176,0,136,0,0,0,176,40,8,24,0,56,0,255,0,0,0,0,0,0,0,0,0,0,0,0,0,24,0,72,16,104
255,32,72,64,88,128,96,120,152,255,192,208,208,200,176,168,168,184,176,200,184,168,160,0,152,0,0,16,112,224,8,0,0,8,192,0,0,176,0,0,88,56,24,0,0,0,0,0,0,0,0,0,0,0,0,0,0,0,8,0,0,8,88,104
56,40,80,104,128,255,104,168,104,208,200,208,224,208,224,184,160,208,168,120,255,168,168,160,0,0,0,128,8,80,0,120,0,0,0,0,184,0,0,16,8,80,0,80,0,0,0,0,0,0,0,0,0,0,0,0,0,0,0,16,32,96,104,64
112,64,80,24,112,255,152,128,200,255,200,200,200,208,200,200,192,184,168,176,168,152,168,0,128,0,0,136,0,0,255,0,0,0,0,144,208,80,255,8,0,8,255,0,120,0,0,0,0,8,0,16,0,0,0,0,0,0,0,16,24,72,88,88
168,88,72,120,40,128,112,120,255,192,184,208,208,224,208,184,168,216,168,160,168,176,184,168,0,0,0,104,0,0,0,112,0,0,8,136,0,208,0,0,255,80,56,0,8,0,0,0,0,0,0,0,0,0,0,0,0,0,0,16,24,80,80,88
48,64,96,64,112,120,224,128,120,208,184,224,200,208,208,160,168,192,255,168,144,160,144,152,0,0,0,112,8,255,0,136,0,0,144,0,16,0,255,96,112,88,0,0,0,0,0,0,0,0,0,0,0,0,0,0,0,0,0,0,8,24,56,104
40,8,40,32,112,136,112,152,255,200,216,224,184,200,192,184,176,184,152,160,160,168,160,152,0,0,0,104,0,8,0,0,0,104,0,0,0,72,0,80,0,40,255,0,0,0,0,0,0,16,0,0,0,0,0,0,0,0,0,0,32,104,32,104
128,112,64,0,112,128,112,112,128,168,208,216,184,168,208,168,184,160,168,128,152,168,152,136,0,0,0,128,0,0,0,0,0,96,0,0,0,255,255,80,0,8,16,24,40,0,0,0,0,8,0,232,0,0,0,0,0,0,0,8,24,56,40,80
64,24,96,56,112,120,255,255,192,128,255,200,216,200,192,192,168,176,152,152,176,152,136,152,0,0,0,0,128,0,0,88,0,0,0,0,152,152,8,0,72,255,255,0,16,8,104,0,0,0,0,0,0,0,0,0,0,0,0,8,16,24,104,112
88,8,144,88,112,136,144,120,136,168,216,224,224,184,184,168,168,176,136,136,152,152,144,160,0,0,0,128,0,16,0,255,0,0,0,152,0,0,255,0,0,56,0,56,0,0,0,0,0,0,0,0,0,0,0,0,0,0,0,0,24,0,32,120
112,64,8,88,128,48,136,112,200,255,208,200,200,200,192,200,152,168,168,160,168,152,168,144,0,0,0,104,0,0,0,176,0,8,0,0,168,0,0,144,255,40,8,0,0,8,0,0,0,0,0,0,8,0,0,0,0,0,16,0,0,24,112,80
120,24,64,128,128,128,120,120,160,192,240,255,200,152,200,200,200,176,112,136,152,168,112,136,112,0,0,112,0,255,0,0,0,0,0,0,255,224,8,0,32,16,56,0,0,0,0,0,0,0,0,0,0,0,0,0,0,0,0,8,0,64,32,120
56,32,72,112,24,104,104,112,255,184,176,200,208,184,184,200,184,176,168,176,152,160,168,112,0,168,0,8,96,255,0,24,0,255,128,0,0,200,120,40,255,24,0,0,0,0,0,0,0,0,0,0,0,0,0,0,0,0,0,0,8,24,96,40
8,16,32,96,120,120,136,168,255,208,200,184,200,192,216,184,184,160,152,152,160,152,168,120,152,0,0,16,112,120,0,8,0,136,152,8,0,255,0,0,72,104,0,0,0,0,0,0,8,255,0,0,0,0,0,0,0,0,0,16,0,32,88,104
104,8,24,112,255,72,120,120,176,176,184,184,208,200,200,184,176,192,168,160,160,176,152,152,0,128,0,0,0,0,0,192,168,0,0,0,0,40,0,192,0,24,16,0,255,0,0,0,0,0,0,0,0,0,0,0,0,0,40,0,0,24,32,104
255,80,80,40,80,128,128,160,112,184,255,192,200,192,184,184,184,160,184,136,152,152,168,144,0,104,0,0,136,0,152,0,0,0,0,0,0,0,0,255,16,32,0,255,0,0,0,0,0,0,0,8,0,0,0,0,0,0,0,0,40,8,48,48
88,40,56,24,128,96,128,128,255,200,208,208,216,192,200,200,192,176,168,168,168,144,168,168,0,0,0,24,0,0,96,136,0,0,0,8,0,64,255,104,56,0,0,0,0,0,0,0,255,0,0,0,0,0,0,0,0,0,0,0,24,96,56,16
255,56,48,16,128,104,112,144,112,176,255,200,216,200,192,208,208,176,176,168,160,168,168,160,0,0,0,88,8,208,0,8,0,0,0,0,160,64,72,0,56,80,32,0,80,8,0,0,0,0,0,0,0,0,0,0,0,0,0,8,40,64,24,80
24,40,32,120,104,24,104,88,224,255,200,208,200,184,184,184,184,176,152,136,152,168,176,160,0,0,0,152,24,128,0,8,8,0,0,0,0,208,0,0,0,24,255,0,0,0,0,0,0,0,0,0,0,0,0,0,0,0,0,0,8,8,56,40
80,48,200,88,128,120,112,88,128,200,200,200,232,192,192,184,160,136,176,80,152,176,136,176,0,0,0,0,255,120,0,8,0,0,0,0,0,216,255,24,16,0,16,0,40,0,0,0,0,0,0,0,0,0,0,0,0,0,8,0,0,32,96,144
40,16,64,104,255,112,128,104,255,192,208,208,208,216,184,200,144,192,128,152,168,112,152,144,128,0,0,112,0,0,255,8,0,0,208,0,0,0,32,0,40,255,24,72,0,0,0,0,0,0,0,0,8,0,0,0,0,0,0,0,40,40,96,128
48,48,40,112,168,144,120,168,184,200,184,255,208,200,200,184,184,160,168,168,192,168,176,184,0,0,0,128,8,224,0,8,0,0,0,0,0,0,255,24,0,0,8,40,0,0,8,0,32,0,0,0,0,16,0,0,0,0,0,0,24,8,128,40
48,56,64,40,112,112,136,120,255,200,208,200,184,208,192,152,184,176,168,160,152,160,136,112,168,0,0,104,0,8,8,0,120,0,0,8,0,0,152,128,56,255,96,0,0,80,0,0,0,0,0,0,0,0,0,0,0,0,0,96,16,32,96,80
