56,49,14,49,210,98,84,84,119,133,119,255,112,119,119,133,112,119,119,133,126,126,112,133,0,0,0,126,7,238,0,14,0,0,0,126,0,255,0,14,14,7,7,14,7,0,0,0,28,0,0,0,0,0,0,0,0,0,0,0,21,28,70,77
84,91,91,91,84,77,91,98,63,119,255,119,210,119,119,140,112,147,133,140,133,119,133,112,126,0,0,105,14,252,0,0,0,21,0,0,98,255,7,119,255,91,0,0,0,0,0,0,0,0,0,0,0,0,0,0,0,0,0,35,0,21,77,56
98,14,126,56,35,84,168,84,112,105,98,84,255,91,84,105,98,91,84,105,98,84,91,98,0,0,0,119,7,182,0,7,0,255,0,0,7,0,255,0,0,0,0,217,0,14,0,0,0,0,0,0,0,0,0,0,0,0,0,21,14,0,56,84
70,21,56,84,70,84,91,63,255,105,98,119,112,98,112,112,105,84,98,84,98,84,91,98,0,126,0,0,0,98,7,42,0,0,161,0,7,0,0,7,21,14,7,0,255,0,0,0,0,0,0,0,0,0,0,0,0,0,0,35,0,35,49,28
91,56,14,91,255,49,105,84,70,112,112,112,255,98,91,91,98,105,91,105,112,98,119,98,105,0,0,119,7,224,0,0,0,119,0,0,0,255,7,119,7,0,49,21,255,0,0,0,0,0,0,0,0,0,0,0,0,0,0,0,28,35,49,35
91,28,56,70,49,105,255,56,119,126,133,147,112,126,126,119,147,133,119,119,126,140,119,112,84,0,0,119,0,0,196,0,0,0,161,0,0,126,63,182,0,0,0,56,0,0,0,0,0,0,0,0,0,0,0,0,0,7,0,0,35,14,49,77
63,70,7,42,112,119,112,98,133,119,126,112,119,119,105,133,112,105,112,119,105,70,112,98,0,0,0,119,0,0,0,126,0,0,0,119,105,147,0,7,49,255,42,7,0,0,0,0,0,14,0,0,0,0,14,0,0,0,7,35,0,56,35,49
84,14,21,42,70,255,84,84,70,98,98,105,105,98,98,255,84,91,98,112,105,112,56,112,0,0,7,0,0,112,182,7,0,0,0,0,0,255,0,182,21,21,0,7,7,0,28,0,0,0,0,0,14,0,0,0,0,0,0,0,35,35,84,98
91,56,70,56,63,98,70,70,126,91,112,105,105,98,112,91,105,98,98,98,98,105,112,112,119,70,0,0,0,126,0,0,91,0,0,0,252,0,14,49,77,255,0,0,0,0,0,0,0,0,0,0,0,0,0,0,0,0,0,0,14,49,70,49
63,0,7,91,35,255,70,112,84,126,133,133,126,255,147,133,105,126,119,126,126,140,140,84,105,0,0,98,7,112,0,119,42,0,0,0,98,21,161,49,255,42,0,0,0,7,7,0,0,0,0,0,0,0,0,0,0,0,0,0,35,49,28,77
98,70,49,91,105,98,245,70,112,105,112,84,105,91,112,98,112,105,255,98,112,105,112,98,0,0,154,0,0,21,0,231,0,0,175,147,255,0,0,0,21,28,0,49,0,49,0,0,0,0,0,0,0,0,0,0,0,0,0,35,14,70,77,84
70,112,14,84,70,77,70,255,70,133,105,112,119,105,126,98,119,98,119,119,70,112,98,84,105,0,0,112,0,133,0,14,0,0,140,0,140,0,0,0,0,35,0,0,255,28,0,0,0,0,0,0,14,0,0,0,0,0,0,0,7,77,56,77
196,0,84,35,70,91,91,84,84,255,119,105,91,119,98,84,91,91,105,84,91,91,91,112,0,105,0,126,14,245,0,0,0,0,126,0,0,255,255,133,21,49,7,0,35,14,0,0,0,0,0,0,0,0,0,0,0,0,0,35,0,0,91,63
98,21,35,70,91,84,255,77,133,98,105,119,255,98,112,105,112,112,112,98,112,105,98,105,0,77,77,0,0,196,0,0,0,0,0,133,0,0,91,0,255,7,0,21,0,7,0,0,21,0,0,0,0,0,0,0,0,0,0,0,35,21,42,0
14,21,91,105,77,49,112,112,255,105,126,98,112,105,105,112,98,105,105,105,98,112,112,98,0,0,0,112,0,0,14,0,0,182,0,0,84,0,0,14,91,21,0,0,0,0,0,0,0,0,0,0,0,0,0,0,0,0,0,0,28,42,42,35
56,98,77,42,70,98,91,84,112,252,112,91,112,98,119,105,105,105,98,98,105,112,112,0,0,0,112,147,0,0,21,126,35,0,0,0,0,0,0,70,84,35,0,255,0,0,0,0,0,0,0,0,0,0,0,0,0,0,0,0,21,0,7,84
77,70,84,56,35,84,77,112,91,133,119,112,98,91,91,91,105,105,84,105,105,112,105,98,0,0,0,112,0,0,0,0,0,112,0,0,0,154,42,28,28,0,255,0,0,0,0,0,0,0,0,21,0,0,0,14,0,0,0,14,0,77,56,35
77,77,126,105,98,70,70,84,126,119,255,105,105,98,98,91,112,91,98,98,98,112,112,112,0,91,0,0,0,147,0,98,255,0,7,0,0,255,0,0,0,21,14,7,0,0,0,0,0,0,0,0,0,0,0,0,0,0,0,0,21,49,42,42
14,98,42,98,84,70,255,255,126,255,112,112,119,105,91,105,112,98,112,119,112,119,98,112,91,0,105,0,0,0,0,231,182,0,0,7,98,203,77,14,0,255,0,0,14,0,0,0,0,0,0,0,0,0,0,0,0,0,0,35,0,14,49,63
91,63,28,98,70,49,255,133,84,112,112,98,140,119,119,140,112,119,112,119,255,119,119,98,0,0,0,112,0,0,0,140,224,0,0,0,196,105,0,7,255,7,0,0,35,0,0,0,0,0,0,0,0,0,0,0,0,0,0,35,0,28,63,77
35,42,77,63,84,49,70,77,112,112,105,105,255,105,112,91,105,98,105,119,112,98,112,98,0,0,0,84,0,0,77,0,147,0,0,0,255,255,14,133,0,21,0,7,0,0,0,0,0,0,0,0,0,0,0,0,0,0,21,0,0,21,70,56
35,21,98,77,77,84,70,119,98,112,255,112,112,98,98,98,98,98,98,98,98,98,98,112,91,0,0,21,91,189,0,0,14,0,7,0,0,0,70,21,255,0,0,0,35,0,0,0,0,0,0,0,0,0,0,0,0,0,0,0,7,35,63,91
77,77,56,49,84,84,63,255,112,119,147,119,98,112,105,119,112,112,112,105,112,98,98,0,98,0,0,84,35,0,0,84,0,7,0,0,0,217,147,21,0,35,255,7,0,0,0,0,0,0,0,0,0,0,0,0,0,0,0,0,28,14,42,49
14,42,21,91,49,84,70,70,119,112,255,112,105,112,98,119,98,98,98,91,98,98,105,98,0,0,0,84,7,231,0,7,0,0,147,0,126,63,0,255,0,0,0,28,7,7,0,0,0,0,0,0,0,0,0,0,0,0,0,0,42,49,42,28
255,70,21,77,98,77,77,255,126,112,119,119,119,119,112,112,119,105,126,119,112,112,133,105,112,0,0,140,0,0,0,133,0,0,0,63,7,0,77,0,14,42,21,0,0,0,0,0,0,0,0,0,0,0,0,0,0,0,0,0,21,28,35,70
49,7,21,56,84,70,70,77,84,105,112,255,98,119,112,98,98,98,112,105,105,91,98,98,84,0,0,112,0,0,0,161,0,217,0,0,126,255,0,98,21,21,0,0,0,7,0,0,0,0,0,0,0,0,0,0,0,0,0,28,0,21,91,77
77,77,7,28,91,49,91,255,77,119,112,105,105,98,105,112,98,112,105,112,112,112,91,91,98,0,0,126,0,0,0,0,0,0,0,0,84,255,7,84,21,0,0,7,255,0,0,0,0,0,0,0,0,0,7,0,0,0,0,0,14,21,42,35
21,21,91,49,112,56,77,105,105,119,255,98,119,112,119,133,98,105,112,112,112,112,119,105,84,0,0,0,56,245,0,0,0,0,0,0,0,255,255,0,0,0,21,0,0,0,0,0,0,0,0,0,0,0,0,0,0,0,0,14,0,35,56,70
0,42,56,56,98,77,255,91,119,119,112,112,98,105,112,105,133,105,98,98,105,105,112,105,0,0,112,0,0,0,0,196,0,255,0,0,168,133,0,56,0,56,0,255,21,0,0,0,0,0,0,0,0,0,0,0,0,0,0,0,42,35,42,70
245,84,49,49,70,98,119,112,133,112,255,98,98,112,98,98,98,105,112,98,105,112,98,0,84,0,0,140,133,7,0,0,14,0,0,0,161,56,133,255,70,0,7,7,0,0,0,0,0,0,0,0,0,0,0,0,0,0,0,49,0,35,70,42
0,35,21,49,84,255,91,70,70,119,105,105,105,98,105,119,255,91,112,98,119,105,84,112,63,0,0,98,0,0,105,0,14,21,98,0,0,0,91,255,0,0,7,35,0,0,0,0,0,0,0,0,0,0,0,0,0,0,0,28,49,21,77,70
35,14,63,56,91,70,105,126,112,255,112,133,105,105,119,112,126,98,112,119,112,112,98,98,0,0,0,0,0,84,84,7,0,0,0,0,0,196,49,0,0,0,255,0,0,21,0,0,0,0,0,0,0,0,0,0,0,0,0,0,35,14,77,49
98,70,84,7,63,119,84,91,56,255,126,98,112,98,98,105,112,98,105,119,98,112,105,105,0,0,0,0,105,0,0,0,0,0,0,154,0,0,0,42,255,21,7,35,0,0,0,0,0,0,0,0,0,0,0,0,21,0,0,0,0,14,70,49
70,70,0,77,84,105,98,112,255,126,133,133,112,126,119,133,119,126,112,126,126,112,119,133,84,0,0,112,0,0,161,7,0,0,0,0,210,182,119,0,0,0,255,21,0,0,7,0,0,0,0,0,0,0,0,0,0,0,0,7,14,35,21,84
91,70,21,84,70,112,77,119,133,112,255,119,119,105,105,84,112,112,105,105,112,98,105,105,84,0,112,0,0,0,70,7,0,0,0,255,49,0,0,35,84,0,255,0,0,0,42,0,0,0,0,0,0,0,0,0,0,0,0,0,56,49,63,70
28,77,49,56,84,255,84,70,133,98,126,255,119,112,105,112,119,105,98,112,105,112,112,105,105,0,112,0,0,255,0,0,0,231,0,119,0,0,56,255,105,7,0,49,0,0,7,0,0,0,0,0,0,0,0,0,0,0,0,0,28,49,28,70
49,56,70,28,70,98,84,255,119,70,98,98,105,112,112,112,119,112,112,98,112,112,119,112,91,0,0,119,231,154,0,0,0,0,140,0,0,0,0,77,35,77,0,0,0,0,255,0,0,0,0,0,0,0,0,0,0,0,0,0,154,28,28,35
77,98,14,0,84,147,77,255,63,119,112,105,105,119,119,112,98,119,112,98,126,105,105,0,98,0,0,0,112,0,0,255,0,0,0,168,0,161,0,0,255,84,7,7,0,0,14,0,0,0,0,0,0,0,0,0,0,0,0,0,35,35,28,77
35,63,91,84,14,70,255,105,112,119,98,98,105,112,105,98,98,98,112,98,98,105,91,112,0,70,0,0,119,0,0,147,0,0,7,0,84,105,42,0,0,7,7,0,255,0,0,0,0,0,0,0,0,0,0,0,0,0,0,0,21,14,21,98
7,21,21,35,56,77,91,98,255,98,119,119,98,105,98,84,98,112,98,105,98,98,112,133,0,0,140,0,0,0,255,0,140,0,7,0,168,14,35,119,28,21,14,0,255,84,0,0,0,0,0,0,0,0,0,0,0,0,0,0,63,21,56,35
70,77,0,49,119,126,133,126,98,255,105,126,112,112,112,105,119,98,105,112,112,112,98,112,0,0,119,0,21,0,0,0,196,217,119,0,0,0,0,56,7,7,0,49,7,0,7,0,0,0,0,0,0,0,0,0,0,0,0,0,35,49,63,35
70,0,77,98,91,217,112,77,91,98,133,98,105,98,112,255,98,98,84,98,105,98,98,98,84,0,0,133,175,7,0,0,0,0,0,255,0,0,147,7,0,21,7,0,0,35,0,7,0,0,0,0,0,0,0,0,0,0,0,28,14,35,49,77
70,70,21,91,98,119,119,112,91,126,255,112,112,119,112,112,98,119,98,112,105,112,105,0,91,77,0,0,210,0,0,7,0,175,0,154,0,91,168,255,21,0,0,35,0,0,0,0,0,0,0,0,0,0,0,0,7,0,0,21,7,35,70,42
70,105,7,70,70,98,98,112,255,119,112,98,98,98,126,112,105,112,98,112,105,112,126,119,98,0,0,0,84,224,0,49,0,0,133,0,0,210,0,0,0,49,0,0,255,0,0,0,0,0,0,0,0,0,0,0,0,0,0,70,28,0,35,255
63,63,63,98,105,77,77,126,255,98,112,119,119,112,119,119,105,105,112,112,112,119,105,0,105,0,112,0,7,245,154,0,0,0,0,0,0,56,0,7,0,35,0,0,28,0,0,0,0,0,0,0,0,0,0,0,0,0,28,0,14,42,35,56
91,56,91,84,231,119,98,255,112,126,105,112,112,119,112,119,126,112,105,112,112,119,119,119,0,0,0,98,0,0,7,231,0,0,0,0,0,119,7,98,7,0,14,0,0,0,0,0,0,0,0,0,0,0,0,0,0,0,0,14,0,28,0,70
42,49,7,7,84,70,77,77,112,126,119,119,112,119,133,112,98,119,119,126,98,112,126,119,0,0,0,0,112,245,0,7,0,0,0,105,0,0,112,255,91,70,49,0,0,0,7,0,0,0,0,0,0,0,0,0,0,0,0,28,35,21,56,70
70,70,70,56,70,105,98,49,112,119,126,119,126,126,112,112,119,105,119,133,119,98,105,119,0,0,0,0,112,14,105,0,0,154,0,0,154,0,70,14,0,255,0,0,7,0,0,0,0,0,0,0,0,0,0,0,0,0,0,0,21,63,42,7
84,49,63,77,84,255,119,112,98,105,133,119,112,112,126,133,255,119,98,119,119,126,112,0,119,0,0,133,14,0,0,0,161,0,0,105,7,91,0,0,255,21,7,14,0,35,0,0,0,0,0,0,0,0,0,0,0,0,0,0,28,70,42,63
56,56,63,35,84,255,84,119,126,126,133,133,133,112,112,126,112,112,112,105,105,133,133,105,119,0,0,105,0,0,0,238,0,0,7,0,70,0,0,14,63,56,7,0,0,0,0,0,0,0,0,0,0,0,0,0,0,0,0,0,35,63,63,21
