21,77,84,21,119,77,140,98,147,161,147,154,140,147,147,154,175,175,161,147,255,154,161,147,0,0,98,0,7,0,0,196,0,0,0,7,0,70,161,255,56,28,0,0,0,0,0,0,0,0,0,0,0,0,0,0,0,0,0,0,21,21,49,105
49,84,70,119,91,84,98,126,147,133,147,161,140,147,147,154,140,119,119,119,140,112,147,133,0,0,0,112,0,21,203,0,0,0,112,0,0,140,0,0,7,0,7,14,0,0,0,0,0,0,0,0,0,0,0,0,0,0,0,0,14,56,0,112
70,56,91,98,84,77,105,112,147,147,255,154,154,154,140,147,154,133,133,126,140,133,119,133,91,0,0,91,0,0,112,0,0,0,0,7,126,0,255,91,35,14,0,119,0,0,0,0,0,0,0,0,0,0,0,0,0,0,0,35,14,0,42,49
70,56,49,91,70,98,112,140,255,133,140,133,133,140,133,147,119,133,126,119,140,126,126,119,0,91,7,112,0,255,0,21,0,0,168,0,0,189,119,0,0,255,255,21,182,0,0,0,0,0,0,0,0,0,0,7,0,0,0,0,0,49,49,56
35,0,252,98,84,91,105,147,112,126,119,119,119,112,126,105,119,91,105,140,84,77,147,119,0,0,126,0,0,0,0,49,70,0,217,0,203,140,255,133,0,49,0,56,0,0,0,0,0,0,0,0,0,0,0,0,0,0,0,35,0,35,49,56
119,84,49,91,98,105,119,147,98,140,119,140,147,147,147,133,119,140,112,126,112,126,126,0,140,98,0,112,0,0,255,0,0,0,147,0,0,0,98,126,255,7,0,0,0,0,0,0,0,0,0,0,0,0,0,0,0,0,0,0,21,35,63,21
35,42,77,224,91,105,255,98,126,133,126,133,140,112,126,126,112,112,119,112,105,140,147,119,63,0,0,7,0,98,21,255,147,98,112,0,0,0,21,77,21,7,14,0,255,35,0,0,0,0,0,0,0,0,0,0,0,0,0,21,7,49,56,196
98,63,77,70,84,98,140,98,168,255,126,126,133,119,133,126,133,133,126,119,119,112,119,63,0,0,0,105,0,14,0,0,0,0,255,0,0,245,21,0,7,255,0,21,0,0,0,0,0,7,0,0,0,0,0,0,0,0,0,0,0,21,21,42
63,7,84,77,77,98,203,112,161,140,126,133,119,112,140,255,119,98,98,147,0,91,119,133,0,0,14,0,119,224,21,0,0,112,0,217,0,210,0,0,255,63,35,0,0,91,0,0,0,0,0,0,0,0,0,0,0,0,0,0,7,63,42,42
255,91,35,98,77,105,112,119,255,147,119,147,119,119,126,126,119,119,105,133,133,119,119,119,0,0,0,119,0,0,0,0,231,0,0,0,0,98,0,21,35,7,0,7,0,7,0,0,0,0,0,0,7,0,0,0,0,0,0,35,14,0,49,21
63,84,255,105,98,252,84,112,126,126,133,126,126,126,255,119,147,112,112,119,112,119,133,98,70,0,0,98,42,0,0,161,0,0,0,126,255,0,0,255,28,14,0,0,255,0,0,0,0,0,0,0,0,0,0,0,0,0,0,0,28,21,28,42
35,49,70,112,70,91,112,126,91,255,147,140,133,126,133,126,119,126,112,119,112,112,112,98,0,84,0,112,0,0,255,0,0,35,0,0,133,77,161,7,0,255,14,0,0,7,0,0,0,0,0,0,0,0,0,0,0,0,7,0,0,28,0,77
98,56,105,91,112,63,112,119,112,255,126,119,126,126,126,119,126,112,119,133,112,140,140,126,0,0,0,133,0,0,245,14,0,0,252,255,133,0,7,42,7,112,0,56,0,255,0,0,0,0,0,0,0,0,0,0,0,0,0,28,21,28,70,35
98,49,140,255,119,105,112,161,147,255,126,133,126,126,133,119,119,119,119,133,119,140,126,119,0,70,0,119,0,119,0,0,0,0,0,210,196,0,0,0,0,255,7,14,0,0,0,0,0,0,0,0,0,0,0,0,0,0,0,0,21,21,35,7
63,42,147,14,84,112,105,168,112,147,126,126,119,126,147,119,133,112,126,77,98,105,133,112,0,0,0,98,35,0,0,0,133,0,255,182,91,105,255,0,49,0,49,0,21,0,0,0,0,0,0,0,0,0,0,0,0,0,0,63,0,7,84,35
119,84,0,91,255,91,119,105,255,126,147,126,126,126,119,112,126,112,105,98,98,105,119,98,84,0,0,126,7,0,255,7,0,91,0,255,0,0,105,0,255,0,0,0,0,0,0,0,0,0,0,0,0,0,0,0,0,0,0,0,7,35,21,21
98,28,112,91,84,105,119,112,147,147,140,255,126,119,119,133,119,119,112,0,140,133,119,98,77,0,0,119,0,119,0,0,175,0,0,0,0,245,42,21,255,0,0,21,0,0,0,0,0,0,0,0,0,0,0,0,0,0,0,0,21,21,35,28
255,14,35,91,98,119,98,119,255,147,147,147,126,119,119,133,119,119,105,105,84,126,112,84,0,0,0,0,0,119,255,14,0,0,0,196,7,0,56,0,7,255,0,0,0,7,0,0,0,0,0,0,0,0,0,7,0,0,0,0,35,14,77,56
91,35,119,63,175,98,119,147,112,133,147,147,147,255,140,119,140,119,140,98,84,140,105,105,0,0,105,0,0,255,0,147,0,0,126,0,255,0,98,147,0,21,255,0,0,0,7,0,0,0,0,0,0,0,0,0,0,0,0,21,0,63,28,42
105,35,7,84,77,105,119,112,112,147,133,140,133,126,112,112,98,105,119,105,140,112,140,0,98,0,0,7,0,91,0,203,0,0,0,7,112,154,0,21,7,255,7,42,196,0,7,0,0,0,0,0,0,0,7,0,0,0,0,0,7,14,84,91
56,63,217,255,84,98,112,147,119,182,140,140,255,119,112,119,119,119,126,112,119,126,98,112,98,0,0,119,0,0,175,0,0,0,255,98,0,140,255,7,0,0,7,0,0,0,0,255,0,0,0,0,0,0,0,0,0,0,0,0,35,35,49,49
91,77,84,255,91,112,255,98,161,140,133,147,231,133,255,133,119,112,112,105,98,119,126,0,119,0,0,126,217,21,0,0,0,0,0,0,147,0,255,0,7,0,35,7,0,0,0,0,0,0,0,0,7,0,0,7,0,0,0,0,14,35,56,77
91,14,84,56,105,119,119,112,255,133,154,133,126,119,133,119,119,112,0,119,140,140,147,112,0,0,0,140,0,0,21,119,0,0,105,210,0,7,7,119,49,255,0,0,0,21,0,0,0,0,0,0,0,0,0,0,0,0,0,0,7,21,63,63
105,70,245,21,91,105,98,119,161,140,147,133,255,133,133,126,140,119,84,133,105,133,147,126,0,0,0,105,21,189,0,7,0,133,0,0,0,255,77,0,0,35,7,0,0,0,255,0,0,0,0,0,0,0,0,0,0,0,0,0,35,7,112,21
42,63,147,56,105,105,255,98,133,168,161,147,147,140,133,133,119,112,147,119,119,126,126,126,70,0,0,133,7,0,35,112,0,0,0,119,0,210,0,0,77,35,7,0,0,255,0,0,0,0,0,0,0,0,0,0,0,0,0,0,21,28,42,98
255,56,84,255,112,105,105,112,161,133,255,140,133,133,140,119,133,119,119,112,112,126,105,0,0,91,0,0,0,0,140,21,0,0,255,0,0,161,0,255,105,0,0,14,0,0,42,0,0,0,0,0,0,0,0,0,0,0,0,35,21,28,70,35
91,175,91,42,91,112,49,255,154,133,140,147,133,140,119,112,112,112,98,105,112,84,112,119,98,0,0,126,0,0,0,0,161,0,0,0,35,0,14,119,0,21,49,255,0,0,7,0,0,0,0,0,0,0,0,0,0,0,0,21,14,28,112,70
91,126,91,56,224,126,112,112,147,154,154,133,154,126,133,133,119,133,133,147,126,119,140,98,0,0,0,126,0,0,7,0,98,0,84,0,0,255,91,0,49,70,0,7,0,0,7,0,0,0,0,0,7,0,0,0,0,0,0,0,7,21,49,0
182,35,70,70,98,133,112,112,112,255,154,161,147,133,133,126,133,133,133,112,133,112,140,119,0,0,0,119,0,0,0,0,84,0,0,14,154,0,35,0,126,255,7,0,0,0,0,0,0,0,14,0,0,0,0,0,0,0,0,21,7,7,56,35
255,28,21,105,112,35,98,255,119,255,154,147,154,147,140,133,133,154,140,126,119,126,119,119,0,0,0,147,0,0,28,147,0,0,182,0,77,63,0,21,56,0,56,7,0,255,0,0,0,0,0,0,7,0,0,0,0,0,0,21,0,14,35,255
35,42,98,98,49,112,133,105,161,255,154,210,147,140,147,140,133,126,119,126,133,140,119,147,0,84,0,105,7,203,0,255,0,0,7,0,0,98,255,105,0,49,0,0,14,0,0,0,0,0,0,0,0,0,0,0,0,0,0,0,77,14,35,84
238,98,7,91,35,105,140,255,140,168,161,161,147,154,154,140,161,126,147,126,140,133,147,133,0,0,119,0,0,0,7,49,255,0,0,0,154,0,63,14,63,49,0,7,0,0,0,0,0,0,0,0,0,21,0,0,0,0,0,0,14,21,49,77
255,119,14,84,98,112,112,175,147,161,161,255,147,161,147,140,147,133,119,133,133,161,147,112,0,0,0,105,0,49,147,0,0,0,0,0,0,0,14,255,42,7,28,0,0,0,0,0,0,0,0,0,0,0,0,0,0,0,0,7,0,21,56,21
28,42,35,98,133,119,105,255,147,119,147,161,147,140,161,140,119,147,119,98,105,105,112,0,0,0,0,0,0,112,224,0,0,7,0,0,0,84,255,21,14,0,255,0,0,0,0,21,0,0,0,0,0,0,0,0,0,0,0,63,0,14,14,42
70,98,21,91,112,98,112,119,112,168,255,147,147,154,147,154,140,133,126,119,126,147,140,147,0,0,0,105,14,0,0,7,0,147,0,0,0,112,21,0,77,84,0,98,0,255,0,0,0,0,0,0,0,0,0,0,0,0,0,21,21,35,84,56
84,21,56,21,98,56,119,255,154,154,140,168,147,161,147,147,147,126,133,147,119,133,147,126,98,0,0,91,0,0,0,231,0,0,0,119,7,126,0,84,56,0,255,0,49,0,0,0,0,0,0,0,0,0,0,0,0,0,0,0,7,42,98,21
238,35,84,98,105,84,105,98,161,175,133,255,154,147,147,154,133,119,133,119,133,126,147,112,0,0,0,84,0,0,224,0,0,0,0,0,126,70,255,63,28,0,0,0,0,0,0,0,0,0,0,0,0,0,0,0,0,0,0,0,35,35,21,84
84,98,21,14,91,84,255,84,112,182,161,147,147,147,133,154,140,126,126,126,126,126,119,105,0,0,0,133,0,7,0,21,0,0,154,0,0,98,0,112,14,255,0,0,0,0,0,0,0,0,14,0,0,0,0,0,0,0,0,7,7,21,28,0
255,255,28,56,98,98,119,105,154,154,154,255,175,154,147,133,147,105,147,112,126,126,133,147,0,0,0,105,0,0,0,147,0,0,0,0,70,0,126,0,0,21,0,0,0,0,0,255,0,0,0,0,7,0,0,0,0,0,0,0,49,21,49,98
91,42,255,21,98,105,255,112,161,147,161,168,189,154,154,255,126,154,133,112,133,154,133,147,0,0,0,98,0,0,245,14,63,133,0,0,0,182,147,0,7,14,0,7,255,0,0,0,0,0,0,0,0,0,0,0,0,0,0,0,35,28,70,70
210,231,63,255,98,119,112,161,255,161,154,168,161,168,147,168,154,133,119,126,140,147,112,126,0,0,112,0,21,245,0,7,0,0,0,255,0,84,0,7,0,70,14,255,0,0,0,0,0,0,0,0,0,0,0,0,0,0,0,42,35,7,77,98
255,98,49,161,112,98,98,98,161,154,154,255,168,161,161,147,147,147,126,140,133,126,133,119,35,0,0,119,0,0,0,70,21,0,0,210,0,0,255,42,0,35,0,28,0,0,0,0,0,0,0,0,28,0,0,0,0,0,0,0,35,14,35,70
14,224,56,42,98,119,112,112,255,168,154,154,161,140,161,147,140,147,140,140,147,91,154,147,133,0,0,105,0,252,0,0,21,0,0,0,0,147,175,0,7,255,0,14,0,0,0,0,0,0,0,0,0,7,0,0,0,0,0,0,0,21,49,84
70,14,49,70,77,119,126,147,98,161,161,161,255,161,133,140,147,133,133,126,119,119,119,119,0,0,0,126,0,0,0,0,0,119,0,0,0,168,255,0,7,0,35,0,0,7,0,0,7,0,0,0,0,0,0,0,0,0,0,0,35,35,56,28
14,77,0,49,119,91,119,255,161,168,154,168,161,161,133,147,133,119,147,140,105,126,119,133,0,0,0,98,112,7,0,0,0,175,0,0,7,0,0,14,0,35,0,255,0,7,0,0,0,0,0,0,0,7,0,0,0,0,0,0,63,35,14,70
231,70,21,49,112,91,112,112,154,154,147,255,175,168,154,147,154,133,119,133,147,112,126,119,84,0,0,98,112,0,0,7,255,0,0,0,0,231,255,0,42,0,0,105,0,0,0,0,0,0,0,0,0,0,0,0,0,0,0,0,7,91,49,91
56,7,7,105,63,63,112,119,147,175,168,161,161,147,126,161,140,126,126,112,126,119,112,119,56,0,0,112,7,98,0,0,0,0,0,217,0,0,0,0,0,7,255,0,0,0,0,0,0,0,0,0,0,0,0,0,0,0,0,0,42,7,56,77
119,0,84,35,133,84,112,119,147,154,168,161,255,161,133,154,126,126,119,147,112,133,133,119,0,0,0,84,0,0,0,7,255,0,133,0,0,224,0,255,0,28,133,0,0,0,0,0,0,0,0,0,0,0,0,0,0,0,0,49,28,42,56,63
255,49,70,98,98,255,105,119,105,147,154,147,161,154,147,126,133,133,133,126,84,126,119,98,119,0,0,133,0,0,91,0,7,0,140,0,91,0,140,7,14,255,105,0,14,0,0,0,0,0,0,0,0,0,0,0,0,0,0,21,7,21,91,21
63,56,231,28,84,112,91,112,168,112,182,255,147,133,154,154,133,126,98,140,119,133,133,147,0,105,0,133,154,7,0,7,0,0,0,154,0,210,255,28,0,49,0,7,28,255,0,0,0,0,0,0,14,0,0,0,0,0,0,21,0,21,70,56
