5,25,55,5,80,70,30,70,55,110,110,125,120,105,125,100,95,95,90,50,90,95,80,80,0,0,0,85,0,0,15,0,0,0,50,60,5,105,0,5,25,20,240,0,10,0,0,0,0,0,0,0,0,0,0,30,0,0,0,0,5,55,50,40
0,140,25,35,25,60,80,80,70,115,100,120,240,85,65,105,105,85,60,35,80,75,35,30,50,0,0,25,75,0,0,0,5,0,0,0,125,240,35,35,5,10,15,0,0,55,0,0,0,0,0,0,0,0,0,35,0,0,0,10,25,45,60,55
10,60,10,10,45,40,60,75,120,70,115,100,110,115,105,90,115,75,85,35,85,0,55,80,105,0,0,0,0,30,5,60,0,0,0,0,0,130,0,0,0,240,70,0,10,0,0,0,0,0,0,0,5,0,0,0,0,0,0,0,60,50,35,15
25,10,50,15,50,70,220,80,80,120,75,75,80,80,70,70,60,0,55,65,65,40,60,40,80,0,0,115,0,35,25,0,0,0,125,0,55,0,5,0,45,5,25,0,0,5,240,0,0,0,0,0,0,0,20,0,0,0,0,0,10,40,180,50
25,30,5,55,55,70,70,70,70,80,90,95,80,100,90,70,75,75,65,85,60,80,80,0,0,0,0,0,120,155,0,40,0,0,0,0,95,25,10,80,240,35,0,5,10,0,5,0,0,0,0,0,0,0,15,0,0,0,0,5,40,5,40,50
30,30,35,30,65,240,70,80,70,85,75,100,80,95,80,75,65,80,60,65,90,55,45,0,0,0,0,135,0,0,20,0,0,0,0,145,0,0,35,15,20,0,35,75,240,5,0,0,0,0,0,0,0,0,0,0,0,0,0,20,0,30,60,55
25,180,50,70,30,75,75,70,80,240,85,85,90,50,105,80,65,70,90,105,85,60,50,75,0,0,0,125,0,0,40,0,150,0,0,0,0,15,20,240,60,40,0,0,10,0,0,0,0,0,0,0,0,0,0,0,0,0,0,25,0,40,35,40
40,50,35,15,60,75,70,65,90,120,70,90,115,75,85,75,50,55,60,80,70,55,60,40,50,0,0,0,115,40,55,0,0,85,0,0,140,70,0,30,20,240,0,15,0,0,0,0,0,0,0,0,0,0,0,0,0,0,0,5,0,25,40,50
25,30,205,40,50,60,85,80,70,100,95,100,85,70,240,80,70,75,75,65,95,0,0,65,0,0,0,85,60,70,0,0,0,0,0,0,90,0,15,240,60,0,20,0,0,0,0,10,0,0,0,0,0,0,0,0,0,0,0,10,0,20,5,35
20,45,5,35,65,65,80,85,100,115,80,85,95,100,90,80,85,90,80,85,70,75,65,100,60,0,0,105,0,15,155,0,10,0,105,0,0,0,0,80,240,30,5,0,10,0,0,0,0,0,0,0,0,5,0,0,0,0,0,5,0,30,50,5
15,40,60,25,55,65,210,70,105,85,100,70,70,100,90,95,95,95,75,85,90,240,0,0,100,0,0,95,0,40,0,10,70,0,0,0,0,45,0,70,5,240,25,40,0,0,0,0,0,0,0,5,0,0,0,0,0,0,0,0,40,40,20,65
50,35,60,30,15,50,210,65,95,105,125,65,75,65,70,95,50,75,85,0,60,75,240,85,0,0,0,130,0,0,20,0,70,0,0,175,0,0,240,10,35,45,10,0,0,0,60,0,0,0,0,0,20,0,0,0,0,0,0,10,35,5,40,40
15,65,70,30,55,85,230,70,65,105,105,125,125,90,95,85,85,240,100,80,75,55,85,0,0,0,0,145,0,40,15,0,120,0,0,0,0,70,15,240,0,5,0,25,0,5,0,0,10,0,0,0,0,0,0,0,0,0,0,0,45,50,10,40
55,5,35,55,65,60,70,235,65,95,105,115,115,115,80,85,95,100,80,70,95,80,85,75,55,0,0,90,0,15,0,5,180,0,105,0,105,0,40,70,20,15,240,0,0,45,0,0,0,0,0,0,0,0,0,0,0,0,0,40,25,30,35,35
35,160,15,35,50,85,60,70,105,115,105,240,70,105,115,60,105,30,95,30,90,0,95,0,55,0,75,0,0,0,175,0,0,5,85,0,0,5,240,45,0,25,10,0,0,0,0,0,5,0,0,0,0,0,0,0,0,0,0,0,25,70,20,40
35,10,15,60,65,70,60,85,220,105,115,85,110,85,110,115,105,95,90,90,95,0,0,80,0,0,115,0,50,0,0,25,40,0,0,0,0,15,120,20,240,0,5,35,0,0,0,0,20,0,0,0,0,0,0,0,0,0,0,50,0,65,40,40
45,55,50,45,60,230,70,80,85,100,115,125,135,80,85,90,85,75,240,0,95,0,80,0,90,0,0,125,0,50,20,0,0,75,0,10,0,125,240,15,0,0,35,5,0,0,0,0,30,0,0,0,0,0,0,0,0,0,0,40,50,0,40,40
40,5,75,10,40,70,80,240,105,75,115,100,75,80,90,125,85,75,90,0,85,80,90,0,15,0,0,0,0,0,15,0,85,0,0,0,10,85,55,35,0,240,25,0,10,0,0,0,0,0,0,0,0,0,0,0,0,0,0,0,40,30,15,15
45,5,50,5,175,80,60,80,80,100,120,130,120,240,80,105,110,85,80,100,80,75,95,0,0,0,0,110,0,0,10,85,0,0,0,0,0,60,0,90,20,35,10,0,185,0,0,0,5,0,0,0,0,0,0,0,0,0,0,0,25,45,30,15
15,70,10,55,60,65,75,90,85,240,90,105,105,95,85,90,90,60,85,0,90,60,65,85,0,0,125,0,125,0,0,0,0,0,0,115,0,170,95,0,240,5,0,5,0,0,0,0,0,15,0,0,0,0,0,0,0,0,0,0,15,45,35,35
40,30,30,25,65,195,60,60,70,95,130,120,110,110,105,110,105,240,70,60,80,95,0,90,0,25,0,115,0,0,40,160,0,0,0,0,60,240,10,15,0,10,175,0,0,0,0,0,0,0,0,0,0,0,0,0,5,0,5,0,20,45,40,30
35,45,35,30,45,80,70,75,80,100,85,105,75,115,100,80,95,105,70,85,85,70,0,70,0,0,0,125,0,10,20,0,0,80,0,0,0,165,5,25,5,35,240,0,10,0,0,0,0,0,0,0,0,0,0,0,0,0,0,0,10,30,40,35
165,60,50,0,50,80,75,80,60,80,115,240,115,90,95,40,105,80,110,75,80,50,55,80,0,0,0,125,0,15,0,0,0,0,0,0,80,0,35,0,0,25,25,20,0,0,0,0,0,0,0,0,0,0,0,0,0,0,0,0,55,0,35,40
50,50,25,50,50,85,80,50,65,115,235,105,125,115,105,95,105,80,105,80,100,95,95,85,0,0,0,105,0,60,15,0,0,0,0,135,0,0,130,240,0,40,10,20,0,0,0,0,0,0,0,5,0,0,0,0,0,0,0,0,30,15,50,35
50,35,60,25,60,70,65,55,225,90,115,105,115,125,120,100,125,60,105,50,95,85,85,0,0,0,95,95,10,0,55,0,160,0,0,15,0,0,95,30,240,5,0,10,0,0,0,0,0,0,0,0,0,0,0,0,0,0,0,30,0,35,35,40
30,50,25,95,45,85,85,60,85,245,110,125,105,115,115,95,105,100,105,85,90,85,125,70,0,0,0,105,0,0,185,0,5,0,0,0,240,175,15,0,15,0,0,0,0,0,0,0,0,0,0,0,0,0,0,0,0,0,0,0,20,40,35,20
45,10,40,35,45,95,55,80,105,110,105,235,120,95,110,115,110,95,80,50,95,90,50,0,0,0,0,80,0,0,5,0,80,0,0,55,0,60,240,0,30,5,0,45,0,0,0,0,0,0,0,0,0,0,0,0,0,0,0,0,15,45,40,25
40,65,5,35,35,50,95,70,60,135,115,100,120,110,110,85,100,85,95,0,75,0,70,90,0,0,0,0,105,25,0,45,0,0,0,0,0,125,65,0,15,240,60,0,15,10,0,0,0,0,0,0,0,0,0,0,0,0,0,5,35,40,45,5
30,35,30,195,60,30,65,75,115,95,115,130,105,115,105,115,95,50,85,55,85,105,75,0,0,100,85,0,0,15,0,20,0,50,0,0,0,240,50,130,15,0,15,0,0,0,0,0,0,0,0,10,0,0,0,0,0,0,0,10,45,30,0,15
65,5,25,35,60,50,80,105,70,235,115,110,120,115,130,120,95,70,95,105,75,105,40,0,95,0,0,125,0,0,210,0,25,0,0,80,0,5,0,10,5,70,15,0,30,0,0,0,0,0,0,0,5,0,0,0,0,0,0,0,15,45,20,50
15,45,45,35,65,80,205,60,80,120,100,130,100,115,115,100,95,105,85,40,40,90,95,0,0,0,0,115,0,0,20,95,0,80,0,240,15,85,5,65,0,0,30,0,5,0,0,0,0,0,0,0,0,0,0,0,0,0,0,25,0,25,80,35
35,5,10,35,65,240,75,75,75,95,135,135,100,120,240,125,95,85,90,95,90,95,95,70,0,0,0,85,5,0,0,0,0,0,0,115,90,0,240,25,10,0,25,30,0,0,0,0,0,0,0,0,0,0,0,0,0,25,0,10,0,20,55,55
70,60,35,15,60,60,60,60,75,140,195,115,115,115,105,115,85,90,80,90,105,45,70,85,90,0,115,0,0,20,0,0,175,5,0,0,105,10,40,15,240,15,0,5,0,0,5,0,0,0,0,0,0,5,5,0,0,0,0,0,20,40,30,50
40,35,25,5,60,60,230,70,90,130,120,120,140,110,85,100,100,90,80,95,100,95,0,0,0,225,0,50,0,40,105,65,0,0,0,90,0,0,15,35,240,35,25,5,0,0,0,0,0,0,0,0,15,0,0,0,0,0,0,15,20,40,40,50
80,25,35,45,50,65,205,75,80,105,110,120,105,100,95,115,100,105,75,90,95,85,50,75,0,0,0,0,55,100,30,0,0,90,0,0,90,0,0,240,20,10,5,10,0,0,0,0,0,0,0,0,0,0,0,0,0,0,0,0,30,30,50,60
20,55,20,40,40,70,235,75,80,100,115,120,115,95,115,105,80,100,60,80,0,75,65,85,0,0,0,0,110,0,70,0,0,0,0,230,0,15,5,0,10,40,0,0,240,0,0,0,0,0,0,0,0,5,0,0,0,0,0,10,25,40,50,30
5,165,25,50,10,70,85,65,80,110,115,115,105,130,100,115,110,95,105,75,80,95,75,60,0,0,0,0,115,175,0,5,0,0,115,0,0,90,240,30,45,15,10,0,0,0,0,0,0,0,0,5,0,0,0,0,0,0,0,15,45,0,40,40
30,30,40,25,35,80,55,70,240,105,115,125,115,125,95,105,85,100,35,65,35,85,35,80,0,0,0,115,0,175,0,5,0,0,0,110,15,0,105,0,5,240,5,0,5,0,15,0,0,0,0,0,0,10,0,0,0,0,0,15,0,35,40,40
35,15,40,65,5,165,65,70,60,90,110,100,240,105,105,80,95,120,90,100,85,105,85,85,0,0,0,125,20,0,80,15,0,0,115,0,0,0,240,0,50,50,0,25,10,0,0,0,0,0,0,0,0,0,0,0,0,0,0,0,15,40,35,40
40,65,5,40,40,40,65,70,240,110,115,120,125,130,95,110,90,60,60,65,75,70,85,0,95,0,0,0,125,185,0,0,5,0,75,0,0,65,10,150,0,0,240,0,5,5,0,0,0,0,0,0,0,0,0,0,0,0,0,0,15,40,40,60
35,5,50,60,70,60,80,85,240,85,105,120,60,100,115,65,95,90,55,70,0,85,65,45,0,0,0,0,0,0,35,35,25,0,15,0,0,115,0,0,25,240,0,5,0,0,0,0,0,0,0,0,0,0,0,10,0,0,0,0,25,15,20,40
45,25,120,40,60,50,65,70,80,95,85,240,70,120,85,95,80,85,0,0,95,55,0,85,0,0,0,0,110,0,140,5,0,90,0,0,240,115,15,105,0,5,15,240,5,0,0,0,0,0,0,0,0,0,0,0,0,0,0,0,25,45,25,50
30,35,45,50,55,240,60,60,80,80,105,105,110,65,90,90,75,105,0,90,80,40,85,50,0,0,0,0,105,0,165,0,0,0,0,85,0,95,105,0,0,30,45,0,5,0,240,0,0,0,0,0,0,0,0,0,0,0,0,0,25,35,210,45
50,5,25,55,20,75,80,85,80,80,240,105,95,125,110,90,80,95,105,35,115,60,0,35,85,0,0,120,0,0,185,0,5,0,0,205,0,0,105,240,40,0,0,0,5,20,0,0,0,0,0,0,0,0,0,0,0,0,0,0,40,0,30,60
25,30,25,5,10,60,65,225,105,115,110,105,100,105,90,110,90,35,85,50,60,50,80,55,0,0,95,0,0,15,0,140,0,0,0,95,0,80,10,65,15,25,240,15,35,0,5,0,0,0,0,0,0,0,0,0,0,0,0,40,5,40,25,35
20,155,55,35,60,70,75,65,45,80,90,100,105,120,105,105,105,80,105,60,85,120,115,100,0,0,0,115,0,0,0,190,0,0,0,145,85,0,80,15,15,70,0,25,0,0,0,0,0,0,0,0,15,0,0,0,0,0,0,20,25,55,60,25
25,50,50,70,5,65,75,65,215,120,80,120,100,115,55,125,45,80,105,60,80,115,60,60,0,0,0,0,130,35,90,120,0,0,0,0,35,10,0,35,240,30,30,0,0,0,0,0,0,0,0,0,0,0,0,0,0,0,0,0,10,30,35,35
0,35,35,55,145,75,70,25,85,80,115,105,125,105,105,110,110,15,55,95,110,55,0,95,0,0,0,80,0,0,30,45,0,0,0,0,70,0,40,0,55,10,240,0,0,0,0,0,10,0,0,0,0,0,0,0,0,0,0,0,55,35,5,10
50,35,10,10,50,60,75,70,80,65,110,110,240,110,85,120,100,100,35,110,95,105,105,95,0,85,0,115,0,205,0,0,5,0,85,0,0,0,240,10,0,50,0,5,0,0,0,0,0,0,0,0,0,0,0,0,0,0,0,0,50,10,35,55
65,25,0,35,55,55,90,75,240,130,95,105,105,115,125,95,35,60,0,40,95,85,50,60,0,0,110,0,0,0,15,40,0,0,0,115,0,0,85,25,0,240,0,5,5,0,20,0,5,0,0,0,0,0,0,0,0,0,0,0,25,40,35,50
