70,63,28,91,70,84,84,175,91,255,175,175,182,175,182,154,175,161,175,175,161,168,0,161,168,0,0,0,0,14,255,0,21,0,0,126,140,0,255,56,0,7,63,0,14,0,0,0,0,0,0,0,0,0,0,0,0,0,0,0,7,14,21,105
56,35,56,70,28,84,77,255,126,168,168,182,196,182,175,168,147,154,168,161,175,168,161,0,182,0,0,182,0,0,255,0,28,105,0,0,0,98,154,56,21,42,0,7,14,255,0,0,56,0,0,0,0,0,0,0,0,0,0,21,0,21,49,98
255,56,7,35,70,70,77,84,161,189,175,255,182,168,189,189,175,161,161,161,175,161,175,161,0,0,0,0,168,7,42,77,161,0,0,91,0,14,255,14,35,21,255,0,0,14,0,0,0,0,0,0,0,0,0,0,0,0,0,0,21,28,112,49
7,70,21,28,84,98,70,77,255,161,147,161,161,175,154,154,154,154,161,175,175,161,168,168,119,0,0,175,0,35,255,0,0,49,0,0,0,154,35,175,255,0,0,0,21,0,0,0,0,0,0,0,0,0,0,0,0,0,0,0,70,14,56,28
182,35,21,56,84,161,70,112,84,168,161,161,168,154,175,168,161,161,168,154,154,175,161,154,119,0,0,140,0,7,42,0,252,0,0,63,0,0,35,7,70,105,0,7,21,0,0,0,0,0,0,0,0,0,0,0,0,0,0,0,21,98,112,112
35,63,35,42,91,77,84,77,126,255,133,119,161,147,168,161,255,175,133,154,154,147,154,154,84,0,0,119,70,0,91,140,0,0,0,0,0,126,56,21,0,255,0,7,0,0,14,0,0,0,0,0,14,0,0,0,77,0,0,0,28,35,84,255
35,112,77,21,77,77,70,91,84,175,154,168,133,126,147,126,119,140,133,126,154,126,119,119,126,0,0,0,0,168,21,0,0,0,0,70,112,0,0,0,0,77,0,0,255,0,0,0,140,0,0,0,0,0,0,0,0,0,0,0,7,42,21,255
84,35,63,98,70,84,91,84,154,140,255,140,133,147,140,133,154,182,119,133,133,119,140,119,140,0,0,0,7,0,255,0,0,14,0,105,147,0,255,84,84,7,21,255,0,0,0,0,0,0,0,0,0,0,0,0,0,0,0,21,35,0,49,70
35,35,105,63,91,105,70,255,168,175,154,203,140,161,133,140,161,147,126,133,161,147,168,119,140,0,0,182,0,14,35,255,154,0,0,84,0,0,63,7,0,70,0,42,0,255,7,0,0,0,0,0,0,0,0,0,0,0,0,28,0,21,28,255
42,98,77,77,77,112,91,112,147,147,133,133,255,126,140,133,140,126,140,147,133,147,133,133,105,0,0,182,0,21,255,255,0,7,0,98,147,126,0,255,70,0,0,0,7,0,0,0,0,0,0,0,0,0,0,0,0,0,0,21,0,119,70,70
14,105,63,77,77,105,98,91,255,147,154,133,112,133,133,112,140,133,147,147,140,140,147,119,98,0,0,0,0,84,210,42,0,0,0,0,0,112,98,0,255,0,42,7,0,0,0,140,0,0,0,0,0,0,0,0,0,0,0,0,21,28,42,35
21,49,91,35,56,105,98,98,154,133,140,140,154,119,255,154,126,133,133,126,133,133,133,0,133,0,112,105,49,0,0,231,255,0,7,0,0,126,84,255,42,63,7,14,0,0,0,7,0,0,0,14,0,0,0,0,0,0,0,0,28,21,98,35
63,63,56,14,77,91,91,91,84,133,147,133,133,126,126,133,133,119,126,119,112,126,133,112,0,0,0,0,0,28,119,0,0,255,0,0,7,14,112,0,0,255,21,0,0,0,0,7,0,0,0,0,0,0,0,0,0,0,0,0,14,35,196,98
56,70,35,119,98,91,84,98,161,154,154,255,133,119,255,119,140,119,161,126,126,133,133,0,147,0,133,0,7,255,0,35,0,0,98,0,0,255,147,154,7,91,0,14,0,0,0,0,0,0,0,0,0,0,0,0,0,0,0,21,0,42,63,63
35,70,14,119,70,84,91,98,140,147,133,133,133,133,133,119,119,119,147,126,126,126,147,126,0,0,0,112,0,49,0,0,0,0,0,119,0,0,7,63,255,77,49,56,0,0,0,0,14,0,0,0,0,14,0,0,0,0,0,7,56,14,42,98
70,35,84,7,84,91,255,77,84,126,147,133,119,133,126,119,133,133,133,133,140,133,255,133,112,0,0,0,0,49,0,0,147,0,0,0,0,56,21,154,49,255,7,0,0,0,0,0,0,0,0,0,0,255,0,0,0,0,0,0,7,119,28,35
91,49,63,56,98,77,91,105,133,133,140,133,133,255,126,119,126,140,133,133,147,133,133,133,0,0,0,0,0,70,63,14,42,7,0,0,105,255,0,14,140,56,0,0,0,7,0,0,0,0,0,0,0,0,0,0,0,0,49,0,0,14,56,42
42,70,70,28,84,91,70,255,154,154,147,133,119,140,133,126,245,126,119,147,140,133,210,0,126,0,0,0,0,7,119,0,0,231,0,70,14,0,70,255,49,42,7,35,0,0,0,0,0,0,0,0,0,0,0,0,0,0,0,0,21,105,35,35
35,56,84,28,63,84,255,84,154,147,140,126,126,133,133,255,133,147,147,133,133,140,140,147,0,0,0,0,168,21,56,112,0,154,0,0,161,0,0,35,70,14,21,0,0,7,0,255,0,0,0,0,0,0,0,0,0,0,0,35,0,21,189,154
35,63,28,49,56,63,133,84,105,255,126,126,119,119,133,140,224,140,98,140,133,154,0,147,161,0,0,175,0,14,140,0,224,0,126,0,126,0,0,14,255,7,56,217,21,0,0,0,0,0,0,0,0,0,0,0,0,0,0,28,35,0,49,35
105,56,35,84,35,255,91,105,147,140,154,126,126,126,161,255,140,119,133,147,133,147,133,112,0,0,0,0,224,14,245,0,0,0,126,0,112,0,84,14,0,56,0,255,0,0,7,0,0,0,0,0,0,0,28,0,0,0,0,0,21,14,112,133
98,14,21,84,42,84,91,147,105,147,255,126,112,133,133,126,119,126,133,147,140,147,126,133,0,0,0,133,255,0,0,231,0,0,112,0,161,0,255,0,35,70,63,0,0,28,7,0,0,0,0,0,7,0,0,0,0,0,0,0,35,56,42,49
21,35,98,63,84,91,84,84,133,147,133,133,119,119,119,119,126,154,147,154,140,147,147,126,0,0,0,0,196,56,35,0,140,0,119,0,77,0,0,91,0,140,21,0,255,0,0,0,0,7,0,28,0,0,0,0,0,0,0,0,21,35,91,49
7,35,56,0,91,84,98,91,147,147,255,119,119,126,119,126,133,133,140,119,140,133,147,0,147,0,119,0,0,0,63,0,140,0,0,42,0,35,255,98,0,0,14,14,0,0,7,0,0,0,0,0,0,0,0,14,0,0,0,0,21,42,21,112
42,7,35,63,98,63,91,77,133,255,154,140,147,133,133,133,140,147,147,154,140,140,140,154,112,0,0,112,0,0,0,0,161,0,168,0,7,119,0,0,0,255,56,7,0,0,0,0,21,0,0,0,0,0,21,0,0,0,0,0,21,35,98,49
21,35,63,91,91,91,91,105,161,133,147,255,140,133,119,126,140,147,161,126,126,140,161,0,133,0,0,0,0,21,28,112,0,0,0,0,0,0,119,7,21,0,56,0,7,0,14,0,0,0,0,0,0,0,0,0,0,0,0,0,14,70,35,84
42,35,84,98,49,91,255,84,84,154,140,140,147,133,133,140,140,147,126,140,175,133,119,126,0,0,0,112,0,77,14,0,189,0,0,126,0,0,105,49,7,0,255,0,28,0,0,0,0,0,0,0,0,0,0,0,0,0,0,49,21,0,49,98
28,21,7,189,77,91,91,98,147,126,255,140,133,140,133,126,133,140,119,112,140,133,133,119,112,0,0,140,0,14,7,0,0,0,255,0,77,189,14,0,0,28,7,14,0,0,0,0,0,0,0,0,0,0,0,0,0,0,0,28,0,21,133,255
98,35,28,42,84,91,77,98,255,147,133,126,126,119,126,112,140,133,133,126,154,140,147,126,112,0,0,0,133,84,7,231,0,0,0,0,0,98,112,255,49,21,14,14,0,0,0,0,0,0,0,0,0,0,0,0,0,0,14,0,0,255,21,70
35,105,28,14,182,70,91,154,84,255,126,133,126,140,154,119,140,133,126,119,133,133,147,147,0,0,0,0,112,21,196,77,84,7,0,0,0,0,91,42,84,0,14,0,0,0,0,7,0,0,0,0,0,0,0,0,0,0,0,0,14,35,63,70
98,70,49,35,98,98,91,98,147,161,119,119,255,126,119,119,126,126,98,140,119,154,147,140,0,0,0,0,0,0,0,98,133,0,0,147,0,7,126,255,28,35,21,7,0,0,0,245,0,0,0,0,0,0,0,0,0,0,0,0,7,21,84,84
35,98,21,21,91,105,91,168,255,119,140,133,126,126,133,119,126,133,126,140,119,154,154,133,0,0,0,147,0,231,0,0,98,0,28,0,0,35,7,154,14,98,255,14,14,0,0,0,0,0,0,0,0,0,0,0,0,0,0,7,0,98,21,84
28,7,84,49,77,77,161,84,91,154,255,133,147,126,133,133,119,140,133,140,140,147,140,133,0,0,0,0,56,0,98,0,168,0,0,77,0,35,0,84,91,49,21,0,7,21,0,245,0,0,0,0,0,21,0,0,0,0,0,21,0,119,35,77
56,77,98,105,42,105,77,105,255,161,133,133,133,119,119,133,112,147,126,133,133,133,112,126,105,0,0,0,0,161,84,56,0,126,0,0,0,0,91,0,0,14,14,0,0,0,14,0,0,112,0,0,0,0,0,0,0,0,0,0,14,21,224,49
70,98,21,42,98,84,70,98,91,147,161,119,255,112,126,147,133,126,147,147,140,154,154,0,147,0,0,168,0,0,255,14,255,0,91,133,0,0,0,255,7,35,0,70,0,0,0,0,0,0,0,0,0,0,0,0,0,0,35,0,0,7,112,7
56,98,0,98,70,98,91,77,147,255,140,140,126,140,133,133,147,147,147,119,161,154,154,133,98,0,0,0,49,0,0,14,0,0,0,0,0,98,154,42,28,255,0,21,0,0,0,0,0,0,0,0,0,0,21,0,0,0,0,14,0,42,42,63
28,77,63,84,98,126,70,133,91,161,133,255,161,140,154,133,147,161,133,133,140,154,147,140,112,0,0,0,7,231,0,0,14,0,0,91,0,133,255,0,63,56,7,0,7,7,0,0,0,0,0,35,0,0,0,14,0,0,0,0,21,49,255,91
112,28,35,21,84,91,91,91,154,140,255,133,140,147,154,133,133,140,147,140,133,161,140,140,0,0,133,0,0,21,140,0,224,0,0,98,0,14,154,0,255,56,0,0,14,7,0,0,0,0,0,0,0,0,0,0,0,0,0,42,0,35,84,42
91,21,70,112,84,91,255,105,154,140,154,140,147,168,161,140,147,112,126,133,140,147,133,98,126,0,0,0,0,42,21,0,175,0,0,105,0,0,105,255,0,0,0,0,0,0,0,0,0,0,0,0,0,0,0,0,0,0,0,0,21,70,14,70
98,49,98,98,35,91,84,77,154,147,255,133,133,140,133,147,133,133,140,140,154,154,140,147,0,0,0,161,0,21,161,119,0,0,0,63,0,255,0,0,14,70,0,21,0,0,0,0,0,0,0,0,0,0,0,0,0,0,35,0,0,14,35,112
70,42,119,7,77,105,84,98,255,140,140,154,126,140,147,133,133,140,147,154,147,147,133,147,0,0,0,0,0,98,21,0,175,0,0,0,7,35,0,255,28,56,0,28,0,0,0,0,0,0,0,0,0,0,0,0,0,0,0,21,0,147,42,35
42,28,14,70,84,255,98,98,255,168,140,147,154,133,133,133,140,154,133,147,147,147,154,154,0,0,0,0,0,175,0,0,0,0,0,7,0,63,182,0,0,21,21,0,14,255,0,0,0,0,0,0,0,0,0,0,0,0,0,0,0,14,175,245
28,84,21,105,42,91,161,77,105,255,147,140,140,133,147,154,126,168,133,147,133,154,140,147,0,0,140,0,0,0,0,196,0,0,0,140,98,49,42,255,0,0,21,0,0,21,0,0,0,0,0,0,0,0,0,0,0,0,0,0,49,14,21,49
7,35,7,28,28,140,105,91,168,161,154,140,161,133,255,140,133,140,140,147,147,147,140,140,0,0,0,168,7,0,196,14,0,0,0,255,119,196,0,49,21,56,28,203,14,0,0,0,0,0,0,0,0,0,0,0,0,0,0,0,42,98,7,70
7,7,42,35,98,98,98,98,105,231,161,140,133,154,133,133,140,133,147,147,140,140,147,140,0,21,0,0,0,35,0,0,49,0,224,0,0,0,0,255,0,35,0,14,28,0,14,0,0,0,0,0,0,0,21,0,0,0,0,0,21,35,112,224
14,28,42,77,70,105,98,161,112,147,147,133,154,147,140,140,147,133,147,147,161,147,133,0,154,0,0,0,7,231,133,70,0,0,0,0,7,105,0,0,56,28,255,0,7,0,0,0,0,0,0,0,0,0,0,0,0,0,0,0,14,28,35,255
112,35,49,70,91,84,84,112,154,161,255,147,140,126,133,133,133,140,147,161,154,147,147,147,0,0,0,175,21,0,56,0,255,0,0,119,7,0,0,84,63,255,21,0,0,0,0,0,7,0,0,14,0,0,0,0,0,0,0,35,0,189,49,49
84,21,42,63,98,112,98,255,154,154,147,140,133,126,147,140,133,140,161,147,133,133,147,133,140,0,0,0,0,98,161,182,224,0,0,0,0,14,0,0,70,14,0,14,255,0,0,0,35,0,0,0,0,0,0,0,0,0,0,0,7,35,21,56
245,35,112,119,91,70,98,84,154,161,255,154,140,126,133,147,133,133,140,140,126,133,133,154,0,98,0,105,255,0,0,0,0,0,84,0,0,112,70,255,42,63,14,35,0,0,0,0,0,0,0,0,0,0,0,0,0,0,0,0,14,7,28,147
0,49,77,63,91,98,91,91,154,255,133,147,133,140,140,140,133,147,147,133,168,140,147,154,0,0,0,0,49,0,0,0,105,0,0,7,0,0,189,0,56,255,0,0,42,0,0,0,0,0,0,0,0,0,0,0,0,0,0,7,21,28,77,56
