24,6,8,20,16,84,20,26,24,40,48,48,48,48,46,48,38,12,12,12,10,28,8,12,0,0,0,54,0,0,22,22,0,36,0,2,50,0,10,0,0,36,0,2,4,0,0,0,0,0,0,0,0,0,0,0,0,0,0,6,16,0,6,14
2,4,16,26,8,26,26,30,50,50,28,48,46,48,46,46,54,0,0,38,46,34,44,0,42,0,36,0,0,18,34,0,0,0,0,0,34,94,12,8,4,20,96,2,10,0,0,0,0,0,0,0,0,0,0,0,0,0,0,16,10,22,14,10
14,16,2,20,18,20,20,26,26,46,48,50,48,48,46,24,34,44,12,20,38,10,10,6,20,0,0,0,44,0,0,0,0,0,34,0,0,24,42,0,12,0,96,10,12,0,0,0,0,0,0,0,0,0,0,0,0,0,0,42,16,6,28,20
6,10,18,10,42,24,26,30,24,50,44,96,46,44,44,48,46,40,42,36,34,40,40,36,0,0,0,0,0,0,14,22,0,50,0,0,0,30,18,96,2,12,18,20,0,0,0,0,0,0,14,0,0,0,0,0,0,0,0,0,6,12,22,26
16,2,16,10,22,30,24,32,96,42,48,44,50,52,50,42,38,42,46,0,0,44,44,32,20,0,0,0,24,0,38,0,4,0,0,0,0,4,30,38,22,0,96,2,6,2,0,0,0,0,8,0,0,0,0,0,0,0,0,0,12,16,0,24
20,14,40,12,6,16,24,24,22,38,46,46,50,46,46,42,44,34,14,16,12,18,40,44,0,0,0,48,0,44,0,0,0,28,0,0,32,56,32,0,96,48,0,10,22,0,0,0,0,0,0,0,0,0,0,0,0,0,0,0,8,8,14,20
14,14,8,24,4,22,26,24,96,48,48,46,50,56,40,46,48,16,42,0,44,34,42,40,0,0,0,0,0,18,2,0,0,28,48,0,36,20,0,20,4,4,0,96,20,0,0,0,0,0,8,0,0,0,0,0,0,0,10,0,10,20,14,16
20,44,20,12,18,26,26,30,28,26,96,50,50,48,46,46,38,46,0,38,0,42,40,36,0,0,0,0,66,52,0,0,38,0,24,96,0,0,0,0,2,24,32,0,0,0,0,0,0,0,0,0,0,0,0,0,0,0,0,0,14,20,16,24
24,26,4,14,14,28,28,28,48,24,46,46,96,50,44,40,46,46,32,34,38,46,42,34,0,0,0,0,6,38,82,4,0,0,30,0,0,96,12,18,18,4,6,4,0,92,0,0,0,0,0,0,0,0,0,0,0,0,0,14,0,14,8,20
2,22,14,22,96,28,24,48,28,34,46,96,48,46,48,50,42,42,0,40,40,16,42,0,44,0,0,0,0,46,0,0,24,0,0,0,0,42,96,10,8,0,10,96,4,0,0,0,0,0,0,10,0,0,0,2,0,0,0,0,16,10,12,24
16,16,6,12,20,60,24,28,26,50,50,46,50,50,44,96,44,48,38,46,42,44,42,30,0,0,50,0,0,8,0,0,34,0,0,0,0,0,96,4,28,22,8,2,0,0,0,0,0,0,0,0,0,0,0,0,0,0,10,0,0,20,22,24
16,20,6,16,24,28,94,30,26,46,50,54,46,50,46,42,14,44,44,50,42,50,50,16,32,0,0,44,0,0,0,0,14,0,0,40,0,6,0,96,0,18,8,14,0,0,14,6,0,0,0,0,0,0,0,0,0,0,0,6,10,20,20,26
22,20,28,14,24,22,24,30,24,46,96,54,48,46,44,50,50,50,42,48,38,38,42,48,0,0,0,0,46,24,0,0,0,28,0,0,50,36,0,96,0,6,2,10,2,14,0,0,0,0,0,0,0,0,0,0,0,0,10,0,18,0,16,10
24,18,14,2,16,28,28,26,36,52,52,52,50,46,42,46,40,44,50,20,44,46,46,38,0,0,48,0,0,20,16,0,0,38,0,0,0,32,88,0,18,4,96,0,0,0,0,0,0,0,0,0,0,0,0,0,0,0,0,0,12,14,16,16
20,38,16,16,6,24,26,48,24,36,50,48,96,52,46,50,50,42,48,42,44,48,44,48,0,0,0,0,0,12,72,20,0,0,0,0,44,0,36,0,34,34,0,8,0,30,0,0,0,0,0,0,0,0,0,0,0,0,0,0,8,24,14,16
4,22,24,8,18,92,24,20,44,30,48,48,50,48,46,48,46,0,46,38,36,46,46,38,0,0,0,0,34,0,0,20,0,0,38,0,6,28,96,0,0,2,16,12,82,0,0,0,0,0,0,2,6,0,0,0,0,0,0,6,24,26,18,14
14,20,10,88,16,18,28,26,32,52,50,48,52,96,50,38,40,42,44,40,38,42,46,34,0,0,0,0,34,0,22,0,0,0,34,0,0,96,0,4,6,8,24,4,0,2,0,0,0,0,0,0,0,0,0,0,0,0,0,0,20,16,4,16
18,24,6,20,20,28,36,24,30,94,46,48,50,48,50,48,48,42,38,10,46,48,46,46,0,0,0,0,24,0,0,32,44,0,0,0,0,0,28,96,12,42,0,6,0,0,0,0,0,0,0,0,0,0,0,0,0,0,0,0,10,4,20,18
10,24,4,18,8,92,18,24,48,20,50,52,48,52,48,48,50,42,46,44,46,44,42,36,0,0,0,62,0,38,10,0,0,0,32,42,4,24,2,48,24,0,6,10,4,0,96,0,0,4,0,0,0,0,0,0,0,0,0,0,8,22,16,46
6,4,22,2,20,26,20,20,60,52,96,50,46,52,50,50,40,44,44,48,30,44,32,0,46,0,4,48,0,26,0,14,14,0,0,0,28,6,96,96,14,6,2,4,86,4,0,0,0,0,0,0,0,0,0,0,0,0,0,0,14,16,22,14
22,20,22,42,26,24,28,28,22,48,46,50,96,44,50,50,46,46,42,38,42,46,44,42,0,4,0,0,0,50,18,0,0,2,0,0,96,0,50,0,0,4,8,96,0,8,2,0,2,0,0,0,0,0,0,2,4,0,0,6,14,18,6,28
20,24,4,4,24,24,76,28,26,46,48,50,96,46,44,48,38,48,48,36,48,44,42,0,30,0,0,46,0,0,40,0,2,0,0,0,0,96,6,20,10,0,10,0,0,4,16,0,0,0,0,12,0,0,0,0,0,0,0,6,10,14,22,20
10,8,14,18,34,84,46,28,28,86,48,50,42,46,44,46,42,38,38,40,40,42,40,42,0,0,0,38,0,22,12,42,0,0,0,0,24,0,2,20,8,12,0,96,0,2,0,0,0,0,0,0,0,0,0,0,0,0,0,0,8,12,14,14
14,28,16,26,12,22,24,28,26,46,96,48,50,44,46,46,46,38,38,42,46,38,0,44,42,0,0,0,0,24,0,22,0,18,0,44,0,36,2,2,10,96,0,12,0,2,0,0,0,0,0,0,0,0,0,0,0,0,0,6,14,0,14,16
18,20,6,12,18,32,42,32,20,48,50,50,96,48,44,42,46,28,38,34,32,42,46,0,0,0,0,0,48,74,8,6,0,0,0,0,0,96,24,0,0,0,2,94,0,4,0,0,0,0,0,0,0,0,0,0,0,0,0,4,0,14,18,14
12,22,14,24,26,22,64,24,44,46,48,48,50,52,48,50,44,94,0,16,40,42,46,46,0,20,58,0,0,38,34,0,74,0,0,0,0,0,68,96,0,22,0,0,8,0,0,0,0,0,0,0,0,0,0,0,0,0,12,0,0,12,16,20
4,2,14,12,20,24,20,24,48,96,52,46,50,50,50,46,38,10,38,14,16,16,40,0,36,0,0,0,42,16,0,24,0,0,0,62,0,8,0,0,2,96,4,0,24,0,0,0,0,0,0,0,0,0,0,0,0,0,0,0,14,6,14,14
16,50,8,16,22,28,20,94,42,50,48,50,46,48,46,46,42,42,36,36,38,34,38,0,0,0,0,0,0,20,4,0,24,0,56,0,0,0,22,96,4,16,20,0,10,0,0,0,0,0,4,2,0,0,0,0,0,0,0,6,12,24,18,20
24,26,12,18,22,26,28,96,38,50,48,52,48,46,46,48,44,40,12,38,42,46,50,50,0,0,0,0,20,0,0,0,0,22,0,2,0,34,0,2,96,18,0,0,0,0,0,0,0,0,0,0,0,8,0,0,0,0,0,0,10,24,10,18
2,20,12,20,20,24,26,22,50,28,46,96,48,50,48,44,48,46,26,38,36,44,46,42,0,0,0,56,0,28,16,0,22,0,0,0,96,26,36,24,0,14,2,14,0,82,0,0,0,0,0,0,0,0,0,0,0,0,0,0,4,12,18,16
16,20,14,0,18,96,24,28,36,46,50,48,96,50,50,46,46,44,10,42,48,42,28,42,0,0,0,2,68,52,0,20,14,34,0,10,0,44,0,10,6,0,0,94,0,0,0,0,0,0,0,0,0,4,0,0,0,0,0,0,8,20,16,8
8,14,90,16,16,24,28,28,44,28,44,96,46,50,46,44,32,12,12,34,46,40,46,34,0,0,28,0,0,22,10,0,18,0,0,0,22,4,4,0,14,14,96,14,0,0,0,0,0,0,0,0,0,0,0,0,0,0,0,0,10,22,14,6
16,14,6,16,60,60,20,30,50,32,96,46,48,50,46,50,44,48,36,34,38,34,38,42,0,2,0,0,0,34,0,0,16,44,0,0,0,84,20,4,20,96,2,22,6,0,0,0,0,0,0,0,0,0,0,0,0,0,0,8,10,16,14,20
16,8,26,6,60,20,30,28,52,32,48,50,46,50,50,46,30,36,42,40,40,40,28,0,32,0,0,0,0,62,2,0,10,0,0,0,58,96,0,12,20,8,96,16,0,0,2,0,0,0,0,0,0,0,0,0,0,0,12,0,0,14,10,16
14,18,74,2,12,88,28,22,24,44,48,46,48,46,50,40,16,16,24,14,16,24,16,86,0,0,0,44,0,6,0,10,0,52,0,52,32,0,4,10,0,24,96,4,2,0,0,0,0,0,0,0,0,0,0,0,0,0,0,10,0,16,16,20
16,24,16,28,22,52,28,28,32,46,46,46,96,46,42,42,48,36,42,12,0,38,42,34,0,10,0,0,60,26,0,0,0,20,0,52,0,18,22,36,20,6,78,0,0,4,0,0,0,0,0,4,0,0,0,0,0,0,0,0,14,22,20,26
18,20,20,6,70,10,96,32,24,42,44,46,50,48,44,46,42,28,14,24,14,28,14,24,0,0,0,50,0,0,36,0,0,0,72,0,0,0,0,0,0,96,0,0,0,0,0,0,0,0,0,0,0,0,0,0,0,0,0,0,6,14,20,14
8,14,8,48,28,28,30,32,32,40,96,46,52,48,46,46,16,40,14,24,30,34,34,0,12,0,0,0,0,32,0,10,12,0,0,48,22,0,0,96,6,0,6,0,0,0,0,2,0,0,0,0,0,0,0,0,0,0,0,0,14,10,6,20
6,20,6,28,24,72,24,28,46,24,50,52,48,52,46,46,22,14,14,12,16,14,22,14,8,0,0,58,0,0,24,0,0,0,0,20,0,48,2,54,0,14,8,2,0,0,4,0,0,0,0,0,0,0,0,0,0,0,0,0,10,12,26,20
76,10,20,20,80,20,22,18,28,50,46,96,52,50,42,42,40,40,42,44,42,36,40,46,30,0,0,0,0,12,0,16,0,40,0,0,4,12,0,96,8,0,30,0,0,16,4,0,0,0,8,4,0,0,0,0,0,0,0,6,4,22,12,24
16,22,0,24,20,26,30,62,24,42,48,48,96,46,48,42,44,12,14,20,28,20,14,24,10,0,0,56,0,0,52,38,0,0,36,0,2,0,12,96,26,0,4,12,0,0,0,0,0,0,0,0,0,0,0,0,0,0,0,0,6,12,16,6
22,4,16,20,18,52,26,28,28,46,44,50,44,44,46,46,32,34,22,14,28,14,14,14,0,36,0,0,4,0,20,0,40,0,0,94,0,0,6,16,0,6,4,2,84,10,0,4,0,0,0,0,0,0,0,0,0,0,0,0,16,12,16,20
14,10,20,88,18,28,88,32,28,44,46,50,96,48,48,46,48,36,42,46,38,42,38,38,24,0,0,0,0,36,0,0,32,0,0,0,0,16,2,20,12,96,2,8,10,0,0,0,0,0,0,0,0,0,0,0,0,0,0,0,6,14,14,16
30,12,2,24,6,26,94,24,46,22,48,44,50,52,46,50,48,48,0,0,42,44,42,28,0,0,0,0,0,0,38,18,0,0,0,6,0,50,2,58,18,0,96,6,4,2,0,0,0,0,0,0,2,0,0,0,0,0,0,0,14,16,10,22
16,4,6,22,26,28,30,30,50,24,96,42,42,44,46,46,40,12,38,14,14,14,14,10,14,4,48,0,0,8,4,78,0,0,54,0,0,0,0,0,48,0,14,0,0,2,0,0,0,0,2,0,0,0,0,0,0,0,0,0,6,12,18,16
20,2,24,24,20,26,44,26,34,42,44,42,50,46,44,42,96,38,34,48,20,44,46,44,20,0,0,0,0,34,0,0,0,32,6,0,28,60,96,4,20,0,4,0,0,0,0,0,0,0,0,6,0,0,0,0,0,0,0,0,6,8,18,16
4,2,14,22,16,20,24,30,46,94,40,46,50,46,48,42,46,40,12,24,38,14,36,46,0,0,0,16,0,0,0,6,16,0,0,0,0,34,24,0,2,96,0,6,0,0,0,0,0,0,0,0,0,0,0,0,0,0,4,0,6,0,14,20
0,24,26,16,10,28,24,26,24,48,42,50,96,46,48,44,44,40,32,0,40,46,36,24,0,0,0,0,14,0,0,0,0,0,0,0,0,56,30,96,0,0,4,12,0,84,2,0,0,0,0,0,0,0,0,0,0,0,0,0,10,12,20,24
14,2,16,20,16,92,26,26,28,32,46,46,50,46,88,48,42,14,14,14,14,26,20,40,0,0,48,0,0,14,30,0,52,0,0,96,20,32,2,16,8,16,0,16,0,12,0,0,0,0,0,0,0,0,0,0,0,0,10,0,24,14,22,18
24,4,18,20,18,24,28,32,28,46,96,48,44,50,44,38,46,36,14,38,46,10,44,44,0,0,0,0,0,30,0,0,2,0,0,0,58,2,0,4,8,2,4,10,0,0,0,6,0,0,0,0,0,0,0,0,0,0,0,0,16,16,18,16
