60,40,90,40,255,70,160,120,220,210,220,190,190,255,190,210,220,210,210,210,210,200,210,0,220,0,0,80,30,0,0,40,0,0,0,0,0,70,255,0,30,10,40,0,10,10,0,10,0,0,0,0,0,10,0,0,0,0,0,10,30,70,50,120
90,120,10,120,30,100,120,140,220,255,210,200,190,200,190,210,200,190,230,200,210,210,210,210,0,170,0,140,0,10,0,130,0,0,0,20,190,0,250,255,0,30,30,0,0,0,20,0,0,0,0,0,0,0,0,0,0,0,0,0,30,40,80,140
110,40,50,30,160,160,220,120,130,255,220,210,210,210,220,210,210,220,210,230,220,190,210,190,160,0,110,0,0,10,0,0,140,0,140,0,0,210,30,0,0,255,90,20,10,0,0,10,0,0,0,0,0,0,0,0,0,0,0,0,40,80,60,110
70,50,60,110,255,130,140,110,230,230,230,200,230,210,255,230,220,220,220,220,210,230,190,190,0,0,0,140,0,0,0,0,0,0,210,0,255,180,120,20,0,0,10,0,0,0,10,0,0,0,0,0,0,0,0,0,0,0,0,0,30,80,90,150
20,120,10,130,140,120,130,210,120,210,200,255,200,210,200,200,210,210,210,200,180,220,190,160,190,0,0,110,20,0,0,0,0,50,0,200,10,0,230,30,0,255,60,0,0,0,0,0,0,0,0,0,0,0,0,0,0,0,0,0,50,20,100,140
120,160,90,130,60,130,130,80,255,200,200,200,210,220,210,210,210,210,190,240,210,230,220,200,170,0,0,160,30,0,255,0,0,0,140,0,0,210,70,60,255,0,40,0,0,0,10,0,0,0,0,0,0,20,0,0,0,0,0,0,40,70,120,140
60,130,10,80,70,255,100,120,220,240,220,210,200,200,220,210,210,210,200,255,190,240,220,220,150,0,0,160,0,0,20,0,0,0,200,0,60,0,255,70,140,20,20,60,30,0,10,0,0,0,0,0,0,0,0,0,0,0,0,0,50,50,150,140
80,100,130,30,60,160,255,140,210,210,220,230,210,220,220,210,230,230,210,230,210,230,200,220,0,0,120,0,20,0,0,230,0,0,0,20,0,180,10,200,50,0,255,10,20,0,0,0,10,0,0,0,0,0,30,0,0,0,0,30,0,40,70,70
10,70,80,150,255,170,140,160,190,200,210,220,250,190,210,230,200,210,220,190,210,200,200,210,120,0,0,80,10,255,10,0,0,150,0,0,0,255,255,10,40,0,10,0,10,0,255,0,0,0,0,0,0,0,0,0,0,0,0,30,0,60,50,40
140,80,60,0,140,110,100,100,230,210,255,190,210,220,210,200,240,210,200,230,210,220,200,160,230,0,0,160,255,0,0,10,160,0,0,0,0,0,100,255,0,255,10,120,0,0,0,10,0,0,0,0,0,0,0,10,0,0,0,20,0,40,70,120
100,70,140,50,140,255,120,110,240,230,230,210,230,230,220,230,240,240,230,220,230,230,230,200,0,0,0,30,140,255,0,20,0,0,180,0,0,250,0,130,20,20,0,140,10,0,0,10,0,0,0,0,0,0,0,10,0,0,0,0,80,90,20,140
70,255,20,120,60,120,210,140,100,230,220,255,240,230,210,230,230,220,220,230,210,210,240,190,160,0,0,150,0,0,255,0,50,0,0,170,0,255,0,100,10,110,10,0,0,0,0,0,0,0,0,0,0,0,0,0,0,0,0,0,20,80,90,100
20,60,50,140,130,130,110,210,110,240,220,255,210,230,230,210,220,210,230,250,230,230,0,210,240,0,0,170,0,0,40,255,0,0,20,180,0,0,255,60,10,60,60,0,0,0,0,0,10,0,0,10,0,0,0,0,0,0,0,0,70,90,30,150
80,110,50,140,140,110,110,120,230,220,230,255,210,210,230,240,230,220,240,230,230,210,220,190,0,0,0,100,0,0,120,255,0,0,10,0,30,0,255,0,80,0,0,150,0,50,10,0,0,0,0,0,0,0,0,20,0,0,0,0,50,70,120,100
120,80,40,130,80,130,130,120,255,190,210,210,220,220,240,220,230,240,250,210,240,230,250,240,160,0,0,40,130,10,0,0,0,250,0,30,150,0,30,0,20,255,0,0,0,0,0,0,0,0,0,0,0,0,0,0,0,0,0,30,0,50,100,160
140,60,40,150,255,150,140,130,230,250,240,230,230,220,230,255,230,250,220,230,240,200,210,240,0,0,0,120,0,0,255,0,0,0,0,0,140,90,255,255,70,0,60,0,0,0,10,0,0,0,0,0,0,0,0,0,0,0,0,0,20,70,90,120
140,130,70,140,120,130,110,140,220,220,255,220,230,230,210,230,230,220,210,230,230,240,240,0,240,0,0,80,30,0,0,30,0,160,0,0,110,170,0,255,20,120,30,0,0,0,30,10,0,0,0,0,0,0,0,0,0,0,0,0,40,10,90,150
70,10,120,140,130,160,110,120,210,200,220,230,230,200,220,220,230,250,250,210,230,220,230,240,0,0,0,120,0,0,255,0,0,30,0,0,200,0,200,30,255,0,0,20,0,0,0,0,0,0,0,0,0,0,0,0,0,0,0,0,40,90,90,40
40,100,10,255,130,120,230,110,240,110,230,210,220,210,255,240,250,240,220,230,230,210,230,210,0,0,0,160,0,0,0,0,0,170,0,255,90,30,190,0,30,80,0,0,90,0,0,0,0,0,10,0,0,0,30,0,0,0,0,40,0,40,100,80
120,140,20,70,120,150,130,100,200,230,210,230,240,240,220,250,240,230,230,220,220,250,220,230,0,160,0,130,0,255,0,0,140,0,10,0,0,0,10,255,90,30,10,20,10,0,0,0,0,0,0,0,0,0,0,0,0,0,0,0,30,30,120,80
130,120,50,120,150,120,70,255,230,140,220,220,220,220,210,230,230,220,230,230,220,230,230,220,140,0,0,100,30,250,20,0,0,160,0,0,100,0,255,10,0,40,0,0,20,0,0,10,0,0,0,0,0,0,0,0,0,0,10,0,0,60,70,110
0,0,120,20,120,130,140,220,255,255,240,240,220,230,255,240,220,240,230,240,220,230,240,220,0,0,130,0,0,255,190,30,0,160,0,0,0,190,0,190,50,10,255,0,10,0,0,0,0,0,0,0,0,0,0,0,20,0,0,0,50,70,130,90
120,80,50,70,150,100,130,130,220,190,220,250,240,230,255,230,210,230,210,240,240,230,210,240,150,0,0,120,0,0,20,140,0,0,0,170,0,255,0,0,0,30,10,10,0,0,10,0,0,0,0,0,0,0,0,0,0,0,0,0,10,150,60,130
50,70,120,10,70,130,140,190,110,180,210,255,220,220,240,230,210,240,240,230,250,220,230,230,0,0,140,140,0,0,0,20,0,0,0,0,20,110,140,255,0,50,0,10,0,20,0,0,0,0,0,0,0,30,0,0,0,0,0,0,50,20,80,120
10,140,110,40,110,160,140,120,210,255,190,210,220,240,230,240,210,210,230,230,240,220,230,0,230,0,0,150,0,0,60,0,0,0,10,0,0,220,0,30,80,255,0,20,10,0,10,10,0,0,0,0,0,0,0,0,0,0,0,0,40,30,40,70
150,80,20,110,120,255,110,100,230,230,220,255,240,220,220,250,230,240,255,220,230,250,250,250,0,0,60,0,130,0,0,255,0,0,0,20,120,0,190,140,10,50,10,255,0,20,10,0,0,0,0,0,0,0,0,0,0,0,0,0,50,20,130,150
40,255,10,150,150,130,140,190,140,220,190,255,190,200,210,210,240,210,190,220,220,210,220,210,0,0,0,100,10,0,140,0,0,0,255,0,190,10,130,70,0,0,30,0,0,0,10,0,0,0,0,0,0,0,0,0,0,0,0,0,10,110,40,80
140,10,20,100,10,170,140,150,200,200,210,220,255,210,210,240,230,230,220,230,230,210,230,200,0,0,0,120,0,0,30,255,0,0,0,170,10,0,255,50,10,60,10,120,0,0,0,10,0,0,0,0,0,0,0,0,0,0,0,30,100,0,100,120
60,70,150,50,70,110,110,120,200,220,210,190,230,220,220,230,210,240,230,210,250,220,240,220,180,0,0,110,0,0,0,110,0,0,0,160,10,0,0,50,20,0,120,0,60,10,0,0,0,0,0,0,0,0,0,30,0,0,0,0,30,60,130,150
160,140,50,10,100,120,140,120,255,210,190,210,170,220,230,220,240,230,230,220,220,240,200,220,130,0,0,100,110,0,0,0,200,20,0,0,0,230,0,70,70,80,255,0,10,0,0,0,0,0,0,0,0,0,0,0,0,0,0,60,10,0,80,90
110,130,255,10,140,90,130,90,220,230,255,230,230,230,230,255,210,230,230,220,210,200,0,230,120,0,250,0,0,20,0,0,40,160,0,0,10,0,255,30,0,30,0,0,0,10,0,0,0,0,0,0,0,0,30,0,0,0,0,0,20,70,40,80
10,120,100,50,130,150,140,200,120,255,200,210,220,210,220,210,200,230,210,230,220,210,200,170,220,0,0,90,0,0,0,0,0,0,0,255,180,0,50,255,130,10,50,10,0,0,0,0,0,0,0,0,0,10,0,0,0,0,0,0,100,40,110,70
150,70,120,80,170,140,120,120,255,200,220,210,240,210,220,220,220,210,220,230,230,210,230,130,220,0,0,120,0,0,255,0,0,0,0,0,140,0,0,20,110,255,0,30,10,10,0,0,0,0,0,0,0,0,0,0,0,0,0,0,20,140,110,50
30,100,120,130,140,100,20,210,90,200,210,210,220,190,220,210,220,220,200,220,210,210,255,200,0,0,0,140,0,70,0,0,0,255,0,20,180,0,0,10,200,20,0,0,40,20,0,0,0,0,0,0,0,0,0,0,40,0,0,140,0,70,20,60
70,150,140,255,150,100,150,220,140,210,210,250,210,220,255,230,230,220,230,220,230,230,220,210,0,150,0,30,0,0,0,255,0,0,0,0,255,150,0,0,10,20,30,20,10,50,0,0,0,0,0,0,0,0,0,0,0,0,0,0,30,40,90,140
30,100,130,80,120,140,120,100,210,255,210,200,210,210,230,220,220,210,210,230,230,190,200,220,0,0,0,150,0,0,255,0,10,230,0,0,0,255,160,0,120,80,10,255,0,0,0,0,0,0,0,0,10,0,0,0,0,0,0,0,40,50,130,60
80,120,110,60,120,80,150,210,110,230,190,200,200,230,210,210,220,210,220,210,210,210,190,220,0,0,0,110,10,0,20,0,0,0,170,0,0,130,210,10,20,80,10,0,255,0,0,0,0,0,0,0,0,20,0,0,0,0,0,0,30,70,120,120
90,140,255,190,150,160,160,130,190,200,210,210,230,210,220,255,210,220,220,210,230,210,210,210,150,0,0,0,110,0,255,0,0,140,0,0,100,0,140,255,30,20,30,100,0,0,0,0,0,0,0,0,0,0,0,0,0,0,0,0,30,70,100,100
30,90,110,120,100,130,140,130,200,255,200,220,200,230,220,220,200,220,210,210,210,220,210,210,0,0,120,0,20,20,220,0,0,20,120,0,0,200,230,255,0,30,20,0,0,0,0,0,0,0,0,0,0,0,0,0,0,0,0,0,40,120,90,150
100,10,80,150,130,130,120,120,255,190,230,210,210,230,230,220,210,210,220,210,230,200,210,220,0,0,0,110,0,0,110,0,40,0,50,0,0,255,0,0,255,0,0,10,0,10,0,0,0,0,0,0,0,0,30,0,0,0,0,0,30,90,140,70
100,40,80,160,140,140,100,255,220,230,200,200,210,210,200,240,230,210,220,210,240,230,210,210,180,0,0,0,100,10,0,0,0,0,210,0,0,0,0,0,50,110,20,100,255,0,0,0,0,10,0,0,0,20,0,0,0,0,0,0,30,40,60,70
255,160,150,90,130,100,120,200,210,120,230,200,220,255,210,190,220,240,220,220,220,210,210,210,170,0,0,110,0,255,0,0,60,150,0,0,0,255,255,0,30,0,20,20,0,10,0,10,0,0,0,0,0,0,0,0,0,0,0,40,0,30,100,100
50,120,40,110,160,130,140,120,200,210,255,210,230,210,210,230,240,250,210,240,230,200,220,210,0,0,160,160,0,0,255,0,0,0,0,0,220,10,0,255,20,50,130,140,10,0,0,0,0,0,0,0,0,0,0,0,0,0,0,30,0,80,90,70
70,130,100,90,100,130,120,140,200,200,255,220,255,230,230,220,220,230,240,220,230,220,240,160,230,0,90,0,0,20,230,0,0,0,10,0,200,80,255,0,0,20,40,20,30,0,0,0,0,0,0,0,0,0,20,0,0,0,0,10,0,110,90,80
80,80,170,30,80,130,90,255,170,190,210,255,220,250,220,200,210,220,240,250,240,210,240,230,170,0,120,0,0,0,140,140,0,0,0,30,210,0,255,40,230,20,40,0,0,20,0,0,0,255,0,0,0,0,0,0,0,0,0,0,80,20,70,140
255,70,20,140,90,140,150,140,255,200,190,210,210,200,210,220,240,240,210,210,220,210,220,190,180,0,0,100,0,0,0,0,0,0,0,100,0,0,255,50,190,10,10,255,0,0,0,0,0,0,0,0,0,0,0,0,0,0,0,0,70,30,100,140
50,255,10,150,110,130,130,130,220,210,200,210,210,240,255,240,250,210,210,240,220,210,230,220,0,0,0,160,0,0,255,0,0,30,255,0,10,0,255,50,0,20,20,0,0,0,0,10,0,0,0,0,30,0,0,0,0,0,20,0,0,90,40,80
30,150,0,90,120,130,130,200,90,210,210,210,255,250,220,230,250,220,250,230,230,220,220,170,210,0,0,200,20,0,50,220,0,0,160,0,0,220,255,60,70,0,40,0,60,10,40,0,0,0,0,0,0,0,0,0,0,0,0,80,0,100,140,140
110,70,140,130,120,120,130,100,210,170,210,255,210,200,210,240,210,230,210,220,200,220,190,220,0,0,0,170,255,0,0,0,0,50,150,0,0,240,130,30,20,0,255,0,0,10,0,0,0,0,0,0,0,10,0,0,0,0,0,0,30,10,100,130
30,150,80,150,120,255,120,190,130,200,200,180,220,220,210,210,210,240,210,255,230,200,200,220,0,0,0,120,0,0,255,0,50,0,0,180,0,20,100,0,255,30,50,90,20,0,0,0,0,0,0,0,0,0,0,0,0,0,0,0,10,100,30,70
