36,3,9,1,7,13,21,14,14,13,48,13,12,17,11,12,11,15,15,11,11,12,14,18,0,0,0,17,1,0,0,48,0,13,0,0,0,3,0,48,1,0,5,17,0,48,1,0,0,0,0,0,0,0,0,0,0,0,0,0,3,5,10,4
12,12,0,5,13,12,12,14,19,47,15,16,17,14,11,14,9,13,14,14,12,16,14,14,12,0,0,19,0,0,10,2,0,0,15,0,0,0,18,2,48,5,2,45,0,1,0,0,0,0,0,0,0,0,0,0,0,0,0,0,2,3,12,10
3,6,3,8,12,12,13,15,19,12,13,48,14,14,12,14,15,13,14,13,14,15,14,15,16,0,0,6,22,0,12,0,32,0,0,19,0,1,5,0,10,5,8,43,0,48,0,0,0,0,0,0,0,0,0,0,0,0,0,0,2,1,10,6
7,1,10,10,12,13,14,47,12,11,15,14,25,15,13,12,17,15,15,15,14,14,15,15,12,0,0,19,2,0,1,19,0,0,0,0,4,0,2,8,2,5,48,5,0,0,0,0,0,0,0,0,0,0,0,0,0,0,0,2,0,7,6,12
5,5,3,4,7,14,13,20,13,12,17,48,21,10,12,12,35,14,12,16,5,14,8,11,10,0,0,20,0,9,0,2,0,0,19,0,0,2,8,48,10,0,1,17,1,47,0,0,0,0,0,0,0,0,0,0,0,0,0,3,0,5,9,8
4,12,5,8,6,14,15,17,14,48,11,13,12,13,13,14,12,13,18,16,15,12,16,16,8,0,0,18,0,0,18,3,0,0,0,10,0,10,0,1,48,4,8,3,0,0,0,0,0,0,0,0,0,0,0,0,0,0,0,0,5,3,7,8
4,3,3,8,11,23,14,21,48,12,13,13,13,21,14,13,14,37,14,15,17,16,14,14,0,10,0,17,5,0,34,14,2,0,0,0,33,3,0,9,1,48,23,39,28,0,0,0,0,0,0,0,0,0,0,0,0,0,0,1,4,4,12,10
14,3,2,12,13,13,17,15,15,14,17,48,14,15,16,16,13,12,11,19,14,14,8,7,12,0,0,8,0,4,35,6,0,16,0,0,5,2,28,10,1,4,4,1,0,0,0,2,0,0,0,0,0,0,0,0,0,0,0,0,0,5,5,8
5,2,3,12,13,16,14,16,15,11,47,14,13,27,10,12,10,12,8,10,9,12,11,12,0,0,0,22,5,5,31,0,0,0,0,4,0,0,0,4,0,0,2,0,0,26,0,0,0,0,0,0,0,0,0,0,0,0,0,0,4,5,5,14
22,7,8,12,14,5,11,43,25,17,11,10,13,11,10,9,10,9,10,7,8,7,8,0,8,0,0,12,1,29,0,0,0,0,14,0,2,0,1,0,13,8,1,1,48,0,0,0,0,0,0,0,0,0,0,0,0,0,0,0,2,4,5,41
6,11,2,5,16,15,16,16,14,14,48,12,48,15,13,11,14,12,12,10,7,7,11,9,6,0,0,18,13,0,5,30,0,0,0,24,0,48,3,0,7,3,0,0,0,3,0,0,0,0,0,0,0,0,0,0,0,0,0,0,2,5,5,12
14,3,13,9,12,7,23,48,14,13,14,9,12,11,11,11,12,9,16,11,14,13,10,10,12,0,0,2,14,4,23,0,0,14,0,0,2,0,10,0,2,1,48,0,1,0,0,0,0,0,0,0,0,0,0,0,0,0,0,5,0,4,3,4
26,9,16,12,6,11,12,16,16,14,15,16,48,16,12,12,12,11,10,12,10,12,10,12,0,12,0,19,7,0,37,0,0,0,0,0,22,11,48,3,3,12,2,0,7,0,0,0,0,0,0,0,0,0,0,0,0,0,0,0,3,1,12,7
10,10,1,11,12,12,12,16,16,14,48,16,16,16,13,12,10,9,10,14,9,14,8,7,10,0,4,15,3,3,30,17,0,0,0,3,0,0,14,0,26,0,8,0,1,10,0,0,0,0,0,0,0,0,0,0,0,0,0,0,2,3,4,7
8,6,4,11,14,16,41,13,16,12,13,14,38,15,12,14,13,11,10,8,8,8,8,9,0,7,0,21,5,0,39,7,0,0,0,0,28,0,48,6,9,0,1,10,0,1,5,0,0,0,0,0,0,0,0,0,0,0,0,0,2,4,3,6
10,5,8,13,17,14,14,16,15,48,16,15,19,47,15,15,14,15,14,16,14,14,14,13,16,0,0,3,25,0,9,32,0,0,0,16,0,26,6,0,7,48,0,0,0,3,0,0,0,0,0,0,0,0,0,0,0,0,0,3,0,4,7,12
6,8,7,12,23,12,18,15,18,15,16,14,48,18,14,13,14,13,11,14,14,12,13,15,12,0,0,20,5,0,12,30,10,18,0,0,48,5,1,5,8,1,2,0,0,0,0,0,0,0,0,0,0,0,0,0,0,0,0,0,1,3,14,8
12,0,5,8,13,14,13,13,20,16,47,14,14,17,14,13,12,12,12,14,14,13,13,14,0,8,0,17,8,0,35,1,0,0,0,15,3,0,24,10,48,13,0,0,1,0,5,0,0,0,0,0,0,0,0,0,0,2,0,0,0,4,13,6
8,12,2,11,14,16,15,19,47,19,16,16,15,15,15,15,12,12,19,15,14,15,16,9,14,0,0,0,0,17,21,30,0,35,2,16,1,20,0,13,0,10,0,48,0,0,0,0,0,0,0,0,0,0,0,0,0,0,0,0,1,3,3,9
31,8,1,6,13,12,16,14,14,16,48,12,12,13,14,16,12,14,14,12,12,12,14,12,15,0,14,0,11,2,0,28,0,0,0,5,0,0,48,0,12,0,3,0,0,0,0,0,0,0,0,0,0,0,0,0,0,0,0,0,1,1,5,7
8,11,2,11,11,12,13,12,16,47,16,15,16,13,14,16,14,17,14,16,15,17,15,15,14,0,0,15,0,0,0,0,24,0,6,0,12,0,28,8,48,0,1,46,0,0,0,0,0,0,0,0,0,0,0,0,0,0,0,0,5,3,16,9
6,8,3,0,33,12,17,14,16,17,18,18,15,17,16,15,48,14,16,16,18,21,18,16,20,8,22,0,3,0,39,0,0,0,0,25,0,48,0,14,1,0,0,13,0,3,0,0,0,0,0,0,0,0,0,0,0,0,0,0,2,5,12,4
10,11,4,13,7,20,14,14,14,14,17,18,17,16,17,17,17,16,16,17,17,18,19,19,15,0,0,13,0,3,39,0,0,0,0,16,0,32,5,4,8,17,48,26,0,0,0,0,0,0,0,0,0,0,0,0,0,0,3,0,0,6,6,5
13,16,2,10,14,13,12,17,16,15,16,48,15,15,14,15,15,15,14,18,17,14,17,15,14,0,0,5,18,0,0,4,0,0,14,0,0,14,0,48,8,2,0,0,9,0,35,0,0,0,0,0,0,0,0,0,0,0,0,0,3,8,10,5
2,11,9,12,12,16,13,14,14,16,13,16,15,15,28,14,14,15,17,17,20,20,17,14,14,0,19,0,5,17,9,3,19,15,0,0,0,9,14,6,1,48,0,2,0,0,0,0,0,0,0,0,0,0,0,0,0,0,1,0,0,8,3,13
5,8,23,14,12,13,14,21,15,15,16,14,48,12,13,14,15,14,16,16,14,15,13,16,0,15,0,20,0,2,0,25,11,0,0,0,0,15,11,9,1,0,1,1,17,0,21,0,1,0,0,0,0,0,0,0,0,0,0,1,10,13,1,8
12,11,10,11,13,14,15,22,18,19,47,16,17,17,16,14,15,17,16,17,17,21,19,17,13,18,0,0,1,26,1,0,0,0,0,19,4,0,0,48,5,7,1,15,0,23,0,0,0,0,0,0,0,0,0,0,0,0,0,22,5,7,13,6
10,5,5,8,14,12,14,19,16,17,14,14,14,12,14,13,48,16,17,16,15,14,16,15,14,0,0,18,4,5,33,0,0,0,0,18,0,17,48,8,9,5,8,2,0,0,0,0,0,0,0,0,0,0,0,0,0,0,0,0,5,3,14,14
5,13,5,13,11,16,17,17,16,14,13,14,14,13,14,18,14,15,14,15,19,15,15,13,13,0,0,8,19,8,25,0,0,0,19,0,0,3,0,11,48,3,5,0,5,1,0,0,0,0,0,0,0,0,0,0,0,0,0,8,4,5,0,10
6,1,10,14,13,15,12,44,16,16,13,16,14,12,44,12,13,16,18,14,12,16,12,14,16,0,21,0,0,6,0,19,0,28,10,0,0,22,0,5,1,23,48,15,0,0,0,0,0,0,0,0,0,0,0,0,0,0,0,0,4,11,3,5
2,7,12,12,13,12,12,15,12,13,48,12,41,12,13,12,11,12,13,14,16,14,12,14,14,0,0,20,5,26,0,0,0,0,0,0,2,48,17,7,0,10,2,0,0,0,0,0,0,0,0,0,0,0,0,0,0,0,0,0,3,8,11,6
10,10,3,11,12,12,14,14,12,13,47,12,13,14,12,13,13,12,12,12,13,7,14,12,0,0,12,17,0,0,4,42,0,18,0,19,0,0,7,48,11,0,5,3,0,1,0,0,0,0,0,0,0,0,0,0,0,0,0,0,4,7,8,13
4,3,4,13,11,12,13,16,20,14,14,48,12,14,12,12,12,11,14,12,12,13,13,14,13,0,17,0,7,24,2,0,0,0,0,0,0,48,6,5,11,2,1,2,1,0,0,0,0,0,0,0,0,0,0,0,0,0,0,0,3,7,3,8
5,5,13,3,13,12,13,13,19,12,47,16,15,14,14,12,12,13,14,12,16,12,14,13,11,0,0,19,5,0,4,39,25,0,13,0,0,0,3,48,27,5,1,0,2,4,0,0,0,0,0,0,0,0,0,0,0,0,0,1,0,3,13,6
10,10,3,16,8,12,21,12,12,13,48,13,12,33,15,13,11,12,14,13,15,13,16,12,0,7,0,0,0,19,20,0,0,0,0,17,0,26,0,0,48,40,1,3,0,0,0,0,0,0,0,0,0,0,0,0,0,0,0,1,6,1,6,5
7,10,5,5,14,13,15,11,18,13,13,48,13,12,12,12,11,13,15,15,12,14,14,0,0,14,5,0,0,17,35,10,0,0,1,0,0,30,48,8,10,0,2,0,6,0,0,0,0,0,0,0,0,0,0,0,0,0,0,0,2,6,7,8
10,9,7,0,10,7,16,12,13,12,48,14,14,47,13,9,12,12,12,12,12,12,11,11,10,0,0,0,4,21,8,32,0,3,0,0,1,0,14,1,6,48,7,0,0,0,0,0,0,0,0,0,0,0,0,0,0,0,0,0,4,10,2,11
5,9,1,7,10,13,12,15,15,12,10,10,40,11,38,10,13,14,10,14,13,15,13,14,15,0,0,8,0,0,4,19,9,12,0,0,0,10,1,0,6,48,7,30,0,7,0,0,0,0,0,0,0,0,0,0,0,0,2,0,0,8,9,7
5,9,1,6,15,13,11,13,11,47,11,11,26,9,11,8,10,12,9,12,12,12,12,12,10,0,17,0,5,0,6,27,4,0,0,14,0,0,0,7,5,48,1,0,0,0,0,0,0,0,0,0,0,0,0,0,0,0,0,0,19,5,5,11
3,2,3,6,9,33,12,9,44,10,10,10,9,9,22,13,10,10,10,10,14,11,13,12,0,0,0,13,4,0,0,19,0,0,0,0,1,0,18,1,0,7,2,6,48,0,0,1,0,0,0,0,0,0,0,0,0,0,0,2,0,7,39,4
1,5,3,11,10,10,10,12,11,10,48,12,10,10,9,7,10,10,9,10,10,11,10,8,11,0,19,0,2,35,0,44,0,0,19,4,0,0,48,2,6,2,2,30,48,1,0,0,0,0,0,0,0,0,0,0,0,0,0,0,2,3,6,10
10,7,12,0,7,13,13,14,46,11,14,13,14,14,11,13,9,10,11,9,9,11,10,8,9,0,0,19,8,36,0,0,3,13,0,0,0,23,8,1,1,5,2,48,0,0,0,0,0,0,0,0,0,0,0,0,0,0,0,0,3,1,4,12
12,19,6,9,12,15,12,12,13,15,12,13,13,12,13,10,10,10,9,10,12,12,12,10,10,0,0,16,4,1,34,0,4,0,0,16,0,23,48,0,0,0,7,3,0,3,0,0,0,0,0,0,0,0,0,0,0,0,0,2,1,3,11,14
15,6,0,13,7,14,19,15,13,48,14,12,11,12,10,11,13,9,14,10,12,12,12,14,5,0,0,0,14,3,0,24,0,0,12,20,0,5,1,12,0,0,3,0,0,1,0,0,0,0,0,0,0,0,0,0,0,0,0,1,0,7,3,5
14,3,9,6,8,14,13,46,13,15,13,13,29,41,42,11,13,13,12,13,13,15,17,14,0,0,12,0,1,0,0,6,0,0,0,19,0,3,2,0,10,0,48,0,1,1,0,0,0,0,0,0,0,0,0,0,0,0,0,1,8,31,5,3
8,12,15,5,11,15,12,21,12,12,12,48,10,26,11,12,10,12,10,13,16,14,16,10,0,1,0,16,0,0,34,0,0,17,0,0,2,48,10,0,2,1,0,0,0,0,0,0,0,0,0,0,0,0,0,0,0,1,0,4,0,7,7,9
0,7,10,2,14,15,20,13,15,45,12,12,10,37,10,12,12,15,15,14,13,14,15,3,18,0,14,1,0,0,9,0,18,0,0,0,1,8,0,48,0,48,8,1,4,0,0,0,0,0,0,0,0,0,0,0,0,0,0,0,12,2,14,13
11,12,12,7,11,9,14,16,46,22,10,12,12,48,10,12,12,14,15,15,17,12,0,18,17,0,0,0,16,0,39,14,0,0,0,0,2,0,25,1,10,0,48,48,2,0,0,0,0,0,0,0,0,0,0,0,0,0,0,1,0,8,6,7
7,14,0,10,21,14,16,16,18,17,48,14,12,14,14,14,14,14,15,13,14,12,8,12,0,3,0,10,4,0,5,15,0,0,0,0,0,31,2,5,2,9,2,48,0,0,1,0,0,0,0,0,0,0,0,0,0,0,0,0,2,1,5,9
6,5,3,12,12,16,16,48,17,14,14,12,10,11,11,10,12,13,14,16,14,16,10,11,0,0,5,21,3,0,0,17,0,0,0,10,0,23,3,4,10,0,48,0,6,0,0,0,0,0,0,0,0,0,0,0,0,0,0,0,3,3,12,8
