144,48,16,72,64,96,88,176,88,152,152,152,152,144,255,136,128,160,144,128,152,144,128,136,200,0,0,0,0,0,64,0,216,96,0,0,128,32,255,72,0,24,40,8,8,8,0,0,0,0,0,0,0,0,0,0,0,0,16,0,80,120,24,80
64,64,72,40,56,96,104,96,255,168,160,136,144,136,152,128,144,136,152,152,152,152,152,152,128,0,0,168,0,0,255,16,0,0,0,168,0,0,80,40,255,8,8,48,24,0,0,0,0,0,0,0,0,0,0,0,0,0,0,32,0,136,32,64
56,128,56,24,56,72,112,104,152,144,255,152,160,144,136,152,144,136,136,152,136,144,120,152,136,0,0,160,0,0,0,0,0,112,0,0,0,0,255,24,24,16,16,24,16,255,0,0,0,0,0,0,24,0,0,0,0,24,0,0,0,120,72,255
24,152,24,56,104,56,168,128,152,136,152,176,136,160,144,136,128,152,144,160,136,136,120,144,0,112,208,40,0,0,0,200,216,0,0,160,0,0,64,255,8,24,104,0,8,0,0,0,0,0,0,0,0,0,0,0,0,0,0,24,0,80,32,136
136,88,40,255,16,96,136,72,168,144,152,144,160,168,160,136,136,144,136,136,152,128,152,152,96,0,0,168,0,0,0,0,0,0,88,0,0,8,160,0,0,0,0,0,32,255,56,0,8,0,0,0,0,0,0,0,0,0,24,0,32,80,40,255
40,72,8,72,120,104,104,112,255,152,136,136,152,152,128,136,152,144,152,136,144,152,128,136,112,0,0,0,192,0,56,0,0,0,0,88,136,0,56,80,255,0,8,0,0,0,0,0,0,0,0,0,0,0,0,0,0,0,0,0,40,32,48,144
72,136,24,64,72,112,88,104,152,136,144,152,144,144,144,144,128,136,144,136,136,120,128,128,0,0,0,184,8,192,0,0,24,0,0,0,120,8,0,208,96,24,0,8,255,0,0,0,0,0,0,0,0,0,0,0,0,0,0,0,24,0,72,136
255,24,32,136,56,112,120,104,152,144,255,136,152,136,128,136,152,144,176,136,144,160,152,128,128,0,0,176,0,255,24,8,0,88,0,0,0,240,255,104,32,0,8,16,0,0,8,8,0,0,0,0,0,0,0,0,0,0,0,8,72,24,128,24
64,32,128,80,80,88,104,96,144,255,144,152,136,136,152,136,144,136,136,152,152,152,144,144,0,0,0,0,0,56,0,8,144,0,0,0,144,0,0,104,56,255,0,0,0,0,16,0,0,0,0,0,0,0,0,0,0,0,0,48,8,24,24,120
136,72,16,64,88,112,88,96,168,255,152,144,144,128,136,136,112,112,128,136,136,144,136,128,96,0,168,0,0,0,255,32,0,160,0,0,0,255,48,136,8,72,0,0,0,0,0,0,0,0,0,0,0,0,0,0,0,0,0,0,32,120,56,32
40,24,120,56,24,96,112,104,168,144,136,160,152,168,152,160,152,136,136,152,128,160,128,152,104,0,0,24,0,152,16,224,0,0,8,0,0,152,16,0,168,8,56,40,255,0,0,0,0,0,0,0,0,0,0,0,0,0,0,32,0,40,128,72
255,136,24,64,80,88,184,96,152,136,144,255,144,136,136,144,136,136,152,136,152,136,144,0,128,0,0,128,0,255,0,160,0,0,0,0,160,0,160,255,64,64,8,0,0,16,0,8,0,0,0,0,0,0,0,0,0,0,0,8,40,32,32,128
24,120,16,64,24,56,96,120,152,255,144,152,168,152,144,144,136,152,152,128,136,152,136,152,0,0,0,120,64,0,56,136,0,0,0,0,112,0,0,24,88,48,255,16,0,0,0,0,0,0,0,0,0,0,0,0,0,0,0,0,16,56,128,128
56,255,24,64,88,112,104,144,128,255,152,152,136,136,144,152,152,136,168,160,128,152,128,136,112,0,0,0,152,24,16,0,144,8,0,0,255,56,0,8,128,48,8,0,32,0,0,0,0,0,0,0,0,0,0,0,0,0,0,56,0,40,72,136
72,40,56,64,48,168,80,72,112,144,160,144,168,152,168,152,128,136,144,160,160,160,136,136,152,0,192,0,0,32,0,16,0,96,0,112,0,0,88,255,64,8,0,0,8,16,0,0,0,0,0,24,0,0,0,0,0,0,0,0,16,152,56,24
48,72,48,80,144,112,112,104,152,255,144,144,136,144,136,136,128,136,136,136,128,128,144,128,128,0,80,0,0,0,255,0,0,128,0,80,0,0,176,56,0,32,0,255,32,0,0,0,0,0,0,0,0,0,0,0,0,0,0,0,24,48,136,32
240,24,48,32,56,80,144,96,136,144,128,255,160,168,128,128,136,152,160,152,136,152,144,136,104,0,0,160,16,136,0,0,0,0,176,0,0,0,0,144,88,0,24,8,0,0,0,8,0,0,0,0,0,0,0,0,0,0,0,0,16,56,24,136
72,8,8,48,56,80,120,120,160,255,144,136,152,136,136,120,144,128,136,136,136,152,136,128,144,0,0,168,0,24,40,0,0,96,0,0,80,0,0,8,64,255,0,8,24,0,0,0,0,0,0,0,0,0,0,0,0,0,0,0,32,48,160,64
136,16,24,64,240,96,112,88,152,152,184,144,168,152,168,152,160,160,128,144,160,160,136,128,0,96,0,16,152,0,24,255,0,0,0,224,0,128,255,88,40,32,8,16,0,0,0,0,0,24,8,0,0,0,8,0,0,0,0,48,16,0,56,128
56,24,8,40,88,152,120,112,152,255,152,160,152,136,144,136,128,112,112,128,136,152,144,160,0,128,0,0,152,8,200,0,136,0,0,0,96,0,255,120,16,120,0,0,0,0,0,0,0,0,0,0,0,0,0,0,0,0,0,0,16,56,144,88
40,8,128,56,80,255,176,96,152,88,176,184,152,152,144,255,152,128,152,152,136,160,152,168,112,0,0,168,0,0,128,56,0,0,0,248,24,255,0,40,24,8,64,8,0,16,0,0,0,0,0,0,8,0,8,0,0,0,0,24,0,48,112,160
120,72,40,16,48,96,72,136,96,255,136,160,152,152,160,168,152,136,152,152,160,152,160,144,96,0,0,120,0,0,255,0,0,24,120,0,0,0,16,120,255,16,16,0,0,0,0,0,0,0,0,0,0,0,0,0,0,0,0,0,24,56,128,40
144,80,40,56,8,104,255,152,160,136,168,128,136,144,136,144,144,152,144,168,144,168,152,96,255,0,200,0,0,32,0,0,0,255,0,0,216,40,0,48,0,48,24,0,0,0,16,0,0,0,0,0,0,0,0,0,0,0,0,0,8,80,56,80
96,56,24,56,144,112,120,112,160,168,160,144,152,255,152,152,144,144,144,168,152,152,152,0,136,120,80,0,0,16,255,0,0,160,96,0,0,255,24,0,24,48,112,0,0,255,0,0,0,0,0,0,0,0,0,0,0,0,0,0,40,48,56,136
72,16,24,64,96,72,96,255,184,144,136,152,152,152,168,168,136,152,152,144,136,152,160,255,144,0,0,144,8,0,8,152,0,0,0,224,0,0,0,8,40,16,24,0,0,0,0,0,0,0,0,0,0,0,0,0,0,0,0,0,8,48,144,24
24,64,56,32,112,96,144,64,152,160,255,176,152,144,128,144,160,152,128,144,168,144,152,152,112,0,0,160,0,0,0,88,72,0,8,0,120,8,0,255,80,24,16,120,0,0,0,0,0,0,0,0,0,0,0,0,0,0,0,0,40,24,144,96
128,56,72,48,40,80,96,104,160,160,152,144,152,160,168,144,160,128,144,152,136,144,144,160,8,0,0,112,0,0,160,0,0,0,0,0,104,208,0,8,96,255,16,0,0,0,16,0,0,0,0,0,0,0,0,0,0,0,0,0,32,64,88,128
56,40,24,48,144,80,112,128,184,160,136,136,255,136,136,160,144,128,144,128,136,144,144,104,168,0,0,0,136,128,0,48,64,192,0,0,255,104,0,64,56,0,16,24,96,0,0,0,0,0,0,0,0,0,0,0,0,0,0,80,0,40,136,56
32,72,32,48,96,144,112,128,160,144,255,152,144,128,128,144,128,136,136,136,144,128,128,88,0,144,0,136,72,0,8,136,0,0,0,0,128,0,72,168,255,56,8,0,8,0,0,8,0,0,0,0,0,8,0,0,0,0,0,24,8,56,112,128
40,120,24,16,56,104,96,224,136,152,152,120,120,152,120,128,255,128,136,128,128,128,144,128,0,0,0,80,0,144,0,24,0,0,120,0,0,255,0,0,48,32,40,8,8,0,0,8,0,0,0,0,0,0,8,0,0,0,0,0,24,56,24,80
112,24,80,40,56,88,136,96,255,128,152,144,128,152,136,128,128,128,136,136,120,112,136,0,112,0,152,0,0,8,104,208,0,0,0,0,0,136,168,255,0,24,8,0,0,0,0,0,0,0,0,0,0,0,0,0,0,0,0,8,32,48,32,152
24,24,64,56,40,80,112,255,168,136,144,152,160,120,128,128,112,128,128,128,136,144,160,136,112,0,0,0,168,0,32,0,144,0,200,152,0,8,0,24,80,0,40,255,0,8,0,0,16,0,0,0,0,0,0,0,0,0,0,0,8,80,32,56
240,120,32,0,56,104,120,128,152,168,144,255,128,128,152,152,144,152,144,136,136,144,128,120,0,0,0,168,0,40,0,0,208,0,240,0,0,0,0,255,0,64,8,0,8,0,0,0,0,0,0,0,0,16,0,0,0,0,0,0,16,40,96,40
32,56,48,24,56,88,80,255,168,160,136,128,152,128,136,128,160,128,144,120,152,144,136,136,0,0,0,0,0,16,24,0,96,0,0,176,0,0,0,0,64,80,255,0,0,0,0,0,0,0,0,0,0,0,0,0,0,0,48,0,0,40,72,120
104,16,32,255,96,96,120,160,112,176,255,144,112,152,152,128,128,144,144,136,128,136,128,144,0,0,0,96,0,0,0,255,144,0,0,0,0,0,255,24,8,80,0,32,0,0,8,0,0,0,0,0,0,0,0,0,0,0,0,8,0,64,128,160
64,40,16,72,80,88,96,152,136,112,144,152,136,128,136,152,152,128,128,136,144,136,144,136,0,0,0,104,16,0,255,8,0,0,0,0,0,152,144,8,255,80,0,8,64,0,0,0,0,0,0,0,0,0,0,0,0,0,0,0,24,80,56,72
112,8,16,32,176,72,120,136,152,152,128,144,136,144,255,128,128,144,136,136,152,152,168,160,0,0,0,136,40,0,168,0,0,8,96,0,0,255,0,64,0,64,0,0,80,0,0,8,0,0,0,0,0,8,0,0,0,0,16,0,48,48,80,128
136,72,32,72,48,72,88,120,255,152,136,152,144,128,128,136,144,152,136,128,152,128,144,152,0,0,0,0,0,128,96,0,255,32,0,0,0,96,128,255,8,0,56,24,0,0,0,0,0,0,0,0,0,0,0,0,0,0,0,0,24,56,112,80
32,16,136,64,104,24,255,152,120,152,144,136,128,128,136,136,104,152,152,144,152,136,144,0,136,0,0,160,112,0,0,0,0,0,0,0,0,112,200,72,8,0,8,0,255,0,0,0,0,0,0,0,0,0,0,0,0,0,0,24,0,64,128,56
32,32,255,128,72,80,88,152,152,152,255,152,120,136,120,152,160,136,144,136,152,136,136,0,136,0,208,0,0,160,32,0,0,200,0,0,184,40,72,0,0,8,0,0,0,0,8,0,0,0,0,0,0,0,0,0,0,0,0,0,24,56,40,152
72,16,40,40,56,80,144,96,255,136,128,144,128,128,136,144,136,144,128,160,144,120,112,160,0,0,0,176,0,40,64,0,104,0,0,0,255,0,8,56,8,255,24,136,8,8,0,0,0,8,0,0,0,0,0,0,0,0,0,0,24,112,160,32
136,88,128,96,72,96,96,120,255,168,144,160,144,136,128,144,136,152,136,136,160,144,128,136,104,0,0,8,120,0,0,40,40,0,0,56,0,56,32,72,0,88,8,255,0,0,0,0,0,0,0,0,0,0,0,0,0,0,0,40,0,64,64,136
136,248,24,56,96,104,160,120,136,255,152,128,144,128,128,136,136,136,144,152,152,152,152,136,104,0,0,0,0,128,0,0,32,152,0,8,0,112,0,0,24,255,0,48,0,56,0,0,0,0,0,0,0,0,0,0,0,0,0,0,16,64,40,56
80,128,32,56,32,112,112,168,255,152,144,128,168,128,144,152,144,152,128,136,152,136,96,136,0,0,0,0,184,16,0,40,248,0,0,0,255,112,16,0,48,255,64,32,0,16,0,0,0,0,0,0,0,0,0,0,0,0,0,0,24,136,56,96
128,104,255,96,32,64,152,120,112,152,152,255,128,160,144,152,152,152,128,144,144,128,160,0,136,0,0,152,8,0,208,0,0,96,0,0,40,0,255,24,0,32,0,8,32,0,0,0,0,0,0,0,0,0,0,0,0,0,0,0,64,16,64,136
72,32,64,40,56,104,152,152,96,255,152,144,136,128,136,144,136,144,128,144,152,136,144,104,136,0,0,0,152,0,255,32,0,0,0,128,0,16,144,255,0,32,96,8,0,0,0,0,0,0,0,0,0,0,0,0,0,0,0,32,0,136,56,80
48,16,40,128,112,255,136,104,152,152,144,255,144,152,136,120,152,160,136,136,152,144,120,128,144,0,0,8,112,0,24,0,104,0,0,0,80,120,0,255,64,0,0,16,0,104,0,0,0,0,0,0,0,0,0,0,0,0,16,0,48,128,96,112
64,128,40,16,72,88,112,255,160,144,152,152,152,128,144,136,128,128,128,152,152,152,136,0,152,0,0,168,0,104,24,0,0,255,0,88,0,0,128,40,8,88,255,0,24,0,0,0,0,0,0,0,0,0,0,0,0,0,0,8,40,56,80,80
136,64,24,56,24,96,136,104,152,152,255,128,144,144,136,144,144,144,112,144,152,136,144,152,0,120,0,200,0,0,128,0,0,0,8,0,96,184,0,0,8,24,8,56,0,0,0,0,0,0,0,0,0,0,0,0,0,0,8,0,40,56,40,0
8,128,64,56,80,80,80,128,144,128,255,136,136,152,144,128,144,136,112,136,144,136,168,96,144,0,0,0,88,0,96,160,0,0,0,0,112,0,0,40,0,8,64,24,0,0,0,0,0,0,0,0,0,0,0,0,0,0,0,0,112,16,24,120
