0,0,0,0,0,0,0,0,0,0,46,0,0,0,0,0,0,0,0,0,0,0,0,0,0,0,0,0,1,0,0,0,0,3,1,0,0,1,2,19,8,12,4,14,12,0,0,0,0,12,0,0,0,0,11,0,0,0,0,0,0,0,0,0
25,0,0,0,0,0,0,5,0,0,45,0,0,0,0,0,0,0,0,0,0,0,0,0,0,0,0,0,0,0,22,0,0,0,1,0,4,5,2,11,16,12,3,13,4,15,9,0,0,0,0,0,0,0,0,0,0,0,0,0,3,0,0,1
21,0,0,0,0,0,0,8,0,0,0,0,44,0,0,0,0,0,0,0,0,0,0,0,0,0,0,0,0,0,0,5,0,0,0,0,0,3,3,2,19,9,2,6,10,8,4,0,0,0,0,0,0,0,0,0,0,0,3,0,0,0,0,18
0,0,0,0,0,0,0,5,0,0,0,42,0,0,0,0,0,0,0,0,0,0,0,0,0,0,0,0,0,0,19,0,0,0,0,0,11,0,5,5,8,14,17,10,10,6,11,0,7,4,0,0,0,0,0,0,0,0,0,2,0,0,0,15
0,0,0,0,0,6,0,0,0,0,46,0,0,0,0,0,0,0,0,0,0,0,0,0,0,0,0,0,0,0,0,3,0,1,0,0,0,2,14,12,2,8,3,8,0,14,7,3,11,0,0,0,0,0,0,0,0,0,0,0,0,0,19,0
0,0,0,0,0,0,0,0,6,0,0,41,0,0,0,0,0,0,0,0,0,0,0,0,0,0,0,0,0,0,0,10,0,2,0,0,0,0,16,6,9,7,11,8,2,0,2,0,0,13,0,0,0,0,0,0,0,3,0,0,0,0,0,20
0,0,0,0,0,0,0,0,9,0,0,0,0,0,0,0,0,0,0,0,0,0,0,0,0,0,0,0,0,0,0,15,0,1,0,0,0,6,10,3,11,3,6,9,2,0,0,17,12,0,0,0,0,0,0,0,0,0,0,3,0,0,0,22
0,0,0,0,0,0,0,10,0,0,0,40,0,0,7,0,0,0,0,0,0,0,0,0,0,0,0,0,0,0,0,1,0,21,0,0,4,0,5,1,7,8,3,10,10,0,0,3,0,0,0,0,0,0,0,0,0,0,0,3,0,0,0,0
0,21,0,0,0,0,6,0,0,0,45,0,0,0,0,0,0,0,0,0,0,0,0,0,0,0,0,0,0,0,0,0,0,7,0,0,0,3,11,10,9,8,8,5,11,0,1,6,0,0,0,0,0,0,0,0,0,0,0,0,0,0,0,17
0,0,0,0,0,0,0,0,0,0,46,0,0,0,0,0,0,0,0,0,0,0,0,0,0,0,0,0,0,0,0,0,4,0,0,1,3,11,5,6,5,14,0,14,10,10,11,0,0,0,0,0,0,0,0,0,0,0,0,0,0,0,0,0
26,0,0,0,0,0,0,0,12,0,0,0,46,0,0,0,0,0,0,0,0,0,0,0,0,0,0,0,0,0,0,15,0,3,0,0,0,0,7,1,8,14,10,13,12,1,8,2,0,0,0,0,0,0,0,0,0,0,0,0,0,0,0,0
27,0,0,0,0,0,0,10,0,0,8,0,44,0,0,0,0,0,0,0,0,0,0,0,0,0,0,0,0,0,0,0,21,0,0,3,2,0,12,12,9,8,11,8,12,8,7,0,4,0,0,0,0,0,0,0,0,6,0,0,0,0,0,0
0,29,0,0,0,0,0,0,14,0,0,0,0,0,0,0,0,0,0,0,0,0,0,0,0,0,0,0,0,0,0,3,0,7,0,0,6,1,2,3,7,4,8,3,7,0,3,0,11,0,11,0,0,0,0,0,0,0,3,0,0,0,0,0
27,0,0,0,0,0,0,5,0,0,47,0,0,0,0,0,0,0,0,0,0,0,0,0,0,0,0,0,0,0,0,0,21,0,0,0,0,1,20,10,4,9,1,7,13,7,0,8,0,0,0,0,0,0,0,0,0,0,0,0,0,0,0,0
22,0,0,0,0,0,0,11,0,0,0,47,0,0,0,0,0,0,0,0,0,0,0,0,0,0,0,0,0,0,0,16,0,0,0,2,0,17,5,0,5,10,7,1,9,8,12,9,0,0,0,0,0,0,0,0,0,0,0,0,0,0,0,0
26,0,0,0,0,0,0,0,0,0,0,0,0,0,0,0,0,0,0,0,0,0,0,0,0,0,0,0,0,0,0,0,9,0,3,0,0,0,0,9,8,12,7,5,13,1,11,0,5,0,5,0,0,0,0,0,0,0,0,0,0,0,0,0
21,0,0,0,0,0,9,0,0,0,0,47,0,0,0,0,0,0,0,0,0,0,0,0,0,0,0,0,0,0,0,7,0,0,0,0,0,13,2,3,14,8,10,7,5,7,11,5,0,0,0,0,0,0,0,0,0,0,0,0,0,0,0,0
0,20,0,0,0,0,0,0,15,0,0,0,0,44,0,0,0,0,0,0,0,0,0,0,0,0,0,0,0,0,0,5,14,0,0,2,1,0,11,12,7,7,11,5,0,12,2,4,0,0,0,0,0,0,0,0,0,0,0,0,0,0,0,0
0,0,35,0,0,0,0,0,0,25,0,0,0,0,0,0,0,0,0,0,0,0,0,0,0,0,0,0,0,0,0,0,0,0,3,0,0,0,0,8,6,9,7,8,2,0,0,0,11,0,0,0,0,0,0,0,0,0,0,0,0,0,0,0
31,0,0,0,0,0,0,16,0,0,0,0,0,0,0,0,0,0,0,0,0,0,0,0,0,0,0,0,0,0,0,0,0,0,13,0,0,0,0,0,14,3,0,3,3,1,0,0,9,0,0,0,0,0,0,0,0,0,0,0,0,0,0,0
0,0,0,36,0,0,0,0,0,0,0,0,0,0,0,0,0,0,0,0,0,0,0,0,0,0,0,0,0,0,0,0,0,2,0,0,0,0,0,16,8,3,10,8,1,0,0,0,0,0,0,0,0,0,0,0,0,0,0,0,0,0,0,0
0,0,0,0,0,0,0,0,0,0,47,0,0,0,0,0,0,0,0,0,0,0,0,0,0,0,0,0,0,0,0,0,2,0,3,0,0,3,7,5,10,8,11,8,10,8,11,10,0,0,0,0,0,0,0,0,0,0,0,0,0,0,0,0
0,0,0,0,38,0,0,0,0,0,0,0,0,47,0,0,0,0,0,0,0,0,0,0,0,0,0,0,0,0,0,6,2,0,15,1,0,7,10,8,11,18,15,10,12,11,10,5,3,0,0,0,0,0,0,0,0,0,0,0,0,0,0,0
0,0,0,0,0,0,41,0,0,0,0,46,0,0,0,0,0,0,0,0,0,0,0,0,0,0,0,0,0,0,18,0,0,0,0,7,0,0,18,4,10,16,5,4,4,14,8,8,0,0,0,0,0,0,0,0,0,0,0,0,0,0,0,0
0,0,0,0,0,0,0,0,0,43,0,0,0,0,0,0,0,0,0,0,0,0,0,0,0,0,0,0,0,0,0,0,0,4,0,0,2,0,11,0,7,0,14,5,3,0,0,4,0,0,0,0,0,0,0,0,0,0,0,0,0,0,0,0
0,0,0,0,0,0,0,0,43,0,0,0,0,0,48,0,0,0,0,0,0,0,0,0,0,0,0,0,0,3,0,0,0,0,9,2,2,1,8,2,12,6,7,2,1,16,9,0,0,2,0,0,0,0,0,0,0,0,0,3,0,0,0,0
0,0,36,0,0,3,0,0,0,0,41,0,0,0,0,0,0,0,0,0,0,0,0,0,0,0,0,0,0,0,2,0,0,0,1,0,0,0,10,9,10,1,8,7,8,14,0,0,0,12,0,0,0,0,0,0,0,0,0,3,0,0,0,0
0,0,0,0,37,0,0,0,0,0,0,0,0,0,0,0,0,0,0,0,0,0,0,0,0,0,0,0,0,0,1,7,0,0,0,0,0,0,10,0,12,10,12,12,0,7,0,0,0,7,0,0,0,0,0,9,0,0,0,2,0,0,0,0
19,1,0,0,0,0,0,0,0,0,46,0,0,0,0,0,0,0,0,0,0,0,0,0,0,0,0,0,0,0,0,0,0,4,0,0,0,0,0,22,12,10,10,8,1,9,8,11,0,0,0,0,0,0,0,0,0,0,0,0,0,0,0,0
0,0,32,0,0,0,0,0,46,0,0,0,0,0,0,0,0,0,0,0,0,0,0,0,0,0,0,0,0,0,0,0,0,0,0,0,0,17,0,0,0,10,3,4,9,12,5,10,0,0,0,0,0,0,0,0,0,0,0,0,0,0,0,0
0,33,0,0,0,0,0,0,0,0,42,0,0,0,0,0,0,0,0,0,0,0,0,0,0,0,0,0,0,0,0,4,0,0,0,0,0,0,16,0,7,11,8,8,17,6,9,0,0,6,0,0,0,0,0,0,0,0,0,0,0,0,0,0
0,0,0,0,0,35,0,0,0,0,0,0,0,47,0,0,0,0,0,0,0,0,0,0,0,0,0,0,0,0,0,3,0,0,0,0,4,12,3,11,8,8,12,17,15,7,12,7,0,0,0,0,0,0,0,0,0,0,0,0,2,0,0,0
0,0,0,0,0,41,0,0,0,0,0,46,0,0,0,0,0,0,0,0,0,0,0,0,0,0,0,0,0,0,0,4,0,0,0,0,3,2,13,10,14,4,10,10,15,0,12,7,7,0,0,0,0,0,0,0,0,0,0,0,1,0,0,0
0,0,26,0,0,0,0,0,0,42,0,0,0,0,0,0,0,0,0,0,0,0,0,0,0,0,0,0,0,0,0,0,0,0,0,0,0,0,0,33,1,7,5,0,10,14,0,11,0,0,0,0,0,0,0,0,0,0,2,0,0,0,0,0
0,0,0,1,0,37,0,0,0,0,0,0,0,0,0,0,0,0,0,0,0,0,0,0,0,0,0,0,0,0,0,0,0,12,0,1,0,0,14,0,18,8,9,0,7,0,8,8,0,0,0,0,0,0,0,0,0,0,0,0,2,0,0,0
0,0,0,0,0,0,0,0,0,0,0,0,0,0,0,0,0,0,0,0,0,0,0,0,0,0,0,0,0,0,0,2,1,0,0,0,2,10,0,12,8,7,2,8,12,0,13,5,0,0,0,0,0,0,0,0,3,0,0,0,0,0,0,0
0,0,0,36,0,0,0,0,9,0,0,47,0,0,0,0,0,0,0,0,0,0,0,0,0,0,0,0,0,0,0,2,0,0,0,0,6,0,11,7,9,8,9,8,6,9,3,0,0,0,0,0,0,0,0,0,0,0,6,0,0,0,0,0
0,2,0,0,39,0,0,0,0,0,45,0,0,0,0,0,0,0,0,0,0,0,0,0,0,0,0,0,0,0,0,0,0,0,8,0,0,14,2,11,17,8,10,7,0,9,13,7,5,0,0,0,0,0,0,0,0,0,0,2,0,0,0,0
1,0,0,0,0,37,0,0,0,0,0,46,0,0,0,0,0,0,0,0,0,0,0,0,0,0,0,0,0,0,0,0,7,2,0,0,0,0,0,17,14,8,10,21,4,0,11,4,0,0,0,0,0,0,3,0,0,0,0,0,0,0,0,0
0,0,0,0,39,0,0,0,0,42,8,0,0,0,0,0,0,0,0,0,0,0,0,0,0,0,0,0,0,0,0,0,0,0,0,7,0,0,0,19,8,10,10,3,9,7,11,11,0,0,0,0,0,0,0,0,0,7,0,0,0,0,0,0
0,0,0,0,0,4,44,0,0,0,0,41,0,0,0,0,0,0,0,0,0,0,0,0,0,0,0,0,0,0,0,0,0,0,7,0,0,0,0,3,21,11,14,8,13,3,0,10,0,0,0,0,0,0,0,0,0,0,0,0,0,0,0,0
0,0,3,0,0,42,0,0,0,0,0,0,48,0,0,0,0,0,0,0,0,0,0,0,0,0,0,0,0,0,9,0,0,10,0,0,0,7,12,16,7,0,5,0,7,7,9,0,0,0,0,0,0,0,0,0,0,0,0,2,0,0,0,0
0,2,0,0,39,0,0,0,0,0,0,46,0,0,0,0,0,0,0,0,0,0,0,0,0,0,0,0,0,0,0,0,0,10,0,3,0,7,10,15,7,13,5,18,13,15,10,0,4,0,0,0,0,0,0,0,0,0,2,0,0,0,0,1
0,0,0,0,0,39,0,0,0,0,0,0,45,0,0,0,0,0,0,0,0,0,0,0,0,0,0,0,0,0,0,3,0,0,3,0,0,0,14,0,5,14,15,9,0,16,10,7,7,0,0,0,0,0,0,0,3,0,0,0,0,0,0,0
0,0,0,0,0,41,0,0,0,8,0,48,0,0,0,0,0,0,0,0,0,0,0,0,0,0,0,0,0,0,0,7,1,0,0,10,0,3,1,11,7,7,6,14,7,5,3,5,0,0,0,0,0,0,0,0,0,0,0,5,0,0,0,0
0,0,0,2,0,0,0,0,0,0,0,0,0,0,0,0,0,0,0,0,0,0,0,0,0,0,0,0,0,0,0,0,0,3,0,0,0,0,0,0,21,12,13,11,18,17,8,0,0,0,0,0,0,0,0,0,0,0,0,3,0,0,0,0
0,0,0,0,0,0,0,0,0,0,0,0,0,47,0,0,0,0,0,0,0,0,0,0,0,0,0,0,0,0,1,0,0,0,0,0,0,0,14,8,8,16,10,22,15,15,10,7,0,0,0,0,0,0,0,0,0,0,0,0,0,0,0,0
0,0,0,0,39,0,0,0,0,0,0,0,0,48,0,0,0,0,0,0,0,0,0,0,0,0,0,0,0,0,2,0,0,0,0,1,0,5,3,9,16,9,9,0,4,11,12,8,0,0,0,0,0,0,0,0,0,0,0,0,1,0,0,0
0,0,0,0,0,0,40,0,0,0,0,47,0,0,0,0,0,0,0,0,0,0,0,0,0,0,0,0,0,0,0,3,4,0,0,13,0,3,17,7,0,16,10,17,15,3,9,5,0,0,0,0,0,0,5,0,0,0,0,0,0,0,0,0
0,0,0,0,0,42,0,0,0,0,0,0,44,0,0,0,0,0,0,0,0,0,0,0,0,0,0,0,0,0,0,0,0,0,0,0,0,0,14,7,12,14,0,14,12,8,11,7,0,7,0,0,0,0,0,0,0,0,0,0,0,0,0,0
