0,0,0,0,38,0,72,30,0,0,0,0,0,0,0,0,0,0,0,0,0,0,0,0,0,0,0,0,0,0,0,0,0,0,0,0,0,12,4,8,12,14,10,16,38,2,0,0,0,0,0,0,0,0,0,0,0,0,0,0,0,0,0,42
0,0,0,0,0,40,74,0,0,0,0,0,0,0,0,0,0,0,0,0,0,0,0,0,0,0,0,0,0,0,0,0,0,0,0,0,0,2,10,26,12,16,16,28,10,10,0,0,4,0,0,0,0,0,0,0,0,0,0,0,0,0,0,0
0,46,0,0,0,58,28,70,0,64,0,0,0,0,0,0,0,0,0,0,0,0,0,0,0,0,0,0,0,0,0,0,0,0,0,0,14,2,4,32,14,18,16,16,82,0,14,0,0,0,0,0,0,0,0,0,0,0,0,34,0,0,0,0
0,0,0,0,76,48,0,96,0,0,82,0,0,0,0,0,82,0,0,0,0,0,0,0,0,0,0,0,0,0,2,0,2,4,0,2,4,6,40,48,20,30,30,16,14,14,0,0,0,0,0,0,0,0,0,0,0,0,0,0,0,0,0,64
0,0,0,0,0,32,84,10,0,0,0,74,0,0,0,0,0,0,0,0,0,0,0,0,0,0,0,0,0,0,0,0,0,0,0,0,10,44,10,14,6,34,16,28,14,96,0,0,0,0,0,0,0,0,0,0,0,0,0,0,0,0,0,0
0,0,0,2,0,0,0,0,0,0,0,0,96,0,0,0,0,0,0,0,0,0,0,0,0,0,0,0,0,0,2,0,6,0,2,4,10,4,36,8,96,16,16,46,16,14,12,0,0,0,0,0,0,0,0,0,0,0,0,0,0,0,0,64
0,0,0,0,48,0,72,0,52,0,0,0,0,0,0,0,0,0,0,0,0,0,0,0,0,0,0,0,0,0,0,2,0,0,0,0,0,12,6,40,10,14,30,16,14,16,0,0,0,0,0,0,0,0,0,0,0,0,0,0,0,0,0,0
60,0,0,0,0,60,72,28,0,36,70,0,0,0,0,0,0,0,0,0,0,0,0,0,0,0,0,0,0,0,4,0,0,0,0,2,2,50,4,32,14,18,28,14,8,14,14,4,0,0,0,0,0,0,0,0,0,0,0,0,0,0,0,68
0,0,0,0,42,0,0,78,0,74,0,0,0,0,0,0,0,0,0,0,0,0,0,0,0,0,0,0,0,0,0,0,0,0,0,12,2,4,10,14,16,30,14,0,12,6,0,0,0,0,0,0,0,0,0,0,0,0,0,0,0,0,0,0
64,0,0,0,0,0,70,0,0,0,30,90,0,0,0,0,0,0,0,0,0,0,0,0,0,0,0,0,0,0,0,8,4,4,0,4,6,10,14,6,48,16,18,16,24,14,2,0,0,0,0,0,0,0,0,0,0,0,0,0,0,0,0,0
56,0,0,0,0,52,0,0,14,80,0,0,0,0,0,0,0,0,0,0,0,0,0,0,0,0,0,0,0,0,0,0,2,2,4,0,6,16,14,26,16,56,16,10,20,14,6,32,0,0,0,0,0,0,0,0,0,0,0,0,0,0,0,0
0,76,0,0,64,34,0,66,0,24,78,0,0,0,0,0,0,0,0,0,0,0,0,0,0,0,0,0,0,0,0,0,2,0,0,0,2,14,10,20,10,24,16,16,0,28,0,0,0,0,0,0,0,0,0,0,0,0,0,0,0,0,0,64
0,0,0,0,0,66,0,0,0,74,20,0,0,0,0,0,0,0,0,0,0,0,0,0,0,0,0,0,0,0,0,2,0,0,0,0,2,6,6,10,34,16,18,16,20,12,12,0,0,6,0,0,0,0,0,0,0,0,0,0,0,0,0,62
0,0,0,0,0,64,0,0,0,52,32,0,0,0,84,0,0,0,0,0,0,0,0,0,0,0,0,0,0,0,0,2,0,0,0,0,0,0,14,48,24,12,14,24,66,14,0,14,0,0,0,0,0,0,0,0,0,0,0,0,0,0,0,70
0,0,0,0,0,50,76,0,0,0,60,0,96,0,0,0,0,0,0,0,0,0,0,0,0,0,0,0,0,0,0,2,0,0,0,0,0,6,96,10,16,28,16,30,6,6,0,0,0,0,0,0,0,0,0,0,0,0,0,0,0,0,0,44
0,0,0,0,0,0,82,0,90,70,0,0,0,0,0,0,0,0,0,0,0,0,0,0,0,0,0,0,0,0,0,0,0,0,2,0,10,0,6,4,78,28,12,14,14,16,8,0,0,0,0,0,0,0,0,0,0,0,0,0,0,0,0,0
0,0,0,0,0,34,78,0,0,0,82,0,0,0,0,0,0,0,94,0,0,0,0,0,0,0,0,0,0,0,2,0,0,0,0,0,2,4,6,28,94,18,26,16,14,6,10,0,0,0,0,0,0,0,0,0,0,0,0,0,0,0,0,0
46,0,0,0,0,46,0,60,52,0,30,0,0,0,0,0,0,0,0,0,0,0,0,0,0,0,0,0,0,2,0,0,4,0,0,0,0,0,10,12,14,12,20,12,12,14,12,0,0,0,0,0,0,0,0,0,0,0,0,0,0,0,0,0
0,50,0,0,0,0,42,0,0,0,72,28,0,0,0,0,0,0,0,0,0,0,0,0,0,0,0,0,0,0,0,4,0,0,0,0,0,14,6,16,8,20,16,16,16,94,2,0,0,0,0,0,0,0,0,0,0,0,0,0,0,0,0,70
0,0,0,0,68,0,52,0,38,96,0,0,0,46,0,0,0,0,0,0,0,0,0,0,0,0,0,0,0,0,0,2,0,0,0,2,2,28,8,10,28,18,16,10,12,14,14,0,0,0,0,0,0,0,0,0,0,0,0,0,0,0,0,0
54,0,0,0,0,52,0,0,0,0,0,26,0,0,0,0,0,0,0,0,0,0,0,0,0,0,0,0,0,0,0,4,8,0,0,0,4,10,8,28,40,18,14,30,8,0,26,12,0,0,0,0,0,0,0,0,0,0,0,0,0,0,0,66
0,0,0,72,0,70,0,0,0,0,0,0,0,0,88,0,0,0,0,0,0,0,0,0,0,0,0,0,0,0,0,0,10,0,0,10,0,2,4,30,96,14,14,14,14,10,14,0,0,0,0,0,0,0,0,0,0,0,0,0,0,0,0,46
0,0,0,0,0,0,42,82,0,20,0,88,0,0,0,0,0,0,0,0,0,0,0,0,0,0,0,0,0,0,0,2,6,6,0,0,6,12,16,8,12,34,14,20,28,12,8,0,0,0,0,0,0,0,0,0,0,0,0,0,0,0,0,72
0,0,0,0,0,0,0,64,48,0,0,0,0,0,0,0,0,0,0,0,0,0,0,0,0,0,0,0,0,0,0,0,0,0,0,0,4,0,8,6,16,20,10,18,16,14,0,0,0,0,0,0,0,0,0,0,0,0,0,0,0,0,0,66
0,0,0,0,48,78,0,0,32,0,0,0,0,0,0,0,0,0,0,0,0,0,0,0,0,0,0,0,0,0,0,0,0,4,0,0,0,16,4,10,32,46,16,14,14,14,0,12,0,0,0,0,0,0,0,0,0,0,0,0,0,0,0,0
66,0,0,0,0,0,60,74,0,60,0,0,0,0,0,0,0,0,0,0,0,0,0,0,0,0,0,0,0,0,0,0,0,0,0,12,6,0,10,2,14,22,14,14,10,10,0,0,0,0,0,0,0,0,0,0,0,0,0,0,0,0,0,0
0,0,0,0,42,0,80,0,0,0,78,16,0,0,0,0,0,0,0,0,0,0,0,0,0,0,0,0,0,0,0,0,0,0,4,2,40,4,28,18,16,38,10,10,74,0,6,0,0,0,0,0,0,0,0,0,0,0,0,0,0,0,0,0
0,0,64,0,0,56,92,0,0,72,0,0,0,0,0,0,0,0,0,0,0,0,0,0,0,0,0,0,0,0,0,0,2,0,0,0,0,4,4,34,20,14,80,16,26,2,0,10,0,0,0,0,0,0,0,0,0,0,0,0,0,0,0,72
0,0,0,0,0,0,12,0,0,82,0,0,0,0,0,0,96,0,0,0,0,0,0,0,0,0,0,0,0,0,2,0,0,0,0,0,0,10,2,16,20,12,16,26,10,6,0,0,0,0,0,0,0,0,0,0,0,0,0,0,0,0,0,64
0,0,0,0,0,0,26,78,0,0,76,0,0,0,0,0,0,0,0,0,0,0,0,0,0,0,0,0,0,0,0,0,0,0,0,10,0,4,20,16,10,14,38,10,20,14,0,10,0,0,0,0,0,0,0,0,0,0,0,0,0,0,0,0
70,0,0,0,0,0,70,0,96,0,0,0,0,0,0,0,0,0,0,0,0,0,0,0,0,0,0,0,0,0,0,0,0,0,0,0,4,42,6,6,32,20,8,96,24,12,0,0,0,0,0,0,0,0,0,0,0,0,0,0,0,0,0,0
68,0,0,0,0,92,14,0,0,72,18,0,0,80,0,0,0,0,0,0,0,0,0,0,0,0,0,0,0,0,0,0,0,44,0,0,6,10,6,20,30,14,94,28,12,0,6,0,0,0,0,0,0,0,0,0,0,0,0,0,0,0,0,56
0,0,0,0,0,64,0,72,0,80,0,0,0,0,0,0,0,0,0,0,0,0,0,0,0,0,0,0,0,0,0,0,0,2,0,0,4,6,4,10,24,12,16,14,12,12,0,12,0,0,0,0,0,0,0,0,0,0,0,0,0,0,0,0
0,58,0,0,0,54,72,0,0,0,66,0,0,0,0,0,0,0,0,0,0,0,0,0,0,0,0,0,0,0,0,0,0,0,0,0,0,10,6,36,28,18,16,18,12,8,12,0,0,0,0,0,0,0,0,0,0,0,0,0,0,0,0,0
0,54,0,0,0,42,0,0,68,76,84,0,0,0,0,0,0,16,0,0,0,0,0,0,0,0,0,0,2,0,4,0,4,0,4,10,0,2,34,26,32,16,16,26,12,8,12,0,0,0,0,0,0,0,0,0,0,0,0,0,0,0,0,64
0,0,0,0,0,0,26,0,0,0,26,0,0,0,0,0,0,0,0,0,0,0,88,0,0,0,0,0,0,0,0,0,0,0,4,10,0,0,30,10,6,8,26,76,8,0,4,0,0,0,0,0,0,0,0,0,0,0,0,0,0,0,0,0
0,0,0,0,0,70,52,0,0,0,0,0,0,0,0,0,0,0,0,0,0,0,0,0,0,0,0,0,0,0,0,0,0,0,0,0,0,4,8,28,10,10,14,28,10,4,0,0,0,0,0,0,0,0,0,0,0,0,0,0,0,0,46,30
0,0,0,0,0,78,0,24,0,0,0,74,0,0,0,0,0,0,0,0,0,0,0,0,0,0,0,0,0,0,2,0,2,6,2,4,2,10,16,32,14,14,20,18,24,0,0,0,0,0,0,0,0,0,0,0,0,0,0,0,0,0,0,48
0,0,0,0,0,68,0,66,42,0,0,0,0,0,0,0,0,0,0,0,0,0,0,0,0,0,0,0,0,0,0,0,0,4,0,0,0,0,10,14,4,28,16,12,14,12,8,0,0,0,0,0,0,0,0,0,0,0,0,0,0,0,0,46
0,0,0,0,0,64,0,74,0,34,0,70,0,0,0,0,0,0,0,0,0,0,0,0,0,0,0,0,0,0,4,0,2,4,0,2,6,6,34,16,16,16,18,0,28,6,6,0,0,0,0,0,0,0,0,0,0,0,0,0,0,0,0,50
0,0,0,0,0,38,0,0,74,0,0,0,0,0,0,0,0,0,0,0,0,0,0,0,0,0,0,0,0,0,0,0,0,0,0,2,0,14,6,14,30,18,14,10,26,0,16,0,0,0,0,0,0,0,0,0,0,0,0,0,0,0,0,62
0,0,0,0,82,0,0,0,0,72,0,0,0,0,0,0,0,0,0,0,0,0,0,0,0,0,0,0,0,0,0,2,0,0,0,0,0,30,44,10,16,28,16,12,70,16,8,0,8,0,0,0,0,0,0,0,0,0,0,0,0,0,0,66
0,0,0,0,80,0,0,0,94,0,0,78,0,0,0,0,0,0,0,0,0,0,0,0,0,0,0,0,0,0,0,0,4,4,6,2,4,0,20,14,16,16,28,16,14,12,0,0,0,0,0,0,0,0,0,0,0,0,0,0,0,0,52,0
0,0,0,0,0,70,46,10,0,50,0,0,94,0,0,78,0,0,0,0,0,0,0,0,0,0,0,0,0,0,0,0,0,0,0,0,8,0,8,72,18,22,30,10,14,36,0,22,0,0,0,0,0,0,0,0,0,0,0,0,0,0,0,60
0,0,0,0,0,86,0,0,0,86,0,0,0,0,0,0,0,0,0,0,0,0,0,0,0,0,0,0,0,0,0,0,0,0,0,0,0,6,6,4,18,16,14,16,14,6,0,0,12,0,0,0,0,0,0,0,0,0,0,0,0,0,0,34
0,0,0,0,0,64,0,28,58,0,0,0,0,92,0,0,0,0,0,0,0,0,0,0,0,0,0,0,0,0,2,0,2,6,2,4,4,18,6,10,20,20,28,16,12,16,0,0,10,0,0,0,0,0,0,0,0,0,0,0,0,0,0,0
0,0,0,0,78,0,0,0,0,52,0,50,0,88,0,0,0,0,0,0,0,0,0,0,0,0,0,0,0,0,0,0,2,0,0,0,0,8,6,46,10,24,24,16,14,0,30,0,0,0,0,0,0,0,0,0,0,0,0,0,0,0,0,56
0,0,0,0,0,70,54,0,58,10,0,90,0,0,0,0,0,0,0,0,0,0,0,0,0,0,0,0,0,0,0,0,0,4,0,0,8,4,4,58,14,14,32,8,12,8,0,0,0,0,0,0,0,0,0,0,0,0,0,0,0,0,0,60
0,0,0,0,0,78,0,0,50,40,0,0,0,0,84,0,0,0,0,0,0,0,0,0,0,0,0,0,0,0,0,0,4,4,0,6,6,32,8,36,16,8,18,16,20,0,78,0,0,0,0,0,0,0,0,0,0,0,0,0,0,0,0,0
42,0,0,0,0,76,18,0,0,0,0,74,96,0,0,0,0,0,0,0,0,0,0,0,0,0,0,0,0,0,0,0,0,0,0,0,0,6,38,20,16,18,14,24,14,10,0,0,0,0,0,0,0,0,0,0,0,0,0,0,0,0,0,64
