0,0,0,0,0,0,255,0,63,0,255,0,0,0,0,0,0,0,0,0,0,0,0,0,0,0,0,0,0,0,0,0,18,27,0,27,36,45,36,207,63,72,63,63,117,27,54,18,0,0,0,0,0,0,0,0,0,0,0,0,0,0,0,171
0,0,234,0,0,108,255,0,255,0,255,0,0,0,0,0,0,0,0,0,0,0,0,0,0,0,0,0,0,0,0,0,9,0,0,45,0,45,45,117,36,126,108,72,90,18,0,27,0,0,0,0,0,0,0,0,0,0,0,0,0,0,0,207
0,0,0,0,255,63,0,153,255,0,0,255,0,0,0,0,0,0,0,0,0,0,0,0,0,0,0,0,0,0,0,9,0,0,0,45,9,27,27,255,189,63,81,117,45,45,0,0,54,0,0,0,0,0,0,0,0,0,0,0,0,0,0,0
0,0,0,0,36,189,0,255,216,0,255,0,0,0,0,0,0,0,0,0,0,0,0,0,0,0,0,0,0,0,9,0,0,72,0,0,0,27,117,126,81,255,117,54,36,63,198,0,0,0,0,0,0,0,0,0,0,0,0,0,0,0,0,0
0,0,0,0,0,255,72,255,0,255,0,0,0,0,0,0,0,0,0,0,0,0,0,0,0,0,0,0,0,0,0,0,0,0,0,0,45,72,27,27,45,162,63,63,0,90,18,0,0,0,0,0,0,0,0,0,0,0,0,0,0,0,153,0
0,0,81,0,0,0,255,0,99,0,0,0,0,0,0,0,0,0,0,0,0,0,0,0,0,0,0,0,0,0,0,54,0,0,18,9,0,27,36,117,126,90,108,72,72,54,0,45,0,0,0,0,0,0,0,0,0,0,0,0,0,0,0,108
0,0,0,0,0,255,108,0,135,255,0,0,0,0,0,0,0,0,0,0,0,0,0,0,0,0,0,0,0,0,0,0,0,0,0,0,27,63,27,54,171,72,63,36,45,0,99,0,0,0,0,0,0,0,0,0,0,0,0,0,117,0,0,0
0,0,0,0,0,0,252,72,0,198,0,0,0,0,0,0,0,0,0,0,0,0,0,0,0,0,0,0,0,0,0,0,9,0,0,36,18,0,54,108,171,45,63,54,63,9,45,0,0,0,0,0,0,0,0,0,0,0,0,0,0,0,225,0
0,0,0,0,144,0,207,255,255,126,0,0,0,0,0,0,0,0,0,0,0,0,0,0,0,0,0,0,0,0,0,0,0,0,0,45,45,27,36,81,63,72,45,63,45,0,45,0,0,0,0,0,0,0,0,0,0,0,0,0,0,0,0,0
0,0,144,0,0,0,255,255,63,0,0,0,0,0,0,0,0,0,0,0,0,0,0,0,0,0,0,0,0,0,0,9,0,63,18,0,72,27,36,45,72,63,126,72,45,45,36,0,0,0,0,0,0,0,0,0,0,0,0,0,0,0,0,207
0,0,0,0,0,144,45,0,0,255,9,0,0,255,0,0,0,0,0,0,0,0,0,0,0,0,0,0,0,0,9,0,0,0,0,36,36,36,72,54,90,63,117,54,54,45,0,27,0,0,0,0,0,0,0,0,0,0,0,0,0,0,0,180
0,0,0,0,255,0,252,0,255,63,90,45,0,0,0,0,0,0,0,0,0,0,0,0,0,0,0,0,0,0,0,27,18,0,36,36,45,36,45,36,255,81,108,63,72,45,0,45,0,0,0,0,0,0,0,0,0,0,0,0,0,0,0,153
0,0,0,0,0,255,189,81,255,0,0,0,255,0,0,0,0,0,0,0,0,0,0,0,0,0,0,0,0,0,0,36,27,54,0,0,171,27,45,72,255,54,81,255,45,36,36,0,0,0,0,0,0,0,0,0,0,0,0,0,0,0,0,180
0,0,108,0,255,0,135,255,0,144,255,0,0,0,0,0,0,0,0,0,0,0,0,0,0,0,0,0,0,0,0,0,27,27,0,36,27,45,72,63,72,189,126,117,45,0,45,36,0,0,0,0,0,0,0,0,0,0,0,0,0,0,0,171
0,0,0,0,0,99,255,255,0,0,99,255,0,0,0,0,0,0,0,0,0,0,0,0,0,0,0,0,0,0,0,45,9,18,0,27,45,36,54,255,63,54,63,63,72,45,72,0,0,0,0,0,0,0,0,0,0,0,0,0,0,0,0,216
0,0,0,0,255,0,255,153,0,0,255,0,0,0,0,0,0,0,0,0,0,0,0,0,255,0,0,0,0,0,0,0,0,0,0,0,0,63,36,108,162,108,72,54,45,36,45,27,0,0,0,0,0,0,0,0,0,0,0,0,0,117,0,0
81,0,0,0,0,207,117,45,0,243,0,0,255,0,0,0,0,0,0,0,0,0,0,0,0,0,0,0,0,0,0,0,0,0,0,0,0,45,45,108,72,90,255,54,45,45,0,45,0,0,0,0,0,0,0,0,0,0,0,0,0,171,0,0
0,0,108,0,0,225,0,255,0,255,0,255,0,0,255,0,0,0,0,0,0,0,0,0,0,0,0,0,0,0,0,0,36,0,27,45,54,36,36,54,45,255,117,27,27,9,45,0,9,63,0,0,0,0,0,0,0,0,0,0,0,0,0,225
0,0,0,171,0,255,255,0,63,0,0,0,0,0,0,0,0,0,0,0,0,0,0,0,0,0,0,0,0,0,0,27,36,0,0,0,27,90,108,45,252,36,189,108,45,45,0,18,0,0,0,0,0,0,0,0,0,0,0,0,0,171,0,0
0,0,0,18,255,0,0,207,255,234,0,0,0,0,0,0,0,0,0,0,0,0,0,0,0,0,0,0,0,0,0,0,0,0,0,0,0,36,63,99,81,45,45,81,72,36,0,36,0,0,0,0,0,0,0,0,0,0,0,0,0,0,0,171
0,0,0,234,0,216,0,144,0,0,225,0,126,0,108,0,0,0,0,0,0,0,0,0,0,0,0,0,0,0,0,45,9,0,0,45,45,189,54,63,117,72,45,72,63,45,255,0,0,0,0,0,0,0,0,0,0,0,0,0,0,0,0,243
0,0,0,0,0,255,0,0,0,0,0,0,255,0,0,0,0,0,0,0,0,0,0,0,0,0,0,0,0,0,0,0,0,0,0,27,0,45,126,45,255,63,126,63,72,90,0,0,0,0,0,0,0,0,0,0,0,0,0,0,0,0,243,0
0,0,0,0,99,0,0,255,144,255,0,0,0,0,0,0,0,0,0,0,0,0,0,0,0,0,0,0,0,0,0,0,0,0,0,63,0,36,135,45,90,54,45,63,36,126,18,0,0,0,0,0,0,0,0,0,0,0,0,0,0,0,0,126
0,0,0,0,153,189,0,255,0,144,255,0,0,0,0,0,0,0,0,0,0,0,0,0,0,0,0,0,0,0,0,0,0,0,0,0,9,45,0,54,63,54,63,108,45,45,36,36,0,0,0,0,0,0,0,0,0,0,0,0,0,0,0,0
0,0,0,0,0,255,0,126,0,225,0,0,0,0,255,0,0,0,0,0,0,0,0,0,0,0,0,0,0,0,0,0,27,0,63,0,45,0,45,81,54,63,99,72,54,54,0,0,0,0,0,0,0,0,0,0,0,0,0,0,0,0,0,207
0,0,0,0,255,0,0,243,0,45,255,0,0,0,0,0,0,0,0,0,0,0,0,0,0,0,0,0,0,0,0,0,27,0,45,225,0,72,45,144,63,63,108,72,45,72,18,0,0,0,0,0,0,0,0,0,0,0,0,0,0,0,180,0
0,0,135,0,0,255,162,0,0,255,0,0,0,0,0,0,0,0,0,0,0,0,0,0,0,0,0,0,0,0,0,0,0,0,0,0,0,54,108,72,45,63,45,63,99,27,27,0,36,0,0,0,0,0,0,0,0,0,0,0,0,0,198,0
0,0,108,0,0,162,0,0,255,0,63,0,0,255,0,0,0,0,0,0,0,0,0,0,0,0,0,0,0,0,0,0,0,0,0,0,0,0,45,54,45,36,45,36,45,234,9,0,0,0,0,0,0,0,0,0,0,0,0,0,0,0,0,198
0,0,0,0,0,255,0,0,72,0,0,255,255,0,0,0,0,0,0,0,0,0,0,0,0,0,0,0,0,0,0,0,0,198,0,0,36,0,54,117,108,108,54,255,0,27,45,0,0,0,0,0,0,0,0,0,0,0,0,0,0,0,171,0
0,0,0,0,90,255,153,255,0,255,0,0,0,0,0,0,0,0,0,0,0,0,0,0,0,0,0,0,0,0,0,0,0,0,0,0,54,45,45,180,54,63,45,255,45,36,0,0,0,0,0,0,0,0,0,0,0,0,0,0,0,0,0,0
0,0,0,0,0,255,0,255,255,0,0,0,0,0,0,0,0,0,0,0,0,0,0,0,0,0,0,0,0,0,0,0,0,36,0,9,9,0,36,45,126,72,234,63,63,0,81,0,0,27,0,0,0,0,0,0,0,0,0,0,0,0,0,144
0,0,0,0,63,0,0,255,255,0,0,0,0,255,0,0,0,0,0,0,0,0,0,0,0,0,0,0,0,0,0,0,0,0,0,0,27,54,54,135,72,108,255,63,63,45,27,0,0,0,0,0,0,0,0,0,0,0,0,0,0,0,0,81
0,0,0,0,0,135,255,0,0,0,36,255,0,0,0,0,0,0,0,0,0,0,0,0,0,0,0,0,0,0,9,0,36,0,27,0,36,45,255,108,153,54,90,153,27,36,54,0,0,0,0,0,0,0,0,0,0,0,0,0,0,180,0,0
0,0,135,0,0,255,198,0,99,0,0,255,0,0,0,0,0,0,0,0,0,0,0,0,0,0,0,0,0,0,0,0,18,45,0,189,45,72,27,162,54,108,81,255,63,0,0,0,0,0,0,0,0,0,0,0,0,0,0,0,0,0,0,153
0,0,0,255,0,255,0,255,255,117,0,0,0,0,0,0,0,0,0,0,0,0,0,0,0,0,0,0,0,0,0,0,0,0,0,0,0,18,54,99,63,243,90,63,45,27,54,0,0,0,0,0,0,0,0,0,0,0,0,0,0,0,198,0
0,0,0,0,144,0,255,99,0,255,0,0,0,0,0,0,255,0,0,0,0,0,0,0,0,0,0,0,0,0,0,0,0,0,0,0,9,54,255,126,63,108,63,72,45,54,0,0,0,0,0,0,0,0,0,0,0,0,0,0,0,0,0,153
0,0,0,0,0,198,255,0,255,0,0,0,0,0,0,0,0,0,0,0,0,0,0,0,0,0,0,0,0,0,0,0,0,9,81,0,0,9,207,81,54,255,108,45,45,99,18,0,0,0,0,0,0,0,0,0,0,0,0,0,0,0,0,171
0,0,0,0,0,255,255,0,255,0,0,0,0,0,0,0,0,0,0,0,0,0,0,0,0,0,0,0,0,0,0,63,0,0,0,0,36,54,36,81,243,63,126,72,54,36,171,0,0,0,0,0,0,0,0,0,0,0,0,0,0,0,0,153
0,0,0,0,0,255,0,0,63,0,255,0,0,0,0,0,0,0,0,0,0,0,0,0,0,0,0,0,0,0,0,0,0,0,0,0,9,63,45,54,63,45,126,90,18,27,9,0,0,0,0,0,0,0,0,0,0,0,0,0,0,0,198,0
0,0,0,255,0,0,54,0,255,255,90,0,0,0,0,0,0,0,0,0,0,0,0,0,0,0,0,0,0,0,0,9,0,27,0,0,36,54,72,81,153,90,63,117,27,72,0,18,0,0,0,0,0,0,0,0,0,0,0,0,0,0,0,144
0,0,0,255,45,0,153,0,0,0,0,0,255,0,0,0,0,0,0,0,0,0,0,0,0,0,0,0,0,0,0,0,0,0,0,9,0,36,99,63,144,72,63,90,45,63,0,99,0,0,0,0,0,0,0,0,0,0,0,0,171,0,0,0
0,144,0,0,0,0,45,255,0,108,255,0,0,0,0,0,0,0,0,0,0,0,0,0,0,0,0,0,0,0,0,0,0,0,9,45,54,45,54,54,63,108,108,54,36,27,27,0,0,0,0,0,0,0,0,0,0,0,0,0,0,0,0,207
0,0,0,0,255,0,0,72,0,0,255,0,0,0,0,0,0,0,0,0,0,0,0,0,0,0,0,0,0,0,0,0,0,0,0,18,0,27,117,72,63,72,54,54,63,27,54,0,0,0,0,0,0,0,0,0,0,0,0,0,0,0,0,252
0,0,0,0,108,189,0,255,144,0,0,255,0,0,0,0,0,0,0,0,0,0,0,0,0,0,0,0,0,0,0,0,0,0,0,9,54,36,45,198,99,45,63,126,45,54,0,0,0,0,0,0,0,0,0,0,0,0,0,0,0,0,207,0
0,0,0,0,90,0,243,0,135,255,0,0,0,0,0,0,0,0,0,0,0,0,0,0,0,0,0,0,0,0,0,0,0,9,0,0,0,27,45,108,36,252,72,72,36,45,0,0,0,0,0,0,0,0,0,0,0,0,0,0,0,180,0,153
0,0,0,255,0,0,0,45,108,255,0,0,0,0,0,0,0,0,0,0,0,0,0,0,0,0,0,0,0,0,0,0,0,0,0,0,45,45,0,54,81,117,153,54,63,36,27,0,0,0,0,0,0,0,0,0,0,0,0,0,0,0,0,207
0,0,0,0,90,0,90,0,0,234,0,0,0,0,0,0,0,0,0,0,0,0,0,0,0,0,0,0,0,0,0,0,0,0,0,0,9,0,54,117,63,45,45,99,18,45,27,0,0,0,0,0,0,0,0,0,0,0,0,0,0,0,144,0
0,162,0,0,0,255,117,0,0,0,0,0,0,0,0,0,0,0,0,0,0,0,0,0,0,0,0,0,0,0,0,0,0,0,0,0,0,36,45,126,63,81,45,63,18,72,0,18,0,0,0,0,0,0,0,0,0,0,0,0,0,0,162,0
0,0,0,0,0,255,144,255,0,255,108,0,0,0,0,0,0,0,0,0,0,0,0,0,0,0,0,0,0,0,0,0,0,0,0,0,0,36,36,72,63,81,54,45,117,27,54,0,0,0,0,0,0,0,0,0,0,0,0,0,0,0,0,189
0,0,0,0,0,0,255,72,0,255,243,0,0,0,0,0,0,0,0,0,0,0,0,0,0,0,0,0,0,0,0,0,0,54,36,0,45,90,45,54,117,255,36,90,54,45,0,27,0,0,0,0,0,0,0,0,0,0,0,0,0,135,0,0
