0,0,0,0,0,171,0,0,0,255,0,0,0,207,0,0,0,0,0,0,0,0,0,0,0,0,0,0,0,0,0,27,36,0,63,0,36,54,72,36,225,108,63,90,18,0,45,0,0,0,0,0,0,0,0,0,0,0,0,0,0,0,0,0
0,255,0,0,0,135,255,0,255,0,0,0,252,0,0,0,0,0,0,0,0,0,0,0,0,0,0,0,0,0,9,0,36,0,0,0,0,36,63,45,117,72,81,54,0,9,0,0,0,0,0,0,0,0,0,0,0,0,0,0,0,0,0,252
0,0,0,0,0,0,0,0,255,108,117,0,0,0,0,0,0,0,0,0,0,0,0,0,0,0,0,0,0,0,0,9,0,45,45,0,45,27,27,81,72,117,45,45,63,45,0,0,0,0,0,0,0,0,0,0,0,0,0,0,0,0,81,0
0,0,0,99,0,255,0,0,255,0,0,255,0,0,0,0,0,0,0,0,0,0,0,0,0,0,0,0,0,0,0,0,54,0,0,9,171,0,45,72,54,117,63,0,45,18,0,0,27,0,0,0,0,0,0,0,0,0,0,0,0,0,255,0
0,0,0,0,0,255,0,0,90,255,0,0,0,0,0,0,0,0,0,0,0,0,0,0,0,0,0,0,0,0,0,0,27,0,45,0,54,63,36,72,171,63,54,45,45,0,0,0,0,0,0,0,0,0,0,0,0,0,0,0,0,0,0,0
0,0,0,0,0,0,0,189,72,255,0,0,126,0,0,0,0,0,0,0,0,0,0,0,0,0,0,0,0,0,0,0,9,0,0,45,0,54,81,54,72,72,72,72,63,0,0,0,9,0,0,0,0,0,0,0,0,0,0,0,0,0,0,0
255,0,0,0,0,255,117,0,99,255,0,0,0,0,0,0,0,0,0,0,0,0,0,0,0,0,0,0,0,0,0,0,0,0,0,0,0,36,45,54,135,63,108,54,36,63,27,0,0,0,0,0,0,0,0,0,0,0,0,0,0,0,0,255
0,0,0,0,0,255,0,0,234,0,0,0,0,0,0,0,0,0,0,0,0,0,0,0,0,0,0,0,0,0,0,0,0,0,0,0,0,0,63,72,63,63,72,72,36,27,27,0,0,0,0,0,0,0,0,0,0,0,0,0,0,0,0,0
0,234,0,0,189,0,0,255,255,0,0,234,0,0,0,0,0,0,0,0,0,0,0,0,0,0,0,0,0,0,18,0,0,0,0,0,18,72,72,72,72,45,45,108,18,255,81,0,0,0,0,0,0,0,0,0,0,0,0,0,0,0,0,243
0,0,0,0,153,0,255,255,0,0,255,0,0,0,0,0,0,0,0,0,0,0,0,0,0,0,0,0,0,0,0,0,9,0,0,63,0,0,54,54,45,54,180,54,45,0,0,45,0,0,9,0,0,0,0,0,0,0,0,0,0,0,0,234
0,0,0,0,0,0,0,0,255,0,255,0,0,0,0,0,255,0,0,0,0,0,0,0,0,0,0,0,0,0,0,0,0,0,0,0,63,63,189,45,63,72,72,72,99,36,0,0,0,0,0,0,0,0,0,0,0,0,0,0,0,0,0,255
0,0,0,0,0,216,255,0,255,0,234,0,0,0,0,0,0,0,0,0,0,0,0,0,0,0,0,0,0,9,0,0,9,36,0,0,45,27,54,54,153,54,27,126,45,63,27,0,0,0,0,0,0,0,0,0,0,0,0,0,0,0,255,0
0,0,0,0,0,255,0,0,0,108,0,0,0,0,0,0,0,0,0,0,0,0,0,0,0,0,0,0,0,0,0,9,0,0,0,0,0,18,45,63,63,63,72,27,99,45,18,0,0,0,0,0,0,0,0,0,0,0,0,0,0,0,255,0
0,0,0,0,255,234,0,0,153,0,255,0,255,0,0,0,0,0,0,0,0,0,0,0,0,0,0,0,0,0,0,27,0,0,45,0,45,45,153,45,63,63,27,36,72,63,0,27,0,0,0,0,0,0,0,0,0,0,0,0,0,0,0,0
234,0,0,0,225,144,0,0,0,0,126,0,0,0,0,0,0,0,0,0,0,0,0,0,0,0,0,0,0,0,0,0,0,0,0,0,0,54,45,135,45,63,63,45,117,27,0,63,0,0,0,0,0,0,0,0,0,0,0,0,0,0,0,225
0,108,0,0,0,255,0,255,0,0,0,255,0,0,0,0,0,0,0,0,0,0,0,0,0,0,0,0,0,0,198,0,27,54,63,0,63,45,126,63,90,255,9,54,144,0,0,18,0,0,0,0,0,0,0,0,0,0,0,0,0,0,0,0
0,0,0,0,63,0,255,255,255,0,0,255,0,0,0,0,0,0,0,0,0,0,0,0,0,0,0,0,0,0,0,0,9,0,0,0,36,36,108,54,90,63,0,189,9,63,0,0,0,0,0,0,0,0,0,0,0,0,0,0,252,0,0,0
0,0,0,126,0,207,0,162,255,0,0,126,0,0,0,0,0,0,0,0,0,0,0,0,0,0,0,0,0,0,18,0,0,54,0,0,36,108,63,45,117,171,72,45,54,0,27,0,0,0,0,0,0,0,0,0,0,0,0,0,0,0,243,0
0,0,0,0,0,0,255,255,255,0,0,0,0,0,0,0,0,0,0,0,0,0,0,0,0,0,0,0,0,0,0,18,0,0,0,0,45,0,63,63,72,255,126,27,36,63,27,0,0,0,0,0,0,0,0,0,0,0,0,0,0,0,0,234
0,0,0,0,0,0,0,255,0,252,0,27,0,0,0,255,0,0,0,0,0,0,0,0,0,0,0,0,0,0,0,45,0,0,0,36,0,45,72,63,54,99,99,72,72,45,0,0,27,0,0,0,0,0,0,0,0,0,0,0,0,0,0,0
216,0,0,0,255,0,0,0,255,0,255,0,0,0,0,0,0,0,0,0,0,0,0,0,0,0,0,0,0,0,27,0,0,0,9,0,54,108,45,108,153,54,9,99,45,63,0,0,0,0,0,0,0,0,0,0,0,0,0,0,0,0,0,0
252,0,0,0,0,255,126,0,0,90,255,0,255,0,0,0,0,0,0,0,0,0,0,0,0,0,0,0,0,0,0,0,9,0,0,0,0,0,72,99,234,63,18,63,90,63,0,0,0,0,0,0,0,0,0,0,0,0,0,0,0,0,180,0
0,0,153,0,144,0,0,171,255,135,0,0,255,0,0,0,0,0,0,0,0,0,0,0,0,0,0,0,0,0,0,63,0,0,0,0,9,72,207,81,108,45,72,81,0,255,0,0,0,0,0,0,0,0,0,0,0,0,0,0,0,0,0,234
0,0,0,0,0,153,0,81,180,0,255,0,0,0,0,0,0,0,0,0,0,0,0,0,0,0,0,0,0,0,0,27,0,0,0,0,153,45,63,63,72,153,63,63,36,81,0,18,0,0,0,0,0,0,0,0,0,0,0,0,0,0,0,0
234,0,0,0,0,255,0,0,255,255,0,0,0,0,0,0,0,0,0,0,0,0,0,0,0,0,0,0,0,0,0,18,0,0,0,0,0,36,90,90,54,72,36,63,54,18,0,0,0,0,0,0,0,0,0,0,0,0,0,0,0,0,0,0
0,0,0,0,0,198,0,255,117,255,0,0,0,0,0,0,0,0,0,0,0,0,0,0,0,0,0,0,0,0,0,9,0,0,0,0,27,0,45,72,72,81,54,9,63,9,108,0,0,0,0,0,0,0,0,0,0,0,0,0,0,0,0,255
0,0,0,0,255,0,0,255,162,0,255,0,0,0,0,0,0,0,0,0,0,0,0,0,0,0,0,0,0,0,0,9,0,36,0,0,9,45,9,144,72,108,126,63,27,99,0,9,0,0,0,0,0,0,0,0,0,0,0,0,0,0,0,198
0,0,0,0,0,255,0,0,255,0,255,0,0,0,0,0,0,0,0,0,0,0,0,0,0,0,0,0,0,0,0,36,0,0,0,0,45,108,72,135,90,90,117,72,18,27,27,0,0,0,0,0,0,0,0,0,0,0,0,0,0,0,0,243
0,0,0,0,0,207,255,0,0,135,255,0,0,0,0,0,0,0,0,0,0,0,0,0,0,0,0,0,0,0,0,0,0,0,18,54,0,63,63,198,72,45,126,45,63,99,9,0,0,0,0,0,0,0,0,0,0,0,0,0,0,0,0,0
243,0,0,0,0,108,255,0,0,234,0,144,0,0,0,0,0,0,0,0,0,0,0,0,0,0,0,0,0,0,9,0,0,0,0,0,45,0,90,45,117,72,63,9,45,255,0,0,0,0,0,0,0,0,0,0,0,0,0,0,0,0,189,0
0,0,0,0,0,207,255,0,0,0,255,0,0,0,0,0,0,0,0,0,0,0,0,0,0,0,0,0,0,0,0,27,0,0,0,0,45,0,54,45,72,225,135,45,63,36,18,0,0,18,0,0,0,0,0,0,0,0,0,0,0,0,0,0
189,0,0,0,0,234,9,0,0,255,255,0,0,0,0,255,0,0,0,0,0,0,0,0,0,0,0,0,0,0,0,0,18,63,54,9,54,54,72,126,198,255,54,54,99,45,36,0,0,0,0,0,0,0,0,0,0,0,0,0,0,0,0,255
0,0,0,0,0,255,0,0,0,207,0,0,0,0,0,0,0,0,0,0,0,0,0,0,0,0,0,0,0,0,9,0,0,0,0,0,0,18,153,45,72,45,108,54,126,27,0,0,0,0,0,0,0,0,0,0,0,0,0,0,0,0,0,255
0,0,0,0,117,0,255,0,255,0,0,0,255,0,0,0,0,0,0,0,0,0,0,0,0,0,0,0,0,0,0,9,0,63,0,0,9,0,144,72,45,108,117,255,36,36,36,0,0,0,0,0,0,0,0,0,0,0,0,0,0,0,0,255
0,0,0,255,0,0,255,255,0,0,0,0,90,207,0,0,0,0,0,0,0,0,0,0,0,0,0,0,0,0,0,18,0,45,54,0,0,45,81,63,72,135,54,63,18,153,0,0,18,0,0,0,0,0,0,0,0,0,0,0,0,0,0,0
255,0,0,0,0,0,9,0,255,255,0,0,0,0,0,0,0,0,0,0,0,0,0,0,0,0,0,0,0,0,0,0,18,0,0,0,0,54,72,54,45,72,63,255,9,45,135,0,0,0,0,0,0,0,0,0,0,0,0,0,0,0,0,243
0,0,0,0,0,255,255,255,0,0,0,255,0,0,255,0,0,0,0,0,0,0,0,0,0,0,0,0,0,0,0,0,0,0,0,0,45,27,0,81,108,255,207,54,36,0,0,0,0,0,0,0,0,0,0,0,0,0,0,0,0,0,0,255
0,0,0,0,0,0,255,90,255,255,255,0,0,0,0,0,0,0,0,0,0,0,0,0,0,0,0,0,0,27,0,0,0,0,0,0,0,54,72,63,255,45,90,72,0,0,54,18,0,0,0,0,0,0,0,0,0,0,0,0,0,0,0,0
0,0,0,0,0,171,0,0,255,0,0,0,0,255,0,0,0,0,0,0,0,0,0,0,0,0,0,0,0,0,27,0,0,0,27,0,72,36,54,72,252,255,72,72,81,18,0,27,0,0,0,0,0,0,0,0,0,0,0,0,0,0,0,0
0,0,0,0,0,0,0,0,0,255,0,0,0,0,0,0,0,0,0,0,0,0,0,0,0,0,0,0,0,0,0,0,0,0,27,0,0,72,54,180,72,90,45,54,45,0,45,255,0,0,0,0,0,0,0,0,0,0,0,0,0,0,0,0
0,0,0,0,234,0,255,0,0,255,0,63,0,0,0,0,0,0,0,0,0,0,0,0,0,0,0,0,0,0,9,0,0,0,0,9,45,27,72,144,63,54,63,9,45,18,0,0,27,0,0,0,0,0,0,0,0,0,0,0,0,0,0,0
0,0,0,0,0,0,171,255,81,0,0,255,0,0,0,255,0,0,0,0,0,0,0,0,0,0,0,0,0,0,0,0,0,0,0,0,63,54,90,54,126,90,45,45,0,18,0,90,0,0,0,0,0,0,0,0,0,0,0,0,0,0,0,0
255,0,0,0,117,255,0,0,255,255,0,0,0,0,0,0,0,0,0,0,0,0,0,0,0,0,0,0,0,0,0,0,9,18,0,0,0,207,72,63,108,54,135,18,27,63,0,255,0,0,0,0,0,0,0,0,0,0,0,0,0,0,0,255
0,0,0,0,255,0,0,255,255,0,126,0,0,0,0,189,0,0,0,0,0,0,0,0,0,0,0,0,0,0,9,18,54,0,0,0,63,63,54,54,45,81,54,255,63,27,45,45,0,0,0,0,0,0,0,0,0,0,0,0,0,0,0,180
0,0,0,0,0,135,255,0,135,0,0,255,0,0,0,0,0,0,0,0,0,0,0,0,0,0,0,0,0,0,9,0,0,0,72,0,0,9,63,81,81,108,9,63,54,0,63,36,0,0,0,0,0,0,0,0,0,0,0,0,0,0,0,0
255,0,0,0,189,0,189,0,135,252,0,0,0,0,0,0,0,0,0,0,0,0,0,0,0,0,0,0,0,0,0,0,0,0,0,0,54,63,54,54,126,63,54,126,90,81,27,0,0,0,0,0,0,0,0,0,0,0,0,0,0,0,0,0
0,234,0,0,0,255,126,0,153,0,0,0,0,0,0,0,0,0,0,0,0,0,0,0,0,0,0,0,0,0,0,0,9,0,0,0,36,45,72,63,108,81,9,72,63,99,0,0,0,0,0,0,0,0,0,0,0,0,0,0,0,0,207,0
0,0,0,0,0,0,225,0,255,0,180,0,0,0,0,0,0,0,0,0,0,0,0,0,0,0,0,0,0,0,0,18,0,0,0,171,9,63,126,90,54,54,81,63,45,27,0,45,0,0,0,0,0,0,0,0,0,0,0,0,0,0,0,225
0,0,0,0,0,144,255,255,255,0,117,0,255,0,0,0,0,0,0,0,0,0,0,0,0,0,0,0,0,0,0,0,0,0,0,54,0,90,63,90,72,63,99,153,0,63,0,255,0,18,0,0,0,0,0,0,0,0,0,0,255,0,0,0
0,0,0,162,0,0,225,0,0,0,0,0,255,0,0,0,0,0,0,0,0,0,0,0,0,0,0,0,0,0,0,27,36,0,0,0,0,63,63,153,54,198,63,0,90,54,36,0,0,0,0,0,0,0,0,0,0,0,0,0,0,0,0,0
