0,0,15,0,0,0,80,125,0,0,45,0,0,0,0,0,0,0,0,0,230,0,0,0,0,0,0,0,0,0,0,0,0,0,0,30,0,25,30,40,80,80,235,20,35,15,0,0,0,0,0,0,0,0,0,0,0,0,0,0,0,0,0,40
0,0,0,0,0,0,220,150,0,0,0,0,0,0,0,0,0,0,0,0,0,0,0,0,0,0,0,0,0,0,0,0,0,10,0,15,50,0,15,70,90,20,15,30,75,15,0,0,0,0,0,0,0,0,0,0,0,0,0,0,0,110,0,0
0,0,0,0,80,0,200,100,0,35,0,70,0,0,0,0,0,0,0,0,0,0,0,0,0,0,0,0,0,0,0,0,5,30,0,0,5,10,25,55,25,25,30,15,80,15,0,0,0,0,0,0,0,0,0,0,0,0,0,0,0,0,0,0
130,0,0,0,0,60,175,0,0,0,100,0,0,0,0,0,200,0,0,0,0,0,0,0,0,0,0,0,0,0,0,5,15,10,0,55,5,15,40,65,40,25,95,140,25,0,70,0,0,0,0,0,0,0,0,0,0,0,0,0,0,0,0,110
0,0,0,0,0,0,100,195,0,0,0,0,0,0,0,0,0,0,0,0,0,0,0,0,0,0,0,0,0,0,0,0,40,5,5,0,40,40,35,100,65,55,85,85,20,25,0,0,50,0,0,0,0,0,0,0,0,0,0,0,0,150,0,0
0,0,0,0,0,85,0,25,150,0,0,0,110,0,0,0,0,0,0,0,0,0,0,0,0,0,0,0,0,0,0,0,5,0,50,0,0,20,50,55,80,15,20,15,15,15,0,0,0,10,0,0,0,0,0,0,0,0,0,0,0,0,0,0
115,0,0,0,30,0,230,20,0,30,0,0,0,235,0,0,0,0,0,0,0,0,0,0,0,0,0,0,0,0,0,5,5,10,35,0,15,95,15,35,80,20,60,30,25,15,5,15,0,0,0,0,0,0,0,0,0,0,0,0,0,0,0,65
0,0,0,0,60,0,215,0,55,0,0,0,0,0,0,0,0,0,0,0,0,0,0,0,0,0,0,0,0,0,0,0,0,0,0,0,0,15,25,40,35,30,25,25,15,20,50,0,0,0,0,0,0,0,0,0,0,0,0,0,0,0,0,100
0,0,0,0,40,0,0,0,0,220,0,0,0,0,0,0,0,0,0,0,0,0,0,0,0,0,0,0,0,0,0,0,5,0,35,0,35,55,25,35,60,95,25,30,15,0,30,0,0,0,0,0,0,0,0,0,0,0,0,0,0,0,0,0
0,0,0,70,0,0,45,200,50,0,65,0,0,0,0,0,195,0,0,0,0,0,0,0,0,0,0,0,0,0,0,0,0,15,15,0,40,20,65,50,20,25,25,25,0,0,15,0,0,0,0,0,0,0,0,0,0,0,0,0,0,0,0,80
0,0,0,0,30,0,0,205,0,130,0,0,0,160,0,0,0,0,0,0,0,0,0,0,0,0,0,0,0,0,0,0,5,5,10,40,20,15,25,50,75,25,90,90,20,20,30,0,0,0,0,0,0,0,0,0,0,0,0,0,0,0,35,0
0,0,0,0,35,0,180,70,0,0,235,0,0,0,0,0,0,0,0,0,0,0,0,0,0,0,0,0,0,0,0,5,0,0,0,5,35,25,25,10,55,25,95,25,25,15,5,0,0,0,0,0,0,0,0,0,0,0,0,0,0,0,0,105
0,0,0,0,85,0,0,205,40,0,195,0,0,0,0,0,0,0,0,0,0,0,0,0,0,0,0,0,0,0,0,0,0,0,10,95,0,60,20,15,50,220,120,65,30,20,0,5,0,0,0,0,0,0,0,0,0,0,0,0,0,0,0,100
0,0,0,0,0,75,165,155,40,0,0,0,205,0,0,0,0,0,0,0,0,0,0,0,0,0,0,0,0,0,0,0,0,15,20,0,15,40,0,25,70,20,25,130,80,15,5,80,0,0,0,0,0,0,0,0,0,0,0,0,70,0,0,0
0,0,0,45,0,0,205,100,20,0,235,0,0,0,0,0,0,0,0,0,0,0,0,0,0,0,0,0,0,0,0,0,0,0,0,10,45,35,0,85,70,20,25,35,35,30,20,10,0,0,0,0,0,0,0,0,0,0,0,0,0,0,0,70
0,0,0,45,0,0,210,0,0,90,0,0,0,0,0,0,0,0,150,0,0,0,0,0,0,0,0,0,0,0,0,0,0,5,30,0,25,30,80,25,60,15,50,25,20,0,20,15,0,0,0,0,0,0,0,0,0,0,0,0,0,0,0,0
0,0,0,0,0,0,205,0,55,0,55,0,0,155,0,0,0,0,0,0,0,0,0,0,0,0,0,0,0,0,0,0,5,0,0,0,20,60,30,40,25,105,25,10,15,200,0,0,0,0,0,0,0,0,0,0,0,0,0,0,0,0,0,0
0,0,0,0,0,75,0,0,0,0,0,0,0,0,0,0,0,240,0,0,0,0,0,0,0,0,0,0,0,0,130,0,0,0,0,0,10,25,30,25,30,240,25,25,65,15,0,0,0,0,0,0,0,0,0,0,0,0,0,0,0,0,0,5
0,0,0,65,0,65,0,0,235,170,10,0,0,0,0,0,0,0,0,0,0,0,0,0,0,0,0,0,0,0,0,0,0,0,0,55,0,20,10,35,50,210,40,80,0,30,30,0,0,0,0,0,0,0,0,0,0,0,0,0,0,125,0,0
0,0,0,50,115,0,175,130,0,0,0,0,200,0,0,0,0,0,0,0,0,0,0,0,0,0,0,0,0,0,0,15,0,0,30,0,10,15,25,110,95,45,80,25,115,15,15,0,0,0,0,0,0,0,0,0,0,0,0,0,0,0,60,0
0,60,0,0,20,70,0,220,90,0,0,0,225,0,0,0,0,0,0,0,0,0,0,230,0,0,0,0,0,0,0,0,0,5,5,0,15,40,125,50,80,55,85,20,45,20,0,0,0,0,0,0,0,0,0,0,0,0,0,0,0,0,75,0
0,0,0,85,0,0,220,0,40,50,0,0,0,0,0,0,0,0,0,0,0,0,0,0,0,0,0,0,0,0,0,0,5,5,0,15,60,35,105,80,25,55,75,35,25,25,15,0,0,0,0,0,0,0,0,0,0,0,0,0,0,0,0,95
0,0,0,0,0,0,0,0,35,205,60,0,0,0,0,0,0,0,0,0,0,0,0,0,0,0,0,0,0,0,0,0,0,30,0,0,0,35,15,20,100,20,25,235,10,25,25,10,0,0,0,0,0,0,0,0,0,0,0,0,0,0,0,95
0,0,0,0,15,0,195,200,80,0,205,0,0,0,0,0,0,0,0,0,0,0,0,0,0,0,0,0,0,0,0,0,0,0,15,20,0,15,60,70,140,40,25,40,25,15,0,0,0,0,0,0,0,0,0,0,0,0,0,0,0,0,0,80
0,0,0,0,0,85,35,0,195,0,0,0,210,0,0,0,0,0,0,0,0,0,0,0,0,0,0,0,0,0,0,0,0,45,0,0,0,15,70,30,90,70,40,25,20,20,20,0,0,0,0,0,0,0,0,0,0,0,0,0,0,0,0,0
0,0,0,0,45,0,170,155,0,80,0,0,0,195,0,0,0,0,0,0,0,0,0,0,0,0,0,0,0,0,0,10,0,5,0,60,25,0,45,15,45,60,30,75,15,25,5,0,0,0,0,0,0,0,0,0,0,0,0,0,0,0,115,0
0,0,60,0,0,0,135,0,230,35,0,0,0,0,0,0,0,0,0,0,0,0,0,0,0,0,0,0,0,0,0,0,0,0,0,0,5,80,25,40,20,65,40,0,40,215,0,0,0,0,0,0,0,0,0,0,0,0,0,0,0,0,95,0
0,0,40,0,0,0,230,0,0,220,45,0,0,0,0,0,0,0,0,0,0,0,0,0,0,0,0,0,0,0,0,0,0,0,0,0,0,60,40,20,30,35,30,35,20,0,25,0,0,0,0,0,0,0,0,0,0,0,0,0,0,0,0,0
130,0,0,0,0,105,0,220,0,0,0,0,0,130,0,0,0,0,0,0,0,0,0,0,0,0,0,0,0,10,25,0,15,0,40,0,25,110,50,35,55,20,85,15,10,15,15,0,5,0,0,0,0,0,0,0,0,0,0,0,0,0,0,0
0,0,0,120,40,0,210,0,0,0,110,0,0,0,0,0,0,50,0,0,0,0,0,0,0,0,0,0,0,0,0,0,0,5,5,15,35,20,30,35,40,15,55,15,50,25,10,0,0,0,0,0,0,0,0,0,0,0,0,0,0,0,0,0
0,0,0,0,0,205,0,0,180,40,60,0,0,0,0,0,0,0,0,0,0,0,0,0,0,0,0,0,0,0,0,0,0,0,0,0,5,5,50,35,70,35,30,30,55,0,0,0,0,0,0,0,0,0,0,0,0,0,0,0,0,0,0,90
0,0,0,0,0,75,215,55,175,60,0,0,225,0,0,0,0,0,0,0,0,0,0,0,0,0,0,0,0,0,0,0,15,0,45,100,40,15,15,115,25,45,85,80,20,60,10,0,0,0,0,0,0,0,0,0,0,0,0,0,0,0,0,90
0,0,55,0,0,0,0,95,0,215,0,40,0,0,0,0,0,0,0,0,0,0,0,0,0,0,0,0,0,0,0,0,0,0,0,35,0,15,30,50,155,30,80,30,20,25,25,5,0,0,0,0,0,0,0,0,0,0,0,0,0,0,110,0
65,0,0,0,0,0,215,0,0,185,0,0,160,0,0,0,0,0,0,0,0,0,0,0,0,0,0,0,0,0,0,0,0,0,5,15,5,105,25,15,25,85,80,25,20,85,0,0,0,0,0,0,0,0,0,0,0,0,0,0,0,0,0,95
0,0,0,0,180,100,0,0,30,205,65,0,0,0,0,0,0,0,0,0,0,0,0,0,0,0,0,0,0,0,0,5,0,0,0,15,20,35,20,70,35,70,25,40,25,30,35,0,0,0,0,0,0,0,0,0,0,0,0,0,0,0,70,0
0,55,0,0,0,0,0,220,0,0,0,220,0,0,0,0,0,0,0,0,0,0,0,0,0,0,0,0,0,0,0,0,0,0,15,0,15,25,85,30,60,60,40,30,35,0,40,15,0,0,0,0,0,0,0,0,0,0,0,0,0,0,0,115
0,0,0,0,0,0,165,0,210,0,165,0,0,0,0,0,0,0,0,0,0,0,0,0,0,0,0,0,0,0,0,0,0,10,10,0,10,60,30,25,85,90,20,20,30,95,10,0,0,0,0,0,0,0,0,0,0,0,0,0,0,0,0,0
0,50,0,0,0,60,70,195,0,0,0,0,210,0,0,0,0,0,0,0,0,0,0,0,0,0,0,0,0,0,0,0,0,0,10,30,0,60,25,25,55,95,30,70,15,25,0,0,0,0,0,0,0,0,0,0,0,0,0,0,0,0,40,0
0,0,0,0,0,0,190,0,85,0,25,0,0,0,0,0,0,0,0,0,0,0,0,0,0,0,0,0,0,0,50,0,5,0,0,10,15,85,20,45,90,30,40,40,20,0,30,0,0,0,0,0,0,0,0,0,0,0,0,0,0,0,0,85
0,0,0,0,85,0,225,0,50,0,125,0,0,0,0,0,0,0,0,0,0,0,0,0,0,0,0,0,0,0,0,0,0,0,0,15,0,20,70,25,35,80,25,55,30,25,0,25,0,0,0,0,0,0,0,0,0,0,0,0,0,0,0,80
0,0,0,0,0,65,0,0,40,0,160,0,0,0,0,0,0,0,0,0,0,0,0,0,0,0,0,0,0,0,0,0,5,0,0,0,10,25,65,90,60,25,20,35,85,0,20,0,0,0,0,0,0,0,0,0,0,0,0,0,0,0,0,120
0,0,0,0,0,190,85,0,0,0,105,0,0,0,0,0,0,0,0,0,0,0,0,0,0,0,0,0,0,0,0,0,0,40,15,0,15,120,70,85,25,30,35,75,20,0,10,0,0,0,0,0,0,0,5,0,0,0,0,0,0,0,115,0
0,40,0,0,0,0,195,0,0,0,0,0,0,0,0,0,0,0,0,0,0,0,0,0,0,0,0,0,0,0,0,0,5,5,0,55,0,15,75,80,80,240,30,25,0,35,25,0,0,0,0,0,0,0,0,0,0,0,0,0,0,0,0,100
0,0,0,0,70,185,0,50,0,235,0,200,0,0,0,0,0,0,0,0,0,0,0,0,0,0,0,0,0,0,0,0,0,0,0,0,10,25,50,50,80,160,25,25,35,35,0,0,0,0,0,0,0,0,0,0,0,0,0,0,0,0,125,0
0,0,0,35,0,0,205,0,0,175,0,0,0,0,230,0,0,0,0,0,0,0,0,0,0,0,0,0,0,5,0,15,0,0,10,0,0,25,115,60,20,70,30,90,75,30,0,0,0,0,0,0,0,0,0,0,0,0,0,0,0,0,90,0
0,0,90,0,0,0,220,20,0,220,0,0,0,0,0,0,0,0,0,0,0,0,0,0,0,0,0,0,0,0,0,5,0,0,5,0,10,15,40,35,35,90,70,25,25,25,10,0,0,0,0,0,0,0,0,0,0,0,0,0,0,70,0,0
0,0,0,60,0,0,0,0,15,0,200,0,0,0,0,0,0,0,0,0,0,0,0,0,0,0,0,0,0,0,0,0,0,0,0,0,10,60,35,25,105,25,30,85,25,80,0,0,0,0,0,0,0,0,0,0,0,0,0,0,0,0,0,120
0,0,0,0,65,0,230,60,0,225,0,0,0,0,0,0,0,0,0,0,0,0,0,0,0,0,0,0,0,0,0,0,5,0,0,5,20,10,20,30,90,30,30,0,30,85,10,0,0,0,0,0,0,0,0,0,0,0,0,0,0,0,0,105
0,0,0,95,0,0,215,35,0,0,160,0,0,0,0,0,0,0,0,0,0,0,0,0,0,0,0,0,0,0,0,5,0,0,55,0,10,35,40,25,75,25,20,85,30,15,0,5,0,0,0,0,0,0,0,0,0,0,0,0,0,0,0,0
0,0,75,0,0,0,140,205,0,0,35,0,0,0,0,0,235,0,0,0,0,0,0,0,0,0,0,0,0,0,0,0,0,0,0,35,15,25,30,150,240,70,25,35,25,5,25,0,0,0,0,0,0,0,0,0,0,0,0,0,0,0,45,0
