0,0,0,0,21,57,111,0,141,0,126,0,0,0,0,0,0,0,0,0,0,0,0,0,0,0,0,0,0,0,0,9,15,0,6,3,9,9,12,18,33,45,24,15,18,12,0,0,0,0,0,0,0,0,0,0,0,0,0,0,0,0,0,84
0,0,0,0,0,48,129,0,108,0,0,0,135,0,0,0,0,0,0,0,0,0,0,0,0,0,0,0,0,0,0,3,9,0,18,3,12,48,24,15,93,36,15,0,45,15,15,0,0,0,0,0,0,0,0,0,0,0,0,0,0,0,0,0
0,0,0,0,0,63,0,0,96,0,42,0,0,0,0,0,0,0,0,0,0,0,0,0,0,0,0,0,0,0,0,3,3,0,0,0,21,9,18,24,18,18,15,18,15,15,0,15,0,0,0,0,0,0,0,0,0,0,0,0,0,0,0,0
69,0,0,0,0,102,0,0,117,117,0,0,0,0,0,0,0,0,0,0,0,0,0,0,0,0,0,0,0,0,3,6,6,0,0,0,3,12,27,15,57,24,15,42,21,9,0,0,0,0,0,0,0,0,0,0,0,0,0,0,0,0,87,0
0,0,0,0,105,0,111,0,42,0,15,123,0,0,0,0,0,0,0,0,0,0,0,0,0,0,0,0,0,0,0,6,9,0,0,0,39,6,9,12,24,21,15,48,12,21,0,0,0,0,0,0,0,0,0,0,0,0,0,0,0,0,0,0
99,0,0,0,0,96,75,0,0,99,42,0,0,0,0,0,0,0,0,0,0,0,0,0,0,0,0,0,0,0,0,0,0,0,3,0,0,12,15,30,15,24,51,9,0,18,9,0,0,0,0,0,0,0,0,0,0,0,0,0,0,0,111,0
0,0,0,0,0,90,99,0,0,144,0,0,0,0,21,0,0,0,0,0,0,0,0,0,0,0,0,0,0,0,0,0,0,0,6,0,9,6,30,21,12,12,21,12,36,21,9,0,0,0,0,0,0,0,0,0,0,0,0,0,0,0,0,84
0,0,0,0,0,105,0,123,105,0,42,0,0,0,0,0,0,0,0,0,0,0,0,0,0,0,0,0,0,0,0,0,0,0,0,0,6,0,24,12,54,15,15,21,0,15,0,15,0,0,0,0,0,0,0,0,0,0,0,0,0,0,0,0
90,0,0,57,0,78,108,0,117,0,0,0,0,0,0,0,0,0,0,0,0,0,0,0,0,0,0,0,0,0,3,0,0,0,0,0,12,6,12,15,57,27,18,18,12,0,21,0,0,0,0,0,0,0,0,0,0,0,0,0,0,0,0,81
0,0,0,0,0,99,0,117,96,0,0,0,0,0,0,0,0,0,0,0,0,0,0,0,0,0,0,0,0,0,3,0,0,0,6,0,0,27,3,15,45,27,18,15,12,15,0,0,0,0,0,0,0,0,0,0,0,0,0,0,0,0,108,0
0,0,0,0,0,51,132,3,0,60,0,0,0,126,0,0,0,0,0,0,0,0,0,0,0,0,0,0,0,0,3,9,0,9,6,15,0,9,24,99,24,15,42,12,15,9,0,0,15,0,0,0,0,0,0,0,0,0,0,0,0,0,0,0
0,0,0,0,0,72,12,105,0,0,0,126,0,0,0,0,0,0,0,0,0,0,0,0,0,0,0,0,0,0,0,6,0,6,12,0,36,0,18,9,36,21,12,21,12,15,0,0,0,0,0,0,0,0,0,0,0,0,0,0,0,0,102,0
0,0,0,0,0,42,0,123,0,0,0,132,0,0,0,0,0,0,0,0,0,0,0,0,0,0,0,0,0,0,3,12,6,0,0,9,6,0,27,36,42,30,15,45,15,15,9,0,0,0,0,0,0,0,0,0,0,0,0,0,0,0,0,0
0,84,0,0,0,84,0,123,123,0,0,0,0,111,0,0,0,0,0,0,0,0,0,0,0,0,0,0,0,3,0,6,0,15,0,9,9,12,15,27,18,81,15,21,15,0,6,0,0,0,0,0,0,0,0,0,0,0,0,0,0,0,0,93
0,0,0,0,0,0,93,96,0,87,0,0,0,0,0,126,0,0,0,0,0,0,0,0,0,0,0,0,0,0,6,0,0,0,0,15,0,0,87,9,42,24,15,0,18,3,9,0,0,0,0,0,0,0,0,0,0,0,0,0,0,0,0,0
0,0,0,0,0,129,0,0,0,0,0,42,0,0,0,0,0,0,0,0,0,0,0,0,0,0,0,0,0,0,0,0,0,0,9,0,24,0,9,33,24,18,24,15,42,9,9,0,0,0,0,0,0,0,0,0,0,0,0,0,0,0,0,0
0,0,0,0,84,96,0,0,0,84,48,0,0,0,0,0,0,0,0,0,0,0,0,0,0,0,0,0,0,0,0,3,0,0,0,0,3,0,18,6,45,9,15,9,9,96,0,0,0,0,0,0,0,0,0,0,0,0,0,0,0,0,0,0
96,0,0,0,57,0,57,108,0,102,0,0,138,0,0,0,0,0,0,0,0,0,0,0,0,0,0,0,0,0,0,0,6,66,0,0,6,9,129,21,36,15,12,36,0,15,0,12,0,0,0,0,0,0,0,0,0,0,0,0,0,0,0,99
0,0,0,0,0,0,0,0,75,99,0,0,0,0,0,0,0,0,0,0,0,0,0,0,0,0,0,0,0,0,0,0,0,0,0,0,24,9,9,27,51,33,15,24,12,0,0,12,0,0,0,0,0,0,0,0,0,0,0,0,0,0,0,102
0,0,0,0,0,63,117,0,36,0,0,9,0,0,0,0,0,0,0,0,0,0,0,0,0,0,0,0,0,0,12,0,6,9,0,6,21,9,15,78,45,12,24,15,24,57,0,6,0,0,0,0,0,0,0,0,0,0,0,0,0,0,0,0
0,102,0,0,0,123,63,0,51,111,0,0,0,0,0,0,0,0,0,0,0,0,0,0,0,0,0,0,0,6,0,0,0,0,0,0,3,12,9,15,45,18,15,15,18,15,0,0,0,0,0,0,0,0,0,0,0,0,0,0,0,0,0,0
84,0,0,0,0,84,42,105,0,81,0,0,0,0,0,0,0,0,0,0,0,0,0,0,0,0,0,0,0,0,3,0,0,0,0,6,24,15,9,9,12,60,36,21,15,12,0,0,0,0,0,0,0,0,0,0,0,0,0,0,0,0,0,81
0,0,0,0,42,0,0,117,51,9,0,48,0,0,0,0,0,0,0,0,0,0,0,0,0,0,0,0,0,0,0,0,9,0,9,6,9,9,21,15,21,24,48,9,9,0,12,0,0,0,0,0,0,0,0,0,0,0,0,0,0,0,0,0
96,0,0,0,0,81,0,0,0,51,0,0,135,0,0,0,0,0,0,0,0,0,0,0,0,0,0,0,0,0,0,9,15,0,0,18,6,30,9,60,15,45,15,27,9,0,129,0,0,0,0,0,0,0,0,0,0,0,0,0,0,0,96,0
0,0,0,0,99,60,0,33,0,0,0,0,135,0,0,0,0,0,0,0,0,0,0,0,0,0,0,0,12,0,0,3,6,6,9,0,18,54,12,18,21,36,48,12,15,18,0,0,0,0,0,0,0,0,0,0,0,0,0,0,0,0,0,96
0,0,0,0,0,129,0,63,0,0,0,0,0,0,135,0,0,0,0,0,0,0,0,0,0,0,0,0,0,0,0,0,0,63,0,0,9,3,9,15,15,144,15,33,18,12,18,0,0,0,0,0,0,0,0,0,0,0,0,0,0,0,0,0
96,0,0,0,72,0,129,0,0,99,0,0,0,0,0,0,0,0,0,0,0,0,0,0,0,0,0,0,0,0,0,6,9,0,0,0,21,12,0,45,12,39,51,21,12,9,0,0,0,0,0,0,0,0,0,0,0,0,0,0,0,0,0,66
0,0,0,0,0,63,126,117,0,0,0,123,0,0,0,0,0,0,0,0,0,0,0,0,0,0,0,0,0,0,0,9,0,0,0,6,15,12,27,9,57,18,21,15,15,9,6,141,0,0,0,0,0,0,0,0,0,0,0,0,0,0,0,105
0,0,0,0,0,0,111,0,138,0,0,0,0,0,0,0,0,0,0,0,0,0,0,0,0,0,0,0,0,0,0,0,0,0,0,0,0,18,3,15,57,21,18,6,12,0,15,15,0,0,0,0,0,0,0,0,0,0,0,0,0,0,99,0
0,0,0,0,0,102,117,0,93,0,0,0,0,0,0,0,0,0,0,0,0,0,0,0,0,0,0,0,0,0,0,0,0,0,0,0,15,0,15,18,21,63,42,15,15,0,0,0,0,0,0,0,0,0,0,0,0,0,0,0,0,0,0,0
0,0,0,0,0,0,135,0,123,99,0,0,0,0,0,0,0,0,0,0,0,0,0,0,0,0,0,0,0,0,0,0,0,0,6,0,0,12,9,75,36,15,12,9,15,33,0,0,0,114,0,0,0,0,0,0,0,0,0,0,0,0,0,0
0,0,0,0,0,108,0,0,126,0,117,0,0,0,0,0,0,0,0,0,0,0,0,0,0,0,0,0,0,0,9,0,0,12,9,0,9,9,21,21,81,21,18,9,0,6,0,0,0,0,0,0,0,0,0,0,0,0,0,0,0,0,69,0
0,0,0,0,0,0,111,0,0,87,0,81,0,0,0,0,0,0,0,0,0,0,0,0,0,0,0,0,0,0,0,3,0,0,0,0,18,15,0,63,57,12,9,18,21,0,15,9,0,0,0,0,0,0,0,0,0,0,0,0,0,0,0,105
0,0,0,0,0,93,0,0,0,0,72,0,0,0,0,0,0,0,0,0,0,0,0,0,0,0,0,0,0,0,0,9,0,3,0,15,0,72,3,24,15,12,18,6,57,12,9,0,9,0,0,0,0,0,0,0,0,0,0,0,0,0,0,0
0,0,0,0,0,0,0,75,132,0,18,0,0,0,0,0,0,0,0,0,0,0,0,0,0,0,0,0,0,0,0,0,0,0,0,0,0,6,30,21,54,21,21,15,0,0,15,0,0,0,0,0,0,0,0,0,0,0,0,0,0,0,84,0
0,0,0,0,0,0,126,75,0,0,0,0,0,0,0,0,0,0,0,0,0,0,0,0,0,0,0,0,0,0,0,0,0,0,0,63,0,9,21,24,33,15,33,138,0,12,15,15,0,0,0,0,0,0,0,0,0,0,0,0,0,0,0,90
0,0,0,0,123,0,0,0,141,0,0,0,0,0,0,0,0,0,0,0,0,0,0,0,0,0,0,0,0,0,0,12,0,0,0,0,0,12,15,15,18,81,21,51,0,12,0,12,0,0,0,0,0,0,0,0,0,0,0,0,0,0,96,0
0,0,0,90,0,0,114,0,120,0,0,0,0,0,0,114,0,0,0,0,0,0,0,0,0,0,0,0,0,0,0,0,0,0,0,0,6,18,15,18,108,18,21,15,6,12,18,0,0,0,0,0,0,0,0,0,0,0,0,0,0,0,0,102
0,0,0,0,96,0,0,0,63,78,0,0,0,0,0,0,0,0,0,0,0,0,0,0,0,0,0,0,0,0,0,0,24,0,0,3,0,12,6,24,15,51,18,9,15,0,15,0,0,0,0,0,0,0,0,0,0,0,0,0,0,0,102,0
0,0,0,0,0,0,117,0,72,0,54,0,0,0,0,126,0,0,0,0,0,0,0,0,0,0,0,0,0,12,0,0,0,6,12,0,9,12,18,30,15,12,12,15,0,0,3,117,3,0,0,0,0,0,0,0,0,0,0,0,0,0,0,87
0,0,0,0,0,0,123,0,129,0,0,132,0,0,0,0,0,0,0,0,0,0,0,0,0,0,0,0,0,0,6,15,15,9,0,0,24,9,18,15,18,15,84,12,15,15,0,0,15,0,0,0,0,0,0,0,0,0,0,0,0,0,0,0
99,0,0,0,0,105,0,48,30,0,102,0,0,0,0,0,0,0,0,0,0,0,0,0,0,0,0,0,0,0,0,0,0,0,0,0,18,6,15,72,21,36,18,9,0,0,15,0,0,0,0,0,0,0,0,0,0,0,0,0,0,0,0,0
78,0,0,0,0,105,42,117,3,111,0,0,0,0,0,0,0,0,0,0,0,0,0,0,0,0,0,0,0,0,0,0,6,0,15,0,6,9,12,12,33,60,3,15,15,0,0,18,0,0,0,0,0,0,0,0,0,0,0,0,0,0,0,99
0,0,0,0,0,0,111,0,0,0,0,102,0,0,0,0,0,0,0,0,0,0,0,0,0,0,0,0,0,9,0,0,0,3,0,12,9,15,15,39,27,24,51,9,9,0,87,0,0,0,0,0,0,0,0,0,0,0,0,0,0,0,0,0
93,0,0,0,0,102,0,0,0,0,123,0,0,0,0,0,0,0,0,0,0,0,0,0,0,0,0,0,0,0,0,9,0,0,0,0,0,9,42,21,12,12,27,0,54,9,0,0,0,0,0,0,0,0,0,0,0,0,0,0,0,63,0,0
0,0,0,0,0,0,81,123,117,0,0,0,0,0,0,0,0,0,0,0,0,0,0,0,0,0,0,0,0,0,0,0,0,6,0,0,0,3,21,12,12,15,12,12,33,6,6,15,0,0,0,0,0,0,0,0,0,0,0,0,0,0,81,0
0,0,0,0,36,39,105,0,24,0,0,105,0,0,0,0,0,0,0,0,0,0,0,0,0,0,0,0,0,0,0,0,9,6,9,0,9,15,42,18,42,18,18,36,18,9,0,0,0,3,0,0,0,0,0,0,0,0,0,0,0,0,66,0
0,0,0,0,21,123,0,0,36,0,0,129,0,0,0,0,0,0,0,0,0,0,0,0,0,0,0,0,0,0,0,6,0,3,6,0,21,39,42,18,96,18,12,18,0,0,0,0,0,0,0,0,0,0,0,0,0,0,0,0,0,0,0,0
81,0,0,0,51,0,36,0,18,111,0,0,0,0,0,0,0,0,0,0,0,0,0,0,0,0,0,0,0,0,6,0,0,3,12,0,0,12,15,39,15,6,12,33,0,12,3,0,0,0,0,0,0,0,0,0,0,0,0,0,0,0,0,0
0,96,0,0,0,81,42,0,0,27,0,0,0,0,0,0,0,0,0,0,0,0,0,0,0,0,0,0,0,0,0,0,6,0,0,0,0,24,18,15,57,39,15,24,18,0,0,6,0,0,0,0,0,0,0,0,0,0,0,0,0,0,0,81
