0,0,0,0,0,90,255,0,255,0,0,255,0,0,0,0,0,0,0,0,0,0,0,0,0,0,0,0,0,81,0,54,18,63,0,72,81,72,54,63,153,45,45,36,36,36,27,0,0,0,0,0,0,0,0,0,0,0,0,0,0,0,0,252
0,0,0,0,0,0,171,255,54,198,0,255,0,0,0,0,0,0,0,0,0,0,0,0,0,0,0,0,0,90,0,0,54,0,0,0,63,54,54,45,180,63,63,45,45,27,9,0,0,0,0,0,0,0,0,0,0,0,0,0,0,0,171,0
0,0,0,0,99,0,255,255,0,153,189,72,0,0,0,0,0,0,0,0,0,0,0,0,0,0,0,0,0,27,0,0,9,54,54,9,63,72,72,108,63,18,99,54,27,0,0,18,0,0,0,0,0,0,0,0,0,0,0,0,0,0,0,180
0,0,0,0,0,108,207,0,255,162,0,0,0,81,0,0,0,0,0,0,0,0,0,0,0,0,0,0,0,0,0,18,0,0,45,0,0,54,63,72,90,72,63,54,36,18,18,0,0,0,0,0,0,0,0,0,0,0,0,0,0,0,0,0
0,0,0,0,0,108,255,216,0,126,0,0,0,0,0,0,0,0,0,0,0,0,0,0,0,0,0,0,0,0,0,0,36,0,0,18,0,18,81,108,63,45,54,36,54,18,27,45,0,0,0,0,0,0,0,0,0,0,0,0,0,0,0,0
0,0,0,0,81,0,255,255,126,117,255,0,0,0,0,0,0,0,0,0,0,0,0,0,0,0,0,0,0,9,0,0,0,63,9,54,54,171,72,27,63,54,90,27,36,9,27,0,0,0,0,0,0,0,0,0,0,0,0,0,0,0,0,243
0,0,0,0,0,255,198,0,144,0,255,0,9,0,0,0,0,0,0,0,0,0,0,0,0,0,0,0,0,0,0,0,0,45,0,0,72,18,90,99,54,63,126,63,27,36,27,0,0,0,0,0,0,0,0,0,0,0,0,0,0,0,0,153
0,0,0,0,63,255,0,0,180,0,255,0,0,0,0,0,0,0,0,0,0,0,0,0,0,0,0,0,0,0,72,45,0,0,0,0,45,63,45,54,90,90,45,45,18,54,0,9,0,0,0,0,0,0,0,0,0,0,0,0,0,0,0,225
0,0,0,0,0,126,255,255,0,252,0,0,0,0,0,0,0,0,0,0,0,0,0,0,0,0,0,0,0,0,0,0,63,0,0,0,0,90,72,99,45,63,36,72,45,27,0,0,0,0,0,0,0,0,0,0,0,0,0,0,0,0,207,0
0,0,0,0,117,0,255,255,162,0,255,0,0,0,0,0,0,0,0,0,0,0,0,0,0,0,0,0,0,0,0,0,0,0,27,9,72,45,72,63,144,45,18,45,63,36,9,0,0,0,0,0,0,0,0,0,0,0,0,0,0,0,0,144
0,0,0,0,0,126,255,171,0,0,255,0,0,0,0,0,0,0,0,0,0,0,0,0,0,0,0,0,0,0,54,0,0,0,18,0,27,63,63,63,63,180,90,45,0,45,18,0,0,0,0,0,0,0,0,0,0,0,0,0,0,0,0,0
0,0,0,0,126,0,90,255,54,0,255,0,0,0,0,0,0,0,0,0,0,0,0,0,0,0,0,0,0,0,0,18,0,0,0,27,45,72,18,54,72,117,45,99,36,45,27,27,0,0,0,0,0,0,0,0,0,0,0,0,0,0,0,0
0,0,0,0,0,255,180,0,0,0,255,0,0,0,0,0,0,0,0,0,0,0,0,0,0,0,0,0,0,0,0,0,45,63,0,54,0,9,63,99,63,63,153,27,0,63,18,0,18,0,0,0,0,18,0,0,0,0,0,0,0,0,0,189
0,0,0,0,0,255,180,0,0,255,0,0,0,0,0,0,0,0,0,0,0,0,0,0,0,0,0,0,0,0,18,0,36,0,0,54,63,90,45,54,72,90,108,72,36,18,18,0,0,0,0,0,0,0,0,0,0,0,0,0,255,0,0,0
0,0,0,0,171,0,0,255,90,0,255,0,0,0,0,0,63,0,0,0,0,0,0,0,0,0,0,0,0,0,0,0,54,0,0,36,45,63,54,54,63,72,225,45,18,27,27,0,0,0,0,0,0,0,0,0,0,0,0,0,0,0,0,234
0,0,0,0,153,0,0,0,0,255,0,0,0,0,0,0,0,0,0,0,255,0,90,0,0,0,0,0,0,0,0,0,0,54,0,63,0,81,0,255,63,63,36,72,45,18,18,0,9,0,0,0,0,0,0,0,0,0,0,0,0,0,0,0
207,0,0,255,0,0,0,171,255,255,255,0,0,0,0,0,0,0,0,0,0,0,0,0,0,0,0,0,0,0,0,27,0,63,0,54,63,54,54,72,81,225,54,90,45,27,18,0,0,0,0,0,0,0,0,0,0,0,0,0,0,90,0,0
0,0,0,72,0,0,255,180,0,144,0,0,0,0,0,0,0,0,0,0,0,0,0,0,0,0,0,0,0,0,0,0,9,0,27,0,9,81,72,99,54,45,81,27,72,36,36,18,0,0,0,0,0,0,0,0,0,0,0,255,0,0,0,126
0,0,0,0,0,126,255,255,255,99,0,0,0,0,0,0,45,0,0,0,0,0,0,0,0,0,0,0,0,0,18,0,0,0,0,0,45,27,45,63,144,54,63,36,45,0,36,0,0,0,0,0,0,0,0,0,0,0,0,0,0,0,189,0
0,0,0,0,0,99,255,180,0,0,0,0,0,0,0,0,0,0,0,0,0,0,0,0,0,0,0,0,0,63,0,0,0,45,0,18,54,54,63,90,72,90,54,72,27,27,27,0,0,0,0,0,0,0,0,0,0,0,0,0,0,0,0,207
0,0,0,0,0,63,198,255,243,153,0,0,0,0,63,0,0,0,0,0,0,0,0,0,0,0,0,0,0,0,0,0,0,0,0,0,0,27,72,54,45,126,63,0,63,54,0,18,0,0,0,0,0,0,0,0,0,0,0,0,0,0,0,207
0,0,0,0,0,99,255,255,0,0,0,144,0,0,0,0,0,0,0,0,0,0,0,0,0,0,0,0,0,0,0,9,0,0,0,0,9,72,27,108,54,144,36,36,27,0,27,18,0,0,0,0,0,0,0,0,0,0,0,0,0,207,0,0
0,0,0,153,0,0,255,0,255,0,189,0,255,0,0,0,0,0,0,0,0,0,0,0,0,0,0,0,0,0,54,0,0,45,0,0,72,27,63,54,126,63,45,72,0,27,9,0,0,0,0,0,0,0,0,0,0,0,0,0,0,0,0,153
0,0,0,0,0,255,144,0,0,255,117,0,0,0,0,0,0,0,0,0,0,0,0,0,0,0,0,0,0,0,0,0,0,54,36,18,63,90,63,72,171,99,36,63,99,27,0,0,0,0,0,0,0,0,255,0,0,0,0,0,0,0,0,189
0,0,0,0,255,0,0,0,255,72,0,0,0,0,0,0,0,0,0,0,0,0,0,0,0,0,0,0,0,0,0,0,0,0,0,0,0,45,72,72,63,54,63,27,27,27,27,0,0,0,0,0,0,0,0,0,0,0,0,0,0,0,0,225
0,0,162,0,0,255,0,243,0,0,0,0,0,0,0,0,255,0,0,0,0,0,0,0,0,0,0,0,0,0,0,0,36,0,0,0,27,72,36,255,45,45,36,36,54,27,0,0,27,0,0,0,0,0,0,0,0,0,0,0,0,0,0,0
0,0,0,0,0,108,255,135,255,0,255,255,0,0,0,0,0,0,0,0,0,0,0,0,0,0,0,0,0,0,0,18,90,54,0,54,72,63,63,90,234,99,72,54,45,27,54,0,0,0,0,0,0,0,0,0,0,0,0,0,0,0,189,0
0,0,0,0,255,0,0,90,0,255,0,54,0,0,0,0,0,0,0,0,0,0,0,0,0,0,0,0,0,0,0,0,0,0,63,18,9,63,72,63,72,90,45,45,72,27,255,0,0,0,0,0,0,0,0,0,0,0,0,0,0,0,0,144
0,0,0,0,0,72,255,255,0,0,0,0,0,0,0,0,0,0,0,0,0,0,0,0,0,0,0,0,0,0,0,0,0,27,0,0,0,90,27,54,225,45,63,126,27,9,27,18,0,0,0,0,0,0,0,0,0,0,0,0,0,171,0,0
0,0,0,0,135,255,0,0,171,0,0,0,0,0,0,0,0,0,0,0,0,0,0,0,0,0,0,0,0,0,0,0,27,0,0,0,72,72,63,36,54,36,63,234,45,27,0,18,0,0,0,0,0,0,0,0,0,0,0,0,0,0,0,153
0,0,0,0,0,36,255,117,0,255,0,0,0,0,0,0,0,0,0,0,0,0,0,0,0,0,0,0,0,0,0,0,0,0,0,0,63,63,63,81,72,45,117,45,36,36,18,0,0,0,0,0,0,0,0,0,0,0,0,0,0,0,0,108
0,0,0,0,0,171,255,255,207,0,0,0,255,0,0,0,0,0,0,0,0,0,0,0,0,0,0,0,0,0,0,0,18,0,0,0,0,90,63,171,72,126,54,45,63,27,0,18,0,0,0,0,0,0,0,0,0,0,0,0,0,0,234,0
0,0,0,0,0,72,0,189,255,0,0,0,0,135,0,0,0,0,0,0,0,0,0,0,0,0,0,0,0,36,0,0,0,0,0,36,0,0,54,63,153,63,27,45,36,18,18,27,0,0,0,0,0,0,0,0,0,0,0,0,0,0,0,0
189,0,0,0,0,0,255,180,0,207,255,0,0,0,0,0,0,0,0,0,0,0,0,0,0,0,0,0,0,0,0,0,0,54,0,0,54,72,54,180,63,72,63,18,45,36,18,0,0,0,0,0,0,0,0,0,0,0,0,0,0,0,0,243
0,0,0,0,255,0,0,171,0,72,0,0,0,0,0,0,0,0,0,0,0,0,126,0,0,0,0,0,0,0,0,54,36,0,0,0,72,72,81,63,63,54,63,63,27,36,27,108,0,0,0,0,0,0,0,0,0,0,0,0,252,0,255,0
0,0,0,0,0,255,255,0,126,0,0,0,0,0,0,0,0,0,0,0,0,0,0,0,0,0,0,0,0,0,0,0,0,0,0,0,27,63,72,81,126,63,45,63,36,36,18,18,0,0,0,0,0,9,0,0,0,0,0,0,0,108,0,0
0,0,0,0,0,0,0,255,0,255,0,0,0,0,0,0,0,0,0,0,0,27,0,0,0,0,0,0,0,0,27,0,0,18,0,0,0,63,36,72,90,171,63,36,45,18,0,0,0,0,0,0,0,0,0,0,0,0,0,0,0,0,0,0
243,0,0,0,0,255,0,117,0,63,0,0,255,0,0,0,0,0,0,0,0,0,0,0,0,0,0,0,0,0,63,0,0,0,9,0,63,63,45,54,45,45,171,72,45,36,27,18,0,0,0,0,0,0,0,0,0,0,0,0,0,0,0,0
207,0,0,0,0,0,99,255,0,255,0,0,0,0,0,0,0,0,0,0,0,0,0,0,0,0,0,0,0,0,9,0,0,0,0,45,18,81,54,63,81,135,63,54,36,9,18,18,0,0,0,0,0,0,0,0,0,0,0,0,0,0,0,255
0,0,0,0,0,126,255,216,0,0,255,0,0,255,0,0,0,0,0,0,0,0,0,0,0,0,0,0,0,27,0,0,72,72,18,0,27,54,90,63,72,72,27,90,63,45,18,0,0,0,0,0,0,0,0,0,0,0,0,0,0,0,0,255
0,0,0,0,135,0,255,255,0,144,0,0,0,0,0,0,0,0,0,0,0,0,0,0,0,0,0,0,0,0,18,0,36,18,0,0,72,18,72,90,81,117,63,36,36,18,27,18,0,0,0,0,0,0,0,0,0,0,0,0,0,0,0,255
0,0,0,0,81,0,153,144,0,255,0,255,0,0,0,0,0,0,0,0,0,0,0,0,0,0,0,0,0,0,0,0,63,0,0,45,63,63,63,81,117,63,45,63,18,27,18,0,0,0,0,0,0,0,0,0,0,0,0,0,9,0,0,189
0,0,0,0,144,0,255,255,90,0,0,0,0,0,0,0,0,0,0,0,0,0,0,0,0,0,0,0,0,0,0,36,9,0,0,27,9,72,45,63,189,72,63,36,63,18,0,27,0,0,0,0,0,0,0,0,0,0,0,0,207,0,207,0
0,0,0,0,0,108,255,0,255,0,0,255,0,0,0,0,0,0,0,0,0,0,0,0,0,0,0,0,0,0,9,0,0,0,0,0,0,99,72,63,54,63,63,45,45,27,18,27,0,0,0,0,0,0,0,0,0,0,0,0,0,0,0,162
0,0,0,0,0,99,252,171,72,0,0,255,0,0,0,0,0,0,0,0,0,0,0,0,0,0,0,0,0,0,0,45,45,0,9,0,54,63,72,63,90,45,63,36,45,27,18,0,0,0,0,0,0,0,0,0,0,0,0,0,0,0,216,0
0,0,0,0,0,135,162,255,36,0,0,0,255,0,0,0,0,0,0,0,0,0,0,0,0,0,0,0,0,0,0,0,0,0,54,0,9,63,45,72,63,63,144,27,27,36,18,0,0,0,0,0,0,0,0,0,0,0,0,0,0,0,0,225
0,0,0,0,0,0,255,99,255,0,0,0,0,0,0,0,0,0,0,0,0,0,0,0,0,0,0,0,0,0,0,54,0,0,0,72,0,81,27,72,63,63,99,36,27,27,9,0,0,0,0,0,0,0,0,0,0,0,0,0,0,0,0,252
0,0,0,0,144,0,255,144,108,0,255,0,0,255,0,0,0,0,0,0,0,0,0,0,0,0,0,0,18,0,0,0,0,0,63,45,0,63,54,63,72,54,45,27,90,36,27,0,0,0,0,0,0,0,0,0,0,0,0,0,0,0,243,0
0,0,144,0,0,0,255,153,0,0,255,0,0,0,0,0,0,0,0,0,0,0,0,0,0,0,0,0,0,0,0,0,0,0,0,9,63,45,54,63,54,126,54,99,45,27,0,0,0,9,0,0,0,0,0,0,0,0,0,0,0,171,0,0
0,0,0,153,0,0,255,189,126,0,0,0,0,255,0,0,0,0,0,0,0,0,0,0,0,0,0,0,0,0,0,27,0,45,0,18,72,72,72,126,81,45,45,63,54,36,9,0,0,0,0,0,0,0,0,0,0,0,0,0,0,0,0,252
