66,0,0,0,0,74,0,0,92,0,72,0,0,0,0,0,0,0,0,0,0,0,0,0,0,0,0,0,0,0,0,20,0,0,0,0,12,20,26,20,18,22,22,6,6,14,4,96,0,0,0,0,0,0,0,0,0,0,0,0,0,0,0,0
46,0,0,0,0,86,0,0,14,78,0,0,0,0,0,0,0,0,0,0,0,0,0,0,0,0,0,0,0,0,16,0,0,0,0,0,14,12,18,26,16,18,72,18,12,6,12,0,0,0,0,0,0,0,0,0,0,0,0,0,0,56,0,0
0,0,0,0,0,34,0,94,30,0,76,0,0,0,0,0,0,0,0,0,0,0,0,0,0,0,0,0,0,0,0,0,0,0,0,16,16,16,16,16,22,12,16,12,8,26,4,0,4,0,0,0,0,0,0,0,0,0,0,0,0,0,0,0
60,0,0,0,0,0,56,0,78,74,0,0,0,0,0,0,0,0,0,0,0,0,0,0,0,0,0,0,0,0,0,0,2,0,0,0,0,16,14,20,16,22,16,14,6,10,88,4,6,0,0,0,0,0,0,0,0,0,0,0,0,0,0,56
0,0,0,0,0,30,0,0,0,84,0,0,0,0,0,0,0,0,0,0,0,0,0,0,0,0,0,0,0,0,10,0,0,0,0,0,0,14,20,20,22,18,38,18,14,4,0,2,0,0,0,0,0,0,0,0,0,0,0,0,0,0,0,74
0,0,0,0,66,0,34,44,82,0,0,0,0,0,0,0,0,0,0,0,0,0,0,0,0,0,0,0,0,0,0,0,0,0,0,6,20,18,14,16,16,16,18,14,10,14,4,0,0,6,0,0,0,0,0,0,92,0,0,0,0,0,0,0
72,0,0,0,0,52,0,42,94,0,0,16,0,84,0,0,0,0,0,0,0,0,0,0,0,0,0,0,2,0,0,16,0,8,0,14,0,14,18,22,64,18,12,14,6,4,0,6,0,0,0,0,0,0,0,0,0,0,0,0,0,0,0,0
0,56,0,0,0,0,0,0,0,0,0,0,0,0,14,0,0,0,0,0,0,0,0,0,0,0,0,0,0,0,0,10,10,8,12,12,0,14,16,20,22,18,18,40,6,4,0,0,0,0,0,0,0,0,0,0,0,0,0,0,0,0,0,52
0,0,0,0,48,0,44,0,94,0,28,4,0,0,0,0,0,0,0,0,0,0,0,0,0,0,0,0,0,0,2,0,6,0,0,0,0,16,16,18,20,20,12,14,16,20,0,0,0,0,0,0,0,0,0,0,0,0,0,0,0,0,0,70
0,0,0,56,0,0,90,0,26,44,0,0,0,0,0,0,0,0,0,0,84,0,0,0,0,0,0,0,0,0,0,10,0,0,0,0,0,16,14,22,18,18,16,14,6,14,6,0,0,0,0,0,0,0,0,0,0,0,0,0,0,0,0,44
0,0,0,0,42,0,0,0,30,76,0,0,0,0,0,0,0,0,0,0,0,0,0,0,0,70,0,0,0,0,12,0,6,0,0,0,22,12,20,16,20,18,96,14,8,10,6,0,0,0,0,0,0,0,0,0,0,0,0,0,0,0,0,0
0,0,0,0,0,44,0,88,0,0,0,0,0,4,0,0,0,0,0,0,84,0,0,0,0,0,0,0,0,0,0,4,10,14,0,0,12,20,12,32,92,20,18,6,4,16,6,0,0,0,0,0,0,0,0,0,0,0,0,0,0,0,70,0
0,0,0,0,0,78,0,0,24,0,76,0,0,0,0,0,0,0,0,0,0,0,0,0,0,0,0,0,0,0,0,16,0,4,0,12,16,14,14,18,16,18,16,14,8,10,10,0,0,0,32,0,0,0,0,0,0,0,0,0,0,0,0,0
0,60,0,0,0,72,38,0,68,80,0,0,0,0,0,0,0,94,0,0,0,0,0,0,0,0,0,0,0,0,0,16,0,4,0,16,18,16,16,20,94,14,14,18,12,4,8,6,0,0,0,0,0,0,0,0,0,0,0,0,0,0,0,0
0,0,0,0,0,52,0,0,88,0,0,0,64,0,0,0,0,0,0,0,0,0,0,0,0,0,0,0,0,6,0,0,0,0,0,0,0,8,74,16,20,22,8,8,20,4,12,0,4,0,0,0,0,0,0,0,0,0,0,0,0,0,0,0
0,70,0,0,34,0,42,0,90,0,0,8,0,0,0,0,0,0,0,0,0,0,0,0,0,0,0,0,0,0,4,18,0,0,0,0,10,10,12,22,18,76,14,14,14,6,6,4,0,0,0,0,0,0,0,0,0,0,0,0,0,0,0,0
42,0,0,0,0,56,0,90,0,0,84,0,32,0,0,0,0,0,0,0,0,0,0,0,0,0,0,0,0,2,6,0,0,0,0,50,22,0,20,18,16,14,16,96,10,4,0,4,0,0,0,0,0,0,0,0,0,0,0,0,0,0,68,0
0,0,0,0,0,78,0,0,92,0,0,0,0,0,0,0,0,0,0,0,0,0,0,0,0,0,0,0,0,0,0,0,0,0,0,0,16,10,20,14,16,14,92,8,16,6,4,6,0,0,0,0,0,0,0,0,0,0,0,0,0,0,0,0
58,0,0,0,0,0,0,0,52,0,92,0,0,0,0,0,0,0,0,0,0,0,0,0,0,0,0,0,0,0,14,0,0,0,0,0,8,10,10,26,16,22,16,14,6,6,2,0,0,0,0,0,78,0,0,2,0,0,0,0,0,0,0,64
0,0,0,0,26,52,84,0,90,0,0,0,0,0,0,0,0,0,0,0,0,0,0,0,0,0,0,0,0,0,0,16,16,0,0,6,0,24,20,20,20,12,18,16,6,4,8,4,0,0,0,0,0,0,0,0,0,0,0,0,0,0,0,0
48,0,0,0,0,60,0,0,86,0,66,34,0,0,0,0,0,0,0,0,0,0,0,0,0,0,0,0,0,0,4,0,0,0,0,14,20,10,0,16,20,16,12,20,10,0,2,4,0,0,0,0,0,0,0,0,0,0,0,0,0,0,0,0
0,0,0,0,0,0,0,84,0,84,0,0,0,0,0,0,0,0,0,0,0,0,0,0,0,0,0,0,0,0,20,0,4,0,0,0,14,14,20,36,18,16,12,16,6,2,10,0,0,0,0,0,0,0,0,0,0,0,0,0,0,0,0,66
0,0,0,0,56,0,0,0,90,0,70,0,0,0,0,0,0,0,0,0,0,0,0,0,0,0,0,0,0,0,18,0,0,0,0,0,16,0,16,14,20,22,16,14,6,6,16,0,66,0,0,0,0,0,0,0,0,0,0,0,0,0,0,54
0,0,0,0,0,0,54,84,0,0,0,0,8,96,0,0,0,0,0,0,0,0,0,0,0,0,0,0,0,0,0,10,10,4,14,0,0,34,14,20,20,96,30,20,12,0,0,0,0,0,0,0,0,0,0,0,0,0,0,0,0,0,0,54
0,0,0,0,0,74,82,0,0,80,94,0,0,0,0,0,0,0,0,0,0,0,0,0,0,0,0,0,0,0,0,0,0,6,0,14,0,8,20,16,20,14,18,8,12,12,12,0,0,0,0,0,0,0,0,0,0,0,0,0,0,0,0,64
0,0,0,70,0,60,0,82,0,0,0,0,36,0,0,0,0,0,0,0,0,0,0,86,0,0,0,0,0,0,0,12,16,0,0,24,14,16,12,16,18,12,94,10,6,6,2,2,0,0,0,0,0,0,0,0,0,0,0,0,0,0,0,66
0,0,0,46,0,0,0,0,80,96,0,0,0,0,0,0,0,0,0,0,0,0,0,0,0,0,0,0,0,0,0,16,6,0,0,0,10,24,14,42,24,20,20,20,2,8,4,0,0,0,0,0,0,0,0,0,0,0,0,0,0,0,0,56
0,0,0,0,6,0,28,0,90,0,32,0,44,0,0,0,0,0,0,0,0,0,0,0,0,0,0,0,0,0,22,0,16,0,0,14,10,12,26,18,14,16,18,8,6,0,6,6,0,0,0,0,0,0,0,0,0,0,0,0,0,0,70,0
0,0,0,0,0,0,0,30,92,0,0,28,0,0,16,0,0,0,0,0,0,0,0,0,0,0,0,0,0,0,4,0,8,0,0,10,0,20,16,16,20,16,14,6,10,8,16,0,0,0,0,0,0,0,0,0,0,0,0,0,0,0,0,0
0,0,0,0,0,0,74,0,78,0,70,32,0,0,0,0,0,0,0,0,0,0,0,0,0,0,0,0,0,0,0,0,0,0,0,10,0,32,20,24,22,20,18,22,0,8,74,6,0,0,0,0,0,0,0,0,0,0,0,0,0,0,0,0
0,62,0,0,0,64,34,0,94,0,22,0,0,0,0,0,0,0,0,0,0,0,0,0,0,0,0,0,0,0,6,6,0,0,0,0,0,12,24,56,20,16,12,16,10,0,0,4,0,0,0,0,0,0,0,0,0,0,0,0,0,0,0,0
56,0,0,0,0,66,44,0,88,74,84,0,0,0,0,0,0,0,0,0,0,0,0,0,0,0,0,0,0,0,0,8,0,0,0,0,0,20,20,18,16,14,76,16,12,8,0,0,0,0,0,0,0,0,0,0,0,0,0,0,0,0,0,0
0,0,0,0,0,0,0,20,0,78,0,0,94,0,0,0,0,0,0,0,0,0,0,0,0,0,0,0,0,0,0,0,0,0,0,0,0,18,28,22,20,20,22,10,8,6,6,0,78,0,0,0,0,0,0,0,0,0,0,0,0,0,34,0
0,0,0,0,0,0,68,94,92,0,0,0,0,0,0,0,0,0,0,0,0,0,0,0,0,0,0,0,0,0,0,0,0,6,0,0,12,14,20,18,28,26,92,22,6,16,10,0,0,0,0,0,0,0,0,0,0,0,0,0,0,0,0,0
50,0,0,0,84,0,0,0,92,68,0,0,0,0,0,0,0,0,0,0,0,0,0,0,0,0,0,0,0,0,16,0,0,0,0,10,0,18,28,18,46,16,14,92,16,0,4,0,6,0,0,0,0,0,0,0,0,0,0,0,0,0,66,0
0,0,0,82,0,0,0,0,88,76,0,0,0,0,0,0,0,0,0,0,0,0,0,0,0,0,0,0,0,0,0,8,0,0,0,0,0,18,20,42,18,8,16,12,10,8,0,0,2,0,0,0,0,0,0,0,0,0,0,0,0,0,0,0
0,64,0,0,0,0,0,0,84,32,0,0,22,0,0,0,0,0,0,0,0,0,0,0,0,0,0,0,0,0,0,6,6,0,0,14,14,12,18,16,16,20,18,14,8,8,16,0,0,0,0,0,0,0,0,0,0,0,0,0,0,0,0,0
62,0,0,0,0,46,42,92,0,80,28,0,0,0,0,0,0,0,0,0,0,0,0,0,0,0,0,0,0,0,14,0,0,6,0,14,20,16,52,16,20,16,16,12,8,4,14,4,0,0,0,0,0,0,0,0,0,0,0,0,0,0,0,68
0,0,0,0,0,64,0,0,54,90,0,0,0,0,0,0,0,0,0,0,0,0,0,0,0,0,0,0,0,0,10,0,4,0,0,0,0,22,10,30,20,18,14,18,12,16,4,4,4,0,0,0,0,0,0,0,0,0,0,0,0,0,0,60
0,0,0,0,0,80,88,0,76,0,0,0,0,0,0,0,0,0,0,0,0,0,0,0,0,0,0,0,0,0,0,0,0,6,0,0,20,18,8,24,22,16,14,14,32,0,18,4,0,2,0,0,0,0,0,0,0,0,0,0,0,0,0,70
0,0,0,0,68,0,0,0,92,0,0,20,0,16,0,0,0,0,0,0,0,0,0,0,0,0,0,0,0,0,0,0,0,16,0,18,0,0,18,20,16,16,16,16,20,12,82,0,2,0,0,0,0,0,0,0,0,0,0,0,0,0,0,0
70,0,0,0,0,46,24,80,0,0,20,0,0,0,0,0,0,0,0,0,0,0,0,0,0,0,0,0,0,0,22,8,0,0,0,8,0,16,18,20,14,16,16,84,10,14,0,0,0,0,0,0,0,0,0,0,0,0,0,0,0,0,0,0
0,56,0,0,0,68,46,44,88,0,0,22,0,0,0,0,70,0,0,0,0,0,0,0,0,0,0,0,0,0,0,0,6,0,0,0,12,14,20,18,22,18,16,6,54,6,4,4,0,0,0,0,0,0,0,0,0,0,0,0,0,0,60,0
0,0,0,0,0,64,0,14,0,90,0,0,0,0,0,0,0,0,0,0,0,0,0,0,0,0,0,0,0,0,0,18,0,0,0,10,0,12,20,20,20,18,74,10,14,10,0,2,0,0,0,0,0,0,0,0,0,0,0,0,0,0,68,0
0,0,0,0,0,44,58,0,92,0,0,0,0,0,0,0,48,0,0,0,0,0,0,0,0,0,0,0,0,0,12,0,0,0,4,0,8,24,20,14,18,16,16,16,14,10,8,0,0,0,0,0,0,0,0,0,0,0,0,0,0,0,0,0
0,0,0,0,0,0,0,86,66,48,0,0,0,0,0,0,0,0,0,0,0,0,0,0,0,0,0,0,0,0,0,6,14,0,0,0,0,10,18,20,20,30,20,14,14,8,4,6,0,0,0,0,0,0,0,0,0,0,0,0,0,0,0,0
56,0,0,0,0,34,50,0,90,0,24,0,6,0,0,0,0,0,0,0,0,0,0,0,0,0,0,0,0,0,0,8,6,12,0,0,14,6,16,22,22,38,14,12,10,16,6,0,0,0,0,0,0,0,0,0,0,0,0,0,0,0,0,70
0,0,0,0,70,0,28,0,0,0,0,0,0,0,0,0,0,0,0,0,0,0,0,0,0,0,0,0,0,0,0,8,6,0,0,0,6,10,30,20,20,16,6,14,12,8,6,0,0,0,0,0,0,0,0,0,0,0,0,0,0,0,0,0
52,0,0,0,0,76,32,0,0,92,0,0,0,0,0,0,0,0,0,0,0,0,0,0,0,0,0,0,0,0,2,8,0,0,0,36,0,0,20,20,20,18,38,16,6,8,14,4,0,0,0,0,0,0,0,0,0,0,0,0,0,0,68,0
0,0,0,0,0,0,0,90,34,36,74,58,0,0,0,0,0,0,0,0,0,0,0,0,0,0,0,0,0,0,0,0,24,0,4,0,0,10,22,20,20,16,12,6,10,4,6,0,0,0,0,0,0,0,0,0,0,0,0,0,0,0,0,52
