0,0,0,0,9,41,16,0,12,6,0,0,0,0,10,0,0,0,0,0,0,0,0,0,0,0,0,0,0,0,0,5,1,3,0,1,4,0,4,11,8,8,5,5,5,0,8,0,0,0,0,0,0,0,0,0,0,0,0,0,0,0,0,19
0,0,0,42,0,13,0,42,16,0,0,37,0,18,0,0,0,0,0,0,0,0,0,0,0,0,0,0,0,1,0,1,3,0,0,0,2,3,7,6,6,7,7,5,8,12,0,0,0,0,1,0,0,0,0,0,0,0,0,0,0,0,8,0
0,0,0,0,13,0,40,35,13,0,0,0,0,0,0,0,0,0,0,0,0,0,0,0,0,0,0,0,0,0,0,2,1,0,0,0,1,13,8,12,7,3,6,20,3,0,0,0,0,0,0,0,0,0,0,0,0,0,0,0,0,0,0,19
0,0,0,43,0,12,0,43,15,0,0,41,0,0,0,0,0,0,0,0,0,0,0,0,0,0,0,0,0,0,0,3,0,3,0,0,1,4,14,8,8,9,5,7,7,8,0,4,0,0,0,0,0,0,0,0,0,0,0,0,0,20,0,0
0,0,0,19,0,0,0,7,16,40,0,0,0,17,0,0,0,0,0,0,0,0,0,0,0,0,0,0,0,0,0,2,1,0,1,0,0,0,11,8,9,7,4,8,4,0,0,1,0,0,0,0,0,0,0,0,0,0,0,0,0,0,0,0
0,0,0,0,0,37,0,17,0,16,0,7,0,38,0,0,0,0,0,0,0,0,0,0,0,0,0,0,0,0,0,3,0,0,0,3,3,4,8,16,4,11,5,8,6,6,6,0,0,0,0,0,0,0,0,0,0,0,0,0,0,0,0,0
0,0,0,0,14,42,0,8,15,0,45,0,0,0,0,0,0,0,0,0,0,0,0,0,0,0,0,0,0,0,0,0,0,0,0,3,1,3,9,9,8,6,3,13,3,5,0,3,0,0,0,0,0,0,0,0,0,0,0,0,0,0,0,21
0,0,0,0,37,0,0,22,0,0,42,16,0,0,0,0,0,0,0,0,0,0,0,0,0,0,0,0,0,0,0,0,0,2,0,0,1,0,13,7,11,6,5,4,4,0,3,3,0,0,0,0,0,0,0,0,0,0,0,0,0,0,0,16
0,0,0,0,18,0,0,17,0,37,0,0,0,0,0,0,0,0,0,0,0,0,0,0,0,0,0,0,0,0,0,0,0,0,0,10,0,18,6,7,7,5,9,44,1,1,4,0,0,0,0,0,0,0,0,0,0,0,0,0,0,0,0,14
0,0,13,0,0,38,39,0,0,36,36,0,8,0,0,0,0,0,0,0,0,0,0,0,0,0,0,0,0,0,0,0,0,0,0,3,0,21,0,12,11,9,7,7,5,4,48,0,0,0,0,0,0,0,0,0,0,0,0,0,0,0,16,0
0,16,0,0,21,0,0,47,42,0,41,0,0,0,0,0,0,0,0,0,0,0,0,0,0,0,0,0,0,1,0,0,7,0,0,11,1,40,9,0,9,3,10,5,6,5,3,0,3,0,0,0,0,0,0,0,0,0,0,0,0,0,18,0
0,0,9,0,0,0,0,38,42,23,0,0,0,0,0,0,0,0,0,0,0,0,0,0,0,0,0,0,0,0,0,0,0,0,2,0,0,3,7,7,5,10,18,5,7,1,3,0,0,0,0,43,0,0,0,0,0,0,0,0,0,0,0,0
0,0,0,0,13,0,39,41,14,41,0,0,0,0,0,0,0,0,0,0,0,0,0,0,0,0,0,0,0,0,0,0,0,0,1,1,0,9,7,5,37,5,10,7,0,8,0,0,0,0,0,0,0,0,0,0,0,0,0,0,0,0,0,20
0,0,0,0,18,12,42,0,18,42,0,0,0,0,0,0,0,0,0,0,0,0,0,0,0,0,0,0,0,0,0,0,1,0,0,1,1,3,10,5,15,24,2,5,7,7,3,0,0,0,0,0,0,0,0,0,0,0,0,0,0,0,0,14
0,0,0,0,0,16,30,0,41,0,0,43,48,0,0,0,0,0,0,0,0,0,0,0,0,0,0,0,0,0,0,0,0,0,0,0,0,8,35,8,13,7,8,3,3,6,0,4,0,0,0,0,0,0,0,0,0,0,0,0,0,0,17,0
0,0,0,9,0,0,40,0,0,17,0,0,42,0,0,0,0,0,0,0,0,0,0,0,0,0,0,0,0,0,0,0,0,0,1,18,0,10,3,5,5,7,0,8,9,1,0,2,0,0,0,0,0,0,0,0,0,0,0,0,0,0,0,20
0,0,0,0,0,0,18,43,4,44,0,0,0,0,0,0,0,0,0,0,0,0,0,0,0,0,0,0,0,0,0,1,0,2,1,0,0,1,8,10,12,11,7,5,6,4,0,6,0,0,0,0,0,0,0,0,0,0,0,0,0,0,0,17
0,11,0,0,0,0,25,13,39,0,36,0,0,0,0,0,0,0,0,0,0,0,0,0,0,0,0,0,0,0,0,1,0,0,0,0,3,3,10,8,12,7,8,10,5,4,0,4,0,0,0,0,0,0,0,0,0,0,0,0,0,0,0,19
0,0,0,0,0,21,0,0,45,0,16,0,0,10,0,0,0,0,0,0,0,0,0,0,0,0,0,0,0,0,0,0,1,0,1,0,2,7,9,11,8,7,8,10,1,1,1,0,0,0,0,0,0,0,0,0,0,0,0,0,0,0,0,0
0,0,0,0,0,25,36,0,33,0,7,3,0,0,0,0,0,0,0,0,0,0,0,0,0,0,0,0,0,0,0,0,0,1,0,1,0,3,9,7,5,7,5,7,5,0,5,0,0,0,0,0,0,0,0,0,0,0,0,0,0,0,0,12
0,0,12,0,0,0,39,16,40,0,0,0,0,0,0,0,0,0,0,0,0,0,0,0,0,0,0,0,0,0,0,0,1,0,0,1,2,0,7,7,13,8,1,0,1,6,3,4,0,0,0,0,0,0,0,0,0,0,0,0,0,0,0,19
0,0,0,0,0,17,41,14,40,0,11,0,0,0,0,0,0,0,0,0,0,0,0,0,0,0,0,0,0,1,0,0,0,2,0,0,8,1,9,11,11,7,9,11,3,0,3,0,0,0,0,0,0,0,0,0,0,0,0,0,0,0,0,0
0,22,0,0,0,0,22,7,39,0,0,37,0,0,0,0,0,0,0,0,0,0,0,0,0,0,0,0,0,0,3,0,0,0,0,2,7,6,8,7,7,6,7,6,7,9,6,0,0,0,0,0,0,0,0,0,0,0,0,0,0,0,19,0
0,0,27,14,0,0,37,41,13,0,0,0,0,46,0,47,0,0,0,0,0,0,0,0,0,0,0,0,0,0,3,0,3,0,0,7,0,0,3,12,7,13,46,3,4,6,5,0,0,0,0,0,0,0,0,0,0,0,0,0,0,0,0,20
0,0,0,11,0,38,24,0,23,0,0,0,0,0,0,0,0,0,0,0,0,0,0,0,0,0,0,0,0,0,0,0,0,1,0,0,5,4,8,8,3,7,8,6,8,2,5,0,0,0,0,0,0,0,0,0,0,0,0,0,0,0,0,0
0,0,0,0,0,0,30,43,13,0,0,37,0,0,0,0,0,0,0,0,0,0,0,0,0,0,0,0,0,0,0,0,5,1,1,4,0,9,3,6,12,6,21,10,7,3,2,2,0,0,0,0,0,0,0,0,0,0,0,0,0,0,0,0
0,0,0,0,14,0,10,34,0,41,0,0,0,0,0,0,0,0,0,0,0,0,0,0,0,0,0,0,0,0,0,0,0,0,0,0,0,7,5,7,7,5,6,6,9,0,0,0,0,0,0,0,0,0,0,0,0,0,0,0,0,0,0,16
0,0,0,0,15,0,32,19,40,12,0,0,0,0,0,0,0,0,0,0,0,0,0,0,0,0,0,0,0,0,0,0,0,0,0,0,12,0,3,6,7,7,3,5,6,3,0,2,0,0,0,0,0,0,0,0,0,0,0,0,0,0,0,0
0,0,0,0,0,11,43,11,0,0,44,0,0,0,0,0,0,0,0,0,0,0,0,0,0,0,0,0,0,0,0,0,1,7,2,0,1,1,10,10,10,8,3,6,6,4,0,2,0,0,0,0,0,0,0,0,0,0,0,0,0,0,14,0
0,0,0,0,0,0,0,0,42,0,40,0,0,0,0,0,0,0,0,0,0,0,0,0,0,0,0,0,0,0,0,0,0,2,0,0,8,2,7,5,7,12,3,8,5,4,0,4,0,0,3,0,0,0,0,0,0,0,0,0,0,0,0,19
0,0,0,4,0,15,0,32,43,29,0,0,0,0,0,0,0,0,0,0,0,0,0,0,0,0,0,0,0,0,0,2,0,0,0,0,0,6,4,7,6,8,7,9,3,0,0,0,0,0,0,0,0,0,0,0,0,0,0,0,0,0,0,0
0,0,0,0,0,37,0,0,23,14,0,5,0,0,0,0,0,0,0,0,0,0,0,0,0,0,0,0,0,0,0,0,0,0,1,0,9,2,4,10,8,10,8,7,5,0,0,4,5,0,0,0,0,0,0,0,0,0,0,0,0,0,0,14
0,0,0,0,14,0,14,0,36,0,16,0,0,0,0,0,0,0,0,0,0,0,0,0,0,0,0,0,0,0,0,0,0,0,0,0,0,3,9,16,10,5,8,7,2,8,0,0,0,0,0,0,0,0,0,0,0,0,0,0,16,0,0,0
0,0,12,0,30,0,38,16,10,0,0,0,41,0,0,0,0,0,0,0,0,0,0,0,0,0,0,0,0,0,0,0,2,0,3,7,0,1,8,12,7,10,6,6,7,1,5,5,0,0,0,0,0,0,0,0,0,0,0,0,0,0,0,0
0,0,0,15,0,35,0,15,41,0,13,0,39,0,0,0,0,0,0,0,0,0,0,0,0,0,0,0,0,0,3,0,2,7,5,1,1,5,10,7,8,10,5,11,7,0,0,0,0,0,0,0,0,0,0,0,0,0,0,0,0,0,0,27
0,0,0,0,0,37,16,26,0,0,39,0,16,0,0,0,0,0,0,0,0,0,0,0,0,0,0,0,0,0,0,0,0,0,0,0,2,9,7,4,7,7,4,2,5,2,39,0,0,0,0,0,0,0,0,0,0,0,0,0,0,0,0,8
0,0,0,0,0,0,22,46,0,0,0,0,39,0,0,0,0,0,0,0,0,0,0,0,0,0,0,0,0,0,0,1,1,6,0,0,0,8,8,28,3,3,8,4,3,5,4,0,0,0,0,0,0,0,0,0,0,0,0,0,0,0,17,0
0,0,0,36,0,11,12,43,0,0,8,41,0,0,0,0,0,0,0,0,0,0,0,0,0,0,0,0,0,0,0,0,8,1,0,1,1,3,12,7,10,7,13,8,0,6,6,0,0,5,0,0,0,0,0,0,0,0,0,0,0,26,0,0
0,0,0,0,0,15,43,14,0,0,0,42,0,0,0,0,0,0,41,0,0,0,0,0,0,0,0,0,0,0,1,0,2,3,7,0,0,3,9,5,7,8,5,10,6,2,4,0,0,0,0,0,0,0,0,0,0,0,0,0,0,0,18,0
0,0,0,11,0,0,42,0,39,12,39,0,0,0,0,0,0,0,0,0,0,0,0,0,0,0,0,0,0,5,0,0,0,0,4,8,0,4,2,10,6,5,10,4,3,0,0,0,0,0,0,0,0,0,0,0,0,0,0,0,0,0,0,17
0,0,0,0,0,0,32,38,0,0,0,18,16,0,0,0,0,0,0,0,0,0,0,0,0,0,0,0,0,0,0,0,0,2,0,3,3,1,5,13,8,3,10,8,8,3,1,0,0,0,0,0,0,0,0,0,0,0,0,0,0,0,0,8
0,0,0,0,14,28,7,0,0,42,43,0,0,0,0,0,0,0,0,0,0,0,0,0,0,0,0,0,0,0,0,0,0,0,0,0,4,0,27,12,7,6,9,4,7,5,0,3,0,0,0,0,0,0,0,0,0,0,0,0,0,0,17,0
0,0,0,0,14,0,41,6,0,0,12,30,43,0,0,0,0,0,0,0,0,0,0,0,0,0,0,0,0,0,0,0,1,2,0,0,1,8,10,6,7,21,48,7,4,5,4,0,0,0,0,0,0,0,0,0,0,0,0,0,0,0,0,22
0,0,0,0,18,16,0,9,41,0,13,48,0,0,10,0,0,0,0,0,0,0,0,0,0,0,0,0,0,0,0,1,0,2,15,0,0,5,7,8,6,13,7,3,5,7,4,0,4,0,0,0,0,0,0,0,0,0,0,0,0,0,21,0
0,0,0,18,0,24,0,47,0,16,0,0,0,0,0,0,0,0,0,0,0,0,0,0,0,0,0,0,0,0,1,0,0,0,0,0,0,10,14,3,8,8,11,2,6,5,3,0,2,0,0,0,0,0,0,0,0,0,0,0,0,0,20,0
0,12,0,0,0,0,0,0,39,0,16,0,0,0,0,0,0,0,0,0,41,0,0,0,0,0,0,0,0,0,0,0,0,0,5,0,1,1,7,16,8,7,6,4,0,7,0,0,0,0,0,0,0,0,0,0,0,0,0,0,0,0,0,19
0,0,0,0,0,0,0,0,42,0,0,0,19,0,0,0,0,0,0,0,0,0,0,0,0,0,0,0,0,0,0,0,0,0,1,1,0,5,14,12,3,10,7,0,11,3,0,0,41,0,0,0,0,0,0,0,0,0,0,0,0,0,17,0
0,0,0,0,0,33,0,14,0,0,42,0,46,0,0,0,0,0,0,0,0,0,0,0,0,0,0,0,0,0,0,0,0,0,1,0,1,8,2,5,9,47,6,8,8,5,2,0,0,0,0,0,0,0,0,0,0,0,0,0,0,0,0,23
0,0,16,0,26,0,22,45,0,10,0,5,0,0,0,0,0,0,0,0,0,0,0,0,0,0,0,0,0,0,0,0,3,0,0,0,5,9,2,5,20,5,12,0,7,1,0,5,0,0,0,0,0,0,0,0,0,0,0,0,0,0,0,16
0,0,0,0,0,5,30,38,0,39,0,0,0,31,0,0,0,0,0,0,0,0,0,0,0,0,0,0,0,0,0,2,0,0,6,0,1,6,7,3,47,6,7,8,7,5,0,5,0,0,0,0,0,0,0,0,0,0,0,0,0,0,6,0
