0,0,0,0,0,84,0,164,0,52,0,0,0,0,0,0,0,0,0,0,0,0,0,0,0,0,0,0,0,0,0,0,52,0,0,28,28,0,28,32,28,36,32,12,8,12,12,0,0,8,0,0,0,0,0,0,0,0,0,0,0,0,144,0
0,0,0,0,0,120,152,0,64,48,0,0,0,0,0,0,0,0,0,0,0,0,0,0,0,0,0,0,0,0,0,0,0,0,28,16,0,48,28,24,36,28,24,48,20,8,0,148,0,0,0,0,0,0,0,0,0,0,28,0,0,0,0,0
128,0,0,0,0,172,0,0,0,152,0,0,0,0,0,0,0,0,0,0,0,0,0,0,0,0,0,0,0,0,0,0,0,0,24,0,88,32,28,28,32,36,40,192,4,0,16,12,0,0,0,0,0,0,0,0,0,0,0,0,0,0,0,132
0,0,0,0,0,148,0,0,188,164,0,0,0,0,0,0,0,0,0,0,0,0,0,0,0,0,0,0,0,0,48,0,0,0,20,32,36,16,32,32,92,28,24,20,24,4,12,16,0,0,0,0,0,0,0,0,0,0,0,0,0,0,128,0
0,0,0,0,0,0,164,0,160,104,64,0,0,0,0,0,0,0,0,0,0,0,0,0,0,0,0,0,0,0,0,0,0,12,0,0,0,20,32,32,32,188,44,8,16,28,4,12,0,0,0,0,0,0,0,0,0,0,0,0,0,0,0,0
0,0,0,0,0,88,0,168,184,0,0,0,0,0,0,0,0,0,0,0,0,0,0,0,0,0,0,0,0,0,0,52,0,24,0,16,28,28,120,28,12,60,12,28,20,12,4,0,0,0,0,0,0,0,0,0,0,0,0,0,0,0,0,0
0,0,0,0,0,132,0,0,0,176,0,60,0,164,0,0,0,0,0,0,0,0,0,0,0,0,0,0,0,0,0,20,24,0,0,16,24,24,44,24,88,24,20,24,0,24,132,4,0,0,0,0,0,0,0,0,0,0,0,0,0,0,0,0
0,0,144,0,4,0,0,0,112,0,0,0,0,192,0,0,0,0,0,0,0,0,0,0,0,0,0,0,0,0,40,0,0,32,0,28,24,0,28,28,28,192,32,32,8,24,20,0,12,0,0,0,0,0,0,0,0,0,0,0,0,0,136,0
0,0,0,0,0,108,0,0,172,0,0,0,0,0,0,0,0,0,0,0,0,0,0,0,0,0,0,0,0,0,0,8,32,0,0,0,20,32,36,40,64,28,192,12,28,8,0,8,0,0,0,0,0,0,0,0,0,0,0,0,0,0,0,108
0,0,0,0,0,64,0,172,0,0,0,192,0,0,0,0,0,0,0,0,0,0,0,0,0,0,0,0,0,0,0,4,56,0,0,20,32,0,28,32,32,28,192,20,24,8,12,0,0,0,0,0,0,0,0,0,0,0,0,0,0,0,132,0
0,0,0,0,0,0,176,0,0,0,0,0,0,0,0,0,0,0,0,0,0,0,0,0,0,0,0,0,0,0,0,0,20,0,0,0,0,40,36,32,32,36,12,192,36,12,4,0,0,0,0,0,0,0,0,0,0,0,0,0,0,0,0,0
136,0,0,0,132,0,0,0,184,0,0,164,0,0,0,0,0,0,0,0,0,0,0,0,0,0,0,0,0,0,0,4,20,28,0,0,28,20,40,32,32,24,28,28,8,8,0,0,4,0,0,0,0,0,0,0,0,0,0,0,0,0,0,0
132,0,0,0,64,84,176,0,0,164,0,0,0,0,0,0,0,0,0,0,0,0,0,0,0,0,0,0,0,0,0,0,0,0,0,28,0,28,36,48,40,40,48,32,12,92,12,0,4,0,0,0,0,0,0,0,0,0,28,0,20,0,0,140
0,0,0,0,0,140,160,176,0,144,0,0,0,0,0,0,0,0,0,0,0,0,0,0,0,0,0,0,0,0,0,36,0,0,0,0,20,28,32,28,104,28,20,24,12,12,20,0,0,0,0,0,0,0,0,0,0,0,0,184,0,0,0,0
104,0,0,0,0,0,0,168,152,0,0,0,0,0,0,0,0,0,0,0,0,0,0,0,0,0,0,0,0,0,0,0,0,0,0,0,44,24,28,32,76,28,20,60,20,8,12,0,0,0,0,0,0,0,0,0,0,0,0,0,0,0,0,0
0,124,0,0,0,0,0,168,140,0,0,0,0,0,0,0,0,0,0,0,0,0,0,0,0,0,0,0,0,0,0,0,0,0,12,0,32,28,28,28,28,28,12,24,24,0,28,0,0,0,0,0,0,0,0,0,0,0,0,0,0,0,0,120
0,0,0,0,0,0,128,0,0,160,44,0,0,0,0,0,0,0,0,0,0,0,0,0,0,0,0,0,0,0,0,0,0,0,0,20,16,28,40,32,28,32,28,24,8,32,4,0,0,0,0,0,0,0,0,0,0,0,0,0,0,0,140,0
0,0,0,0,0,0,0,0,124,0,60,0,0,0,0,0,0,0,0,0,0,0,0,0,0,0,0,0,0,0,0,0,0,28,20,24,0,32,28,28,28,32,36,32,4,8,4,8,0,0,0,0,0,0,0,0,0,0,0,0,0,0,0,0
0,0,0,0,0,0,0,164,0,32,156,148,0,0,0,0,0,0,0,0,0,0,0,0,0,0,0,0,0,0,48,0,28,0,0,8,32,20,40,28,28,20,28,28,192,8,12,4,0,0,0,0,0,0,0,0,0,0,0,0,0,0,0,120
0,0,0,0,0,80,176,156,0,0,0,164,0,0,0,0,0,0,0,0,0,0,0,0,0,0,0,0,0,0,0,4,28,0,0,0,32,32,32,32,24,64,28,32,20,20,0,0,0,0,0,0,0,0,0,0,0,0,0,0,0,0,140,0
0,0,0,0,0,0,112,0,0,56,0,0,0,144,0,24,0,0,0,0,0,0,0,0,0,0,0,0,0,0,28,4,24,32,0,20,0,28,44,164,28,32,24,12,24,24,4,0,0,0,0,0,0,0,0,0,0,0,0,0,0,0,0,0
148,0,0,0,0,144,0,0,0,148,176,0,0,0,0,0,0,0,0,0,0,0,0,0,0,0,0,0,0,0,12,0,12,0,0,0,28,32,40,36,28,176,176,32,12,12,8,12,0,0,0,0,0,0,0,0,0,0,0,0,0,0,0,136
0,0,0,0,144,0,0,168,88,180,0,0,0,0,0,0,0,0,0,0,0,0,0,0,0,0,0,0,28,0,44,0,0,0,12,0,32,0,36,32,64,40,12,28,184,28,16,4,0,0,0,0,0,0,0,0,0,0,0,0,0,0,104,0
0,0,0,0,152,0,0,184,168,0,0,0,0,0,0,0,0,0,0,0,0,0,0,0,0,0,0,0,0,0,0,0,36,0,0,0,12,0,40,32,40,140,24,28,8,12,8,0,0,0,0,0,0,0,0,0,0,0,0,0,0,0,0,0
0,0,0,0,132,0,172,60,0,148,0,0,0,0,184,0,0,0,0,0,0,0,0,0,0,0,0,0,0,0,0,0,0,0,0,12,0,8,32,32,188,32,20,28,24,8,12,8,0,0,0,0,0,0,0,0,0,0,0,0,0,0,0,0
0,0,112,0,0,0,0,176,148,0,0,180,0,0,0,0,0,0,0,0,0,0,0,0,0,0,0,0,0,0,64,0,0,0,24,0,24,32,32,44,100,36,20,12,20,8,4,0,0,0,0,0,0,0,0,0,0,0,0,0,0,0,0,0
0,128,0,0,0,68,76,0,0,0,0,12,64,0,0,0,0,0,0,0,0,0,0,0,0,0,0,0,0,0,0,4,16,0,24,0,12,24,104,28,24,32,24,20,8,24,4,0,0,0,0,0,0,0,0,0,0,0,0,0,0,0,120,0
0,0,0,0,0,136,0,0,168,0,100,0,0,68,0,0,0,0,0,0,0,0,0,0,0,0,0,0,0,16,0,12,16,0,0,0,0,16,32,104,56,24,28,20,20,8,0,8,0,0,0,0,0,0,0,0,0,0,0,0,0,0,0,116
0,0,0,0,128,0,0,184,0,52,0,0,0,0,0,0,0,0,0,0,0,0,0,0,0,0,0,0,0,0,0,12,12,0,0,0,0,16,36,28,56,24,28,20,16,12,4,4,0,0,0,0,0,0,0,0,0,0,0,0,0,0,0,132
0,0,0,0,0,0,132,0,172,68,0,32,0,0,0,0,0,0,0,0,0,0,0,0,0,0,0,0,0,0,0,20,24,0,32,0,12,40,0,32,8,28,28,28,12,8,8,0,4,0,0,0,0,0,0,0,0,0,0,0,0,0,0,132
0,0,0,100,0,0,0,156,0,168,0,0,0,0,0,0,0,0,0,0,0,0,0,0,0,0,0,0,0,0,40,0,0,8,0,24,0,32,32,40,32,20,28,28,8,12,4,0,8,0,0,0,0,0,0,0,0,0,0,0,0,0,0,0
0,0,0,0,0,92,0,0,68,176,0,0,0,0,68,0,0,0,0,0,0,0,0,0,0,0,0,0,0,0,0,0,12,20,0,8,16,24,44,28,28,68,28,28,16,4,0,0,0,0,0,0,0,0,0,0,0,0,0,0,20,0,0,0
0,136,0,0,0,88,160,60,0,112,0,164,0,0,0,0,0,0,0,0,0,0,0,0,0,0,0,0,0,0,0,0,16,32,0,28,32,20,56,32,28,32,28,12,16,12,4,0,4,0,0,0,0,0,0,0,0,0,20,0,0,0,0,0
136,0,0,0,0,120,0,172,0,32,0,0,64,0,0,0,0,0,0,0,0,0,0,0,0,0,0,0,4,0,0,16,12,0,20,0,28,28,32,40,40,40,20,28,8,20,0,0,12,0,0,0,0,0,0,0,0,0,140,0,132,0,0,0
0,0,0,156,0,0,0,56,0,0,152,0,0,0,0,0,0,0,0,0,0,0,0,0,0,0,0,0,0,0,0,0,0,0,0,32,0,36,36,52,44,28,28,12,20,32,0,0,0,0,0,0,0,0,0,0,0,0,0,192,0,0,0,0
0,0,0,0,0,160,104,44,0,0,156,0,0,0,0,0,0,0,0,0,0,0,0,0,0,0,0,12,56,0,0,0,24,0,20,0,28,28,40,24,28,36,32,16,4,4,4,4,4,92,0,0,0,0,0,0,0,0,0,0,192,0,0,128
0,0,0,0,0,0,96,184,0,0,0,0,0,0,0,0,0,0,0,0,0,0,0,0,0,0,0,0,0,0,8,44,0,0,0,0,0,24,48,32,96,28,20,24,8,20,4,4,0,0,0,0,0,0,0,0,0,0,0,0,0,0,0,140
0,0,0,0,0,0,164,52,0,156,0,0,0,0,0,0,0,0,0,0,0,0,0,0,0,0,0,4,0,0,0,0,20,0,0,0,20,32,32,32,28,12,40,32,24,0,16,0,0,4,0,0,0,0,0,0,0,0,0,0,0,0,0,0
0,128,0,0,0,104,176,48,0,0,0,0,0,0,0,0,0,0,0,0,0,0,0,0,0,0,12,0,0,0,0,0,0,0,20,4,0,44,32,40,32,40,24,20,4,4,4,4,0,0,0,0,0,0,0,0,0,0,0,0,0,0,104,0
0,0,0,0,0,152,0,0,168,0,104,0,0,0,0,0,0,0,0,0,0,0,0,0,0,0,0,0,0,0,0,0,20,4,0,0,52,0,28,24,32,64,24,36,8,8,8,0,0,0,0,0,0,0,0,0,0,0,0,16,0,0,0,136
0,0,0,0,124,0,164,0,92,172,0,0,0,0,0,0,0,0,0,0,0,0,0,0,0,0,0,0,0,0,0,0,0,8,0,28,0,28,24,28,28,36,24,28,12,0,12,0,4,0,0,0,0,0,0,0,0,0,0,0,0,0,0,144
0,0,0,0,100,0,0,0,180,0,0,68,0,0,0,0,0,0,0,0,0,0,0,0,0,0,0,0,0,0,0,0,0,8,12,0,16,0,40,24,40,24,32,32,32,0,0,0,0,0,0,0,0,0,0,0,0,0,0,0,0,0,0,0
132,0,0,0,0,0,60,0,0,0,172,0,0,0,0,0,0,0,0,0,0,0,0,0,0,0,0,0,0,32,0,0,0,0,8,28,36,8,32,28,28,32,32,28,4,16,8,0,8,0,0,0,0,0,0,0,0,0,0,0,0,0,0,128
0,0,0,0,72,56,156,0,164,0,0,0,84,0,0,0,0,0,0,0,0,0,0,0,0,0,0,0,0,0,0,0,24,0,0,0,0,20,28,28,28,32,12,20,20,8,4,0,0,4,0,0,0,0,0,0,0,0,0,28,0,0,0,0
144,0,0,0,0,120,96,0,0,172,0,0,0,0,0,0,0,0,0,0,0,0,0,0,0,0,0,0,0,0,0,8,0,12,0,0,0,36,76,28,32,32,32,24,20,20,0,0,0,0,0,0,0,0,0,0,0,0,0,0,28,0,0,0
0,0,0,0,0,0,84,164,148,0,0,64,0,0,0,0,0,0,0,0,0,0,0,0,0,0,0,0,0,0,44,0,4,0,0,0,4,40,36,32,28,44,28,64,8,188,12,0,0,0,0,0,0,0,0,0,0,0,0,160,0,0,0,100
0,0,0,0,148,0,148,0,188,116,0,0,0,0,0,0,0,0,0,0,0,0,0,0,0,0,0,0,0,0,0,52,0,0,0,0,28,32,20,32,40,176,28,20,8,8,8,0,4,0,0,0,0,0,0,0,0,0,0,0,0,0,112,0
0,0,0,0,84,76,176,0,148,0,0,0,0,0,0,0,0,0,0,0,0,0,0,0,0,0,0,0,0,0,12,0,40,0,0,0,0,24,40,32,24,32,28,16,20,8,8,8,0,0,0,0,0,0,0,0,0,0,0,0,0,0,0,0
0,136,0,0,0,136,0,0,112,0,12,0,0,0,0,0,0,0,0,0,0,0,0,0,0,0,0,0,0,0,52,0,0,0,0,0,12,32,20,28,52,24,32,20,8,4,32,0,0,0,0,0,0,0,0,0,0,0,16,0,12,0,0,128
0,0,0,0,0,84,0,0,180,164,0,0,0,0,0,0,0,0,0,0,0,0,132,0,0,0,0,0,0,0,0,28,0,0,24,0,56,32,88,28,20,28,192,32,4,16,4,8,0,0,0,0,0,0,0,0,0,0,0,0,0,0,0,0
