0,0,0,0,0,64,144,0,0,184,0,0,0,168,0,0,0,0,0,0,0,0,0,0,0,0,0,0,0,0,0,0,44,0,0,0,12,48,56,40,40,40,12,48,0,32,0,0,0,0,0,0,0,0,0,0,0,0,0,0,0,0,0,72
0,0,0,0,0,132,64,0,176,0,0,0,0,0,0,188,0,0,0,0,0,0,0,0,0,0,0,0,0,0,20,0,0,28,0,4,0,4,48,32,32,40,28,32,8,12,4,0,0,0,0,0,0,0,0,0,0,0,0,0,0,0,0,112
0,0,0,0,0,68,0,0,20,184,0,0,0,0,0,0,0,24,0,0,0,0,0,0,0,0,0,0,0,0,0,0,40,0,0,0,24,16,52,32,64,28,32,24,40,0,0,0,0,0,0,0,0,0,0,0,0,0,0,0,0,0,0,0
96,0,0,0,0,0,0,0,0,0,0,0,0,0,0,0,0,0,0,0,0,0,0,0,0,0,0,0,0,0,0,0,0,0,0,0,32,4,32,48,44,32,40,12,0,24,0,0,12,0,0,0,0,0,0,0,0,0,0,0,0,0,116,0
0,0,0,0,0,40,0,156,104,0,0,0,184,0,0,0,0,0,0,0,0,0,0,0,0,0,0,0,0,0,8,0,0,0,0,0,0,20,28,120,36,36,32,40,32,0,0,0,0,0,0,0,0,0,0,0,0,0,0,0,0,0,0,0
112,0,0,0,0,0,164,0,188,0,0,0,0,0,0,0,0,0,0,0,0,0,0,0,0,0,0,0,0,0,20,16,0,0,8,0,20,0,20,40,40,104,36,28,12,32,4,0,4,0,0,0,0,0,0,0,0,0,0,0,0,0,0,56
0,0,0,0,0,152,76,36,0,132,0,0,0,0,0,0,76,0,0,0,0,0,0,0,0,0,0,0,0,4,0,0,0,0,0,24,32,0,32,36,36,32,20,32,8,24,4,4,8,0,0,0,0,0,0,0,0,0,0,0,0,0,0,80
0,0,0,0,0,0,0,0,184,0,0,0,0,0,48,0,0,0,0,0,0,0,0,0,0,0,0,0,0,0,0,0,0,0,24,4,40,20,32,40,44,40,44,12,12,0,8,0,0,8,0,0,0,0,0,0,0,0,0,0,0,0,0,0
100,0,0,0,0,0,180,0,0,0,0,0,0,0,0,0,0,0,0,0,0,0,0,0,0,0,0,0,0,0,0,0,0,0,0,0,32,40,36,48,36,40,32,28,32,8,8,4,0,0,0,0,0,0,0,0,0,0,0,0,0,0,0,0
0,84,0,0,0,0,148,0,180,36,0,0,0,0,0,0,0,0,0,0,0,0,0,0,0,0,0,0,0,0,0,0,0,40,0,0,0,4,28,40,40,40,32,28,32,4,0,24,0,0,0,12,0,0,0,0,0,0,0,0,0,0,0,112
0,0,0,80,0,132,0,176,0,0,0,0,0,0,0,0,0,0,0,0,0,0,0,0,0,0,0,0,0,0,0,4,0,0,0,32,28,0,40,32,36,28,24,24,32,16,4,0,0,0,0,0,0,0,0,0,0,0,0,0,0,0,0,112
0,0,0,0,0,112,0,188,0,0,0,0,0,0,0,0,0,0,0,0,0,0,0,0,0,0,0,0,0,0,8,0,0,0,0,0,32,8,32,40,36,28,16,36,4,12,0,0,0,0,0,0,0,0,0,0,0,0,0,0,0,0,0,0
112,0,0,0,0,0,164,0,0,108,0,0,0,0,0,0,0,0,0,0,0,0,0,0,0,0,0,0,0,0,0,0,0,0,0,0,16,36,32,32,36,36,24,0,36,0,28,8,0,0,0,0,0,0,0,0,0,0,0,0,0,0,0,96
0,0,0,0,136,0,0,76,184,0,0,0,0,0,156,0,0,0,0,0,0,0,0,0,0,0,0,0,0,0,12,0,20,0,20,0,8,32,56,40,48,40,36,8,28,0,0,0,0,0,0,0,0,0,0,0,0,0,0,0,0,0,0,112
0,0,0,0,0,84,0,144,180,0,0,0,0,0,0,0,0,0,0,0,0,0,0,0,0,0,0,0,0,0,0,0,8,0,0,0,12,36,40,32,36,36,16,32,32,20,0,4,0,0,0,0,0,0,0,0,0,0,0,0,0,0,0,108
0,0,0,0,0,56,0,160,0,0,0,0,0,0,0,0,0,0,0,0,0,0,0,0,0,0,0,0,0,0,0,0,0,0,0,0,32,36,40,36,36,44,32,12,8,0,20,0,0,0,0,0,0,0,0,0,0,0,0,0,0,0,0,92
0,0,0,0,0,68,128,0,180,0,56,0,0,0,0,0,0,0,0,0,0,0,0,0,0,0,0,0,0,0,4,0,20,0,0,0,8,4,36,40,36,72,28,32,28,4,8,0,0,0,0,0,0,0,0,0,0,0,0,0,0,0,0,92
0,0,0,0,0,0,76,0,168,168,0,0,0,0,0,0,0,0,0,0,0,0,0,0,0,0,0,0,0,0,8,0,0,0,12,0,16,0,20,40,40,40,28,12,16,0,32,4,0,0,0,0,0,0,0,0,0,0,0,0,0,0,104,0
0,0,0,0,68,144,0,0,0,168,176,0,0,0,0,0,0,0,0,0,0,0,0,0,0,0,0,0,0,0,0,0,28,0,16,36,32,48,48,40,40,32,40,32,40,0,0,0,0,0,0,0,0,0,0,0,0,0,0,0,0,0,0,0
0,0,0,0,0,0,0,184,172,0,36,0,0,0,0,0,0,0,0,0,0,0,0,0,0,0,0,0,0,0,0,0,0,0,0,0,12,4,44,48,44,36,44,28,12,0,0,4,0,0,0,0,0,0,0,0,0,0,0,0,0,0,0,88
0,0,0,0,0,132,0,0,188,0,0,0,0,0,0,0,0,0,0,0,0,0,0,0,0,0,0,0,0,0,4,0,0,0,0,20,0,36,32,48,48,36,28,28,28,40,4,4,0,4,0,0,0,0,0,0,0,0,0,0,0,0,104,0
0,0,0,0,0,104,140,0,0,184,0,0,0,0,0,0,0,0,0,0,0,0,0,0,0,0,0,0,0,0,28,4,0,0,0,0,0,36,40,36,36,32,120,12,20,16,32,4,0,0,0,0,0,0,0,0,0,0,0,0,0,0,0,96
0,0,0,0,56,0,148,0,188,0,60,0,0,0,0,0,0,0,0,0,0,0,0,0,0,0,0,0,0,0,8,0,0,8,0,0,12,48,52,36,64,40,8,16,8,40,0,4,0,0,0,0,0,0,0,0,12,0,0,0,0,0,80,0
0,0,0,0,0,76,0,144,36,0,132,0,0,0,0,0,0,0,0,0,0,0,0,0,0,0,0,0,0,12,0,0,0,12,0,0,40,36,40,40,44,40,36,40,32,28,12,8,0,0,0,0,0,0,0,0,0,0,0,0,0,0,0,116
0,0,0,0,0,68,156,0,0,0,0,0,0,0,0,0,0,0,0,0,0,0,0,0,0,0,0,0,0,0,0,0,0,20,0,0,4,12,12,24,40,40,28,16,24,28,0,0,0,0,0,0,0,0,0,0,0,0,0,0,0,0,0,104
0,0,0,0,0,52,156,0,0,0,0,0,0,0,0,0,0,0,0,0,0,0,0,0,0,0,0,0,0,0,0,0,0,0,0,0,36,32,48,40,36,32,40,44,8,0,0,0,0,0,0,0,0,0,0,0,0,0,0,0,0,0,0,0
120,0,0,0,0,140,0,0,0,0,0,0,0,0,0,0,0,0,0,0,0,0,0,0,0,0,0,0,0,0,0,0,0,0,0,0,0,40,36,40,44,56,28,4,36,4,0,0,0,0,0,0,0,0,0,0,0,0,0,0,0,0,0,0
112,0,0,0,0,0,0,140,0,148,0,0,0,0,0,0,0,0,0,0,0,0,0,0,0,0,0,0,0,0,0,0,0,0,0,16,8,32,40,40,40,36,4,40,28,0,8,16,0,0,0,0,0,0,0,0,0,0,0,0,0,0,96,0
0,0,0,0,132,0,0,0,180,40,0,0,0,0,0,0,0,0,0,0,0,0,0,0,0,0,0,0,0,0,0,0,8,0,32,4,0,32,4,40,36,40,60,32,24,4,0,0,0,0,0,0,0,0,0,0,0,0,0,0,0,0,0,120
0,0,0,0,32,0,148,0,176,0,0,0,0,0,0,0,0,0,0,0,0,0,0,0,0,0,0,0,0,0,0,8,0,0,0,20,32,20,40,36,36,28,40,12,64,8,4,0,0,0,0,0,0,0,0,0,0,0,0,0,0,0,0,116
0,0,0,0,0,0,0,164,124,0,0,0,0,0,0,0,0,0,0,0,0,0,0,0,0,0,0,0,0,0,0,0,0,0,0,0,28,40,40,44,40,40,20,36,12,32,0,0,0,0,0,0,0,0,0,0,0,0,0,0,0,0,0,0
96,0,0,0,0,148,76,0,184,0,0,0,0,0,0,0,0,0,0,0,0,0,0,0,0,0,0,0,0,0,0,0,0,0,0,0,8,28,40,60,44,32,20,28,20,4,0,0,0,0,0,0,0,0,0,0,0,0,0,0,0,0,0,0
92,0,0,0,0,0,168,0,0,184,0,0,0,0,0,0,0,0,0,0,0,0,0,0,0,0,0,0,0,0,0,0,12,0,0,0,0,32,48,40,44,32,28,28,12,8,0,0,4,0,0,0,0,0,0,0,0,0,0,0,0,0,0,100
0,12,0,0,160,40,0,176,0,32,0,0,0,0,0,0,0,0,0,0,0,0,0,0,0,0,0,0,0,0,0,0,0,8,0,0,4,0,44,16,40,32,24,8,64,8,0,4,0,0,0,0,0,0,0,0,0,0,0,0,0,0,0,64
0,0,0,0,0,176,72,100,0,0,0,0,0,0,0,0,0,0,0,0,0,0,0,0,0,0,0,0,0,0,0,0,0,0,0,4,0,40,40,40,36,12,56,48,0,12,28,0,4,0,0,0,0,0,0,0,0,0,0,0,0,0,0,112
0,0,0,44,0,136,0,184,148,0,0,0,0,0,0,0,0,0,0,0,0,0,0,0,0,0,0,0,0,0,0,0,0,0,0,28,0,48,36,36,36,32,48,12,8,4,0,4,0,0,0,0,0,0,0,0,0,0,0,0,0,0,96,0
0,0,0,0,84,0,164,76,0,0,0,0,180,0,0,0,0,0,0,0,0,0,0,0,0,0,0,0,0,0,0,0,8,0,4,0,0,36,40,40,136,36,32,16,32,0,0,0,4,0,0,0,0,0,0,0,0,0,0,0,0,0,0,96
0,0,0,0,0,0,84,0,188,32,0,0,0,0,0,0,0,0,0,0,0,0,0,0,0,0,0,0,0,0,0,16,0,12,0,0,32,28,40,40,40,32,8,40,36,4,0,0,0,0,0,0,0,0,0,0,0,0,0,0,0,0,92,0
0,0,0,0,156,0,92,0,0,156,0,0,0,0,0,0,0,0,0,0,0,0,0,0,0,0,0,0,0,0,0,12,0,0,4,4,36,40,28,32,36,40,20,28,0,8,0,0,0,0,0,0,0,0,0,0,0,0,0,0,0,0,0,116
0,0,0,0,0,112,0,0,188,0,0,0,0,0,0,0,0,0,0,0,0,0,0,0,0,0,0,0,0,0,0,0,0,4,12,0,0,0,16,40,40,48,68,8,0,12,0,36,0,0,0,0,0,0,0,0,0,0,0,0,0,0,0,0
104,0,0,0,0,0,176,0,0,112,0,0,0,0,0,0,0,0,0,0,0,0,0,0,0,0,0,0,0,0,4,0,12,0,0,0,4,0,36,52,40,44,12,36,4,8,0,20,0,0,0,0,0,0,0,0,0,0,0,0,0,0,92,0
0,0,0,0,0,44,164,0,176,60,0,0,0,0,0,0,0,0,0,0,0,0,0,0,0,0,0,0,0,0,4,0,0,16,8,28,24,28,28,32,40,92,28,36,16,4,8,0,0,0,0,0,0,0,0,0,0,0,0,0,0,0,76,0
0,0,0,0,0,148,0,0,184,0,56,0,0,40,0,0,0,0,0,0,0,0,0,0,0,0,0,0,0,0,0,4,4,0,0,0,32,4,40,36,44,36,32,44,12,12,4,4,0,4,0,0,0,0,0,0,0,0,0,0,0,0,0,0
0,0,0,0,0,148,0,0,180,0,0,0,0,0,0,0,0,0,0,0,0,0,0,0,0,0,0,0,0,0,24,0,4,0,0,0,12,8,44,40,40,40,28,8,4,4,4,4,0,0,0,0,0,0,0,0,0,0,0,0,0,0,96,0
0,0,0,0,0,92,0,0,184,0,0,0,0,0,0,0,0,0,0,0,0,0,0,0,0,0,0,0,0,0,0,0,0,0,0,0,44,44,0,44,40,32,36,32,32,4,8,0,0,0,0,0,0,0,0,0,0,0,0,0,0,0,0,108
0,0,0,0,0,80,188,0,168,0,0,0,0,0,0,0,0,0,0,0,0,0,0,0,0,0,0,0,0,0,0,0,24,0,0,0,4,28,40,44,44,40,40,20,36,0,0,0,0,0,0,0,0,0,0,0,0,0,0,0,0,0,0,104
0,0,0,0,0,144,0,0,40,0,0,0,0,0,0,0,0,0,0,0,0,0,0,0,0,0,0,0,0,0,0,8,0,20,0,0,8,4,44,44,44,40,36,4,8,4,0,8,0,0,0,0,0,0,0,0,0,0,0,0,0,0,0,0
0,0,0,0,0,116,0,0,0,180,0,0,0,0,0,0,0,0,0,0,0,0,0,0,0,0,0,0,0,0,0,0,12,0,0,8,0,44,44,44,48,40,8,48,4,28,0,4,0,0,0,0,0,0,0,0,0,0,0,0,0,56,0,0
0,0,0,0,68,0,160,0,0,52,152,0,0,0,0,0,0,0,0,0,0,0,0,0,0,0,0,0,0,0,0,0,0,0,0,0,32,28,52,36,40,40,36,32,8,0,8,0,0,0,0,0,0,0,0,0,0,0,0,0,0,0,0,0
0,0,0,0,0,0,164,0,120,0,140,0,0,0,0,0,0,0,0,0,0,0,0,0,0,0,0,0,0,0,4,0,0,0,0,8,0,20,36,32,108,40,32,32,12,28,4,4,0,0,0,0,0,0,0,0,0,0,0,0,0,0,116,0
