255,0,0,0,0,0,255,0,0,255,0,0,110,0,0,0,0,0,0,0,0,0,0,0,0,0,0,0,0,0,0,50,0,0,0,0,110,120,90,110,110,70,30,110,30,10,0,0,10,0,0,0,0,0,0,0,0,0,0,0,0,0,0,0
255,0,0,0,0,0,255,0,0,0,0,0,0,0,0,0,0,0,0,0,0,0,0,0,0,0,0,0,0,0,0,0,50,0,0,0,30,20,100,140,80,100,100,80,100,0,30,0,0,0,0,0,0,0,0,0,0,0,0,0,0,0,0,255
0,0,0,0,0,0,0,0,255,0,0,170,0,0,0,0,0,0,0,0,0,0,0,0,0,0,0,0,0,60,0,0,0,30,0,60,0,100,70,80,100,90,100,80,20,0,0,0,0,0,0,0,0,0,0,0,0,0,0,0,0,0,0,0
230,0,0,0,0,220,0,0,0,140,0,0,0,0,0,0,0,0,0,0,0,0,0,0,0,0,0,0,0,0,0,40,0,0,0,10,50,90,90,90,100,120,30,60,80,90,10,0,0,0,0,0,0,0,0,0,0,0,0,0,0,0,0,255
0,0,0,0,0,0,255,0,255,0,0,190,0,0,0,0,0,0,0,0,0,0,0,0,0,0,0,0,0,0,0,0,0,0,0,0,0,90,110,10,90,100,90,10,70,0,0,0,0,0,0,0,0,0,0,0,0,0,0,0,0,0,0,255
0,0,0,0,0,255,0,0,0,255,0,0,0,0,0,0,0,0,0,0,0,0,0,0,0,0,0,0,0,0,0,0,50,0,0,20,100,30,90,90,90,110,90,70,0,30,20,10,0,0,0,0,0,0,0,0,0,0,0,0,0,0,0,255
0,0,0,0,0,255,0,0,255,0,0,0,0,0,0,0,0,0,0,0,0,0,0,0,0,0,0,0,0,20,0,0,20,0,0,0,30,100,80,100,100,100,80,20,20,0,80,0,0,0,0,0,0,0,0,0,0,0,0,0,0,0,0,255
0,0,0,0,0,255,0,0,255,0,0,0,0,0,0,0,0,0,0,0,0,0,0,0,0,0,0,0,0,0,0,0,10,0,0,0,0,40,100,90,160,100,80,30,30,20,0,0,0,0,0,0,0,0,0,0,0,0,0,0,0,0,0,0
0,0,0,0,0,240,0,0,255,140,0,0,100,0,0,0,0,0,0,0,0,0,0,0,0,0,0,0,0,40,0,10,0,20,0,20,30,100,100,90,100,100,20,110,60,30,10,0,0,0,0,0,0,0,0,0,0,0,0,0,0,0,0,255
0,0,0,0,0,190,0,0,0,0,0,0,255,0,0,0,0,0,0,0,0,0,0,0,0,0,0,0,0,0,0,0,0,0,50,0,0,120,80,100,100,110,100,40,170,10,10,10,0,0,0,0,0,0,0,0,0,0,0,0,0,0,255,0
0,0,0,0,0,255,0,0,255,0,0,0,0,0,0,0,0,0,0,0,0,0,0,0,0,0,0,0,0,20,0,0,0,0,0,90,50,90,100,90,80,90,80,20,10,50,0,10,0,0,0,0,0,0,0,0,0,0,0,0,0,0,0,255
0,0,0,0,0,0,255,0,255,0,0,0,0,0,0,0,0,0,0,0,0,0,0,0,0,0,0,0,0,0,30,0,0,0,0,90,50,100,80,100,90,70,100,110,10,0,0,0,0,0,0,0,0,0,0,0,0,0,0,0,0,0,0,0
255,0,0,0,0,255,0,0,0,255,0,0,0,0,0,0,0,0,0,0,0,0,0,0,0,0,0,0,0,0,0,20,0,0,0,110,0,100,90,90,100,100,90,60,50,50,10,0,0,0,0,0,0,0,0,0,0,0,0,0,0,0,0,255
0,0,0,0,0,255,255,0,0,255,0,0,0,0,0,0,0,0,0,0,0,0,0,0,0,0,0,0,0,0,10,20,0,0,0,0,80,100,90,90,100,90,50,80,80,30,20,0,0,0,0,0,0,0,0,0,0,0,0,0,0,0,0,0
255,0,0,0,0,255,0,0,255,0,0,0,0,0,0,0,0,0,0,0,0,0,0,0,0,0,0,0,0,30,0,0,50,0,0,0,30,90,100,80,90,120,100,90,0,30,0,0,0,0,0,0,0,0,0,0,0,0,0,0,0,0,0,255
0,0,0,0,0,0,0,0,255,0,0,0,0,0,0,0,0,0,0,0,0,0,0,0,0,0,0,0,0,0,0,50,20,0,0,50,0,70,100,120,90,70,70,80,20,10,0,0,0,0,0,0,0,0,0,0,0,0,0,0,0,0,0,255
0,0,0,0,0,0,0,0,255,255,170,0,0,0,0,0,0,0,0,0,0,0,0,0,0,0,0,0,0,0,0,0,40,0,0,0,30,0,110,80,80,80,80,20,80,30,0,10,0,0,0,0,0,0,0,0,0,0,0,0,0,0,0,255
0,0,0,0,0,255,0,0,255,0,0,0,0,0,0,0,0,0,0,0,0,0,0,0,0,0,0,0,0,0,0,20,0,40,0,0,0,110,90,80,110,90,100,40,50,10,30,0,0,0,0,0,0,0,0,10,0,0,0,0,0,255,0,0
0,0,0,160,0,0,250,255,0,0,0,0,0,0,0,0,0,0,0,0,0,0,0,0,0,0,0,0,0,0,0,30,0,0,0,40,0,100,100,70,100,90,100,30,10,0,30,10,0,0,0,0,0,0,0,0,0,0,0,0,0,0,0,255
0,0,0,0,0,0,0,0,0,0,0,0,0,0,0,0,0,0,0,0,0,0,0,0,0,0,0,0,0,0,0,30,0,0,0,20,20,100,110,100,90,70,80,80,0,0,10,30,0,0,0,0,50,0,0,0,0,0,0,0,0,0,0,0
0,0,0,0,0,255,0,0,0,0,0,0,0,0,0,0,0,0,0,0,0,0,0,0,0,0,0,0,0,0,0,50,20,0,40,0,0,90,100,80,70,80,90,30,20,30,10,0,0,0,0,0,0,0,0,0,0,0,0,0,0,0,0,255
0,0,0,0,240,0,0,0,0,255,0,0,0,0,0,0,0,0,0,0,0,0,0,0,0,0,0,0,0,0,50,0,20,0,0,0,70,70,80,120,100,100,70,90,50,70,0,0,0,0,0,0,0,0,0,0,0,0,0,0,0,0,0,255
0,0,0,0,255,0,0,0,0,0,0,0,0,0,0,0,0,0,0,0,0,0,0,0,0,0,0,0,0,0,0,0,0,0,0,0,0,40,100,80,70,90,100,30,10,30,40,0,0,0,0,0,0,0,0,0,0,0,0,0,0,0,0,0
255,0,0,0,0,255,0,255,0,0,0,255,0,0,0,0,0,0,0,0,0,0,0,0,0,0,0,0,0,0,0,20,30,0,0,0,10,0,110,100,255,70,80,100,100,0,0,0,0,0,0,0,0,0,0,0,0,0,0,0,0,250,0,0
0,0,0,0,0,0,0,0,255,0,160,0,0,0,0,0,0,0,0,0,0,0,0,0,0,0,0,0,0,0,40,0,30,0,0,0,0,70,30,120,90,100,150,80,0,0,0,10,0,10,0,0,0,0,0,0,0,0,0,0,0,0,0,0
0,0,0,0,255,0,255,0,0,0,0,0,0,0,0,0,0,0,0,0,0,0,0,0,0,0,0,0,0,0,0,0,70,0,30,100,70,80,90,90,100,90,70,50,20,10,0,0,0,0,0,0,0,0,0,0,0,0,0,0,0,0,0,0
255,0,0,255,0,0,170,0,255,0,0,255,0,0,0,0,0,0,0,0,0,0,0,0,0,0,0,0,0,70,0,30,0,50,20,0,0,100,90,90,120,90,30,30,10,30,10,0,50,0,0,0,0,0,0,0,0,0,0,0,0,0,0,240
0,0,0,0,0,255,0,0,0,255,0,0,0,0,0,0,0,0,0,0,0,0,0,0,0,0,0,0,0,0,0,0,0,0,0,0,100,100,100,80,100,100,70,30,30,10,0,0,0,0,0,0,0,0,0,0,0,0,0,0,0,0,0,0
0,255,0,0,0,0,0,0,0,255,0,0,0,0,0,0,0,0,0,0,0,0,0,0,0,0,0,0,0,0,40,0,0,0,0,0,80,80,80,90,100,80,80,50,20,10,10,0,0,0,0,0,0,0,0,0,0,0,0,0,0,0,0,0
0,255,0,0,0,0,0,0,210,255,0,0,0,0,0,0,0,0,0,0,0,0,0,0,0,0,0,0,0,0,0,50,0,0,20,0,10,40,80,250,90,90,50,80,0,0,0,0,0,0,0,0,0,0,0,0,0,0,0,0,0,0,0,255
0,0,0,0,0,255,0,255,255,0,0,0,0,0,0,0,0,0,0,0,0,0,0,0,0,0,0,0,0,0,80,40,0,0,0,0,20,40,0,110,100,80,200,80,30,0,10,40,0,0,0,0,0,0,0,0,0,0,0,0,0,0,0,0
255,0,0,0,0,255,210,0,0,0,0,110,255,0,0,0,0,0,0,0,0,0,0,0,0,0,0,0,0,0,30,0,0,0,40,0,20,90,100,90,120,100,80,0,140,0,30,0,0,0,0,0,0,10,0,0,0,0,0,0,0,0,0,255
0,0,0,0,255,0,0,255,0,255,0,0,0,0,0,0,0,0,0,0,0,0,0,0,0,0,0,0,0,0,0,50,0,0,0,0,40,70,80,90,90,90,150,40,70,20,0,0,0,0,0,0,0,0,0,0,0,0,0,0,0,0,0,0
0,255,0,0,255,0,0,0,0,0,0,0,0,0,0,0,0,0,0,0,0,0,0,0,0,0,0,0,0,0,0,0,0,0,0,0,40,90,70,80,100,110,80,50,10,100,0,0,0,0,0,0,0,0,0,0,0,0,0,0,0,0,0,0
255,0,0,0,190,0,230,0,255,0,0,0,0,0,255,0,0,0,0,0,0,0,0,0,0,0,0,0,0,0,100,50,0,0,30,0,90,80,60,110,30,80,110,80,10,30,0,0,0,0,0,0,0,0,0,0,0,0,0,0,0,0,0,0
255,0,0,0,255,0,0,0,0,0,0,0,0,0,0,0,0,0,0,0,0,0,0,0,0,0,0,0,0,0,0,20,0,0,20,0,80,80,40,80,80,70,60,10,70,10,40,0,30,0,0,0,0,0,0,0,0,0,0,0,0,0,0,255
0,0,0,0,0,255,0,255,0,0,0,0,0,0,0,255,0,0,0,0,0,0,0,0,0,0,0,0,0,70,0,0,0,40,0,30,0,80,250,90,70,90,90,80,70,40,10,0,0,0,0,0,0,0,0,0,0,0,0,0,0,0,0,0
0,0,0,0,0,255,0,255,255,0,0,0,0,0,0,0,0,0,0,0,0,0,0,0,0,0,0,0,0,0,0,0,110,0,0,90,70,80,90,80,100,80,100,30,120,100,10,10,0,0,0,0,0,0,0,0,0,0,0,0,0,0,255,0
0,0,0,0,0,255,0,0,255,0,0,0,0,0,0,0,0,0,0,0,0,0,0,0,0,0,0,0,0,0,80,0,0,0,50,0,100,90,100,110,100,100,160,50,80,10,10,0,0,0,0,0,0,0,0,0,0,0,0,0,0,0,255,0
0,0,0,0,0,255,0,0,255,0,0,0,0,0,30,0,0,0,0,0,0,0,0,0,0,0,0,0,0,70,30,0,70,0,0,30,80,30,255,90,80,100,0,80,90,0,0,0,0,0,0,0,0,0,0,0,0,0,0,0,0,0,0,255
0,0,0,0,0,255,0,0,0,0,0,0,0,0,0,0,0,0,0,0,0,0,0,0,0,0,0,0,0,0,70,0,0,0,0,0,30,0,80,100,170,80,30,220,0,30,0,0,0,0,0,0,0,0,0,0,0,0,0,0,0,255,0,0
0,0,0,0,255,0,0,0,0,255,0,0,0,0,0,0,0,0,0,0,0,0,0,0,0,0,0,0,0,0,0,0,0,0,40,0,30,100,100,90,80,90,90,0,70,0,80,0,20,0,0,0,0,0,0,0,0,0,0,0,0,0,0,0
0,255,0,0,0,255,0,0,0,0,0,0,0,0,0,0,0,0,0,0,0,0,0,0,0,0,0,0,0,0,0,30,0,0,0,0,0,100,80,140,90,110,70,40,80,0,0,0,0,0,0,0,0,0,0,0,0,0,0,0,0,0,0,0
255,0,0,0,0,0,255,0,0,0,255,0,0,0,0,0,0,0,0,0,0,0,0,0,0,0,0,0,0,0,0,0,50,0,70,0,20,80,100,110,120,100,90,30,100,10,30,0,0,0,0,0,0,0,0,0,0,0,0,0,0,0,0,0
255,0,0,0,0,0,0,0,255,0,0,0,0,0,0,0,0,0,0,0,0,0,0,0,0,0,0,0,0,0,0,70,70,0,0,30,70,90,120,110,80,100,120,50,80,50,10,10,0,0,0,0,0,0,0,0,0,0,0,0,0,0,255,0
0,0,0,0,0,255,0,0,255,0,0,0,0,255,0,0,0,0,0,0,0,0,0,0,0,0,0,0,0,0,0,50,50,0,0,50,0,140,90,140,140,110,60,110,0,30,70,10,0,0,0,0,0,0,0,0,0,0,0,0,0,0,0,0
0,0,255,0,0,255,0,0,0,0,255,0,255,0,0,0,0,0,0,0,0,0,0,0,0,0,0,0,0,0,0,0,0,0,0,0,50,100,40,120,90,255,90,30,80,0,0,0,0,0,0,0,0,0,0,0,0,0,0,0,0,0,255,0
0,0,0,0,0,220,0,0,0,0,255,0,0,0,0,0,0,0,0,0,0,0,0,0,0,0,0,0,0,0,0,30,80,0,0,130,0,80,100,80,190,90,70,0,70,30,40,0,0,0,0,0,0,0,0,0,0,0,0,0,0,0,0,0
0,255,0,0,0,255,250,0,255,0,0,0,0,0,0,0,0,0,0,0,0,0,0,0,0,0,0,0,0,0,60,10,0,0,10,0,110,0,110,100,255,200,80,30,10,0,10,0,0,0,0,0,0,0,0,0,0,0,0,0,0,0,0,200
0,0,0,0,255,0,0,255,0,0,0,0,0,30,0,0,0,0,0,0,0,0,0,0,0,0,0,0,0,0,50,0,0,30,30,0,130,90,20,160,100,140,70,100,10,0,30,0,0,20,0,0,0,0,0,0,0,0,0,0,0,0,0,0
