0,0,0,0,0,0,45,0,0,28,0,0,0,0,0,0,0,0,0,0,0,0,0,0,0,0,0,0,0,0,3,0,0,0,0,0,12,4,7,7,7,14,4,7,3,3,3,0,1,0,0,0,0,0,0,0,0,0,0,0,0,0,0,19
0,0,0,0,0,0,40,0,0,0,35,0,0,0,0,0,0,0,0,0,0,0,0,0,0,0,0,0,0,0,0,10,0,0,0,1,7,7,8,7,4,6,4,7,0,2,0,0,0,0,0,0,0,0,0,0,0,0,0,0,0,0,25,0
0,0,0,0,0,0,38,0,0,39,36,0,0,0,0,0,0,0,0,0,0,0,0,0,0,0,0,0,0,0,0,0,8,0,0,2,5,7,30,5,8,6,3,6,4,6,0,0,0,0,0,0,0,0,0,0,0,0,0,0,0,14,0,0
0,0,0,0,0,41,16,0,19,36,0,0,0,0,0,0,0,0,0,0,0,0,0,0,0,0,0,0,0,0,0,0,0,0,0,0,8,14,7,9,9,10,11,4,9,1,3,1,0,0,0,0,0,0,0,0,0,0,0,0,0,0,0,21
0,0,0,0,0,0,44,0,0,0,36,0,0,0,0,0,0,0,0,0,0,0,0,0,0,0,0,0,0,0,0,0,0,0,2,9,0,1,7,8,10,5,12,7,3,3,4,1,0,0,0,0,0,0,0,0,0,0,0,0,0,0,30,0
0,0,0,0,17,42,0,31,0,0,0,0,0,0,0,0,0,0,0,0,0,0,0,0,0,0,0,0,0,0,0,0,0,0,0,0,3,3,6,8,12,1,7,5,3,3,3,0,0,0,0,0,0,0,0,0,0,0,0,0,0,0,28,0
0,0,0,0,0,36,23,0,0,0,0,5,0,0,41,0,0,0,0,0,0,0,0,0,0,0,0,0,0,0,0,2,3,0,1,5,3,8,3,31,6,9,7,3,2,3,2,1,0,0,0,0,0,0,0,0,0,0,0,0,0,0,0,0
0,0,0,0,0,14,42,0,0,0,12,43,0,0,0,0,0,0,0,0,0,0,0,0,0,0,0,0,0,0,7,6,0,0,0,4,4,7,6,16,11,5,10,4,3,4,3,0,0,0,0,0,0,0,0,0,0,0,0,0,0,0,0,0
0,0,0,0,0,34,37,0,17,44,0,0,0,0,0,0,0,0,0,0,0,0,0,0,0,0,0,0,0,0,0,0,3,0,0,0,4,0,3,3,11,6,3,16,5,3,0,0,0,0,0,0,0,0,0,0,0,0,0,18,0,0,0,0
0,32,0,0,0,0,0,0,0,40,0,0,0,0,0,0,0,0,0,0,0,0,0,0,0,0,0,0,0,0,0,0,0,0,0,3,1,8,6,10,7,7,10,4,8,3,3,0,0,0,0,0,0,0,0,0,0,0,0,0,0,0,0,32
0,0,0,0,0,0,32,42,0,37,0,0,0,0,0,0,0,0,0,0,0,0,0,0,0,0,0,0,0,0,5,0,0,1,0,2,5,8,6,8,10,5,6,3,3,3,3,0,1,0,0,0,0,0,0,20,0,0,0,0,0,0,0,36
0,0,0,0,0,15,38,46,26,0,0,0,0,0,7,0,0,0,0,0,0,0,0,0,0,0,0,0,0,0,0,3,0,0,0,7,0,0,5,7,8,5,17,10,2,1,1,1,0,0,0,0,0,0,0,0,0,0,0,0,0,0,0,0
0,0,0,0,0,29,0,35,43,0,0,0,0,0,0,0,0,0,0,0,0,0,0,0,0,0,0,0,0,0,0,2,0,6,0,0,6,5,10,6,13,5,19,4,2,0,4,0,0,0,0,0,0,0,0,0,0,0,0,0,0,0,31,0
0,0,0,0,0,0,0,40,42,0,44,0,0,0,0,0,0,0,0,0,0,0,0,0,0,0,0,0,0,0,0,3,0,0,1,0,8,7,8,7,15,4,21,3,3,3,2,2,0,0,0,0,0,0,0,0,0,0,0,0,0,0,0,0
0,0,0,0,0,9,36,0,43,0,0,0,0,0,0,0,0,0,0,0,0,0,0,0,0,0,0,0,0,0,0,0,0,0,0,1,3,8,5,6,22,7,6,4,7,3,2,0,1,0,0,0,0,0,0,0,0,0,0,0,0,0,33,0
0,0,0,0,0,45,15,0,0,0,36,0,42,0,0,0,0,0,0,0,0,0,0,0,0,0,0,0,0,0,0,0,0,0,0,3,0,4,8,2,46,13,3,7,1,2,0,0,0,0,0,0,0,0,0,0,0,0,0,0,0,0,0,0
28,0,0,0,0,32,43,0,0,0,39,37,0,0,0,0,0,0,0,0,0,0,0,0,0,0,0,0,0,0,0,7,1,0,0,7,1,8,7,8,8,7,4,6,3,6,3,0,0,0,0,0,0,0,0,0,0,0,0,0,0,0,32,0
0,0,0,0,0,0,36,43,36,0,0,0,37,0,0,0,0,0,0,0,0,0,0,0,0,0,0,0,0,0,5,0,0,0,3,0,5,8,7,7,9,6,6,4,2,3,0,0,0,0,0,0,0,0,0,0,0,0,0,0,0,0,0,26
0,0,0,0,0,37,0,0,0,41,0,0,0,0,0,0,0,0,0,0,0,0,0,0,0,0,0,0,0,0,3,0,0,0,0,0,7,1,8,7,14,5,2,6,47,3,1,0,0,0,0,0,0,0,0,0,0,0,0,0,0,0,0,28
0,0,0,0,0,9,0,39,0,48,0,0,0,0,0,0,0,0,0,0,0,0,0,0,0,0,0,0,0,0,0,0,0,4,0,0,7,8,6,3,12,7,7,3,48,2,2,4,0,0,0,0,0,0,0,0,0,0,0,0,0,30,0,0
0,0,0,0,0,0,0,0,47,0,13,0,0,0,0,0,0,0,0,0,0,0,0,0,0,0,0,0,0,0,0,0,0,0,0,0,2,6,9,8,8,3,5,8,2,48,2,0,0,0,0,0,0,0,0,0,0,0,0,0,0,0,23,0
0,0,0,0,0,0,39,0,0,0,48,0,0,0,0,0,0,0,0,0,0,0,0,0,0,0,0,0,0,0,0,0,0,6,0,0,2,0,7,5,46,5,5,5,0,6,1,0,0,0,0,0,0,0,0,0,0,0,0,0,0,0,0,25
0,0,0,0,0,12,0,0,34,0,0,0,0,0,0,0,0,0,0,0,0,0,0,0,0,0,0,0,0,0,0,11,0,0,0,0,7,8,7,48,7,7,7,5,3,3,2,0,0,0,0,0,0,0,0,0,0,0,0,0,0,0,0,0
0,33,0,0,0,46,0,0,0,41,0,0,0,0,0,0,0,0,0,0,0,28,0,0,0,0,0,0,0,0,1,0,0,0,0,0,7,8,47,4,8,9,8,3,3,1,2,0,0,0,0,0,0,0,0,0,0,0,0,0,0,0,0,0
35,0,0,24,0,0,19,0,0,0,0,37,48,0,0,0,0,0,0,0,0,0,0,0,0,0,0,0,0,0,8,0,0,6,0,0,5,5,7,48,5,3,7,3,3,2,2,0,0,0,0,0,0,0,0,0,0,0,0,0,0,0,0,0
34,0,0,0,41,0,0,0,0,36,0,14,0,0,46,0,0,0,0,0,0,0,0,0,0,0,0,0,0,0,0,0,0,6,0,0,7,8,6,48,8,6,4,10,3,6,2,0,0,0,0,0,0,0,0,0,0,0,0,0,0,0,0,33
0,0,0,0,0,0,44,28,0,0,0,0,0,0,48,0,0,0,0,0,0,0,0,0,0,0,0,0,0,0,0,0,0,0,0,0,6,4,5,11,48,3,8,4,5,2,3,0,0,0,0,0,0,0,0,0,0,0,0,0,0,0,0,0
0,30,0,0,0,0,42,0,0,31,0,0,0,0,46,0,0,0,0,0,0,0,0,0,0,0,0,0,0,0,0,4,0,0,4,1,2,8,7,9,7,48,6,3,3,2,3,2,0,0,0,0,0,0,0,0,0,0,0,0,0,0,0,36
0,0,0,0,0,0,30,42,0,39,47,0,0,0,0,0,0,0,0,0,0,0,0,0,0,0,0,0,0,0,8,0,0,0,0,2,1,6,7,8,6,8,4,4,48,3,5,1,0,0,0,0,0,0,0,0,0,0,0,0,0,0,0,0
0,0,0,0,0,0,44,0,0,0,48,0,0,0,0,0,0,0,0,0,0,0,0,0,0,0,0,0,0,0,5,0,0,1,6,5,5,3,9,6,48,6,4,12,3,0,3,0,1,0,0,0,0,0,0,0,0,0,0,0,0,0,0,0
29,0,0,0,0,0,45,0,0,0,0,0,40,0,0,0,0,0,0,0,0,0,0,0,0,0,0,0,0,9,0,0,0,3,0,4,2,6,7,7,48,6,6,7,4,3,2,0,0,0,0,0,0,0,0,0,0,0,0,0,0,0,0,27
0,0,0,0,32,0,0,0,0,0,11,0,48,0,0,0,0,0,0,0,0,0,0,0,0,0,0,0,0,0,7,0,0,2,3,2,3,6,8,48,5,8,8,7,3,2,0,2,2,0,0,0,0,0,0,0,0,0,0,0,0,0,0,0
30,0,0,0,0,34,0,36,34,0,0,0,0,0,48,0,0,0,0,0,0,0,0,0,0,0,0,0,0,0,0,0,1,0,0,0,4,8,7,48,5,8,6,4,5,3,2,0,0,0,0,0,0,0,0,0,0,0,0,0,0,0,0,35
0,0,0,0,17,0,30,0,41,35,0,0,0,0,0,0,0,0,0,0,0,0,0,0,0,0,0,0,0,0,0,0,0,0,0,0,7,7,8,8,7,4,15,3,5,3,0,1,0,1,0,0,0,0,0,0,0,0,0,0,0,34,0,0
0,0,0,0,0,0,0,40,0,0,0,0,0,0,0,0,0,0,46,0,0,0,0,0,0,0,0,0,0,0,0,0,0,0,0,0,3,7,8,5,7,6,4,8,5,2,2,2,0,0,0,0,0,0,0,0,0,0,0,0,0,0,28,0
0,0,0,0,35,0,0,0,0,42,48,0,0,0,0,0,0,0,0,0,0,0,0,0,0,0,0,0,0,0,0,0,0,0,0,1,0,9,4,7,7,12,5,7,3,3,0,0,0,0,0,0,0,0,0,0,0,0,0,0,0,0,0,0
28,0,0,0,0,0,0,39,0,0,0,30,0,0,0,48,0,0,0,0,0,0,0,0,0,0,0,0,0,6,0,0,0,0,0,0,3,8,5,8,48,5,4,7,4,5,1,0,1,0,0,0,0,0,0,0,0,0,0,0,0,0,0,25
0,0,0,0,0,37,27,0,0,0,40,0,0,0,0,48,0,0,3,0,0,0,0,0,0,0,0,0,0,0,1,0,3,0,0,0,9,5,8,7,48,5,4,3,12,2,0,2,0,0,0,0,0,0,0,0,0,0,0,0,0,0,0,0
29,0,0,0,0,0,39,39,0,47,0,0,0,0,0,0,0,0,0,0,0,0,0,0,0,0,0,0,0,0,0,0,0,0,0,0,3,6,7,7,4,8,6,48,3,3,2,1,0,0,0,0,0,0,0,0,0,0,0,0,0,0,0,0
30,0,0,0,0,0,33,0,29,42,48,0,14,0,0,0,0,0,0,0,0,0,0,0,0,0,0,0,0,0,0,3,0,0,3,0,2,7,7,7,48,9,5,4,4,3,0,3,0,0,0,0,0,0,0,0,0,0,0,0,0,0,0,0
34,0,0,0,0,0,0,0,0,41,0,0,0,48,0,0,0,0,0,0,0,0,0,0,0,0,0,0,0,5,0,0,0,0,0,0,7,0,46,8,7,7,5,1,9,0,4,2,1,0,0,0,0,0,0,0,0,0,0,0,0,0,0,28
0,0,0,0,0,27,0,41,40,0,0,0,0,0,0,0,0,0,0,0,0,0,0,0,0,0,0,0,0,0,0,7,0,0,0,6,2,6,8,7,8,12,7,5,3,2,3,0,0,0,0,0,0,0,0,0,0,0,0,0,0,0,32,0
0,0,0,0,0,38,0,0,37,0,0,0,0,0,0,0,0,0,0,0,0,0,36,0,0,0,0,0,0,0,0,5,0,0,0,0,7,0,7,5,7,6,7,1,3,3,0,6,0,0,6,0,0,0,0,0,0,0,0,0,0,0,36,0
0,0,0,0,0,44,0,0,0,8,39,0,0,0,48,0,0,0,0,0,0,0,0,0,0,0,0,0,0,0,0,0,5,3,0,9,2,6,8,48,6,4,5,3,7,2,1,2,0,0,0,0,0,0,0,0,0,0,0,0,0,0,0,0
0,0,0,0,0,0,32,0,41,39,0,0,0,0,48,0,0,0,0,0,0,0,0,0,0,0,0,0,0,0,5,2,0,5,0,7,5,7,5,8,10,4,48,5,4,4,7,0,0,0,0,0,0,0,0,0,0,0,0,0,0,35,0,0
0,0,0,0,0,31,0,37,0,0,0,0,0,0,0,0,0,0,0,0,0,47,0,0,0,0,0,0,0,0,0,2,0,2,2,0,3,7,5,6,8,48,5,4,4,3,0,0,0,0,0,0,0,0,0,0,0,0,0,0,0,0,0,33
0,0,0,0,0,19,35,41,0,17,48,0,0,0,0,0,0,0,0,0,0,0,0,0,0,0,0,0,0,0,2,0,0,0,0,7,1,7,7,5,8,7,7,0,6,5,1,4,0,0,0,0,0,0,0,0,0,0,0,0,2,0,0,0
0,29,0,0,0,0,37,0,31,0,0,10,0,0,0,0,0,0,0,32,0,0,0,0,0,0,0,0,0,0,0,0,0,0,0,3,0,39,8,7,3,8,8,7,4,2,3,0,0,0,0,0,0,0,0,0,0,0,0,0,0,0,0,37
0,0,0,0,0,16,0,0,36,0,0,0,0,0,0,0,10,0,0,0,0,0,0,0,0,0,0,0,0,0,0,0,0,0,0,0,4,7,8,12,7,8,8,11,4,2,2,0,0,0,0,0,0,0,0,0,0,0,0,0,0,0,0,0
34,0,0,0,0,0,0,38,26,0,17,0,0,0,0,0,0,0,0,0,0,0,0,0,0,0,0,0,0,0,0,7,0,0,0,0,0,8,7,6,7,6,5,7,1,4,2,2,0,0,0,0,0,0,0,0,0,0,0,0,0,0,0,0
