0,0,6,0,0,222,240,0,0,102,255,0,0,0,0,0,0,0,0,0,0,0,0,0,0,0,12,0,0,0,0,0,6,0,0,6,48,42,42,60,156,36,42,66,0,42,54,18,0,0,0,0,120,0,0,0,0,0,0,0,0,6,102,0
0,0,0,90,192,0,198,0,255,0,0,255,0,0,0,0,0,0,0,0,0,0,0,0,0,0,0,0,0,0,0,0,0,0,0,18,6,0,48,42,42,60,48,255,36,42,24,0,0,0,0,0,0,0,0,0,0,0,0,0,0,0,0,102
0,0,0,0,0,0,198,222,0,255,0,0,0,0,0,0,0,0,0,0,0,0,0,0,0,0,0,0,0,0,0,0,0,0,0,30,30,60,36,54,36,54,78,54,48,30,30,0,0,0,0,0,0,0,0,0,0,0,0,0,0,0,0,0
0,0,0,0,0,96,0,228,252,0,0,0,255,0,0,0,0,0,0,0,0,0,0,0,0,0,0,0,0,0,0,6,0,0,0,30,0,72,0,255,66,90,48,60,36,24,24,18,0,0,0,0,0,0,0,0,0,0,0,0,0,0,0,0
138,0,0,0,0,0,222,0,0,48,0,0,255,0,0,255,0,0,0,0,0,0,0,0,0,0,0,0,0,0,0,0,6,18,6,0,30,54,60,114,54,255,48,96,24,24,30,0,0,0,0,0,0,0,0,0,0,0,0,0,0,0,0,0
0,0,0,0,0,228,0,0,0,72,0,255,222,0,0,0,0,0,0,0,0,0,0,0,0,0,0,0,0,0,12,0,0,0,6,48,36,0,54,54,255,42,42,84,30,30,24,18,0,0,0,0,0,0,0,0,0,0,0,0,0,0,0,0
0,0,0,0,0,228,0,0,0,0,0,0,0,0,0,0,0,0,0,255,0,0,0,0,0,0,0,0,0,0,0,0,0,12,6,0,6,42,54,228,54,60,60,36,36,42,42,0,0,0,0,0,0,0,0,0,0,0,0,0,0,0,114,0
0,0,0,0,0,108,180,0,0,126,0,240,0,0,0,0,0,0,0,0,255,0,0,0,0,0,0,0,0,0,0,0,0,6,0,6,0,42,54,255,48,36,48,42,30,60,0,18,0,0,0,0,0,0,0,0,0,0,0,0,0,0,0,150
0,0,0,0,0,102,246,0,54,0,0,0,255,0,0,0,0,0,0,0,0,0,0,0,0,0,0,0,0,0,0,6,0,12,6,24,36,42,54,42,54,255,42,90,42,30,42,18,0,0,0,0,0,0,0,0,0,0,0,0,0,0,0,0
102,0,0,174,0,0,168,90,0,0,246,0,0,255,0,0,0,0,0,0,0,0,0,0,0,0,0,0,0,12,0,0,6,0,18,42,48,36,42,255,54,54,60,36,24,42,30,0,0,0,0,0,6,0,0,0,0,0,0,0,0,0,102,0
0,0,0,0,0,186,210,0,66,0,0,0,198,0,36,0,0,0,0,255,0,0,0,0,0,0,0,0,0,0,0,0,0,0,0,6,12,42,30,42,48,42,255,30,54,48,18,12,0,0,0,0,0,0,0,0,0,0,0,0,0,0,0,126
0,0,0,0,0,72,210,0,168,0,0,255,0,0,0,0,0,0,0,0,0,0,0,0,0,0,0,0,0,0,0,12,0,0,0,0,0,12,12,255,60,48,72,30,54,48,18,54,0,0,0,0,0,0,0,0,0,0,0,0,0,0,126,0
0,0,0,0,0,228,0,0,0,0,0,0,0,24,0,0,0,0,0,0,0,0,0,240,0,0,0,0,0,0,0,0,6,0,0,0,0,42,42,36,48,36,66,42,36,24,0,42,0,0,0,0,0,0,0,0,0,0,0,0,0,0,0,150
0,0,0,0,54,204,204,0,0,60,0,0,0,255,0,0,0,0,0,255,0,0,0,0,0,0,0,0,0,12,0,0,0,0,0,0,48,36,48,48,48,255,60,30,36,18,18,0,0,0,0,0,0,0,0,0,0,0,0,0,0,0,0,78
0,0,0,210,0,126,210,84,0,0,0,0,255,0,0,0,0,0,0,0,0,0,0,0,0,0,0,0,0,0,0,0,0,0,0,6,0,18,30,240,54,42,48,24,84,18,24,0,0,0,0,0,0,0,0,0,0,0,0,0,0,0,0,138
0,0,0,0,0,0,174,0,0,255,48,0,0,0,0,255,0,0,0,0,0,0,0,0,0,0,0,0,0,12,0,0,0,0,0,0,48,60,48,60,255,42,42,66,30,36,30,18,0,0,0,0,0,0,0,0,0,0,0,0,0,114,0,0
0,0,0,0,90,0,210,0,0,0,0,246,0,0,0,0,0,0,0,0,0,0,0,0,0,0,0,0,0,0,0,0,0,0,18,6,48,60,255,48,48,30,54,42,66,36,30,0,0,0,0,0,0,0,0,0,0,0,0,0,0,0,126,0
0,0,0,0,0,36,222,0,0,156,0,0,0,0,0,0,0,0,0,0,0,0,0,0,0,0,0,0,0,0,0,0,0,0,0,0,6,24,6,42,48,36,42,30,30,30,30,18,0,0,0,0,0,0,0,0,0,0,0,0,0,0,0,162
0,0,0,0,0,222,0,0,162,0,0,0,216,36,0,0,0,0,0,0,0,0,0,0,0,0,0,0,18,0,0,0,0,0,0,0,42,0,30,54,198,255,36,84,18,36,0,18,0,0,0,0,0,0,0,0,0,0,0,0,0,0,174,0
0,0,0,0,54,0,0,210,54,0,0,255,0,0,0,0,0,0,0,0,0,0,0,0,0,0,0,0,0,0,24,0,12,6,6,42,72,42,48,90,42,48,42,78,72,24,18,24,0,0,0,0,0,0,0,0,0,0,0,0,0,0,0,108
0,0,0,78,0,42,0,222,0,240,0,0,0,255,0,0,0,0,0,0,0,0,0,0,0,0,0,0,0,0,6,0,0,0,0,0,42,0,36,48,48,36,255,30,36,48,18,0,0,0,0,0,0,0,0,0,0,0,0,0,0,0,0,150
0,0,0,0,168,30,198,84,0,0,0,0,0,255,0,0,0,0,0,0,0,0,0,0,0,0,0,0,0,0,0,0,18,0,0,0,6,48,180,48,255,48,42,18,48,48,18,18,0,0,0,0,0,0,0,0,0,0,0,0,0,0,0,0
0,0,0,0,96,204,48,0,114,0,0,255,0,0,0,0,0,0,0,0,0,0,0,0,0,0,0,0,0,0,0,0,6,6,42,42,0,6,36,84,42,255,48,90,36,30,24,0,0,0,0,0,0,0,0,0,0,0,0,0,0,0,0,126
0,0,0,0,0,210,84,0,42,0,0,255,0,0,0,0,0,0,0,0,0,0,0,0,0,0,0,0,0,12,0,18,0,0,6,0,48,72,54,255,54,36,42,42,48,6,30,18,0,0,0,0,0,0,0,0,0,0,0,0,0,0,0,126
0,0,0,0,0,0,210,132,48,0,0,0,0,0,0,0,0,0,0,0,0,204,0,0,0,0,0,0,0,0,0,18,0,0,0,0,12,42,48,198,48,36,30,255,42,36,30,0,0,0,0,0,0,0,0,0,0,0,0,0,0,0,0,0
0,0,84,0,0,0,180,210,0,0,246,255,0,0,0,0,0,0,0,0,0,0,0,0,0,0,0,0,0,0,24,0,0,0,0,0,0,42,42,174,255,42,30,54,90,30,24,0,0,0,0,0,0,0,0,0,0,0,0,0,0,138,0,0
0,0,0,0,0,0,120,222,198,0,0,0,0,0,0,255,0,0,0,0,0,0,0,0,0,0,0,0,0,0,0,12,0,0,0,0,24,0,48,255,48,42,36,48,42,42,18,0,30,0,0,0,0,0,0,0,0,0,0,0,0,0,0,0
138,0,0,0,90,0,216,0,0,54,0,252,0,0,0,0,0,0,0,0,0,0,0,0,0,0,0,0,0,0,0,0,0,0,0,6,48,6,24,54,54,48,255,36,18,36,30,0,0,0,0,0,0,0,0,0,0,0,0,0,0,0,0,102
0,0,0,0,0,180,192,0,204,0,0,0,255,0,0,0,0,0,0,0,0,0,0,0,0,0,0,0,0,0,12,0,0,0,0,0,24,6,66,42,234,48,48,66,24,30,36,0,0,0,0,0,0,0,0,0,0,0,0,0,0,72,0,0
0,0,0,0,78,0,180,48,0,0,234,0,0,0,0,0,0,0,0,0,0,0,0,0,0,0,0,0,0,0,0,0,0,24,0,0,30,36,48,60,42,54,48,60,24,42,30,0,0,0,0,0,0,0,0,0,0,0,0,0,0,0,144,0
0,0,0,0,108,0,216,0,0,24,0,0,255,0,0,0,0,0,0,0,0,0,0,0,0,0,0,0,0,0,0,0,24,0,54,24,42,42,96,48,48,66,48,48,30,42,18,18,0,0,0,0,0,0,0,0,0,0,0,0,0,0,120,0
0,0,0,0,84,0,198,0,0,60,0,255,0,0,0,0,0,0,0,0,0,0,0,0,0,0,0,0,0,6,0,6,12,0,0,12,30,60,48,102,60,54,255,90,30,42,18,0,0,0,0,0,0,0,0,0,0,0,0,0,0,0,156,0
0,0,0,72,0,0,210,0,54,255,0,0,0,0,0,0,0,0,0,0,0,0,0,0,0,0,0,0,0,0,18,0,24,6,0,6,0,48,36,255,42,48,48,30,60,24,18,0,0,0,0,0,0,0,0,0,0,0,0,0,0,0,0,120
0,0,0,0,0,192,198,0,0,156,0,0,0,0,255,0,0,0,0,0,0,0,0,0,255,0,0,0,0,0,0,0,18,0,0,0,30,18,126,255,0,48,36,60,42,48,0,0,18,0,0,0,0,0,0,0,0,0,0,0,0,0,0,0
0,0,0,0,60,186,174,0,42,0,255,0,240,0,0,0,0,204,0,0,0,0,0,0,0,0,0,0,0,30,0,0,0,6,6,42,36,30,255,48,42,42,60,36,12,30,36,0,0,0,0,0,0,0,0,0,0,0,0,0,0,0,138,0
0,0,0,0,0,144,0,0,0,0,0,0,0,0,0,0,0,0,255,0,0,0,0,0,0,0,0,0,0,0,0,0,0,0,0,6,18,6,18,60,48,48,255,18,30,66,24,12,0,0,0,0,0,0,0,0,0,0,0,0,0,0,0,0
108,0,0,0,0,0,156,0,150,0,0,0,255,42,0,0,0,0,0,0,0,0,0,0,0,0,0,0,0,0,0,0,0,0,0,18,0,18,60,255,36,48,66,36,18,24,0,24,0,0,0,0,0,0,0,0,0,0,0,0,0,0,0,114
0,0,0,0,234,0,0,0,0,0,0,0,0,246,0,0,0,0,0,0,0,0,0,156,0,0,0,0,0,0,0,6,6,0,0,6,36,6,54,24,60,78,255,24,42,48,0,18,0,0,0,0,0,0,0,0,0,0,0,0,0,0,0,156
0,0,0,0,216,72,0,0,72,180,0,255,0,0,0,0,0,0,0,0,0,0,0,0,0,0,0,0,0,0,12,0,0,0,0,60,6,54,60,255,54,48,42,54,24,36,30,42,0,0,0,0,0,0,0,0,0,0,0,0,0,0,0,0
0,84,0,0,0,156,204,0,72,0,255,0,0,0,0,0,0,0,0,0,0,0,0,0,0,0,0,0,0,0,0,0,0,0,0,18,6,0,48,102,54,42,60,30,30,30,0,0,0,30,0,0,0,0,0,0,0,0,0,0,0,0,0,0
0,0,0,0,48,0,0,210,0,0,255,0,0,0,0,0,0,0,0,0,0,255,0,0,0,0,0,0,0,0,0,0,0,0,0,0,18,48,54,48,156,42,54,255,30,30,18,30,0,0,0,24,0,0,0,0,0,0,0,0,0,0,0,0
0,0,0,0,162,72,78,0,0,240,255,0,0,0,0,0,0,0,0,0,0,0,0,0,0,0,0,0,0,0,0,0,0,0,0,6,0,48,6,54,42,48,255,72,18,30,18,0,0,0,0,0,0,0,0,0,0,0,0,0,0,0,114,0
0,0,0,0,0,0,180,0,0,60,0,0,255,0,0,0,0,0,0,0,0,0,0,0,0,0,0,0,0,12,0,0,0,0,0,0,0,60,48,198,48,36,66,24,30,30,12,0,0,0,0,0,0,0,0,0,0,0,0,0,0,0,0,144
0,0,0,0,0,228,84,132,0,0,0,0,0,246,0,0,0,255,0,0,0,0,0,0,0,0,0,0,0,0,0,18,0,0,0,0,6,0,30,186,255,66,60,24,36,24,24,0,0,0,0,0,0,0,0,0,0,0,0,0,0,0,0,150
0,0,0,0,0,234,0,0,144,0,0,0,255,246,0,0,0,0,0,0,0,0,0,0,0,0,0,0,0,0,0,12,0,0,0,0,6,30,48,255,42,54,42,102,24,30,0,30,0,0,0,0,0,0,0,0,0,0,0,0,0,0,0,102
0,0,0,0,60,234,192,42,0,0,0,255,0,0,0,0,0,0,0,0,255,0,0,0,0,0,0,0,0,18,0,0,0,0,0,24,42,6,24,60,42,48,36,30,42,30,30,0,0,0,0,0,0,0,0,0,0,0,0,0,0,0,0,84
0,0,0,72,0,0,228,180,0,0,0,255,255,0,0,0,0,0,0,0,0,0,0,0,0,0,0,0,0,0,0,0,0,0,36,0,60,36,255,42,48,72,42,72,36,48,0,24,0,0,0,0,0,0,0,0,0,0,0,0,0,0,0,108
0,0,0,0,0,186,0,0,0,0,30,0,0,0,0,0,0,0,0,0,0,0,0,0,0,0,0,0,0,12,0,0,0,0,0,0,60,42,54,36,216,30,54,255,96,42,30,0,0,0,0,0,0,0,0,0,0,0,0,0,0,0,0,78
0,0,0,0,102,240,0,0,198,0,255,0,0,0,0,0,0,0,0,0,0,0,0,0,0,0,0,0,0,0,0,0,0,0,0,0,6,42,60,60,255,42,30,48,36,36,18,0,0,0,0,0,0,0,0,0,0,0,0,0,0,0,0,0
126,0,0,0,0,192,0,162,210,0,0,0,0,0,0,0,0,0,0,0,0,0,0,0,0,0,0,0,0,0,0,0,0,0,0,0,6,255,0,42,54,72,42,48,42,24,24,0,0,0,0,0,0,0,0,0,0,0,0,0,0,0,0,126
