0,0,0,32,0,0,70,12,0,0,0,0,0,0,0,0,94,0,0,0,0,0,0,0,0,0,0,0,0,0,0,0,0,0,0,0,10,24,22,24,16,12,96,8,16,0,8,0,0,0,0,0,0,0,0,0,0,0,0,0,0,0,16,0
0,0,28,0,72,0,26,0,0,28,76,0,96,0,0,0,0,0,0,0,0,0,0,0,0,0,0,0,0,0,2,0,0,0,12,0,0,18,16,14,14,12,20,10,6,8,10,0,0,8,0,0,0,0,0,0,0,0,0,0,0,0,0,38
0,0,0,0,14,0,82,36,0,0,0,0,0,0,0,0,0,0,0,0,0,0,0,0,0,0,0,0,0,0,0,0,0,0,0,8,16,14,16,14,18,16,12,12,14,0,12,0,0,0,0,0,0,0,0,0,0,0,0,0,0,0,0,28
0,0,0,0,0,22,0,16,78,0,0,0,76,0,0,0,0,0,0,0,0,0,0,0,0,0,0,0,0,0,0,8,0,0,14,4,12,20,18,16,16,16,16,12,20,12,0,0,0,0,0,0,0,0,0,0,0,0,0,0,0,30,0,0
0,0,0,0,28,82,0,0,10,0,86,0,0,0,0,0,0,78,0,0,0,0,0,0,0,0,0,0,0,0,0,0,0,2,16,10,8,18,16,54,20,96,10,12,8,10,0,0,0,0,0,0,0,0,0,0,0,0,0,0,0,0,0,0
0,0,0,0,32,0,88,0,50,0,0,0,0,0,0,0,0,0,0,0,0,0,0,0,0,0,0,0,0,0,0,0,0,0,0,0,14,10,16,44,96,14,14,12,14,12,0,0,0,0,0,0,0,0,0,0,0,0,0,0,0,0,0,0
0,0,0,24,0,0,0,86,16,0,92,0,0,0,0,0,0,0,0,0,74,0,0,0,0,0,0,0,0,0,2,6,0,0,0,14,10,16,16,20,96,12,18,18,12,8,0,0,0,0,0,0,0,0,0,0,0,0,0,0,0,0,42,0
0,0,0,0,40,0,84,80,0,20,0,0,92,0,96,0,0,0,0,0,0,0,0,0,0,0,0,0,0,0,4,0,10,16,0,14,14,14,14,12,50,14,14,16,10,0,14,0,0,0,0,0,0,0,0,0,0,0,0,0,0,0,34,0
0,0,0,0,0,0,84,18,0,0,82,0,0,0,0,0,82,0,0,0,0,0,0,0,0,0,0,0,0,0,0,0,2,14,0,8,14,14,16,16,14,16,96,20,14,26,8,0,0,0,0,0,0,0,0,0,0,0,0,0,0,0,32,0
0,0,0,0,28,88,0,0,0,96,0,0,0,0,0,0,0,0,0,0,0,0,0,0,0,0,0,0,0,0,2,0,0,0,20,12,8,14,14,12,10,24,16,14,14,12,0,0,0,0,0,0,0,0,0,0,0,0,0,0,0,0,0,28
0,0,0,0,16,84,0,0,28,88,0,14,0,0,94,0,0,0,0,0,0,0,0,0,0,0,0,0,0,0,0,0,0,0,0,22,0,18,14,18,96,16,16,14,10,12,0,0,0,0,0,0,0,0,0,0,0,0,0,0,0,0,0,30
0,0,0,0,0,18,52,0,20,0,96,88,0,0,0,0,0,0,0,0,0,0,0,0,0,0,0,0,0,0,0,6,0,14,0,10,20,14,16,16,78,16,16,16,14,8,0,0,0,0,0,0,0,0,0,0,0,0,0,0,0,0,0,20
0,0,26,0,0,58,0,92,0,0,92,0,0,0,0,0,0,0,0,0,0,0,0,0,0,0,0,0,0,0,0,0,14,12,0,16,10,14,16,14,50,16,14,10,12,10,10,0,0,0,0,0,0,0,0,0,0,0,0,0,0,0,0,0
42,0,0,0,22,0,74,60,0,0,0,0,0,90,0,0,0,0,0,0,0,0,0,0,0,0,0,0,0,0,12,4,14,4,0,14,16,16,18,16,16,16,24,96,12,12,0,8,0,0,0,0,0,0,0,0,0,0,0,0,0,0,34,0
0,0,0,0,16,0,14,0,8,0,72,96,0,0,0,0,0,0,0,0,0,0,0,0,0,0,0,0,0,0,2,0,0,8,0,14,0,14,16,94,16,14,16,10,12,12,0,12,0,0,0,0,0,0,0,0,0,0,0,0,0,0,0,0
0,0,0,28,78,0,0,28,88,0,0,0,0,0,0,0,94,0,0,0,0,0,0,0,0,0,0,0,0,0,0,0,0,0,0,0,18,14,22,22,16,20,62,12,14,14,0,0,0,0,0,0,0,0,0,0,0,0,0,0,0,0,30,0
0,0,0,0,0,66,0,90,0,46,0,0,0,0,0,96,0,0,0,0,0,0,0,0,0,0,0,0,0,0,0,6,4,0,0,0,0,4,86,20,12,16,14,10,10,10,0,0,0,0,0,0,0,0,0,0,0,0,0,0,0,0,44,0
0,0,0,20,0,60,0,84,0,86,0,0,0,0,0,0,0,0,0,0,0,0,0,0,0,0,0,0,0,0,0,10,0,12,4,0,0,20,18,14,20,50,16,16,16,14,12,0,0,0,0,0,0,0,0,0,0,0,0,0,0,0,0,34
0,0,0,0,26,0,52,0,0,78,0,0,0,0,0,0,0,0,0,0,0,0,0,0,0,0,0,0,0,0,0,0,4,0,0,0,14,18,0,20,16,8,16,12,18,10,0,6,0,0,0,0,0,0,0,0,0,0,0,0,0,0,0,32
0,0,0,0,8,0,90,0,0,36,0,84,0,0,0,0,0,0,0,0,0,0,0,0,0,0,0,0,0,0,0,0,8,0,12,8,14,20,16,60,16,14,14,14,8,10,8,0,0,0,0,0,0,0,0,0,0,0,0,0,0,0,0,32
0,0,0,18,0,0,18,82,0,82,0,0,0,0,0,0,0,0,0,0,0,0,0,0,0,0,0,0,0,0,4,6,0,0,0,10,12,14,36,20,22,16,14,10,20,16,10,0,0,0,0,0,0,0,0,0,0,0,0,0,0,28,0,0
0,0,0,0,42,14,0,0,88,0,16,0,0,0,82,0,0,0,0,0,0,0,0,0,0,0,0,0,0,0,0,6,0,0,0,0,14,0,18,62,18,14,14,12,8,2,0,10,0,0,0,0,0,0,0,0,0,0,0,0,0,0,0,46
0,0,0,0,0,28,14,0,0,0,88,0,0,0,0,0,0,0,0,0,0,0,0,0,0,0,0,0,0,12,0,10,0,0,14,0,4,14,16,14,16,14,70,12,10,12,10,0,0,0,0,0,0,0,0,0,0,0,0,0,0,0,30,0
0,0,0,0,0,70,8,0,72,0,92,0,0,0,0,0,0,0,0,0,0,0,0,0,0,0,0,0,0,10,0,0,0,10,0,10,16,18,18,52,14,18,18,20,16,0,0,0,0,14,0,0,0,0,0,0,0,0,0,0,0,0,0,32
0,0,0,0,68,0,0,0,20,0,22,0,0,0,0,0,0,0,0,0,0,0,0,0,0,0,0,0,0,0,0,0,6,0,2,0,6,6,16,10,14,16,14,10,8,16,6,0,0,0,0,0,0,0,0,0,0,0,0,0,0,0,48,0
0,0,0,0,80,0,0,0,0,0,0,86,0,0,0,0,0,0,0,0,0,64,0,0,0,0,0,0,0,0,0,0,4,6,0,12,8,20,20,18,34,16,96,16,12,12,0,0,0,0,0,0,0,0,0,0,0,0,0,0,0,0,0,34
0,0,0,0,84,0,28,6,0,0,96,0,0,0,0,0,0,0,0,0,0,0,0,0,0,0,0,0,0,24,0,0,14,0,14,0,14,18,14,14,16,94,14,10,20,8,10,0,0,0,0,0,0,0,0,0,0,0,0,0,0,0,0,38
0,16,0,0,0,0,14,86,0,0,0,0,0,0,0,96,0,0,0,0,0,0,0,0,0,0,0,0,0,0,0,0,0,0,4,0,0,16,56,14,18,18,6,18,8,4,10,0,0,0,0,0,0,0,0,0,0,0,0,0,0,0,0,30
0,0,0,0,72,0,0,88,78,26,0,0,0,0,0,0,0,0,0,0,0,0,0,0,0,0,0,0,0,0,0,0,10,10,12,10,14,20,16,14,20,20,16,10,10,10,0,0,0,0,0,0,0,0,0,0,0,0,0,0,0,0,0,44
0,0,0,14,0,0,16,74,0,72,82,0,0,12,0,0,0,0,0,0,0,0,0,0,0,0,0,0,0,0,0,2,8,10,0,10,16,14,14,20,16,16,14,16,14,8,0,0,0,0,0,0,0,0,0,0,0,0,0,0,0,0,26,0
0,0,0,0,0,50,0,0,88,0,0,6,0,0,16,0,0,0,0,0,0,0,0,0,0,0,0,0,0,16,0,10,0,0,0,0,0,0,22,18,20,18,16,16,12,8,0,0,0,0,0,0,0,0,0,0,0,0,0,0,0,0,30,0
0,36,0,0,0,0,82,0,0,76,0,0,0,0,0,0,0,0,0,0,0,0,0,0,0,0,0,0,0,0,0,0,12,10,0,0,10,14,16,14,12,20,10,14,10,14,8,0,0,0,0,0,0,0,0,0,0,0,0,0,0,0,0,20
0,0,0,0,0,24,0,92,44,0,10,0,0,0,0,0,0,0,0,0,0,0,0,0,0,0,0,0,0,0,10,0,0,0,0,0,0,6,20,22,16,14,18,12,8,12,0,10,0,0,0,0,0,0,0,0,0,0,0,0,0,0,0,0
34,0,0,0,0,0,36,92,0,0,80,0,96,0,0,0,0,0,0,0,0,0,0,0,0,0,0,0,0,0,0,0,4,0,8,14,16,0,16,94,18,16,10,14,8,0,0,0,0,0,0,0,0,0,0,0,0,0,0,0,0,0,0,30
0,0,0,0,0,16,84,40,0,0,82,0,0,0,0,0,0,0,0,0,0,0,0,0,0,0,0,0,0,0,0,0,8,0,18,0,18,20,20,18,12,16,16,6,18,14,0,0,0,0,0,0,0,0,0,0,0,0,0,0,0,0,26,0
0,0,0,0,26,84,0,24,0,0,72,0,0,0,0,0,0,0,0,0,0,0,0,0,70,0,0,0,0,0,0,0,0,0,4,16,10,18,14,20,16,96,28,16,14,12,10,0,0,0,0,0,0,0,0,0,0,0,0,0,0,0,0,28
0,0,0,0,78,24,0,80,14,0,0,96,0,0,0,0,0,0,0,0,0,0,0,0,0,0,0,0,0,0,0,0,0,0,0,10,14,12,14,16,96,12,14,20,8,14,0,0,0,0,0,0,0,0,0,0,0,0,0,0,0,0,36,0
0,0,0,0,0,60,72,84,0,0,0,0,0,0,0,96,0,0,0,0,0,0,0,0,0,0,0,8,0,0,0,0,0,4,8,0,0,2,22,94,22,14,16,20,18,8,0,10,0,0,0,0,0,0,0,0,0,0,0,0,0,0,0,44
0,0,0,0,0,0,0,84,14,0,0,0,92,0,0,0,0,84,0,0,0,0,0,0,0,0,0,0,0,0,10,0,6,10,0,12,14,22,14,26,24,96,18,12,14,10,10,0,0,0,0,0,0,0,0,0,0,0,0,0,0,0,0,28
0,0,0,0,0,26,72,0,88,0,0,0,0,86,0,0,0,0,0,0,0,0,0,0,0,0,0,0,0,0,0,6,12,0,0,0,0,14,14,16,96,16,12,10,16,14,0,0,0,0,0,0,0,0,0,0,0,0,0,0,0,0,0,22
0,26,0,0,0,78,0,12,80,0,0,0,0,0,0,80,0,0,0,0,0,0,0,0,0,0,0,0,0,0,0,2,14,0,0,8,18,20,16,42,10,96,14,14,14,10,10,0,0,0,0,0,0,0,0,0,0,0,0,0,0,0,0,36
0,0,0,0,0,24,0,82,12,0,0,0,0,0,96,0,0,0,0,0,0,0,0,0,0,0,0,0,0,20,0,0,4,0,0,12,14,56,18,20,18,14,20,18,20,14,4,0,0,0,0,0,0,0,0,0,0,0,0,0,0,0,0,24
0,0,0,0,14,0,74,0,52,0,72,0,0,0,0,0,0,0,0,0,0,0,0,0,0,0,0,0,0,0,12,0,0,0,0,14,14,16,36,14,16,16,14,14,8,8,10,0,0,0,0,0,0,0,0,0,0,0,0,0,0,0,0,32
0,0,0,0,0,14,16,68,0,0,92,0,0,0,0,0,0,0,0,0,0,0,0,0,0,0,0,0,0,0,20,0,12,0,8,8,18,14,14,12,48,14,20,16,6,12,0,0,0,0,0,0,0,0,0,0,0,0,0,0,0,0,0,18
0,0,0,0,0,28,0,0,24,10,0,84,0,0,0,0,0,0,0,0,0,0,0,0,0,0,0,0,0,0,10,0,4,10,0,10,12,16,14,16,44,8,14,14,12,12,0,0,0,0,0,0,0,0,0,0,0,0,0,0,0,12,0,0
18,0,0,0,52,0,0,16,70,0,78,0,0,0,0,0,0,0,14,0,0,0,0,0,0,0,0,0,0,0,0,14,0,16,12,6,14,12,16,22,14,16,12,12,12,8,10,0,0,0,0,0,0,0,0,0,0,0,0,0,0,0,0,16
0,0,0,14,0,0,0,0,0,0,0,78,0,0,0,12,0,0,0,0,0,0,0,0,0,0,0,0,14,0,0,10,4,12,0,0,2,16,18,24,10,20,10,14,14,10,10,0,0,0,0,0,0,0,0,0,0,0,0,0,0,0,0,32
0,0,0,0,0,24,46,84,0,20,78,0,0,0,0,0,0,0,0,0,0,0,0,0,0,0,0,0,0,0,14,0,4,0,12,24,12,16,16,16,24,18,16,14,6,10,0,0,0,0,0,0,0,0,0,0,0,0,0,0,0,0,24,0
0,0,0,0,0,18,80,82,16,0,0,0,0,0,0,0,0,0,0,0,0,0,0,0,0,0,0,0,0,0,0,4,8,0,10,14,8,14,16,18,20,12,14,10,14,12,6,0,0,0,0,0,0,0,0,0,0,0,0,0,0,0,0,28
0,0,0,0,0,0,22,88,0,74,0,0,0,0,0,0,0,0,0,0,0,0,0,0,0,0,0,0,0,0,0,0,0,12,12,0,16,18,22,18,14,20,10,12,18,14,6,10,0,0,0,0,0,0,0,0,0,0,0,0,0,0,50,0
