63,0,0,0,0,90,96,0,24,0,0,0,144,129,0,0,0,0,0,0,0,0,0,0,0,0,0,0,0,0,0,0,0,21,0,9,18,27,30,57,33,30,18,42,15,18,9,9,0,0,0,0,0,0,0,0,0,0,0,0,0,0,0,57
0,0,0,0,72,0,105,15,0,0,0,144,120,0,0,0,0,0,0,0,0,0,0,0,0,0,0,0,0,3,0,0,0,0,0,15,3,21,27,33,141,24,24,36,18,9,0,9,9,0,0,0,0,0,0,0,0,0,0,0,0,0,0,0
0,0,0,0,39,96,15,0,108,0,36,0,141,0,0,0,0,0,0,0,0,0,0,0,0,0,0,0,0,0,0,0,0,0,0,0,9,18,24,27,30,33,18,33,33,18,9,0,0,0,0,0,0,0,0,0,0,0,0,0,0,0,0,0
75,0,0,0,0,0,81,0,0,0,99,0,0,144,0,0,0,0,0,0,0,0,0,0,0,0,0,0,0,0,0,0,0,0,0,0,0,33,141,24,30,24,15,42,27,0,6,0,0,12,0,0,0,0,0,0,0,0,0,0,0,0,66,0
0,0,0,0,81,0,84,0,0,0,0,0,120,0,0,0,0,0,0,0,0,0,0,0,0,0,0,0,0,0,0,0,0,0,0,3,0,30,27,30,30,144,21,6,42,15,0,6,0,0,0,0,0,0,0,0,0,0,0,0,0,0,0,0
0,57,0,0,87,96,39,0,0,0,21,0,0,144,0,0,0,0,0,0,0,0,0,0,0,0,0,0,0,0,0,0,0,15,0,0,24,24,36,21,141,27,18,18,21,0,15,12,0,0,0,0,0,0,0,0,0,0,0,0,0,0,0,57
0,0,0,27,0,0,84,15,0,117,0,0,0,0,0,0,144,0,0,0,0,0,0,0,0,0,0,0,0,0,0,0,0,0,3,0,36,0,33,138,27,24,24,27,18,15,6,0,0,0,0,0,0,0,0,0,0,0,0,0,0,0,0,39
0,0,0,0,0,93,0,0,57,0,123,0,0,0,0,0,0,132,0,0,0,0,0,0,0,0,0,0,0,0,0,0,0,0,0,0,30,15,27,21,24,18,24,42,36,12,0,0,9,0,0,0,0,0,0,0,0,0,0,0,0,0,54,0
0,0,39,0,78,96,0,105,0,0,0,144,0,0,0,0,0,0,0,0,0,0,0,0,0,0,0,0,0,0,0,0,0,0,0,0,9,0,24,24,15,144,21,15,18,9,12,0,0,0,0,0,0,0,0,0,0,0,0,0,81,0,0,0
0,0,0,0,0,117,0,0,90,0,0,0,0,0,0,144,0,0,0,0,0,0,0,0,0,0,0,0,0,0,0,0,0,0,0,0,15,0,21,18,144,21,39,21,9,24,0,9,0,0,0,0,0,0,0,0,0,0,0,0,0,0,0,57
0,0,0,0,129,0,0,27,120,0,0,0,0,0,0,0,0,0,0,0,0,0,0,0,0,0,0,0,0,0,0,0,0,6,0,15,30,24,21,24,24,144,24,24,15,15,12,9,0,0,0,0,0,0,0,0,0,0,0,0,0,0,0,0
0,0,0,0,0,90,66,81,0,15,0,144,42,0,0,0,0,0,0,0,0,0,0,0,0,0,0,0,0,0,0,0,15,0,0,0,9,24,33,21,24,144,24,15,12,21,0,6,0,0,0,0,0,0,0,0,0,0,0,0,0,0,30,0
0,0,0,0,48,102,72,0,0,108,0,144,0,0,0,0,0,0,0,0,0,0,0,0,0,0,0,0,0,0,0,0,0,0,0,0,0,24,24,27,33,27,24,33,18,12,6,6,0,0,0,0,0,0,0,0,0,0,0,0,0,0,0,51
0,0,0,0,93,0,87,0,21,0,0,126,0,144,0,0,0,0,0,0,0,0,0,0,0,0,0,0,0,0,0,0,21,0,3,0,30,33,24,27,144,27,30,0,30,0,12,0,9,0,0,0,0,0,0,0,0,0,0,0,0,0,0,51
0,0,0,0,0,96,0,0,0,0,144,117,0,0,0,0,0,0,0,0,0,0,0,0,0,0,0,0,0,0,0,3,0,0,0,0,33,3,30,21,24,36,15,144,18,9,9,0,3,0,0,0,0,0,0,0,0,0,0,0,0,0,0,93
0,0,0,0,0,0,111,51,12,0,0,0,120,144,0,0,0,0,0,0,0,0,0,0,0,0,0,0,0,0,0,0,0,0,0,27,24,0,30,144,21,15,18,42,6,15,6,0,6,0,0,0,0,0,0,0,0,0,0,0,0,0,63,0
0,0,0,0,0,0,69,24,0,0,123,0,144,0,0,0,0,0,0,0,0,0,0,0,0,0,0,0,0,0,0,0,0,0,0,9,6,9,30,24,30,144,18,21,33,9,9,6,0,0,0,0,0,0,0,0,0,0,0,0,0,0,0,57
0,0,0,0,0,114,0,0,51,0,0,81,0,0,144,0,0,0,0,0,0,0,0,0,0,0,0,0,0,0,0,0,0,0,0,0,27,15,33,24,24,144,18,24,15,9,9,9,9,0,0,0,0,0,0,0,0,0,0,0,0,0,0,66
0,0,0,0,0,66,0,0,18,144,0,0,0,0,0,0,0,0,0,0,0,0,0,0,0,0,0,0,0,0,0,3,12,0,0,6,21,24,15,21,30,144,21,54,18,6,3,0,9,0,0,0,0,0,0,0,0,0,0,0,0,0,0,72
0,0,0,0,114,0,0,27,0,0,0,120,0,0,0,0,144,0,0,0,0,0,0,0,0,0,0,0,0,0,0,0,12,0,3,27,0,30,30,144,24,15,21,42,15,12,0,0,0,0,0,0,0,0,0,0,0,0,0,0,0,0,0,0
0,0,0,0,0,111,0,90,21,0,0,0,0,0,126,144,0,0,0,0,0,0,0,0,0,0,0,0,0,0,0,15,0,0,6,21,15,0,24,30,144,18,24,18,51,12,6,0,0,12,0,0,0,0,0,0,0,0,0,0,0,0,30,0
0,0,0,0,42,75,0,21,0,0,123,0,0,0,0,0,0,0,0,141,0,0,0,0,0,0,0,0,0,0,0,0,0,0,0,3,24,21,24,24,144,18,33,12,30,15,0,9,9,0,0,0,0,0,0,0,0,0,0,0,0,0,0,0
0,0,0,0,0,81,0,0,105,0,0,0,0,0,0,144,0,0,21,0,0,0,0,0,0,0,0,0,0,0,0,0,3,0,0,0,0,12,141,21,33,27,24,15,15,18,0,6,0,0,0,0,0,0,0,0,0,0,0,0,0,0,0,75
0,0,0,0,99,36,0,0,27,0,0,108,0,0,0,0,0,0,0,0,0,0,0,0,0,0,0,0,0,0,0,0,0,12,0,9,30,30,27,18,27,30,18,9,36,9,15,0,0,0,0,0,0,0,0,0,0,0,0,0,0,0,0,63
0,0,0,0,0,0,90,0,0,15,0,144,0,0,0,0,0,0,0,0,0,0,0,0,0,0,0,0,0,0,0,3,0,0,12,0,3,30,27,21,24,27,27,18,12,24,15,0,0,0,0,0,0,0,0,0,0,0,0,0,0,63,0,0
0,42,0,0,117,0,0,0,0,51,0,135,0,0,0,0,0,0,0,0,0,0,0,0,0,0,0,0,0,0,0,9,0,0,12,0,15,21,21,141,18,24,30,18,18,9,15,0,3,0,0,0,0,0,0,0,0,0,0,0,0,54,0,0
0,0,0,0,90,0,90,0,27,111,0,72,0,0,0,0,0,0,0,0,0,0,0,0,0,0,0,0,0,0,0,3,0,0,9,0,9,15,24,27,30,15,42,24,21,9,9,9,0,0,0,0,0,0,0,0,0,0,0,0,0,0,0,0
51,0,0,0,93,0,0,0,0,0,0,0,0,0,144,0,0,0,0,30,0,0,0,0,0,0,0,0,0,0,0,6,0,0,0,0,0,9,21,24,144,24,27,15,9,9,12,0,0,0,0,0,0,0,0,0,0,0,0,0,0,0,0,0
0,0,0,0,78,0,0,63,0,120,0,0,0,0,0,0,0,0,0,0,0,144,0,0,0,0,0,0,0,0,0,0,0,0,0,0,6,30,9,21,21,27,144,24,18,6,9,0,3,0,0,0,0,0,0,0,0,0,0,0,0,51,0,0
0,0,0,0,48,102,90,0,33,0,0,144,0,0,15,0,0,0,0,0,0,0,0,0,0,0,0,0,0,0,0,0,6,0,0,12,0,57,30,30,30,33,24,18,141,24,12,3,0,9,0,0,0,0,0,0,0,0,0,0,0,0,54,0
0,0,0,0,102,90,0,27,0,0,87,144,0,0,0,0,0,0,0,0,0,0,0,0,0,0,0,0,0,0,0,0,0,0,0,0,9,24,18,27,27,144,18,51,9,9,0,9,0,0,0,0,0,0,0,0,0,0,0,0,0,0,0,81
0,0,0,0,0,126,0,57,24,0,0,0,0,0,123,0,0,0,0,0,0,0,0,0,0,0,0,0,0,0,0,0,0,0,0,9,3,15,24,105,33,30,27,42,12,15,12,6,0,0,0,0,0,0,0,0,0,0,0,0,0,0,0,0
0,51,0,0,0,111,0,117,87,0,0,0,0,117,0,0,0,0,0,0,0,0,0,0,0,0,0,0,0,0,0,3,0,0,9,12,27,24,24,30,24,24,27,144,33,12,15,0,0,0,0,0,0,0,0,0,0,0,0,0,0,0,0,57
0,0,0,0,0,117,0,0,0,21,0,111,144,0,0,0,0,0,0,0,0,0,0,0,0,0,0,0,0,0,0,3,15,0,6,9,21,21,15,30,30,27,144,36,24,9,0,0,15,0,0,0,0,0,0,0,0,0,0,0,0,0,0,0
0,0,0,0,0,0,111,0,105,0,0,0,0,0,0,138,0,0,0,0,0,0,0,0,0,0,0,0,0,0,0,0,0,0,15,0,0,30,9,141,24,27,24,21,9,12,18,0,0,0,0,0,0,0,0,0,0,0,0,0,0,0,0,0
78,0,0,0,0,63,0,72,0,0,117,0,0,0,39,0,0,0,0,0,0,0,0,0,0,0,0,0,0,0,0,0,12,0,9,0,9,27,30,24,30,24,24,15,18,12,12,0,0,0,0,0,0,0,0,0,0,0,0,0,0,0,63,0
0,0,0,0,93,0,90,0,0,72,0,0,0,0,0,0,0,0,0,0,0,0,0,0,0,0,0,0,0,0,0,0,0,0,0,0,0,24,18,30,24,24,21,18,27,30,12,0,12,0,0,0,0,0,0,0,0,0,0,0,0,45,0,0
0,0,39,0,0,93,0,0,0,0,0,123,0,0,0,0,0,0,0,0,0,0,0,0,0,0,0,0,0,0,0,0,0,0,0,15,24,0,24,24,30,24,36,24,15,12,9,0,9,0,0,0,0,0,0,0,0,0,0,0,0,0,63,0
0,0,0,0,87,0,0,0,24,0,0,132,0,0,0,0,0,0,0,0,0,0,0,87,0,0,0,0,0,0,0,0,0,0,0,0,9,27,21,24,27,144,24,12,0,12,18,6,0,0,0,0,0,0,0,0,0,0,0,0,0,0,0,51
0,0,0,0,0,78,0,84,120,0,0,0,0,144,0,0,0,0,0,0,0,0,0,0,0,0,0,0,0,0,0,0,0,0,3,0,21,15,6,27,21,144,15,24,12,9,0,15,9,0,0,0,0,0,0,0,0,0,0,0,0,0,0,63
0,0,0,0,0,99,0,0,15,0,0,144,132,0,0,0,0,0,0,0,0,0,0,0,0,0,0,0,9,0,0,0,0,0,0,9,42,15,24,21,24,45,24,0,0,9,0,15,0,0,0,0,0,0,0,0,0,0,0,0,0,0,0,57
0,0,0,0,0,117,0,75,0,0,0,144,0,9,0,0,0,0,0,0,0,0,0,0,0,0,0,0,0,0,0,0,9,6,0,21,0,21,21,24,144,15,21,24,12,18,0,12,0,0,0,0,0,0,0,0,0,0,0,0,0,0,0,48
0,0,0,84,33,0,99,0,0,27,0,0,0,0,0,0,0,0,0,0,141,0,0,0,0,0,0,0,0,3,0,0,9,0,0,54,18,42,36,24,24,96,18,30,21,12,15,18,0,0,0,0,0,0,0,0,0,0,0,0,0,0,0,84
0,0,0,0,72,39,114,0,27,0,0,0,123,0,0,0,141,0,0,0,0,0,0,0,0,0,0,0,0,0,0,0,9,0,6,18,0,24,24,36,144,24,24,24,21,9,21,0,0,0,0,0,0,0,0,0,0,0,0,0,0,0,0,66
0,0,0,0,0,48,0,0,33,0,0,0,0,0,0,42,0,0,144,0,0,0,0,0,0,0,0,0,0,0,9,0,12,0,0,15,6,24,30,33,21,144,18,27,54,15,18,15,12,0,0,0,0,0,0,0,0,0,0,0,0,0,0,36
0,0,0,0,0,84,96,42,117,0,0,0,0,0,0,0,0,0,0,0,0,0,0,0,0,0,0,0,0,0,3,0,0,0,0,0,0,36,24,141,24,21,18,33,0,0,0,0,0,0,0,0,0,0,0,0,0,0,0,0,0,0,0,54
0,0,0,0,48,75,0,90,0,21,99,0,0,0,0,0,0,0,0,141,0,0,0,0,0,0,0,0,0,0,0,9,0,0,9,24,12,33,30,36,27,144,36,18,21,15,9,15,0,0,0,0,0,0,0,0,0,0,0,0,0,0,0,0
0,0,0,0,0,105,0,87,0,0,111,144,0,15,0,0,0,0,0,0,0,0,0,0,0,0,0,0,0,0,0,9,0,0,6,9,21,27,30,144,24,21,30,42,18,12,21,0,0,6,0,0,0,0,0,0,0,0,0,0,0,0,0,45
0,0,0,0,93,0,0,90,105,0,0,0,0,9,0,0,0,0,0,0,0,0,0,0,0,0,0,0,0,0,0,0,0,0,0,18,0,15,24,21,30,30,144,21,15,18,0,0,15,0,0,0,0,0,0,0,0,0,0,0,0,60,0,0
0,12,0,0,48,0,78,30,0,0,0,0,123,0,0,0,0,0,0,0,0,0,0,0,0,0,0,0,0,0,0,0,9,21,0,30,6,9,33,27,30,144,24,42,18,15,21,0,0,0,0,0,0,0,0,0,0,0,0,0,0,0,66,0
