0,0,0,0,144,255,0,90,0,0,255,255,0,0,0,0,0,0,0,0,0,0,0,0,0,0,0,0,0,9,0,0,0,0,0,0,63,0,72,255,81,255,81,63,36,36,45,0,0,0,0,0,0,0,0,0,0,0,0,0,0,0,0,162
0,0,0,0,0,153,0,0,243,0,0,0,0,255,0,255,0,0,0,0,0,0,0,0,0,0,0,0,0,0,0,0,0,0,0,0,45,0,72,144,63,63,45,36,81,36,36,0,0,0,0,0,0,0,0,0,0,0,0,0,0,0,0,162
0,0,0,0,0,0,255,255,0,117,0,0,0,0,0,0,0,255,0,0,0,0,0,0,0,0,0,0,0,0,0,9,0,0,0,27,0,45,0,255,81,90,54,81,90,45,27,27,0,0,0,0,0,0,0,0,0,0,0,0,0,0,126,0
0,0,0,0,144,0,0,0,0,216,0,0,255,0,0,0,0,0,0,0,0,0,0,0,0,0,0,0,0,0,0,0,0,0,0,63,0,0,27,45,63,63,63,45,54,45,45,27,0,0,0,0,0,0,0,0,0,0,0,0,0,0,171,0
0,0,0,0,255,63,255,0,255,0,0,0,0,0,0,0,0,0,0,0,0,0,0,0,0,0,0,0,0,0,0,0,0,0,0,36,0,90,63,63,72,45,63,45,27,27,0,18,18,0,0,0,0,0,0,0,0,0,0,0,0,0,0,0
0,0,0,0,255,255,0,0,0,72,0,255,0,0,0,0,0,0,0,0,0,0,0,0,0,0,0,0,0,0,0,0,0,0,0,45,9,27,72,63,72,45,54,108,45,27,54,27,0,0,0,0,0,0,0,0,0,0,0,0,0,0,0,189
0,0,0,0,255,0,0,0,0,45,255,0,0,0,0,255,0,0,0,0,0,0,0,0,0,0,0,0,0,0,81,0,0,0,0,63,0,27,72,144,255,63,45,63,90,0,0,0,27,0,0,0,0,0,0,0,0,0,0,0,0,0,0,108
0,0,0,0,81,255,0,0,255,0,0,0,0,63,255,0,0,0,0,0,0,0,0,0,0,0,0,0,0,0,0,0,0,0,0,81,0,90,255,81,63,255,36,72,45,36,45,0,27,0,0,0,0,0,0,0,0,0,0,0,0,0,0,0
0,0,0,0,144,234,255,0,45,0,255,0,0,0,0,0,0,0,0,0,0,0,0,0,0,0,0,0,0,18,0,0,0,0,45,72,90,63,63,144,72,72,72,45,99,0,36,0,0,0,0,0,0,0,0,0,0,0,0,0,0,0,0,153
0,0,0,255,0,255,63,0,0,0,255,0,0,0,0,0,0,0,0,0,0,0,0,0,0,0,0,0,0,0,0,0,27,0,0,0,0,81,135,90,54,54,63,99,45,27,0,117,0,0,0,0,0,0,0,0,0,0,0,0,0,0,0,0
0,108,0,0,0,0,0,0,99,0,0,255,0,0,0,0,0,0,0,0,0,0,255,0,0,0,0,0,0,0,9,0,0,0,0,0,45,63,18,81,72,255,72,63,36,36,45,0,0,0,0,0,0,0,0,0,0,0,0,0,0,0,153,0
0,0,0,0,81,90,255,0,0,255,0,0,0,255,0,0,0,0,0,0,0,0,0,0,0,0,0,0,0,9,0,0,0,0,0,0,9,0,255,90,72,63,72,45,81,27,36,0,0,0,0,0,0,0,0,0,0,0,0,0,0,0,0,81
0,0,0,0,126,0,126,255,0,255,0,0,0,0,0,0,0,0,255,0,0,0,0,0,0,0,0,0,0,0,0,0,0,0,0,81,18,54,72,45,255,63,54,36,45,36,27,0,0,0,0,0,0,0,0,0,0,0,0,0,0,0,0,135
0,0,0,144,117,0,216,243,0,255,0,0,255,0,0,0,0,0,0,0,0,0,0,0,0,0,0,0,0,0,0,0,0,0,0,0,45,72,63,45,72,255,54,126,27,0,63,36,0,0,0,0,0,0,0,0,0,0,0,0,180,0,0,0
0,0,0,0,255,255,0,153,0,255,0,0,0,0,0,0,255,0,0,0,0,0,0,0,0,0,0,0,0,0,0,0,0,0,0,0,90,0,81,54,90,63,54,54,63,36,0,0,0,0,0,0,0,0,0,0,0,0,0,0,0,0,0,135
0,0,0,90,0,162,0,255,27,0,0,255,0,0,0,0,0,0,0,0,0,0,255,0,0,0,0,0,0,0,9,0,0,27,9,0,36,0,72,63,255,255,72,90,36,45,36,0,0,0,0,0,0,0,0,0,0,0,0,0,0,0,0,189
0,0,0,0,0,255,0,0,0,54,0,255,255,0,0,0,0,0,0,0,0,0,0,0,0,0,0,0,0,0,0,0,9,0,9,45,81,72,9,255,54,54,54,90,45,81,0,0,0,0,0,0,0,0,0,0,0,0,0,0,0,0,0,108
0,0,0,0,0,153,0,0,216,0,0,0,81,0,0,0,0,0,0,0,0,0,0,0,0,0,0,0,0,0,0,0,0,0,0,27,0,27,0,36,63,27,81,144,45,0,36,36,0,0,0,0,0,0,0,0,0,0,0,0,0,0,0,135
0,0,0,0,0,255,0,255,0,189,0,0,255,0,0,0,0,0,0,0,0,0,0,0,0,0,0,0,0,0,0,0,0,0,0,90,0,81,90,45,99,45,255,63,27,45,0,27,0,0,0,0,0,0,0,0,0,0,0,0,0,0,0,207
0,0,0,0,0,180,255,0,0,225,0,0,0,0,0,0,0,0,0,0,0,0,0,0,0,0,0,0,0,0,0,0,0,0,0,0,36,72,9,90,81,54,255,90,54,0,0,45,0,0,0,0,0,0,0,0,0,0,0,0,0,0,0,153
0,0,0,0,0,0,255,0,144,0,255,255,0,0,0,0,0,0,0,0,0,0,0,0,0,0,0,0,0,0,0,0,0,9,0,0,0,108,81,72,99,81,54,72,108,18,18,36,0,0,0,0,0,0,0,0,0,0,0,0,0,162,0,0
153,0,0,0,0,255,252,0,0,0,0,0,0,0,0,0,0,255,0,0,0,0,0,0,0,0,0,0,0,0,0,0,0,0,27,0,9,81,54,255,72,72,45,9,108,27,27,18,0,0,0,0,0,0,0,0,0,0,0,0,0,135,0,0
0,0,0,0,0,255,117,27,0,0,0,255,0,0,0,0,0,0,0,0,0,0,0,0,0,0,0,0,0,0,0,0,0,0,0,0,27,27,72,72,72,63,63,81,45,45,36,0,0,0,0,0,0,0,0,0,0,0,0,0,0,0,153,0
0,0,0,54,255,255,81,0,0,255,0,0,0,0,0,0,0,0,0,0,0,0,0,0,0,0,0,0,0,0,9,0,0,0,0,0,27,72,90,36,63,54,72,54,45,36,45,36,0,0,0,0,0,0,0,0,0,0,0,0,0,0,126,0
0,0,0,0,0,0,255,162,207,0,0,0,255,0,0,0,0,0,0,0,0,0,0,0,0,0,0,0,0,0,0,0,0,0,0,0,9,0,36,255,63,63,144,45,36,18,36,0,0,0,0,0,0,0,0,0,0,0,0,0,0,0,0,0
0,0,0,0,255,117,0,45,0,255,0,0,0,0,0,0,0,0,0,0,0,0,0,0,0,0,0,0,0,0,0,0,0,0,0,0,18,0,81,72,72,63,243,81,36,63,36,0,0,0,0,0,0,0,0,0,0,0,0,0,0,0,0,135
0,0,0,0,0,108,255,36,0,0,0,0,255,0,0,0,0,0,0,0,0,0,0,0,0,0,0,0,0,0,9,0,0,63,0,36,9,81,72,72,63,90,81,27,45,0,54,0,0,0,0,0,0,0,0,0,0,0,0,0,0,0,198,0
0,0,0,0,189,255,0,72,0,0,255,0,0,0,0,0,0,0,0,243,0,0,0,0,0,0,0,0,0,0,0,0,0,45,0,0,9,18,72,72,255,63,99,63,45,72,36,0,0,0,0,0,0,0,0,0,0,0,0,0,0,0,0,0
0,0,0,90,0,255,255,81,0,0,0,255,0,0,0,255,0,0,0,0,0,0,0,0,0,0,0,0,0,0,0,9,0,27,0,72,0,63,63,225,72,255,63,36,72,45,27,0,0,0,0,0,0,0,0,0,0,0,0,0,0,0,0,153
0,0,0,0,0,255,81,171,0,255,0,0,0,0,255,0,0,0,0,0,0,0,0,0,0,0,0,0,0,0,0,9,0,0,0,9,27,54,90,63,207,63,72,36,99,27,45,0,0,0,0,0,0,0,0,0,0,0,0,0,0,0,117,0
0,0,0,117,0,0,255,72,0,255,0,0,0,0,0,0,0,0,0,0,0,0,0,0,0,0,0,0,0,0,0,0,0,0,0,63,0,72,72,72,189,45,72,117,72,54,36,0,0,27,0,0,0,0,0,0,0,0,0,0,0,144,0,0
0,0,0,0,0,0,255,0,0,63,0,0,0,0,0,0,0,0,0,0,0,0,0,0,0,0,0,0,0,0,0,9,0,0,45,0,72,72,99,81,90,63,108,81,72,45,90,0,45,0,0,0,0,9,0,0,0,0,0,0,0,0,162,0
0,0,0,0,144,207,252,27,0,255,0,0,0,0,0,0,0,0,0,0,0,0,0,0,0,0,0,0,0,0,0,0,0,0,0,0,9,72,63,81,72,90,63,126,45,45,0,45,0,0,0,0,0,0,0,0,0,0,0,0,0,0,0,81
0,0,0,0,0,255,0,0,0,162,0,255,0,0,0,0,0,0,0,0,0,0,0,0,0,0,0,0,0,0,0,9,0,0,0,0,72,81,72,63,63,45,72,54,54,36,36,18,0,0,0,0,0,0,0,0,0,0,0,0,0,0,0,90
0,0,0,0,90,255,0,135,255,0,0,0,0,0,0,0,0,0,0,0,0,0,0,0,0,0,0,0,0,0,0,0,0,0,0,0,0,72,72,135,63,54,63,45,27,72,0,0,0,0,0,0,0,0,0,0,0,0,0,0,0,0,0,171
0,0,0,0,153,135,0,234,63,0,0,255,0,0,0,0,0,0,0,0,0,0,0,0,0,0,0,0,0,9,0,0,9,0,0,0,81,81,81,90,90,45,90,90,36,45,45,27,0,0,0,0,0,0,0,0,0,0,0,0,0,0,0,207
0,0,0,36,0,255,0,216,54,0,255,0,0,0,0,0,0,0,0,0,0,0,0,0,0,0,0,0,0,0,9,0,0,0,0,0,0,81,90,72,72,72,45,63,144,45,9,0,0,0,0,0,0,0,0,0,0,0,0,0,0,0,162,0
0,0,0,0,135,255,0,126,0,0,255,0,0,0,0,0,0,0,0,0,0,0,0,0,0,0,0,0,0,0,9,0,0,0,0,0,0,90,72,72,63,63,90,54,27,27,36,0,0,0,0,0,0,0,0,0,0,0,0,0,0,0,90,0
0,0,90,0,0,0,255,0,99,0,0,0,255,0,0,0,0,0,0,0,0,0,0,0,0,0,0,0,0,0,0,0,0,0,27,54,0,63,72,72,72,90,45,54,45,27,63,0,0,0,0,0,0,0,0,0,0,0,0,0,0,0,0,0
0,0,0,0,255,108,0,0,90,0,255,0,0,0,0,0,0,0,0,0,0,0,0,0,0,0,0,0,0,0,0,0,0,0,0,54,81,81,72,72,54,72,90,81,36,36,45,0,0,0,0,0,0,0,0,0,0,0,0,0,0,0,0,135
0,0,0,0,255,0,81,0,63,0,255,0,0,0,0,0,0,0,0,0,0,0,0,0,0,0,0,0,0,0,0,0,0,0,0,36,9,72,72,63,72,63,72,45,45,36,45,36,9,0,0,0,0,0,0,0,0,0,0,0,0,153,0,0
0,0,0,0,189,135,255,0,0,0,0,0,63,0,0,0,0,0,0,0,0,0,0,0,0,0,0,0,0,0,0,0,0,9,0,9,18,0,54,63,63,54,63,54,54,27,54,0,0,0,0,0,0,0,0,0,0,0,0,0,0,0,0,0
0,0,0,0,255,81,0,0,180,0,255,0,0,0,0,0,0,0,0,0,0,0,0,0,0,0,0,0,0,0,0,0,9,0,0,0,0,72,54,63,63,81,45,45,108,63,0,45,0,0,0,0,0,0,0,0,0,0,0,0,0,0,0,0
0,0,0,0,126,234,255,63,0,0,255,0,0,0,0,0,0,0,0,0,0,0,0,0,0,0,0,0,0,0,0,0,0,0,0,27,9,81,63,63,63,63,72,90,54,54,0,45,0,0,0,0,0,0,0,0,0,0,0,0,180,0,0,0
0,0,0,0,153,0,0,255,144,0,0,0,0,0,0,0,0,0,0,0,0,0,0,0,0,0,0,0,0,0,0,0,0,0,0,0,36,27,54,45,54,63,81,36,54,45,27,0,0,0,0,0,0,0,0,0,0,0,0,0,0,0,0,189
0,0,0,0,255,135,255,0,135,255,0,63,0,0,0,0,0,0,0,0,0,0,0,0,0,0,0,0,0,0,0,0,0,0,0,27,18,27,54,81,81,72,45,54,72,27,36,0,0,0,0,0,0,0,0,0,0,0,0,0,0,0,108,0
144,0,0,0,0,0,255,72,0,0,255,0,0,0,0,0,0,0,0,0,0,0,0,0,0,0,0,0,0,0,0,0,0,9,0,0,45,63,9,63,72,63,99,72,45,45,27,0,0,0,0,0,0,0,0,0,0,0,0,0,0,0,0,0
0,0,0,0,216,135,255,0,153,255,0,0,0,0,0,0,0,0,0,0,0,0,0,0,0,0,0,0,0,0,0,0,0,0,0,0,0,63,72,81,72,63,81,108,27,63,0,0,0,0,0,0,0,0,0,0,0,0,0,0,0,0,0,0
0,0,0,0,0,255,108,0,72,255,0,0,0,0,0,0,0,0,0,0,0,0,0,0,0,0,0,0,0,0,27,0,0,0,9,0,63,0,45,54,90,72,54,54,27,90,27,0,0,0,0,0,0,0,0,0,0,0,0,0,0,0,0,144
0,153,0,0,0,255,255,0,0,108,255,0,0,0,0,0,0,0,0,0,0,0,0,0,0,0,0,0,0,0,0,0,0,9,0,0,81,63,63,54,63,54,72,63,45,0,27,27,0,0,0,0,0,0,0,0,0,0,0,0,0,0,153,0
