0,0,0,48,0,0,222,210,36,0,0,240,0,0,0,0,0,0,0,0,0,0,0,0,0,0,0,0,0,0,0,30,0,42,6,0,18,30,30,54,36,24,36,24,36,0,18,6,0,0,0,0,0,0,0,0,0,0,0,0,0,0,0,0
0,0,0,0,96,0,96,0,210,0,0,0,0,0,0,0,0,0,0,0,0,0,0,0,0,0,0,0,0,0,0,0,0,0,0,24,30,18,30,42,30,30,36,18,78,48,0,0,0,0,0,0,0,0,0,0,0,0,0,0,0,0,114,0
0,0,0,90,0,0,0,252,0,54,0,0,198,0,0,0,0,0,0,0,0,0,0,0,0,0,0,0,0,0,0,0,24,0,0,6,12,18,48,42,24,42,48,24,30,66,0,0,0,0,0,0,0,0,0,0,0,0,0,0,0,0,0,0
0,0,0,0,198,0,0,84,222,0,0,78,0,0,0,30,0,0,0,0,0,0,0,0,0,0,0,0,0,0,0,0,0,0,0,0,18,6,48,18,30,24,54,36,48,18,6,12,0,0,0,0,0,0,0,0,0,0,0,0,0,0,0,156
0,0,0,0,0,240,0,0,24,0,234,0,0,0,0,0,0,0,0,0,0,0,0,0,0,0,0,0,0,0,6,0,0,0,42,0,42,6,60,42,30,42,42,36,12,24,12,0,18,0,0,0,0,0,0,0,0,0,0,0,0,0,48,0
90,0,0,0,0,0,0,114,0,114,0,246,0,0,0,0,0,0,0,0,0,0,0,0,0,0,0,0,0,0,0,0,0,0,6,42,0,48,12,42,30,54,36,18,12,6,30,6,12,0,0,0,0,0,0,0,0,0,0,0,0,0,0,0
0,0,0,84,0,168,42,216,0,0,222,0,0,0,0,0,0,0,0,0,0,0,0,0,0,0,0,0,0,6,0,18,0,0,0,36,36,42,54,42,42,30,60,30,12,18,18,0,6,0,0,0,0,0,0,0,0,0,0,0,0,0,0,126
0,0,0,0,96,0,222,0,42,0,0,0,234,0,0,0,0,0,0,0,0,0,0,0,0,0,0,0,0,6,0,0,0,0,6,0,36,48,12,36,48,72,24,54,66,6,12,0,0,0,0,0,0,0,0,0,0,0,0,0,0,0,132,0
0,0,0,0,84,0,0,0,54,0,240,84,0,0,0,0,0,0,0,0,0,0,0,0,0,0,0,0,0,0,0,6,0,18,0,24,0,48,18,36,36,36,42,72,18,18,18,12,0,0,0,0,0,0,0,0,0,0,0,0,0,0,0,0
0,0,0,0,60,0,246,30,0,198,0,0,0,0,0,0,0,0,0,0,0,0,0,0,0,0,0,0,0,0,0,0,0,0,0,6,0,36,30,24,36,30,42,72,0,42,18,0,0,0,0,0,0,0,0,0,0,0,0,0,0,0,102,0
0,0,0,0,0,180,0,0,102,0,228,0,0,0,0,0,0,0,0,0,0,0,0,0,0,0,0,0,0,0,6,0,0,0,0,18,0,24,30,30,30,30,24,72,12,18,30,0,216,0,0,0,0,0,0,0,0,0,0,0,0,0,0,0
0,0,0,0,102,246,0,0,48,0,255,0,0,0,0,0,0,0,0,0,0,0,0,0,0,0,0,0,0,0,0,0,0,6,0,0,6,30,36,42,42,42,48,255,42,12,6,12,0,0,0,0,0,0,0,0,0,0,0,0,0,0,0,0
0,0,0,0,156,0,216,90,255,126,0,0,0,255,0,0,0,0,0,0,0,0,0,0,0,0,0,0,0,0,0,0,6,24,6,0,24,42,42,30,60,138,30,24,48,36,0,0,6,0,6,0,0,0,0,0,0,0,0,0,0,0,120,0
0,0,0,0,0,90,168,0,222,0,255,0,0,60,0,0,0,0,0,0,0,0,0,0,0,0,0,0,0,0,0,0,0,48,0,6,12,30,54,84,24,36,255,42,18,30,36,0,0,0,0,0,0,0,0,0,0,0,0,0,0,0,0,108
0,0,0,102,0,246,0,42,0,0,0,255,255,0,0,0,0,0,0,0,0,0,0,0,0,0,0,0,0,0,0,0,0,0,0,18,18,30,48,36,48,255,30,30,24,18,24,6,0,0,0,0,0,0,0,0,0,0,0,0,0,0,0,72
0,0,0,0,84,216,72,90,0,210,0,0,0,255,0,0,0,0,0,0,0,0,0,0,0,0,0,0,0,0,0,0,0,0,0,0,36,60,6,72,48,255,30,30,66,0,18,0,0,0,0,0,0,0,0,0,0,0,0,0,0,0,0,108
0,0,0,0,0,0,120,144,0,174,0,0,255,0,0,0,0,0,0,0,0,0,0,0,0,0,0,0,0,6,0,0,0,0,0,0,42,36,0,72,36,255,42,42,6,66,18,0,0,0,0,0,0,0,0,0,0,0,0,0,0,0,114,0
0,0,0,0,0,96,0,48,216,0,0,0,0,0,255,0,0,0,0,0,0,0,0,0,0,0,0,0,0,0,0,0,6,0,0,48,18,24,48,30,36,42,48,84,30,24,0,0,18,0,0,0,0,0,0,0,0,0,0,0,0,0,0,0
0,0,0,0,60,168,228,42,0,216,42,0,0,0,255,0,0,0,0,0,0,0,0,0,0,0,0,0,0,0,0,0,6,0,0,18,42,30,36,42,255,60,78,30,18,18,18,0,0,0,0,0,0,0,0,0,0,0,0,0,0,0,0,0
0,0,0,0,84,132,186,255,240,0,0,0,0,0,0,0,0,0,0,0,0,0,0,0,0,0,0,0,0,0,0,0,0,0,0,0,48,30,0,120,18,48,42,18,36,24,18,12,0,0,0,0,0,0,0,0,0,0,0,0,0,0,0,0
0,0,0,0,72,0,228,0,0,0,234,0,0,255,0,0,0,0,0,0,0,0,0,0,0,0,0,0,0,0,0,0,0,0,0,6,6,42,48,42,174,60,72,24,24,30,12,0,0,0,0,0,0,0,0,0,0,0,0,0,0,0,0,84
0,0,0,210,0,72,216,0,84,222,255,0,0,0,0,0,0,0,0,0,0,0,0,0,0,0,0,0,0,0,0,0,24,42,0,6,42,18,42,198,30,30,48,36,18,24,255,0,0,0,0,0,0,0,0,0,0,0,0,0,0,0,138,0
0,0,0,0,42,0,30,0,246,255,0,255,0,0,0,0,0,0,0,0,0,0,0,0,0,0,0,0,0,0,0,6,0,42,0,6,30,36,48,42,24,150,72,255,18,30,24,6,0,0,0,0,0,0,0,0,0,0,0,0,0,0,0,0
132,0,0,0,0,138,192,0,222,48,255,0,0,0,0,0,0,0,0,0,0,0,0,0,0,0,0,0,0,0,0,0,0,0,0,18,6,36,42,42,42,48,24,36,0,60,0,0,0,0,0,0,0,0,0,0,0,0,0,0,0,0,0,0
120,0,0,0,0,84,198,222,0,0,0,255,0,255,0,0,0,0,0,0,0,0,0,0,0,0,0,0,0,0,0,36,0,0,48,0,6,24,36,108,60,255,30,48,24,18,0,6,0,0,0,0,0,0,0,0,0,0,0,0,0,0,132,0
0,0,0,0,0,0,234,42,0,255,255,0,0,0,0,0,0,0,0,0,0,0,0,0,0,0,0,0,0,0,0,0,0,0,48,0,42,42,12,48,120,255,36,18,24,18,18,0,0,0,0,0,0,0,0,0,0,0,0,0,0,96,0,0
0,0,0,0,0,120,0,0,216,174,0,255,0,0,0,0,0,0,0,0,0,0,0,0,0,0,0,0,0,0,0,0,0,0,0,24,30,12,30,30,48,255,36,36,96,6,18,0,24,0,0,0,0,0,0,0,0,0,0,0,0,0,120,0
0,0,0,0,0,0,240,36,0,255,0,0,0,0,0,0,0,0,0,0,0,0,0,0,0,0,0,0,0,0,0,0,6,0,0,0,18,12,54,30,48,30,24,24,18,24,255,0,0,0,0,0,0,0,0,0,0,0,0,0,0,0,0,132
0,0,0,0,0,60,0,255,18,0,0,255,0,0,0,0,0,0,0,0,0,0,0,0,0,0,0,0,0,0,0,0,24,0,0,0,42,0,24,126,30,54,42,30,255,72,18,0,0,0,0,0,0,0,0,0,0,0,0,0,0,0,0,138
0,0,0,0,84,162,222,0,0,255,255,0,0,0,0,0,0,0,0,0,0,0,0,0,0,0,0,0,0,0,0,0,0,0,0,6,54,0,48,42,186,36,30,48,0,18,255,12,0,0,0,0,0,0,0,0,0,0,0,0,0,0,0,0
0,0,0,0,0,255,90,30,255,255,0,0,0,0,0,0,0,0,0,0,0,0,0,0,0,0,0,0,0,0,0,0,0,0,24,6,12,48,42,72,84,228,84,60,36,12,0,0,0,0,0,0,0,0,0,0,0,0,0,0,0,138,0,0
0,0,48,0,0,156,0,216,0,0,255,0,0,0,0,0,0,0,0,0,0,0,0,0,0,0,0,0,0,0,0,0,0,42,0,18,12,24,36,42,114,24,42,255,18,18,102,0,18,0,0,0,0,0,0,0,0,0,0,0,0,0,0,96
0,0,0,0,0,192,222,84,0,0,255,0,0,0,0,0,0,0,0,0,0,0,0,0,0,0,0,0,0,0,0,0,0,0,0,6,30,30,18,42,48,30,24,66,6,6,12,0,0,0,0,0,0,0,0,0,0,0,0,0,0,0,96,0
0,0,78,0,0,0,168,255,114,0,204,0,0,0,0,0,0,42,0,0,0,0,0,0,0,0,0,0,0,0,0,0,42,42,0,12,18,42,48,18,36,30,42,60,18,24,18,24,0,0,0,12,0,255,0,0,0,0,0,0,0,0,0,120
0,0,0,0,132,72,210,84,255,60,192,0,0,0,0,0,0,0,0,0,0,0,0,0,0,0,0,0,0,0,0,0,30,0,30,6,36,42,24,42,54,30,66,18,30,255,18,0,0,0,0,0,0,0,0,0,0,0,0,0,0,0,0,120
0,0,0,0,72,0,204,96,0,0,255,0,0,0,0,0,0,0,0,0,0,0,0,0,0,0,0,0,0,0,0,0,0,0,0,48,0,48,48,48,42,24,54,255,18,30,30,6,0,0,0,0,0,0,0,0,0,0,0,0,0,0,0,96
0,0,0,0,0,228,180,0,0,255,234,0,0,0,0,0,0,0,0,0,0,0,0,0,0,0,0,0,0,0,0,0,0,0,0,36,18,0,48,42,42,48,36,60,255,30,6,0,6,0,0,0,0,0,0,0,0,0,0,0,0,0,0,0
0,0,0,138,84,0,0,234,255,90,0,228,0,0,0,0,0,0,0,0,0,0,0,0,0,0,0,0,0,0,18,0,0,30,0,0,18,48,42,42,30,42,42,30,18,54,18,6,0,0,0,0,0,0,0,0,255,0,0,0,0,0,0,0
0,0,66,0,0,0,0,42,255,0,0,255,0,0,0,0,0,0,0,0,0,0,0,0,0,0,0,0,0,6,0,18,0,0,12,42,12,30,54,48,108,42,84,255,18,30,24,0,0,0,0,0,0,0,0,0,0,0,0,0,0,0,0,96
0,0,0,0,174,0,0,234,0,255,255,48,0,0,0,0,0,0,0,0,0,0,0,0,0,0,0,0,0,0,0,42,0,0,78,6,12,6,30,60,30,36,255,18,66,18,18,0,6,0,0,0,0,0,0,0,0,0,0,0,0,0,0,90
0,0,0,0,0,96,18,228,255,0,156,255,0,0,0,0,0,0,0,0,0,0,0,0,0,0,0,0,0,0,0,0,0,30,0,36,0,54,126,6,24,36,30,255,54,24,12,18,0,0,0,0,0,0,0,0,0,0,0,0,0,0,0,96
0,0,84,0,0,132,0,78,0,0,255,255,0,0,0,0,0,0,0,0,0,0,0,0,0,0,0,0,0,0,0,6,30,0,18,0,30,18,48,30,186,42,255,78,24,30,12,0,0,0,0,0,0,0,0,0,0,0,0,0,0,0,0,102
0,0,0,0,84,228,0,0,30,0,0,255,0,0,0,0,0,0,0,0,0,0,0,0,0,0,0,0,0,0,0,0,0,24,0,30,24,54,18,114,255,30,60,24,18,6,18,0,0,0,0,0,0,0,0,0,0,0,0,0,0,0,0,0
0,102,0,0,0,0,168,186,114,0,0,204,0,0,0,0,0,0,0,0,0,0,0,0,0,0,0,0,0,0,0,0,0,0,0,36,0,42,48,48,42,42,42,24,18,18,12,18,0,0,0,0,0,0,0,0,0,0,0,0,0,120,0,0
0,0,0,0,126,0,0,0,0,0,0,0,0,0,0,0,0,0,0,0,0,0,0,0,0,0,0,0,0,0,0,0,6,0,36,24,0,30,96,30,30,36,84,30,12,54,0,0,0,0,0,0,0,0,0,0,0,0,0,0,0,0,0,108
0,0,0,114,0,78,240,84,0,0,0,0,0,0,0,0,0,0,0,0,0,0,0,0,0,0,0,0,0,0,0,6,0,30,0,42,18,42,30,36,18,162,54,54,36,24,18,18,0,0,0,0,0,0,0,0,0,0,0,0,0,0,48,0
0,0,0,0,0,0,156,0,0,255,78,0,0,0,0,12,0,0,0,0,0,0,0,0,0,0,0,0,0,0,0,0,12,12,30,42,0,30,48,30,42,234,66,30,42,12,0,24,0,18,0,0,0,0,0,0,0,0,0,0,0,0,144,0
0,0,0,186,0,0,84,168,0,0,0,255,0,0,0,0,0,0,0,0,0,0,0,0,0,0,0,0,0,6,0,0,0,0,0,0,6,24,48,24,198,42,30,42,24,54,0,0,0,0,0,0,0,0,0,0,0,0,0,0,0,0,0,84
0,0,0,0,102,72,222,0,0,0,246,0,0,0,0,0,0,0,0,0,0,0,0,0,0,0,0,0,0,0,0,0,0,36,0,0,24,18,18,36,48,48,42,24,24,42,0,24,0,0,0,0,0,0,0,0,0,0,0,0,0,0,120,0
0,0,84,0,0,0,234,0,126,0,0,18,0,0,0,0,0,0,0,0,0,0,0,0,0,0,0,0,0,0,0,6,0,0,0,0,0,30,6,78,30,48,30,42,18,18,18,0,12,0,0,0,0,0,0,0,0,0,0,0,0,0,0,0
