231,0,0,0,0,0,0,255,0,0,255,0,0,0,0,0,0,0,0,0,0,0,0,0,0,0,0,0,0,0,0,0,0,0,0,0,63,70,49,63,63,56,84,84,49,49,42,0,0,0,0,0,0,0,0,0,0,0,0,0,0,0,0,0
0,161,0,0,0,161,0,252,255,0,0,0,0,0,0,63,0,0,0,0,0,0,0,0,0,0,0,0,0,0,0,0,35,0,0,0,0,63,63,56,49,70,63,91,42,0,42,0,0,0,0,0,0,0,0,0,0,0,0,0,0,0,0,0
0,196,0,0,0,0,0,0,0,245,0,0,0,0,255,0,0,0,0,0,0,0,0,0,0,0,0,0,0,0,0,0,0,42,0,0,0,63,70,35,56,42,63,77,42,35,56,0,0,0,0,0,0,0,0,0,0,0,0,0,0,0,0,0
0,0,0,0,0,210,245,0,0,255,0,0,0,0,0,0,0,0,0,0,0,0,0,0,0,0,0,0,0,0,0,0,0,0,0,0,56,77,77,70,63,35,35,70,56,42,49,0,0,0,0,0,0,0,0,0,0,0,0,0,0,0,0,238
0,0,0,0,0,126,255,0,0,0,0,0,0,0,0,0,0,0,0,0,0,0,0,0,0,0,0,0,0,0,0,7,0,0,0,35,0,70,77,63,84,70,84,49,49,0,35,0,0,0,0,0,0,0,0,0,0,0,0,0,0,0,0,231
0,0,0,0,0,147,126,255,0,252,0,0,0,0,0,0,0,0,0,0,0,0,0,0,0,0,0,0,0,0,0,0,0,0,56,0,28,84,63,70,63,77,49,63,49,49,0,0,0,35,0,0,0,0,0,0,0,0,0,0,0,0,0,168
0,0,0,0,168,0,255,0,0,0,203,0,0,0,0,0,0,0,0,0,0,0,0,0,0,0,0,0,0,0,0,21,0,0,0,0,21,56,63,70,70,63,56,98,49,35,0,0,0,0,0,0,0,0,0,0,0,0,0,0,0,0,210,0
0,0,0,0,0,224,0,0,84,255,0,0,0,0,0,0,0,0,0,0,0,0,0,0,0,0,0,0,0,0,0,35,0,0,0,21,7,70,77,56,56,63,56,49,84,42,35,0,0,0,0,0,0,0,0,0,0,0,0,0,0,0,196,0
0,0,0,112,0,0,255,0,0,0,255,0,0,0,0,0,0,0,0,0,0,0,0,0,0,0,0,0,0,0,0,0,0,28,28,56,0,56,70,70,49,56,56,70,42,0,63,0,0,0,0,0,0,0,0,0,0,0,0,0,0,0,0,245
0,0,0,84,0,255,0,0,0,84,0,0,255,0,0,0,0,0,0,0,0,0,0,0,0,0,0,0,0,0,0,7,42,0,49,35,56,63,63,126,84,56,98,56,42,35,0,0,0,0,0,0,0,0,0,0,0,0,0,0,0,0,0,0
0,0,0,0,0,252,0,0,255,0,252,0,0,0,0,0,0,0,0,0,0,0,0,0,0,0,0,0,0,0,0,0,0,0,0,0,0,77,84,77,63,49,42,42,56,84,0,0,0,0,0,0,0,0,0,0,0,0,0,0,0,0,0,210
0,0,0,0,147,245,0,126,70,0,0,255,0,0,0,0,0,0,0,0,0,0,0,0,0,0,0,0,0,0,0,0,49,28,0,49,7,49,70,56,49,63,84,70,49,28,49,0,0,0,0,0,0,0,0,0,0,0,0,0,0,0,0,231
0,0,0,154,0,255,245,0,217,0,0,0,0,0,0,0,0,0,0,0,0,0,0,0,0,0,0,0,0,0,0,0,0,0,0,0,0,35,84,49,77,77,70,35,42,49,0,0,0,0,0,0,0,0,0,0,0,0,0,0,0,0,0,203
0,0,0,0,0,0,252,255,0,0,0,0,0,0,0,0,0,0,0,0,0,0,0,0,0,0,0,0,0,0,0,0,0,0,0,28,56,28,70,56,49,77,77,56,35,112,0,0,0,0,0,0,0,0,0,0,0,0,0,0,0,0,0,189
0,0,0,0,119,0,255,0,245,0,0,0,0,0,0,0,0,0,0,0,0,0,0,0,0,0,0,0,0,0,0,0,0,0,0,0,63,70,63,56,70,49,63,98,0,42,28,42,0,0,0,0,0,0,0,0,0,0,0,0,0,0,0,0
0,224,0,0,0,217,0,255,182,0,0,0,0,0,0,255,0,0,0,0,0,0,0,0,0,0,0,0,0,0,0,0,35,0,0,0,21,77,0,56,231,56,49,35,98,35,0,28,0,0,0,0,0,0,0,0,0,0,0,0,0,0,168,0
0,0,0,84,0,255,255,56,0,255,0,0,0,0,0,0,0,0,0,0,0,0,0,0,0,0,0,0,0,0,0,0,35,0,7,35,49,49,49,63,63,49,63,49,49,35,0,35,0,0,0,0,0,0,0,0,0,0,0,0,0,0,0,245
0,0,0,0,77,0,133,0,196,0,0,0,0,0,0,0,0,0,0,0,0,0,0,0,0,0,0,0,0,0,0,0,0,28,0,0,7,14,49,91,77,56,42,49,42,35,35,0,0,0,0,0,0,0,0,0,0,0,0,0,0,0,0,196
0,0,0,0,255,0,147,0,0,231,0,0,0,0,0,0,0,0,0,0,0,0,0,0,0,0,0,0,0,0,0,0,0,0,0,28,0,56,63,56,56,63,56,84,42,21,49,0,0,0,0,0,0,0,0,0,0,0,0,0,0,0,224,0
0,0,0,0,0,84,203,255,255,0,0,0,0,0,0,0,0,0,0,0,0,0,0,0,0,0,0,0,0,0,0,0,0,0,0,35,7,70,70,49,63,63,63,49,35,35,0,0,0,0,0,0,0,0,0,0,0,0,0,0,0,0,238,0
0,0,0,0,255,0,255,0,0,0,252,0,0,0,0,0,0,0,0,0,0,0,0,0,0,0,0,0,0,0,0,0,0,0,0,7,21,84,70,56,63,63,77,49,77,35,28,0,0,0,0,0,0,0,0,0,0,0,0,0,0,0,0,203
0,0,0,0,231,255,0,0,255,0,0,0,0,0,0,0,0,0,0,0,0,0,0,0,0,0,0,0,0,0,0,7,35,0,0,0,35,63,49,70,56,56,63,49,42,28,0,42,0,0,0,0,0,0,0,0,0,0,0,0,0,0,0,168
0,0,0,0,0,119,0,0,255,98,255,0,0,0,0,0,0,0,0,0,0,0,0,0,0,0,0,0,0,0,7,0,0,7,0,0,0,35,63,112,56,63,42,84,42,42,56,0,0,0,0,0,0,0,0,0,0,0,0,0,0,0,0,0
203,0,0,0,0,245,255,210,0,0,0,0,0,0,0,255,0,0,0,0,0,0,0,0,0,0,0,0,0,0,0,0,0,0,0,0,0,14,175,21,49,63,49,35,35,42,0,0,0,0,0,0,0,0,0,0,0,0,0,0,0,0,0,231
0,0,0,0,0,255,0,0,189,0,0,0,0,0,0,0,0,0,0,0,0,0,0,0,0,0,0,0,0,0,0,7,0,0,42,0,0,56,56,70,77,56,63,56,14,35,42,0,0,0,0,0,0,0,0,0,0,0,0,0,0,0,0,203
0,0,0,0,252,0,255,0,0,0,255,0,0,0,0,0,0,0,0,0,0,0,0,0,0,0,0,0,0,0,0,0,0,0,0,0,42,63,84,70,77,63,42,35,63,0,0,28,0,0,0,0,0,0,0,0,0,0,0,0,0,0,0,210
0,0,0,0,255,0,0,0,255,0,0,0,0,0,0,0,0,0,0,0,0,0,0,0,0,0,0,0,0,0,0,0,0,0,35,49,0,70,70,56,70,49,56,35,7,63,28,0,0,0,0,0,0,0,0,0,0,0,0,0,0,0,0,0
0,0,0,0,0,252,0,255,255,0,0,0,0,0,255,0,0,0,0,0,0,0,0,0,0,0,0,0,0,7,0,0,0,0,35,0,63,0,77,112,70,35,84,63,35,42,0,42,0,0,0,0,0,0,0,0,0,0,0,0,0,0,0,0
217,0,0,0,0,210,0,255,255,0,0,0,0,0,0,0,0,0,0,0,0,0,0,0,0,0,0,0,0,0,7,0,0,0,0,0,21,56,70,63,49,56,49,63,49,28,28,0,0,0,0,0,0,0,0,0,0,0,0,0,0,0,0,189
0,0,0,0,0,98,255,0,0,63,0,0,255,0,0,0,0,0,0,0,0,0,0,0,0,0,0,0,0,28,0,0,28,28,0,49,63,70,70,77,56,210,49,70,49,35,7,0,0,0,0,0,0,0,0,0,0,0,0,0,0,0,0,0
0,0,196,0,0,224,0,255,0,231,0,0,0,0,0,0,0,0,0,0,0,0,0,0,0,0,0,0,0,0,0,0,0,0,35,0,63,35,63,56,70,56,70,56,42,14,42,0,0,0,0,0,0,0,0,0,0,0,0,0,0,0,0,0
245,0,0,0,0,238,255,0,0,255,0,0,0,0,0,0,0,0,0,0,0,0,0,0,0,0,0,0,0,0,0,0,0,28,0,0,42,70,70,77,70,231,105,56,49,35,42,0,0,0,0,0,35,0,0,0,0,0,0,0,0,189,0,0
0,0,0,119,0,0,154,252,112,0,0,255,0,0,0,0,0,0,0,0,0,0,0,0,231,0,0,0,0,0,7,0,49,0,35,56,56,56,77,168,63,70,63,63,42,35,28,0,0,0,0,0,0,0,0,0,0,0,0,0,0,0,0,0
0,0,0,0,0,0,0,252,0,70,255,0,255,0,0,0,0,0,0,0,0,0,0,0,0,0,0,0,0,0,0,0,42,70,49,70,35,28,63,70,105,84,56,255,42,49,0,49,0,0,0,0,0,0,0,0,0,0,0,0,0,0,0,217
0,0,0,0,0,255,0,0,0,217,255,0,0,0,0,0,0,0,0,0,0,0,0,0,0,0,0,0,0,0,0,0,0,0,0,7,63,77,255,63,77,63,56,56,49,35,35,0,0,0,0,0,0,0,0,0,0,0,0,0,0,0,0,147
0,0,0,0,0,255,0,0,0,0,0,0,0,0,0,0,0,0,0,255,0,0,0,0,0,0,0,0,0,0,0,7,0,0,28,63,56,63,84,77,63,49,63,70,42,42,49,0,0,0,0,0,0,0,0,0,0,0,0,0,0,0,0,189
0,0,0,0,98,0,255,0,0,0,63,0,0,0,255,0,0,0,0,0,0,0,0,0,0,0,0,0,0,0,0,0,49,42,42,7,63,63,255,63,70,70,70,63,91,42,49,0,0,0,0,0,0,0,0,0,0,0,0,0,0,0,0,210
0,0,0,0,0,231,0,0,0,0,224,0,0,0,0,0,0,0,0,0,0,0,0,0,0,0,0,0,0,0,0,0,0,0,0,0,0,42,70,70,63,70,255,49,35,7,56,0,0,0,0,0,0,0,0,0,0,0,0,0,0,0,0,0
175,0,0,0,0,0,0,255,0,255,255,0,0,0,0,0,0,0,0,0,0,0,0,0,0,0,0,0,0,0,7,0,0,0,0,0,56,49,56,255,56,49,70,70,42,35,0,0,0,0,0,0,0,0,0,0,0,0,0,0,0,0,0,112
0,0,0,0,0,210,252,0,0,231,0,0,0,255,0,0,0,0,0,0,0,0,0,0,0,0,0,0,0,0,0,0,0,0,0,28,56,21,70,255,63,49,63,112,42,42,0,0,0,0,0,0,0,0,0,0,0,0,0,0,0,0,0,0
140,0,0,0,0,245,255,0,0,182,0,0,0,70,0,0,0,0,0,0,0,0,0,0,0,0,0,0,0,0,0,21,0,0,0,14,35,84,63,70,56,63,42,56,91,35,35,0,0,0,0,0,0,0,0,0,0,0,0,0,0,0,147,0
0,0,0,0,0,182,0,255,252,0,0,0,0,0,0,0,0,255,0,0,0,0,0,0,0,0,0,0,0,0,0,0,14,0,0,0,0,63,56,70,63,255,63,56,91,56,28,0,0,0,0,0,0,0,0,0,0,0,0,0,0,0,0,0
0,0,0,0,98,140,189,255,0,0,0,56,0,0,0,0,0,0,0,0,0,0,0,0,0,0,0,0,0,0,0,0,0,0,7,0,21,21,49,70,255,42,42,56,49,42,35,0,0,0,0,0,0,0,0,0,0,0,0,0,0,0,0,0
0,0,0,0,0,175,0,0,0,0,0,0,0,255,0,0,0,0,0,0,0,0,0,0,0,0,0,0,0,0,0,0,0,0,0,7,35,56,63,255,70,77,77,0,42,42,21,0,0,0,0,0,0,0,0,0,0,0,0,0,0,0,0,196
0,0,0,231,42,0,0,182,255,0,0,255,0,0,0,0,0,0,0,0,0,0,0,0,0,0,0,0,0,0,0,0,0,0,0,35,56,0,77,63,77,255,98,56,42,42,28,0,0,0,0,0,0,0,0,0,0,0,0,0,0,0,0,0
0,0,0,0,0,147,0,0,255,0,0,0,255,0,0,0,0,0,0,0,0,0,0,0,0,0,0,0,0,0,0,0,28,0,0,0,0,63,56,56,56,255,56,42,28,49,0,0,42,0,0,0,0,0,0,0,0,0,0,0,0,0,175,0
0,0,0,0,0,0,203,70,0,255,0,0,0,0,0,0,0,0,0,0,0,0,0,0,0,0,0,0,0,0,0,7,42,49,21,0,56,63,56,56,63,70,70,255,49,56,0,0,49,0,0,0,0,0,0,0,0,0,0,0,0,0,0,0
175,0,0,0,0,0,0,0,255,255,255,0,0,0,0,0,0,0,0,0,0,0,0,0,0,0,0,0,0,0,35,0,0,0,7,35,42,255,56,77,84,63,42,84,49,35,0,35,0,0,0,0,0,0,0,0,0,0,0,0,0,0,196,0
0,0,0,49,0,0,217,0,255,0,0,255,0,56,0,0,0,0,255,0,0,0,0,0,0,0,0,0,0,0,0,0,0,7,49,56,56,56,56,56,77,63,84,56,28,35,21,0,0,0,0,0,0,0,0,0,0,0,0,0,0,0,0,210
0,0,0,0,0,105,255,0,42,0,0,255,0,255,0,0,0,0,0,0,0,0,0,0,0,0,0,0,0,7,0,0,0,56,0,70,42,63,70,255,56,56,49,63,42,42,49,0,0,0,0,0,0,0,0,0,0,0,0,0,0,0,0,0
