0,0,0,136,0,255,255,0,0,0,0,0,0,0,0,40,0,0,0,0,0,0,0,0,0,0,0,0,0,0,0,8,0,0,64,32,32,24,56,255,96,16,64,56,16,8,24,0,0,0,0,0,0,0,0,0,0,0,0,0,0,0,96,0
0,0,0,112,0,0,0,255,0,0,0,0,255,0,0,0,0,255,0,0,0,0,0,0,0,0,0,0,0,0,0,40,16,56,0,40,0,64,56,72,255,64,64,64,40,24,16,0,0,0,0,0,0,0,0,0,0,0,0,0,0,160,0,0
0,0,40,0,0,232,0,0,255,0,255,0,0,255,0,0,0,0,0,0,0,0,0,0,0,0,0,0,0,0,0,0,40,0,0,16,168,0,64,40,56,56,24,40,64,24,80,0,16,0,0,0,0,0,0,0,0,0,0,0,0,0,208,0
0,0,0,0,0,0,255,255,0,208,0,0,0,0,0,0,0,0,0,0,0,0,0,0,0,0,0,0,24,0,0,0,0,0,0,0,0,48,56,48,40,168,32,80,24,0,40,0,0,0,0,0,0,0,0,0,0,80,0,0,0,0,0,0
0,0,0,0,0,0,0,255,0,255,0,0,0,0,0,0,0,0,0,0,0,0,0,0,0,0,0,0,0,0,24,0,0,0,0,24,40,0,56,56,48,40,48,24,40,24,24,0,0,56,0,0,0,0,0,0,0,0,0,0,0,0,0,176
0,0,0,0,0,255,255,0,88,0,255,0,0,0,0,0,0,0,0,0,0,0,0,0,0,0,0,0,0,0,32,0,8,0,0,0,40,72,0,64,56,64,24,40,128,0,8,8,0,0,0,0,0,0,0,0,0,0,0,0,0,0,104,0
0,112,0,0,0,255,0,96,0,0,255,0,0,0,0,0,0,0,0,0,0,0,0,0,0,0,0,0,0,0,0,8,0,0,0,40,0,48,64,96,80,48,104,32,40,24,16,8,0,0,0,0,0,0,0,0,0,0,0,0,0,0,0,144
0,0,0,0,208,0,0,88,255,0,0,0,255,0,0,0,0,0,0,0,0,0,0,0,0,0,0,0,0,0,0,0,0,40,24,0,40,64,56,56,48,208,64,40,64,0,0,16,0,0,0,0,0,0,0,0,0,0,0,0,0,0,0,112
0,0,0,0,0,0,255,255,80,0,0,255,0,0,0,0,0,0,0,0,0,0,0,0,0,0,0,0,0,0,0,0,0,24,48,0,40,88,40,48,56,56,112,56,16,40,16,0,0,0,0,0,0,0,0,0,0,0,0,0,0,0,0,152
0,0,0,0,32,0,255,0,0,0,255,0,0,0,0,0,0,0,0,0,0,0,0,0,0,0,0,0,0,0,0,24,0,24,0,0,40,64,40,48,56,32,64,88,8,8,8,0,0,0,0,0,0,0,0,0,0,0,0,0,0,0,0,168
0,0,0,0,0,255,40,0,80,0,0,255,0,0,0,0,0,0,0,0,0,0,0,0,0,0,0,0,0,0,8,0,24,0,0,40,0,40,56,80,160,64,56,136,40,40,8,8,0,0,0,0,0,0,0,0,0,0,0,0,0,0,224,0
0,0,0,0,0,176,255,0,88,0,255,0,0,0,0,0,0,0,0,0,0,0,0,0,0,0,0,0,0,0,0,0,0,0,40,0,56,0,24,64,48,48,40,40,24,40,32,0,0,0,0,0,0,0,0,0,0,0,0,0,0,152,0,0
0,0,40,0,0,0,0,0,64,0,255,0,0,0,0,0,0,0,0,0,0,0,0,0,0,0,0,0,0,0,8,0,0,0,0,24,56,32,96,88,24,48,48,80,0,24,48,0,0,0,0,0,0,0,0,0,0,0,0,0,0,0,0,136
0,0,0,255,0,0,255,120,0,0,255,0,0,0,0,0,0,0,0,0,0,0,0,0,0,0,0,0,0,0,0,0,0,0,0,16,8,64,96,136,48,80,64,88,0,16,72,0,0,0,0,0,0,0,0,0,0,0,0,0,0,0,0,56
0,0,0,0,144,255,0,80,0,0,0,0,0,0,0,0,0,0,0,0,0,0,0,0,0,0,0,0,0,0,0,0,0,0,0,0,0,56,48,48,64,112,208,32,24,24,8,8,0,0,0,0,0,0,0,0,0,0,0,0,0,0,0,160
0,0,0,0,0,104,255,0,56,0,0,255,0,0,0,0,0,0,0,0,0,0,0,0,0,0,0,0,0,0,0,0,0,0,0,24,40,56,48,64,64,96,200,16,40,24,0,0,0,0,0,0,0,0,0,0,0,0,0,0,0,0,208,0
0,0,0,0,0,64,255,0,72,0,0,255,0,0,0,0,0,0,0,0,0,0,0,0,0,0,0,0,0,8,0,32,8,16,0,0,48,56,40,88,248,56,24,128,24,0,40,0,0,0,0,0,0,0,0,0,0,0,0,255,0,0,104,0
0,0,0,120,0,192,0,255,0,255,0,0,0,0,0,0,0,0,0,0,0,0,0,0,0,0,0,0,0,0,0,0,0,0,0,0,0,48,24,64,24,88,48,24,104,16,24,0,0,0,0,0,0,0,0,0,0,0,0,0,0,96,0,0
0,0,0,0,0,128,0,255,0,72,0,0,0,255,0,0,0,0,0,0,0,0,0,0,0,0,0,0,0,0,8,0,0,8,0,56,40,40,48,48,216,48,80,24,40,16,16,0,8,0,0,0,0,0,0,0,0,0,0,0,0,0,0,192
0,0,0,0,88,255,255,0,152,255,0,0,0,0,0,0,0,0,0,0,0,0,0,0,0,0,0,0,0,0,0,0,40,0,32,0,16,56,64,40,48,64,72,136,8,16,32,0,0,0,0,0,0,0,0,0,0,0,0,0,0,0,144,0
0,0,0,0,0,144,255,255,128,0,0,255,0,0,0,0,0,0,0,0,0,0,0,0,0,0,0,0,0,0,0,0,0,16,0,32,16,40,64,56,56,56,24,32,24,104,24,0,8,0,0,0,0,0,0,0,0,0,0,0,0,0,168,0
0,0,0,64,0,0,255,0,0,0,255,0,0,64,0,0,0,0,0,0,0,0,0,0,0,0,0,0,0,0,0,32,0,8,40,0,64,48,0,64,56,40,56,96,40,24,0,0,0,0,0,0,0,0,0,0,0,0,0,255,0,0,0,0
0,0,0,0,168,255,0,0,255,0,0,0,0,0,0,0,0,0,0,0,0,0,0,0,0,0,0,0,0,0,0,0,0,0,32,0,0,0,56,56,56,64,56,24,16,24,56,24,0,0,0,0,0,0,0,0,0,0,0,0,0,0,168,0
0,0,0,0,64,0,0,0,136,255,0,0,0,0,0,0,0,0,0,0,0,0,0,0,0,0,0,0,0,0,0,0,0,0,40,0,32,32,56,56,48,32,80,56,40,96,8,0,0,0,0,0,0,0,0,0,0,0,0,0,0,144,0,0
0,0,144,0,0,255,0,0,0,255,0,0,0,0,0,0,0,0,0,0,0,0,0,0,0,0,0,0,0,0,0,0,0,0,0,48,16,16,56,72,56,64,40,96,32,0,0,8,0,0,0,0,0,0,0,0,0,0,0,0,255,0,0,176
0,0,0,0,96,0,255,72,0,0,0,255,0,0,0,0,0,0,0,0,0,0,0,0,0,0,0,0,0,0,0,0,0,0,16,0,24,56,64,64,72,80,48,48,0,56,0,0,0,0,0,0,0,0,0,0,0,0,0,0,0,0,136,0
0,0,0,0,160,0,255,80,0,0,255,0,0,0,0,0,0,0,0,0,0,0,0,0,0,0,0,0,0,0,0,0,0,0,32,0,8,40,56,48,96,48,64,88,88,40,0,0,0,0,0,0,0,0,0,0,0,0,0,0,0,0,0,200
0,0,0,0,255,0,255,0,0,184,0,0,0,0,0,255,0,0,0,0,0,0,0,0,0,0,0,0,0,0,0,0,32,40,0,0,0,48,40,112,72,56,48,40,64,24,0,24,0,0,0,0,0,0,0,0,0,0,0,0,255,0,0,0
0,0,0,0,0,128,0,80,0,0,255,0,0,0,0,0,0,0,0,0,0,0,0,0,0,0,0,0,0,0,0,8,0,48,0,24,56,64,56,72,56,72,80,24,96,8,56,16,0,0,0,0,0,0,0,0,0,0,0,0,0,0,128,0
0,0,0,0,152,255,0,80,0,0,255,0,0,0,0,0,0,0,0,0,0,0,0,0,0,0,0,0,0,0,0,0,0,8,24,0,0,168,32,48,56,72,72,56,0,40,0,24,0,0,0,0,0,0,0,0,0,0,16,0,0,0,88,0
0,0,136,0,0,255,112,255,0,255,255,0,0,0,0,0,0,0,0,0,0,0,0,0,0,0,0,0,0,0,0,0,40,32,0,0,40,56,128,40,64,40,16,64,40,16,0,8,0,0,0,0,0,0,0,0,0,0,0,0,0,0,0,160
0,0,0,0,40,232,255,0,255,48,0,0,0,0,0,0,0,0,0,0,0,0,0,0,0,0,0,0,0,0,0,48,24,32,0,0,0,32,48,48,56,56,56,64,56,32,32,0,0,0,0,0,0,0,0,0,0,0,0,0,0,152,0,0
0,0,0,96,0,255,136,72,0,255,0,0,0,88,0,0,0,0,0,0,0,0,0,0,0,0,0,0,0,16,0,0,0,0,0,40,32,56,56,64,48,40,48,40,0,120,16,0,16,0,0,0,0,0,0,0,0,0,0,0,0,0,0,160
0,0,0,0,0,120,152,255,0,56,0,0,255,0,0,0,0,0,0,0,0,0,0,0,0,0,0,0,0,0,0,0,0,0,24,16,24,72,40,64,64,56,40,88,24,16,24,0,24,0,0,0,0,0,0,0,0,0,0,0,136,0,144,0
0,0,0,96,0,255,0,0,56,0,0,0,255,0,0,0,0,0,0,0,0,0,0,0,0,0,0,0,0,0,8,0,0,0,0,0,40,64,72,48,64,64,24,64,16,24,24,0,16,0,0,0,0,0,0,0,0,0,0,0,0,0,0,112
0,0,0,0,64,216,112,0,0,208,0,0,0,0,0,0,0,0,0,0,0,0,0,0,0,0,0,0,0,0,0,0,0,0,0,8,0,56,40,72,48,64,56,32,32,8,0,0,0,8,0,0,0,0,64,0,0,0,0,255,0,168,0,0
0,0,0,240,136,0,112,255,0,0,255,0,0,0,0,0,0,0,0,0,0,0,0,0,0,0,0,0,0,0,0,0,0,0,0,0,24,96,64,40,24,56,40,24,56,16,24,16,0,0,0,0,0,0,0,0,0,0,0,0,0,0,0,160
0,0,0,0,0,0,200,80,255,0,0,0,255,0,0,0,0,0,0,0,0,0,0,0,0,0,0,0,0,0,40,0,0,0,0,8,40,64,56,48,80,56,88,56,24,0,16,0,0,0,0,0,0,0,184,0,0,0,0,0,0,0,0,160
0,0,0,0,120,0,255,0,255,0,56,255,0,0,0,0,0,0,0,0,0,0,0,0,0,0,0,0,0,0,0,0,0,0,32,0,48,72,72,64,40,255,24,88,40,16,16,16,0,0,0,0,0,0,0,0,0,0,0,0,0,0,0,0
0,208,0,0,0,255,0,255,0,0,255,136,0,255,0,0,0,0,0,0,0,0,0,0,0,0,255,0,0,0,0,0,0,32,0,16,56,40,0,48,255,32,72,56,8,32,16,0,0,0,0,0,0,0,0,0,0,0,0,255,0,0,184,0
0,0,0,0,0,128,255,255,0,0,192,0,255,0,0,0,0,0,0,0,0,0,0,0,0,0,0,0,0,0,0,0,0,32,0,0,8,56,0,48,56,255,24,56,48,0,0,0,0,0,0,0,0,0,0,0,0,0,0,0,0,0,0,0
0,176,0,0,224,0,255,152,0,0,0,255,0,0,0,0,0,0,0,0,0,0,0,0,0,0,0,0,0,0,0,0,0,40,0,40,8,32,40,40,64,255,112,24,24,8,24,0,8,0,0,0,0,0,0,0,0,0,0,0,0,0,0,96
0,0,0,0,72,168,88,0,255,255,128,255,0,0,0,0,0,0,0,0,0,0,0,0,0,0,0,0,0,0,8,0,48,0,0,0,40,40,72,80,40,255,96,40,16,24,16,0,0,0,0,0,0,0,0,0,0,0,128,0,0,0,0,160
0,0,0,0,0,0,160,0,255,0,0,255,255,0,0,0,0,0,0,0,0,0,0,0,0,0,0,0,0,0,24,0,40,0,32,32,32,64,56,48,208,255,72,72,0,8,8,8,0,0,0,0,0,0,0,0,0,0,0,0,0,0,0,176
0,0,0,0,0,0,0,255,56,0,255,0,255,0,0,0,0,0,0,0,0,0,0,0,0,0,0,0,0,0,0,32,0,48,48,0,80,8,64,56,255,40,48,88,32,24,8,8,0,0,0,0,0,0,0,0,0,0,0,0,0,0,0,136
0,0,0,0,0,255,255,0,120,0,255,0,0,0,0,0,0,255,0,0,0,0,0,0,0,0,0,0,0,0,0,0,24,0,0,32,0,64,64,96,88,24,255,40,8,16,8,8,0,0,0,0,0,0,0,0,0,0,0,0,144,0,160,0
0,0,0,184,0,0,0,255,0,0,255,0,0,0,0,0,0,0,0,0,0,0,0,0,0,0,0,0,0,0,0,8,8,0,0,0,40,64,40,112,255,64,48,96,24,24,0,8,0,0,0,0,0,0,0,0,0,0,0,0,0,0,0,120
0,0,0,0,0,72,128,0,0,0,0,0,0,0,255,0,0,0,0,0,0,0,0,0,0,0,0,0,0,0,16,0,0,0,0,32,40,40,64,24,255,72,112,40,32,0,24,0,0,0,0,0,0,0,0,0,0,0,0,0,0,0,184,0
0,0,0,0,88,0,0,0,64,0,0,255,0,0,255,0,0,0,0,0,0,0,0,0,0,0,0,16,0,0,0,8,56,0,0,0,48,32,40,104,72,255,56,32,32,32,8,16,0,0,0,0,0,0,0,0,0,0,0,0,0,0,0,184
0,0,0,0,0,192,0,0,0,224,0,88,0,80,0,0,0,0,0,0,0,0,0,0,0,0,0,0,0,16,0,24,0,0,40,40,56,0,56,255,56,40,56,8,96,16,16,8,0,0,0,0,0,0,0,0,0,0,0,0,0,0,0,152
