0,0,0,0,0,0,120,0,185,0,0,0,0,0,0,0,0,0,0,0,0,0,0,0,0,0,0,0,0,0,0,5,0,0,0,0,20,10,10,15,15,25,25,40,10,35,15,5,0,0,0,0,0,0,0,0,0,0,0,0,0,0,0,75
0,0,0,0,90,0,65,0,0,0,0,150,0,0,0,0,0,0,0,0,0,0,0,0,0,0,0,0,0,0,5,0,0,0,0,0,10,25,50,30,20,15,60,45,40,15,15,0,0,0,0,0,0,0,0,0,0,0,0,0,0,0,0,0
0,0,0,0,140,85,160,45,0,0,0,0,0,0,0,0,0,0,0,0,0,0,0,0,0,0,0,0,0,0,0,0,0,0,0,0,20,0,40,45,60,30,55,15,15,15,10,0,25,0,0,0,0,0,0,0,0,0,0,0,0,0,115,0
0,0,0,0,135,55,140,0,15,0,225,0,0,0,0,0,0,0,0,0,0,0,0,0,0,0,0,0,0,0,0,0,0,25,0,25,15,25,80,25,55,35,40,20,35,5,0,0,0,0,0,0,0,0,0,0,0,0,0,0,0,0,0,0
0,0,0,0,70,165,0,0,50,230,0,0,0,0,70,0,0,0,0,0,0,0,0,0,0,0,0,0,0,0,5,0,5,10,0,10,15,10,45,125,25,30,30,20,20,20,5,0,0,0,0,0,0,0,0,0,0,0,0,0,0,0,75,0
0,0,0,0,0,160,0,90,0,0,145,210,0,0,0,0,0,0,0,0,0,0,0,0,0,0,0,0,0,0,0,0,10,0,10,0,5,30,75,5,20,20,45,15,20,40,0,0,0,0,0,0,0,0,0,0,0,0,0,0,0,0,0,0
0,0,0,0,80,150,0,80,0,205,0,0,0,0,0,0,0,0,0,0,0,0,0,0,0,0,0,0,0,0,0,0,0,0,0,0,0,40,15,25,65,45,50,25,15,0,15,0,0,0,0,0,0,0,0,0,0,0,0,0,45,0,0,0
0,70,0,0,120,0,0,0,50,0,0,230,0,0,0,0,0,0,0,0,0,0,0,0,0,0,0,0,0,0,0,0,0,0,5,0,20,15,15,35,15,125,35,40,20,25,0,0,0,0,0,0,0,0,0,0,0,0,0,0,0,0,0,130
0,0,0,0,0,165,115,0,0,90,0,215,0,0,0,0,0,0,0,0,0,0,0,0,0,0,0,0,0,0,0,0,5,5,0,15,0,40,15,105,30,20,20,35,35,10,15,5,0,0,0,0,0,0,0,0,0,0,0,0,0,0,0,105
0,0,0,105,0,130,145,0,0,45,0,0,210,0,0,0,0,0,0,0,0,0,0,0,0,0,0,0,0,15,0,30,5,5,0,20,60,60,15,100,35,25,60,20,20,15,10,0,0,0,0,0,0,0,0,0,0,0,0,0,0,0,0,110
0,0,0,0,35,0,150,0,120,185,0,0,0,0,0,0,0,0,0,0,0,0,0,0,0,0,0,0,0,0,0,0,0,0,0,5,5,30,15,25,55,25,40,25,20,25,10,0,5,0,0,0,0,0,0,0,0,0,0,0,0,0,0,0
0,0,0,50,0,150,0,150,0,0,85,215,0,0,0,0,0,0,0,0,0,0,0,0,0,0,0,0,0,0,0,0,0,10,10,0,15,0,25,135,55,45,25,60,15,0,20,5,0,0,0,0,0,0,0,0,0,0,0,0,0,0,0,0
0,95,0,0,140,0,165,0,0,0,210,0,0,0,0,0,0,0,0,0,0,0,0,0,0,0,0,0,0,0,0,0,0,0,0,0,10,30,15,60,145,25,55,70,15,15,15,5,0,0,0,0,0,0,0,0,0,0,0,0,0,0,0,85
0,0,0,0,85,160,0,35,0,0,225,0,0,0,0,0,0,0,0,0,0,0,0,0,0,0,0,0,0,0,0,0,0,0,5,0,0,25,10,30,130,25,15,40,20,15,5,10,0,0,0,0,0,0,0,0,0,0,0,0,0,0,0,85
0,0,0,0,0,160,0,60,0,0,215,0,0,0,0,0,0,0,0,0,0,0,0,0,0,0,0,0,0,0,0,0,0,0,0,10,0,25,50,95,35,25,35,5,35,15,15,5,0,0,0,0,0,0,0,0,0,0,0,0,0,0,90,0
0,0,0,0,125,160,0,0,80,220,0,0,0,0,0,0,0,0,0,0,0,0,175,0,0,0,0,0,0,0,0,0,0,0,0,0,15,0,35,35,40,240,45,15,20,15,20,0,0,0,0,0,0,0,0,0,0,0,0,0,0,0,115,0
0,0,0,85,0,115,0,150,105,0,30,0,240,0,0,0,0,0,0,0,0,0,0,0,0,0,0,0,0,0,0,0,0,0,0,0,15,0,15,25,240,50,5,35,30,30,0,0,0,0,0,0,0,0,0,0,0,0,0,0,0,0,90,0
0,0,0,0,130,125,50,0,25,0,0,220,0,0,0,0,240,0,0,0,0,0,0,0,0,0,0,0,0,5,15,5,0,10,0,10,5,50,35,235,65,55,40,25,5,15,0,5,0,0,0,0,0,0,0,0,0,0,0,0,0,0,0,95
0,0,0,0,30,0,0,95,0,0,0,185,0,0,0,0,0,0,0,0,0,0,0,0,0,195,0,0,0,0,0,0,0,0,5,0,0,20,10,25,65,50,15,240,20,15,5,5,0,0,0,0,0,0,0,0,0,0,0,0,0,0,85,0
0,0,100,0,0,145,60,0,145,0,0,0,0,0,0,0,0,0,0,0,0,0,0,0,0,0,0,0,0,5,0,0,0,0,0,5,25,15,15,35,40,25,40,35,15,10,0,0,15,5,0,0,0,0,0,0,0,0,0,0,0,0,85,0
0,0,0,130,0,165,0,115,190,0,235,0,0,0,0,0,0,0,0,0,0,0,0,0,0,0,0,0,0,0,0,0,0,5,0,0,0,5,25,35,235,25,30,15,0,25,40,5,0,0,0,0,0,0,0,0,0,0,0,0,0,0,0,115
0,0,0,0,115,0,175,75,0,200,0,0,0,240,0,0,0,0,0,0,0,0,0,0,0,0,0,0,0,0,0,0,0,0,5,0,35,35,5,25,240,25,55,25,15,0,15,0,0,0,0,0,0,0,0,0,0,0,0,0,0,0,90,0
0,0,0,80,0,0,185,0,0,120,0,0,0,0,240,35,0,0,0,0,0,0,0,0,0,0,0,0,0,0,0,0,5,0,0,0,0,25,10,235,30,20,25,25,20,20,5,5,0,0,0,0,0,0,0,0,0,0,0,0,0,0,0,0
0,0,0,0,60,140,120,50,0,0,0,0,220,0,0,0,0,0,0,0,0,0,0,0,0,0,0,0,0,0,0,5,30,0,0,5,40,50,15,40,40,40,10,35,35,20,15,10,0,0,0,0,0,0,0,0,0,0,0,0,0,0,0,80
0,0,0,0,0,175,190,0,80,0,135,0,0,0,0,0,0,0,0,0,0,0,0,0,0,0,0,0,0,0,0,0,5,0,5,10,40,0,35,35,30,25,30,35,25,15,15,0,0,0,0,0,0,0,0,0,0,0,0,0,0,0,85,0
0,0,0,0,145,0,180,55,205,0,0,0,0,0,0,0,0,0,0,0,0,0,0,0,0,0,0,0,0,0,0,0,0,0,0,5,0,30,30,25,45,25,50,40,15,15,5,0,25,0,0,0,0,0,0,0,0,0,0,0,0,0,105,0
0,0,0,70,0,0,0,110,0,155,0,0,0,0,0,0,0,0,0,0,0,0,0,0,0,0,0,0,0,0,0,0,0,0,0,0,5,40,5,50,5,45,30,25,15,15,15,0,0,0,0,0,0,0,0,0,0,0,0,0,0,0,0,75
0,0,0,70,0,0,0,0,25,0,0,210,0,0,0,0,0,0,0,0,0,0,0,0,0,0,0,0,0,0,0,0,0,0,0,5,10,0,25,20,75,45,20,25,35,15,0,5,0,0,0,0,0,0,0,0,0,0,0,0,0,0,0,110
0,0,0,0,0,60,175,0,65,0,210,0,0,0,0,0,0,0,0,0,0,0,0,0,0,0,0,0,0,0,0,0,0,0,25,0,5,20,5,20,125,25,40,30,15,20,10,15,0,0,0,0,0,0,0,0,0,0,0,0,0,0,0,95
0,0,0,0,35,125,150,85,0,0,210,0,0,0,0,0,0,0,0,0,0,0,0,0,0,0,0,0,0,0,0,0,0,0,0,40,0,20,15,30,25,80,20,65,15,50,0,0,0,0,0,0,0,0,0,0,0,0,0,0,0,0,80,0
0,0,0,0,0,35,180,0,0,35,0,0,220,0,0,0,0,0,0,0,0,0,0,0,0,0,0,0,0,5,0,0,5,0,10,0,35,45,115,35,45,25,50,20,55,0,10,5,0,0,0,0,0,0,0,0,0,0,0,0,0,85,0,0
0,0,0,0,0,0,0,195,60,0,0,0,230,0,0,0,0,0,0,0,0,0,0,0,0,0,0,0,0,0,0,0,10,0,0,25,5,20,30,35,180,35,20,50,15,5,15,5,0,0,0,0,0,0,0,0,0,0,0,0,0,0,0,85
0,0,0,0,0,0,185,0,15,0,0,0,210,0,0,0,0,0,0,0,0,0,0,0,0,0,0,0,0,0,0,0,0,0,0,0,0,25,45,50,40,25,25,50,20,15,15,0,5,0,0,0,0,0,0,0,0,0,0,0,0,80,0,0
0,0,0,60,0,0,140,0,50,0,205,0,0,0,0,0,0,0,0,0,0,0,0,0,0,0,0,0,0,0,0,5,0,0,0,10,0,20,55,50,35,25,10,50,20,55,10,0,5,0,0,0,0,0,0,0,0,0,0,0,0,0,0,100
0,0,0,0,120,65,165,0,0,30,0,0,0,0,0,0,0,0,0,0,0,0,0,0,0,0,0,0,0,0,0,0,0,0,0,0,20,60,25,40,40,25,50,35,20,10,5,0,0,0,0,0,0,0,0,0,0,0,0,0,0,0,0,0
0,0,0,0,135,0,0,0,155,0,0,190,0,0,0,0,0,0,0,0,0,0,0,0,0,0,0,0,0,0,0,0,0,0,0,15,0,60,5,45,20,15,15,45,10,15,5,5,0,0,0,0,0,0,0,0,0,0,0,0,0,125,0,0
0,0,0,0,0,165,0,0,60,0,0,225,0,0,0,0,0,0,0,0,0,0,0,0,0,0,0,0,0,0,0,0,5,5,15,0,10,25,50,25,105,45,20,15,10,20,20,0,0,0,0,0,0,0,0,0,0,0,0,0,0,0,0,100
0,0,0,0,0,195,0,0,15,0,0,0,215,0,0,0,0,0,0,0,0,0,0,0,0,0,0,0,0,0,0,0,0,0,0,5,15,45,10,40,70,20,15,50,25,30,5,15,0,0,0,0,0,0,0,0,0,0,0,0,0,0,110,0
0,0,0,0,95,135,40,175,0,0,225,0,0,0,0,0,0,0,0,0,0,0,0,0,0,0,0,0,0,0,0,0,5,0,0,0,10,20,35,20,115,25,25,25,15,55,10,10,5,0,0,0,0,0,0,0,0,0,0,0,0,0,95,0
0,0,0,0,0,170,0,0,0,30,0,0,0,0,0,0,0,0,0,0,0,0,0,0,0,0,0,0,0,5,0,0,15,0,0,0,10,20,55,110,55,40,20,40,15,25,15,0,5,0,0,0,0,0,0,0,0,0,0,0,0,0,0,100
0,0,0,0,60,0,0,15,165,0,0,0,0,0,0,0,0,0,0,0,0,0,0,0,0,0,0,0,0,0,0,0,0,0,0,25,0,5,15,50,35,20,35,25,20,15,5,15,0,0,0,0,0,0,0,0,0,0,0,0,0,0,120,0
0,0,0,80,0,0,0,205,0,0,0,225,0,0,0,0,0,0,0,0,0,0,0,0,0,0,0,0,0,0,0,0,0,0,0,30,0,15,10,110,55,30,20,30,30,15,10,0,0,5,0,0,0,0,0,0,0,0,0,0,0,0,80,0
0,0,95,0,0,140,0,25,0,50,195,0,0,0,0,0,0,0,0,0,0,0,0,0,0,0,0,0,0,0,0,0,0,0,5,0,5,35,40,30,35,15,20,5,45,15,0,0,0,0,0,0,0,0,0,0,0,0,0,0,0,0,0,80
0,0,0,75,0,125,180,65,0,0,0,205,0,0,0,0,0,0,0,0,0,0,0,0,0,0,0,0,0,0,0,0,0,0,15,0,5,25,15,35,20,30,20,10,55,20,5,0,0,0,0,0,0,0,0,0,0,0,0,0,0,0,0,85
0,0,0,0,0,0,185,0,0,0,0,205,0,0,0,0,0,0,0,0,0,0,0,0,0,0,0,0,0,0,0,0,0,0,0,5,30,10,20,100,30,20,20,15,40,10,10,5,0,0,0,0,0,0,0,0,0,0,0,0,0,105,0,0
0,0,0,0,0,160,0,0,215,0,0,0,0,0,30,0,0,0,0,0,0,0,0,0,0,0,0,0,0,0,0,0,0,0,0,0,0,25,35,10,35,25,35,50,0,0,25,5,0,0,0,0,0,0,0,0,0,0,0,0,0,0,0,0
60,0,0,110,165,0,0,30,0,230,0,0,0,0,0,0,0,0,0,0,0,0,0,0,0,0,0,0,0,0,0,0,0,0,5,0,0,25,30,30,30,25,150,20,30,10,5,15,0,0,0,0,0,0,0,0,0,0,0,0,0,85,0,0
0,0,0,90,0,0,155,55,0,0,0,0,230,0,0,0,0,0,0,0,0,0,0,0,0,0,0,0,0,0,0,0,0,0,0,35,5,35,30,65,40,30,25,50,10,25,5,10,15,0,0,0,0,0,0,0,0,0,0,0,0,0,0,125
0,0,60,0,0,125,150,0,0,230,0,0,0,0,0,0,0,0,0,0,0,0,0,0,0,0,0,0,0,0,0,0,0,0,0,25,0,40,30,35,35,35,20,185,35,5,5,0,10,0,0,0,0,0,0,0,0,0,0,0,0,0,0,0
125,0,0,0,0,135,190,0,150,0,0,0,0,0,225,0,0,0,0,0,0,0,0,0,0,0,0,0,0,0,0,0,0,0,0,0,5,50,15,95,35,35,25,10,40,35,0,20,0,0,0,0,0,0,0,0,0,0,0,0,0,80,0,0
