0,0,0,0,245,0,0,0,91,0,0,0,0,0,0,0,0,0,0,0,0,0,0,0,0,0,0,0,0,0,0,0,0,21,0,0,28,0,70,0,35,28,49,56,0,49,21,7,0,0,0,0,0,0,0,0,0,0,0,0,0,0,133,0
0,0,0,0,0,70,210,0,49,0,255,0,0,0,245,0,0,0,0,0,0,0,0,0,0,0,0,0,0,0,0,0,21,0,21,0,7,21,21,161,63,63,42,35,35,21,0,0,0,0,0,0,0,0,0,0,0,0,0,0,0,0,0,147
0,0,0,0,0,196,0,0,0,255,0,0,0,0,0,0,0,0,0,0,0,0,0,0,0,0,0,0,0,0,0,0,0,0,0,0,35,0,49,28,49,133,63,35,42,14,42,0,0,0,0,0,0,0,0,0,0,0,0,0,0,0,0,0
0,0,0,0,0,210,112,0,0,255,63,0,0,0,0,0,0,0,0,0,0,0,0,0,0,0,0,0,0,0,0,0,0,0,0,0,14,21,0,42,42,119,35,21,7,14,0,0,28,0,0,0,0,0,0,0,0,0,0,0,0,0,0,189
0,0,0,0,231,196,0,0,56,0,0,0,255,0,0,0,0,0,0,0,0,0,0,0,0,0,0,0,0,0,0,0,0,14,0,0,14,14,21,70,35,77,21,28,35,0,21,0,0,0,0,0,0,0,0,0,0,0,0,0,0,0,0,175
0,0,0,0,0,196,231,0,161,0,0,0,255,0,0,0,0,0,0,0,0,0,0,0,0,0,0,0,0,0,0,0,0,0,21,0,14,14,35,147,42,35,28,35,49,28,28,14,0,0,0,0,0,0,0,0,0,0,0,0,0,0,0,0
0,0,0,0,182,0,0,112,0,0,255,0,0,0,0,0,0,0,0,0,0,0,0,0,0,0,0,0,0,14,0,14,0,0,0,0,14,49,49,28,49,70,203,42,42,21,14,14,0,0,0,0,0,0,0,0,0,0,0,0,0,0,0,140
0,0,0,0,0,182,112,0,35,0,0,255,0,0,0,0,0,0,0,0,0,0,0,0,0,0,0,0,0,0,0,0,0,7,0,35,35,42,14,49,112,70,77,49,21,7,21,0,42,0,0,0,0,0,0,0,0,0,0,105,0,0,0,175
0,0,0,0,0,255,0,0,0,0,0,0,0,0,0,0,0,0,0,0,0,0,0,0,0,0,0,0,0,0,0,0,0,14,0,7,7,28,56,56,182,63,28,0,77,21,21,0,7,0,0,0,0,0,0,0,0,0,0,0,0,0,0,56
0,0,0,0,112,210,0,112,255,0,0,0,0,0,0,0,0,0,0,0,0,0,0,0,0,0,0,0,0,0,0,0,0,0,0,0,21,7,56,49,56,28,77,91,28,21,0,0,0,0,0,0,0,0,0,0,0,0,0,0,0,0,0,0
175,0,0,0,0,98,255,0,0,56,0,0,255,0,0,0,0,0,0,0,0,0,0,0,0,0,0,0,0,0,0,0,7,7,0,14,28,56,49,42,56,84,49,42,35,35,7,7,0,0,0,0,0,0,0,0,0,0,0,0,0,0,0,0
0,0,0,0,0,255,0,84,77,0,0,255,0,0,0,0,0,0,0,0,0,0,0,0,0,0,0,0,0,0,0,28,0,7,0,14,21,70,70,217,28,49,56,42,112,21,21,0,0,0,0,0,0,0,0,0,0,0,0,0,0,0,0,147
0,0,0,0,0,175,0,0,91,0,0,255,0,0,0,0,0,0,0,0,0,0,0,0,0,0,0,0,0,0,0,0,14,0,0,0,0,35,21,28,182,42,35,28,56,21,7,14,0,0,0,0,0,0,0,0,0,0,0,0,0,0,224,0
0,0,0,0,112,0,0,238,0,0,255,0,0,0,0,0,0,0,0,0,0,0,0,0,0,0,0,0,0,0,0,0,0,0,0,0,28,21,14,56,35,77,35,91,28,35,21,0,0,0,0,0,0,0,0,0,0,0,0,0,0,0,0,126
0,0,0,0,0,63,255,77,0,28,0,255,0,0,0,0,0,0,0,0,0,0,0,0,0,0,0,0,0,0,0,0,14,0,0,7,21,35,7,28,147,28,42,35,21,56,0,0,0,0,0,0,0,0,0,0,0,0,0,0,0,0,0,119
0,0,0,0,203,0,231,0,252,0,0,0,0,255,0,0,0,0,0,0,0,0,0,0,0,0,0,0,0,0,0,0,0,0,0,0,0,21,0,28,49,42,63,49,28,21,7,0,0,0,0,0,0,0,0,0,0,0,0,0,0,0,0,119
0,0,0,0,0,255,0,224,0,0,63,255,0,0,0,0,0,0,0,0,0,0,0,0,0,0,0,0,0,0,0,7,0,0,0,7,28,42,35,28,63,49,70,70,35,7,21,7,0,0,0,0,0,0,0,0,0,0,0,0,0,0,0,140
0,0,0,0,196,112,168,0,0,0,210,0,0,0,0,255,0,0,0,0,0,0,0,0,0,0,0,0,0,0,0,0,0,0,21,0,0,0,161,21,42,70,35,49,35,56,0,14,0,0,0,0,0,0,0,0,0,0,0,0,0,0,0,161
0,0,0,0,0,231,203,0,140,0,0,0,0,0,0,0,49,0,0,0,0,0,0,0,0,0,0,0,0,0,0,0,0,0,0,0,0,21,28,21,70,14,42,49,21,14,0,0,0,0,0,0,0,0,0,0,0,0,0,0,0,0,0,91
0,0,112,0,0,203,0,119,255,0,0,0,0,0,0,0,0,0,0,0,0,0,0,0,0,0,0,0,0,0,0,0,0,0,0,0,0,14,21,56,21,35,63,42,35,21,7,0,0,0,0,0,0,0,0,0,0,0,0,0,0,0,0,0
196,0,0,0,203,154,0,0,238,0,0,0,0,0,0,0,0,0,0,0,0,0,0,0,0,0,0,0,0,0,0,0,0,0,0,0,0,14,21,35,49,49,49,63,21,0,0,0,0,0,0,0,0,0,0,0,0,0,0,0,0,0,0,203
0,0,0,0,0,224,217,0,0,77,0,0,0,255,0,0,0,0,0,0,0,0,0,0,0,0,0,0,0,0,14,0,0,0,0,7,14,63,35,224,21,42,28,56,35,35,7,0,0,0,0,0,0,0,0,0,0,0,0,0,0,0,98,0
0,0,0,0,0,196,252,0,0,98,0,0,0,0,0,0,0,0,0,0,0,0,0,0,0,0,0,0,0,0,0,0,0,0,7,0,7,14,28,63,105,49,56,98,21,21,21,0,0,0,0,0,0,0,0,0,0,0,0,0,0,0,0,133
0,0,0,0,224,203,0,0,56,0,0,0,255,0,0,0,0,0,0,0,0,0,0,0,0,0,0,0,0,7,0,0,0,0,0,0,14,0,7,203,28,42,133,42,21,21,7,21,0,0,0,0,0,0,0,0,0,0,0,0,0,0,0,182
0,0,0,0,0,182,0,49,255,0,0,0,0,0,0,0,0,0,0,0,0,0,0,0,0,0,0,0,0,0,0,0,0,7,0,0,14,35,7,28,49,49,56,21,35,7,56,0,0,0,0,0,0,0,0,0,0,0,0,0,0,0,0,161
0,0,0,0,0,196,0,63,231,0,255,0,0,0,0,0,0,0,0,0,0,0,0,0,0,0,0,0,0,0,0,0,0,0,0,7,14,28,14,35,56,56,49,42,7,21,7,0,0,0,0,0,0,0,0,0,0,0,0,0,0,0,0,0
0,0,0,161,0,196,0,0,203,0,0,0,0,0,0,0,0,0,0,0,0,0,0,0,0,0,0,0,0,0,0,0,0,0,0,0,14,28,70,7,28,56,35,0,56,21,0,21,0,0,0,0,0,0,0,0,0,0,0,0,0,0,98,0
0,0,84,0,196,0,0,0,245,0,255,0,0,0,0,0,0,0,0,0,0,0,0,0,0,0,0,0,0,0,0,0,0,0,0,14,49,49,14,21,98,42,49,56,14,28,7,0,0,0,0,0,0,0,0,0,0,0,0,0,0,0,133,0
0,0,0,0,210,252,0,70,0,0,0,255,0,0,0,0,0,0,0,0,0,0,0,0,0,0,0,0,0,0,0,7,0,0,14,7,0,35,21,21,168,35,49,35,21,21,0,0,0,7,0,0,0,0,0,0,0,0,0,0,0,0,0,0
0,0,0,0,182,0,0,255,70,0,0,0,0,0,0,0,0,0,0,0,0,0,0,0,0,0,0,0,0,0,0,0,0,14,77,0,0,14,21,35,168,49,84,49,28,14,7,7,0,0,0,0,0,0,0,0,0,0,0,0,0,140,0,0
0,0,84,0,0,0,0,0,56,0,0,255,0,49,0,0,0,0,0,0,0,0,0,0,0,0,0,0,0,0,0,0,0,7,0,0,0,35,35,49,133,42,56,91,28,7,0,35,7,0,0,0,0,0,0,0,0,0,0,0,0,0,0,154
0,0,0,0,77,0,0,77,0,0,0,255,0,0,0,0,0,0,0,0,0,0,0,0,0,0,0,0,0,0,0,0,0,7,0,14,14,28,56,210,28,42,56,7,35,21,21,0,0,0,0,0,0,0,0,0,0,0,0,0,0,0,0,175
0,0,0,0,0,210,0,0,84,0,255,0,0,0,0,0,0,0,0,0,0,0,0,0,0,0,0,0,0,0,0,0,0,0,7,0,0,14,35,7,49,224,35,56,7,21,0,0,0,0,0,0,0,0,0,0,0,0,0,0,0,0,0,161
0,0,0,0,0,182,168,0,0,245,255,0,0,0,0,0,0,0,0,0,0,0,0,0,0,0,0,0,0,0,0,0,7,0,0,0,7,14,14,42,56,49,35,77,28,21,14,7,0,0,0,0,0,0,0,0,0,0,0,0,0,0,0,0
0,0,0,0,255,0,0,49,0,0,0,0,255,0,0,0,0,0,0,0,0,0,0,0,0,0,0,0,0,0,7,0,0,0,0,21,0,49,28,63,182,42,49,42,35,21,21,0,0,0,0,0,0,0,0,0,0,0,0,0,0,133,0,0
0,0,0,0,245,98,70,210,0,0,77,0,255,0,0,0,0,0,0,0,0,0,0,0,0,0,0,0,0,0,0,0,14,0,14,0,21,49,28,126,49,84,49,70,14,35,0,7,0,0,0,0,0,0,0,0,0,0,0,0,0,0,0,112
0,0,0,0,252,0,175,0,56,0,0,0,255,0,0,0,0,0,0,0,0,0,0,0,0,0,0,0,0,0,0,14,0,21,21,0,0,35,28,56,56,49,35,42,7,14,91,0,0,0,0,0,0,0,0,0,0,0,0,0,0,0,0,0
0,0,0,0,0,255,98,0,0,0,0,255,0,0,0,0,0,0,0,0,0,0,0,0,0,0,0,0,0,0,0,0,14,0,0,0,7,35,7,35,49,42,28,98,42,21,0,7,28,0,0,0,0,0,0,0,0,0,0,0,0,98,0,0
0,84,0,0,0,217,0,0,0,0,112,0,252,0,0,0,0,0,0,0,0,28,0,0,0,0,0,0,0,0,0,14,0,0,14,0,7,21,14,42,56,56,49,98,28,21,28,0,7,0,0,42,0,0,0,0,0,0,0,0,0,0,0,161
0,0,0,77,0,0,56,0,0,0,0,0,0,14,0,0,0,0,0,0,0,0,0,0,0,0,0,0,0,0,0,0,0,0,7,0,21,35,112,21,49,42,35,35,91,14,0,0,0,0,0,0,0,0,0,0,0,0,0,0,0,0,98,0
0,0,0,0,0,0,255,0,0,0,255,0,0,0,0,0,0,0,0,0,0,0,0,0,0,0,0,0,0,0,0,0,0,0,0,0,28,21,35,14,28,42,49,35,28,28,28,0,0,0,0,0,0,0,0,0,0,0,0,0,0,0,0,133
0,0,0,0,0,140,189,0,196,0,0,0,0,0,0,56,0,0,0,0,0,0,0,0,0,0,0,0,0,0,0,0,0,0,0,0,0,21,35,35,28,42,35,35,21,35,7,7,0,0,0,0,0,0,0,0,0,0,0,0,0,0,133,0
0,0,0,0,175,0,182,161,0,0,0,0,0,0,0,0,0,0,0,0,0,0,0,0,0,0,0,0,0,0,0,0,0,7,21,0,7,42,14,42,14,42,98,56,63,7,0,0,7,0,0,0,0,0,0,0,0,0,0,0,0,0,0,112
0,0,0,0,0,231,0,0,0,0,0,0,0,0,0,0,0,0,0,0,0,0,0,0,0,0,0,0,0,0,0,0,7,0,14,7,0,21,21,35,49,28,35,119,21,35,0,0,0,14,0,0,0,0,0,0,0,0,0,0,0,0,0,189
0,0,0,0,0,196,0,0,0,70,0,0,0,255,0,0,0,0,0,0,0,0,0,0,0,0,0,0,0,0,0,0,7,0,0,0,21,42,35,56,224,63,49,35,49,7,0,7,0,0,0,0,0,0,0,0,0,0,0,0,0,0,0,161
0,0,0,0,0,0,196,0,28,0,0,0,0,0,0,0,0,0,0,0,0,0,0,0,0,0,0,0,0,0,0,0,0,0,21,7,0,49,14,42,14,70,35,77,35,7,7,0,0,0,0,0,0,0,0,0,0,0,0,0,0,0,0,105
0,0,0,0,0,0,255,0,56,252,0,255,0,0,0,0,0,0,0,0,0,0,0,0,0,0,0,0,0,0,0,14,0,0,0,14,7,42,28,35,252,35,28,35,35,7,21,0,0,0,0,0,0,0,0,0,0,0,0,0,0,0,98,0
0,0,0,35,0,203,252,140,0,182,0,0,0,0,0,0,0,0,0,0,0,0,0,0,0,0,0,0,0,0,0,0,0,0,0,0,0,21,0,49,21,28,42,21,21,112,0,7,0,0,0,0,0,0,0,0,0,0,0,0,0,0,0,161
0,0,0,0,0,217,0,0,56,0,255,0,0,0,0,0,0,0,0,0,0,0,0,0,0,0,0,0,0,0,0,0,0,7,0,7,35,21,49,35,112,77,35,49,28,21,14,21,0,0,0,0,0,0,0,0,0,0,0,0,0,0,133,0
0,0,0,0,112,133,224,0,105,0,255,0,0,0,0,0,0,0,0,0,0,0,0,0,0,0,0,0,0,0,0,0,0,0,0,0,0,35,56,35,112,35,63,35,56,21,7,21,0,0,0,0,0,0,0,0,0,0,0,0,0,0,0,0
