0,0,0,0,0,70,175,50,35,0,200,0,0,0,0,0,0,0,0,0,0,0,0,0,0,0,0,0,0,0,0,10,0,0,0,35,15,15,45,45,40,55,40,25,0,15,0,15,0,0,0,0,0,0,0,0,0,0,0,0,0,0,0,100
0,0,0,0,70,195,35,165,0,80,0,190,0,0,0,0,0,0,0,0,0,0,0,0,0,0,0,0,0,0,0,0,10,5,0,40,45,20,55,40,55,25,45,35,20,10,5,0,0,0,10,0,0,0,0,0,0,0,0,0,0,0,0,115
0,0,0,0,0,70,130,25,0,0,0,205,0,0,0,0,0,0,0,0,0,0,0,0,0,0,0,0,0,0,0,0,0,15,5,20,0,30,40,45,45,60,35,15,20,25,5,0,0,0,5,0,0,0,0,0,0,0,0,0,0,0,0,80
0,0,0,0,195,0,0,0,0,0,205,0,0,0,0,0,0,0,0,0,0,0,0,0,0,0,0,0,0,0,0,0,0,0,5,40,0,55,55,40,35,40,40,20,20,25,25,0,0,0,0,0,0,0,0,0,0,0,0,0,0,0,70,0
0,0,95,0,0,0,220,0,130,0,0,0,0,0,0,0,0,0,0,0,0,0,0,0,0,0,0,0,0,0,10,0,0,0,0,0,10,20,15,50,50,55,55,40,25,10,15,0,0,0,0,0,0,0,0,0,0,0,0,0,0,0,0,0
0,0,0,0,0,220,90,145,0,0,0,50,0,0,0,0,0,0,0,0,0,0,0,0,0,0,0,0,0,0,0,0,0,0,0,5,0,20,5,55,60,40,50,20,25,15,20,0,5,0,0,0,0,0,0,0,0,0,0,0,0,0,85,0
0,0,0,0,50,0,45,225,0,0,35,180,0,0,0,0,0,0,0,0,0,0,0,0,0,0,0,0,0,0,0,0,5,5,5,0,45,50,20,40,45,55,40,45,15,5,25,15,0,15,0,0,0,0,0,0,0,0,0,0,0,0,65,0
0,0,0,0,75,105,195,0,0,0,0,0,0,0,0,0,0,0,0,0,0,0,0,0,0,0,0,0,0,0,0,0,0,0,10,0,0,50,40,55,55,55,50,50,20,0,25,0,0,0,0,0,0,0,0,0,0,0,0,0,0,0,0,75
0,0,0,65,185,185,0,0,40,0,0,0,0,0,0,0,0,0,0,0,0,0,0,0,0,0,0,0,0,0,0,0,5,5,0,5,45,10,50,45,55,50,55,25,25,30,5,0,15,0,0,0,0,0,0,0,0,0,0,0,0,0,0,120
0,0,0,0,40,0,205,0,0,0,55,0,215,0,0,0,0,0,0,0,0,0,0,0,0,0,0,0,0,0,0,5,0,5,0,50,35,10,45,40,70,40,30,30,30,15,0,15,0,0,0,0,0,0,0,0,0,0,0,0,0,0,0,0
0,0,0,0,175,70,170,85,0,0,0,0,0,0,0,0,0,0,0,0,0,0,0,0,0,0,0,0,0,0,0,0,0,0,5,0,15,40,35,50,40,40,25,15,55,15,15,0,10,0,0,0,0,0,0,0,0,0,0,0,0,0,0,115
0,0,0,0,110,0,0,0,200,205,0,0,0,0,0,0,0,0,0,0,0,0,0,0,0,0,0,0,0,0,0,5,5,0,10,5,45,40,35,45,45,30,60,25,15,15,25,0,0,0,0,0,0,0,0,0,0,0,0,0,0,0,0,125
0,0,0,0,40,0,0,0,0,35,0,0,190,0,0,0,0,0,0,0,0,0,0,0,0,0,0,0,0,0,5,0,0,0,0,40,50,55,55,50,40,40,50,30,15,20,10,0,0,0,0,0,0,0,0,0,0,0,0,0,0,0,0,85
0,0,85,0,100,0,195,0,25,190,0,0,0,0,0,0,0,0,0,0,0,0,0,0,0,0,0,0,0,0,0,0,0,0,10,5,5,50,45,45,55,45,20,45,5,15,10,0,0,0,0,0,0,0,0,0,0,0,0,0,0,0,0,80
0,0,0,0,0,65,0,45,0,0,0,0,215,0,0,0,0,0,0,0,0,0,0,0,0,0,0,0,0,0,0,0,0,0,0,50,0,45,50,30,40,45,25,25,0,0,0,50,0,0,0,0,0,0,0,0,0,0,0,0,0,0,0,75
0,0,0,0,0,215,100,0,0,0,0,205,0,0,0,0,0,0,0,0,0,0,0,0,0,0,0,0,0,0,0,0,0,0,0,5,35,40,45,55,50,45,20,35,40,5,0,10,0,0,0,0,0,0,0,0,0,0,0,0,0,0,0,65
0,0,0,0,55,0,165,190,125,0,0,0,45,0,0,0,0,0,0,0,0,0,0,0,0,0,0,0,0,0,0,0,0,0,5,0,0,10,5,50,55,60,35,25,25,30,10,0,15,0,0,0,0,0,0,0,0,0,0,0,0,0,105,0
0,0,0,0,0,120,185,160,0,35,0,200,0,0,0,0,0,0,0,0,0,0,0,0,0,0,0,0,0,5,0,5,5,5,35,0,65,40,5,50,40,30,60,25,15,50,0,0,5,0,0,0,0,0,0,0,0,0,0,0,0,0,0,100
0,0,0,185,0,120,0,0,95,0,0,210,0,0,0,0,0,0,0,0,0,0,0,0,0,0,0,0,0,5,0,15,0,5,0,5,10,40,45,50,60,20,45,50,30,20,5,25,0,0,0,0,0,0,0,0,0,0,0,0,0,85,0,0
0,0,55,0,0,0,120,0,0,205,0,0,0,0,0,0,0,0,0,0,0,0,0,0,0,0,0,0,0,0,0,0,15,0,0,0,0,5,40,35,45,40,40,35,35,15,10,10,0,0,0,0,0,0,0,0,0,0,0,0,0,100,0,0
0,0,0,0,70,0,210,50,0,0,205,0,0,0,0,0,0,0,0,0,0,0,0,0,0,0,0,0,0,0,0,0,0,0,5,0,45,35,5,50,50,50,35,35,0,5,0,0,0,0,0,0,0,0,0,0,0,0,0,0,0,0,0,0
0,0,0,0,0,60,0,195,50,0,200,0,0,0,0,0,0,20,0,0,0,0,0,0,0,0,0,0,0,0,0,0,5,0,5,5,50,55,40,55,45,50,25,20,5,45,0,5,0,0,0,0,0,0,0,0,0,0,0,0,0,0,0,105
0,0,0,0,0,195,0,30,0,0,0,225,0,0,0,0,0,0,0,0,0,0,0,0,0,0,0,0,0,0,0,5,10,5,5,5,0,45,40,45,50,50,40,25,25,5,15,0,0,0,0,0,0,0,0,0,0,0,0,0,0,0,0,115
0,0,0,75,0,0,200,0,45,0,0,225,0,0,0,0,0,0,0,0,0,0,0,0,0,0,0,0,0,0,5,5,10,0,10,60,0,55,35,50,55,40,40,35,20,10,20,0,0,0,0,0,0,0,0,0,0,0,0,0,0,0,105,0
0,0,0,0,75,0,210,0,15,0,220,0,0,0,0,0,0,0,0,0,0,0,0,0,0,0,0,0,0,0,0,10,0,5,0,0,5,50,40,45,50,45,50,25,20,10,10,0,15,0,0,0,0,0,0,0,0,0,0,0,0,0,125,0
0,0,0,0,50,205,0,110,0,0,0,0,65,0,0,0,0,0,0,0,0,0,0,0,0,0,0,0,0,0,0,0,0,0,15,0,5,15,50,40,40,55,30,25,5,25,5,10,0,0,0,0,0,0,0,0,40,0,0,0,0,0,40,0
0,0,0,75,0,0,0,200,35,0,0,0,0,0,0,0,0,0,0,0,0,0,0,0,0,0,0,0,0,0,0,0,0,0,0,5,50,55,40,45,50,40,60,10,40,15,5,0,0,0,5,0,0,0,0,0,0,0,0,0,0,0,50,0
0,0,0,0,0,210,0,35,0,0,210,0,0,0,0,0,0,0,0,0,0,0,0,0,0,0,0,0,0,0,5,5,0,0,0,10,50,40,30,40,45,45,240,35,25,15,0,10,10,0,0,0,0,0,0,0,0,0,0,0,0,0,65,0
0,0,50,0,0,0,185,0,55,0,240,0,0,0,0,0,0,0,0,0,0,0,0,0,0,0,0,0,0,0,0,0,5,10,0,10,40,35,35,40,50,240,35,35,15,15,5,15,15,0,0,0,0,0,0,0,0,0,0,0,0,0,0,0
0,0,0,0,0,0,0,30,0,0,0,0,0,240,0,0,0,0,0,0,0,0,0,0,0,0,0,0,0,0,0,0,0,0,0,0,40,10,50,45,240,65,40,40,10,15,25,20,0,0,0,0,0,0,0,0,0,0,0,0,0,0,0,0
0,0,0,0,0,0,185,0,0,40,240,0,220,0,0,0,0,0,0,0,0,0,0,0,0,0,0,0,0,0,5,0,10,15,5,45,5,30,15,45,240,35,50,35,30,25,0,15,0,20,0,0,0,0,0,0,0,0,0,0,0,120,0,0
0,0,70,0,0,0,55,195,0,0,230,0,0,0,0,0,0,0,0,0,0,0,0,0,0,0,0,0,0,0,0,0,5,0,0,0,5,40,50,45,60,45,240,40,15,15,10,0,0,0,0,0,0,0,0,0,0,0,0,0,0,0,0,105
0,0,0,0,0,0,175,0,240,0,0,155,0,0,0,0,0,0,0,0,0,0,0,0,0,0,0,0,0,0,0,0,0,0,0,0,10,5,60,20,55,40,40,240,25,20,10,0,0,0,0,0,0,0,0,0,0,0,0,0,105,0,0,0
0,0,0,0,95,175,145,125,240,0,220,0,0,0,0,0,0,0,0,0,0,0,0,0,0,0,0,0,0,0,0,0,0,0,0,5,45,15,55,35,95,30,240,50,15,50,10,5,0,0,0,0,0,0,0,0,0,0,0,0,0,0,0,80
0,0,0,0,0,125,190,0,195,240,0,0,0,0,0,0,0,0,0,0,0,0,0,0,0,0,0,0,0,0,0,0,5,0,0,0,0,5,55,55,45,35,60,45,15,30,10,0,5,0,0,0,0,0,0,0,0,0,0,0,0,0,0,100
0,0,0,0,0,85,0,0,185,0,0,240,0,0,0,0,0,0,0,0,25,0,0,0,0,0,0,0,0,0,0,0,0,0,0,0,0,15,45,20,240,45,40,15,30,0,15,0,0,0,0,0,0,0,0,0,0,0,0,0,0,0,0,85
0,0,0,0,0,0,130,185,90,235,0,0,0,25,0,0,0,0,0,0,0,0,0,0,0,0,0,0,0,0,0,0,25,0,10,10,25,20,40,50,40,115,240,25,20,25,15,0,0,0,0,0,0,0,0,0,0,0,0,0,0,0,0,100
0,0,0,0,175,0,180,0,0,240,0,0,0,0,0,0,0,0,0,0,0,0,0,0,0,0,0,0,0,0,0,5,0,10,0,0,5,45,35,60,120,240,40,20,10,30,10,0,0,0,0,0,0,0,0,0,0,0,0,0,0,0,0,100
0,0,0,0,65,205,0,30,0,0,0,205,240,0,0,0,0,0,0,0,0,0,0,0,0,0,0,0,0,0,0,0,0,5,10,35,5,40,50,240,45,45,45,15,35,15,10,0,0,0,0,0,0,0,0,0,0,0,0,0,0,0,0,0
0,0,0,0,0,115,0,0,165,235,0,0,0,0,0,0,0,195,0,0,0,0,0,0,0,0,0,0,0,0,0,0,5,0,0,0,10,5,60,50,50,50,20,50,40,15,5,5,0,0,0,0,0,0,0,0,0,0,0,0,0,0,30,0
0,0,0,55,0,0,100,200,185,240,0,0,0,0,0,0,0,0,0,0,0,0,0,0,0,0,0,0,0,0,0,0,0,0,0,5,5,50,50,50,40,45,30,15,25,240,20,0,0,0,0,0,0,0,0,0,0,0,0,0,0,0,0,0
0,0,0,0,35,105,185,35,0,240,200,0,0,0,0,0,0,0,0,0,0,0,0,0,0,0,0,0,0,10,0,0,0,0,0,10,5,60,40,50,40,40,240,35,15,10,20,0,0,0,0,0,0,0,0,0,0,0,0,0,0,0,85,0
0,0,0,0,0,0,0,0,35,0,215,0,0,0,0,0,0,0,0,0,0,0,0,0,0,0,0,0,0,0,0,0,60,0,0,5,5,55,50,45,40,240,45,35,20,10,15,10,15,0,0,0,0,0,0,0,0,0,0,0,0,80,0,0
0,0,0,70,0,0,205,0,0,0,0,0,240,0,0,0,0,0,0,0,0,0,0,0,0,0,0,0,0,0,0,25,0,0,0,35,0,50,65,45,45,55,240,35,30,20,5,5,0,15,0,0,0,0,0,0,0,0,0,0,0,0,0,95
0,0,0,0,0,65,0,190,165,235,0,0,0,0,0,0,0,0,0,0,30,0,0,0,0,0,0,0,0,0,0,0,5,10,0,0,30,0,40,55,50,45,30,240,25,10,10,15,0,0,0,0,0,0,0,0,0,0,0,0,0,0,85,0
0,0,0,0,0,175,130,0,0,30,0,240,0,0,0,0,0,0,0,0,0,0,0,0,0,0,0,0,0,0,0,15,0,0,5,5,50,5,50,55,155,240,45,40,25,15,10,0,0,0,0,0,0,0,0,0,0,0,0,0,0,0,0,75
0,0,0,60,0,225,0,0,55,0,0,0,240,0,0,0,0,0,0,0,0,0,0,0,0,0,0,0,0,0,0,0,5,5,0,40,0,45,50,165,45,50,40,35,20,15,0,15,0,0,0,0,0,0,0,0,0,0,0,0,0,0,0,110
0,0,0,0,0,125,170,0,0,0,125,220,0,0,240,0,0,0,0,0,0,0,0,0,0,0,0,0,0,0,0,0,0,0,0,50,10,35,45,45,240,40,50,45,20,30,0,0,0,0,0,0,0,0,0,0,0,0,0,0,0,0,0,95
0,0,35,0,0,195,105,0,0,0,0,205,0,240,0,0,0,0,0,0,0,0,0,0,0,0,0,0,0,0,0,0,0,0,15,0,20,5,35,85,50,240,50,35,15,25,10,0,0,0,0,0,0,0,0,0,0,0,0,0,0,0,0,0
0,0,0,0,70,195,0,0,0,40,240,0,215,0,0,0,0,0,0,0,0,0,0,0,0,0,0,0,0,0,0,0,5,5,0,0,40,50,80,40,40,35,40,30,20,10,5,0,15,0,0,0,0,0,0,0,0,0,0,0,0,0,0,75
