0,0,0,0,60,0,60,160,160,0,0,0,0,176,0,0,0,0,0,0,0,0,0,0,0,0,0,0,0,0,0,4,0,0,0,0,4,32,28,36,28,132,32,32,4,4,0,0,0,0,0,0,0,0,0,0,0,0,0,0,0,0,0,124
0,0,0,0,76,128,0,0,0,144,0,0,0,0,172,0,0,0,0,0,0,0,0,0,0,0,0,0,0,0,0,0,12,0,0,0,0,8,32,140,36,28,56,12,4,24,4,0,0,0,0,0,0,0,0,0,0,0,0,0,0,0,0,0
104,0,0,0,0,72,164,0,132,108,0,0,0,0,0,0,0,0,0,0,0,0,0,0,0,0,0,0,0,0,0,0,0,0,8,0,4,32,36,36,48,40,116,12,12,0,0,0,0,0,0,0,0,0,0,0,0,0,0,0,0,0,112,0
0,0,0,0,0,92,156,0,0,0,0,176,0,0,0,0,0,0,0,0,0,0,0,0,0,0,0,0,0,0,4,12,0,0,0,0,0,40,28,68,48,40,40,36,8,8,0,0,0,0,0,0,0,0,0,0,0,0,0,0,0,0,108,0
0,0,0,0,0,0,0,0,104,0,0,0,0,0,0,0,0,0,0,0,0,0,0,0,0,0,0,0,0,0,0,0,0,0,0,28,4,0,104,28,28,32,40,20,8,28,0,0,0,0,0,0,0,0,0,0,0,0,0,0,0,0,0,0
0,140,0,0,0,100,0,172,84,0,0,0,0,0,0,0,0,0,0,0,0,0,0,0,0,0,0,0,0,0,0,0,0,0,0,0,20,28,28,48,0,32,36,8,12,16,0,0,0,0,0,0,0,0,0,0,0,0,0,0,0,0,0,80
0,0,64,0,0,0,76,68,0,108,0,172,0,0,0,0,0,0,0,0,0,0,0,0,0,0,0,0,0,0,0,0,0,0,0,8,0,4,32,124,20,32,32,12,0,28,0,0,0,0,0,0,0,0,0,0,0,0,0,0,0,0,0,0
140,0,0,0,144,0,0,164,0,0,0,0,0,168,0,0,0,0,0,0,0,0,0,0,0,0,0,0,0,0,0,4,12,12,0,0,16,36,64,32,32,64,28,40,20,16,0,0,0,0,0,0,0,0,0,0,0,0,0,0,0,0,0,0
0,0,0,104,0,0,160,0,108,0,0,40,0,180,0,0,0,0,0,0,0,0,0,0,0,0,0,0,0,0,4,0,0,0,12,8,0,0,40,32,36,20,40,28,12,8,0,0,0,0,0,0,0,0,0,0,0,0,0,0,0,0,0,0
0,0,0,0,0,140,120,0,0,140,0,0,0,0,0,0,0,0,0,0,0,0,0,0,0,0,0,0,0,0,0,0,0,0,0,8,0,28,32,32,24,40,64,12,12,12,0,0,0,0,0,0,0,0,0,0,0,0,0,0,0,0,0,0
104,0,0,0,0,0,0,0,132,0,0,0,176,68,0,0,0,0,0,0,0,0,0,0,0,0,0,0,0,0,0,4,0,0,0,0,24,24,76,32,36,56,32,12,24,4,0,0,0,0,0,0,0,0,0,0,0,0,0,0,0,112,0,0
0,0,0,0,0,100,144,128,0,0,0,0,0,176,0,0,0,0,0,0,0,0,0,0,0,0,0,0,0,0,0,0,8,4,0,0,0,32,112,36,36,40,36,4,12,8,4,16,0,24,0,0,0,0,0,0,0,0,0,0,0,0,0,148
0,0,0,0,116,0,0,160,136,0,0,0,0,0,0,0,0,0,0,0,0,0,0,0,0,0,0,0,0,0,0,0,0,0,4,0,4,32,40,48,36,44,12,36,28,12,0,0,0,0,0,0,0,0,0,0,0,0,0,0,0,0,96,0
0,0,0,0,0,104,148,0,0,0,0,0,0,0,0,0,0,0,0,0,0,0,0,0,0,0,0,0,0,0,0,0,0,0,0,0,8,32,28,28,32,40,32,16,12,8,0,0,0,0,0,0,0,0,0,0,0,0,0,0,0,0,0,0
0,0,0,0,0,68,140,0,0,0,152,0,0,176,0,0,0,0,0,0,0,0,0,0,0,0,0,0,0,0,0,0,8,0,0,0,32,0,28,36,32,32,32,36,32,4,4,8,0,0,0,0,0,0,0,0,0,0,0,0,0,0,0,0
0,0,0,0,84,0,0,156,0,0,124,172,0,0,0,0,0,0,0,0,0,0,0,0,0,0,0,0,0,0,0,0,8,4,4,0,12,12,72,40,40,36,32,16,36,0,0,0,0,0,0,0,0,0,0,0,0,0,0,0,0,0,0,0
100,0,0,0,0,0,0,156,148,0,0,0,0,0,0,0,0,0,0,0,0,0,0,0,0,0,0,0,0,0,0,0,0,12,0,0,32,0,28,56,32,36,32,12,36,8,4,0,0,0,0,0,0,0,0,0,0,0,0,0,0,0,0,0
140,0,0,0,0,0,164,0,0,152,0,172,0,0,0,0,0,0,0,0,0,0,0,0,0,0,0,0,0,0,0,0,0,0,0,0,32,8,28,28,76,48,48,28,4,4,0,0,0,0,0,0,0,0,0,0,0,0,0,0,0,0,0,0
128,0,0,0,0,76,84,0,136,0,0,168,0,0,0,0,0,0,0,0,0,0,0,0,0,0,0,0,0,0,4,0,0,4,0,0,4,32,32,32,48,36,32,28,28,0,8,0,0,0,0,0,0,0,0,0,0,0,0,0,0,0,0,0
0,132,0,0,0,80,0,164,0,168,0,0,0,0,0,0,0,0,0,0,0,0,0,0,0,0,0,0,0,4,0,0,0,0,12,0,0,36,36,72,32,28,32,28,12,0,0,0,0,0,0,0,0,0,0,0,0,0,0,0,0,0,124,0
0,0,0,0,0,28,0,140,0,168,0,0,0,0,0,168,0,0,0,0,0,0,0,0,0,0,0,0,0,0,0,8,0,0,0,0,28,0,32,44,32,28,28,28,12,4,0,0,0,4,0,0,0,0,0,0,0,0,0,0,0,0,0,108
0,0,0,0,0,0,0,120,0,124,0,0,0,0,0,0,0,0,0,0,0,0,0,0,0,0,0,0,0,0,0,0,0,0,0,4,0,36,40,36,24,36,48,24,12,0,0,0,0,0,0,0,0,0,0,0,0,0,0,0,0,0,0,0
92,0,0,0,0,136,0,152,0,152,0,0,0,0,0,0,0,0,0,0,0,0,0,0,0,0,0,0,0,0,4,0,0,0,0,12,0,36,32,48,40,32,36,28,4,0,4,12,0,0,0,0,0,0,0,0,0,0,0,0,0,0,0,0
148,0,0,0,0,60,0,180,0,0,0,28,0,0,0,0,0,0,0,0,0,0,0,0,0,0,0,0,0,0,0,8,4,0,0,0,4,24,44,64,36,20,28,24,8,0,0,8,0,0,0,0,0,0,0,0,0,0,0,0,0,0,0,0
0,0,0,0,0,0,76,136,140,0,0,0,12,176,0,0,0,0,0,0,0,0,0,0,0,0,0,0,0,0,4,0,4,8,4,0,4,16,48,32,36,52,36,4,12,12,8,0,0,0,0,0,0,0,0,0,0,0,0,0,0,0,0,0
0,144,0,0,0,0,104,0,0,148,176,0,0,0,0,0,0,0,0,0,0,0,0,0,0,0,0,0,0,0,0,0,4,4,0,0,28,32,36,28,56,32,52,32,12,0,0,0,0,0,0,0,0,0,0,24,0,0,0,0,0,0,0,124
0,0,0,0,0,156,156,136,0,0,0,68,0,0,0,0,0,0,0,0,0,0,0,0,0,0,0,0,0,0,0,0,0,0,0,12,0,40,0,40,28,28,36,8,24,12,0,0,0,0,0,0,0,0,0,0,0,0,0,0,0,0,0,0
92,0,0,0,100,0,0,152,0,0,48,0,0,0,0,0,0,0,0,0,0,0,0,0,0,0,0,0,0,0,0,0,0,0,0,0,28,32,0,32,36,28,40,0,20,8,4,0,0,0,0,0,0,0,0,0,0,0,0,0,0,0,0,128
0,0,0,0,0,100,148,0,152,0,0,0,0,104,0,0,0,0,0,0,0,0,0,0,0,0,0,0,0,0,0,0,0,0,0,0,4,4,40,32,36,36,32,44,8,12,4,0,0,0,0,0,0,0,0,0,0,0,0,0,0,0,0,0
104,0,0,0,0,52,144,160,0,0,0,48,0,0,0,0,0,0,0,0,0,0,0,0,0,0,0,0,0,0,0,0,0,4,0,0,0,36,32,52,32,32,20,36,0,4,0,0,0,0,0,0,0,0,0,0,0,0,0,0,0,0,0,0
0,0,0,0,104,56,0,124,168,0,32,0,44,0,0,0,0,0,0,0,0,0,0,0,0,0,0,0,0,0,0,8,0,0,0,0,16,12,36,40,56,40,36,0,36,0,0,0,0,0,0,0,0,0,0,0,0,0,0,0,0,0,88,0
0,0,32,0,0,56,0,76,156,152,0,0,0,0,0,0,164,0,0,0,0,0,0,0,0,0,0,0,0,0,4,4,0,0,0,0,28,40,36,76,36,32,20,36,8,0,0,4,0,0,0,0,0,0,0,0,0,0,0,0,0,0,108,0
0,0,0,0,152,68,0,152,0,0,0,176,0,0,0,0,0,0,0,0,0,0,0,0,0,0,0,0,0,0,0,0,0,8,8,0,0,12,8,40,40,36,32,32,16,4,0,4,0,0,0,0,0,0,0,0,0,0,0,0,0,0,0,0
0,0,0,0,0,124,0,0,0,0,156,164,0,0,0,0,0,0,0,0,0,0,0,0,0,0,0,0,0,0,0,0,0,0,0,0,0,44,36,40,104,36,28,12,0,8,12,0,0,0,0,0,0,0,0,0,0,0,0,0,0,0,0,0
0,64,0,0,0,104,128,0,0,132,28,0,0,0,0,0,0,0,0,0,0,0,0,0,0,0,0,0,0,0,4,0,0,0,0,0,0,40,40,32,32,48,32,4,16,8,0,8,0,0,0,0,0,0,0,0,0,0,0,0,0,0,100,0
0,0,0,0,56,0,60,0,0,0,0,172,0,0,0,0,0,0,0,0,0,0,0,0,0,0,0,0,0,0,0,4,0,0,4,4,0,12,56,40,44,52,4,32,0,12,0,0,4,0,0,0,0,0,0,0,0,0,0,0,0,0,0,84
0,0,0,0,0,96,0,156,136,164,0,0,48,0,0,0,0,0,0,0,0,0,0,0,0,0,0,0,0,0,4,0,4,0,0,0,12,32,36,36,88,36,36,8,8,4,36,0,0,0,0,0,0,0,8,0,0,0,0,0,0,0,0,0
0,0,0,0,56,76,0,168,28,140,0,0,0,0,0,72,0,0,0,0,0,0,0,0,0,0,0,0,0,0,0,8,0,0,0,0,8,28,4,28,32,28,28,16,36,12,0,0,0,0,0,0,0,0,0,0,0,0,0,0,0,0,104,0
0,0,0,0,88,0,0,0,100,0,0,64,0,0,0,0,0,0,0,0,0,0,0,0,0,0,0,0,0,0,0,0,4,0,0,0,8,4,40,28,32,32,32,8,28,0,8,0,0,0,0,0,0,0,0,0,0,0,0,0,0,0,64,0
0,0,0,0,0,152,0,164,20,0,148,0,0,0,164,0,0,0,0,0,0,0,0,0,0,0,0,0,0,0,0,4,12,0,0,0,32,64,28,36,36,52,16,28,28,4,0,0,0,0,0,0,0,0,0,0,0,0,0,0,0,0,0,0
124,0,0,0,0,60,56,0,140,36,0,0,0,0,0,0,0,0,0,0,0,0,0,0,0,0,0,0,0,0,0,0,0,0,12,0,0,0,28,40,40,32,28,32,12,0,4,0,0,0,0,0,0,0,0,0,0,0,0,0,0,0,0,60
0,0,0,0,0,156,0,0,0,0,0,0,176,84,0,0,0,0,0,0,0,0,0,0,0,0,0,0,0,0,0,0,4,0,0,4,0,0,36,32,36,28,12,36,8,8,0,0,0,0,0,0,0,0,0,0,0,0,0,0,0,0,0,0
0,88,0,0,0,44,140,0,116,24,0,0,0,0,0,0,0,0,0,0,0,0,0,0,0,0,0,0,0,0,0,0,0,0,0,0,16,32,0,32,32,36,32,12,12,16,0,0,0,0,0,0,0,0,0,0,0,0,0,0,0,0,0,80
0,0,0,0,120,0,152,104,0,0,0,0,76,0,0,0,0,0,0,0,0,0,0,0,0,0,0,0,0,0,0,4,0,0,0,8,0,32,12,28,40,24,36,32,28,0,20,0,0,0,0,0,0,0,0,0,0,0,0,0,0,124,0,0
0,0,0,0,156,0,0,0,144,0,0,0,0,64,0,0,0,0,0,0,0,0,0,0,0,0,0,0,0,0,0,0,0,4,0,0,24,40,0,36,32,36,28,28,8,16,0,0,0,0,0,0,0,0,0,0,0,0,0,0,0,0,0,100
0,0,0,0,0,92,164,0,0,152,0,0,0,0,0,0,0,0,0,0,0,0,0,0,0,0,0,0,0,0,0,0,0,0,0,0,0,36,28,32,40,32,36,4,12,16,0,0,0,0,0,0,0,0,0,0,0,0,0,0,0,0,0,0
0,112,0,0,0,0,0,0,0,0,136,0,24,0,0,0,0,0,0,0,0,0,0,0,0,0,0,0,0,0,0,4,0,0,0,0,28,0,12,28,32,36,44,16,32,8,0,0,0,0,0,0,0,0,0,0,0,0,0,0,0,0,0,0
0,0,0,0,0,88,0,168,0,0,0,160,0,0,0,0,0,0,0,0,0,0,0,0,0,0,0,0,0,0,0,0,8,0,0,0,0,32,12,88,28,28,32,36,20,0,0,0,0,0,0,0,0,0,0,0,0,0,0,0,0,0,80,0
0,0,0,0,0,92,152,0,116,0,0,172,80,0,0,0,0,0,0,0,0,0,0,0,0,0,0,0,0,0,0,4,4,0,0,32,4,28,12,56,44,20,36,24,16,8,4,0,0,0,0,0,0,0,12,0,0,0,0,0,0,0,100,0
0,0,0,148,0,0,0,0,128,0,0,0,0,0,0,0,188,0,0,0,0,0,0,0,0,0,0,0,0,0,0,0,0,0,0,0,0,40,36,132,32,40,40,40,12,8,0,0,0,0,0,0,0,0,0,0,0,0,0,0,0,0,128,0
