0,0,0,78,0,0,78,78,0,0,0,0,0,0,0,0,0,0,0,0,0,0,0,0,0,0,0,0,0,0,6,0,0,0,0,9,0,24,15,30,81,24,21,27,24,0,0,0,0,0,0,0,3,0,0,0,0,0,0,0,0,0,0,93
0,0,0,0,0,102,66,45,111,0,0,0,0,0,0,0,0,0,0,0,3,0,0,0,0,0,0,0,0,0,0,0,0,3,0,3,18,27,27,27,36,21,21,18,3,0,0,0,3,0,0,0,0,0,0,0,0,0,0,0,0,0,0,57
0,0,0,0,78,75,0,0,48,135,0,0,0,0,12,3,0,0,0,0,0,0,0,0,0,0,0,0,0,0,3,0,0,0,0,0,12,24,27,27,27,30,21,15,18,18,15,0,0,0,0,0,0,0,0,0,0,0,0,0,3,0,72,0
0,0,0,6,0,0,81,87,0,0,3,42,138,0,0,0,0,0,0,0,0,0,0,0,0,0,3,0,0,0,0,0,3,0,0,6,0,30,21,96,21,21,21,21,27,0,0,3,0,0,0,0,0,0,0,0,3,0,0,0,0,0,0,93
0,0,0,0,0,84,0,0,120,0,0,0,0,0,0,0,0,0,0,0,6,0,0,0,0,0,0,0,0,0,0,0,0,21,0,3,24,0,30,27,21,24,21,18,12,0,0,0,0,3,3,0,0,0,0,0,0,0,0,0,0,0,0,51
3,0,0,0,93,0,0,0,87,0,0,42,0,0,0,3,0,0,0,0,0,0,0,0,0,0,0,0,0,0,3,0,0,9,0,0,15,0,24,24,21,27,30,3,36,0,0,0,0,0,0,0,0,0,0,0,0,6,0,0,0,0,0,69
0,0,0,75,0,60,21,0,102,6,0,126,0,0,0,0,0,0,0,0,0,0,0,0,0,0,6,0,0,0,0,0,0,0,0,0,24,3,21,24,21,66,24,24,0,0,3,0,24,0,0,0,0,6,0,0,0,0,0,0,0,0,0,84
0,0,0,0,57,72,0,0,117,0,0,0,111,0,0,0,0,0,0,0,0,0,0,0,0,0,0,0,0,0,15,0,0,0,0,9,6,0,27,27,27,24,27,3,0,0,9,0,0,0,0,0,0,0,0,0,0,0,0,0,0,0,0,0
6,0,0,0,0,90,57,0,0,0,0,0,0,0,0,0,0,0,0,0,0,0,0,0,0,0,0,0,0,0,0,3,0,0,0,0,0,24,21,27,27,30,24,12,24,0,0,0,0,0,0,0,0,0,0,0,0,0,0,0,0,0,0,63
0,0,0,33,0,69,0,0,0,0,6,48,0,0,0,0,0,0,0,0,0,0,0,0,0,0,0,0,0,0,0,0,0,0,0,3,0,15,24,21,24,24,24,84,3,3,0,0,0,0,0,0,0,3,0,0,0,0,0,0,0,0,78,0
0,0,0,66,0,72,0,0,0,0,105,0,117,0,48,0,0,0,0,0,0,0,0,0,0,0,0,0,0,9,6,0,0,3,0,0,18,24,24,21,18,27,24,12,36,9,0,0,3,0,0,0,0,0,0,0,0,0,0,0,0,0,0,0
69,0,0,0,69,60,48,0,66,33,0,120,27,0,0,0,0,0,0,0,0,0,0,0,0,0,0,0,0,0,18,3,0,18,0,33,6,21,51,27,27,24,27,3,21,15,0,0,0,0,0,0,0,0,0,0,0,0,0,9,0,0,0,0
63,0,0,0,96,0,0,0,96,0,0,0,0,33,0,0,0,0,0,0,0,0,0,0,0,0,0,0,0,3,0,0,0,0,9,0,6,24,27,24,21,24,3,27,6,3,0,0,0,0,0,0,0,0,0,0,0,0,0,0,0,0,0,0
0,0,0,0,0,90,0,0,90,0,0,0,0,0,0,0,0,0,0,0,3,0,0,0,0,0,0,0,0,0,0,3,0,0,0,0,0,24,9,69,21,24,30,24,15,3,0,0,0,0,0,0,0,0,0,0,0,0,0,0,0,0,0,63
0,0,0,0,75,0,96,0,87,0,0,0,0,0,138,3,0,0,0,0,0,0,0,0,0,0,0,0,0,0,6,0,6,0,0,0,6,9,21,24,90,30,24,6,18,6,0,0,0,0,0,0,0,0,0,0,0,0,3,0,0,0,0,0
0,0,0,0,48,0,63,0,87,0,3,111,18,0,0,0,0,0,0,0,0,0,0,0,9,0,0,0,0,0,0,0,3,9,0,6,3,12,48,24,27,48,30,24,6,18,0,9,0,0,0,0,0,0,0,0,0,0,0,0,0,0,75,0
0,0,51,0,87,0,99,90,60,0,0,120,0,0,0,0,0,0,0,0,0,0,0,0,0,0,0,0,0,0,0,0,0,0,0,0,9,0,24,24,27,93,15,24,0,15,6,0,0,0,0,0,0,0,0,0,0,0,0,0,0,0,0,81
0,0,0,0,0,0,96,54,0,96,0,123,0,0,0,0,0,0,0,0,0,0,0,0,0,0,0,0,0,6,3,0,0,3,0,0,0,21,27,24,24,69,24,21,0,24,0,3,0,0,0,0,0,0,0,0,0,0,0,0,0,0,0,48
0,0,0,0,75,72,0,0,123,0,0,105,0,0,0,0,0,0,0,0,0,0,0,0,0,6,0,0,0,0,0,0,6,0,24,18,0,0,24,45,24,27,24,21,0,12,3,0,0,0,0,0,0,0,0,0,9,0,0,0,0,0,0,0
0,48,0,0,0,84,0,0,84,0,51,0,0,36,0,0,0,0,0,0,0,0,0,0,0,0,0,0,0,0,0,0,0,9,6,0,0,15,21,24,21,27,24,15,21,15,3,0,0,0,0,0,0,0,0,0,0,0,0,0,0,0,0,84
0,0,0,0,75,72,0,0,90,0,0,0,132,0,0,9,0,0,0,0,0,0,0,0,0,0,0,0,9,0,3,0,21,3,0,0,3,42,27,24,27,30,24,24,21,0,0,0,0,0,0,0,0,0,0,0,0,0,0,0,0,0,0,0
66,0,0,0,0,105,33,114,0,0,21,0,0,0,0,0,0,0,0,0,0,0,0,0,3,3,0,0,0,0,0,0,0,0,3,12,0,24,21,24,24,21,36,21,3,3,0,0,0,0,0,0,0,0,6,0,0,0,0,0,0,0,0,69
0,0,0,84,0,42,84,105,0,0,0,36,0,138,0,0,0,0,0,0,0,0,6,0,0,0,0,0,3,0,0,9,0,3,0,0,9,9,24,60,27,33,6,24,0,21,0,0,0,12,0,0,0,0,0,0,0,0,0,0,0,0,0,63
12,0,0,0,0,78,81,15,0,0,0,0,120,0,9,0,0,0,0,0,0,0,0,0,0,0,0,0,0,0,0,0,0,0,6,0,3,27,30,24,24,30,15,3,21,6,0,0,0,0,0,0,6,0,0,0,0,0,0,0,9,0,0,87
0,0,30,0,0,78,0,0,117,0,9,135,0,0,0,0,0,0,0,0,0,0,0,0,0,3,0,0,3,0,0,0,0,0,0,0,9,18,30,24,21,30,24,30,3,3,0,0,0,0,0,0,0,0,0,0,0,0,0,0,0,0,0,0
75,0,0,0,0,0,54,36,0,0,0,0,0,0,0,0,0,0,6,0,3,0,0,0,0,0,0,0,0,0,0,0,0,0,0,21,9,21,18,24,30,24,30,18,21,3,0,0,6,0,0,0,0,0,0,0,0,0,0,0,0,0,0,78
0,0,0,0,51,87,66,0,0,0,114,0,0,0,0,0,0,0,0,0,0,0,0,0,0,0,0,0,0,0,0,9,0,0,0,0,3,18,27,96,27,24,15,21,9,0,0,0,0,0,0,0,0,0,0,0,0,0,0,3,0,0,0,99
0,0,0,0,84,72,0,0,0,54,105,0,0,0,0,0,0,0,0,0,0,0,0,0,0,0,0,0,0,0,0,0,0,3,0,0,0,9,27,24,33,78,30,30,24,0,0,0,6,0,0,0,0,0,0,0,0,0,0,0,0,78,0,0
0,24,0,0,0,87,0,105,0,0,12,24,0,0,0,0,0,0,0,0,0,0,0,0,0,0,0,0,0,0,0,0,0,0,0,9,9,15,30,27,27,18,30,18,27,3,0,0,0,12,0,0,0,0,0,0,0,0,0,0,0,0,84,0
0,9,0,42,0,105,0,75,9,0,105,0,0,0,9,0,3,0,0,0,0,0,0,0,0,0,0,0,0,3,0,0,0,0,0,0,6,42,12,24,72,30,21,18,0,27,3,0,0,0,0,0,0,0,0,0,0,0,0,9,0,0,0,81
0,0,0,0,69,0,0,0,0,117,0,21,0,123,0,0,0,0,0,0,0,0,0,3,0,9,0,0,0,0,0,0,24,0,0,0,3,24,24,30,18,18,36,21,12,0,0,3,0,0,0,0,0,0,0,0,0,0,0,0,0,0,0,0
0,0,0,0,0,39,84,0,90,0,0,0,0,54,141,0,0,0,0,0,0,0,0,0,0,0,0,0,0,0,0,12,0,9,0,36,0,24,3,27,63,21,21,12,21,3,0,0,0,21,0,0,0,0,0,0,0,0,0,0,0,0,105,0
12,0,0,0,0,90,0,0,0,96,0,0,0,0,141,6,0,0,0,0,0,0,0,0,0,0,0,0,0,0,0,0,0,0,0,3,0,9,21,24,78,24,36,9,9,6,3,0,0,0,0,0,0,0,0,0,0,0,0,12,0,0,0,0
0,78,0,0,51,78,0,30,12,84,0,6,0,0,0,0,0,0,0,0,0,0,0,0,0,0,0,0,0,0,0,0,0,0,3,0,0,21,0,27,51,21,33,21,3,21,0,0,0,0,0,0,0,0,0,12,0,0,0,0,0,0,75,0
0,0,0,0,0,90,0,0,108,0,0,0,0,0,24,0,0,0,0,12,3,0,0,0,0,0,0,0,0,0,0,0,0,15,12,0,0,33,24,21,24,27,24,9,6,21,3,0,0,0,0,0,0,0,0,0,0,0,0,0,0,0,93,0
12,0,0,0,0,69,81,105,0,0,0,0,117,39,0,3,0,0,0,0,0,0,0,0,0,0,0,0,0,3,0,0,0,12,0,0,12,9,21,72,21,27,27,24,18,0,0,0,0,0,0,0,0,0,0,0,0,0,12,0,0,0,0,81
0,0,0,0,69,0,90,33,81,0,0,132,0,0,0,0,0,0,0,0,0,0,0,0,3,0,0,0,0,0,0,0,0,0,0,0,0,30,33,24,24,21,30,27,6,3,0,0,0,0,0,0,0,0,0,0,0,0,0,0,0,0,0,75
0,0,0,0,66,12,0,0,96,0,0,18,0,0,0,0,0,0,0,0,0,0,0,0,0,0,0,0,0,0,0,0,21,0,9,3,9,24,24,24,24,21,27,33,6,3,0,0,0,0,0,0,0,0,0,0,0,0,0,0,0,0,0,66
0,0,0,0,78,63,0,111,0,0,0,0,123,0,0,0,0,0,0,0,0,0,0,0,0,0,0,0,0,0,15,0,0,0,0,3,9,24,24,30,27,36,30,9,15,6,0,0,0,3,0,0,0,0,0,0,0,0,0,3,0,0,0,0
0,0,0,0,0,87,18,15,0,90,3,33,114,0,0,0,0,0,0,0,0,0,0,0,0,0,3,0,0,0,0,0,12,6,0,6,3,21,18,72,30,24,21,18,12,30,0,0,0,0,0,0,0,0,15,0,0,0,0,3,0,0,105,0
0,0,75,0,0,0,69,0,0,108,0,0,0,0,111,0,0,0,0,0,0,0,0,0,0,0,0,0,0,18,9,0,3,0,24,30,18,21,27,21,66,21,21,24,0,21,0,0,0,0,3,0,0,0,0,0,0,0,0,0,0,0,0,0
0,81,0,0,0,87,0,0,12,90,0,0,0,6,0,0,0,0,0,0,0,0,0,0,0,0,0,0,6,0,0,0,0,0,0,0,0,21,30,24,27,21,30,24,12,0,6,0,0,0,0,0,0,0,0,0,0,0,0,3,0,0,0,87
0,0,0,0,0,48,0,45,0,3,120,24,0,3,0,0,0,0,0,0,0,0,0,0,3,0,0,0,0,0,0,0,0,12,0,0,0,15,3,18,15,30,21,21,0,0,0,0,0,0,0,0,0,0,9,0,0,0,0,0,0,0,0,57
0,0,0,0,78,84,0,0,63,99,0,132,0,0,0,0,0,0,0,12,0,0,0,0,0,0,0,0,0,0,0,3,0,21,27,0,15,30,30,69,24,27,30,15,0,21,0,0,0,30,0,0,3,0,0,3,0,0,0,0,0,0,0,93
0,3,0,0,0,81,0,78,111,0,0,0,0,138,6,0,0,0,0,0,0,0,0,0,0,0,0,0,0,9,0,0,0,0,0,6,9,30,30,24,21,24,24,15,9,3,0,3,0,0,0,0,0,0,0,0,0,0,0,6,0,0,81,0
0,0,0,0,45,48,0,87,66,9,0,0,123,0,0,0,0,0,0,0,0,0,0,0,0,36,0,3,3,3,0,0,0,15,0,0,0,9,24,69,21,18,24,3,24,6,30,0,0,0,0,0,0,0,9,0,0,0,0,0,0,0,0,78
0,0,0,0,0,87,9,81,0,0,129,24,0,0,0,0,0,0,0,0,0,9,0,0,0,0,0,0,0,0,0,0,6,12,0,12,0,24,27,27,63,24,27,24,9,27,0,0,9,0,0,0,0,0,0,0,0,0,0,0,0,12,0,51
0,6,0,0,57,90,0,24,0,0,126,0,0,0,24,3,0,0,3,0,0,0,0,0,0,0,0,0,0,42,0,0,3,6,0,0,9,33,30,24,30,21,24,6,18,3,0,0,0,0,0,0,0,0,0,0,0,0,0,12,0,0,54,0
0,0,0,63,0,78,0,93,0,24,0,18,3,3,0,132,0,0,0,0,0,0,0,0,0,24,3,0,0,3,0,0,0,3,3,0,24,18,63,21,12,18,30,30,9,0,3,0,0,0,0,0,0,0,0,12,0,0,0,0,0,0,0,87
0,0,0,0,24,0,57,3,87,0,0,72,0,0,0,30,0,0,0,15,0,0,0,0,0,0,0,0,0,0,0,0,6,21,0,0,0,21,21,24,21,30,30,18,3,3,0,3,0,24,0,0,3,0,0,0,0,0,0,0,0,0,0,81
