76,0,0,0,100,0,172,0,68,176,0,0,0,32,0,0,0,0,0,0,0,0,0,0,0,0,0,0,0,0,0,0,16,0,0,0,16,32,32,32,64,28,36,28,20,0,28,0,0,0,0,0,0,0,0,0,0,0,0,0,0,0,0,108
0,0,0,0,0,116,0,160,152,0,0,8,0,0,0,0,0,0,0,0,0,0,0,0,0,0,0,0,0,0,0,0,0,0,16,24,24,36,20,32,44,32,28,28,28,20,0,20,0,0,0,0,0,0,0,0,0,0,0,0,0,0,0,100
0,0,0,0,0,80,0,0,0,0,0,0,0,0,0,0,0,0,0,0,0,0,0,0,0,0,0,0,0,0,0,0,0,0,0,0,28,0,32,36,32,36,28,20,28,0,16,0,16,0,0,0,0,0,0,0,0,0,0,0,0,0,0,0
0,0,0,0,148,72,64,0,144,0,28,0,0,0,0,0,0,0,0,0,0,0,0,0,0,0,0,0,0,0,0,0,8,0,0,0,32,32,44,40,40,36,32,36,28,0,16,0,0,0,0,0,0,0,0,0,0,0,0,0,0,0,0,104
0,0,0,0,112,0,0,56,12,140,0,0,44,0,0,0,0,0,0,0,0,0,0,0,0,0,0,0,0,0,0,0,0,0,8,0,24,24,28,36,36,20,28,32,20,20,0,0,0,0,0,0,0,0,0,0,0,0,0,0,0,0,0,0
0,0,0,0,0,0,108,0,140,0,0,0,0,0,40,0,0,0,0,0,0,0,0,0,0,0,0,0,0,0,0,0,0,4,0,0,0,20,28,40,36,32,32,32,32,20,0,0,0,0,0,0,0,0,0,0,0,0,0,0,0,0,0,96
0,0,0,0,0,104,0,164,160,0,0,0,0,172,0,0,0,0,0,0,0,0,0,0,0,0,0,0,0,0,0,0,0,16,0,0,28,4,28,32,96,36,28,24,40,20,0,0,0,0,0,0,0,0,0,0,0,0,0,0,0,0,0,84
0,0,0,0,48,0,168,0,52,0,104,0,0,0,0,0,0,0,0,0,0,0,0,0,0,0,0,0,0,0,0,0,0,0,0,0,28,32,40,36,36,40,32,40,0,24,0,0,0,0,0,0,0,0,0,0,0,0,0,0,0,0,56,0
0,0,0,72,0,0,144,0,112,0,0,8,0,0,0,0,0,0,0,0,0,0,0,0,0,0,0,0,0,0,0,0,0,0,0,0,0,28,28,40,36,32,40,36,28,0,4,0,0,0,0,0,0,0,0,0,0,0,0,0,0,0,84,0
0,0,0,0,0,100,0,116,156,24,0,0,0,0,0,44,0,0,0,0,0,0,0,0,0,0,0,0,0,0,0,4,0,0,0,0,12,20,36,40,36,40,40,28,16,4,0,32,0,0,0,0,0,0,0,0,0,0,0,0,0,0,0,108
0,0,0,0,0,52,28,168,128,0,0,0,0,0,0,0,0,0,0,0,0,0,0,0,0,0,0,0,0,0,0,4,0,0,0,0,4,40,48,44,32,32,40,20,28,24,16,0,0,0,0,0,0,0,0,0,0,0,0,0,0,0,0,108
0,0,0,0,36,144,156,112,0,0,0,0,0,0,0,0,156,0,0,0,0,0,0,0,0,0,0,0,0,0,0,0,0,0,0,0,0,4,28,44,88,32,44,32,24,24,0,0,0,0,0,0,0,0,0,0,0,0,0,0,0,0,0,112
0,0,0,32,84,0,140,0,28,136,0,0,0,0,180,0,0,0,0,0,0,0,0,0,0,0,0,0,0,0,0,0,0,0,0,0,36,28,32,32,124,32,28,32,20,0,16,0,0,0,0,0,0,0,0,0,0,0,0,0,0,0,92,0
0,0,0,0,84,0,0,156,0,0,0,160,0,0,0,0,0,0,0,0,0,0,0,0,0,0,0,0,0,0,0,0,0,0,4,0,12,28,36,120,44,48,28,28,16,20,0,0,0,0,0,0,0,0,0,0,0,0,0,0,0,0,0,96
0,0,0,0,0,0,92,168,164,0,0,0,0,0,0,0,32,0,0,0,0,0,0,0,0,0,0,0,0,0,0,0,4,0,16,0,4,24,32,36,20,32,36,28,28,24,0,0,0,0,0,0,0,0,0,0,0,0,0,0,0,0,0,68
0,0,0,0,0,152,0,40,0,0,0,0,160,0,0,0,0,0,0,0,0,0,0,0,0,0,0,0,0,0,0,0,4,0,0,0,0,36,36,32,32,32,48,28,32,16,0,0,0,0,0,0,0,0,0,0,0,0,0,0,0,0,0,0
0,0,0,0,88,68,0,160,0,48,0,0,0,0,176,0,0,0,0,0,0,0,0,0,0,0,0,0,0,4,0,0,0,20,0,0,0,24,28,64,36,44,48,4,20,16,20,0,0,0,0,0,0,0,0,0,0,0,0,0,0,0,0,104
0,0,0,0,44,92,0,116,0,108,0,0,0,0,0,0,0,0,0,0,0,0,0,0,0,0,0,0,0,0,0,0,0,24,4,0,4,28,32,36,32,40,24,28,40,0,8,8,0,0,0,0,0,0,0,0,0,0,0,0,0,0,0,92
0,0,0,0,92,140,0,20,0,148,0,0,0,172,0,0,0,0,0,0,0,0,0,0,0,0,0,0,0,0,0,0,0,0,0,20,0,36,32,40,56,32,40,36,20,16,16,0,0,0,0,0,0,0,0,0,0,0,0,0,0,0,0,0
0,112,0,0,0,84,0,76,0,40,148,0,0,0,0,0,0,0,0,0,0,0,0,0,0,0,0,0,0,0,0,0,0,0,0,24,16,28,36,36,36,40,24,40,32,12,48,0,0,0,0,0,0,0,0,0,0,0,0,0,0,0,100,0
0,0,28,0,0,92,0,28,0,148,28,0,0,0,0,0,0,0,0,0,0,0,0,0,0,0,0,0,0,0,0,0,0,0,4,0,28,36,32,36,32,36,40,20,32,0,20,0,0,0,0,0,0,0,0,0,0,0,0,0,0,0,0,92
0,0,0,0,0,40,144,0,124,0,0,0,0,0,32,0,0,0,0,0,0,0,0,0,0,0,0,0,0,0,0,0,0,0,0,0,8,48,40,40,44,36,40,28,20,20,40,0,0,0,0,0,0,0,0,0,0,0,0,0,0,0,0,0
96,0,0,0,64,0,168,0,168,0,0,0,0,0,0,0,0,0,0,0,0,0,0,0,0,0,0,0,0,0,0,0,0,8,0,20,0,36,24,44,40,32,40,40,16,28,16,0,0,0,0,0,0,0,0,0,0,0,0,0,0,0,120,0
0,0,0,0,44,0,0,164,0,156,0,0,0,0,0,0,0,0,0,0,0,0,0,0,0,0,0,0,0,0,0,0,0,0,0,20,40,20,48,48,40,48,44,32,20,20,0,0,0,0,0,0,0,0,0,0,0,0,0,0,0,0,0,72
0,0,0,0,60,0,88,104,28,136,0,0,0,160,0,0,0,0,0,0,0,0,0,0,0,0,0,0,0,0,0,0,4,0,0,28,20,40,44,48,40,44,32,32,28,20,20,0,0,0,0,0,0,0,0,0,0,0,0,0,0,0,0,0
0,0,0,0,0,40,0,160,0,160,0,0,0,0,0,0,0,0,0,0,0,0,0,0,0,0,0,0,0,0,0,0,0,8,0,20,0,16,48,44,40,32,32,32,12,36,0,0,0,0,0,0,0,0,0,0,0,0,0,0,0,0,0,104
0,0,0,56,0,0,0,172,0,144,0,0,0,0,0,0,0,0,0,0,0,0,0,0,0,0,0,0,0,0,0,0,0,0,12,20,32,36,28,32,44,32,36,28,24,40,0,0,0,0,0,0,0,0,0,0,0,0,0,0,0,0,0,0
0,0,0,0,0,68,0,156,112,0,0,0,0,0,0,0,0,0,0,0,0,0,0,0,0,0,0,0,0,0,0,0,0,12,0,0,0,0,32,32,40,40,32,40,20,0,24,0,0,0,0,0,0,0,0,0,0,0,0,0,0,0,0,80
0,0,0,0,0,104,112,116,0,0,0,24,0,0,0,0,0,0,0,0,0,0,0,168,0,0,0,0,0,0,0,0,0,0,0,16,8,8,32,36,32,32,144,32,20,20,12,0,0,0,0,0,0,0,0,0,0,0,0,0,0,0,0,0
0,0,0,0,0,152,0,0,0,0,136,0,0,0,0,0,0,0,0,0,0,0,0,0,0,0,0,0,0,0,0,0,0,0,0,0,32,28,28,32,24,28,32,32,20,16,8,0,0,0,0,0,0,0,0,0,0,0,0,0,0,0,0,0
0,0,0,64,0,136,0,140,108,0,0,0,56,0,0,0,0,0,0,0,0,0,0,0,0,0,0,0,0,0,4,0,0,0,36,0,0,0,32,4,48,40,48,36,20,12,0,0,0,0,0,0,0,0,0,0,0,0,0,0,0,0,0,0
0,0,0,120,0,0,0,112,156,0,0,0,0,0,0,0,0,0,0,0,0,0,0,0,0,0,0,0,0,0,0,0,0,0,0,4,20,40,40,48,40,36,24,40,40,8,16,0,0,0,0,0,0,0,0,0,0,0,0,0,0,0,0,76
0,0,28,0,0,0,0,160,0,0,0,0,44,24,0,0,0,0,0,0,0,0,0,0,0,0,0,0,0,0,0,16,0,20,0,32,20,32,44,40,40,36,36,20,40,24,0,16,0,0,0,0,0,0,0,0,0,0,0,0,0,0,0,96
0,0,0,0,0,0,100,160,0,0,112,0,0,0,0,0,0,0,0,0,0,0,0,0,0,0,0,0,0,0,0,0,0,0,0,0,16,0,48,44,32,36,32,8,28,32,0,0,0,0,0,0,0,0,0,0,0,0,0,0,0,0,0,0
0,0,0,0,96,0,0,144,112,0,0,0,176,0,0,0,0,0,0,0,0,0,0,0,0,0,0,0,0,0,0,0,0,0,0,20,24,28,36,40,40,48,32,28,28,20,0,0,0,0,0,0,0,0,0,0,0,0,0,0,0,0,0,0
128,0,0,0,0,140,152,0,132,0,0,0,0,0,0,0,0,0,0,0,0,0,0,0,0,0,0,0,0,0,0,0,4,0,0,0,20,36,60,36,48,40,28,40,36,20,12,0,0,0,0,0,0,0,0,0,0,0,0,0,0,0,0,92
0,0,0,0,0,0,112,168,28,140,0,0,0,0,0,56,0,0,0,0,0,0,0,0,0,0,0,0,0,0,0,0,12,0,0,0,0,44,40,36,40,48,32,36,28,0,20,0,0,0,0,0,0,0,0,0,0,0,0,0,0,0,100,0
0,0,0,0,80,128,0,168,0,104,0,0,168,0,0,0,0,0,0,0,0,0,0,0,0,0,0,0,0,0,0,0,16,4,0,0,36,40,44,92,36,44,28,24,32,0,16,32,0,0,0,0,0,0,0,0,0,0,0,0,0,0,0,0
96,0,0,0,0,76,72,160,0,144,0,0,0,0,0,0,0,0,0,0,0,0,0,0,0,0,0,0,0,0,0,4,0,0,0,0,20,44,32,48,44,36,44,20,28,20,0,0,0,0,0,0,0,0,0,0,0,0,0,0,76,0,0,0
0,0,0,0,0,0,80,168,0,152,0,180,0,0,0,0,0,0,0,0,0,0,0,0,0,0,0,0,0,0,0,4,0,0,16,32,0,44,32,104,48,44,40,40,32,20,0,20,0,0,0,0,0,0,0,0,0,0,0,0,0,0,0,0
88,0,0,0,0,0,160,96,0,0,0,0,0,0,0,0,0,0,0,0,0,0,0,0,0,0,0,0,0,0,0,0,12,0,0,0,32,40,36,28,40,68,44,32,20,16,12,0,0,0,0,0,0,0,0,0,0,0,0,0,0,0,0,44
0,0,0,0,56,152,0,112,0,64,0,68,0,0,0,0,0,0,0,0,0,0,0,0,0,0,0,0,0,0,0,0,0,0,0,0,12,32,40,36,40,32,20,44,40,24,0,0,0,0,0,0,0,0,0,0,0,0,0,0,0,0,0,0
0,0,0,0,0,0,104,172,0,0,0,60,0,0,0,0,0,0,0,0,0,0,0,0,0,0,0,0,0,0,0,0,16,12,0,28,28,40,24,36,40,44,40,28,24,20,0,0,0,0,0,0,0,0,0,0,0,0,0,0,0,0,0,0
0,84,0,0,0,0,120,0,88,0,0,0,0,0,0,172,0,0,0,0,0,0,0,0,0,0,0,0,0,0,0,0,0,0,12,0,0,12,52,40,120,40,40,24,20,12,20,0,4,0,0,0,0,0,0,0,0,0,0,0,0,0,0,60
0,0,0,0,164,0,160,0,104,0,0,0,0,156,0,0,0,0,0,0,0,0,0,0,0,0,0,0,0,0,0,12,0,0,0,0,0,36,72,40,28,40,28,32,40,20,0,0,0,0,0,0,0,0,0,0,0,0,0,0,0,0,0,108
0,0,0,0,0,164,0,140,152,0,0,0,0,0,0,184,0,0,0,0,0,0,0,0,0,0,0,0,0,0,0,0,0,0,12,0,0,28,32,64,44,40,52,24,16,0,32,0,0,0,0,0,0,0,0,0,0,0,0,0,0,0,0,0
0,0,0,0,0,132,0,132,0,0,0,0,0,0,184,0,0,0,0,0,0,0,0,0,0,0,0,0,0,0,28,0,8,0,0,0,4,36,48,92,36,32,32,28,40,32,12,0,0,0,0,0,0,0,0,0,0,0,0,0,0,0,0,104
0,0,0,0,0,0,92,156,0,144,0,0,0,0,0,0,0,0,0,0,0,0,0,0,0,0,0,0,0,0,0,0,0,0,0,0,28,48,36,36,44,40,36,28,36,12,0,0,0,0,0,0,0,0,0,0,0,0,0,0,0,0,0,112
0,0,0,0,0,148,96,0,0,160,0,0,0,0,0,0,0,0,0,0,0,0,0,0,0,0,0,0,0,0,0,0,0,4,0,0,0,36,36,44,48,44,28,44,28,48,0,0,0,0,0,0,0,0,0,0,0,0,0,0,56,0,0,0
0,0,68,0,0,160,0,108,0,0,0,0,0,24,0,0,0,0,0,0,0,0,0,0,0,0,0,0,0,0,0,0,0,0,4,0,20,0,40,40,40,36,24,36,32,0,12,0,0,0,0,0,0,0,0,0,0,0,0,0,0,0,0,72
