255,0,0,0,0,184,0,0,255,0,255,0,0,0,0,0,0,0,0,0,0,0,0,0,0,0,0,0,0,0,0,0,0,0,0,0,24,64,64,64,72,255,56,24,80,24,0,0,0,0,0,0,0,0,0,0,0,0,0,0,0,0,0,0
0,0,0,0,255,0,0,255,0,0,0,255,88,0,0,0,0,0,0,0,0,0,0,0,0,0,0,0,0,8,0,8,16,16,0,32,64,24,80,72,255,72,32,56,8,72,0,8,0,0,0,0,0,0,0,0,0,0,0,0,0,0,0,0
0,0,0,0,0,0,255,216,0,0,0,0,0,255,112,0,0,0,0,0,0,0,0,0,0,0,0,0,0,0,0,0,0,0,40,0,0,8,64,80,255,56,56,32,24,32,8,0,0,0,0,0,0,0,0,0,0,0,0,0,0,0,0,0
0,0,0,0,208,80,255,144,0,0,0,0,0,0,0,0,0,255,0,0,0,0,0,0,0,0,0,0,0,0,0,0,0,0,0,0,0,0,56,64,255,80,64,64,32,40,0,0,0,0,0,0,0,0,0,0,0,0,0,0,0,0,0,0
224,0,0,0,0,0,255,0,0,0,255,255,0,0,0,0,0,0,0,0,0,0,0,0,0,0,0,0,0,0,0,0,0,0,0,0,24,64,0,56,80,64,64,64,80,48,32,255,0,0,0,0,0,0,0,0,0,0,0,0,0,0,0,0
136,0,0,0,208,240,0,0,255,0,255,0,0,232,0,0,0,0,0,0,0,0,0,0,0,0,0,0,40,0,0,0,32,24,0,0,112,0,152,72,80,255,72,32,0,72,8,0,0,0,0,0,0,0,0,0,0,0,0,0,0,0,0,0
0,0,0,0,0,0,255,0,0,0,255,0,255,0,0,0,0,176,0,0,0,0,0,0,0,0,0,0,0,0,0,0,0,0,0,0,32,40,80,56,80,255,72,64,40,56,8,8,0,8,8,0,0,0,0,0,0,0,0,0,0,0,0,0
0,0,0,0,224,0,255,0,168,104,0,0,0,255,255,0,0,0,0,0,0,0,0,0,0,0,0,0,0,8,0,0,0,48,8,0,0,72,88,72,255,72,64,64,8,32,0,8,0,0,0,0,0,0,0,0,0,0,0,0,0,0,0,0
255,0,0,0,0,208,0,0,0,0,0,0,0,0,0,0,0,0,0,0,0,0,0,0,0,0,0,0,0,0,24,0,0,0,0,0,72,8,64,80,255,72,72,32,32,8,0,8,0,0,0,0,0,0,0,0,0,0,0,0,0,0,0,0
0,240,0,0,0,255,120,0,0,0,72,0,0,0,0,0,0,0,0,255,0,0,0,0,0,0,0,0,0,0,0,0,0,0,0,16,8,32,248,32,72,128,80,16,64,56,8,8,0,0,0,0,0,0,0,0,0,0,0,0,0,0,0,0
0,0,0,0,0,255,168,0,255,0,0,0,0,0,0,0,0,0,0,0,0,0,0,0,0,0,0,0,0,0,0,0,0,0,0,0,24,72,64,64,64,80,56,8,255,0,0,0,0,0,0,0,0,0,0,0,0,0,0,0,0,0,0,0
255,0,0,0,0,0,255,0,0,255,0,168,0,0,0,0,0,0,0,0,0,0,0,0,0,0,0,0,0,0,0,24,0,0,0,0,0,0,0,64,80,64,64,255,64,40,0,24,0,0,0,0,0,0,0,0,0,0,0,0,0,0,0,0
56,0,0,0,0,0,255,0,0,0,232,255,0,0,255,0,0,0,0,0,0,0,0,0,0,0,0,0,0,0,0,8,24,0,0,0,24,56,32,48,64,64,64,255,64,48,8,8,0,0,0,0,0,0,0,0,0,0,0,0,0,0,0,255
0,0,0,0,0,0,255,0,0,255,255,0,0,0,208,0,0,0,0,0,0,0,0,0,0,0,0,0,0,0,0,0,0,0,0,0,16,64,64,72,72,64,80,56,56,56,8,24,8,0,0,0,0,0,0,0,0,0,0,0,0,0,255,0
0,0,0,0,0,216,232,208,0,255,96,0,0,0,0,0,0,0,0,0,0,0,0,0,0,0,0,0,0,0,0,0,0,0,0,0,0,16,24,64,64,64,64,48,8,64,8,0,0,0,0,0,0,0,0,0,0,0,0,0,0,0,0,0
232,0,0,0,0,240,255,0,0,0,0,0,0,0,0,0,0,0,255,0,0,0,0,0,0,0,0,0,0,0,0,0,0,0,0,0,0,40,56,72,255,56,64,8,48,0,32,8,0,0,0,0,0,0,0,0,0,0,0,0,0,0,0,0
224,0,0,0,0,0,255,0,0,0,255,0,0,0,0,0,0,0,0,0,0,0,0,0,0,0,0,0,0,0,0,0,0,0,0,0,16,8,64,80,80,80,64,56,80,64,8,8,0,0,0,0,0,0,0,0,0,0,0,0,0,0,0,0
255,0,0,0,0,224,240,0,0,0,0,255,0,0,0,0,0,0,0,0,0,0,0,0,0,0,0,0,0,0,0,0,24,0,0,0,0,40,8,64,56,64,72,96,56,40,0,8,0,0,0,0,0,0,0,0,0,0,0,0,0,0,0,0
0,255,0,0,0,144,255,255,0,0,0,0,0,255,0,0,0,0,0,0,0,0,0,0,0,0,0,0,0,0,0,0,0,32,0,0,0,24,48,64,64,152,64,48,56,56,48,8,8,0,0,0,0,0,0,0,0,255,0,0,0,0,0,240
0,0,0,255,0,0,0,0,255,255,0,255,128,0,0,0,0,0,0,0,0,0,0,0,0,0,0,0,0,0,0,0,0,32,16,0,24,40,64,64,80,56,255,0,32,0,0,24,0,0,0,0,0,0,0,0,0,0,0,0,0,0,255,0
0,0,0,0,0,232,232,0,255,0,184,0,0,0,0,0,0,0,0,0,0,0,0,0,0,0,0,0,0,0,0,0,0,0,0,0,24,40,88,80,72,64,255,64,48,8,8,8,0,0,0,0,0,0,0,0,0,0,0,0,0,0,0,0
0,255,0,0,0,232,0,248,0,0,255,0,0,0,0,0,0,0,0,0,0,0,0,0,0,0,0,0,0,0,0,0,0,0,40,0,0,64,88,80,255,80,32,72,8,8,8,0,0,0,0,0,0,0,0,0,0,0,0,0,0,0,0,0
208,0,0,0,0,0,96,0,0,0,248,0,0,0,0,0,0,0,0,0,0,0,0,0,0,0,0,0,0,0,0,0,32,0,0,0,0,0,64,255,64,80,64,64,48,8,24,0,8,0,0,0,0,0,0,0,0,0,0,0,0,0,0,0
248,0,0,0,240,0,255,0,0,136,0,0,0,0,0,255,0,0,0,0,0,0,0,0,0,0,0,0,0,0,0,0,0,0,0,0,32,80,40,88,255,16,80,56,40,8,0,8,0,0,0,0,0,0,0,0,0,0,0,0,0,0,0,0
0,240,0,0,0,0,168,255,0,0,56,0,0,255,255,0,0,0,0,0,0,0,0,0,0,0,0,0,0,0,0,0,0,0,0,0,56,0,64,80,184,255,64,64,64,56,8,8,0,0,0,0,0,0,0,0,0,0,0,0,0,0,0,0
0,0,0,0,0,255,0,112,0,0,0,0,0,0,0,255,0,0,0,0,0,0,0,0,0,0,0,0,0,0,0,0,0,0,0,0,0,64,88,72,72,255,40,64,72,8,8,0,0,0,0,0,0,0,0,0,0,0,0,0,0,0,0,0
208,0,0,0,0,192,0,0,0,0,0,0,0,255,0,0,0,0,0,0,0,0,0,0,0,0,0,0,0,0,0,0,0,0,0,0,32,56,72,80,72,255,32,80,48,8,8,0,8,0,0,0,0,0,0,0,0,0,0,0,0,0,0,255
0,0,0,0,160,0,208,0,0,0,0,0,255,255,0,0,0,0,0,0,0,0,0,0,0,0,0,0,0,0,48,0,40,32,0,24,0,16,136,72,255,64,56,24,64,8,8,0,0,40,0,0,0,0,0,0,0,0,0,0,0,0,184,0
0,0,0,0,168,0,240,48,0,0,255,0,0,255,0,0,0,0,0,0,0,0,0,0,0,0,0,0,0,0,0,24,0,0,0,32,0,96,64,64,88,255,64,16,8,0,24,0,8,0,0,0,0,0,0,0,0,0,0,0,0,0,0,0
255,0,0,0,0,0,72,255,255,0,0,0,152,255,255,0,0,0,0,0,0,0,0,0,0,0,0,0,0,0,0,0,32,8,0,0,0,32,72,72,64,64,255,72,56,0,16,8,0,0,0,0,0,0,0,0,0,0,0,0,0,0,0,0
0,0,0,255,0,0,0,0,255,0,0,0,0,255,0,0,0,0,0,0,0,0,0,0,0,0,0,0,0,0,0,0,0,0,0,40,0,64,56,72,255,48,64,64,24,8,0,8,0,0,0,0,0,0,0,0,0,0,0,0,0,0,0,0
255,0,0,0,0,255,255,0,176,0,0,255,0,0,0,0,0,0,0,0,0,0,0,0,0,0,0,0,0,0,0,0,32,32,24,0,24,64,72,72,255,72,64,64,24,0,32,0,0,0,0,0,0,0,0,0,0,0,0,0,0,0,0,0
208,0,0,0,0,200,224,0,136,0,144,0,255,0,255,0,0,0,0,0,0,0,0,0,0,0,0,0,0,0,8,0,24,16,24,0,32,80,80,208,64,255,64,24,0,72,8,0,24,0,0,0,0,0,0,0,0,0,0,0,0,0,0,0
255,0,0,0,0,0,255,224,0,0,144,0,0,0,0,255,0,0,0,0,0,0,0,0,255,0,0,0,0,0,0,0,0,0,0,32,32,0,64,96,72,255,80,8,56,32,64,8,8,8,0,0,0,0,0,0,0,0,0,0,0,0,0,0
255,0,0,0,0,255,0,0,232,0,0,0,255,0,255,0,0,0,0,0,0,0,0,0,0,0,0,0,0,0,0,0,48,0,0,40,40,72,64,184,72,64,56,64,40,64,8,8,0,0,0,0,0,0,0,0,0,0,0,0,0,0,0,0
255,0,0,0,0,0,0,255,0,0,0,0,255,0,0,0,0,0,0,0,0,0,0,0,0,0,0,0,0,0,0,0,0,0,0,0,0,0,72,72,80,255,96,48,64,8,16,8,0,0,0,0,0,0,0,0,0,0,0,0,0,0,0,0
0,168,0,0,0,0,0,0,0,255,0,0,255,0,0,0,0,0,0,0,0,0,0,0,0,0,0,0,0,0,0,0,0,0,0,0,0,72,24,64,72,72,80,255,8,24,72,8,0,0,0,0,0,0,0,0,0,0,0,0,0,0,0,0
0,232,0,0,0,0,255,152,0,0,255,255,255,0,0,0,0,0,0,0,0,0,0,0,0,0,0,0,0,0,0,0,16,0,0,0,0,0,64,72,184,80,88,80,48,8,8,0,0,8,0,0,0,0,0,0,0,0,0,0,0,0,0,0
0,0,0,0,0,0,255,0,0,255,0,0,255,0,255,0,0,0,0,0,0,0,0,0,0,0,0,0,0,0,0,0,0,40,0,0,0,80,64,128,255,56,64,64,16,24,8,48,0,0,0,0,0,0,0,0,0,0,0,0,0,0,224,0
0,0,0,0,128,144,0,0,0,80,0,0,0,255,0,0,0,0,0,0,0,0,0,0,0,0,0,0,0,0,0,56,0,24,0,80,0,40,80,176,255,48,72,64,8,8,8,0,56,0,0,0,0,0,0,0,0,0,0,0,0,0,0,176
0,0,0,0,0,255,0,0,224,0,0,0,0,0,0,0,0,0,0,0,0,0,0,0,0,0,0,0,0,32,0,0,0,0,0,0,0,80,80,72,96,88,64,8,64,8,8,0,0,0,0,0,0,0,0,0,0,0,0,0,0,0,0,0
255,0,0,0,0,0,255,176,0,152,72,255,96,0,0,0,0,0,0,0,0,0,0,0,0,0,0,0,0,0,0,0,0,0,16,24,0,48,24,40,72,80,80,64,64,255,16,0,0,0,0,0,0,0,0,0,0,0,0,0,0,0,0,0
0,0,0,0,0,255,0,152,0,104,0,255,0,0,0,0,0,0,0,0,0,0,0,0,0,0,0,0,0,0,24,8,24,0,24,0,24,40,96,80,248,88,88,96,8,8,16,0,0,0,0,0,0,0,0,0,0,0,0,0,0,0,0,0
255,0,0,0,0,0,255,0,160,208,0,0,0,0,255,0,0,0,0,0,0,0,0,0,0,0,0,0,0,0,0,0,0,0,0,8,0,0,56,80,72,96,80,64,32,72,8,8,0,0,0,0,0,0,0,0,0,0,0,0,0,0,0,0
0,0,0,0,0,176,0,0,0,255,0,0,0,0,0,0,255,0,0,0,0,0,0,0,0,0,0,0,0,0,0,0,0,0,0,0,96,0,255,80,80,96,40,56,72,24,0,0,0,0,0,0,0,0,0,0,0,0,0,0,0,0,0,0
0,0,0,255,0,240,200,0,0,0,0,0,0,0,0,0,0,0,0,0,0,0,0,0,0,0,0,0,0,0,0,0,0,0,0,0,0,96,0,88,80,80,56,96,64,24,8,56,0,0,0,0,0,0,0,0,0,0,0,0,0,0,0,0
0,0,0,0,224,208,0,255,255,0,0,0,0,0,0,255,0,0,0,0,0,0,0,0,0,0,0,0,0,0,0,0,0,0,0,64,64,40,72,88,136,255,48,120,8,24,8,0,8,0,0,0,0,0,0,0,0,0,0,0,0,0,0,0
0,255,0,0,248,0,200,0,255,0,255,0,0,0,0,0,0,0,0,0,0,0,0,0,0,0,0,0,0,0,0,0,0,0,0,56,0,56,64,255,80,96,152,64,64,8,64,0,0,0,0,0,0,0,0,0,0,0,0,0,0,0,0,0
0,255,0,0,255,0,208,0,128,0,0,0,255,255,0,0,0,0,0,0,0,0,0,0,0,0,0,0,0,0,0,0,0,0,40,0,0,0,88,96,88,80,80,72,40,80,8,0,0,0,0,0,0,0,0,0,0,0,0,0,0,0,0,0
255,0,0,0,0,0,0,120,0,0,240,0,0,0,0,0,0,0,0,0,0,0,0,0,0,0,0,0,0,0,0,0,24,0,0,0,0,0,8,88,88,72,255,56,80,120,8,8,0,0,0,0,0,0,0,0,0,0,0,0,0,0,0,0
