144,0,0,0,0,124,80,0,0,0,192,0,0,0,0,0,0,0,0,0,0,0,0,0,0,0,0,0,0,0,0,4,0,0,0,0,0,40,32,40,188,40,36,12,8,0,12,0,0,0,0,0,0,0,0,0,0,0,0,0,0,0,0,140
0,0,0,100,0,0,0,0,140,0,0,0,0,0,180,192,0,0,0,0,0,0,0,0,0,0,0,0,0,0,0,0,0,0,0,0,20,40,120,40,40,192,40,32,28,32,4,4,0,0,0,0,0,0,0,0,0,0,0,0,0,0,0,0
144,0,0,0,0,132,108,0,144,0,0,0,0,0,0,0,0,0,0,0,0,0,0,0,0,0,0,0,0,0,0,0,0,12,0,0,44,0,72,192,32,28,32,36,4,4,0,0,0,0,0,0,0,0,0,0,0,0,0,0,0,0,148,0
0,0,0,0,0,0,136,0,0,124,0,0,0,0,192,0,0,0,0,0,0,0,0,0,0,0,0,0,0,0,0,8,0,0,0,0,44,36,40,0,36,32,36,12,8,8,4,0,4,0,0,0,0,0,0,0,0,0,0,0,0,0,0,0
0,144,0,0,128,0,0,112,112,0,192,0,176,0,0,0,0,0,0,0,0,0,0,0,0,0,0,0,0,0,0,0,0,16,4,0,20,28,36,36,32,40,32,192,4,4,4,4,0,0,0,0,0,0,0,0,0,0,0,0,0,0,0,0
156,0,0,0,0,112,0,192,128,88,0,0,0,0,0,0,0,0,0,0,0,0,0,0,0,0,0,0,0,0,0,8,0,0,0,0,28,16,36,88,192,32,12,28,32,0,24,0,4,0,0,0,0,0,0,0,0,0,0,0,0,0,0,0
0,0,0,0,0,112,128,0,120,0,168,0,0,192,0,52,0,0,0,0,0,0,0,0,0,0,0,0,0,0,0,4,0,12,4,0,20,16,28,32,44,96,32,32,4,4,40,0,0,0,0,0,0,0,0,0,0,0,0,0,0,0,0,0
0,0,140,120,0,104,0,88,84,0,192,28,0,0,0,0,0,0,0,0,0,0,0,0,0,0,0,0,16,0,0,0,0,0,0,32,0,12,8,40,36,32,32,192,0,40,4,4,0,0,0,0,0,0,0,0,0,0,0,0,0,0,0,0
144,0,0,108,0,68,0,60,0,0,192,0,148,0,0,0,0,0,0,0,0,0,0,0,0,0,0,0,0,0,20,0,0,0,12,0,56,36,48,88,36,32,20,12,192,20,4,4,0,0,0,0,0,0,0,0,0,0,0,0,0,0,0,0
0,0,136,0,0,84,0,92,0,192,0,0,0,0,180,0,0,0,0,0,0,0,0,0,0,0,0,0,0,12,0,0,0,0,0,0,32,32,112,32,36,32,24,16,192,28,0,0,0,0,0,0,0,0,0,0,0,0,0,0,0,0,0,0
128,0,0,0,0,144,0,68,120,0,0,0,172,0,0,0,0,0,0,0,0,0,0,0,0,0,0,0,0,8,16,0,0,0,0,0,24,36,40,104,32,40,32,24,8,12,0,0,4,0,0,0,184,0,0,0,0,0,0,0,0,0,0,0
0,148,0,0,0,96,120,0,0,192,0,0,0,0,0,0,0,0,0,0,0,0,0,0,0,0,0,0,0,0,0,8,36,4,4,0,20,40,36,16,32,4,36,28,32,4,4,4,0,0,0,0,0,0,0,0,0,0,0,0,0,0,0,148
0,0,0,0,108,0,128,0,0,192,0,0,0,0,0,0,0,0,0,0,0,0,0,0,0,0,0,0,0,0,0,0,8,0,0,0,12,44,40,28,28,28,192,12,24,32,8,0,0,0,0,0,0,0,0,0,0,0,0,0,0,0,0,0
0,0,0,0,0,148,0,192,0,0,0,0,0,0,0,0,0,0,0,0,0,0,0,0,0,0,0,0,0,0,0,0,0,0,0,0,12,32,28,36,28,36,4,36,12,192,0,0,0,0,0,0,0,0,0,0,0,0,0,0,0,0,0,0
148,0,0,0,136,0,0,0,112,192,0,0,0,180,0,0,0,0,0,0,0,0,0,0,0,0,0,0,0,0,0,8,0,0,0,0,40,0,32,36,136,24,32,28,192,0,4,0,0,0,0,0,0,0,0,0,0,0,0,0,0,0,0,0
152,0,0,0,0,128,0,84,192,0,0,0,0,0,0,28,0,0,0,0,0,0,0,0,0,0,0,0,0,0,0,0,0,0,0,4,12,36,24,32,92,40,32,28,192,4,4,4,0,0,0,0,0,0,0,0,0,0,0,0,0,0,0,0
148,0,0,0,92,0,96,0,0,164,136,0,0,0,0,0,0,0,0,0,0,0,0,0,0,0,0,0,0,0,0,0,0,0,0,32,12,36,40,32,40,24,12,40,0,28,192,0,0,0,0,0,0,0,0,0,0,0,0,0,0,0,152,0
0,0,0,0,0,108,108,132,0,0,0,0,0,0,0,0,0,0,0,0,0,0,0,0,0,0,0,0,0,0,12,0,0,0,0,0,0,32,32,32,72,32,36,20,192,4,28,0,0,0,0,0,0,0,0,0,0,0,0,0,0,0,0,0
144,0,0,0,112,124,0,192,0,148,0,0,0,0,180,0,0,0,0,0,0,0,0,0,0,0,0,0,0,0,0,0,28,0,0,0,20,36,24,132,28,28,28,8,16,32,4,192,0,0,0,0,0,0,0,0,0,0,0,0,0,0,0,136
0,0,0,0,0,80,0,0,0,104,192,156,0,0,0,0,0,0,0,0,0,0,0,0,0,0,0,0,0,0,0,8,0,0,0,0,0,28,36,36,40,28,40,192,24,4,4,0,4,0,0,0,0,0,0,0,0,0,0,0,0,0,0,0
0,0,92,0,0,164,0,60,192,120,44,0,0,0,0,0,0,0,0,0,0,0,0,0,0,0,0,0,0,0,0,0,0,0,0,0,28,0,36,40,40,36,20,36,0,32,4,4,0,0,0,0,0,0,0,0,0,0,0,0,0,0,0,0
0,0,0,0,0,116,0,0,0,192,0,0,0,0,0,0,0,0,0,0,0,0,0,0,0,0,0,0,0,0,0,0,0,0,4,4,4,44,28,28,40,4,40,12,36,192,4,0,0,0,0,0,0,0,0,0,0,0,0,0,0,0,0,160
0,0,0,0,76,0,0,132,136,192,0,0,0,0,0,0,0,0,0,0,0,0,0,0,0,0,0,0,0,0,0,0,0,0,12,0,12,0,32,40,40,32,192,28,4,4,0,16,0,0,0,0,0,0,0,0,0,0,0,0,0,0,148,0
0,0,0,0,0,120,132,112,0,0,0,192,0,0,156,0,0,0,0,0,0,0,0,0,0,0,0,0,0,0,0,0,4,0,0,0,116,16,32,40,32,32,192,56,16,0,24,0,0,0,0,0,0,0,0,0,0,0,0,0,0,0,0,0
152,0,0,0,128,92,80,0,100,192,44,0,0,0,0,0,24,0,0,0,0,0,0,0,0,0,0,12,0,0,0,0,0,0,0,0,12,8,28,32,32,40,12,192,4,0,0,4,0,0,0,0,0,0,0,0,0,0,0,0,0,0,0,0
132,0,0,0,192,124,0,104,140,0,0,0,0,0,0,0,0,0,0,0,0,0,0,0,0,0,0,0,0,0,12,0,0,0,0,0,0,44,36,40,32,28,40,28,12,4,4,0,0,4,0,0,192,0,0,0,0,0,0,0,0,0,0,0
152,0,0,0,0,132,0,104,0,0,0,192,180,0,0,0,0,0,0,0,0,0,0,0,0,0,0,0,0,0,12,0,28,0,0,0,0,36,32,72,32,12,36,192,12,4,12,0,0,0,0,0,0,0,0,0,0,0,0,0,0,0,132,0
0,0,0,0,144,0,0,0,0,192,152,0,0,0,0,0,0,0,0,0,0,0,0,0,0,0,0,0,0,0,0,0,0,0,0,0,36,28,32,28,28,12,32,28,32,4,4,4,0,0,0,0,0,0,0,0,0,0,0,0,0,116,0,0
0,0,0,0,0,140,0,0,120,0,0,0,0,0,0,0,0,164,0,0,0,0,0,0,0,0,0,0,0,0,0,0,0,0,0,0,40,0,48,32,36,192,4,4,40,4,0,0,0,0,0,0,0,0,0,0,0,0,0,0,0,0,0,0
136,0,0,112,0,72,0,84,0,144,0,192,0,160,0,0,0,0,0,0,0,0,0,0,0,0,0,0,0,0,0,0,0,32,0,0,28,24,32,80,20,28,192,28,32,0,4,4,0,0,0,0,0,0,0,0,0,0,0,0,0,0,0,120
0,0,0,0,0,128,0,0,0,100,192,0,0,0,0,0,0,0,0,0,0,0,0,0,0,0,0,0,0,0,0,0,0,0,0,28,0,4,28,32,32,192,28,24,12,16,4,0,0,0,0,0,0,0,0,0,0,0,0,0,0,0,0,0
0,148,0,0,84,0,132,188,0,0,148,0,0,0,0,0,0,0,0,0,0,0,0,0,0,0,0,0,0,0,0,0,0,0,0,0,28,36,36,40,32,48,36,24,28,4,0,16,0,0,0,0,0,0,0,0,0,0,0,0,0,0,156,0
0,0,0,0,0,120,0,192,140,0,0,0,0,0,0,0,20,0,0,0,0,0,0,0,0,0,0,0,0,0,0,0,0,0,0,0,44,0,36,36,32,24,36,32,4,16,0,0,0,0,0,0,0,0,0,0,0,0,0,0,0,0,0,0
140,0,0,0,0,168,76,0,0,0,192,152,0,0,0,0,0,0,0,0,0,0,0,0,0,0,0,0,0,0,0,0,0,0,0,16,4,36,28,84,36,32,32,192,12,32,0,0,0,0,0,0,0,0,0,0,0,0,0,0,0,0,144,0
0,0,0,0,0,164,0,0,192,48,0,0,0,0,0,0,0,0,0,0,0,0,0,0,0,0,0,0,0,0,0,0,0,0,0,0,0,4,32,32,32,32,40,32,192,4,0,4,0,0,0,0,0,0,0,0,0,0,0,0,0,0,0,0
124,0,0,0,148,0,0,92,0,88,176,0,0,0,0,40,0,0,0,0,0,0,0,0,0,0,0,0,0,4,0,12,0,4,0,0,8,8,28,40,136,28,192,12,40,4,8,0,0,4,0,0,0,0,0,0,0,0,0,0,0,0,144,0
0,0,0,0,0,0,132,148,0,192,0,0,0,0,84,0,0,0,0,0,0,0,0,0,0,0,0,0,0,0,0,0,8,0,4,4,8,12,40,28,32,28,28,32,0,12,12,192,0,0,24,0,0,0,0,0,0,0,0,0,0,0,0,0
0,0,0,0,120,0,0,0,192,0,0,0,184,0,0,0,0,0,0,0,0,0,0,0,0,0,0,0,0,0,0,0,4,0,40,28,0,8,36,32,32,36,32,16,4,4,192,0,0,0,0,0,0,0,0,0,0,0,0,0,0,0,0,0
0,0,0,0,0,0,0,100,140,0,0,0,0,0,0,0,0,0,0,0,0,0,0,0,0,0,0,0,0,0,0,0,0,0,16,0,0,32,32,64,36,28,36,40,0,40,4,0,0,0,0,0,0,0,0,0,0,0,0,0,0,0,0,0
0,0,0,128,0,0,0,192,0,0,0,0,0,0,0,184,0,0,0,0,0,0,0,0,0,0,0,0,0,0,0,0,0,20,0,0,32,0,44,32,32,32,48,32,192,4,4,40,0,0,0,0,0,0,0,0,0,0,0,0,0,0,0,0
144,0,0,0,116,0,0,0,128,192,0,0,0,0,0,0,0,0,0,0,0,0,0,0,0,0,0,0,0,0,0,0,0,0,0,0,32,48,44,0,36,36,32,12,192,8,4,0,0,0,0,0,0,0,0,0,0,0,0,0,0,0,0,0
140,0,0,0,160,0,96,0,0,136,0,192,76,0,0,0,0,0,0,0,0,0,0,0,0,0,0,0,0,0,0,0,8,0,0,0,0,40,32,32,40,32,28,32,192,12,0,0,0,4,0,0,0,0,0,0,0,0,0,0,0,0,0,152
0,0,0,0,0,152,0,0,0,24,0,0,192,0,0,0,0,0,0,0,0,0,0,0,0,0,0,0,0,0,0,8,0,0,0,0,4,44,32,40,40,44,192,28,4,12,0,4,0,0,0,0,0,0,0,0,0,0,0,0,0,0,0,0
0,0,0,0,0,0,128,88,0,140,192,0,0,0,0,0,0,0,0,0,0,0,0,0,0,0,0,0,0,0,4,0,0,0,0,0,0,32,76,36,28,40,40,192,4,0,12,4,0,0,0,0,0,0,0,0,0,0,0,0,0,0,0,0
144,0,0,0,0,92,0,0,0,120,192,0,0,0,0,152,0,0,0,0,0,0,0,0,0,0,0,0,0,0,0,12,0,0,0,12,24,0,36,84,32,32,4,28,4,4,0,0,0,0,0,0,0,0,0,0,0,0,0,0,0,0,148,0
0,0,0,0,0,104,96,0,0,0,0,52,192,0,0,0,0,0,0,0,0,0,0,0,0,0,0,0,0,0,4,12,8,8,0,12,12,20,32,32,40,28,28,12,0,28,16,0,0,0,0,0,0,0,0,0,0,0,0,0,0,0,0,136
0,0,0,0,0,92,128,0,88,64,192,0,0,0,0,0,0,0,0,0,0,0,0,0,0,0,0,0,0,0,0,0,0,0,8,0,4,12,36,36,36,192,48,32,4,4,4,0,0,0,0,0,0,0,0,0,0,0,0,0,0,0,0,0
132,0,0,0,56,48,120,0,120,0,0,0,0,0,0,192,0,0,0,0,0,0,0,0,0,0,0,0,0,0,0,0,0,0,8,0,32,0,36,36,28,32,24,32,4,4,32,0,0,0,0,0,0,0,0,0,0,0,0,0,0,0,0,144
0,0,0,0,0,60,0,0,132,0,0,0,176,0,192,0,0,0,0,0,0,0,0,0,0,0,0,0,0,0,0,4,0,0,0,0,0,44,40,80,24,192,28,32,20,28,16,0,0,0,0,0,0,0,0,0,0,0,0,0,0,0,0,0
0,148,0,0,168,0,88,0,104,0,0,0,0,180,192,0,0,0,0,0,0,0,0,0,0,0,0,0,12,0,0,0,0,0,0,0,4,48,36,48,192,36,40,4,4,28,4,4,0,0,0,0,0,0,0,0,0,0,0,0,0,0,0,0
