21,3,3,30,21,21,27,39,33,30,36,30,30,30,30,36,27,39,36,33,30,30,36,33,24,24,0,0,12,0,0,0,0,0,0,0,0,0,15,0,0,0,0,0,0,0,0,0,0,0,0,0,0,0,0,0,0,0,0,0,0,3,27,24
3,27,3,3,30,33,24,42,42,36,30,36,33,30,27,30,30,36,33,33,30,30,30,27,24,0,30,0,0,9,0,0,0,0,0,0,0,0,24,0,0,0,3,0,0,0,0,0,0,0,0,0,0,0,0,0,0,0,0,0,0,18,39,0
27,3,30,3,3,27,24,33,39,30,42,45,36,27,30,33,30,24,27,36,27,30,33,36,30,0,0,30,0,9,33,0,0,0,0,0,6,0,0,24,0,0,0,24,0,0,0,0,0,0,0,0,0,0,0,0,0,0,0,0,0,0,30,21
21,3,6,24,21,27,36,36,39,42,30,33,30,30,30,33,36,30,27,30,30,33,24,30,24,0,0,0,30,9,0,0,0,0,0,0,0,0,0,0,30,0,0,0,3,0,0,0,0,0,0,0,0,0,0,0,0,0,0,0,0,21,36,30
3,18,0,3,33,24,24,21,27,30,24,36,27,24,21,18,30,18,18,15,21,18,15,18,0,18,0,9,0,24,0,0,3,0,0,0,3,0,36,0,0,0,12,0,0,0,0,0,0,0,0,0,9,3,0,0,0,0,3,0,0,3,33,21
24,3,3,33,6,27,39,24,39,42,27,33,30,27,24,30,18,21,15,18,18,24,21,21,18,12,0,0,9,0,36,0,0,0,0,0,0,0,3,12,0,12,0,0,0,0,0,0,0,0,0,3,0,0,0,0,0,0,0,0,0,6,30,15
33,3,33,27,3,27,24,27,33,33,36,27,33,27,30,33,36,33,27,30,30,36,33,33,24,0,0,0,30,15,0,0,0,0,3,0,0,0,27,0,0,0,15,0,0,0,0,0,0,3,0,0,0,3,0,0,0,0,0,0,0,3,21,30
3,27,3,27,24,21,21,33,42,33,45,30,30,30,27,27,36,30,27,27,21,30,27,36,24,0,0,0,9,30,0,0,0,0,3,0,0,0,0,0,36,3,0,3,0,0,0,0,0,0,0,0,0,3,0,0,0,0,0,0,21,0,0,3
30,3,3,30,3,30,24,21,33,36,30,36,45,30,27,30,30,24,30,30,30,36,33,30,24,24,0,0,0,33,9,0,0,0,0,0,6,0,0,0,0,15,0,15,0,3,15,3,0,0,0,0,0,0,0,0,0,0,0,0,0,0,3,30
24,3,3,24,3,24,24,42,33,36,39,30,30,24,27,33,30,27,30,36,36,33,30,30,27,0,0,0,12,0,30,0,0,0,0,0,0,0,24,0,0,18,0,0,0,0,0,0,0,0,0,0,0,0,0,0,0,0,0,0,0,3,39,21
3,21,3,3,33,30,42,30,27,36,30,33,33,33,30,24,24,24,18,21,21,21,15,21,18,9,0,0,9,30,0,0,3,0,0,0,0,0,0,15,0,0,0,0,0,0,0,0,0,0,0,0,0,0,0,0,3,0,0,0,0,3,30,36
21,6,3,27,30,24,21,45,39,36,36,27,30,30,33,33,36,30,30,42,24,30,33,24,24,0,0,0,9,27,0,0,0,3,0,0,51,0,0,0,6,0,0,0,0,0,0,0,0,0,0,0,0,0,0,0,0,0,0,0,0,6,36,27
24,6,3,3,33,24,27,42,30,42,36,30,33,39,30,33,30,33,33,30,30,27,27,24,30,0,18,0,36,12,0,0,0,0,0,0,0,3,0,0,0,42,0,0,0,0,0,0,3,0,0,0,0,0,0,0,0,0,0,0,0,6,36,27
30,0,3,30,24,3,33,27,27,42,27,30,33,33,33,33,27,33,33,30,33,27,33,30,0,27,0,9,33,0,0,0,0,0,0,0,0,0,15,0,0,0,3,0,0,0,0,0,0,0,0,6,0,0,0,0,0,0,0,0,0,3,18,0
27,36,3,3,3,30,27,27,27,30,33,42,36,30,33,27,33,27,33,30,30,33,33,33,33,21,0,0,0,30,12,0,0,0,0,0,0,0,0,0,30,0,0,18,0,0,0,0,0,0,0,0,0,3,0,0,0,0,0,0,0,18,0,36
18,21,3,27,3,21,27,30,42,27,27,24,27,24,36,27,21,18,21,18,18,21,18,21,0,0,18,0,27,0,9,0,0,0,0,0,0,0,0,0,0,0,0,0,3,0,0,0,0,0,0,0,0,0,0,0,0,0,0,0,0,3,30,21
3,27,3,3,30,27,51,24,30,33,30,27,27,21,24,21,18,18,21,18,21,15,18,15,24,9,0,9,0,27,0,0,0,0,0,0,0,0,0,21,0,0,12,3,0,0,0,0,0,0,0,0,0,0,0,0,0,0,0,0,0,3,33,30
3,3,27,33,3,27,21,30,27,30,24,33,27,30,21,21,27,21,18,15,18,21,18,0,15,0,18,0,9,24,0,0,0,3,0,0,0,0,0,0,0,0,0,0,0,0,0,0,0,0,0,0,0,0,0,0,0,0,0,0,0,3,30,15
3,3,30,3,30,30,27,24,21,39,36,30,36,27,30,30,27,27,33,24,27,27,24,21,21,18,0,0,3,30,0,0,0,0,3,0,0,0,0,6,0,0,9,0,0,0,0,0,0,0,0,0,0,0,0,0,0,0,0,0,0,3,21,18
3,3,30,6,3,24,48,33,39,42,45,33,30,30,33,30,27,27,36,27,30,30,39,24,33,0,0,9,0,0,21,0,0,0,0,3,0,0,0,0,33,0,0,0,30,0,0,3,0,0,0,0,0,0,0,0,0,0,0,0,9,39,30,0
21,3,3,6,30,30,21,30,30,30,30,27,36,27,30,36,27,24,24,30,27,30,27,30,0,0,0,0,15,36,0,0,0,0,0,0,3,0,0,33,0,0,9,0,0,0,0,0,3,0,0,0,3,0,0,0,0,0,0,0,0,3,24,30
30,6,6,27,3,24,33,30,27,24,30,33,21,24,24,30,15,15,18,15,18,18,21,21,0,15,0,0,9,36,0,0,0,0,0,6,0,0,12,0,0,0,0,0,0,0,0,0,0,0,0,0,0,0,0,0,0,0,0,0,6,0,33,30
6,30,6,21,3,30,33,36,33,30,33,33,39,33,36,24,30,24,30,24,30,33,30,42,27,24,0,12,0,30,0,0,0,0,0,0,0,0,15,0,0,0,12,0,0,0,0,3,0,0,3,0,0,0,0,0,0,0,0,0,0,9,30,24
3,3,36,21,3,30,36,36,33,33,36,30,30,33,30,27,30,33,33,33,36,24,30,30,27,0,0,0,9,0,33,0,0,0,0,0,0,0,0,0,0,3,0,0,0,0,0,0,0,0,0,3,0,0,0,0,0,0,0,0,0,6,24,27
24,30,3,3,33,24,27,33,42,30,33,36,36,27,27,30,30,27,30,27,27,30,24,33,0,30,0,0,9,0,33,0,0,0,0,0,0,0,30,0,0,3,0,0,0,0,0,0,0,0,0,0,0,0,0,0,0,0,0,0,0,3,27,21
3,30,30,3,6,24,24,27,36,24,30,30,30,27,33,30,30,36,36,33,33,30,30,30,24,0,0,0,12,30,0,0,0,0,0,0,0,0,3,24,0,0,0,3,0,0,0,0,0,0,0,0,0,0,0,0,0,0,0,0,0,30,24,6
30,3,3,30,6,24,24,27,36,39,36,36,33,27,27,30,24,30,33,27,30,24,30,27,15,27,0,0,9,30,0,0,0,0,3,0,0,0,0,42,0,0,0,0,0,0,0,0,0,0,0,0,0,0,0,0,0,0,0,0,0,3,27,24
3,27,3,3,36,24,27,30,30,36,27,27,30,27,24,33,33,30,36,36,24,30,24,30,24,0,0,12,0,30,0,0,0,0,0,0,0,0,0,3,45,12,0,0,0,0,0,0,0,0,3,0,0,0,0,0,0,0,0,0,0,6,21,33
15,30,3,6,21,30,30,24,21,36,30,36,30,27,30,33,30,27,30,33,30,30,36,24,30,0,0,0,12,30,0,0,0,0,0,0,0,21,0,0,0,0,0,0,0,0,0,0,0,0,0,3,0,3,0,0,0,0,0,0,0,9,30,0
3,15,24,3,6,24,21,21,48,30,36,33,36,30,36,39,30,30,36,33,33,33,33,36,33,0,27,0,0,9,33,0,0,0,0,0,6,0,0,3,0,30,0,9,0,0,0,0,0,0,0,0,0,0,0,0,0,0,0,0,0,3,27,0
30,3,12,3,3,30,24,30,39,36,30,33,36,30,30,27,24,24,30,33,30,21,27,27,27,0,0,0,9,30,0,0,0,0,0,0,0,0,0,42,0,0,18,0,0,0,0,0,0,3,0,0,0,0,0,0,0,0,0,0,0,3,33,24
33,3,3,33,27,6,30,27,30,42,30,27,30,27,30,39,39,36,30,33,33,33,33,27,27,0,0,0,6,0,0,30,0,0,0,0,0,0,0,36,0,0,9,0,0,0,0,0,0,0,0,0,0,0,0,0,0,0,0,0,0,9,30,27
3,27,6,27,3,21,42,21,30,36,39,27,30,27,24,30,30,39,30,27,33,30,33,27,15,0,0,0,9,33,0,0,0,0,0,0,6,0,0,0,0,0,0,6,0,0,0,0,0,0,0,0,0,0,0,0,0,0,0,0,0,3,21,21
24,3,3,3,36,36,24,33,36,30,30,27,21,24,27,18,21,18,18,18,18,18,18,18,18,15,0,0,30,9,0,0,0,3,0,0,0,27,0,0,0,0,0,3,0,0,0,0,0,0,0,0,0,0,0,0,0,0,0,0,0,24,30,24
6,15,3,27,3,21,27,39,30,27,21,24,24,30,24,24,21,15,21,18,15,21,15,18,12,18,0,0,9,30,0,0,0,0,0,0,3,0,24,0,0,0,33,0,0,3,0,0,0,0,0,0,0,0,0,0,0,0,0,0,0,36,6,30
3,3,21,27,3,30,21,27,39,24,36,24,30,33,24,27,33,33,30,27,33,33,27,27,27,0,0,0,0,0,0,0,0,0,0,3,0,0,0,27,0,0,9,0,0,0,0,0,0,0,75,0,0,0,0,0,0,0,0,0,0,3,33,24
3,3,15,3,27,24,24,36,21,30,30,27,42,30,24,24,27,30,30,39,30,33,33,33,24,0,0,0,12,0,27,0,0,0,0,0,0,0,0,3,30,0,0,0,0,0,0,0,0,0,0,0,0,0,0,0,0,0,0,0,0,9,30,36
21,6,18,3,3,21,30,30,36,45,30,39,24,24,30,30,27,30,27,30,30,24,24,30,21,15,0,0,9,0,0,0,0,0,0,0,0,3,0,0,0,0,0,3,0,0,0,0,0,0,0,0,0,0,0,0,0,0,0,0,0,0,24,24
3,27,30,15,6,27,21,39,36,30,42,33,27,30,30,30,30,30,33,27,27,24,24,33,39,0,0,0,9,33,0,0,0,0,0,0,0,0,0,0,0,12,0,0,0,0,0,0,0,0,0,0,0,0,0,0,0,0,0,0,6,0,30,30
3,21,3,3,30,30,30,36,27,39,36,30,27,33,33,24,30,24,27,27,30,27,21,36,33,15,0,0,9,0,30,0,0,0,0,0,0,0,0,3,0,0,3,0,0,0,0,0,0,0,0,0,0,0,0,0,0,0,0,0,0,3,36,36
24,3,6,3,33,24,27,42,30,33,27,42,30,24,36,27,30,27,30,18,33,27,33,21,24,0,0,33,0,9,0,0,0,0,0,0,0,21,0,0,0,0,18,0,0,0,0,0,0,0,0,0,0,3,0,0,0,0,0,0,6,0,30,33
24,6,3,33,30,24,21,27,33,21,24,24,24,27,21,21,21,24,21,15,18,24,21,15,15,0,12,0,12,24,0,0,0,0,0,0,15,0,0,0,0,12,0,0,0,0,0,0,0,0,0,0,0,0,0,0,0,0,0,0,0,3,21,24
30,3,3,30,3,27,33,45,39,27,30,30,36,33,33,33,27,15,30,39,30,21,15,15,21,0,0,9,0,0,30,0,0,0,0,0,0,0,18,0,0,0,9,6,0,0,0,0,0,0,0,0,0,0,0,0,0,0,0,0,0,6,27,30
33,3,3,6,18,27,30,30,42,33,27,24,24,30,27,21,24,30,33,42,27,33,30,27,24,0,0,0,12,33,0,0,0,0,0,0,3,0,0,36,0,0,6,0,0,0,0,0,0,0,0,0,0,0,0,0,0,0,0,0,0,3,0,36
27,3,3,27,33,3,30,21,45,36,33,39,27,27,27,30,27,33,30,24,42,39,30,21,33,0,0,24,12,0,0,24,0,0,0,0,0,0,0,0,9,0,0,24,0,0,0,0,0,0,0,0,0,0,0,0,0,0,0,0,0,0,0,24
3,0,36,3,33,24,30,39,36,36,30,42,27,27,36,21,24,30,36,27,30,30,15,33,33,0,0,0,9,27,0,0,0,0,0,0,0,0,30,0,0,3,0,12,0,0,0,0,0,0,0,0,0,0,0,3,0,0,0,0,24,0,3,27
0,27,3,3,15,33,27,21,24,30,27,30,27,30,63,24,27,36,33,21,36,33,30,21,30,0,0,0,9,33,0,0,0,0,0,0,0,0,3,30,3,0,0,0,0,0,0,0,0,0,0,0,0,0,0,0,0,3,0,0,0,3,36,33
12,33,3,3,27,30,33,30,30,42,36,30,30,30,30,30,30,30,30,27,30,33,33,33,21,0,0,12,0,30,0,0,0,0,3,0,0,0,0,0,0,3,0,0,0,0,0,0,0,0,0,0,0,0,0,0,0,0,0,0,6,0,24,30
3,33,3,3,24,33,27,39,12,39,33,36,24,27,30,27,36,30,36,30,36,27,30,30,15,0,0,0,9,33,0,0,0,0,0,0,0,0,0,33,0,21,0,0,0,0,0,0,0,0,0,0,0,0,0,0,0,0,0,0,0,3,21,27
3,6,24,33,30,6,33,21,36,30,30,30,24,27,24,24,21,39,36,33,33,18,21,36,33,24,0,0,12,27,0,0,0,0,3,0,0,0,42,0,0,0,18,0,0,0,0,0,3,0,0,0,0,0,0,0,0,0,0,0,0,3,39,3
