27,3,3,30,36,36,30,36,27,30,27,36,21,30,30,21,24,21,21,21,24,15,15,15,9,15,9,0,0,30,0,0,0,0,0,0,0,0,0,0,48,0,0,0,0,0,0,0,0,0,0,0,0,0,0,0,0,0,0,0,0,3,42,36
30,3,39,3,6,39,42,45,36,27,33,36,27,18,21,24,21,24,21,24,21,27,21,24,21,0,0,0,9,30,0,0,0,0,0,0,0,0,0,60,0,0,0,0,0,0,0,0,0,0,0,0,0,0,0,0,0,0,0,0,0,36,24,36
33,3,3,42,36,30,39,39,36,42,30,30,27,30,21,24,24,15,21,18,21,21,21,15,9,15,0,9,0,0,0,36,0,0,0,0,0,39,0,0,0,0,0,0,0,0,0,0,0,0,0,0,0,0,0,0,0,0,0,0,0,30,30,36
30,33,0,3,36,36,27,42,39,42,39,27,30,21,21,18,18,27,15,21,21,18,15,18,21,0,12,0,9,30,0,0,0,0,0,3,0,0,0,36,0,9,0,0,0,0,0,0,0,3,0,9,0,0,0,0,0,0,0,0,3,30,0,30
3,3,36,36,3,36,33,42,27,27,30,33,30,24,24,27,24,15,18,21,21,21,21,21,21,9,0,0,9,0,33,0,0,0,0,0,0,0,0,39,0,0,3,0,0,0,0,0,0,0,0,0,0,0,0,0,0,0,0,0,0,39,36,0
30,18,3,24,3,36,33,42,30,33,39,30,18,30,21,21,18,18,18,18,18,24,18,21,18,12,12,0,0,9,0,0,0,0,0,0,0,0,0,0,15,0,0,0,0,0,30,0,0,0,0,0,0,0,0,0,0,0,0,0,0,0,27,39
30,3,3,42,39,42,30,39,33,33,27,30,27,24,21,24,18,24,24,15,15,15,15,18,18,0,0,0,9,30,0,0,0,0,0,0,0,18,0,0,3,0,0,0,0,0,0,0,0,0,0,0,0,0,0,0,0,0,0,0,0,21,33,36
6,30,6,33,36,30,36,33,33,36,30,33,33,24,24,21,18,21,18,15,18,15,15,15,21,0,6,0,9,0,30,0,0,0,0,0,0,0,21,0,0,0,0,0,0,0,0,24,0,0,0,0,0,0,0,0,0,0,0,30,0,0,27,30
3,3,3,6,36,33,33,42,42,45,36,36,30,30,24,27,18,18,18,15,18,18,18,18,18,9,0,0,9,30,0,0,0,9,0,0,0,0,0,21,0,0,0,0,0,0,0,0,0,0,0,0,0,0,0,0,0,0,0,0,0,36,24,36
6,3,6,36,30,39,27,42,30,39,30,30,30,24,24,21,21,18,15,18,21,18,15,15,15,6,0,0,27,12,0,0,0,0,0,0,0,0,0,36,0,0,0,0,0,0,0,0,0,0,0,0,0,0,0,0,0,0,0,0,0,24,30,33
30,12,6,3,39,33,39,33,36,30,39,24,36,27,27,21,21,27,24,24,18,21,18,18,24,0,0,0,33,9,0,0,0,0,0,0,0,0,21,0,0,0,3,0,0,0,0,0,0,0,0,0,0,0,0,0,0,0,0,0,0,48,45,15
33,3,3,21,3,42,36,27,39,36,36,30,30,21,21,27,21,18,21,18,18,15,15,18,18,9,0,0,9,30,0,0,0,0,0,0,0,0,0,0,54,0,0,0,0,0,0,0,0,0,0,0,0,0,0,0,0,0,0,0,0,51,36,39
33,3,3,3,42,33,36,42,36,42,27,30,24,18,21,18,18,15,21,21,18,18,18,18,15,0,9,0,9,33,0,0,0,0,0,0,0,0,0,27,0,0,0,0,0,0,0,0,0,0,0,0,0,0,0,0,0,0,0,0,0,36,3,27
3,39,3,42,3,36,39,39,42,30,30,33,33,21,18,15,15,18,18,21,15,18,18,18,18,0,0,12,0,30,0,0,0,3,0,0,0,0,0,24,6,0,0,0,0,0,0,0,0,0,0,0,0,0,0,0,0,0,0,0,0,3,33,42
36,3,3,3,36,36,33,39,27,30,33,36,27,24,24,18,24,24,18,18,21,21,15,21,18,0,9,0,9,33,0,0,0,0,0,0,21,0,0,0,0,0,6,0,0,0,0,0,0,0,0,0,0,0,0,0,0,0,0,0,0,33,36,39
42,3,3,42,36,27,30,30,27,39,33,39,36,24,24,27,24,24,21,24,24,21,21,18,21,12,0,0,9,36,0,0,0,0,0,0,0,0,0,18,0,0,0,0,3,0,0,0,0,0,0,0,0,0,0,0,0,0,0,0,3,0,42,42
33,6,3,48,42,42,36,42,30,36,30,42,27,30,18,24,18,21,15,21,21,21,18,21,18,9,0,0,12,36,0,0,0,0,0,18,0,0,0,0,0,0,0,3,0,0,0,0,0,0,0,0,0,0,0,0,0,0,0,0,0,39,39,0
42,6,36,3,33,30,39,30,39,39,30,27,33,30,21,24,21,18,21,18,18,18,21,18,15,18,6,0,9,0,30,0,0,0,0,0,0,0,0,0,39,0,0,0,0,0,0,0,0,0,0,0,0,0,0,0,0,0,0,0,0,0,3,39
36,45,3,3,39,6,30,33,30,36,36,39,30,36,33,33,30,18,18,21,21,15,21,18,21,15,15,0,9,0,0,27,0,0,0,0,0,0,0,0,6,0,0,0,0,0,3,0,0,0,0,0,0,0,0,0,0,0,0,0,0,0,3,39
3,36,3,33,15,39,45,42,39,45,39,27,30,21,24,30,21,21,21,18,15,15,15,18,15,9,0,3,0,0,36,0,0,0,0,3,0,0,3,24,3,0,15,0,0,0,0,123,0,0,0,0,0,0,0,0,0,0,0,0,0,39,18,24
42,33,3,6,39,42,42,33,39,33,39,30,27,27,21,21,18,21,18,21,21,21,21,21,15,0,9,0,12,30,0,0,0,0,3,0,0,6,0,0,0,0,0,0,0,0,0,0,0,0,0,0,0,0,0,0,0,0,0,0,0,36,3,33
36,42,3,39,6,27,30,39,36,30,30,30,27,30,24,27,21,21,24,21,21,24,18,21,24,12,0,0,9,30,0,0,0,3,0,0,0,0,30,0,0,0,3,0,0,0,0,0,0,0,0,0,0,0,0,0,0,0,0,0,3,48,0,27
42,3,36,3,39,3,30,33,30,30,27,39,33,24,21,21,21,24,18,15,18,15,18,18,18,9,9,0,0,33,0,0,0,0,0,0,0,0,0,0,3,0,0,0,0,0,0,0,0,0,0,0,0,0,0,0,0,0,0,0,0,36,18,30
3,27,3,30,3,27,33,33,39,30,24,30,27,21,21,24,15,24,21,18,33,21,15,18,12,12,3,0,12,30,0,0,0,0,0,0,0,0,0,42,3,0,0,0,0,0,0,0,0,0,0,0,0,0,0,0,0,0,0,0,0,21,24,15
3,3,33,6,36,33,36,45,48,30,30,30,27,24,30,18,18,15,18,15,15,15,15,18,9,15,0,0,9,30,0,0,0,0,0,0,0,0,15,3,0,0,9,0,0,0,0,0,0,0,0,0,0,0,0,0,0,0,0,0,0,27,27,30
33,3,36,3,33,30,39,27,30,30,33,33,33,27,15,24,15,18,18,18,15,15,15,15,15,12,0,0,9,36,0,0,0,0,0,0,0,0,0,3,42,3,0,0,18,3,0,0,0,0,0,0,0,0,0,0,0,0,0,0,0,15,33,30
3,39,45,3,3,33,30,45,30,36,36,24,33,18,21,21,21,18,18,15,18,15,21,18,15,6,0,0,33,9,0,0,0,0,0,0,6,0,24,0,0,0,0,0,0,0,0,0,0,0,0,0,0,0,0,0,0,0,0,0,36,0,15,0
33,36,36,3,36,3,27,27,36,39,27,30,33,30,27,21,18,15,18,18,18,15,15,15,15,15,9,0,0,12,30,0,0,0,0,0,0,0,6,21,0,0,0,0,0,0,0,0,0,0,0,0,0,0,0,0,0,0,0,0,0,0,3,36
3,39,3,30,6,27,39,33,30,36,30,42,30,21,21,18,18,24,18,18,12,21,15,15,12,6,0,0,12,0,0,0,0,0,0,0,0,0,30,0,0,0,0,0,0,0,0,0,0,0,0,0,0,0,0,0,0,0,0,0,0,18,36,30
36,3,3,3,33,39,48,48,30,39,45,33,24,30,15,21,21,21,15,12,21,18,12,18,15,6,0,0,9,36,0,0,0,0,0,0,0,0,0,0,0,0,0,0,0,0,0,0,0,0,0,0,0,0,0,0,0,0,0,0,39,0,33,6
42,3,9,33,39,39,42,48,36,33,39,30,24,21,18,21,15,18,18,21,21,18,21,18,12,9,0,0,9,33,0,0,0,0,0,0,0,0,24,0,3,0,0,0,0,0,0,0,0,0,0,0,0,0,0,0,0,0,0,0,0,15,39,30
33,3,3,42,3,39,33,48,45,30,42,21,27,21,21,15,18,18,15,15,18,21,15,15,18,15,0,0,12,0,0,0,0,0,0,0,0,0,18,0,3,0,0,0,0,0,0,0,0,0,0,0,0,0,0,0,0,0,0,0,0,3,30,0
33,3,3,3,3,39,36,30,33,48,27,30,24,24,21,24,24,18,18,15,15,15,21,15,21,12,18,0,0,9,0,0,0,0,0,0,0,0,0,0,12,0,0,0,0,0,0,0,0,0,0,0,0,0,0,0,0,0,0,0,0,3,0,6
3,9,33,3,6,36,36,39,27,36,18,24,45,27,21,33,21,24,12,15,15,15,15,15,15,9,0,0,12,36,0,0,0,0,0,0,0,0,3,54,0,0,3,0,0,0,0,0,0,0,0,0,0,0,0,0,0,0,0,0,0,21,42,27
3,3,36,12,36,12,33,42,30,42,33,33,24,21,21,21,18,21,15,15,15,15,12,15,15,0,3,0,30,9,0,0,0,0,0,3,0,0,0,0,45,0,0,0,0,0,0,0,0,0,0,0,0,0,0,0,0,0,0,0,0,24,51,36
3,21,3,36,6,36,33,30,27,42,30,30,30,24,21,21,24,15,15,18,12,15,15,12,9,15,12,0,0,30,0,0,0,0,0,0,0,0,0,0,0,0,3,0,0,0,0,0,0,0,0,0,0,0,0,0,0,0,0,0,24,0,33,42
6,3,6,36,33,30,33,27,30,33,30,45,24,21,30,18,18,15,15,15,15,15,15,12,6,15,0,0,9,24,0,0,0,0,0,0,0,0,3,30,0,0,0,0,0,0,0,0,0,0,0,0,0,0,0,0,0,0,0,0,0,21,33,42
3,39,36,36,3,33,33,30,39,42,33,33,24,33,27,18,15,18,15,21,12,15,15,15,15,15,0,3,0,33,0,0,0,0,0,0,0,15,0,0,0,0,0,0,0,0,0,0,0,0,0,0,0,0,0,0,0,3,0,0,0,48,36,39
36,30,3,36,6,30,42,30,27,30,39,27,27,24,27,24,27,24,12,12,15,15,12,12,12,0,9,9,0,30,0,0,0,0,3,0,0,0,45,0,0,0,0,0,0,0,0,0,0,0,0,0,0,0,0,0,0,0,3,0,0,18,39,36
3,3,30,3,6,30,45,36,36,36,48,30,30,27,24,27,15,18,15,18,15,15,12,18,6,15,0,9,0,30,0,0,0,0,3,0,0,0,0,12,0,0,0,0,0,0,0,0,0,0,0,0,0,0,0,0,0,0,0,0,0,39,33,0
3,42,42,3,3,6,42,36,48,30,36,42,27,27,21,24,33,21,18,15,18,15,15,15,18,6,15,0,12,0,0,0,0,0,0,0,0,0,0,27,0,0,0,3,0,0,0,0,0,0,0,0,0,0,0,0,0,0,0,0,0,0,24,33
15,3,3,42,42,36,33,39,39,48,33,30,30,27,33,24,30,21,21,12,15,15,15,21,15,0,6,0,12,0,33,0,0,0,0,0,0,3,0,0,0,51,0,0,0,0,0,0,0,0,0,0,0,0,0,0,0,0,0,0,0,36,33,33
33,3,3,30,39,36,30,48,36,39,33,39,27,30,21,24,18,15,12,15,15,15,15,6,15,15,0,0,0,9,30,0,0,0,0,0,0,0,0,18,3,0,0,0,0,0,0,0,0,0,0,0,0,0,0,0,0,0,0,0,0,3,33,6
30,0,3,33,3,39,30,42,30,39,27,39,30,24,24,21,24,21,21,15,15,15,18,15,12,3,0,0,12,33,0,0,0,0,0,0,0,0,15,0,0,0,3,3,0,0,0,0,0,0,0,0,0,0,0,0,0,0,0,0,3,6,0,30
6,3,6,15,33,6,33,33,36,30,33,27,30,15,18,15,15,18,15,18,15,15,18,15,18,9,0,12,33,0,0,0,0,0,0,0,0,0,0,51,0,0,0,0,0,0,0,0,0,0,0,0,0,0,0,105,0,0,0,0,0,6,36,36
30,3,3,33,30,9,18,36,33,45,30,36,24,24,30,30,24,24,15,15,18,12,21,15,15,0,0,12,0,27,0,0,0,0,0,0,3,0,0,42,0,0,0,0,0,0,0,0,0,0,0,0,0,0,0,0,0,0,0,0,0,18,30,21
3,3,3,6,33,36,30,36,45,33,36,36,36,36,33,39,36,24,33,30,36,36,30,42,0,30,0,0,12,30,0,0,0,0,0,0,0,0,0,30,0,3,0,0,0,0,0,0,0,0,0,0,0,0,0,0,0,0,0,0,30,0,36,30
36,3,3,36,6,3,33,33,36,30,36,21,54,21,18,18,21,18,18,21,15,12,12,15,6,18,0,0,9,0,0,0,0,0,0,9,0,0,0,24,0,0,0,0,0,0,0,0,0,0,0,0,0,6,0,0,0,0,0,0,0,36,27,27
6,33,3,36,36,6,45,33,30,33,30,30,36,24,24,24,24,24,15,15,12,12,12,18,15,0,9,0,36,3,0,0,0,0,0,0,0,21,0,0,0,0,3,0,0,0,0,0,0,0,0,9,0,0,0,0,0,0,0,0,36,0,39,0
33,24,3,3,45,36,30,42,30,36,39,33,84,33,27,27,24,15,15,18,12,12,15,15,15,9,15,0,0,9,33,0,0,0,0,0,0,0,0,0,0,0,0,0,0,0,0,0,0,0,0,0,9,0,0,0,0,0,0,0,0,0,39,30
