56,8,8,72,80,56,56,88,80,104,96,80,80,80,80,96,72,104,96,88,80,80,88,96,64,0,64,0,32,0,0,0,0,0,0,0,0,40,0,0,0,0,0,0,0,0,0,0,0,0,0,0,0,0,0,0,0,0,0,0,0,64,8,72
72,8,8,80,64,8,88,112,96,112,96,80,88,72,80,80,80,96,80,88,88,80,80,72,64,0,0,0,24,0,80,0,0,0,0,0,0,0,64,0,0,0,8,0,0,0,0,0,0,0,0,0,0,0,0,0,0,0,0,0,48,0,104,0
72,80,8,8,8,72,64,88,80,104,120,112,96,72,88,80,80,64,72,96,80,72,88,80,96,80,0,0,0,24,0,88,0,0,0,16,0,0,0,0,64,0,0,64,0,0,0,0,0,0,0,0,0,0,0,0,0,0,0,0,0,56,0,80
16,56,56,8,64,72,96,96,104,112,80,80,88,80,96,80,88,80,72,88,80,64,80,80,64,0,0,0,80,24,0,0,0,0,0,0,0,0,0,80,0,0,0,0,0,8,0,0,0,0,0,0,0,0,0,0,0,0,0,0,0,56,96,80
8,0,48,8,88,64,56,64,80,72,64,96,56,72,64,48,80,48,40,48,56,40,48,48,0,0,48,0,24,64,0,0,0,8,0,0,0,8,0,96,0,0,32,0,0,0,0,0,0,0,0,0,0,8,24,0,0,0,8,0,8,0,88,56
64,8,8,72,88,16,104,64,104,72,112,88,80,64,72,80,48,48,40,48,64,56,56,56,32,48,0,0,24,96,0,0,0,0,0,0,0,0,8,32,0,0,32,0,0,0,0,0,0,0,0,0,0,8,0,0,0,0,0,0,0,16,80,40
88,88,8,72,8,72,64,88,72,88,96,72,88,80,72,96,88,88,72,80,80,96,88,88,0,64,0,40,0,80,0,0,0,0,8,0,0,0,72,0,0,0,40,0,0,0,0,0,8,0,0,0,0,8,0,0,0,0,0,0,0,8,56,80
72,8,72,8,64,56,56,88,112,120,88,80,80,80,72,72,96,80,72,72,56,80,96,64,72,0,0,0,24,0,80,0,0,0,0,8,0,0,0,96,0,8,0,8,0,0,0,0,0,0,0,8,0,0,0,0,0,0,0,0,0,8,0,56
8,80,8,80,80,8,56,64,88,80,96,120,96,80,80,72,64,80,80,80,80,96,88,64,80,64,0,0,0,24,0,0,0,88,0,0,16,0,0,0,0,40,0,0,40,40,0,0,8,8,0,0,0,0,0,0,0,0,0,0,0,0,8,80
64,8,8,64,8,64,64,112,88,96,104,80,80,64,72,80,88,72,80,96,96,88,72,80,80,0,0,32,0,80,0,0,0,0,0,0,0,0,0,64,0,0,48,0,0,0,0,0,0,0,0,0,0,0,0,0,0,0,0,0,0,8,56,104
8,56,8,8,88,80,80,112,96,72,80,88,88,88,64,64,80,48,56,64,56,56,56,40,48,24,0,80,0,24,0,0,0,8,0,0,0,0,0,0,40,0,0,0,0,0,0,0,0,0,0,0,0,0,0,0,8,0,0,0,0,80,8,96
16,56,8,80,72,64,56,120,96,96,104,80,72,80,96,80,88,80,88,112,64,88,80,64,64,0,0,0,24,72,0,0,0,8,0,0,0,0,0,136,16,0,0,0,0,0,0,0,0,0,0,0,0,0,0,0,0,0,0,0,0,16,96,72
16,64,8,8,88,72,64,112,80,96,112,80,80,104,80,88,72,88,88,80,88,80,72,64,80,48,0,32,0,96,0,0,0,0,0,0,0,0,0,8,112,0,0,0,0,0,0,0,8,0,0,0,0,0,0,0,0,0,0,0,0,16,72,96
80,8,0,80,8,64,72,88,72,112,80,72,88,88,88,72,88,88,88,80,72,88,80,88,72,0,0,0,24,88,0,0,0,0,0,0,0,0,40,0,0,0,0,8,0,0,0,0,0,0,0,16,0,0,0,0,0,0,0,0,0,8,0,48
72,96,8,8,8,80,72,72,80,72,112,88,96,80,72,88,72,88,88,80,80,88,88,88,56,88,0,0,32,80,0,0,0,0,0,0,0,0,0,0,80,0,48,0,0,0,0,0,0,0,0,0,8,0,0,0,0,0,0,0,0,0,48,96
48,56,8,72,72,8,56,112,80,72,72,64,72,96,64,72,48,56,48,56,56,48,48,56,0,48,0,24,0,72,0,0,0,0,0,0,0,0,0,0,0,0,0,0,0,0,8,0,0,0,0,0,0,0,0,0,0,0,0,0,0,8,56,80
8,72,8,8,80,72,136,64,80,80,72,88,64,56,72,56,48,48,56,48,56,40,40,48,24,64,0,0,24,0,72,0,0,0,0,0,0,0,0,56,0,32,0,8,0,0,0,0,0,0,0,0,0,0,0,0,0,0,0,0,0,8,88,80
8,72,8,8,72,88,56,72,80,88,80,64,80,72,56,56,72,56,48,40,48,56,48,48,40,0,0,0,24,0,64,0,0,8,0,0,0,0,0,0,0,0,0,0,0,0,0,0,0,0,0,0,0,0,0,0,0,0,0,0,0,8,80,40
8,8,80,8,80,72,64,80,56,104,96,80,96,80,72,72,80,88,72,64,72,64,72,56,56,48,0,0,80,8,0,0,0,0,8,0,0,0,16,0,0,0,24,0,0,0,0,0,0,0,0,0,0,0,0,0,0,0,0,0,0,56,8,48
8,8,8,16,80,64,88,128,104,112,80,120,88,88,80,80,72,72,72,96,80,88,104,80,64,0,0,0,24,56,0,0,0,0,0,8,0,0,0,88,0,0,0,80,0,0,0,8,0,0,0,0,0,0,0,0,0,0,0,0,0,24,104,80
8,56,8,16,80,80,80,56,80,80,80,96,72,72,80,96,72,64,80,64,72,72,80,80,0,0,0,0,40,0,96,0,0,0,0,8,0,0,0,88,0,0,24,0,0,0,0,0,0,0,8,0,8,0,0,0,0,0,0,0,0,8,80,64
16,8,80,64,88,16,72,80,64,72,80,56,88,80,64,64,40,48,40,40,48,40,48,56,0,56,0,0,24,96,0,0,0,0,0,0,16,0,32,0,0,0,0,0,0,0,0,0,0,0,0,0,0,0,0,0,0,0,0,0,16,0,88,80
16,80,16,8,56,80,96,88,80,88,88,88,104,96,88,80,80,64,64,80,64,80,112,88,72,64,0,32,0,0,80,0,0,0,0,0,0,0,40,0,0,0,32,0,0,0,0,8,0,8,0,0,0,0,0,0,0,0,0,0,0,24,80,64
8,8,96,80,8,56,96,96,88,88,80,80,96,80,72,88,80,88,96,88,88,64,72,80,80,0,0,0,24,0,0,88,0,0,0,0,0,0,0,0,0,8,0,0,0,0,0,0,0,0,0,0,8,0,0,0,0,0,0,0,0,72,16,64
64,80,88,8,8,64,72,88,112,80,88,96,96,72,72,80,80,72,80,72,72,80,64,88,80,0,0,0,88,24,0,0,0,0,0,0,0,0,0,80,0,0,8,0,0,0,0,0,0,0,0,0,0,0,0,0,0,0,0,0,0,8,56,72
80,8,8,80,16,72,64,64,64,96,80,80,80,88,72,80,80,96,96,88,80,88,80,80,0,64,0,0,32,80,0,0,0,0,0,0,0,0,64,8,0,0,0,8,0,0,0,0,0,0,0,0,0,0,0,0,0,0,0,0,0,80,64,16
80,8,8,80,16,64,64,96,72,96,104,96,88,72,72,80,64,80,88,72,80,80,72,40,64,72,0,0,24,80,0,0,0,0,0,8,0,0,0,112,0,0,0,0,0,0,0,0,0,0,0,0,0,0,0,0,0,0,0,0,0,8,64,72
8,72,8,8,96,72,72,64,80,80,96,72,72,64,88,80,88,80,96,96,64,64,80,64,80,0,0,0,32,0,0,80,0,0,0,0,0,0,0,8,120,0,0,32,0,0,0,0,0,0,0,0,8,0,0,0,0,0,0,0,0,16,56,88
40,8,80,16,56,80,80,64,56,96,96,80,80,80,88,72,80,72,80,80,88,96,80,64,80,0,0,32,0,0,80,0,0,0,0,0,0,0,56,0,0,0,0,0,0,0,0,0,0,0,8,0,8,0,0,0,0,0,0,0,0,24,0,80
40,64,16,64,8,8,56,56,128,80,96,96,88,96,104,80,80,96,80,88,88,88,96,88,88,72,0,0,0,88,24,0,0,0,0,0,16,0,0,8,80,0,0,0,24,0,0,0,0,0,0,0,0,0,0,0,0,0,0,0,0,0,72,8
80,8,8,8,32,80,64,104,80,96,88,96,80,80,80,64,72,64,80,88,80,72,56,72,72,0,0,0,80,24,0,0,0,0,0,0,0,0,0,112,0,0,0,48,0,0,0,0,0,8,0,0,0,0,0,0,0,0,0,0,0,8,88,64
88,8,8,88,16,80,80,72,72,112,80,72,72,80,80,104,104,88,96,88,80,88,88,72,72,0,0,0,16,80,0,0,0,0,0,0,0,0,0,96,0,0,24,0,0,0,0,0,0,0,0,0,0,0,0,0,0,0,0,0,24,0,80,72
72,16,8,8,72,56,56,112,80,96,104,80,72,72,80,64,80,80,72,104,80,88,88,72,40,0,0,0,24,88,0,0,0,0,0,0,0,0,16,0,0,0,16,0,0,0,0,0,0,0,0,0,0,0,0,0,0,0,0,0,0,8,56,56
64,8,8,96,8,64,96,88,96,80,72,80,56,64,72,48,56,48,48,48,48,48,48,48,48,0,40,80,0,24,0,0,0,0,8,0,0,0,72,0,0,8,0,0,0,0,0,0,0,0,0,0,0,0,0,0,0,0,0,0,64,0,80,64
16,40,8,8,72,72,56,80,104,72,56,64,64,80,64,64,56,56,48,40,40,56,48,40,48,32,0,0,24,80,0,0,0,0,8,0,0,0,64,0,0,0,88,0,0,8,0,0,0,0,0,0,0,0,0,0,0,0,0,0,0,80,16,96
56,8,8,8,72,56,80,72,64,104,96,80,64,88,64,72,88,80,88,72,88,88,72,72,72,0,0,0,0,0,0,0,0,0,0,8,0,0,0,72,0,0,24,0,0,0,0,0,0,200,0,0,0,0,0,0,0,0,0,0,0,8,64,88
8,8,8,64,40,72,96,80,64,56,80,112,72,80,64,64,72,80,80,80,104,88,88,0,88,64,0,0,32,72,0,0,0,0,0,0,0,0,8,0,80,0,0,0,0,0,0,0,0,0,0,0,0,0,0,0,0,0,0,0,0,80,24,96
8,56,16,8,48,80,56,80,96,120,80,104,64,64,80,80,72,80,64,72,80,80,80,40,64,0,56,0,24,0,0,0,0,0,0,0,0,8,0,0,0,0,8,0,0,0,0,0,0,0,0,0,0,0,0,0,0,0,0,0,0,0,64,64
8,72,16,40,80,72,104,56,96,88,80,112,72,80,80,80,80,80,88,72,72,64,64,88,104,0,0,0,88,24,0,0,0,0,0,0,0,0,0,0,0,32,0,0,0,0,0,0,0,0,0,0,0,0,0,0,0,0,0,0,16,0,80,80
56,8,8,8,80,80,80,72,96,96,104,80,72,88,88,64,64,80,72,72,80,96,72,56,88,40,0,0,24,80,0,0,0,0,0,0,0,8,0,0,0,0,0,8,0,0,0,0,0,0,0,0,0,0,0,0,0,0,0,0,96,0,8,96
64,8,16,8,88,64,72,112,80,88,72,112,80,64,96,72,72,80,80,72,88,48,88,64,56,0,0,0,24,0,88,0,0,0,0,0,0,0,56,0,0,0,0,48,0,0,0,0,0,0,0,0,0,0,8,0,0,0,0,0,0,80,16,88
16,64,88,8,80,64,72,56,88,56,64,64,56,64,56,56,64,40,48,72,56,56,64,40,32,40,0,0,32,64,0,0,0,0,0,0,0,0,40,0,0,0,32,0,0,0,0,0,0,0,0,0,0,0,0,0,0,0,0,0,0,8,56,64
80,8,8,8,80,72,88,72,120,80,80,104,96,88,88,88,72,40,104,80,80,40,56,40,56,0,0,0,80,24,0,0,0,0,0,0,0,0,48,0,0,24,0,16,0,0,0,0,0,0,0,0,0,0,0,0,0,0,0,0,0,16,72,80
88,8,8,16,72,48,80,88,80,112,72,80,72,64,64,56,88,80,64,112,72,80,88,64,72,0,0,0,32,88,0,0,0,0,0,8,0,0,0,0,0,96,16,0,0,0,0,0,0,0,0,0,0,0,0,0,0,0,0,0,0,8,96,0
72,8,72,8,8,88,56,80,120,96,88,104,72,72,80,72,72,88,64,80,112,104,80,88,64,56,0,0,0,64,32,0,0,0,0,0,0,0,0,0,24,0,0,64,0,0,0,0,0,0,0,0,0,0,0,0,0,0,0,0,0,0,64,0
96,8,0,8,88,80,64,104,96,112,96,80,72,72,96,64,80,96,56,72,80,80,88,0,40,88,0,0,24,0,72,0,0,0,0,0,0,0,0,80,0,8,0,32,0,0,0,0,0,0,0,0,0,0,0,8,0,0,0,0,0,8,72,64
72,0,8,8,56,40,72,88,64,72,80,80,72,80,96,64,72,168,56,96,88,88,80,56,80,0,0,0,88,24,0,0,0,0,0,0,0,8,0,80,8,0,0,0,0,0,0,0,0,0,0,0,0,0,0,0,8,0,0,0,0,8,96,88
88,32,8,8,72,88,80,80,80,80,96,112,80,80,80,80,80,80,80,88,72,88,80,88,56,0,0,0,32,80,0,0,0,8,0,0,0,0,0,0,0,0,0,8,0,0,0,0,0,0,0,0,0,0,0,0,0,0,0,0,16,0,80,64
88,8,8,8,32,64,88,104,72,104,88,96,64,72,80,72,96,96,80,80,72,40,80,96,80,0,0,24,0,0,88,0,0,0,0,0,0,0,0,88,0,0,0,56,0,0,0,0,0,0,0,0,0,0,0,0,0,0,0,0,0,8,72,56
8,16,64,16,88,56,80,88,96,80,80,80,64,72,64,64,104,56,96,88,88,56,88,48,96,0,64,0,72,32,0,0,0,0,8,0,0,0,0,112,0,0,0,48,0,0,0,0,8,0,0,0,0,0,0,0,0,0,0,0,8,0,104,8
