55,45,35,40,50,60,75,55,65,75,70,60,50,60,50,50,45,35,40,35,30,40,40,30,30,0,15,0,20,50,0,0,0,0,0,0,0,0,0,0,0,0,25,0,0,0,0,5,15,5,0,0,0,0,0,0,0,5,0,0,5,25,40,40
30,60,35,70,45,45,65,55,65,60,50,60,60,55,50,35,40,40,40,40,40,35,40,40,40,15,0,0,0,15,65,0,0,0,0,0,0,0,0,40,5,0,25,0,5,15,15,0,0,0,0,0,10,0,0,0,0,0,0,0,5,10,40,55
40,10,40,40,45,40,85,50,40,65,60,70,65,55,60,55,40,35,50,45,40,40,45,35,40,25,0,0,15,55,0,0,0,0,0,0,0,0,0,0,10,20,0,0,0,15,0,0,0,0,0,0,0,0,0,0,0,0,0,0,0,35,55,0
60,65,60,50,55,60,60,70,60,70,55,65,60,55,55,40,40,40,40,35,40,40,40,40,40,30,0,20,0,15,0,60,0,0,0,0,5,0,0,0,5,50,0,0,40,0,0,0,0,0,0,0,0,0,0,0,0,0,0,0,0,0,20,45
50,40,50,60,35,45,50,60,50,65,50,60,70,60,50,40,40,50,40,40,35,40,45,35,45,40,0,0,0,20,50,0,0,0,0,0,0,0,0,25,5,0,0,35,0,0,0,0,0,0,0,0,0,0,0,0,0,0,0,0,0,0,40,20
50,50,60,35,60,55,75,85,75,75,85,70,55,70,50,45,45,45,35,35,40,35,30,45,40,0,0,15,25,50,0,0,0,0,0,0,0,0,0,0,0,0,5,25,0,0,0,0,0,0,0,0,0,0,0,0,0,0,0,0,0,15,35,35
40,15,25,30,35,40,35,45,60,55,75,60,60,50,65,40,40,55,40,35,40,35,40,35,40,35,0,15,0,55,0,0,0,0,5,0,0,0,0,0,0,40,5,0,0,0,0,0,0,0,0,0,0,0,0,0,0,0,0,0,0,10,40,0
40,55,25,30,25,40,60,40,50,50,60,65,65,60,55,45,40,35,40,35,45,40,35,40,40,45,0,20,0,15,0,0,0,0,0,0,0,0,0,40,0,0,0,30,0,0,0,0,0,0,0,0,0,0,0,0,0,0,0,0,0,0,15,30
40,40,10,20,60,65,60,70,55,75,60,75,50,50,45,50,45,40,40,40,40,40,35,40,30,0,15,0,55,0,15,0,0,0,0,0,0,0,35,0,0,0,0,5,0,0,0,0,0,0,0,0,0,0,0,0,0,0,0,0,20,0,20,40
40,35,45,5,40,35,50,70,45,60,60,70,45,50,40,35,50,45,45,45,40,40,40,25,35,15,0,20,0,55,0,0,0,0,0,0,0,5,0,40,0,0,0,15,30,0,0,20,0,0,0,0,0,0,0,0,0,0,0,0,0,5,35,40
25,35,5,35,35,40,50,60,70,80,65,70,50,45,50,40,45,40,45,40,35,35,40,35,30,20,0,0,10,50,0,0,0,0,0,5,0,5,0,0,0,0,40,5,0,0,0,0,0,0,0,0,0,0,0,0,0,0,0,0,0,15,35,35
35,35,25,50,30,40,50,50,55,60,55,40,45,45,50,50,45,25,25,30,20,15,30,25,25,0,0,0,35,5,0,15,0,0,0,0,0,0,35,0,0,0,5,0,0,0,0,0,0,0,0,0,0,0,0,0,0,0,0,0,0,0,5,15
50,45,35,5,45,35,25,45,40,65,55,50,60,50,50,55,40,40,40,50,40,40,30,40,40,25,40,0,0,55,20,0,0,0,0,0,10,0,0,5,0,40,0,5,0,0,0,0,0,0,0,0,0,0,0,0,0,0,0,0,0,0,10,40
25,40,5,40,40,50,45,45,65,55,50,60,50,45,40,35,40,40,40,45,35,35,40,35,40,25,0,15,40,0,0,0,0,0,0,0,5,0,0,0,0,0,5,0,0,0,0,0,0,0,0,0,0,0,0,0,0,0,0,0,5,0,40,35
35,50,25,5,35,35,50,50,65,50,60,55,50,50,40,60,35,40,40,45,40,50,40,45,35,20,55,0,0,0,15,0,0,0,0,0,5,0,0,65,0,0,30,0,0,35,0,0,0,0,0,0,0,0,0,0,0,0,15,0,5,0,35,0
50,50,40,5,5,50,40,30,65,60,40,60,60,60,50,45,40,40,35,40,40,35,35,35,40,30,15,0,0,45,15,0,0,0,0,0,0,0,0,0,0,80,5,0,0,0,0,0,0,5,0,0,0,0,0,0,0,0,0,0,0,0,5,20
50,20,35,25,30,45,65,50,70,60,60,60,45,50,40,45,40,40,45,40,40,35,35,40,35,15,0,15,0,50,0,0,0,0,0,0,0,0,60,0,5,0,10,0,0,35,5,0,0,0,10,0,0,0,0,0,0,0,0,0,0,30,10,60
40,30,5,5,35,35,45,40,45,65,55,60,50,70,55,45,50,35,40,40,40,35,35,35,0,35,0,0,50,15,0,0,0,0,0,0,0,0,15,0,0,0,0,0,0,0,0,0,0,0,0,0,0,0,0,0,0,0,0,0,0,25,45,50
35,15,50,30,40,35,50,40,60,60,70,55,60,60,60,50,40,50,35,35,45,50,35,40,50,30,0,0,15,50,0,0,0,0,10,0,0,0,0,70,0,0,0,5,0,0,0,0,0,0,0,0,0,0,0,0,0,0,0,0,0,40,10,65
25,50,20,5,25,45,20,60,70,50,60,65,40,45,55,50,35,35,45,40,45,35,55,40,40,0,20,20,0,50,0,0,0,0,0,0,0,0,0,35,0,0,15,0,5,0,0,0,0,0,0,0,0,0,0,0,0,0,0,0,0,15,50,50
45,5,30,35,40,35,60,40,55,50,60,55,50,55,70,45,45,40,40,35,35,45,40,30,35,30,0,0,5,60,0,0,0,0,0,0,5,0,0,60,0,0,0,5,0,0,5,0,0,0,0,0,0,0,0,0,0,0,0,0,0,5,55,45
45,25,5,5,35,35,45,45,60,60,55,60,55,40,50,40,40,45,40,45,40,50,45,40,50,0,0,15,0,50,0,0,0,0,0,0,0,0,0,55,0,0,0,0,15,0,30,0,0,0,0,0,0,0,0,0,0,0,0,0,5,0,30,40
35,5,35,50,40,40,40,60,65,70,60,55,50,60,40,40,40,40,40,35,35,30,40,40,40,20,0,15,0,55,0,0,0,0,0,0,0,0,0,0,0,0,0,0,0,0,0,0,5,0,0,0,0,0,0,0,0,0,0,0,5,0,35,40
50,5,10,35,40,45,40,40,45,50,65,50,50,65,35,50,40,35,35,40,40,35,40,40,35,15,0,0,45,20,0,0,0,0,0,0,0,0,0,65,0,0,0,0,10,0,0,15,0,0,0,0,0,0,0,0,0,0,0,0,0,0,25,30
10,40,5,45,35,30,50,55,55,65,50,60,45,50,50,50,40,40,45,45,35,35,35,40,0,40,10,15,0,55,0,0,0,0,0,0,0,0,0,30,0,5,0,0,0,0,0,0,0,0,0,0,0,0,0,0,0,0,0,0,0,5,50,50
5,40,5,50,45,50,70,65,50,55,55,70,65,55,50,40,35,45,35,40,45,40,35,30,40,25,0,0,15,50,0,0,0,0,0,0,0,0,5,0,0,0,0,0,0,0,0,0,0,0,0,0,0,0,0,0,0,0,0,0,5,15,45,55
20,35,20,5,35,25,55,70,70,55,60,45,45,45,40,40,45,45,40,40,40,35,35,40,40,15,0,0,15,60,0,0,0,0,0,5,0,0,0,0,0,0,10,0,0,0,0,0,0,0,0,0,0,0,0,0,0,0,0,0,0,15,60,50
40,5,35,5,40,35,45,50,60,50,45,45,50,50,45,50,45,40,35,40,40,40,35,40,10,0,45,0,15,45,0,0,0,0,0,0,0,0,5,0,35,40,0,0,0,0,0,0,0,0,0,0,0,0,0,0,0,0,0,0,5,0,40,0
50,40,10,10,40,5,40,40,50,60,60,70,50,60,65,40,40,35,30,40,40,40,50,40,40,40,25,0,15,0,0,40,0,0,0,5,0,0,0,60,0,0,5,5,0,0,0,0,0,0,0,0,0,0,0,0,10,0,0,0,0,0,10,45
40,5,5,35,45,35,50,50,60,85,50,60,55,40,50,40,45,40,45,40,40,40,40,50,35,15,0,0,10,50,0,0,0,0,0,0,0,0,0,40,5,0,0,0,5,0,0,5,0,0,0,0,0,0,0,0,0,0,0,0,0,20,40,50
50,25,5,45,20,35,35,40,70,50,50,55,60,70,50,50,45,40,40,40,40,40,35,30,40,20,15,0,0,50,0,0,0,0,0,0,0,0,0,35,0,0,0,0,0,0,0,0,0,0,0,0,0,0,0,0,0,0,0,0,0,45,10,45
40,25,5,10,60,30,40,45,65,60,55,55,55,60,60,55,60,30,45,35,40,45,35,35,45,25,0,20,0,35,0,0,0,5,0,0,0,50,0,0,0,0,0,0,0,0,0,0,0,0,0,0,0,0,0,0,5,0,0,0,0,10,35,40
40,5,5,40,40,30,50,45,60,70,50,65,45,45,60,50,50,40,35,40,50,40,50,35,15,30,0,0,15,55,0,0,0,0,0,0,0,0,0,50,0,15,0,0,0,10,5,0,0,0,10,0,0,0,0,0,0,0,0,0,0,5,55,55
35,5,35,20,45,35,40,55,60,60,60,50,40,50,45,50,35,40,40,40,45,40,35,35,40,25,0,0,15,45,0,0,0,0,0,5,0,0,5,0,0,0,0,0,0,0,150,0,10,0,0,0,0,0,0,0,0,0,0,0,0,25,45,50
25,30,10,50,55,60,50,65,70,60,60,70,50,45,50,50,40,35,35,45,40,40,30,35,40,15,0,0,55,15,0,0,0,0,0,0,0,0,5,55,0,0,15,125,0,10,10,5,0,15,0,0,0,0,0,0,0,0,0,0,0,30,70,50
40,45,30,35,30,35,40,45,70,65,60,65,50,50,60,55,50,35,55,40,35,45,40,45,20,40,0,0,15,50,0,0,0,0,0,0,0,0,0,0,5,0,0,0,0,10,0,0,0,0,0,10,0,0,0,0,0,0,0,0,10,0,50,55
40,5,5,30,50,60,40,60,40,60,60,50,40,60,40,60,35,35,35,40,40,35,45,40,35,10,0,0,0,55,0,15,0,0,0,0,0,0,0,20,0,0,0,0,0,0,0,5,0,5,15,0,0,0,0,0,0,0,0,0,5,0,50,35
35,5,5,45,35,55,40,55,50,50,45,50,45,45,40,40,40,30,35,35,40,40,45,35,35,0,15,0,15,50,0,0,0,5,0,0,0,0,50,0,0,0,5,0,0,5,0,0,0,0,0,0,15,25,0,0,0,0,0,5,0,50,5,40
50,25,0,5,40,40,40,45,60,45,50,45,55,40,55,40,35,40,40,30,40,40,50,50,40,25,0,0,60,15,0,0,0,0,0,0,0,0,0,20,0,5,0,0,25,0,0,10,0,20,0,0,0,25,0,0,0,0,0,0,5,50,0,60
40,5,40,40,35,35,65,45,65,45,50,45,40,50,45,45,50,40,45,40,45,50,40,45,35,0,25,20,0,0,0,0,0,0,5,0,0,0,0,65,0,0,0,0,25,0,0,35,0,0,0,0,0,0,5,5,0,0,0,0,0,45,20,35
35,5,25,45,35,50,35,35,70,50,55,60,50,35,55,45,35,35,35,45,45,40,35,35,40,0,0,0,50,15,0,0,0,0,0,0,0,0,40,5,0,35,5,0,0,0,0,0,0,0,0,0,0,0,0,0,0,0,0,0,0,0,60,40
5,50,10,55,35,40,50,60,70,60,55,50,45,45,50,35,35,50,35,40,35,35,30,35,40,0,0,0,55,0,15,0,0,5,0,0,0,0,50,0,0,25,0,0,0,0,0,0,0,0,0,0,0,0,0,0,0,0,0,0,0,5,50,0
45,35,5,25,60,40,40,45,40,50,70,55,45,50,50,50,50,55,70,45,35,40,35,40,35,30,0,0,45,0,20,0,0,0,0,0,0,0,0,70,0,0,0,0,0,5,0,0,0,225,0,0,0,0,0,0,5,0,0,0,0,20,0,50
35,5,45,10,45,50,40,40,70,60,45,55,45,45,55,50,40,40,50,35,35,40,40,35,25,40,0,55,0,0,0,20,0,0,0,0,0,5,0,45,0,5,0,0,0,0,0,0,0,0,0,0,0,0,0,0,0,0,0,0,0,25,0,40
20,50,5,5,50,35,50,50,60,75,50,60,50,50,45,45,45,40,35,35,35,40,40,40,15,35,0,0,15,50,0,0,0,0,0,0,0,0,40,0,5,5,0,0,0,0,0,0,0,0,10,0,0,0,5,0,0,0,0,0,0,15,60,45
45,30,5,40,40,40,50,40,60,55,50,50,50,45,45,45,45,35,50,35,40,45,45,40,30,35,0,0,50,15,0,0,0,0,10,0,0,0,5,0,0,0,10,0,0,25,25,5,0,5,0,0,0,0,0,0,0,0,0,0,0,5,35,35
50,10,45,10,45,40,50,45,75,60,65,60,75,55,60,40,25,40,30,35,25,30,25,25,25,0,0,0,60,20,0,0,0,0,0,0,0,0,30,0,0,0,15,0,0,0,0,0,0,0,0,0,0,0,0,0,0,0,0,0,5,35,5,45
5,35,50,5,40,50,40,70,55,55,60,60,50,55,60,60,60,45,50,60,60,50,45,45,40,0,0,0,15,0,0,0,0,0,0,0,0,0,30,0,0,0,25,0,0,0,0,0,0,0,0,0,0,0,0,0,0,0,0,0,5,0,40,55
5,5,30,50,40,40,50,40,55,65,75,50,55,50,55,45,40,35,40,40,40,35,35,45,35,20,0,0,15,50,0,0,0,0,5,0,0,0,35,0,5,20,0,0,0,0,0,5,0,0,0,0,0,0,0,0,0,0,0,0,0,10,40,50
45,25,5,50,40,45,35,70,50,70,50,55,55,55,55,45,55,50,40,45,35,40,40,40,35,25,0,0,15,50,0,0,0,0,0,0,0,0,75,0,0,0,10,0,0,5,0,0,0,0,0,0,5,0,0,0,0,0,0,0,15,0,35,0
