Layer,Score,learn+AF8-rate,Momentum
1,0.6666666667,0.0555555556,0.0222222222
,,,
2,0.6666666667,0.0555555556,0.0222222222
,,,
3,0.8035714286,0.0222222222,0.0888888889
,,,
4,0.8035714286,0.0222222222,0.0888888889
,,,
5,0.8035714286,0.0222222222,0.0888888889
,,,
6,0.8035714286,0.0222222222,0.0888888889
,,,
7,0.8035714286,0.0222222222,0.0888888889
,,,
8,0.8035714286,0.0222222222,0.0888888889
,,,
9,0.8035714286,0.0222222222,0.0888888889
,,,
10,0.8035714286,0.0222222222,0.0888888889
