12,2,14,3,14,12,13,20,16,16,15,14,15,15,15,10,12,10,10,12,11,11,11,10,7,0,0,0,0,0,18,0,0,0,0,0,0,1,0,6,0,0,0,0,0,0,1,0,0,1,2,2,0,0,0,1,1,0,0,0,0,1,13,10,
9,4,2,3,16,16,15,17,15,15,15,14,15,13,14,9,10,11,11,10,11,10,12,10,0,0,0,0,0,0,11,0,0,0,0,0,0,0,0,10,0,0,0,1,0,1,0,0,0,0,0,0,0,0,0,0,0,0,0,0,0,1,10,13,
14,2,7,13,15,14,14,14,16,15,18,14,13,15,14,10,10,8,9,9,8,10,8,7,8,0,0,0,0,0,11,0,0,0,0,0,1,0,0,12,0,0,4,0,0,0,0,0,0,0,0,0,0,0,0,2,0,0,0,0,0,1,8,13,
14,5,10,12,13,16,16,16,13,15,16,16,17,12,11,12,11,10,9,10,10,10,11,12,7,0,0,0,0,0,11,0,0,0,0,0,0,0,0,9,0,1,0,0,0,1,0,0,1,0,0,1,2,0,0,0,0,0,0,0,0,1,10,12,
13,7,1,16,10,16,14,13,17,17,14,14,16,14,15,10,9,10,9,9,11,8,10,8,8,0,0,0,0,0,11,0,0,0,0,0,1,0,0,6,1,0,1,0,1,0,0,1,0,0,0,0,0,0,0,0,0,0,0,0,0,5,17,17,
10,13,12,7,12,17,15,16,16,15,14,13,13,15,12,9,10,8,9,12,13,14,9,11,9,0,0,0,0,4,10,0,0,0,0,0,1,0,0,0,0,1,0,1,1,0,1,0,0,1,0,0,1,0,0,0,0,0,0,0,0,1,6,14,
12,12,2,12,11,15,14,13,15,13,14,16,10,16,10,11,11,10,12,12,9,9,12,10,10,0,0,0,0,3,12,0,0,0,0,0,0,0,9,0,2,0,9,1,1,0,1,0,1,0,0,1,0,0,0,0,0,0,0,0,0,2,10,14,
12,12,7,14,14,15,12,14,16,17,13,14,14,15,10,10,10,8,9,9,10,12,11,11,7,0,0,0,0,0,12,0,0,0,0,0,1,0,0,8,0,1,8,0,0,0,0,0,0,0,0,0,1,1,0,0,0,0,0,0,0,1,9,14,
15,6,13,2,15,16,12,13,14,14,14,16,12,16,12,11,11,10,10,10,11,8,12,11,10,0,0,0,0,0,12,0,0,0,0,0,0,0,0,1,0,0,4,1,0,1,1,0,0,2,0,0,0,0,0,1,0,0,0,0,0,1,14,7,
12,12,2,3,17,16,15,14,14,18,16,18,13,14,12,12,12,9,11,9,10,10,11,11,11,0,0,0,0,0,9,0,0,0,0,0,0,0,0,4,0,0,1,0,0,1,2,0,1,1,1,0,2,0,1,1,0,0,0,0,0,10,10,13,
14,8,8,11,3,13,15,15,15,15,14,15,15,16,12,9,11,10,8,12,11,11,8,10,7,0,0,0,0,5,11,0,0,0,0,0,1,0,0,0,0,1,3,0,0,0,1,1,0,0,1,0,1,0,0,0,0,0,0,0,0,1,10,10,
14,3,14,9,17,14,15,14,15,15,16,16,14,15,13,10,10,9,12,10,11,10,12,8,10,7,0,0,0,0,9,0,0,0,0,0,0,0,0,0,0,0,1,1,0,0,1,1,1,1,0,0,2,0,0,0,1,0,0,0,0,1,12,12,
11,14,2,13,12,16,16,13,16,12,16,17,14,13,14,10,10,10,11,11,10,10,10,9,1,0,0,0,0,0,10,0,0,0,0,0,0,0,0,9,0,0,0,0,0,0,0,1,0,0,2,0,0,0,0,0,0,0,0,0,0,5,14,16,
10,14,2,17,12,13,13,13,18,13,14,15,15,14,9,11,10,9,10,11,12,10,8,9,10,0,0,0,0,0,10,0,0,0,0,0,0,0,0,7,0,0,0,0,2,1,1,1,1,0,0,0,0,0,0,0,0,0,0,0,0,1,14,9,
8,2,11,3,16,17,16,15,14,15,17,14,15,12,12,12,10,9,10,10,10,11,9,9,0,0,0,0,0,0,12,0,0,0,0,0,0,0,0,8,1,0,8,1,0,1,0,0,0,0,0,1,0,0,0,0,1,0,0,0,0,2,13,15,
14,15,2,12,12,15,16,15,14,15,16,15,13,14,13,12,9,11,10,9,11,10,12,12,4,0,0,0,0,7,12,0,0,0,0,0,0,0,0,0,0,0,0,0,0,0,0,0,0,0,0,0,0,1,0,0,0,0,0,0,0,5,16,15,
12,12,2,13,15,17,16,15,15,12,14,15,15,14,12,10,11,11,8,10,10,12,10,9,8,5,0,0,0,0,10,0,0,0,0,0,0,0,10,0,0,1,6,0,0,0,0,1,0,1,0,0,0,0,0,1,1,1,0,0,0,3,8,16,
12,12,3,13,15,15,14,16,13,14,15,13,11,13,16,13,13,13,12,12,11,11,10,13,10,0,0,0,0,0,16,0,0,0,0,0,0,1,0,4,0,1,8,0,1,1,0,1,0,0,5,0,0,0,0,0,0,0,0,0,0,8,16,16,
10,12,13,2,13,16,15,15,14,17,14,14,18,14,15,11,9,10,10,12,12,12,11,11,0,0,0,0,0,0,9,0,0,0,0,0,1,0,8,0,0,0,8,1,0,0,1,3,0,0,1,0,0,0,0,0,0,0,0,0,0,2,13,13,
14,13,2,12,12,16,14,15,14,16,14,12,14,16,14,9,10,11,10,12,10,11,11,11,9,0,0,0,0,0,11,0,0,0,0,0,0,0,0,0,0,0,2,0,0,0,0,0,0,0,0,0,0,0,0,0,0,0,0,0,0,3,11,16,
10,13,1,11,15,13,14,14,15,16,12,17,15,16,14,13,10,10,10,11,11,9,10,12,7,0,0,0,0,0,10,0,0,0,0,0,0,0,0,7,0,0,4,0,0,0,0,0,0,0,0,0,0,0,0,0,0,0,0,0,0,1,16,9,
13,3,12,2,15,16,16,16,14,14,15,14,16,13,12,10,10,9,9,13,11,11,10,11,8,0,0,0,0,0,10,0,0,0,0,0,0,0,0,11,0,0,1,1,1,1,0,1,1,0,0,0,0,0,0,0,0,0,0,0,0,1,10,12,
11,1,12,2,14,14,16,14,15,17,14,14,15,13,13,13,9,10,10,8,11,9,10,10,9,0,0,0,0,0,10,0,0,0,0,0,0,0,10,0,0,1,5,0,0,0,1,0,0,0,0,1,23,0,0,0,0,0,0,0,0,2,9,14,
13,14,2,13,16,15,15,13,16,13,14,17,13,15,14,11,11,11,10,21,9,12,10,10,8,0,0,0,0,0,11,0,0,0,0,0,1,0,0,0,0,3,2,0,0,0,0,0,0,0,0,0,0,0,0,0,0,0,0,0,0,3,12,15,
14,13,2,13,12,14,17,14,12,16,15,13,14,17,14,12,10,10,12,12,10,10,8,10,7,0,0,0,0,0,12,0,0,0,0,0,0,0,0,0,0,0,6,0,43,1,0,0,0,0,0,0,0,0,0,0,1,0,0,0,0,2,13,14,
13,14,3,12,16,15,19,14,16,16,17,16,23,16,15,10,10,10,9,10,10,10,10,9,8,0,0,0,0,0,12,0,0,0,0,0,0,0,0,8,0,0,6,2,0,0,0,17,24,0,0,17,0,0,0,0,0,0,0,0,0,1,11,14,
14,12,3,14,14,17,14,15,13,14,17,16,12,12,24,9,10,12,10,10,10,13,10,10,8,0,0,0,0,0,10,0,0,0,0,0,1,0,0,8,0,2,1,0,0,0,0,0,0,0,0,0,0,0,0,0,0,0,0,0,0,1,14,13,
13,12,2,14,13,15,15,18,13,16,14,14,17,17,14,10,11,11,11,11,10,9,9,9,8,0,0,0,0,0,10,0,0,0,0,0,0,0,3,10,0,0,5,1,0,0,0,1,0,0,1,0,0,1,0,0,0,0,0,0,0,1,12,12,
12,10,3,2,13,14,16,17,16,14,12,16,16,14,15,14,9,10,11,9,12,11,10,11,3,0,0,0,0,0,12,0,0,0,0,0,0,0,0,4,0,0,1,0,1,0,0,0,0,0,0,0,0,0,0,0,0,0,0,0,0,2,15,14,
12,4,11,2,14,15,15,15,14,15,18,15,14,13,13,10,8,9,11,10,10,10,8,9,7,0,0,0,0,0,11,0,0,0,0,0,0,0,0,9,0,0,5,0,1,1,0,0,0,0,1,0,0,0,0,0,0,0,0,0,0,1,14,15,
14,12,2,15,13,14,17,14,15,12,13,12,17,15,14,9,10,9,10,9,10,10,10,9,11,0,0,0,0,4,11,0,0,0,0,0,0,0,0,3,2,0,0,1,1,3,1,0,0,0,2,0,2,0,0,0,1,0,0,0,0,2,10,15,
12,2,3,13,9,14,15,14,14,13,13,14,17,13,12,10,10,12,10,10,10,10,9,10,8,0,0,0,0,0,10,0,0,0,0,1,0,0,0,6,0,0,3,0,0,0,0,0,0,1,0,0,0,0,0,0,0,0,0,0,0,1,14,12,
11,12,3,12,13,15,14,14,15,16,13,15,14,14,13,9,10,9,12,9,11,10,11,12,6,0,0,0,0,0,9,0,0,0,0,1,0,0,7,0,0,0,3,1,0,0,0,1,0,1,0,0,0,0,0,0,0,0,0,0,0,7,12,10,
13,2,12,2,14,15,17,18,14,14,14,13,11,15,17,11,12,12,12,13,12,13,14,12,12,0,0,0,0,5,13,0,0,0,0,0,1,0,0,13,0,0,2,0,1,0,1,0,1,0,0,0,0,0,0,0,3,0,0,0,0,1,11,12,
13,3,12,3,13,14,16,16,12,14,15,16,15,17,15,11,12,11,10,12,14,13,11,13,8,0,0,0,0,6,10,0,0,0,0,0,2,0,6,1,0,0,6,0,0,0,0,0,1,2,0,0,0,1,1,0,2,0,0,0,0,1,12,10,
11,16,1,13,14,17,14,14,16,14,15,14,16,14,15,12,10,10,11,12,12,12,10,12,11,0,0,0,0,4,11,0,0,0,0,0,0,0,1,0,0,0,4,1,0,0,0,2,0,0,0,0,0,0,0,4,0,0,0,0,0,1,15,11,
2,3,12,2,12,15,15,12,11,14,14,14,14,16,16,14,11,11,11,12,10,12,12,11,8,0,0,0,0,0,10,0,0,0,1,0,0,0,11,0,1,0,1,0,1,0,0,0,0,1,0,0,1,1,0,0,0,0,0,0,0,1,13,13,
13,14,8,15,12,12,12,14,15,14,16,12,16,15,16,10,11,11,10,12,12,12,11,13,9,0,0,0,0,4,13,0,0,0,0,0,1,0,0,1,0,1,0,0,1,0,0,46,1,0,1,0,0,0,0,2,0,0,0,0,0,1,11,15,
11,14,3,14,15,14,13,14,12,12,13,16,17,17,12,12,13,12,11,12,12,13,12,12,10,0,0,0,0,5,12,0,0,0,0,0,0,0,0,3,0,1,2,0,0,0,1,0,1,0,0,0,0,7,0,1,0,0,0,0,0,1,10,13,
12,14,2,12,10,12,14,12,14,14,13,16,13,17,13,14,13,13,14,13,13,13,12,14,0,0,0,0,0,5,11,0,0,0,0,0,1,0,0,10,0,0,0,0,1,0,1,1,1,0,0,0,0,2,0,0,0,0,0,0,0,1,13,14,
11,13,2,10,12,14,17,14,14,15,15,16,17,13,13,11,13,11,13,13,12,14,12,16,12,0,0,0,0,5,12,0,0,0,0,0,0,0,0,11,2,0,3,1,0,0,1,0,0,0,0,0,0,0,0,0,0,0,0,0,0,1,8,11,
11,3,1,12,13,15,12,14,18,16,12,17,14,14,11,10,12,9,12,10,12,11,11,13,8,0,0,0,0,0,9,0,0,0,0,0,0,0,0,7,0,0,4,0,1,0,0,0,2,1,0,1,0,0,0,0,0,0,0,0,0,2,11,12,
12,3,2,3,12,16,16,16,14,16,14,10,12,18,15,15,11,10,9,11,10,10,9,9,11,0,0,0,0,0,10,0,0,0,0,0,0,0,0,0,1,0,0,0,0,1,1,1,1,1,1,1,0,3,1,1,0,0,0,0,0,2,13,14,
11,4,12,3,13,14,16,14,14,14,16,15,15,14,11,16,13,14,14,12,13,12,13,11,4,0,0,0,0,4,10,0,0,0,0,0,0,0,0,11,0,0,5,0,0,1,0,1,0,0,0,0,0,0,0,0,0,0,0,0,0,1,14,12,
13,4,12,3,14,15,16,15,12,18,16,16,17,12,13,11,10,12,12,14,12,14,13,13,9,0,0,0,0,0,10,0,0,0,0,0,0,0,0,12,0,0,3,0,0,0,1,0,0,1,0,0,0,1,0,3,1,0,0,0,0,1,12,12,
12,2,12,2,12,14,16,14,14,14,13,14,14,12,15,14,11,10,12,10,10,10,11,12,8,0,0,0,0,0,10,0,0,0,0,0,0,0,0,3,0,0,1,0,1,1,0,0,1,0,0,0,0,0,2,0,0,0,0,0,0,1,13,13,
10,10,3,14,13,16,14,14,12,13,14,23,12,12,14,12,11,13,14,12,14,14,13,12,9,0,0,0,0,5,12,0,0,0,0,0,0,0,0,7,2,0,0,0,0,0,0,0,0,3,1,2,0,0,0,0,0,0,0,0,0,2,14,12,
12,8,1,14,13,15,16,17,14,14,14,15,15,12,13,11,10,10,12,12,11,12,12,14,9,0,0,0,0,5,12,0,0,0,0,0,0,0,0,12,0,1,4,0,2,0,0,46,0,0,0,1,0,0,0,0,0,0,0,0,0,1,12,13,
12,3,3,2,14,14,15,14,14,14,15,16,15,17,14,12,19,13,11,12,13,12,13,12,10,0,0,0,0,3,10,0,0,0,0,0,0,0,0,7,0,0,0,1,0,1,0,0,0,0,1,0,0,0,0,0,2,0,0,0,0,2,14,14,
14,13,1,15,15,17,15,13,14,15,14,16,14,14,12,12,14,14,14,14,11,10,10,11,10,0,0,0,0,4,10,0,0,0,0,0,0,0,8,0,1,0,4,0,0,0,0,0,1,0,0,0,0,0,0,0,0,0,0,0,0,1,14,15,
