10,8,3,3,5,12,10,12,14,12,11,10,10,11,11,12,14,12,12,13,12,13,12,12,12,0,0,0,0,0,11,0,0,0,0,0,0,0,0,10,0,0,1,0,0,0,0,0,0,0,0,0,0,0,0,0,0,0,0,0,0,1,10,12,
3,5,4,9,10,11,10,11,10,13,13,12,10,12,10,10,11,11,12,10,12,12,12,10,12,0,0,0,0,0,17,0,0,0,0,0,0,0,3,0,10,0,0,0,0,0,2,0,0,0,0,0,0,0,0,0,0,0,0,0,0,2,10,14,
10,3,2,9,4,8,10,12,12,15,12,12,11,10,12,10,10,10,9,10,11,12,12,11,7,0,0,0,0,0,8,0,0,0,0,0,0,0,0,3,1,0,0,1,0,0,0,0,0,0,0,0,0,0,0,0,0,0,0,0,0,1,8,13,
9,6,3,3,12,11,13,13,14,17,14,13,10,11,11,13,12,12,12,14,12,12,11,14,2,0,0,0,0,0,10,0,0,0,0,0,0,0,0,1,0,0,0,0,0,0,47,0,0,0,17,0,0,0,0,0,0,0,0,0,0,1,11,10,
14,3,10,8,12,10,16,16,22,21,22,22,24,25,24,19,10,9,11,8,9,15,11,9,9,3,1,0,0,0,16,0,0,0,0,0,0,0,1,11,3,0,0,2,0,0,0,0,0,0,0,0,0,0,0,0,0,0,0,0,0,1,10,10,
4,12,3,4,8,10,12,12,11,11,12,12,11,10,10,11,23,13,12,12,13,12,14,13,10,0,0,0,0,0,10,0,0,0,0,0,0,0,0,9,0,0,0,0,0,0,0,0,0,0,0,0,0,0,0,0,0,0,0,0,0,5,10,9,
10,9,10,5,13,14,11,13,15,12,11,12,10,10,10,10,11,13,12,11,14,12,12,14,6,0,0,0,0,0,16,0,0,0,0,0,0,0,0,5,0,0,0,0,0,1,0,0,15,0,0,0,0,0,0,0,0,0,0,0,0,8,10,10,
9,4,10,3,7,11,12,12,12,14,12,14,11,10,12,12,12,12,14,13,13,13,12,12,12,0,0,0,0,0,10,0,0,0,0,0,1,0,0,0,0,1,0,0,0,0,0,0,0,0,0,0,0,0,0,0,0,0,0,0,0,1,13,8,
9,11,2,5,10,10,11,11,12,14,12,12,12,11,10,12,12,14,12,13,14,12,11,11,10,0,0,0,0,0,17,0,0,0,0,0,0,0,0,9,1,0,0,1,0,0,0,0,0,0,0,0,0,0,0,0,0,0,0,0,0,1,8,9,
3,11,5,12,10,10,14,14,13,15,14,13,10,10,12,12,11,12,13,13,14,14,14,12,10,0,0,0,0,0,9,0,0,0,0,0,0,0,0,7,0,1,0,0,0,0,0,0,0,0,0,0,0,0,0,0,0,0,0,0,0,1,12,13,
10,4,3,11,12,10,11,10,10,15,12,14,11,11,10,10,10,12,12,13,11,13,12,11,11,0,0,0,0,0,11,0,0,0,0,0,1,0,0,8,0,0,0,1,0,0,0,0,0,0,0,0,0,0,0,0,0,0,0,0,0,1,10,10,
7,9,4,3,10,12,11,11,12,13,13,13,16,11,10,9,9,11,12,12,12,11,13,10,13,0,0,0,0,0,12,0,0,0,0,1,0,0,0,0,0,0,1,1,0,0,0,0,0,0,0,0,0,0,0,0,0,0,0,0,0,1,6,12,
12,11,3,3,14,14,14,11,12,15,14,13,12,10,10,9,11,11,11,11,11,11,10,11,10,0,0,0,0,0,16,0,0,0,0,0,0,0,0,6,0,0,0,8,0,1,0,0,0,0,0,0,0,0,0,0,0,0,0,0,0,1,8,13,
8,14,4,3,13,13,14,12,12,14,12,13,11,12,10,8,12,11,16,11,12,13,10,13,9,0,0,0,0,0,10,0,0,0,0,0,0,0,0,8,1,0,0,0,0,0,0,0,0,0,0,0,0,0,0,0,0,0,0,0,0,1,6,14,
4,10,3,10,3,10,13,13,12,13,13,10,12,9,10,11,10,11,14,12,12,12,10,13,9,0,0,0,0,0,0,0,0,0,0,0,0,0,6,0,0,0,0,0,1,0,0,0,0,0,0,0,0,0,0,0,0,0,0,0,0,1,10,12,
11,4,4,3,12,11,11,12,13,14,10,11,11,13,12,10,13,9,10,13,14,12,13,11,10,0,1,0,0,0,16,0,0,0,0,0,0,1,0,9,1,0,0,1,0,0,2,0,2,0,0,0,1,5,2,2,2,1,0,0,0,1,10,7,
5,7,4,10,12,11,13,11,11,14,12,10,11,13,10,10,12,13,14,15,14,14,13,13,11,0,0,0,0,0,16,0,0,0,0,0,0,1,0,13,1,0,0,0,0,2,0,0,0,0,0,46,0,0,0,0,0,0,0,0,0,6,11,10,
3,10,4,3,12,13,10,12,11,12,12,12,10,11,10,11,11,12,12,11,17,12,10,12,10,0,0,0,0,0,10,0,0,0,0,1,0,0,1,12,0,0,0,0,2,0,0,0,0,0,0,0,0,0,0,0,0,0,0,0,0,1,13,13,
8,10,3,4,12,10,13,13,12,13,11,13,12,18,11,10,8,8,9,11,13,11,12,12,9,0,0,0,0,0,17,0,0,0,0,0,0,0,0,10,0,0,0,1,0,0,0,0,0,0,0,0,0,0,0,0,0,0,0,0,0,1,13,14,
6,9,5,3,11,10,9,11,11,13,12,10,13,10,12,10,10,14,11,10,13,12,12,12,7,0,0,0,0,0,0,0,0,0,0,0,0,0,0,7,0,0,0,0,0,0,0,0,0,0,0,0,0,0,0,0,0,0,0,0,0,1,12,13,
6,6,5,11,10,14,12,12,11,16,11,14,10,11,11,10,12,13,11,14,11,12,12,12,10,1,0,0,0,0,16,0,0,0,0,0,0,0,0,6,0,1,0,0,0,0,0,0,1,0,0,0,0,0,0,0,0,0,0,0,0,5,11,10,
12,4,3,5,11,11,11,11,12,15,11,12,12,12,10,13,12,11,12,13,13,13,12,13,5,0,0,0,0,0,12,0,0,0,0,0,0,0,1,10,0,0,0,1,0,0,0,0,0,0,0,0,0,0,0,0,0,0,0,0,0,5,12,10,
9,12,3,2,12,10,11,13,12,14,12,12,10,12,11,10,11,13,10,14,13,10,12,12,11,0,0,0,0,0,10,0,0,0,0,0,0,0,0,5,0,0,0,0,0,0,1,0,0,0,0,0,0,0,0,0,0,0,0,0,0,1,14,14,
5,12,3,3,12,13,11,13,11,14,13,12,10,13,11,12,9,11,14,13,12,11,13,10,8,0,0,0,0,0,16,0,0,0,0,0,0,2,0,7,0,1,0,1,0,0,0,0,0,0,0,0,0,0,0,0,0,0,0,0,0,1,7,14,
9,13,5,4,12,12,11,12,17,13,15,11,12,14,10,9,11,11,14,12,10,12,11,10,8,0,0,0,0,0,15,0,0,0,0,0,0,1,0,13,1,0,0,1,0,0,0,0,0,0,0,0,0,0,0,0,0,0,0,0,0,2,7,13,
5,12,5,3,7,11,14,14,13,14,12,11,12,12,12,11,13,11,12,13,14,12,14,11,11,0,0,0,0,0,10,0,0,0,0,0,0,0,0,10,1,0,1,0,0,0,0,0,0,0,0,0,0,0,0,0,0,0,0,0,0,1,13,12,
10,6,3,3,9,12,12,12,12,15,12,12,10,9,9,10,9,11,12,10,10,12,12,12,11,0,0,0,0,0,17,0,0,0,0,0,0,0,0,15,0,0,1,1,0,0,0,0,0,0,0,0,0,0,0,0,0,0,0,0,0,1,12,9,
10,6,12,3,12,13,13,12,11,17,12,11,12,11,13,12,11,13,14,13,14,14,12,11,7,0,0,0,0,0,16,0,0,0,0,0,0,0,0,4,0,0,0,0,1,0,0,0,0,0,0,0,0,0,0,0,0,0,0,0,0,1,11,10,
7,9,3,3,7,10,14,10,13,16,12,13,12,12,11,14,12,13,12,13,12,14,14,10,2,0,0,0,0,0,19,0,0,0,0,0,0,0,0,4,0,0,0,0,0,0,1,0,0,0,0,0,0,0,0,0,0,0,0,0,0,1,13,13,
5,3,10,12,5,9,12,14,13,12,12,12,11,12,10,10,10,12,13,12,13,12,11,15,8,0,0,0,0,0,10,0,0,0,0,0,0,0,0,5,0,0,0,2,0,0,0,0,0,0,0,0,0,0,0,0,0,0,0,0,0,1,10,15,
3,3,4,3,5,10,12,11,12,14,12,12,12,9,10,9,9,11,13,14,13,13,13,12,12,0,0,0,0,0,16,0,0,0,0,0,0,0,4,10,0,0,41,0,0,0,0,0,0,0,0,0,0,0,0,0,0,0,0,0,0,1,9,12,
3,12,5,5,9,12,12,11,14,12,11,12,9,11,11,10,10,11,10,11,10,11,11,12,10,0,0,0,0,0,12,0,0,0,0,0,0,0,0,0,0,0,0,0,0,0,0,0,0,0,0,0,0,0,0,0,0,0,0,0,0,2,5,14,
3,11,3,5,13,11,11,12,13,16,12,12,13,12,9,12,10,13,12,12,12,11,12,11,11,0,0,0,0,0,12,0,0,0,0,0,0,0,0,7,0,2,0,1,0,0,0,0,0,0,0,0,0,0,0,0,0,0,0,0,0,2,7,13,
8,13,4,3,12,12,12,10,12,16,12,14,11,11,10,10,11,11,12,16,13,12,11,13,13,0,0,0,0,0,16,0,0,0,0,0,0,0,0,13,0,0,0,0,0,0,0,0,0,0,0,0,0,0,0,0,0,0,0,0,0,1,12,13,
4,13,3,5,12,11,12,13,14,13,17,11,10,10,10,9,10,11,11,10,12,11,12,10,9,0,0,0,0,0,10,0,0,0,0,0,0,0,0,7,0,0,1,0,0,0,0,0,0,0,0,0,1,0,0,0,0,0,0,0,0,1,12,13,
11,6,3,8,3,15,11,14,11,12,12,10,10,10,11,11,11,10,10,10,12,9,10,10,8,7,0,0,0,0,17,0,0,0,0,0,0,0,8,0,0,0,0,0,1,1,0,0,0,0,0,0,0,0,0,0,0,0,0,0,0,3,11,11,
11,3,3,12,12,11,12,10,16,13,11,13,14,14,13,11,10,9,14,10,11,10,11,12,9,8,0,0,0,0,19,0,0,0,0,0,0,1,0,13,0,0,0,2,0,0,0,0,0,0,0,0,0,0,0,0,0,0,0,0,0,2,11,12,
11,5,3,3,12,11,14,13,9,19,12,11,11,10,11,8,11,10,11,10,10,11,10,11,10,0,0,0,0,0,10,0,0,0,0,1,0,0,0,0,0,0,0,0,0,0,0,0,0,0,0,0,0,0,0,0,0,0,0,0,0,1,13,13,
9,3,11,11,12,12,11,11,12,13,13,11,11,11,10,9,11,13,11,11,14,10,10,9,7,0,0,0,0,0,8,0,0,0,0,1,0,0,0,0,0,0,0,1,0,0,0,0,0,0,0,0,0,0,0,1,0,0,0,0,0,1,5,15,
12,8,4,5,13,12,13,13,14,12,14,12,11,11,11,10,12,10,10,12,11,10,10,11,8,0,1,0,0,0,10,0,0,0,0,0,0,0,0,6,4,0,0,0,0,0,0,0,0,0,0,0,0,0,0,0,0,0,0,0,0,1,8,13,
11,8,3,3,14,11,14,12,13,13,12,11,12,12,13,11,12,12,11,12,10,12,11,11,10,10,0,0,0,0,16,0,0,0,0,0,0,0,0,11,0,0,0,4,1,0,0,0,0,0,1,0,0,0,0,0,0,0,0,0,0,1,11,11,
3,12,3,3,12,10,13,16,12,13,12,13,10,11,9,10,10,9,10,8,10,8,10,10,8,0,0,0,0,0,10,0,0,0,0,0,0,0,0,13,3,0,0,0,1,2,0,0,0,0,0,0,0,0,0,0,0,0,0,0,0,1,13,13,
10,4,3,12,3,13,12,13,12,14,13,12,11,11,9,9,10,10,10,11,12,10,12,8,12,0,0,0,0,0,9,0,0,0,0,2,0,0,0,0,0,0,0,0,0,0,0,0,0,0,0,0,0,0,0,0,0,0,0,0,0,1,11,12,
12,5,12,3,12,11,11,14,11,16,13,13,10,11,11,12,11,10,10,11,11,10,10,12,7,0,0,0,0,0,16,0,0,0,0,0,0,0,1,11,0,0,0,0,0,0,0,0,0,0,0,0,0,0,0,0,0,0,0,0,0,1,10,13,
10,13,3,4,13,13,14,13,11,14,12,14,10,12,10,10,9,10,11,13,11,12,13,10,14,0,0,0,0,0,8,0,0,0,0,0,0,0,7,0,0,0,0,0,0,0,0,0,0,0,0,0,0,2,0,0,0,0,0,0,0,1,10,12,
7,13,2,3,5,12,13,14,14,13,14,10,12,12,10,8,10,11,13,10,10,12,10,9,10,0,0,0,0,0,11,0,0,0,0,0,0,0,0,0,2,0,0,0,0,0,0,1,0,0,0,0,0,0,0,0,0,0,0,0,0,1,9,14,
10,5,4,3,11,13,12,12,13,12,12,12,11,13,11,10,9,10,12,11,9,10,10,12,11,0,0,0,0,0,10,0,0,0,0,0,0,0,0,0,3,0,0,0,0,0,0,0,0,0,0,0,0,0,0,0,0,0,0,0,0,2,12,15,
10,6,11,4,13,12,11,11,10,13,13,12,10,14,10,10,11,10,9,12,10,9,10,10,7,0,0,0,0,0,17,0,0,0,0,0,0,0,0,11,0,0,0,0,0,0,0,0,0,0,0,0,0,0,0,0,0,0,0,0,0,1,12,12,
11,3,3,13,3,12,14,14,11,10,13,13,12,11,10,9,8,8,8,8,10,10,9,9,9,0,0,0,0,0,10,0,0,0,0,0,0,0,0,13,0,0,0,0,0,0,0,0,0,0,0,0,0,0,0,0,0,0,0,0,0,1,10,10,
4,12,4,3,12,13,12,11,10,14,13,11,11,12,10,10,9,11,10,10,12,10,10,10,11,0,0,0,0,0,15,0,0,0,0,0,0,1,8,0,0,1,0,0,0,0,0,0,0,0,0,0,1,0,0,0,0,0,0,0,0,1,14,10,
