10,8,12,9,10,12,12,14,13,17,19,16,48,12,14,17,16,18,16,13,12,13,15,12,0,0,0,0,0,4,15,0,0,3,5,0,0,1,0,9,1,0,44,0,1,0,0,0,0,0,0,0,0,0,0,0,0,0,0,0,0,0,11,13,
11,44,1,10,13,14,15,14,14,16,16,48,13,14,15,14,14,14,19,14,15,15,17,15,14,0,0,0,0,3,8,0,0,0,0,0,0,0,47,0,0,0,0,0,48,0,0,0,0,3,0,0,0,0,0,0,0,0,0,0,0,8,12,12,
9,7,1,2,12,16,13,14,14,17,17,17,16,15,15,15,16,23,16,15,18,16,18,16,2,0,0,0,0,4,9,0,0,0,0,0,0,0,0,8,0,1,0,0,0,0,0,0,14,0,0,0,0,0,0,0,0,0,0,0,0,1,12,10,
14,10,9,3,11,12,14,13,16,48,16,14,14,14,15,16,38,17,16,17,16,17,16,18,12,0,0,0,0,8,11,0,0,0,0,0,0,0,0,0,0,48,0,1,0,0,0,0,0,0,0,0,0,0,0,0,0,0,0,0,0,1,8,15,
7,8,9,11,12,14,16,44,13,18,17,14,12,13,14,16,16,18,17,19,17,19,18,17,13,0,0,0,0,4,10,0,0,0,0,0,0,0,0,11,30,0,0,0,0,0,19,27,0,0,0,0,0,0,0,0,0,1,0,0,0,1,6,10,
10,8,39,6,12,16,12,13,16,16,19,18,15,15,36,18,16,17,16,16,17,17,16,15,12,0,0,0,0,4,10,0,0,0,0,0,0,41,0,0,0,0,0,0,0,0,0,0,0,0,0,0,0,0,0,0,0,0,0,1,0,1,9,12,
11,10,16,8,12,12,14,14,14,20,17,17,15,15,37,15,15,16,19,17,16,18,18,17,14,0,0,0,0,1,12,0,0,27,0,0,0,0,0,16,0,0,0,0,0,0,0,0,16,0,0,0,0,0,0,0,0,0,0,0,0,1,12,14,
13,27,3,9,15,15,13,13,13,18,16,16,13,39,14,18,34,16,17,18,19,19,18,16,13,0,0,0,0,5,8,0,0,0,0,0,0,0,47,10,0,2,0,0,0,0,0,0,0,0,0,0,0,0,0,0,0,0,0,0,0,1,10,9,
11,12,10,8,12,12,12,13,12,20,19,16,13,13,13,14,14,14,18,17,17,16,17,17,0,0,0,0,0,4,9,0,0,23,0,0,0,0,0,8,0,0,0,0,0,0,0,0,0,0,0,0,0,0,0,0,0,0,0,0,0,1,8,13,
11,11,13,9,14,15,13,14,14,20,18,16,17,13,22,14,17,16,17,18,18,17,17,16,15,0,0,0,0,5,10,0,0,0,0,0,0,0,0,11,0,1,0,1,0,0,0,0,0,1,0,0,0,0,0,0,0,0,0,0,0,1,7,12,
12,11,14,12,12,19,13,15,14,19,17,16,14,11,13,14,17,17,15,16,18,16,18,17,13,0,0,0,0,4,10,0,0,0,0,0,0,0,1,8,0,0,0,0,0,0,0,0,0,0,0,0,0,0,0,0,0,0,0,0,0,1,4,9,
13,13,1,9,13,14,13,14,12,18,16,48,16,14,18,48,19,16,17,16,18,17,17,19,16,0,0,0,0,5,10,0,0,47,0,0,0,0,0,11,48,0,0,1,0,0,0,0,0,0,0,0,0,0,0,0,1,0,0,0,0,2,12,11,
12,12,10,9,14,12,16,15,16,17,17,17,14,12,11,17,18,18,18,19,17,16,17,18,11,0,0,0,0,3,8,0,0,41,0,0,1,0,45,0,0,1,0,1,0,0,0,0,0,0,0,0,0,3,0,0,0,0,0,0,0,1,11,10,
10,6,2,10,16,13,13,15,14,20,15,18,14,14,14,15,26,17,15,17,17,16,16,15,0,4,0,0,0,3,9,0,0,0,0,0,0,0,0,0,0,0,0,35,2,46,46,0,20,0,0,0,0,3,0,0,0,0,0,0,0,1,12,12,
11,10,10,6,11,12,12,13,14,18,19,15,15,15,13,15,16,14,18,18,16,16,15,19,1,0,0,0,0,4,11,0,0,0,0,0,0,0,0,11,48,0,0,0,0,0,0,0,35,0,0,0,0,4,0,0,0,0,0,0,0,1,8,12,
13,9,4,9,9,14,16,13,13,17,48,14,13,13,12,44,16,16,19,14,17,14,15,18,10,0,0,0,0,4,10,0,0,0,0,0,0,0,0,16,48,0,25,2,1,0,0,2,14,0,0,0,0,4,0,0,0,0,0,0,0,1,8,8,
9,11,22,12,13,12,13,13,14,47,14,12,15,16,19,21,48,16,15,16,17,17,17,15,14,0,0,0,0,3,8,0,0,0,0,0,0,0,0,42,1,0,0,0,0,1,0,0,47,0,0,0,0,0,3,0,0,0,0,0,0,1,10,12,
9,7,10,9,13,12,12,12,14,19,15,16,13,14,15,16,48,16,18,17,17,16,17,17,0,0,0,0,0,4,14,0,0,0,0,0,1,0,0,7,0,0,0,1,0,0,0,0,0,0,0,0,0,0,0,0,3,0,0,0,0,6,13,10,
9,5,7,10,10,15,14,14,16,16,17,16,15,15,12,48,46,16,16,14,15,16,16,16,0,0,0,0,0,4,9,0,0,0,0,24,0,0,1,15,1,0,0,0,0,47,0,0,0,0,0,0,0,0,0,0,0,0,1,0,0,2,9,14,
9,12,1,10,10,13,48,13,16,18,15,15,14,14,17,19,16,14,18,16,17,17,15,17,12,0,0,0,0,4,7,0,0,0,0,0,0,0,3,0,0,1,0,1,1,0,46,0,0,0,0,0,0,0,0,0,0,0,0,0,0,1,5,14,
9,10,7,9,14,14,11,15,48,16,14,12,12,14,11,12,14,12,14,12,12,15,14,14,10,0,0,0,0,4,10,0,0,0,0,0,0,0,3,1,42,0,1,0,0,0,0,0,0,0,0,0,0,0,0,0,0,0,0,0,0,1,7,13,
10,7,11,10,9,12,13,15,13,19,16,17,11,12,13,14,48,14,13,13,13,12,11,11,5,0,0,0,0,5,10,0,0,0,21,0,0,44,0,6,2,0,0,0,0,13,2,0,0,0,0,0,0,0,0,0,0,0,0,0,0,9,9,10,
12,16,11,10,12,14,14,14,15,16,15,14,12,12,13,13,23,13,13,13,12,11,11,14,0,0,0,0,0,4,8,0,0,32,0,0,0,0,0,0,0,0,0,0,0,0,0,0,0,0,0,0,0,0,0,0,0,0,0,0,0,1,9,13,
9,21,3,10,12,15,14,15,16,18,15,14,14,11,12,12,17,15,14,17,14,15,14,14,14,0,0,0,0,4,8,0,0,0,0,0,0,0,9,0,0,1,0,0,0,0,0,0,0,0,0,0,0,0,0,0,0,0,0,0,0,1,13,12,
13,29,1,7,16,16,14,12,14,16,14,14,11,10,12,14,14,14,14,15,14,12,14,12,0,0,0,0,0,4,8,0,0,0,0,0,0,0,0,7,0,2,0,0,0,0,0,0,0,0,0,0,0,0,0,0,0,0,0,0,0,2,13,9,
10,10,0,9,13,12,14,14,16,17,16,14,13,13,14,13,14,14,16,14,13,13,13,14,10,0,0,0,0,3,10,0,0,0,0,0,0,0,3,0,0,0,0,1,0,0,12,0,0,0,0,0,0,0,0,0,0,0,1,0,0,2,12,12,
12,10,8,9,13,15,14,13,14,16,14,12,12,12,12,13,14,13,12,12,15,15,13,12,0,0,0,0,0,4,12,0,0,0,0,0,0,0,0,8,0,0,0,0,0,0,0,0,0,0,0,24,0,0,0,0,0,0,0,0,0,1,12,14,
10,9,10,12,14,15,14,15,16,16,14,16,13,12,12,12,12,14,15,16,16,16,15,15,9,0,0,0,0,3,8,0,0,0,0,0,0,0,0,7,0,0,0,0,0,0,0,1,0,0,0,0,0,0,0,0,0,0,0,0,0,1,11,10,
13,12,4,12,10,11,14,16,13,23,17,16,12,11,11,33,14,14,15,14,16,14,16,15,10,0,0,0,0,5,11,0,0,0,0,0,0,0,0,8,0,0,0,0,1,0,32,0,1,0,0,0,0,0,0,0,0,0,0,0,0,0,5,12,
13,13,9,1,12,12,14,15,14,21,19,16,16,13,14,15,17,16,16,16,15,18,15,14,12,0,0,0,0,3,8,0,0,0,0,0,3,0,0,0,0,0,0,0,0,0,0,0,15,0,0,0,0,0,0,0,0,0,0,0,0,1,14,15,
10,5,10,10,15,14,14,14,14,17,17,16,12,15,16,13,42,13,15,16,14,12,12,13,8,0,0,0,0,5,10,0,0,0,0,0,0,0,0,3,0,0,0,0,0,0,0,2,9,0,0,0,0,0,0,0,0,0,0,0,0,2,12,12,
11,10,9,3,13,18,15,14,14,22,16,16,14,10,47,11,14,13,14,16,12,13,15,14,14,0,0,0,0,4,10,0,0,0,0,0,1,0,7,0,0,0,0,0,0,0,0,0,1,0,0,0,0,0,0,0,0,0,0,0,0,1,12,10,
12,12,9,10,13,17,14,16,14,16,15,15,12,11,12,14,13,13,15,16,16,13,15,14,0,0,0,0,0,5,11,0,0,0,0,0,1,0,0,0,0,0,0,1,0,0,0,0,0,0,0,0,0,0,0,0,0,0,0,0,0,1,10,11,
10,3,31,16,14,15,16,16,15,15,14,14,15,14,12,12,15,16,16,15,16,16,15,15,10,0,0,0,0,5,10,0,0,32,0,0,0,0,0,7,0,0,0,1,0,0,0,0,0,0,0,0,0,0,0,0,0,0,0,0,0,1,12,12,
14,8,11,13,14,15,14,14,15,18,14,14,18,12,13,12,16,14,16,14,15,16,14,16,11,0,0,0,0,4,10,0,0,0,0,0,0,0,1,0,0,1,0,0,0,0,0,0,42,0,0,8,0,0,0,0,0,0,0,0,0,1,14,10,
15,10,12,8,14,14,15,14,14,17,18,17,15,10,12,13,41,12,15,16,15,16,14,15,11,0,0,0,0,4,8,0,0,0,21,0,0,0,1,12,0,0,0,0,0,0,0,0,48,0,0,0,0,0,0,2,0,0,0,0,0,1,15,12,
5,11,10,11,14,12,13,12,14,17,14,14,12,14,11,12,15,13,14,14,16,16,14,14,10,0,0,0,0,4,9,0,0,0,0,0,0,0,0,8,1,0,0,0,12,4,0,0,0,0,0,0,0,7,0,0,0,0,0,0,0,1,8,16,
8,10,5,7,16,14,14,17,15,18,16,15,13,14,12,13,12,14,15,13,14,14,14,15,11,0,0,0,0,4,10,0,0,0,0,0,0,0,0,4,0,1,0,0,0,0,0,7,47,0,0,0,0,0,7,0,0,0,0,0,0,2,11,14,
14,9,11,8,12,15,16,14,15,17,14,13,14,12,13,12,14,15,16,15,12,12,14,15,10,0,0,0,0,3,9,0,0,0,0,0,1,0,0,11,0,0,0,0,1,0,3,5,24,0,0,0,0,0,6,0,0,0,0,0,0,5,9,16,
16,10,12,8,15,14,14,14,16,15,16,14,13,11,11,12,12,12,14,13,13,13,14,13,11,0,0,0,0,5,10,0,0,0,0,0,0,0,5,0,0,0,0,1,0,0,0,0,0,0,0,0,0,0,0,0,0,0,0,0,0,1,13,11,
10,1,13,12,10,13,14,14,14,19,14,14,15,13,12,14,14,14,15,13,14,12,13,13,10,0,0,0,0,5,10,0,0,0,0,0,0,0,0,13,0,0,1,0,0,0,0,0,0,0,0,0,0,0,0,0,5,0,0,0,0,1,8,11,
13,10,20,11,16,14,15,14,17,17,14,16,15,11,10,11,29,14,12,12,11,13,11,13,0,0,0,0,0,4,10,0,0,0,0,0,0,0,0,0,2,1,0,0,5,0,0,0,0,0,0,0,0,0,0,0,0,0,0,0,0,1,11,11,
10,10,8,16,15,14,15,15,16,17,16,13,12,13,12,11,11,12,13,13,14,14,12,14,11,0,0,0,0,4,8,0,0,0,40,0,0,0,3,0,6,0,0,0,0,1,0,0,14,0,0,0,0,0,0,0,0,0,0,0,0,1,13,14,
12,1,11,48,14,15,15,16,16,20,15,16,14,10,11,12,11,11,15,13,16,14,13,13,0,0,0,0,0,4,10,0,0,0,7,0,2,0,0,9,0,0,1,0,0,5,1,7,0,0,0,0,0,0,0,0,0,0,0,0,0,1,10,14,
13,8,5,8,15,16,16,15,17,16,17,15,13,12,10,12,11,13,12,12,13,15,13,13,9,0,0,0,0,3,9,0,0,0,48,0,1,0,0,0,0,1,0,1,0,0,0,15,0,0,14,0,0,0,0,0,0,0,0,0,0,1,12,20,
10,12,8,12,35,14,13,14,13,17,16,16,11,10,12,12,12,13,13,13,14,15,13,13,10,0,0,0,0,3,9,0,0,0,48,0,0,0,0,13,2,0,1,0,0,1,16,0,0,0,0,0,0,0,0,0,0,0,0,0,0,1,14,11,
8,10,1,3,44,12,14,17,17,14,16,17,12,11,12,12,14,14,14,12,13,14,11,13,14,0,0,0,0,7,11,0,0,0,0,0,0,0,0,11,0,0,0,1,0,0,38,21,0,0,1,0,0,0,1,0,0,0,1,0,0,1,10,14,
12,14,14,14,10,14,12,19,14,16,17,14,13,9,12,10,12,11,13,15,16,13,12,13,8,0,0,0,0,4,9,0,0,0,0,0,0,0,0,8,1,0,0,0,0,0,0,0,0,0,0,0,0,0,0,0,0,0,0,0,0,7,16,14,
12,8,9,12,11,13,13,14,15,17,14,12,12,12,11,11,11,14,14,15,14,13,14,11,0,0,0,0,0,23,12,0,0,0,0,0,0,2,0,8,0,1,0,0,0,0,0,0,0,0,28,0,0,0,0,0,0,0,0,0,0,0,9,12,
14,12,10,12,11,14,14,15,15,16,15,15,12,12,12,11,12,12,11,12,15,12,13,11,12,0,0,0,0,3,10,0,0,0,0,0,0,0,0,0,0,0,0,0,0,0,0,0,4,0,0,29,0,0,0,0,0,0,0,0,0,0,11,12,
