7,8,10,8,7,14,13,12,14,12,14,13,15,13,14,11,10,13,12,12,11,12,12,11,6,0,0,0,0,5,11,0,0,0,0,0,0,0,1,10,0,0,0,1,0,6,0,0,0,0,0,0,0,0,0,0,0,0,0,0,0,1,7,9,
11,8,4,9,13,13,13,11,12,13,14,11,12,12,12,14,12,11,12,10,11,10,10,10,10,0,0,0,0,5,10,0,0,0,0,0,0,0,0,10,0,0,1,1,0,1,0,0,5,0,0,0,0,0,0,0,0,0,0,0,0,1,5,9,
9,1,9,8,8,12,12,10,17,12,14,11,12,12,11,12,13,12,10,13,12,13,10,10,10,0,0,0,0,3,14,0,0,0,0,0,0,1,0,9,0,0,0,1,0,0,0,0,2,0,0,0,0,0,0,0,0,0,0,0,0,1,5,7,
8,9,0,5,7,15,16,12,12,19,15,12,11,10,11,11,14,13,10,11,12,12,12,13,11,0,0,0,0,5,10,0,0,0,0,0,0,0,0,4,0,0,1,0,0,1,0,0,0,4,0,0,0,0,0,0,0,0,0,0,0,2,10,8,
8,9,9,11,11,11,11,10,10,13,12,10,10,10,8,8,8,7,7,8,8,9,8,7,8,0,0,0,0,0,12,0,0,0,0,0,0,0,0,13,0,0,0,1,0,0,1,0,0,3,0,0,0,0,0,0,0,0,0,0,0,2,7,10,
14,7,7,7,14,12,10,13,15,13,14,13,12,12,11,11,14,12,10,11,10,10,10,11,3,0,0,0,0,0,11,0,0,0,0,0,1,0,0,7,0,1,0,1,0,1,26,0,0,0,0,0,0,0,0,0,0,0,0,0,0,5,9,9,
11,10,8,12,12,8,10,12,12,14,12,14,12,14,13,12,13,12,12,14,11,13,12,12,4,0,0,0,0,0,14,0,0,0,0,0,0,0,0,10,0,1,0,0,0,0,0,0,5,0,0,0,0,0,0,0,0,0,0,0,0,1,8,9,
10,11,7,1,10,13,10,12,15,14,14,12,13,14,12,14,13,13,13,13,11,12,12,10,0,0,0,0,0,4,13,0,0,0,0,0,0,0,0,11,0,1,0,0,0,0,1,0,0,0,0,0,0,0,0,0,0,0,0,0,0,2,8,10,
10,8,10,7,9,12,16,13,12,11,12,12,13,12,14,12,13,12,12,9,14,11,14,14,7,0,0,0,0,3,10,0,0,0,0,0,1,0,0,6,0,0,0,0,0,1,0,0,0,6,0,0,0,0,0,0,0,0,0,0,0,4,6,8,
9,8,7,8,12,11,10,12,12,12,18,12,12,12,12,11,11,12,11,10,9,10,13,11,9,0,0,0,0,0,11,0,0,0,0,0,0,0,0,4,0,0,0,0,0,1,0,5,0,0,0,0,0,0,0,0,0,0,0,0,0,3,8,8,
5,11,0,7,9,13,11,11,13,13,15,15,12,12,10,11,10,13,13,12,10,10,10,11,9,0,0,0,0,0,10,0,0,0,0,0,0,0,2,8,0,0,1,0,0,1,0,4,0,0,0,0,0,0,0,0,0,0,0,0,0,3,7,10,
11,9,7,8,10,13,13,13,13,13,11,12,12,12,16,11,11,11,12,11,12,10,11,12,11,0,0,0,0,4,11,0,0,0,0,0,0,0,0,9,0,0,0,0,0,0,1,5,0,0,0,0,0,0,0,0,0,0,0,0,0,1,8,10,
7,8,6,9,12,13,14,12,14,18,11,15,14,13,13,12,11,11,12,11,12,12,13,12,8,0,0,0,0,5,9,0,0,0,0,0,0,0,9,0,0,0,0,1,0,5,0,1,0,4,0,0,0,0,5,0,0,0,0,0,0,2,7,8,
10,8,7,10,10,10,10,10,12,14,12,11,12,13,13,12,11,11,11,12,13,13,12,11,10,0,0,0,0,0,12,0,0,0,0,0,0,0,0,0,0,0,0,1,0,0,0,0,0,0,0,0,0,0,0,0,0,0,0,0,0,4,5,6,
11,6,6,7,10,14,16,12,12,16,13,16,14,12,12,12,13,12,14,13,14,14,11,10,8,0,0,0,0,3,12,0,0,0,0,0,0,1,0,13,0,0,0,0,0,0,0,1,0,0,0,0,0,0,6,0,0,0,0,0,0,0,7,10,
10,10,11,8,11,13,13,12,15,16,12,12,12,11,12,12,10,10,11,11,12,11,11,14,8,0,0,0,0,4,11,0,0,0,0,0,0,0,0,5,0,0,0,0,1,0,0,0,0,13,0,0,0,0,0,0,0,0,0,0,0,3,7,8,
8,10,7,9,8,10,10,13,11,14,13,12,11,12,10,12,11,11,10,13,12,11,10,12,9,0,0,0,0,0,10,0,0,0,0,0,0,0,0,6,0,0,1,0,0,1,0,0,0,0,0,0,0,0,0,0,0,0,0,0,0,3,8,10,
9,8,7,7,8,11,10,10,11,14,16,14,12,11,10,11,12,12,11,10,11,13,13,12,10,0,0,0,0,0,13,0,0,0,0,0,0,0,3,0,0,1,1,1,0,0,0,1,0,0,0,0,0,0,0,0,0,0,0,0,0,1,7,8,
8,5,6,9,10,12,14,14,16,15,12,16,10,11,11,10,11,11,10,12,11,12,13,12,9,7,0,0,0,4,11,0,0,0,0,0,0,0,0,8,0,0,0,0,0,1,0,0,4,0,0,0,0,0,0,0,0,0,0,0,0,0,7,7,
8,8,7,10,10,16,11,14,14,15,14,17,12,11,12,15,13,10,12,11,10,11,10,11,12,0,0,0,0,3,10,0,0,0,0,0,0,0,0,1,0,1,1,0,7,0,0,1,0,0,0,0,0,0,0,0,0,0,0,0,0,5,8,9,
7,5,8,12,8,8,12,14,14,13,13,12,10,14,10,12,10,11,8,12,11,11,12,12,7,0,0,0,0,0,9,0,0,0,0,0,1,0,0,0,0,1,0,0,1,0,0,0,0,0,0,0,0,0,0,0,0,0,0,0,0,2,6,8,
7,8,7,4,12,13,14,15,14,14,16,10,11,11,11,11,11,9,12,12,12,13,13,14,11,0,0,0,0,4,10,0,0,0,0,0,0,0,0,14,0,0,5,0,0,1,0,0,3,0,0,0,0,0,0,0,0,0,0,0,0,1,7,5,
9,8,10,9,11,13,12,12,14,16,12,16,10,14,10,12,10,9,11,10,11,10,11,10,8,0,0,0,0,0,12,0,0,0,0,0,0,0,0,11,0,0,0,0,1,1,0,5,0,0,0,0,0,0,0,0,0,0,0,0,0,3,7,10,
8,5,11,7,11,12,11,12,9,14,15,13,12,13,10,10,10,9,13,14,12,11,12,8,10,0,0,0,0,0,11,0,0,0,0,0,0,0,0,0,1,0,0,0,0,0,1,0,4,0,0,0,0,0,0,0,0,0,0,0,0,1,4,11,
10,0,3,8,11,14,13,15,12,12,14,15,12,12,11,11,10,10,9,11,12,11,15,14,8,0,0,0,0,0,10,0,0,0,0,0,1,0,0,3,0,2,0,0,0,1,0,3,0,0,0,0,0,0,0,0,0,0,0,0,0,1,6,8,
8,9,8,8,8,10,11,10,11,14,11,11,11,9,11,9,8,10,8,10,10,9,10,8,8,0,0,0,0,0,10,0,0,0,0,0,0,0,0,3,1,0,1,0,0,1,0,3,0,0,0,0,0,0,0,0,0,0,0,0,0,1,5,7,
10,9,7,6,7,10,13,12,16,10,13,12,12,12,12,10,10,12,13,11,8,10,12,10,10,0,0,0,0,4,5,0,0,0,0,0,0,0,0,9,0,0,0,0,0,0,0,3,0,0,0,0,0,0,0,0,0,0,0,0,0,2,8,8,
5,7,10,1,13,10,14,15,15,12,11,10,12,10,9,11,12,13,10,12,11,11,11,10,3,0,0,0,0,0,9,0,0,0,0,0,0,0,0,1,0,1,0,0,0,1,0,1,0,0,0,0,0,0,0,0,0,0,0,0,0,4,9,12,
10,8,8,5,10,10,11,14,15,13,15,11,13,14,12,14,12,12,12,12,11,11,10,11,8,3,0,0,0,3,11,0,0,0,0,0,0,0,2,0,0,0,0,0,0,0,0,0,0,0,0,0,0,0,0,0,0,0,0,0,0,2,6,8,
10,10,7,7,10,10,14,10,9,12,13,12,11,19,11,10,12,11,10,9,9,11,12,10,10,0,0,0,0,0,9,0,0,0,0,0,0,0,0,10,0,0,1,0,0,0,0,0,0,0,0,0,0,0,0,0,0,0,0,0,0,0,7,8,
9,8,8,7,10,14,13,12,12,12,13,14,11,11,12,10,9,11,12,11,11,10,10,8,10,0,0,0,0,5,10,0,0,0,0,0,0,0,0,6,0,1,0,0,0,0,0,0,1,0,0,0,0,0,0,0,0,0,0,0,0,1,8,4,
4,7,8,9,10,11,13,14,13,13,12,13,13,12,11,10,11,13,13,12,12,12,11,12,9,0,0,0,0,3,10,0,0,0,0,0,0,0,0,11,0,0,0,0,0,1,0,2,0,0,0,0,0,0,0,0,0,0,0,0,0,5,12,8,
9,7,9,5,12,12,15,13,13,14,14,12,12,11,11,12,10,13,9,10,12,11,13,10,11,0,0,0,0,0,10,0,0,0,0,0,1,0,0,7,0,0,0,31,0,35,0,0,1,0,0,0,0,0,0,0,0,0,0,0,0,4,6,9,
10,9,7,9,10,10,12,12,11,13,12,13,10,11,11,10,14,10,10,8,10,11,12,10,10,0,0,0,0,0,13,0,0,0,0,0,0,0,0,7,1,0,0,1,0,1,0,1,0,0,0,0,0,0,0,0,0,0,0,0,0,1,8,7,
8,9,5,8,12,14,12,15,13,13,16,17,15,11,12,10,10,12,12,11,10,10,12,12,9,0,0,0,0,3,11,0,0,0,0,0,0,0,0,12,0,0,0,0,0,0,0,0,0,0,0,0,0,0,0,0,0,0,1,0,0,1,7,9,
6,8,7,6,7,14,12,12,12,14,14,12,13,10,16,13,13,12,10,12,12,13,13,8,10,0,0,0,0,4,9,0,0,0,0,0,0,0,0,11,0,1,0,0,0,0,0,1,0,0,0,0,0,0,0,0,0,0,0,0,0,4,9,4,
8,3,6,7,10,12,14,12,13,10,11,12,14,13,9,10,11,11,12,12,11,11,13,10,8,0,0,0,0,4,10,0,0,0,0,0,0,0,0,0,0,0,1,0,0,0,1,0,8,0,18,0,0,0,0,0,0,0,0,0,0,1,7,8,
11,12,6,10,9,9,10,10,11,12,12,10,11,26,10,10,10,13,11,11,12,12,10,10,12,0,0,0,0,0,10,0,0,0,0,0,2,0,0,16,0,1,0,31,0,0,2,0,0,0,0,0,0,0,0,0,0,1,0,0,0,5,9,8,
9,7,6,7,12,10,12,13,13,13,11,10,11,10,11,12,12,11,11,13,10,12,11,13,9,0,0,0,0,0,11,0,0,0,0,0,0,0,1,12,0,2,0,0,0,1,0,0,0,0,0,0,0,0,0,0,0,0,0,0,0,2,7,7,
7,5,9,10,10,10,12,12,13,12,14,12,10,10,10,11,12,8,10,11,12,11,10,12,10,0,0,0,0,0,9,0,0,0,0,0,0,0,0,8,0,0,0,0,0,1,0,0,0,0,0,0,0,0,0,0,0,0,0,0,0,1,8,7,
7,11,5,5,10,16,13,12,12,12,17,14,11,12,11,10,12,10,11,10,10,10,10,11,5,0,0,0,0,4,11,0,0,0,0,0,0,0,0,8,0,1,0,0,0,0,0,0,0,0,0,0,0,0,0,0,0,0,0,0,0,1,6,6,
8,10,9,9,8,8,12,9,10,16,13,13,12,13,10,10,12,10,10,10,12,10,10,8,8,0,0,0,0,0,13,0,0,0,0,0,0,0,0,0,0,1,0,0,37,1,0,0,0,1,0,0,0,0,0,0,0,0,0,0,0,1,7,8,
8,11,8,3,10,13,15,13,12,13,13,14,13,11,10,10,10,11,12,10,10,11,11,11,8,0,0,0,0,3,10,0,0,0,0,0,0,0,0,0,0,1,0,0,0,1,0,1,0,0,0,0,0,0,0,0,0,0,0,0,0,3,4,8,
8,3,10,9,12,11,11,10,12,14,13,13,11,10,12,14,12,12,12,12,12,14,10,10,10,0,0,0,0,0,11,0,0,0,0,0,1,0,0,0,0,0,1,1,0,0,10,0,0,1,0,0,3,0,0,0,0,0,0,0,0,4,12,8,
7,7,0,8,7,10,10,11,16,13,14,12,12,16,12,10,10,10,11,11,10,12,11,10,12,0,0,0,0,0,11,0,0,0,0,0,3,0,0,15,0,0,0,0,0,1,0,1,0,0,0,0,0,0,0,0,0,0,0,0,0,2,5,7,
10,10,9,2,10,12,12,13,12,12,12,12,10,10,11,10,11,8,10,9,10,10,9,14,10,0,0,0,0,5,9,0,0,0,0,0,0,0,0,12,0,0,0,0,1,0,0,1,0,0,0,0,0,0,0,0,0,0,0,0,0,2,9,13,
7,8,1,4,7,10,12,10,13,14,12,11,12,10,10,10,10,10,8,13,10,11,12,11,12,0,0,0,0,4,10,0,0,0,0,0,1,0,0,8,3,0,0,0,0,1,0,0,0,0,0,0,0,0,0,2,0,0,0,0,0,5,13,11,
10,5,2,6,7,14,16,12,13,14,14,14,15,12,11,10,10,11,12,8,12,9,9,10,10,0,0,0,0,3,10,0,0,0,0,0,0,0,0,5,0,0,0,0,0,1,0,0,0,0,0,0,2,0,0,0,0,0,0,0,0,8,12,13,
12,10,11,8,10,10,11,10,12,10,9,11,9,10,10,10,8,9,10,10,8,11,12,12,10,0,0,0,0,0,14,0,0,0,0,0,0,0,0,11,0,0,0,0,1,0,0,0,0,0,0,0,2,0,0,0,0,0,0,0,0,2,7,7,
7,10,7,8,7,9,9,12,10,11,10,12,12,11,8,12,10,9,10,12,12,11,9,9,8,0,0,0,0,0,10,0,0,0,0,0,0,0,7,0,0,0,0,0,1,0,0,0,3,10,0,8,4,2,0,0,0,0,0,0,0,1,5,9,
