1,7,4,5,2,12,47,12,19,20,18,19,21,19,20,21,18,19,22,20,20,19,19,19,0,0,0,17,0,30,1,0,0,0,18,0,0,12,0,48,2,0,7,0,0,2,0,1,0,0,0,0,0,0,0,0,0,0,0,0,7,2,10,8,
2,3,3,2,8,13,21,12,21,20,46,23,22,20,21,22,21,19,18,21,20,21,21,19,0,0,0,16,1,33,0,0,0,0,0,0,14,0,0,1,0,0,0,1,1,0,0,0,0,0,0,0,0,0,0,0,0,0,0,0,2,3,8,7,
9,1,7,5,12,11,13,48,19,19,19,21,22,44,19,21,19,17,20,17,19,21,19,18,0,0,0,17,1,28,0,0,0,20,0,0,0,0,16,4,48,1,1,0,0,0,0,0,0,0,0,0,0,0,0,0,0,0,0,0,0,4,8,0,
6,3,1,1,8,13,9,13,21,19,48,19,20,21,20,20,23,22,21,19,19,22,18,20,0,0,0,12,0,27,1,0,0,0,20,0,30,0,48,3,0,1,2,0,0,0,0,0,0,0,0,0,0,0,0,0,0,0,0,0,1,4,7,5,
1,12,13,6,2,7,14,14,42,20,22,22,21,23,21,21,21,23,19,19,19,19,19,20,0,0,0,14,3,33,0,0,0,14,0,0,27,0,1,0,6,48,8,2,0,0,0,0,0,0,0,26,0,0,0,0,0,0,0,0,1,4,7,9,
0,3,7,7,9,9,48,12,21,20,22,23,21,21,21,23,23,23,19,19,19,20,22,18,16,0,0,19,0,17,0,0,8,1,0,23,1,0,3,1,6,48,0,37,0,0,0,0,0,0,0,0,0,0,0,0,0,0,0,0,1,6,8,4,
0,9,0,4,12,9,14,13,22,48,21,21,20,21,22,25,20,21,21,20,19,19,20,20,15,0,0,18,2,18,0,0,0,0,0,21,0,12,10,1,48,0,4,5,0,0,0,0,0,0,0,0,0,0,0,0,0,0,0,0,0,5,13,4,
7,1,6,6,8,37,14,12,23,21,48,21,20,19,19,16,18,19,17,17,16,19,19,16,12,0,0,16,0,0,1,34,0,0,0,0,19,23,0,2,0,2,4,0,5,0,0,0,0,0,0,0,0,0,0,0,0,0,0,0,0,5,5,5,
5,1,8,5,5,10,12,26,21,21,21,21,17,20,18,21,22,17,19,14,16,17,11,16,0,0,0,17,0,26,0,0,0,0,0,0,0,17,1,10,0,0,48,0,0,0,0,8,0,0,1,0,0,0,0,0,0,0,0,0,1,2,7,0,
5,8,7,7,6,2,11,11,48,21,20,19,23,16,15,20,22,21,19,19,17,20,15,14,5,0,0,17,0,19,0,1,0,0,0,19,19,0,16,1,48,1,4,7,0,0,0,0,0,0,0,0,0,0,0,0,0,3,0,0,1,6,5,12,
5,5,9,1,10,14,12,14,12,12,45,21,20,16,25,21,21,22,17,17,16,19,21,11,0,0,0,18,0,6,0,0,0,0,16,0,25,10,0,1,2,0,0,4,1,0,0,0,0,0,0,0,0,0,0,0,0,0,0,0,0,4,11,4,
10,4,17,5,11,13,12,13,46,20,22,19,20,18,18,20,19,20,18,17,19,17,16,19,0,0,0,14,0,0,20,1,7,0,0,21,0,23,0,5,48,2,13,16,2,0,0,0,0,0,0,0,0,0,0,0,0,0,0,0,1,3,8,7,
11,1,6,10,10,42,6,11,18,21,48,19,20,21,21,20,21,17,18,14,20,20,17,12,0,0,0,11,1,30,0,0,0,14,0,0,19,14,0,1,13,1,1,0,1,0,0,0,0,0,0,0,0,0,0,0,0,0,0,0,3,5,3,3,
9,4,0,5,10,7,8,41,21,18,17,21,20,17,21,48,20,19,17,16,17,14,17,17,0,0,0,12,1,2,0,0,0,0,0,0,0,0,48,10,8,1,0,0,0,0,0,1,2,0,0,0,0,0,0,0,0,0,0,0,1,3,5,8,
4,1,1,7,11,11,12,12,45,19,23,19,21,19,20,14,16,19,16,19,18,21,18,13,0,0,0,14,0,1,23,0,0,13,0,0,0,0,0,2,10,48,0,0,0,0,0,0,0,0,0,0,0,0,0,0,0,0,0,0,3,5,10,5,
9,6,3,5,17,11,12,11,18,48,21,20,21,19,20,21,20,19,17,17,18,15,17,14,14,0,0,15,2,29,0,0,0,0,0,26,0,0,7,0,48,3,1,5,0,0,0,0,0,0,0,0,0,0,0,0,0,0,0,0,0,6,8,8,
3,5,5,6,10,32,14,14,20,23,20,47,19,19,19,20,19,18,17,17,17,17,20,16,13,0,0,16,0,32,0,0,0,0,21,0,0,12,0,3,3,9,0,48,4,0,1,0,0,0,0,0,0,0,0,0,0,0,0,0,1,6,12,3,
5,9,47,5,9,1,8,11,22,21,48,21,21,19,19,20,18,18,19,19,24,20,19,17,0,0,0,14,4,28,0,1,11,5,0,19,1,14,0,0,48,1,1,1,0,0,0,0,0,0,0,0,0,0,0,0,0,0,0,0,1,9,8,7,
5,6,3,6,10,12,25,13,22,23,21,21,23,21,20,22,21,20,18,18,17,20,21,16,0,0,0,14,1,26,0,0,0,0,0,15,22,48,10,0,1,3,1,0,48,0,0,0,0,0,0,0,0,0,0,0,0,0,0,0,1,3,9,4,
3,38,2,8,5,8,48,7,22,20,18,23,48,22,23,19,20,17,17,5,16,16,18,17,14,0,0,13,1,32,0,0,0,21,0,0,45,0,0,1,0,1,3,2,1,48,0,0,0,0,0,0,0,0,0,0,0,0,0,0,0,7,8,1,
7,3,6,2,28,8,5,10,47,20,21,20,19,19,20,20,20,19,18,17,18,17,17,17,0,0,0,9,3,32,0,3,18,0,18,0,0,23,0,1,9,3,1,48,0,0,0,0,0,0,0,0,0,0,0,0,0,0,0,0,1,4,9,8,
5,2,9,2,10,14,12,10,21,20,21,21,21,21,21,21,20,19,20,14,21,16,19,16,0,0,0,18,0,4,0,0,0,0,0,22,0,31,11,1,48,2,4,1,3,0,0,0,0,0,0,0,0,0,0,0,0,0,0,0,8,10,9,8,
3,6,1,1,13,14,47,10,21,20,18,21,22,23,17,16,17,19,17,19,15,17,14,16,14,0,0,12,0,33,2,0,0,34,0,0,0,48,20,2,0,1,0,6,0,0,0,0,0,0,0,0,0,0,0,0,0,0,0,0,1,6,7,11,
3,7,7,2,7,10,13,11,35,22,22,21,22,22,21,21,21,19,19,18,18,18,20,16,17,0,0,12,2,23,0,0,16,0,17,1,0,11,0,0,48,2,2,0,0,1,0,1,0,0,0,0,0,0,0,0,0,0,0,0,1,5,9,8,
7,6,5,9,9,11,46,12,11,21,21,44,21,21,23,19,19,18,17,19,19,19,19,15,0,0,0,17,1,0,0,25,0,0,26,0,25,0,0,47,11,0,5,0,1,0,1,0,0,0,0,0,0,0,0,0,0,0,0,0,1,4,10,10,
4,5,1,7,8,6,3,18,20,22,22,48,19,20,21,19,18,20,16,19,21,22,17,19,0,0,0,13,0,0,0,0,0,0,0,17,0,10,7,3,0,1,7,4,5,0,0,0,0,0,0,0,0,0,0,0,0,0,0,0,1,8,7,8,
3,1,8,1,7,8,7,9,18,21,19,20,21,20,46,17,19,20,19,19,17,17,18,17,0,0,0,10,3,30,1,1,0,0,0,0,46,9,12,0,0,2,2,48,8,0,0,0,0,0,0,0,0,0,0,0,0,0,0,0,3,3,5,13,
1,3,1,5,9,13,12,35,23,20,19,21,18,19,17,19,21,19,19,16,18,17,17,14,0,0,0,19,3,18,0,0,0,0,23,0,32,0,0,0,0,48,3,1,0,0,0,0,0,0,0,0,0,0,0,0,0,0,0,0,2,4,8,0,
6,3,7,4,32,13,13,12,12,48,18,20,19,22,19,20,19,20,21,21,16,17,18,18,14,0,0,16,1,0,0,19,0,0,0,0,0,20,17,48,0,0,0,6,6,0,0,0,0,0,0,0,0,0,0,0,0,0,0,0,2,5,10,8,
9,10,9,12,2,14,14,32,19,21,19,21,19,20,19,19,19,19,17,16,19,17,16,19,12,0,0,14,0,35,0,1,0,0,0,0,26,32,11,0,0,0,48,7,0,0,0,0,0,0,0,0,0,0,0,0,0,0,0,0,1,1,5,11,
2,10,9,8,8,48,12,9,28,21,23,19,19,19,19,21,18,17,19,18,17,17,17,17,0,0,0,17,0,1,21,0,0,0,0,0,0,21,0,2,0,0,3,0,0,0,0,0,0,0,0,0,0,0,0,0,0,0,0,0,1,6,7,9,
3,7,2,8,3,5,10,20,19,17,15,18,19,48,17,16,16,16,15,16,17,19,17,12,0,0,0,12,1,21,0,0,20,0,18,0,9,0,48,6,5,2,3,1,2,1,0,0,1,0,0,0,0,0,0,0,0,0,0,0,2,4,8,0,
3,13,1,7,7,12,11,11,46,16,17,19,19,16,14,19,16,15,15,18,14,14,19,14,0,0,0,19,0,0,11,6,1,0,17,0,0,0,17,11,1,48,0,12,0,0,3,0,0,0,0,0,0,0,0,0,0,0,0,0,5,8,6,9,
6,3,2,7,8,23,8,12,19,16,11,18,12,9,18,19,16,17,18,17,16,17,18,16,0,0,13,10,0,4,1,0,14,0,0,0,17,22,0,0,48,6,0,0,1,0,0,0,0,0,0,0,0,0,0,0,9,0,0,1,1,5,12,10,
8,2,3,2,11,11,38,7,15,19,16,17,21,16,17,13,10,4,18,7,13,17,11,13,0,0,0,13,0,0,23,0,0,0,0,21,47,0,8,1,0,8,10,2,0,1,0,1,0,0,0,48,0,0,0,0,0,0,0,0,4,8,9,10,
3,4,2,1,48,9,6,9,19,17,17,16,15,15,15,17,17,11,14,16,17,7,17,17,0,0,0,16,2,0,0,24,0,0,13,1,0,0,0,46,10,2,0,1,0,0,0,42,0,0,0,0,0,0,0,0,0,0,0,0,1,1,10,13,
5,42,1,3,8,12,13,12,17,16,16,48,16,16,16,17,16,16,16,17,16,17,17,14,0,0,0,15,1,0,14,0,0,0,14,0,0,0,0,14,13,2,0,1,0,0,0,0,0,0,0,0,0,0,0,0,0,0,0,0,0,3,8,9,
7,3,4,3,8,8,15,10,28,16,15,15,15,15,16,14,16,15,16,14,16,18,15,18,0,0,0,15,2,0,0,0,0,0,0,0,0,21,3,1,0,48,6,5,0,0,0,0,0,0,0,0,0,0,0,0,0,0,0,0,7,3,6,10,
2,3,2,7,43,10,21,9,18,44,14,17,16,16,14,14,14,13,16,15,16,16,15,16,0,0,0,16,0,0,0,0,21,0,0,0,0,13,0,48,0,1,1,0,1,0,0,0,0,0,0,0,0,0,0,0,0,0,0,0,1,2,10,11,
6,6,2,3,10,14,9,44,20,15,15,16,15,16,16,16,15,15,17,16,17,16,17,16,0,0,0,14,0,30,0,0,0,18,0,0,0,0,11,15,0,9,48,1,0,0,0,0,0,0,0,0,0,0,0,0,0,0,0,0,1,6,10,5,
7,8,5,23,12,10,12,11,46,15,14,14,16,15,16,14,16,14,13,15,15,16,17,16,0,0,0,20,0,19,16,0,0,0,20,0,0,0,0,0,0,48,0,0,0,0,0,0,0,0,0,0,0,0,0,0,0,0,0,0,0,4,5,1,
7,6,3,4,26,10,11,10,15,48,14,19,13,15,19,14,15,13,16,16,17,14,16,14,0,0,0,14,1,1,0,3,0,0,16,0,0,20,0,48,6,3,1,0,0,0,0,0,0,0,0,0,0,0,0,0,0,0,0,0,2,6,9,8,
3,7,8,9,9,5,11,42,19,14,15,15,17,16,48,17,14,16,17,16,16,14,17,14,0,0,0,16,3,0,0,0,6,0,0,0,17,0,0,48,7,4,0,2,3,0,0,0,0,0,0,0,0,0,0,0,0,0,0,0,1,7,7,10,
10,7,3,2,5,7,12,46,17,15,15,15,14,48,17,15,16,19,14,17,16,15,15,17,0,0,0,19,2,18,0,0,0,0,0,16,0,0,0,48,0,0,2,1,5,0,0,0,0,0,0,0,0,0,0,0,0,0,0,0,1,5,9,12,
3,5,1,8,8,10,11,14,17,15,14,48,14,15,14,16,17,15,13,16,11,19,14,17,13,0,0,12,2,27,1,0,0,0,0,20,0,48,0,1,9,3,0,3,0,0,0,0,0,0,0,0,0,0,0,0,0,0,0,0,1,4,6,9,
1,4,1,7,8,11,14,13,41,14,14,13,14,16,15,17,16,16,17,14,14,15,17,16,0,0,0,16,0,0,0,0,0,0,0,0,0,0,0,13,48,0,3,0,0,0,0,0,0,0,0,0,0,0,0,0,0,0,0,0,0,8,4,12,
3,11,3,4,3,12,23,8,19,48,16,15,17,15,16,16,17,16,17,15,17,15,14,15,0,0,0,16,0,1,0,14,0,0,0,0,16,0,44,1,0,2,8,11,0,0,0,0,0,0,0,0,0,0,0,0,0,0,0,0,5,10,5,12,
6,7,1,7,10,14,12,11,39,19,14,16,16,15,16,14,15,16,16,13,16,15,17,14,0,0,0,15,1,36,0,6,0,0,1,0,0,17,1,14,7,0,1,2,0,0,0,0,0,0,0,0,0,0,0,0,0,0,0,0,0,4,10,6,
1,3,1,5,18,9,13,12,16,48,16,14,14,14,15,16,15,14,17,11,16,15,18,17,0,0,0,14,0,0,34,0,0,0,0,0,8,0,0,47,1,0,4,1,0,0,0,0,0,0,0,0,0,0,0,0,0,0,0,0,3,3,7,8,
7,1,8,8,8,11,11,39,16,17,15,16,17,13,15,15,16,17,14,15,15,15,13,13,10,0,0,16,0,1,18,0,0,18,0,0,19,0,15,0,0,48,8,0,10,1,0,1,0,0,0,0,0,0,0,0,0,0,0,0,2,2,10,1,
