0,45,8,3,13,8,5,11,17,19,47,20,18,18,19,22,17,17,19,17,18,17,19,16,0,0,0,11,1,1,0,0,0,22,0,0,18,47,0,7,2,47,3,0,0,0,0,0,0,0,0,0,0,0,0,0,0,0,0,0,1,6,6,7,
12,6,2,5,5,6,18,46,18,19,18,19,19,19,17,18,17,21,21,19,19,19,19,16,12,0,0,15,0,8,0,7,0,0,0,14,0,0,10,9,1,7,48,2,0,0,0,0,0,0,0,0,0,0,0,0,0,0,0,1,1,5,11,4,
8,8,3,5,10,11,12,16,18,19,20,48,20,20,18,19,19,18,19,19,19,17,20,15,0,0,0,15,0,0,30,1,0,0,17,0,28,7,48,0,3,0,7,1,0,0,0,0,0,0,0,0,0,0,0,0,0,0,0,0,1,12,3,12,
1,4,0,12,5,12,14,14,44,19,18,19,21,19,19,21,18,17,19,17,17,16,16,13,0,0,0,16,0,0,35,5,0,0,15,0,0,0,0,1,10,48,1,0,0,0,0,0,0,0,0,0,0,0,0,0,0,0,0,1,1,8,7,11,
5,14,4,10,12,13,33,14,19,17,18,19,18,18,20,46,19,19,18,17,19,19,20,16,0,0,0,12,0,5,0,0,0,12,0,0,0,0,1,48,0,3,1,2,0,0,0,0,0,0,0,0,0,0,0,0,0,0,0,0,0,13,5,7,
9,2,0,5,8,6,14,48,19,19,19,19,19,19,20,20,19,16,18,16,19,20,19,13,0,0,0,14,0,3,0,20,0,0,0,11,0,1,3,0,15,48,3,5,0,0,0,0,0,0,0,0,0,0,0,0,0,0,0,3,1,2,13,9,
10,10,0,7,6,41,8,16,17,21,19,20,48,19,19,20,19,19,17,19,18,18,20,20,0,0,0,14,1,0,2,0,0,0,21,0,0,0,48,6,8,8,1,0,0,27,0,0,0,0,0,0,0,0,0,0,0,0,0,0,2,5,7,10,
7,0,0,8,9,8,7,11,17,17,19,19,18,20,19,19,48,18,17,19,17,17,18,17,0,0,0,14,0,3,0,14,0,0,48,0,0,2,14,0,0,1,1,3,10,0,0,0,0,0,48,0,0,0,0,0,0,0,0,0,4,11,11,9,
6,0,7,46,6,8,12,12,19,47,18,19,19,18,19,19,18,19,19,17,18,19,18,19,0,0,0,16,0,7,0,7,0,0,0,0,10,1,0,18,3,48,7,2,4,1,1,0,0,0,0,0,0,0,0,0,0,0,0,0,3,11,0,10,
7,5,4,5,13,13,10,13,17,18,48,19,18,20,20,19,17,18,16,17,19,19,18,17,0,0,0,15,0,4,0,17,0,29,0,12,0,0,48,1,1,10,4,3,1,0,0,0,0,0,0,0,0,0,0,0,0,0,0,0,4,5,9,11,
8,8,1,12,9,9,9,14,46,18,19,18,17,20,19,18,17,17,17,18,19,18,17,17,0,0,0,15,0,35,0,1,0,0,0,0,0,1,15,0,2,3,48,7,0,0,0,0,0,0,0,0,0,0,0,0,0,0,0,1,8,2,9,9,
11,7,21,13,12,13,15,16,19,48,19,17,19,17,20,18,19,19,17,19,19,20,19,18,0,0,0,14,0,7,12,0,0,0,14,0,0,0,0,48,0,10,5,3,0,0,0,1,0,0,0,0,0,0,0,0,0,0,0,1,4,5,12,10,
9,11,2,5,6,11,32,15,18,17,19,19,18,18,48,20,18,19,19,19,18,19,16,16,0,0,0,14,1,36,3,0,0,0,0,0,25,48,11,1,0,7,0,1,7,0,0,0,0,0,0,0,0,0,0,0,0,0,0,1,2,10,10,8,
11,1,7,5,12,12,8,17,37,19,19,21,19,19,19,21,19,21,17,22,17,19,18,16,0,0,0,14,0,4,0,14,0,0,0,16,27,0,15,19,48,0,1,3,0,0,0,1,0,0,0,0,0,0,0,0,0,0,0,0,2,3,5,12,
8,11,0,11,7,12,44,17,17,18,17,21,47,21,18,17,17,18,18,17,19,20,19,17,0,0,0,13,0,0,0,0,0,0,0,0,1,0,0,48,3,3,3,7,0,5,0,0,0,0,0,0,0,0,0,0,0,0,0,0,3,5,3,9,
1,7,4,8,12,3,35,16,15,18,19,17,18,48,20,19,19,19,19,18,18,21,20,17,0,0,0,14,0,33,0,0,0,0,0,0,48,7,1,0,2,6,10,1,3,0,0,0,0,0,0,0,0,0,0,0,0,0,0,0,7,3,12,14,
10,7,11,3,10,10,14,15,18,19,20,19,19,20,18,20,48,19,19,19,19,21,19,14,0,0,0,15,0,3,0,0,0,0,0,10,0,0,2,15,48,1,2,0,0,0,0,0,0,0,0,0,0,0,0,0,0,0,0,0,1,5,13,13,
5,2,2,6,8,14,12,14,19,19,19,18,19,21,19,19,19,19,19,19,20,17,17,17,0,0,0,16,1,0,2,0,0,0,0,16,0,30,48,0,1,3,0,0,2,0,0,0,0,0,0,0,0,0,0,0,0,0,0,0,2,8,3,12,
7,12,11,2,10,11,8,13,41,22,19,18,19,19,18,19,21,18,19,18,20,19,19,18,0,0,0,14,0,34,4,0,0,15,0,0,24,0,6,3,10,48,3,1,0,0,2,0,0,0,0,0,0,0,0,0,0,0,0,0,3,10,1,12,
14,7,11,10,10,8,12,13,44,18,19,20,18,18,18,21,19,21,17,18,18,19,20,15,0,0,0,13,0,0,0,0,0,0,10,0,0,22,0,6,1,0,48,0,0,0,0,0,0,0,0,0,0,0,0,0,0,0,0,0,1,17,13,12,
0,8,46,1,1,11,12,20,17,18,20,19,18,18,17,18,20,19,18,19,19,18,17,16,0,0,0,11,0,0,11,0,0,2,0,0,0,15,1,48,2,1,0,5,2,1,0,3,0,0,0,0,0,0,0,0,0,0,0,0,1,9,5,10,
8,3,2,9,12,13,12,14,13,19,21,18,48,19,19,19,17,19,19,16,18,19,18,17,0,0,0,15,1,17,0,0,0,0,0,47,25,14,0,0,0,1,2,7,1,0,0,0,0,0,0,0,0,0,0,0,0,0,0,0,3,4,5,11,
11,48,4,3,12,10,9,29,19,19,19,48,19,18,19,19,19,20,15,18,19,19,17,16,0,0,0,18,0,25,0,0,1,0,0,33,0,0,1,0,2,48,8,0,0,0,0,1,0,0,0,0,0,0,0,0,0,0,0,0,3,0,9,11,
12,8,0,5,3,47,14,12,17,18,21,48,19,20,18,18,19,19,17,17,16,18,19,17,0,0,0,16,0,2,0,18,0,0,1,0,13,48,0,7,0,0,0,2,0,0,1,0,0,0,0,0,0,0,0,0,0,0,0,0,1,7,8,4,
1,4,7,3,10,12,13,12,38,19,19,19,17,18,19,16,19,20,18,17,20,19,21,19,0,0,0,17,0,0,0,0,0,18,0,0,9,0,1,1,2,48,4,0,1,0,1,0,0,0,0,0,0,0,0,0,0,0,0,0,4,10,13,12,
9,1,2,1,10,13,7,13,20,21,19,19,19,18,17,19,18,21,19,18,17,21,18,16,0,0,0,14,0,0,0,14,0,0,0,15,48,0,0,0,0,0,3,0,0,0,0,0,0,0,0,0,0,0,0,0,0,0,0,0,0,5,9,4,
16,7,0,12,11,14,9,14,13,44,18,14,21,19,18,19,19,17,18,19,16,17,19,17,0,0,0,11,0,0,22,0,1,0,0,14,0,28,0,48,8,1,1,0,5,0,0,0,0,0,0,0,0,0,0,0,0,0,0,0,3,6,11,12,
7,8,10,2,7,8,10,44,17,19,19,19,20,17,20,20,20,19,17,20,20,21,19,17,0,0,0,15,0,0,33,3,0,18,0,19,0,1,10,0,5,3,2,48,0,0,0,0,0,0,0,0,0,0,0,0,0,0,0,0,1,13,1,10,
10,45,4,9,11,10,10,14,39,19,19,21,43,19,19,21,19,19,17,19,20,19,19,16,0,0,0,16,2,28,0,0,0,13,0,0,0,25,0,4,48,0,1,5,4,1,0,0,0,0,0,0,0,0,0,0,0,0,0,1,4,5,13,7,
5,8,2,5,3,14,42,14,19,20,19,19,20,18,48,19,18,18,17,21,22,17,19,20,0,0,0,12,1,28,12,0,0,0,18,48,2,11,11,0,3,1,2,0,0,0,0,0,0,0,0,0,0,0,0,0,0,0,0,0,1,3,8,11,
6,6,3,4,10,6,11,10,17,19,19,18,19,24,18,20,19,19,20,19,19,19,18,18,0,0,0,18,0,0,0,0,18,0,0,19,0,1,2,3,2,15,1,4,1,0,0,0,0,0,0,0,0,0,0,0,0,0,0,0,1,7,12,11,
7,6,0,8,21,15,7,48,19,20,18,18,17,18,19,18,21,20,17,19,18,20,18,19,0,0,0,14,0,0,2,0,0,0,21,0,0,30,10,3,0,0,7,48,1,3,0,0,0,0,0,0,0,0,0,0,0,0,0,0,2,6,7,10,
4,44,9,5,12,10,12,7,19,48,21,21,19,17,17,18,18,19,18,19,21,18,19,16,14,0,0,17,0,35,19,0,1,0,17,0,0,19,0,48,0,0,4,0,0,1,0,0,0,0,0,0,0,0,0,0,0,0,0,0,1,5,5,11,
7,10,0,9,12,9,42,14,14,18,19,47,17,17,19,20,19,19,16,19,18,19,18,17,0,0,0,17,0,26,0,0,0,0,16,0,14,0,16,4,48,7,0,8,6,0,0,0,0,0,0,0,0,0,0,0,0,0,0,0,3,8,10,12,
8,7,3,13,7,8,11,48,15,18,18,16,18,18,19,20,20,18,17,19,18,19,19,17,0,0,0,19,0,0,0,3,0,0,0,36,0,0,1,0,3,5,48,0,0,0,0,0,0,0,0,0,0,0,0,0,0,0,0,0,1,1,8,7,
13,3,42,10,16,11,12,13,18,18,48,19,18,19,18,19,18,19,19,18,15,19,19,17,0,0,0,17,0,31,1,0,0,0,0,0,0,15,48,0,1,1,4,0,7,43,1,0,0,0,0,0,0,0,0,0,0,0,0,0,12,10,4,12,
5,7,10,4,12,10,14,48,17,17,20,17,18,17,19,42,17,17,16,17,17,17,19,14,0,0,0,12,0,0,19,1,0,0,0,17,47,18,8,3,1,4,10,1,0,0,0,0,0,0,0,0,0,0,0,0,0,0,0,0,1,4,9,11,
2,7,47,10,7,10,13,10,23,17,18,19,20,48,19,20,18,18,17,17,18,21,17,17,0,0,0,16,0,0,0,11,0,0,0,12,0,21,3,48,0,0,1,3,13,0,0,0,0,0,0,0,0,0,0,0,0,0,0,1,0,7,0,5,
1,10,3,5,1,13,14,14,12,18,48,17,17,19,20,20,17,18,18,21,19,20,16,15,0,0,0,10,3,0,1,23,0,1,0,0,21,0,0,48,0,5,0,0,0,0,0,0,0,0,0,0,0,0,0,0,0,0,0,1,0,7,7,6,
8,5,12,2,6,5,14,36,17,19,18,19,19,48,19,17,19,19,16,17,18,20,19,16,16,0,0,16,0,3,0,0,14,0,0,2,0,24,5,48,18,0,3,4,0,0,0,0,0,0,0,0,0,0,0,0,0,0,0,0,0,9,0,7,
3,9,2,7,5,7,14,12,16,18,18,16,16,48,18,17,19,19,17,20,20,17,17,18,14,0,0,11,0,6,0,0,0,47,0,0,20,0,8,11,9,0,5,0,1,2,5,0,0,0,0,0,0,0,0,0,0,0,0,0,1,8,6,4,
5,2,10,3,13,12,12,14,14,17,29,20,17,17,19,17,18,19,17,19,17,19,18,17,0,0,0,14,0,30,1,0,0,0,18,0,0,15,0,48,0,2,3,7,0,0,0,0,0,0,0,0,0,0,0,0,0,0,0,0,10,4,11,11,
5,10,1,10,10,12,16,47,13,19,17,17,17,17,18,47,21,17,18,17,17,17,17,16,0,0,0,14,0,0,0,21,0,0,0,17,25,48,0,0,0,1,0,3,0,0,0,0,0,0,0,0,0,0,0,0,0,0,0,0,1,6,7,12,
5,3,5,2,3,11,12,11,44,18,17,18,18,17,17,18,18,17,16,19,18,17,19,17,0,0,0,20,2,19,0,0,0,0,18,0,17,0,16,1,2,0,6,0,1,0,0,0,2,0,0,0,0,0,0,0,0,0,0,0,2,5,13,8,
1,8,1,2,38,10,10,11,18,19,19,46,19,18,20,18,16,18,16,17,16,18,23,16,0,0,0,17,0,32,0,0,0,0,17,0,22,0,48,0,0,5,3,1,2,0,0,0,0,0,0,0,3,0,0,0,0,0,0,0,10,5,8,5,
6,8,0,5,11,12,9,26,17,18,18,19,19,19,18,17,19,17,16,17,19,18,17,44,0,0,0,15,0,32,1,2,0,0,17,0,1,16,0,1,48,0,2,1,10,0,0,0,0,0,0,0,0,3,0,0,0,0,0,0,0,6,3,13,
10,7,6,10,10,18,13,10,16,18,18,48,17,19,21,19,18,19,16,18,17,17,18,18,0,0,0,12,0,33,0,1,0,0,0,15,0,48,25,12,1,1,2,1,0,0,0,0,0,0,0,0,0,0,3,0,0,0,0,0,1,4,6,8,
10,5,8,9,9,10,11,14,18,18,19,16,15,19,21,20,19,17,19,19,22,18,19,16,0,0,0,15,0,3,0,0,18,0,0,0,0,0,12,2,2,5,0,5,0,0,0,0,0,0,0,0,0,0,0,3,0,0,0,0,8,6,11,3,
11,0,5,8,9,12,45,12,17,18,19,19,20,20,19,19,20,21,17,17,19,18,17,19,0,0,0,13,0,23,0,0,0,0,0,21,0,27,48,1,1,0,3,0,0,0,0,0,0,0,0,0,0,0,0,0,3,0,0,0,1,6,5,5,
4,1,3,3,9,12,11,36,19,21,21,15,18,21,19,19,19,19,17,22,21,21,19,17,0,0,0,14,0,2,0,0,0,0,0,0,0,0,0,15,11,0,1,48,0,0,0,0,0,0,0,0,0,0,0,0,0,1,0,1,1,7,10,10,
