8,8,7,21,15,11,15,14,15,22,48,22,23,22,22,20,21,22,21,22,21,21,20,21,18,0,0,13,0,0,2,25,28,0,0,13,0,1,1,3,15,12,2,1,0,0,0,0,0,0,0,0,0,0,0,0,0,0,0,0,4,5,10,5,
6,10,0,8,13,15,14,28,22,21,21,22,25,48,22,25,19,21,21,21,23,21,21,20,0,0,0,15,0,0,1,19,0,0,2,0,7,16,2,1,48,8,2,1,0,1,0,2,0,0,0,0,0,0,0,0,0,0,0,0,4,7,8,8,
8,6,8,9,14,16,13,14,19,20,21,21,23,22,48,21,23,21,20,20,25,20,22,21,0,0,0,12,0,0,0,0,3,0,0,0,19,48,17,4,10,8,1,5,1,2,0,0,0,0,0,0,0,0,0,0,0,0,0,0,4,4,4,7,
12,6,5,12,14,17,14,12,29,20,22,21,23,21,23,23,22,22,22,21,19,20,21,20,18,0,0,15,0,35,0,0,0,0,0,21,19,0,11,0,5,0,48,10,0,0,1,0,0,0,0,0,0,0,0,0,0,0,0,0,4,2,5,5,
8,8,23,5,11,12,16,15,20,48,21,21,22,23,21,20,24,21,21,21,21,23,24,21,0,0,0,12,0,35,0,0,0,0,0,30,0,19,0,4,1,8,6,2,0,1,0,1,0,0,0,0,0,0,0,0,0,0,0,0,8,3,9,6,
4,10,8,4,14,39,14,14,19,26,24,24,48,23,23,25,21,24,22,23,23,21,23,21,0,0,0,15,0,0,0,0,1,0,0,0,0,26,48,0,12,1,8,0,7,0,0,0,0,0,0,0,0,0,0,0,0,0,0,0,7,3,2,8,
11,0,7,9,13,12,14,14,13,24,22,48,23,23,23,22,22,21,24,22,22,22,24,20,0,0,0,8,1,32,0,2,0,0,0,19,0,22,12,4,48,0,2,8,0,0,0,0,0,0,0,0,0,0,0,0,0,0,0,0,5,4,8,2,
8,2,6,6,12,15,48,14,21,23,23,25,23,23,23,24,25,26,26,22,22,22,23,23,0,0,0,17,0,29,0,3,0,1,0,21,0,25,15,2,0,10,0,0,48,1,0,2,0,0,0,0,0,0,0,0,0,0,0,0,4,4,3,14,
6,47,4,5,16,14,13,16,23,23,48,24,24,22,24,26,23,23,24,24,23,20,22,20,0,0,0,15,0,1,0,0,0,2,0,0,0,0,17,48,3,7,3,0,0,1,0,1,0,0,0,0,0,0,0,0,0,0,0,0,6,5,8,9,
6,7,3,4,11,14,16,48,19,21,22,22,22,23,23,23,22,25,22,21,23,21,18,20,0,0,0,13,0,4,0,0,33,0,0,0,23,3,12,0,0,3,48,3,0,0,0,0,0,0,0,0,0,0,0,0,0,0,0,0,3,5,8,12,
19,11,14,26,14,13,15,12,19,48,22,22,24,21,23,22,21,23,23,21,21,24,22,21,0,0,0,13,0,31,3,0,3,0,0,24,0,1,18,0,8,0,2,0,0,1,0,0,0,0,0,0,0,0,0,0,0,0,0,0,5,10,5,13,
8,10,3,10,13,14,16,13,20,23,23,22,24,22,24,23,22,23,21,23,20,21,23,22,0,0,0,15,0,0,3,22,0,0,0,0,0,6,0,0,0,6,8,48,0,3,0,0,0,0,0,0,0,0,0,0,0,0,0,0,2,9,3,14,
24,5,14,10,15,12,16,13,48,22,25,23,22,24,23,23,21,23,21,21,22,22,21,20,0,0,0,10,0,31,2,0,0,0,0,27,0,0,0,2,6,48,1,1,0,0,0,0,0,0,0,0,0,0,0,0,0,0,0,0,4,5,4,6,
2,12,2,4,29,12,16,15,20,22,22,48,22,25,24,22,23,21,21,23,21,22,23,20,17,0,0,12,0,0,5,28,0,0,1,0,0,0,2,48,0,8,3,0,0,6,0,0,0,0,0,0,0,0,0,0,0,0,0,0,3,5,4,8,
6,12,4,3,12,14,14,12,48,21,23,23,23,24,23,23,24,22,19,22,19,22,21,21,0,0,0,14,1,32,0,1,0,0,0,0,28,0,4,1,8,17,3,0,1,0,0,0,1,0,0,0,0,0,0,0,0,0,0,0,4,2,5,12,
5,9,3,7,14,13,17,12,23,23,23,24,27,22,23,47,23,24,21,23,23,23,21,21,15,0,0,12,1,0,0,22,0,2,0,0,22,14,47,5,2,3,1,0,0,0,0,0,0,0,0,0,0,0,0,0,0,0,0,0,3,7,4,12,
6,8,12,10,12,13,14,15,23,24,24,23,46,25,26,25,23,23,23,23,24,25,23,23,0,0,0,10,0,1,41,0,0,5,0,0,18,11,6,3,2,48,1,2,1,0,0,0,0,0,0,0,0,0,0,0,0,0,0,0,4,4,4,9,
12,8,3,6,14,15,12,15,23,23,24,25,48,25,23,25,25,23,22,23,24,23,22,23,0,0,0,11,2,21,1,0,0,8,0,24,0,17,48,3,1,8,2,0,6,0,0,0,0,0,0,0,1,0,0,0,0,0,0,0,7,8,12,8,
1,2,12,12,10,10,16,14,18,23,24,22,25,23,24,21,22,21,24,22,22,23,20,23,0,0,0,14,0,0,0,19,0,21,0,0,26,0,0,0,4,0,48,0,0,1,0,0,0,0,0,0,0,0,0,2,0,0,0,0,4,6,7,7,
13,10,4,12,30,14,12,12,23,23,24,48,23,23,23,22,23,23,22,23,25,22,22,22,16,0,0,17,1,36,7,0,23,0,0,22,0,3,48,16,7,3,0,2,0,0,0,0,0,0,0,0,0,0,0,0,0,0,0,0,4,7,3,11,
6,9,4,8,12,15,16,15,37,24,24,23,23,23,23,25,22,24,24,24,23,21,21,23,15,0,0,12,0,0,4,21,0,0,21,0,19,0,12,0,3,48,4,2,0,0,0,0,0,0,0,0,0,0,0,0,0,0,0,0,2,6,10,5,
4,7,8,3,12,14,47,15,24,23,24,23,22,21,22,23,23,22,20,23,23,25,22,21,15,0,0,14,1,36,1,0,0,0,32,0,46,12,1,1,0,5,0,1,0,48,0,0,0,0,0,0,0,0,0,0,0,0,0,0,5,7,9,34,
11,12,6,9,10,45,16,14,24,25,48,23,25,24,25,24,23,23,23,22,21,25,21,22,19,0,0,14,0,0,38,2,0,29,0,0,13,3,16,48,1,5,0,2,0,0,0,1,0,0,0,0,0,1,0,0,0,0,0,0,2,6,4,11,
14,10,7,4,13,17,17,47,24,24,24,26,25,22,23,23,24,22,23,25,22,25,25,23,0,0,0,16,0,0,4,25,0,0,23,0,21,1,19,0,9,7,7,0,0,0,0,0,0,0,0,0,0,1,0,0,0,0,0,0,4,4,10,9,
13,9,1,5,16,17,16,15,24,48,23,25,24,25,25,24,25,23,23,24,22,21,24,24,0,0,0,17,0,30,0,0,0,27,0,0,26,0,2,1,48,11,5,3,0,1,0,0,0,0,0,0,0,1,0,0,0,0,0,0,3,5,3,3,
3,11,5,8,8,13,17,47,22,23,25,25,26,26,27,23,23,25,23,23,25,24,23,22,0,0,0,15,0,0,13,0,0,0,0,0,20,18,0,0,6,13,48,1,8,0,0,0,0,0,0,0,0,1,0,0,0,0,0,0,3,6,5,14,
2,13,10,8,14,14,14,16,26,25,24,25,26,25,26,24,25,24,25,26,23,26,23,23,0,0,0,14,1,33,0,0,0,0,0,19,0,12,3,3,48,7,2,1,0,0,0,0,0,0,0,0,0,1,0,0,0,0,0,0,0,7,10,3,
10,4,3,5,12,17,16,14,23,25,23,24,48,25,23,25,24,25,24,22,24,23,24,21,0,0,0,13,1,30,0,0,27,0,0,20,0,48,11,5,3,11,0,0,0,0,1,0,0,0,0,0,0,1,0,0,0,0,0,0,3,5,11,14,
7,2,1,10,13,13,14,13,42,25,22,23,24,25,25,23,24,23,23,24,24,22,21,24,0,0,0,17,1,32,0,0,30,0,0,0,20,0,2,0,1,7,48,0,0,0,0,0,0,0,0,0,0,1,0,0,0,0,0,0,3,7,5,13,
12,11,4,12,46,11,15,14,23,26,23,48,23,25,26,24,25,25,22,23,21,23,22,24,0,0,0,13,1,34,1,0,0,0,19,0,0,43,0,0,7,11,0,0,0,2,0,0,0,0,0,0,0,1,0,0,0,0,0,0,4,14,3,14,
5,5,0,13,48,13,14,15,21,23,48,23,25,23,24,25,25,23,24,25,21,22,25,22,17,0,0,15,0,0,0,15,0,0,0,0,9,0,48,7,7,10,0,0,0,0,0,1,0,0,0,0,0,0,2,0,0,0,0,0,6,3,12,6,
12,12,3,5,12,17,15,14,34,25,25,24,23,23,23,46,24,23,22,22,26,24,23,20,0,0,0,15,0,33,0,2,0,0,0,0,39,0,7,48,0,0,11,2,0,1,0,0,0,0,0,0,0,0,1,0,0,0,0,0,6,8,13,14,
1,9,4,11,13,13,14,14,25,26,24,25,25,25,23,24,23,26,22,23,23,24,23,21,0,0,0,14,0,0,0,16,0,0,0,0,15,14,0,3,1,8,0,0,48,0,0,0,0,0,0,0,0,0,0,1,0,0,0,0,0,6,6,12,
2,2,13,3,15,16,16,18,23,48,23,26,23,24,25,26,25,23,23,25,26,23,24,21,0,0,0,11,0,32,0,2,0,0,22,0,0,0,29,48,3,5,1,5,0,0,0,0,0,0,0,0,0,0,0,0,1,0,0,0,3,5,7,15,
12,3,3,12,10,14,14,47,23,25,26,25,26,24,24,25,23,23,25,24,21,23,21,25,0,0,0,13,0,0,0,23,0,0,0,0,0,19,0,16,3,6,3,8,0,0,0,0,0,0,0,0,0,0,0,0,1,0,0,0,4,10,11,12,
16,4,9,12,13,13,13,16,23,23,23,25,24,24,24,26,23,23,24,25,23,25,23,22,0,0,0,14,0,0,0,15,0,1,0,17,0,32,1,0,7,5,0,1,0,0,0,0,1,0,0,0,0,0,0,0,0,1,0,0,4,10,5,7,
7,8,8,9,10,13,11,47,23,24,25,26,26,24,25,24,25,24,22,23,22,23,23,22,0,0,0,16,1,0,0,1,0,0,19,0,0,9,19,1,0,5,4,48,0,0,0,0,0,0,0,0,0,0,0,0,0,0,0,0,4,9,5,8,
7,8,5,7,8,16,14,12,48,22,24,23,25,25,25,25,25,25,23,23,23,23,25,21,0,0,0,12,1,31,0,1,0,0,21,0,0,0,4,2,12,48,4,2,0,0,0,0,0,0,0,0,0,0,0,0,0,0,0,0,7,5,9,15,
8,14,2,25,11,12,15,16,48,24,25,26,24,25,25,26,25,24,27,23,25,23,23,22,0,0,0,14,2,34,0,23,0,20,0,0,0,16,3,3,1,48,13,1,2,0,2,0,1,0,0,0,0,0,0,0,0,0,0,0,8,5,8,10,
15,3,10,10,12,15,16,14,21,23,24,48,26,26,25,24,25,25,23,23,23,22,25,22,0,0,0,10,1,0,3,0,0,0,0,32,0,10,48,5,5,5,0,0,0,0,0,0,0,0,0,0,0,0,0,0,0,0,0,0,3,5,5,6,
7,17,2,2,8,16,16,16,22,24,25,23,26,24,25,23,25,24,23,22,25,25,25,23,0,0,0,16,0,0,0,32,30,0,0,0,16,3,0,11,8,8,7,0,1,1,0,0,0,0,0,0,0,0,0,0,0,0,0,0,2,10,7,12,
0,14,41,12,11,12,17,12,23,23,48,24,26,25,26,24,26,25,23,25,25,21,21,21,19,0,0,13,0,0,0,13,26,0,0,0,20,3,0,48,7,10,3,0,0,1,0,0,0,0,0,0,0,0,0,0,0,0,0,0,3,7,16,14,
7,2,12,3,9,12,14,44,22,24,26,24,25,24,26,25,25,25,23,23,23,23,24,20,0,0,0,12,0,28,1,0,0,0,19,0,1,10,15,8,4,5,1,2,0,6,0,0,0,0,0,0,0,0,0,0,0,0,0,3,7,11,3,12,
11,12,43,7,10,16,18,14,22,26,48,28,24,24,25,23,26,25,23,23,24,23,24,20,0,0,0,12,0,0,0,26,0,0,0,18,0,48,0,4,5,40,0,0,0,0,0,0,2,0,0,0,0,0,0,0,0,0,0,0,5,8,11,14,
11,4,0,8,12,12,11,12,37,22,23,23,24,24,25,26,25,24,23,23,21,24,23,22,17,0,0,12,1,0,0,0,0,0,0,0,0,16,0,2,0,48,2,1,0,0,1,0,0,0,0,0,0,0,0,0,0,0,0,0,3,7,6,9,
10,9,3,10,40,13,15,15,23,24,24,48,23,26,26,25,23,24,22,22,21,23,23,23,0,0,0,12,1,35,1,0,1,0,0,23,0,3,27,48,4,4,1,0,5,0,0,0,0,0,0,0,0,0,0,0,0,0,0,0,4,5,5,10,
7,7,2,12,11,15,14,46,22,23,25,24,23,23,24,24,23,22,24,22,22,21,22,22,0,0,0,11,2,32,0,2,0,6,0,21,0,15,3,1,10,6,2,0,8,0,1,0,0,0,0,0,0,1,0,0,0,0,0,0,0,13,5,10,
6,47,5,9,12,14,15,15,23,25,47,24,23,24,23,25,22,22,23,21,22,22,21,21,3,0,0,10,0,34,0,0,0,0,0,29,0,0,0,48,0,3,2,3,1,0,0,0,1,0,0,0,0,0,2,0,0,0,0,0,3,8,8,7,
5,14,10,14,12,14,17,15,23,22,22,22,24,23,23,23,23,25,23,22,22,25,23,22,17,0,0,12,2,0,27,0,0,0,0,16,0,15,48,12,0,12,0,0,0,0,1,0,0,0,0,0,0,0,0,0,0,0,0,0,4,3,7,9,
10,11,5,3,10,12,16,18,45,23,22,25,24,24,23,24,25,23,24,24,21,25,24,21,16,0,0,13,0,33,2,0,3,0,17,0,1,0,0,6,1,3,48,0,0,1,0,0,0,0,0,0,0,0,0,0,0,0,0,0,3,3,8,3,
