0,12,0,0,0,35,0,0,14,0,39,0,0,0,0,0,0,0,0,0,0,0,0,0,0,0,0,0,0,0,0,1,1,0,1,0,4,4,9,8,5,7,17,5,4,5,0,0,0,0,0,0,0,0,0,0,0,0,0,0,0,0,17,0,
0,0,0,9,0,41,12,0,0,16,0,42,0,0,0,0,0,0,0,0,0,0,0,0,0,0,0,0,0,0,0,0,0,0,0,0,9,5,10,10,8,6,7,6,7,5,0,0,0,0,0,0,0,0,0,0,0,0,0,0,0,0,0,19,
0,0,0,0,0,13,0,0,41,16,0,6,0,0,0,0,0,0,0,0,0,0,0,0,0,0,0,0,0,0,0,0,3,2,0,2,3,8,5,11,9,8,6,12,10,1,0,0,0,0,0,0,0,0,0,0,0,0,0,0,0,0,27,0,
0,0,0,15,0,17,44,0,0,0,21,0,0,0,0,0,0,0,0,0,0,0,0,0,0,0,0,0,0,0,0,0,0,0,0,0,1,5,7,10,7,10,3,5,44,2,0,0,0,0,0,0,0,0,0,0,0,0,0,0,0,0,0,21,
0,0,0,0,0,24,40,44,0,12,0,0,25,0,0,0,0,0,0,0,0,0,0,0,0,0,0,0,0,0,0,1,3,0,2,0,1,6,3,8,5,7,20,4,6,0,5,3,0,0,0,0,0,0,0,0,0,0,0,0,0,0,0,16,
0,0,0,0,0,37,0,41,21,0,0,0,15,0,0,0,48,0,0,0,0,0,0,0,0,0,0,0,0,0,0,0,2,0,0,0,0,1,4,8,3,48,6,5,7,7,0,0,0,0,0,0,0,0,0,0,0,0,0,0,0,0,0,16,
0,0,0,0,11,0,39,0,0,0,46,0,0,0,0,0,0,0,0,0,0,0,0,0,0,0,0,0,0,0,0,0,0,0,0,0,1,0,3,3,46,4,11,3,4,4,0,0,0,0,0,0,0,0,0,0,0,0,0,0,0,0,0,16,
0,0,0,0,16,21,0,12,33,19,0,0,4,0,0,0,0,0,0,0,0,0,0,0,0,0,0,0,0,0,0,3,0,0,3,0,3,3,12,23,8,8,9,4,7,0,2,0,0,0,0,0,0,0,0,0,0,0,0,0,0,0,25,0,
0,0,0,15,0,32,0,30,0,41,0,0,0,0,0,0,0,0,0,0,0,0,0,0,0,0,0,0,0,0,0,0,0,2,7,0,1,9,7,8,6,5,4,5,2,10,0,0,0,0,0,0,0,0,0,0,0,0,0,0,0,0,0,25,
0,0,0,0,0,39,0,0,5,0,48,0,0,0,0,0,0,0,0,0,0,0,0,0,0,0,0,0,0,0,0,0,0,0,0,2,10,3,10,4,9,6,48,7,6,6,0,0,0,0,0,0,0,0,0,0,0,0,0,0,0,0,0,19,
0,0,0,0,0,24,0,18,45,0,0,10,0,0,0,0,0,0,0,0,0,0,0,0,0,0,0,0,0,0,0,2,0,0,0,0,0,5,3,5,9,5,7,5,5,6,0,0,0,0,0,0,0,0,0,0,0,0,0,0,0,0,0,18,
0,0,0,0,10,0,35,17,3,0,39,0,10,0,0,0,0,0,0,0,0,0,0,0,0,0,0,0,0,0,0,0,0,0,0,1,2,6,3,9,10,15,8,3,5,3,4,0,0,0,0,0,0,0,0,0,0,0,0,0,0,0,0,18,
0,0,0,0,13,36,11,0,46,0,11,45,0,0,0,0,0,0,0,0,0,0,0,0,0,0,0,0,0,0,0,4,0,0,0,0,0,6,4,11,9,5,48,5,9,1,0,0,0,0,0,0,0,0,0,0,0,0,0,0,0,0,0,22,
0,0,0,0,16,37,0,13,0,0,15,0,0,48,5,0,0,0,0,0,0,0,0,0,0,0,0,0,0,0,0,3,2,0,2,0,3,2,10,8,48,7,10,7,4,5,3,0,0,0,0,0,0,0,0,0,0,0,0,0,0,0,0,0,
0,0,0,0,17,31,0,42,0,0,41,0,0,0,0,0,0,0,0,0,0,0,0,0,0,0,0,0,0,0,0,0,2,0,0,0,8,4,9,5,7,21,8,5,3,5,0,0,0,0,0,0,0,0,0,0,0,0,0,0,0,0,0,14,
0,0,0,0,14,16,39,24,0,0,38,0,0,0,0,0,0,0,0,0,0,0,0,0,0,0,0,0,0,0,0,0,2,3,2,2,3,5,8,7,16,5,9,8,5,4,0,3,0,0,0,0,0,0,0,0,0,0,0,0,0,0,0,15,
0,0,0,0,11,34,0,43,0,14,0,0,8,0,0,0,0,0,0,0,0,0,0,0,0,0,0,0,0,0,0,0,5,0,1,2,3,3,7,7,8,7,11,5,6,5,3,0,0,0,0,0,0,0,0,0,0,0,0,0,0,0,16,0,
0,14,0,0,0,17,40,0,26,0,19,0,3,0,0,0,0,0,0,0,0,0,0,0,0,0,0,0,0,0,0,0,1,0,0,3,2,2,11,6,10,7,8,5,5,5,0,0,0,0,0,0,0,0,0,0,0,0,0,0,0,0,0,0,
0,0,0,0,0,13,27,39,0,0,0,44,0,0,0,0,0,0,0,0,0,0,0,0,0,0,0,0,0,0,0,0,1,2,0,0,5,10,8,10,5,11,5,5,48,5,5,0,0,0,0,0,0,0,0,0,0,0,0,0,0,0,0,18,
0,0,0,0,0,32,0,0,0,41,0,48,0,0,0,0,0,0,0,0,0,0,0,0,0,0,0,0,0,0,0,0,2,0,0,23,12,2,8,7,8,10,10,48,3,5,5,5,0,0,0,0,0,0,0,0,0,0,0,0,0,0,14,0,
0,0,0,10,0,19,33,41,0,43,0,0,0,0,0,44,0,0,0,0,0,0,0,0,0,0,0,0,0,0,0,0,2,0,0,7,2,3,5,35,10,7,7,7,0,5,0,0,0,0,0,0,0,0,0,0,0,0,0,0,0,0,18,0,
0,0,0,0,5,27,0,42,0,0,44,0,0,0,0,0,0,0,0,0,0,0,0,0,0,0,0,0,0,0,0,0,2,0,0,1,4,10,8,6,13,8,5,10,48,6,0,5,0,0,0,0,0,0,0,0,0,0,0,0,0,0,0,23,
0,0,0,0,13,18,0,0,0,48,0,6,3,0,0,0,0,0,0,0,0,0,0,0,0,0,0,0,0,0,0,0,4,1,1,1,1,3,5,28,3,6,5,6,3,5,4,0,0,0,0,0,0,0,0,0,0,0,0,0,0,0,0,22,
0,0,0,0,13,0,0,46,0,40,37,0,0,0,0,0,0,0,0,0,0,0,0,0,0,0,0,0,0,0,0,0,3,0,0,0,2,4,18,5,8,12,5,8,6,7,0,0,0,0,0,0,0,0,0,0,0,0,0,0,0,0,14,0,
0,0,0,0,0,36,14,42,0,16,0,15,0,0,0,0,0,0,0,0,0,0,0,0,0,0,0,0,0,0,0,0,2,0,0,0,0,7,10,4,9,7,9,3,3,0,0,0,0,0,0,0,0,0,0,0,0,0,0,0,0,0,10,0,
0,0,0,16,0,35,15,0,41,48,0,17,0,0,5,0,0,0,0,0,0,0,0,0,0,0,0,0,0,0,0,0,0,0,0,3,1,10,15,5,8,32,5,8,9,2,5,0,0,0,0,0,0,0,0,0,0,0,0,0,0,0,0,19,
0,0,0,0,14,0,14,0,0,0,0,0,4,0,0,0,0,0,0,0,0,0,0,0,0,0,0,0,0,0,0,2,0,0,2,0,2,8,14,7,11,7,10,3,7,5,48,0,0,0,0,0,0,0,0,0,0,0,0,0,0,0,0,0,
0,0,0,14,19,0,0,13,44,0,16,0,0,0,0,48,0,0,0,0,0,0,0,0,0,0,0,0,0,0,0,2,0,0,0,0,0,4,4,4,48,7,7,8,0,16,4,0,0,0,0,0,0,0,0,0,0,0,0,0,0,0,0,19,
0,0,0,0,15,36,12,14,0,41,0,0,0,0,48,0,0,0,0,0,0,0,0,0,0,0,0,0,0,0,0,0,0,0,0,0,1,8,11,7,48,5,7,10,1,5,0,0,0,0,0,0,0,0,0,0,0,0,0,0,0,0,0,0,
0,0,0,11,0,0,45,10,0,27,43,0,0,0,0,0,0,0,0,0,0,0,0,0,0,0,0,0,0,0,0,0,0,0,2,12,0,9,7,7,7,7,46,8,3,7,0,0,0,0,0,0,0,0,0,0,0,0,0,0,0,0,0,23,
0,0,0,0,0,6,17,0,46,0,8,0,0,0,0,0,0,0,0,0,0,0,0,0,0,0,0,0,0,0,0,1,0,0,0,0,0,4,9,3,7,7,47,7,3,5,0,0,0,0,0,0,0,0,0,0,0,0,0,0,0,0,0,23,
0,0,0,0,12,28,0,46,0,3,39,0,0,0,0,0,0,0,0,0,0,0,0,0,0,0,0,0,0,0,0,2,3,0,0,4,3,7,9,5,10,10,7,10,2,5,0,4,0,0,0,0,0,0,0,0,0,0,0,0,0,0,21,0,
0,0,0,14,0,23,9,41,6,0,0,0,0,0,0,0,0,0,0,0,0,0,0,0,0,0,0,0,0,0,0,1,2,5,0,3,0,4,6,5,8,9,6,11,6,7,0,0,0,0,0,0,0,0,0,0,0,0,0,0,0,0,0,0,
0,0,0,0,0,41,26,16,0,8,39,0,0,0,0,0,0,0,0,0,0,0,0,0,0,0,0,0,0,0,0,0,0,0,0,3,6,10,5,7,9,10,7,9,8,7,7,0,0,0,0,0,0,0,0,0,0,0,0,0,0,0,0,18,
0,0,0,0,0,29,0,43,18,0,40,0,0,0,0,0,0,0,0,0,0,0,0,0,0,0,0,0,0,0,0,0,2,1,0,0,0,4,12,7,8,7,6,5,7,4,6,0,0,0,0,0,0,0,0,0,0,0,0,0,0,0,0,22,
0,0,0,0,0,15,0,41,12,0,41,0,0,0,0,0,0,0,0,0,0,0,0,0,0,0,0,0,0,0,0,0,2,0,0,8,1,6,5,7,11,7,8,5,7,5,5,0,0,0,0,0,0,0,0,0,0,0,0,0,0,0,0,19,
0,0,0,0,0,24,40,8,0,25,38,0,0,0,0,0,0,0,0,0,0,0,0,0,0,0,0,0,0,0,0,0,0,2,0,0,6,10,16,8,9,3,8,8,3,8,0,0,0,0,0,0,0,0,0,0,0,0,0,0,0,0,0,25,
0,0,0,0,0,28,0,0,45,4,0,0,20,23,0,0,0,0,0,0,0,0,0,0,0,0,0,0,0,0,0,1,0,0,0,1,15,1,2,8,8,7,9,3,4,3,5,0,0,0,0,0,0,0,0,0,0,0,0,0,0,0,0,23,
0,0,0,0,0,31,0,0,6,0,0,0,48,37,0,0,0,0,0,0,0,0,0,0,0,0,0,0,0,0,0,1,2,1,3,0,4,7,13,3,7,48,7,6,9,0,0,0,1,0,0,0,0,0,0,0,0,0,0,0,0,0,27,0,
0,0,0,13,0,20,41,0,0,39,0,0,0,0,0,0,0,0,0,0,0,0,0,0,0,0,0,0,0,0,0,0,0,0,0,0,5,8,12,8,7,8,2,7,7,5,3,0,0,0,0,0,0,0,0,0,0,0,0,0,0,0,26,0,
0,0,0,11,0,29,0,7,42,0,13,0,0,0,0,0,0,0,0,0,0,0,0,0,0,0,0,0,0,0,0,2,0,0,0,0,0,0,3,10,7,7,9,5,6,7,1,4,0,0,0,0,0,0,0,0,0,0,0,0,0,0,20,0,
0,0,0,18,0,37,0,44,0,21,0,0,42,0,0,0,0,0,0,0,0,0,0,0,0,0,0,0,0,0,0,3,0,6,0,0,0,9,10,7,11,5,5,7,3,4,0,0,1,0,0,0,0,0,0,0,0,0,0,0,0,0,21,0,
0,0,14,0,0,39,0,0,0,16,33,0,0,0,0,0,0,0,0,0,0,0,0,0,0,0,0,0,0,0,0,0,0,0,0,0,2,4,9,8,9,7,6,5,3,0,3,0,0,0,0,0,0,0,0,0,0,0,0,0,0,0,16,0,
0,0,14,0,0,27,12,41,9,0,13,39,0,0,0,0,0,0,0,0,0,0,0,0,0,0,0,0,0,0,0,0,2,0,0,2,6,3,8,7,7,6,6,6,9,0,0,0,0,0,0,0,0,0,0,0,0,0,0,0,0,0,0,0,
0,0,0,0,13,30,40,0,0,32,9,0,0,0,0,0,0,0,0,0,0,0,0,0,0,0,0,0,0,0,0,0,0,0,1,0,0,12,7,8,8,5,7,6,5,5,0,0,0,0,0,0,0,0,0,0,0,0,0,0,0,0,11,0,
0,0,11,0,0,25,0,41,6,0,16,0,12,0,0,0,0,0,0,0,0,0,0,0,0,0,0,0,0,0,0,0,2,0,0,0,0,3,6,8,5,6,6,6,0,35,4,0,0,0,0,0,0,0,0,0,0,0,0,0,0,0,0,24,
0,0,0,0,0,32,33,0,43,0,0,40,0,0,0,0,0,0,0,0,0,0,0,0,0,0,0,0,0,0,0,4,5,0,0,9,2,8,5,10,8,6,5,8,7,5,6,0,0,0,0,0,0,0,0,0,0,0,0,0,0,0,0,20,
0,0,0,0,17,16,0,44,0,39,47,0,0,0,0,0,0,0,0,0,0,0,0,0,0,0,0,0,0,0,0,0,1,0,0,0,0,10,9,7,47,8,8,4,6,6,7,0,0,0,0,0,0,0,0,0,0,0,0,0,0,0,0,16,
0,0,0,0,14,19,39,29,6,0,0,29,0,0,5,0,0,0,0,0,0,0,0,0,0,0,0,0,0,0,0,0,1,3,1,0,12,4,10,8,7,8,6,5,8,3,6,0,0,0,0,0,0,0,0,0,0,0,0,0,0,0,0,26,
0,0,0,0,17,20,10,43,0,43,0,0,0,0,0,0,0,0,0,0,0,0,0,0,0,0,0,0,0,0,0,0,1,0,0,0,1,11,7,8,10,10,7,4,3,5,4,0,0,0,0,0,0,0,0,0,0,0,0,0,0,0,0,0,
