0,0,0,0,19,16,41,31,0,0,40,0,0,40,0,0,0,0,0,0,0,0,0,0,0,0,0,0,0,0,10,0,0,0,0,1,2,38,3,6,8,10,7,5,2,2,0,0,0,0,0,0,0,0,0,0,0,0,0,0,0,0,21,0,
0,0,0,0,11,0,0,38,32,0,0,0,0,7,0,0,0,22,0,0,0,0,0,0,0,0,0,0,0,2,0,3,0,0,0,0,0,1,10,38,7,14,7,13,4,0,0,0,0,0,0,0,0,0,0,0,0,0,0,0,0,0,21,0,
0,0,0,13,0,0,34,44,0,38,0,0,0,0,0,0,0,0,0,0,0,0,0,0,0,0,0,0,0,0,0,3,0,3,4,1,3,11,28,9,9,8,8,5,4,3,0,0,0,0,0,0,0,0,0,0,0,0,0,0,0,0,0,25,
0,0,0,0,0,11,27,41,0,33,0,0,0,0,0,46,0,0,0,0,0,0,0,0,0,0,0,0,0,0,0,0,0,0,0,5,4,9,42,6,8,10,7,14,3,2,9,1,0,0,0,0,0,0,1,0,0,0,0,0,0,0,35,0,
0,0,0,0,0,33,0,0,42,0,0,0,0,0,0,44,0,0,0,0,0,0,0,0,0,0,0,0,0,0,0,0,0,0,0,0,3,37,8,12,8,12,5,7,2,6,1,0,0,0,0,0,0,0,0,0,0,0,0,0,0,0,23,0,
0,0,0,0,16,31,0,42,14,35,0,0,0,0,0,0,0,0,0,0,0,0,0,0,0,0,0,0,0,0,0,8,2,0,0,0,11,10,8,10,7,10,7,7,3,3,3,3,19,0,0,0,0,0,0,0,0,0,0,0,0,0,0,0,
0,0,0,0,0,0,44,41,0,39,0,0,0,0,0,0,0,0,0,0,0,0,0,0,0,0,0,0,0,0,10,0,1,0,5,0,11,8,7,7,8,7,18,5,4,2,1,0,0,0,0,0,0,0,0,0,0,0,0,0,0,0,0,23,
0,0,0,0,0,33,0,41,32,41,0,0,0,0,0,0,0,0,0,0,0,0,0,0,0,0,0,0,0,0,7,0,3,0,0,0,7,11,9,12,20,8,14,6,2,4,0,0,1,0,0,0,0,0,0,0,0,0,0,0,0,0,0,28,
0,0,0,0,0,19,40,0,0,35,30,0,0,0,0,0,0,0,0,0,0,0,0,0,0,0,0,0,0,0,3,0,0,0,0,0,6,11,8,8,7,8,7,4,3,3,1,0,1,0,40,0,0,0,0,0,0,0,0,0,0,0,0,24,
0,0,0,0,0,18,36,37,42,13,0,0,0,0,0,0,0,0,0,0,0,0,0,0,0,0,0,0,0,0,0,13,0,0,0,0,0,3,12,8,8,15,7,5,7,3,0,0,0,0,0,0,0,0,0,0,0,0,0,0,0,0,0,0,
27,0,0,0,0,0,36,40,34,41,0,0,0,0,0,0,0,0,0,0,0,0,0,0,0,0,0,0,0,0,0,7,0,0,0,0,6,8,12,9,8,9,8,10,1,1,2,0,0,0,0,0,0,0,0,0,0,0,0,0,0,0,28,0,
0,0,0,0,17,0,32,0,45,0,0,0,0,27,0,10,0,0,0,0,0,0,0,0,0,0,0,0,0,14,0,2,0,0,0,7,0,5,14,7,11,7,10,5,3,2,0,0,2,0,0,0,0,0,0,0,0,0,0,0,0,0,0,0,
0,0,0,0,0,0,0,41,0,39,0,0,0,0,0,0,0,0,0,0,0,0,0,0,0,0,0,0,0,0,9,0,1,0,0,0,8,17,9,13,10,12,8,6,2,2,2,2,0,0,0,0,0,0,0,0,0,0,0,0,0,0,0,31,
0,0,0,0,0,17,35,0,41,34,0,0,0,0,19,0,0,0,0,0,0,0,0,0,0,0,0,0,0,0,0,17,0,0,0,0,4,7,7,12,7,7,8,4,4,2,0,0,0,0,0,0,0,0,0,0,0,0,0,0,0,0,0,0,
0,0,0,0,0,35,0,0,28,37,0,0,28,0,0,0,0,0,0,0,0,0,0,0,0,0,0,0,0,0,0,0,0,5,0,3,7,9,7,9,9,7,46,13,5,1,3,3,0,0,0,0,0,0,0,0,0,0,0,0,0,0,0,0,
32,0,0,0,0,0,0,45,0,46,0,0,0,0,0,0,0,0,0,0,0,0,0,0,0,0,0,0,0,0,11,0,2,0,0,0,16,8,7,35,6,7,5,7,0,7,1,3,0,0,0,0,0,0,0,0,0,0,0,0,0,0,0,0,
20,0,0,0,0,24,0,43,0,0,0,0,41,0,0,0,0,0,0,0,0,0,0,0,0,0,0,0,0,0,7,0,2,0,0,0,7,10,9,8,11,7,7,7,3,5,48,1,0,0,0,0,0,0,0,0,0,0,0,0,0,0,0,25,
0,0,0,0,0,32,0,40,6,0,0,0,0,0,0,0,0,0,0,0,0,0,0,0,0,0,0,0,0,0,0,0,1,0,0,0,8,8,8,12,8,10,6,8,3,48,0,0,0,0,0,0,0,0,0,0,0,0,0,0,0,0,0,0,
0,0,0,0,0,24,0,44,0,48,0,0,0,38,0,0,0,0,0,0,0,0,0,0,0,0,0,0,0,0,13,2,3,10,0,2,2,7,7,8,38,5,10,7,48,2,0,1,0,0,0,0,0,0,0,0,0,0,0,0,0,0,0,21,
0,0,0,0,0,31,42,0,0,35,0,0,0,42,0,0,0,0,0,0,0,0,0,0,0,0,0,0,0,10,0,11,2,0,0,3,8,12,8,26,7,7,9,8,4,3,0,0,0,0,0,0,0,0,0,0,0,0,0,0,0,0,0,29,
0,0,0,0,0,12,43,0,0,35,0,0,28,0,0,0,0,0,0,0,0,0,0,0,0,0,0,0,0,0,0,12,0,0,0,0,5,13,14,7,11,8,7,4,8,2,2,0,0,0,0,0,0,0,0,0,0,0,0,0,0,0,0,25,
0,0,0,0,0,0,0,0,0,39,0,0,23,0,0,0,0,0,0,0,0,0,0,0,0,0,0,0,0,0,6,0,0,0,0,3,10,10,9,18,8,8,7,13,5,3,0,0,2,0,0,0,0,0,0,0,0,0,0,0,0,0,0,0,
0,0,0,0,0,0,0,0,0,15,38,25,0,0,0,0,0,0,0,0,0,0,0,0,0,0,0,0,0,0,0,9,0,0,3,7,8,13,9,8,5,6,9,46,7,4,3,0,0,0,0,0,0,0,0,0,0,0,0,0,0,0,0,33,
0,0,0,0,0,17,29,0,43,0,0,37,0,0,0,0,0,0,0,0,0,0,0,0,0,0,0,0,0,0,0,11,3,9,0,6,7,10,7,23,6,6,13,3,7,1,2,1,0,0,0,0,0,0,0,0,0,0,0,0,0,0,0,0,
0,0,0,0,0,21,41,0,0,42,0,0,18,0,0,0,0,0,0,0,0,0,0,0,0,0,0,0,0,0,0,0,15,4,0,0,1,7,10,7,8,33,8,7,5,2,3,0,0,0,0,0,0,0,0,0,0,0,0,0,0,0,0,35,
0,0,0,0,0,22,0,41,0,0,0,0,0,48,0,0,0,0,0,0,0,0,0,0,0,0,0,0,0,0,0,12,2,0,1,21,4,10,7,7,5,12,48,7,7,3,0,0,0,0,0,0,0,0,0,0,0,0,0,0,0,0,0,33,
0,0,0,0,0,23,0,0,44,0,48,0,0,19,0,0,0,0,0,0,0,0,0,0,0,0,0,0,0,0,15,1,4,2,0,2,6,8,13,9,7,5,7,48,3,2,8,0,0,0,0,0,0,0,0,0,0,0,0,0,0,0,0,0,
32,0,0,0,0,18,0,38,0,36,0,0,0,0,0,0,0,0,0,0,0,0,0,0,0,0,0,0,0,0,0,4,1,0,0,0,6,1,28,9,11,12,7,7,3,3,3,0,0,0,0,0,0,0,0,0,0,0,0,0,0,0,0,33,
0,0,0,0,0,30,0,40,0,39,0,0,0,0,38,0,0,0,0,0,0,0,0,0,0,0,0,0,0,0,0,0,1,0,4,3,8,7,8,44,9,6,8,8,3,8,2,2,0,0,0,0,0,0,0,0,0,0,0,0,0,0,0,34,
0,0,0,0,0,41,0,0,35,0,0,0,0,0,0,0,46,0,0,0,0,0,0,0,0,0,0,0,0,0,0,9,0,0,0,0,0,17,10,10,9,7,5,10,7,2,3,2,0,0,0,0,0,0,0,0,0,0,0,0,0,0,0,30,
0,0,0,0,0,0,0,0,0,48,0,0,0,0,0,0,0,0,0,0,0,0,0,0,0,0,0,0,0,0,0,12,0,0,0,0,5,7,10,32,9,9,7,4,13,1,1,0,0,0,0,0,0,0,0,0,0,0,0,0,0,0,0,0,
32,0,0,0,0,0,42,0,0,39,0,0,0,0,46,0,0,0,0,0,0,0,0,0,0,0,0,0,0,0,10,0,0,0,24,3,8,12,9,8,8,48,12,5,10,2,2,3,0,0,0,0,0,0,0,0,0,0,0,0,0,0,0,0,
29,0,0,0,0,22,38,0,0,39,46,0,0,0,0,0,0,0,0,0,0,0,0,0,0,0,0,0,0,0,0,10,0,0,0,10,3,8,38,16,8,9,8,4,9,3,2,0,42,0,0,0,0,0,0,0,0,0,0,0,0,0,0,0,
32,0,0,0,0,0,42,0,0,37,0,48,0,0,0,0,0,0,0,0,0,0,0,0,0,0,0,0,0,0,0,0,0,0,0,0,7,9,10,7,9,9,11,5,3,43,2,0,0,0,0,0,0,0,0,0,0,0,0,0,0,0,0,34,
0,0,0,0,0,0,0,44,0,48,0,0,0,0,0,0,0,0,0,0,0,0,0,0,0,0,0,0,0,0,0,6,2,0,0,0,8,7,8,8,8,9,7,7,3,46,3,0,0,0,0,0,0,0,0,0,0,0,0,0,0,0,0,0,
33,0,0,0,0,0,37,0,38,42,48,0,0,0,0,0,0,0,0,0,0,0,0,0,0,0,0,0,0,0,9,2,0,0,0,5,8,23,10,10,8,13,7,7,8,2,2,0,0,0,0,0,0,0,0,0,0,0,0,0,5,0,0,30,
0,0,0,0,0,14,32,0,46,0,0,0,0,46,0,0,0,0,0,0,0,0,0,0,0,0,0,0,0,0,0,8,0,0,0,0,1,9,43,8,9,6,8,9,4,2,1,0,0,0,0,0,0,0,0,0,0,0,0,0,0,0,0,32,
0,0,0,0,0,25,0,0,0,43,0,0,0,0,45,0,0,0,0,0,0,0,0,0,0,0,0,0,0,0,7,0,0,0,0,2,5,10,9,11,7,13,6,8,2,26,2,2,0,0,0,0,0,0,0,0,0,0,0,0,0,0,0,0,
0,0,0,0,0,0,46,0,33,0,42,0,0,0,0,0,0,0,0,0,0,0,0,0,0,0,0,0,0,0,0,0,5,3,10,0,9,12,8,28,15,9,5,7,7,2,2,0,0,0,0,0,0,0,0,0,0,0,0,0,0,0,0,30,
0,0,0,0,0,28,0,0,42,18,0,0,46,0,0,0,0,0,0,0,0,0,0,0,0,0,0,0,0,0,0,3,0,0,25,0,0,7,9,7,11,8,48,8,3,3,2,5,0,0,0,0,0,0,0,0,0,0,0,0,0,0,0,31,
0,0,0,0,0,41,0,0,0,48,0,0,0,0,0,0,0,0,0,0,0,0,0,0,0,0,0,0,0,0,7,0,0,0,10,0,4,9,10,34,7,13,6,3,3,3,2,0,0,0,0,0,0,0,0,0,0,0,0,0,0,0,0,35,
0,0,0,0,0,21,36,0,40,28,0,0,0,0,0,0,0,0,0,0,0,0,0,0,0,0,0,0,0,0,12,0,2,0,22,0,1,13,8,12,9,9,48,9,6,3,3,0,2,0,0,0,0,0,0,0,0,0,0,0,0,0,0,0,
33,0,0,0,0,23,32,0,0,43,0,0,48,0,0,0,0,0,0,0,0,0,0,0,0,0,0,0,0,0,14,0,0,0,3,9,8,8,9,15,9,7,6,10,7,3,3,0,0,0,0,0,0,0,0,0,0,0,0,0,0,0,0,0,
26,0,0,0,0,0,43,0,0,34,0,0,0,0,0,0,0,0,0,0,0,0,0,0,0,0,0,0,0,0,11,0,0,0,0,3,7,8,38,9,10,7,8,14,3,3,2,0,0,0,0,0,0,0,3,0,0,0,0,0,0,0,34,0,
0,0,0,0,0,0,41,0,34,0,0,0,0,0,0,0,0,0,0,0,0,0,0,0,0,0,0,0,0,0,0,10,0,0,0,12,2,4,12,8,7,9,14,44,6,4,6,0,0,0,0,0,0,0,0,0,0,0,0,0,0,0,0,22,
0,0,0,0,0,33,0,0,0,33,0,0,0,0,0,0,0,0,0,0,0,0,0,0,0,0,0,0,0,0,15,0,0,0,0,5,0,7,8,37,10,8,5,11,7,43,2,0,0,0,0,0,0,0,0,0,0,0,0,0,0,0,0,36,
0,0,0,0,0,0,45,0,0,48,0,0,0,0,0,0,0,0,0,0,0,0,0,0,0,0,0,0,0,0,9,0,0,0,0,0,8,7,9,8,8,8,8,13,2,5,2,0,48,0,0,0,0,0,0,0,0,0,0,0,0,0,0,33,
0,0,0,0,0,19,43,46,0,39,0,0,0,0,0,25,0,0,0,0,0,0,0,0,0,0,0,0,0,0,11,0,0,0,3,0,8,8,17,9,8,9,12,8,5,3,2,0,0,0,0,0,0,0,0,0,0,0,0,0,0,0,0,35,
0,0,0,0,0,34,0,0,0,37,0,0,0,22,0,0,0,0,0,0,0,0,0,0,0,0,0,0,0,0,0,0,0,0,0,0,11,11,9,13,8,6,13,7,5,3,3,1,0,0,0,42,0,0,0,0,0,0,0,0,0,0,0,33,
0,0,0,0,0,0,44,0,0,39,0,0,0,0,0,0,0,0,0,0,0,0,0,0,0,0,0,0,0,0,8,0,0,0,0,1,3,9,11,9,14,8,27,7,8,4,1,0,0,0,0,0,0,0,0,0,0,0,0,0,0,0,0,0,
