0,0,0,0,9,41,0,16,12,0,6,0,0,10,0,0,0,0,0,0,0,0,0,0,0,0,0,0,0,0,0,5,1,3,0,1,0,4,4,11,8,8,5,5,5,0,8,0,0,0,0,0,0,0,0,0,0,0,0,0,0,0,0,19,
0,0,0,0,13,42,0,42,16,0,18,0,37,0,0,0,0,0,0,0,0,0,0,0,0,0,0,0,0,1,0,1,3,0,0,0,2,3,6,6,7,7,7,8,5,12,0,0,0,0,1,0,0,0,0,0,0,0,0,0,0,0,8,0,
0,0,0,13,0,35,0,40,13,0,0,0,0,0,0,0,0,0,0,0,0,0,0,0,0,0,0,0,0,0,0,2,1,0,0,0,1,8,13,6,12,7,3,20,3,0,0,0,0,0,0,0,0,0,0,0,0,0,0,0,0,0,0,19,
0,0,0,0,43,0,12,43,15,41,0,0,0,0,0,0,0,0,0,0,0,0,0,0,0,0,0,0,0,0,0,3,0,3,0,0,1,4,8,14,8,9,5,7,7,8,0,4,0,0,0,0,0,0,0,0,0,0,0,0,0,0,20,0,
0,0,19,0,0,0,7,0,40,16,0,0,0,17,0,0,0,0,0,0,0,0,0,0,0,0,0,0,0,0,0,2,1,0,1,0,0,0,11,8,7,9,8,4,4,0,0,1,0,0,0,0,0,0,0,0,0,0,0,0,0,0,0,0,
0,0,0,0,0,37,0,17,0,16,0,38,7,0,0,0,0,0,0,0,0,0,0,0,0,0,0,0,0,0,0,3,0,0,0,3,3,4,8,16,4,11,8,6,5,6,6,0,0,0,0,0,0,0,0,0,0,0,0,0,0,0,0,0,
0,0,0,14,0,0,42,8,0,15,45,0,0,0,0,0,0,0,0,0,0,0,0,0,0,0,0,0,0,0,0,0,0,0,0,3,1,3,9,9,8,6,13,5,3,3,0,3,0,0,0,0,0,0,0,0,0,0,0,0,0,0,0,21,
0,0,0,0,0,37,0,22,0,0,42,16,0,0,0,0,0,0,0,0,0,0,0,0,0,0,0,0,0,0,0,0,0,2,0,0,0,1,13,7,6,11,5,4,4,3,0,3,0,0,0,0,0,0,0,0,0,0,0,0,0,0,0,16,
0,0,0,0,18,0,0,17,0,37,0,0,0,0,0,0,0,0,0,0,0,0,0,0,0,0,0,0,0,0,0,0,0,0,0,0,18,10,6,7,7,5,9,1,44,1,4,0,0,0,0,0,0,0,0,0,0,0,0,0,0,0,14,0,
0,0,13,0,0,38,39,0,36,0,36,0,8,0,0,0,0,0,0,0,0,0,0,0,0,0,0,0,0,0,0,0,0,0,0,3,0,21,12,0,9,11,7,7,5,4,48,0,0,0,0,0,0,0,0,0,0,0,0,0,0,0,16,0,
0,0,16,0,0,21,0,42,47,0,41,0,0,0,0,0,0,0,0,0,0,0,0,0,0,0,0,0,0,0,1,0,0,7,0,1,11,0,9,40,9,10,3,5,6,5,3,0,3,0,0,0,0,0,0,0,0,0,0,0,0,0,0,18,
0,0,0,0,9,0,38,0,23,0,42,0,0,0,0,0,0,0,0,0,0,0,0,0,0,0,0,0,0,0,0,0,0,0,2,0,0,3,7,7,18,5,10,5,7,1,3,0,0,0,0,43,0,0,0,0,0,0,0,0,0,0,0,0,
0,0,0,0,13,0,39,14,41,41,0,0,0,0,0,0,0,0,0,0,0,0,0,0,0,0,0,0,0,0,0,0,0,0,1,1,0,9,5,7,37,10,5,7,8,0,0,0,0,0,0,0,0,0,0,0,0,0,0,0,0,0,0,20,
0,0,0,0,18,12,0,42,18,42,0,0,0,0,0,0,0,0,0,0,0,0,0,0,0,0,0,0,0,0,0,0,1,0,0,1,1,3,10,5,15,24,2,7,7,5,3,0,0,0,0,0,0,0,0,0,0,0,0,0,0,0,0,14,
0,0,0,0,0,16,30,41,0,0,43,0,48,0,0,0,0,0,0,0,0,0,0,0,0,0,0,0,0,0,0,0,0,0,0,0,0,8,35,8,13,7,8,3,3,6,0,4,0,0,0,0,0,0,0,0,0,0,0,0,0,0,17,0,
0,0,0,9,0,0,40,0,0,17,0,42,0,0,0,0,0,0,0,0,0,0,0,0,0,0,0,0,0,0,0,0,0,1,0,0,3,18,5,10,5,7,8,9,0,1,0,2,0,0,0,0,0,0,0,0,0,0,0,0,0,0,0,20,
0,0,0,0,0,18,0,43,4,0,44,0,0,0,0,0,0,0,0,0,0,0,0,0,0,0,0,0,0,0,0,0,1,2,0,1,0,1,8,10,11,12,7,6,6,5,4,0,0,0,0,0,0,0,0,0,0,0,0,0,0,0,17,0,
0,0,11,0,0,25,0,39,0,13,36,0,0,0,0,0,0,0,0,0,0,0,0,0,0,0,0,0,0,0,0,0,1,0,0,0,3,10,3,8,12,7,8,10,4,5,4,0,0,0,0,0,0,0,0,0,0,0,0,0,0,0,0,19,
0,0,0,0,0,21,0,0,45,0,16,0,0,0,10,0,0,0,0,0,0,0,0,0,0,0,0,0,0,0,0,1,0,0,1,0,2,7,11,9,7,8,8,10,1,1,0,1,0,0,0,0,0,0,0,0,0,0,0,0,0,0,0,0,
0,0,0,0,0,25,36,0,33,0,7,3,0,0,0,0,0,0,0,0,0,0,0,0,0,0,0,0,0,0,0,0,0,0,1,0,3,1,9,7,5,7,5,7,5,5,0,0,0,0,0,0,0,0,0,0,0,0,0,0,0,0,12,0,
0,0,0,12,0,0,16,39,0,40,0,0,0,0,0,0,0,0,0,0,0,0,0,0,0,0,0,0,0,0,0,0,1,0,0,0,2,1,7,7,8,13,0,1,1,6,4,3,0,0,0,0,0,0,0,0,0,0,0,0,0,0,0,19,
0,0,0,0,0,17,41,14,0,40,11,0,0,0,0,0,0,0,0,0,0,0,0,0,0,0,0,0,0,0,1,0,0,2,0,0,1,8,9,11,11,7,9,11,3,0,0,0,3,0,0,0,0,0,0,0,0,0,0,0,0,0,0,0,
22,0,0,0,0,22,0,39,7,0,0,37,0,0,0,0,0,0,0,0,0,0,0,0,0,0,0,0,0,0,0,3,0,0,0,2,7,6,8,7,7,6,6,7,7,9,6,0,0,0,0,0,0,0,0,0,0,0,0,0,0,0,19,0,
0,0,14,0,0,27,37,41,13,0,0,0,46,0,0,47,0,0,0,0,0,0,0,0,0,0,0,0,0,0,0,3,3,0,0,0,0,7,3,12,7,46,13,4,3,6,5,0,0,0,0,0,0,0,0,0,0,0,0,0,0,0,0,20,
0,0,0,0,11,23,38,24,0,0,0,0,0,0,0,0,0,0,0,0,0,0,0,0,0,0,0,0,0,0,0,0,0,0,1,5,0,4,8,3,8,7,6,8,8,5,2,0,0,0,0,0,0,0,0,0,0,0,0,0,0,0,0,0,
0,0,0,0,0,30,0,43,13,0,0,37,0,0,0,0,0,0,0,0,0,0,0,0,0,0,0,0,0,0,0,0,5,1,0,1,4,3,9,12,6,21,6,7,10,2,3,2,0,0,0,0,0,0,0,0,0,0,0,0,0,0,0,0,
0,0,0,0,14,34,0,10,0,41,0,0,0,0,0,0,0,0,0,0,0,0,0,0,0,0,0,0,0,0,0,0,0,0,0,0,0,7,5,7,7,5,6,6,9,0,0,0,0,0,0,0,0,0,0,0,0,0,0,0,0,0,0,16,
0,0,0,0,15,32,0,19,12,40,0,0,0,0,0,0,0,0,0,0,0,0,0,0,0,0,0,0,0,0,0,0,0,0,0,0,0,12,3,6,7,7,3,6,5,2,3,0,0,0,0,0,0,0,0,0,0,0,0,0,0,0,0,0,
0,0,0,0,11,0,43,0,11,0,44,0,0,0,0,0,0,0,0,0,0,0,0,0,0,0,0,0,0,0,0,0,1,7,2,0,1,1,10,10,10,8,6,6,3,4,2,0,0,0,0,0,0,0,0,0,0,0,0,0,0,0,0,14,
0,0,0,0,0,0,0,42,0,0,40,0,0,0,0,0,0,0,0,0,0,0,0,0,0,0,0,0,0,0,0,0,2,0,0,0,8,2,7,5,7,12,8,3,4,5,4,0,0,3,0,0,0,0,0,0,0,0,0,0,0,0,0,19,
0,0,0,0,4,32,15,0,43,29,0,0,0,0,0,0,0,0,0,0,0,0,0,0,0,0,0,0,0,0,0,2,0,0,0,0,0,4,7,6,8,6,7,9,3,0,0,0,0,0,0,0,0,0,0,0,0,0,0,0,0,0,0,0,
0,0,0,0,0,37,0,23,0,14,5,0,0,0,0,0,0,0,0,0,0,0,0,0,0,0,0,0,0,0,0,0,0,0,0,1,9,2,4,10,8,10,7,8,5,0,0,4,5,0,0,0,0,0,0,0,0,0,0,0,0,0,0,14,
0,0,0,0,14,0,0,14,0,36,16,0,0,0,0,0,0,0,0,0,0,0,0,0,0,0,0,0,0,0,0,0,0,0,0,0,0,16,3,9,10,8,5,7,8,0,2,0,0,0,0,0,0,0,0,0,0,0,0,0,0,0,16,0,
0,0,12,0,0,30,10,38,0,16,0,41,0,0,0,0,0,0,0,0,0,0,0,0,0,0,0,0,0,0,0,0,2,0,3,0,7,1,8,7,12,10,7,6,5,6,1,5,0,0,0,0,0,0,0,0,0,0,0,0,0,0,0,0,
0,0,0,0,15,35,0,15,41,0,13,0,39,0,0,0,0,0,0,0,0,0,0,0,0,0,0,0,0,0,0,2,3,7,1,1,5,5,10,7,10,8,5,7,11,0,0,0,0,0,0,0,0,0,0,0,0,0,0,0,0,0,0,27,
0,0,0,0,0,26,37,16,0,39,0,16,0,0,0,0,0,0,0,0,0,0,0,0,0,0,0,0,0,0,0,0,0,0,0,0,2,9,4,7,7,7,5,4,2,39,2,0,0,0,0,0,0,0,0,0,0,0,0,0,0,0,0,8,
0,0,0,0,0,0,22,46,0,0,39,0,0,0,0,0,0,0,0,0,0,0,0,0,0,0,0,0,0,0,0,1,1,6,0,0,0,3,8,8,28,3,8,3,4,5,4,0,0,0,0,0,0,0,0,0,0,0,0,0,0,0,0,17,
0,0,0,0,12,36,11,43,0,8,0,41,0,0,0,0,0,0,0,0,0,0,0,0,0,0,0,0,0,0,0,0,1,8,0,1,1,3,12,7,10,13,7,6,8,6,0,5,0,0,0,0,0,0,0,0,0,0,0,0,0,0,26,0,
0,0,0,0,0,15,14,43,0,0,0,42,0,0,0,0,0,0,41,0,0,0,0,0,0,0,0,0,0,0,0,1,3,2,0,0,7,3,9,5,7,8,5,6,10,2,4,0,0,0,0,0,0,0,0,0,0,0,0,0,0,0,18,0,
0,0,0,11,0,42,0,0,39,12,39,0,0,0,0,0,0,0,0,0,0,0,0,0,0,0,0,0,0,0,0,5,0,0,4,8,0,4,2,10,5,6,10,4,3,0,0,0,0,0,0,0,0,0,0,0,0,0,0,0,0,0,0,17,
0,0,0,0,0,32,0,38,0,0,18,0,16,0,0,0,0,0,0,0,0,0,0,0,0,0,0,0,0,0,0,0,2,0,0,1,3,3,5,8,13,3,8,10,8,1,3,0,0,0,0,0,0,0,0,0,0,0,0,0,0,0,0,8,
0,0,0,0,14,28,0,7,0,42,43,0,0,0,0,0,0,0,0,0,0,0,0,0,0,0,0,0,0,0,0,0,0,0,0,0,0,4,27,12,7,6,9,4,7,5,3,0,0,0,0,0,0,0,0,0,0,0,0,0,0,0,17,0,
0,0,0,14,0,0,41,6,0,12,0,30,43,0,0,0,0,0,0,0,0,0,0,0,0,0,0,0,0,0,0,0,2,1,0,0,1,8,10,6,7,21,48,7,4,4,5,0,0,0,0,0,0,0,0,0,0,0,0,0,0,0,0,22,
0,0,0,0,16,18,0,9,41,0,13,48,0,0,10,0,0,0,0,0,0,0,0,0,0,0,0,0,0,0,0,0,1,2,0,0,15,5,7,6,8,13,7,7,3,5,4,4,0,0,0,0,0,0,0,0,0,0,0,0,0,0,21,0,
0,0,0,18,0,24,0,0,47,0,16,0,0,0,0,0,0,0,0,0,0,0,0,0,0,0,0,0,0,0,0,1,0,0,0,0,0,10,3,14,8,8,11,2,5,6,3,0,2,0,0,0,0,0,0,0,0,0,0,0,0,0,20,0,
0,12,0,0,0,0,0,0,39,16,0,0,0,0,0,0,0,0,0,0,41,0,0,0,0,0,0,0,0,0,0,0,0,0,0,1,5,1,16,7,8,7,6,7,4,0,0,0,0,0,0,0,0,0,0,0,0,0,0,0,0,0,0,19,
0,0,0,0,0,0,0,42,0,0,0,19,0,0,0,0,0,0,0,0,0,0,0,0,0,0,0,0,0,0,0,0,0,1,0,1,0,14,5,12,3,10,7,11,0,3,0,0,41,0,0,0,0,0,0,0,0,0,0,0,0,0,0,17,
0,0,0,0,0,33,0,14,0,42,0,0,46,0,0,0,0,0,0,0,0,0,0,0,0,0,0,0,0,0,0,0,0,0,1,0,1,2,8,5,9,47,8,6,8,5,2,0,0,0,0,0,0,0,0,0,0,0,0,0,0,0,23,0,
0,0,0,16,0,26,22,45,0,10,0,0,5,0,0,0,0,0,0,0,0,0,0,0,0,0,0,0,0,0,0,0,3,0,0,0,2,5,9,5,5,20,12,7,0,1,5,0,0,0,0,0,0,0,0,0,0,0,0,0,0,0,0,16,
0,0,0,0,0,30,5,38,0,0,39,0,0,31,0,0,0,0,0,0,0,0,0,0,0,0,0,0,0,0,0,0,2,6,0,0,1,3,6,7,47,6,7,8,7,5,5,0,0,0,0,0,0,0,0,0,0,0,0,0,0,0,6,0,
