0,0,0,0,0,0,45,0,0,28,0,0,0,0,0,0,0,0,0,0,0,0,0,0,0,0,0,0,0,0,3,0,0,0,0,0,12,4,7,7,7,14,7,4,3,3,3,0,1,0,0,0,0,0,0,0,0,0,0,0,0,0,0,19,
0,0,0,0,0,0,40,0,0,35,0,0,0,0,0,0,0,0,0,0,0,0,0,0,0,0,0,0,0,0,10,0,0,0,0,1,8,7,7,7,6,4,4,7,2,0,0,0,0,0,0,0,0,0,0,0,0,0,0,0,0,0,0,25,
0,0,0,0,0,0,38,0,0,36,39,0,0,0,0,0,0,0,0,0,0,0,0,0,0,0,0,0,0,0,0,0,8,0,0,2,5,7,5,8,30,6,6,3,4,6,0,0,0,0,0,0,0,0,0,0,0,0,0,0,0,0,14,0,
0,0,0,0,16,0,41,0,19,36,0,0,0,0,0,0,0,0,0,0,0,0,0,0,0,0,0,0,0,0,0,0,0,0,0,0,8,14,7,9,9,11,4,9,10,3,1,1,0,0,0,0,0,0,0,0,0,0,0,0,0,0,0,21,
0,0,0,0,0,0,44,0,0,36,0,0,0,0,0,0,0,0,0,0,0,0,0,0,0,0,0,0,0,0,0,0,0,0,2,0,9,1,7,10,8,12,7,5,3,3,4,1,0,0,0,0,0,0,0,0,0,0,0,0,0,0,0,30,
0,0,0,0,0,17,42,0,31,0,0,0,0,0,0,0,0,0,0,0,0,0,0,0,0,0,0,0,0,0,0,0,0,0,0,0,3,3,8,6,12,1,7,5,3,3,3,0,0,0,0,0,0,0,0,0,0,0,0,0,0,0,28,0,
0,0,0,0,0,36,0,0,23,0,0,0,5,0,41,0,0,0,0,0,0,0,0,0,0,0,0,0,0,0,0,2,1,3,0,3,5,8,6,3,31,9,7,3,2,3,1,2,0,0,0,0,0,0,0,0,0,0,0,0,0,0,0,0,
0,0,0,0,0,14,42,0,0,12,0,43,0,0,0,0,0,0,0,0,0,0,0,0,0,0,0,0,0,0,7,0,6,0,0,4,4,6,7,16,11,5,10,4,3,4,3,0,0,0,0,0,0,0,0,0,0,0,0,0,0,0,0,0,
0,0,0,0,0,34,37,0,44,17,0,0,0,0,0,0,0,0,0,0,0,0,0,0,0,0,0,0,0,0,0,0,3,0,0,0,0,4,3,3,11,6,3,16,3,5,0,0,0,0,0,0,0,0,0,0,0,0,0,18,0,0,0,0,
32,0,0,0,0,0,0,0,0,40,0,0,0,0,0,0,0,0,0,0,0,0,0,0,0,0,0,0,0,0,0,0,0,0,0,1,3,6,8,10,7,10,4,7,8,3,3,0,0,0,0,0,0,0,0,0,0,0,0,0,0,0,0,32,
0,0,0,0,0,0,32,42,0,37,0,0,0,0,0,0,0,0,0,0,0,0,0,0,0,0,0,0,0,0,5,0,1,0,0,2,8,5,6,8,10,5,6,3,3,3,3,0,1,0,0,0,0,0,0,20,0,0,0,0,0,0,0,36,
0,0,0,0,0,15,38,26,46,0,0,0,0,0,0,7,0,0,0,0,0,0,0,0,0,0,0,0,0,0,0,3,0,0,0,0,0,7,5,7,8,5,10,17,2,1,1,1,0,0,0,0,0,0,0,0,0,0,0,0,0,0,0,0,
0,0,0,0,0,29,0,43,35,0,0,0,0,0,0,0,0,0,0,0,0,0,0,0,0,0,0,0,0,0,0,6,2,0,0,0,5,6,10,6,13,5,4,19,2,4,0,0,0,0,0,0,0,0,0,0,0,0,0,0,0,0,0,31,
0,0,0,0,0,0,40,0,42,44,0,0,0,0,0,0,0,0,0,0,0,0,0,0,0,0,0,0,0,0,0,3,0,0,0,1,8,8,7,7,15,4,21,3,3,3,2,2,0,0,0,0,0,0,0,0,0,0,0,0,0,0,0,0,
0,0,0,0,0,9,36,0,0,43,0,0,0,0,0,0,0,0,0,0,0,0,0,0,0,0,0,0,0,0,0,0,0,0,0,1,3,8,6,5,7,22,6,7,4,3,2,0,1,0,0,0,0,0,0,0,0,0,0,0,0,0,0,33,
0,0,0,0,0,15,45,0,0,36,0,0,42,0,0,0,0,0,0,0,0,0,0,0,0,0,0,0,0,0,0,0,0,0,0,3,0,4,8,2,46,13,3,7,1,2,0,0,0,0,0,0,0,0,0,0,0,0,0,0,0,0,0,0,
28,0,0,0,0,32,0,43,0,39,0,0,37,0,0,0,0,0,0,0,0,0,0,0,0,0,0,0,0,0,0,7,1,0,0,7,1,7,8,8,8,7,4,6,3,6,3,0,0,0,0,0,0,0,0,0,0,0,0,0,0,0,0,32,
0,0,0,0,0,0,36,43,0,36,0,0,37,0,0,0,0,0,0,0,0,0,0,0,0,0,0,0,0,0,5,0,0,3,0,0,5,7,8,7,9,6,6,4,3,2,0,0,0,0,0,0,0,0,0,0,0,0,0,0,0,0,0,26,
0,0,0,0,0,37,0,0,41,0,0,0,0,0,0,0,0,0,0,0,0,0,0,0,0,0,0,0,0,0,0,3,0,0,0,0,1,8,7,7,14,5,6,2,3,47,1,0,0,0,0,0,0,0,0,0,0,0,0,0,0,0,0,28,
0,0,0,0,0,9,39,0,0,48,0,0,0,0,0,0,0,0,0,0,0,0,0,0,0,0,0,0,0,0,0,0,0,0,4,0,7,8,6,7,3,7,12,3,48,2,4,2,0,0,0,0,0,0,0,0,0,0,0,0,0,0,0,30,
0,0,0,0,0,0,0,0,47,0,13,0,0,0,0,0,0,0,0,0,0,0,0,0,0,0,0,0,0,0,0,0,0,0,0,0,2,6,9,8,8,3,8,5,48,2,2,0,0,0,0,0,0,0,0,0,0,0,0,0,0,0,0,23,
0,0,0,0,0,39,0,0,0,48,0,0,0,0,0,0,0,0,0,0,0,0,0,0,0,0,0,0,0,0,0,6,0,0,0,0,0,2,7,5,46,5,5,6,5,0,1,0,0,0,0,0,0,0,0,0,0,0,0,0,0,0,0,25,
0,0,0,0,0,12,0,0,34,0,0,0,0,0,0,0,0,0,0,0,0,0,0,0,0,0,0,0,0,0,0,11,0,0,0,0,7,7,8,48,7,7,7,5,3,3,2,0,0,0,0,0,0,0,0,0,0,0,0,0,0,0,0,0,
33,0,0,0,0,0,46,0,0,41,0,0,0,0,0,0,0,0,0,0,0,28,0,0,0,0,0,0,0,0,1,0,0,0,0,0,8,7,8,47,8,4,9,3,3,1,2,0,0,0,0,0,0,0,0,0,0,0,0,0,0,0,0,0,
35,0,0,0,0,24,19,0,0,0,37,0,48,0,0,0,0,0,0,0,0,0,0,0,0,0,0,0,0,0,8,0,0,0,0,5,6,5,7,48,5,3,7,3,3,2,0,2,0,0,0,0,0,0,0,0,0,0,0,0,0,0,0,0,
34,0,0,0,0,41,0,0,0,36,0,14,0,0,46,0,0,0,0,0,0,0,0,0,0,0,0,0,0,0,0,0,0,6,0,0,7,8,6,48,8,6,4,10,3,6,2,0,0,0,0,0,0,0,0,0,0,0,0,0,0,0,0,33,
0,0,0,0,0,0,44,0,0,28,0,0,0,0,48,0,0,0,0,0,0,0,0,0,0,0,0,0,0,0,0,0,0,0,0,0,4,6,5,11,48,8,3,5,4,2,3,0,0,0,0,0,0,0,0,0,0,0,0,0,0,0,0,0,
30,0,0,0,0,0,42,0,0,31,0,0,0,46,0,0,0,0,0,0,0,0,0,0,0,0,0,0,0,0,4,0,0,0,4,1,2,8,7,9,48,7,6,3,3,2,3,0,2,0,0,0,0,0,0,0,0,0,0,0,0,0,0,36,
0,0,0,0,0,0,30,42,0,39,47,0,0,0,0,0,0,0,0,0,0,0,0,0,0,0,0,0,0,0,8,0,0,0,0,2,1,6,7,8,8,6,48,4,4,3,5,1,0,0,0,0,0,0,0,0,0,0,0,0,0,0,0,0,
0,0,0,0,0,0,44,0,0,0,48,0,0,0,0,0,0,0,0,0,0,0,0,0,0,0,0,0,0,0,5,0,0,5,1,5,6,3,9,6,48,6,4,12,3,3,0,0,1,0,0,0,0,0,0,0,0,0,0,0,0,0,0,0,
29,0,0,0,0,0,45,0,0,0,40,0,0,0,0,0,0,0,0,0,0,0,0,0,0,0,0,0,0,0,9,0,0,3,0,4,2,7,6,7,48,6,6,7,4,2,3,0,0,0,0,0,0,0,0,0,0,0,0,0,0,0,0,27,
0,0,0,0,0,32,0,0,0,11,0,0,0,48,0,0,0,0,0,0,0,0,0,0,0,0,0,0,0,0,0,7,2,3,0,3,2,8,6,8,48,8,5,7,3,2,2,0,2,0,0,0,0,0,0,0,0,0,0,0,0,0,0,0,
30,0,0,0,0,34,0,36,34,0,0,0,0,0,0,48,0,0,0,0,0,0,0,0,0,0,0,0,0,0,0,0,1,0,0,4,0,8,7,48,8,5,4,6,5,3,2,0,0,0,0,0,0,0,0,0,0,0,0,0,0,0,0,35,
0,0,0,0,0,17,30,41,0,35,0,0,0,0,0,0,0,0,0,0,0,0,0,0,0,0,0,0,0,0,0,0,0,0,0,0,7,8,7,7,8,4,15,5,3,3,0,1,1,0,0,0,0,0,0,0,0,0,0,0,0,0,0,34,
0,0,0,0,0,0,40,0,0,0,0,0,0,0,0,0,0,0,46,0,0,0,0,0,0,0,0,0,0,0,0,0,0,0,0,0,3,8,5,7,7,6,4,8,5,2,2,2,0,0,0,0,0,0,0,0,0,0,0,0,0,0,0,28,
0,0,0,0,0,35,0,0,0,42,0,48,0,0,0,0,0,0,0,0,0,0,0,0,0,0,0,0,0,0,0,0,0,0,0,0,1,4,9,7,7,5,12,7,3,3,0,0,0,0,0,0,0,0,0,0,0,0,0,0,0,0,0,0,
28,0,0,0,0,0,39,0,0,30,0,0,0,0,48,0,0,0,0,0,0,0,0,0,0,0,0,0,0,0,6,0,0,0,0,3,0,8,8,5,48,5,7,4,4,5,1,1,0,0,0,0,0,0,0,0,0,0,0,0,0,0,0,25,
0,0,0,0,0,27,37,0,40,0,0,0,0,0,48,0,0,0,3,0,0,0,0,0,0,0,0,0,0,1,0,0,3,0,0,0,5,8,9,7,48,5,12,4,3,2,2,0,0,0,0,0,0,0,0,0,0,0,0,0,0,0,0,0,
29,0,0,0,0,0,39,0,39,47,0,0,0,0,0,0,0,0,0,0,0,0,0,0,0,0,0,0,0,0,0,0,0,0,0,0,3,7,7,6,4,8,6,48,3,3,2,1,0,0,0,0,0,0,0,0,0,0,0,0,0,0,0,0,
30,0,0,0,0,33,0,0,42,29,48,14,0,0,0,0,0,0,0,0,0,0,0,0,0,0,0,0,0,0,0,3,0,0,3,0,2,7,7,9,48,7,5,4,4,3,0,0,3,0,0,0,0,0,0,0,0,0,0,0,0,0,0,0,
34,0,0,0,0,0,0,0,0,41,0,0,0,48,0,0,0,0,0,0,0,0,0,0,0,0,0,0,0,0,5,0,0,0,0,0,0,7,46,8,7,7,5,9,4,1,0,2,1,0,0,0,0,0,0,0,0,0,0,0,0,0,28,0,
0,0,0,0,0,27,0,41,40,0,0,0,0,0,0,0,0,0,0,0,0,0,0,0,0,0,0,0,0,0,0,7,0,0,0,6,2,6,8,7,8,12,5,7,3,2,3,0,0,0,0,0,0,0,0,0,0,0,0,0,0,0,0,32,
0,0,0,0,0,38,0,0,0,37,0,0,0,0,0,0,0,0,0,0,0,0,36,0,0,0,0,0,0,0,0,5,0,0,0,0,0,7,7,7,5,6,7,3,1,3,6,6,0,0,0,0,0,0,0,0,0,0,0,0,0,0,0,36,
0,0,0,0,0,44,0,0,8,0,39,0,0,48,0,0,0,0,0,0,0,0,0,0,0,0,0,0,0,0,0,5,0,3,0,9,2,6,8,6,48,4,5,3,7,2,2,1,0,0,0,0,0,0,0,0,0,0,0,0,0,0,0,0,
0,0,0,0,0,0,32,0,41,39,0,0,0,0,0,48,0,0,0,0,0,0,0,0,0,0,0,0,0,0,5,2,0,5,0,5,7,7,10,5,48,8,4,5,4,7,4,0,0,0,0,0,0,0,0,0,0,0,0,0,0,0,0,35,
0,0,0,0,0,31,0,37,0,0,0,0,0,0,0,0,0,0,0,0,0,47,0,0,0,0,0,0,0,0,0,2,0,2,0,2,3,5,7,6,8,48,5,4,3,4,0,0,0,0,0,0,0,0,0,0,0,0,0,0,0,0,0,33,
0,0,0,0,0,19,35,0,41,17,48,0,0,0,0,0,0,0,0,0,0,0,0,0,0,0,0,0,0,0,0,2,0,0,0,7,1,7,7,5,8,7,7,6,5,1,0,4,0,0,0,0,0,0,0,0,0,0,0,2,0,0,0,0,
29,0,0,0,0,37,0,0,31,0,0,0,10,0,0,0,0,0,0,0,32,0,0,0,0,0,0,0,0,0,0,0,0,0,0,3,0,8,7,39,8,8,3,7,4,2,3,0,0,0,0,0,0,0,0,0,0,0,0,0,0,0,0,37,
0,0,0,0,0,16,36,0,0,0,0,0,0,0,0,10,0,0,0,0,0,0,0,0,0,0,0,0,0,0,0,0,0,0,0,0,7,4,12,8,8,7,11,8,4,2,0,2,0,0,0,0,0,0,0,0,0,0,0,0,0,0,0,0,
34,0,0,0,0,0,38,0,26,0,17,0,0,0,0,0,0,0,0,0,0,0,0,0,0,0,0,0,0,0,7,0,0,0,0,0,0,8,6,7,7,6,5,7,1,4,2,2,0,0,0,0,0,0,0,0,0,0,0,0,0,0,0,0,
