0,0,0,10,0,0,42,0,11,0,43,0,0,0,0,0,0,0,0,0,0,0,0,0,0,0,0,0,0,0,0,0,0,0,0,4,7,8,9,12,10,8,3,9,8,5,0,0,0,0,0,0,0,0,0,0,0,0,0,0,0,0,0,17,
0,0,0,0,13,0,37,37,11,36,0,0,0,44,0,0,0,0,0,0,0,0,0,0,0,0,0,0,0,5,0,0,2,0,5,8,14,8,13,9,48,7,13,13,1,2,0,0,0,0,0,0,0,0,0,0,0,0,0,0,0,0,0,0,
0,0,0,0,15,37,0,39,10,0,0,0,0,0,0,0,0,47,7,0,0,0,0,0,0,0,0,0,0,0,0,0,0,0,10,0,5,7,10,47,0,7,7,10,4,6,0,0,0,0,0,0,0,0,0,0,0,0,0,0,0,0,0,0,
25,0,0,0,0,0,43,0,0,32,0,0,0,0,0,41,0,0,0,0,0,0,0,0,0,0,0,0,0,0,0,0,0,0,0,0,8,3,13,12,8,48,5,0,0,0,0,0,5,0,0,0,0,0,0,0,0,0,0,0,0,0,0,20,
0,0,0,0,16,19,0,40,0,0,41,0,0,0,0,0,0,0,0,0,0,0,0,0,0,0,0,0,0,0,0,2,3,8,0,7,7,13,9,46,10,12,5,8,10,4,0,0,0,0,0,0,0,0,0,0,0,0,0,0,0,0,23,0,
0,0,0,0,0,23,0,37,25,0,0,0,7,48,0,0,0,0,0,0,0,0,0,0,0,0,0,0,0,0,0,0,3,0,0,0,0,5,9,10,11,48,7,4,9,9,1,0,0,0,0,0,0,0,0,0,0,0,0,0,0,0,19,0,
0,0,0,8,0,37,9,38,0,0,0,48,0,0,0,0,0,0,0,0,0,0,0,0,0,0,0,0,0,0,0,0,5,0,0,5,0,9,11,9,48,8,5,0,8,6,6,0,0,0,0,0,0,0,0,0,0,0,0,0,0,0,11,0,
0,0,0,12,0,0,43,0,32,0,0,0,0,0,41,0,0,0,0,0,0,0,48,0,0,0,0,0,0,0,0,0,6,0,0,0,8,9,11,21,48,1,12,7,8,0,0,0,0,0,0,0,0,0,0,0,0,0,0,0,0,0,25,0,
0,0,0,0,13,25,32,0,9,0,40,0,0,39,47,0,0,0,0,0,0,0,0,0,0,0,0,0,0,0,0,0,5,5,7,7,8,12,7,16,48,7,9,4,7,0,0,0,0,0,0,0,0,0,0,0,0,0,0,0,0,0,0,22,
0,0,0,0,14,0,40,0,9,0,46,0,0,0,47,0,0,0,0,0,0,0,0,0,0,0,0,0,0,0,0,11,0,0,5,0,10,9,11,48,19,7,3,9,1,6,0,0,0,0,0,0,0,0,0,0,0,0,0,0,0,0,18,0,
0,0,14,0,0,34,0,0,0,41,0,0,0,0,0,0,0,0,0,0,0,0,0,40,0,0,0,0,0,0,5,0,3,0,0,0,8,9,10,10,7,10,8,7,10,8,0,0,0,0,0,0,0,0,0,0,0,0,0,0,0,0,0,0,
24,0,0,0,0,10,37,0,0,33,0,48,0,0,11,0,0,0,0,0,0,0,0,0,0,0,0,0,0,8,0,0,0,0,0,9,10,10,11,47,7,10,12,2,6,7,5,0,0,0,0,0,0,0,0,0,0,0,0,0,0,0,0,18,
0,0,0,0,0,12,43,0,0,0,0,0,0,0,0,0,0,0,0,0,0,0,0,0,0,0,0,0,0,0,0,0,0,0,0,0,0,1,11,11,9,8,8,3,3,6,2,0,0,0,0,0,0,0,0,0,0,0,0,0,0,0,0,19,
0,0,0,0,0,7,23,37,23,0,0,0,41,0,0,0,39,0,0,0,0,0,0,0,0,0,0,0,0,0,0,1,0,0,0,8,5,1,16,10,10,48,0,9,3,0,0,0,0,0,0,0,0,0,0,0,0,0,0,0,0,0,0,17,
0,0,0,0,0,21,0,35,0,44,0,48,0,0,0,0,0,0,0,0,0,0,0,0,0,0,0,0,0,0,0,0,3,0,2,0,7,7,9,46,12,10,8,1,6,3,0,0,0,0,0,0,0,0,0,0,0,0,0,0,0,0,0,19,
0,0,0,0,0,33,0,36,8,0,39,0,0,0,0,44,0,0,0,0,0,0,0,0,0,0,0,0,0,0,0,6,0,4,7,6,8,7,10,5,9,48,10,5,5,7,0,0,0,0,0,0,0,0,0,0,0,0,0,0,0,0,21,0,
0,0,0,0,17,35,0,38,0,0,38,0,4,0,0,48,0,0,0,0,0,0,0,0,0,0,0,0,0,0,0,0,3,0,0,6,8,9,39,8,10,6,9,7,0,7,1,0,0,0,0,0,0,0,0,0,0,0,0,0,0,0,19,0,
0,0,0,0,0,0,0,32,0,0,39,0,0,0,0,0,0,0,0,0,0,0,0,0,0,0,0,0,0,0,0,0,0,0,4,7,7,10,8,8,8,3,8,8,7,6,0,0,0,0,0,0,0,0,0,0,0,0,0,0,0,0,0,15,
0,0,0,0,0,12,39,0,13,0,36,0,0,4,0,0,0,0,0,0,0,0,0,0,0,0,0,0,0,0,0,0,3,0,8,0,3,7,9,8,8,9,10,11,6,9,5,0,0,0,0,0,0,0,0,0,0,0,0,0,0,0,0,0,
0,0,0,0,14,41,0,9,0,0,35,0,0,0,0,0,0,0,0,0,0,0,0,0,0,0,0,0,0,0,0,0,9,5,0,0,8,8,13,11,9,10,48,8,8,2,0,0,0,0,0,0,0,0,0,0,0,0,0,0,0,0,0,23,
0,0,0,0,11,0,40,19,0,0,39,48,0,0,0,0,0,0,0,0,0,0,0,0,0,0,0,0,0,0,0,0,0,6,0,9,4,10,10,12,8,2,12,8,2,3,0,0,0,0,0,0,0,0,0,0,0,0,0,0,0,0,0,0,
21,0,0,0,0,36,0,39,6,34,0,0,0,0,41,0,0,0,47,0,0,0,0,0,0,0,0,0,0,0,0,5,2,0,0,0,12,12,9,47,30,8,9,10,8,9,0,0,0,0,0,0,0,0,0,0,0,0,0,0,0,0,19,0,
0,0,0,12,0,0,32,35,0,28,0,0,0,0,0,0,0,0,0,0,0,0,0,0,0,0,0,0,0,0,7,0,0,3,0,0,8,12,15,8,9,14,1,8,0,2,0,0,0,0,0,0,0,0,0,0,0,0,0,0,0,0,17,0,
0,0,0,9,0,0,39,14,0,0,34,0,0,0,0,0,0,0,0,0,0,0,0,0,0,0,0,0,0,0,0,0,0,0,8,3,10,8,8,14,10,6,11,7,1,0,0,0,0,0,0,0,0,0,0,0,0,0,0,0,0,0,0,19,
0,0,0,0,0,7,43,0,8,30,0,0,0,0,0,0,41,0,0,0,0,0,0,0,35,0,0,0,0,0,0,2,0,0,0,7,8,8,7,23,10,6,48,8,0,0,0,0,0,0,0,0,0,0,0,0,0,0,0,0,0,0,20,0,
0,0,0,0,0,37,0,36,0,0,48,0,0,0,43,0,0,0,0,0,0,0,0,0,0,0,0,0,0,0,0,2,3,7,6,0,10,14,10,14,31,48,9,1,6,3,0,0,0,0,0,0,0,0,0,0,0,0,0,0,0,0,0,17,
0,0,0,0,15,0,0,16,0,0,42,0,48,0,0,0,0,0,0,0,0,0,0,0,0,0,0,0,0,0,9,0,0,5,0,7,5,7,33,15,3,0,4,10,7,0,0,0,0,0,0,0,0,0,0,0,0,0,0,0,0,0,0,28,
0,0,0,0,0,24,39,0,35,0,0,0,0,0,0,0,0,0,0,0,0,0,0,0,0,0,0,0,0,0,0,0,0,0,0,0,0,5,8,10,10,0,6,3,8,0,0,0,0,0,0,0,0,0,0,0,0,0,0,0,0,0,0,14,
0,0,0,0,0,12,34,0,8,44,0,0,0,0,6,0,0,0,0,0,0,0,0,0,0,0,0,0,0,0,0,0,0,0,0,8,9,8,9,9,14,8,1,6,2,0,0,0,0,0,3,0,0,0,0,0,0,0,0,0,0,0,7,0,
0,8,0,0,0,34,37,0,8,0,0,44,0,0,0,0,0,0,0,0,0,0,0,0,0,0,0,0,0,0,0,0,4,7,9,0,8,13,9,6,9,2,10,8,0,5,0,0,0,0,0,0,0,0,0,0,0,0,0,0,0,0,0,15,
0,0,0,0,0,0,40,42,8,0,0,11,0,0,0,0,0,0,0,0,0,0,0,0,0,0,0,0,0,7,0,4,0,4,6,4,6,12,8,13,7,8,12,10,2,0,0,0,0,0,0,0,0,0,0,0,0,0,0,0,0,0,0,0,
0,0,0,8,0,0,44,0,13,0,44,0,0,0,0,0,0,0,0,0,0,0,0,0,0,0,0,0,0,0,0,0,0,5,0,5,6,8,8,8,27,9,8,11,3,0,0,0,0,0,0,0,0,0,0,0,0,0,0,0,0,0,0,22,
0,0,0,0,0,15,23,39,10,0,0,0,0,0,0,0,0,0,0,0,0,0,0,0,0,0,0,0,0,0,0,3,0,6,6,5,8,10,9,8,24,6,8,7,0,5,0,0,0,0,0,0,0,0,0,0,0,0,0,0,0,0,0,20,
0,0,0,0,15,0,19,39,27,0,0,0,0,46,0,0,0,0,0,0,0,0,0,0,0,0,0,0,0,0,0,3,0,0,0,0,0,4,12,8,11,10,8,1,6,7,0,0,0,0,0,0,0,0,0,0,0,0,0,0,0,0,0,0,
0,0,0,0,0,0,35,0,41,33,0,0,0,0,0,0,0,0,0,0,0,0,0,0,0,0,0,0,0,0,1,3,0,0,0,0,7,7,9,8,9,9,9,8,0,0,0,0,0,0,0,0,0,0,0,0,0,0,0,0,0,0,0,19,
0,0,0,0,10,20,37,14,0,33,0,0,0,0,0,0,0,0,0,0,0,0,0,0,0,0,0,0,0,0,1,0,0,0,0,7,5,7,8,9,10,8,5,0,2,4,0,0,0,0,0,0,0,0,0,0,0,0,0,0,0,0,0,12,
0,0,0,0,15,35,0,41,0,39,0,0,0,0,0,0,0,0,0,0,0,0,0,0,0,0,0,0,0,0,5,0,0,0,0,7,8,3,9,10,8,10,0,6,0,8,0,0,0,0,0,0,0,0,0,0,0,0,0,0,0,0,0,17,
0,0,0,0,19,39,0,0,0,0,0,0,0,0,0,0,0,0,0,0,0,0,0,0,0,0,0,0,0,0,0,0,0,2,2,10,7,7,9,10,6,10,10,3,7,0,0,0,0,0,0,0,0,0,0,0,0,0,0,0,0,0,19,0,
0,0,0,0,16,0,41,0,0,0,0,0,41,0,0,0,0,0,0,0,0,0,0,0,0,0,0,0,0,0,0,0,1,0,0,6,10,9,11,21,12,10,10,9,2,2,4,0,0,0,0,0,0,0,0,0,0,0,0,0,0,0,20,0,
0,0,0,0,14,0,0,21,0,0,45,0,0,0,0,0,0,0,0,0,0,0,0,0,0,0,0,0,0,0,0,0,0,0,6,7,7,8,10,9,7,9,8,8,11,0,0,0,0,0,0,0,0,0,0,0,0,0,0,0,0,0,7,0,
0,0,14,0,0,0,45,0,10,0,0,47,0,0,0,0,0,0,0,0,0,0,0,0,0,0,0,0,0,0,4,0,8,7,0,8,8,9,10,21,9,8,10,7,7,5,0,0,0,0,0,0,0,0,0,0,0,0,0,0,0,0,0,21,
0,0,0,0,0,23,35,0,6,0,0,0,0,0,0,0,41,0,0,0,0,0,0,0,0,0,0,0,2,0,0,0,0,5,7,0,10,10,9,9,10,41,7,8,9,0,0,0,0,0,0,0,0,0,0,0,0,0,0,0,0,0,0,12,
0,0,0,0,10,0,43,0,0,0,0,0,0,0,0,0,0,0,0,0,0,0,0,0,0,0,0,0,0,0,0,0,0,0,0,5,8,10,11,11,26,8,9,7,7,3,0,0,0,0,0,0,0,0,0,0,0,0,0,0,0,0,0,11,
0,0,0,0,0,38,0,39,0,0,0,44,0,0,0,0,0,0,0,0,0,0,0,0,0,0,0,0,0,0,0,3,7,7,0,7,7,10,10,7,8,9,12,0,2,1,0,0,0,0,0,0,0,0,0,0,0,0,0,0,0,0,0,17,
0,0,0,0,0,13,12,41,0,8,0,0,0,0,0,0,0,0,0,0,0,0,0,0,0,0,0,0,0,0,0,0,2,5,7,5,7,7,9,9,9,10,7,0,6,7,0,0,0,18,0,0,0,0,0,0,0,0,0,0,0,0,8,0,
0,0,24,0,0,37,0,32,0,46,0,0,12,0,0,0,0,0,0,0,0,0,0,0,0,0,0,0,0,0,0,0,2,2,0,0,0,10,9,11,11,10,3,7,7,1,0,0,0,0,0,0,0,0,0,0,0,0,0,0,0,0,0,30,
0,0,0,0,14,35,0,0,18,0,37,0,0,44,0,0,0,0,0,0,0,0,0,0,0,0,0,0,0,0,0,0,2,5,6,7,9,12,8,8,10,3,11,9,8,8,0,0,0,0,0,0,0,0,0,0,0,0,0,0,0,0,0,0,
14,0,0,0,0,33,39,0,0,0,0,0,40,0,0,0,0,0,0,0,0,0,0,0,0,0,0,0,0,0,0,0,3,7,1,5,8,7,8,9,6,10,8,39,4,1,0,0,0,0,0,0,0,0,0,0,0,0,0,0,0,0,0,0,
0,0,0,0,0,29,44,39,0,0,37,0,0,0,0,0,0,0,0,0,0,0,0,0,0,0,0,0,0,0,0,0,0,2,9,0,7,8,9,10,9,10,22,6,6,0,4,0,0,0,0,0,0,0,0,0,0,0,0,0,0,0,0,21,
0,0,0,0,11,36,39,0,9,0,0,47,0,0,0,0,0,0,0,0,0,0,0,0,0,0,0,0,0,0,0,0,4,8,0,5,7,9,9,10,27,6,8,3,5,8,0,0,0,0,0,0,0,0,0,0,0,0,0,0,0,0,0,0,
