33,0,0,0,0,0,0,39,0,39,0,0,0,0,0,0,0,0,0,0,0,0,0,0,0,0,0,0,0,0,0,0,0,0,0,0,9,7,10,9,9,12,8,12,7,7,6,0,0,0,0,0,0,0,0,0,0,0,0,0,0,0,0,0,
23,0,0,0,0,23,0,42,36,0,0,0,0,0,0,9,0,0,0,0,0,0,0,0,0,0,0,0,0,0,0,0,0,5,0,0,0,9,9,8,10,9,7,6,13,6,0,0,0,0,0,0,0,0,0,0,0,0,0,0,0,0,0,0,
28,0,0,0,0,0,0,0,35,0,0,0,0,0,0,39,0,0,0,0,0,0,0,0,0,0,0,0,0,0,0,0,0,0,6,0,0,9,8,10,9,5,11,6,8,6,5,0,0,0,0,0,0,0,0,0,0,0,0,0,0,0,0,0,
0,0,0,0,0,30,35,0,0,40,0,0,0,0,0,0,0,0,0,0,0,0,0,0,0,0,0,0,0,0,0,0,0,0,0,0,8,11,11,10,9,5,5,10,8,6,7,0,0,0,0,0,0,0,0,0,0,0,0,0,0,0,0,34,
0,0,0,0,0,18,0,40,0,0,0,0,0,0,0,0,0,0,0,0,0,0,0,0,0,0,0,0,0,0,0,0,1,0,0,5,0,10,9,11,12,10,7,12,7,5,0,0,0,0,0,0,0,0,0,0,0,0,0,0,0,0,0,33,
0,0,0,0,0,21,18,39,0,36,0,0,0,0,0,0,0,0,0,0,0,0,0,0,0,0,0,0,0,0,0,0,0,0,0,4,8,9,10,12,9,9,7,11,7,7,5,0,0,0,0,0,0,0,0,0,0,0,0,0,0,0,0,24,
0,0,0,0,0,24,39,0,0,29,0,0,0,0,0,0,0,0,0,0,0,0,0,0,0,0,0,0,0,0,0,3,0,0,0,0,3,8,9,10,9,10,8,14,7,5,0,0,0,0,0,0,0,0,0,0,0,0,0,0,0,0,0,30,
0,0,0,0,0,32,0,0,45,12,0,0,0,0,0,0,0,0,0,0,0,0,0,0,0,0,0,0,0,0,0,0,5,0,0,3,1,10,11,8,8,9,8,12,7,6,5,0,0,0,0,0,0,0,0,0,0,0,0,0,0,0,28,0,
0,0,0,16,0,0,0,39,0,0,43,0,0,0,0,0,0,0,0,0,0,0,0,0,0,0,0,0,0,0,0,0,0,4,4,8,0,10,8,8,10,7,8,10,6,9,0,0,0,0,0,0,0,0,0,0,0,0,0,0,0,0,0,35,
0,0,0,0,0,12,43,0,0,12,0,0,46,0,0,0,0,0,0,0,0,0,0,0,0,0,0,0,0,0,1,0,6,7,5,0,8,9,9,18,12,8,14,8,6,5,0,0,0,0,0,0,0,0,0,0,0,0,0,0,0,0,0,0,
0,0,0,0,0,36,0,39,0,36,0,0,0,0,0,0,0,0,0,0,0,0,0,0,0,0,0,0,0,0,0,0,0,0,0,0,0,11,12,11,9,6,7,8,12,6,0,0,0,0,0,0,0,0,0,0,0,0,0,0,0,0,0,30,
0,0,0,0,0,21,35,18,10,0,0,42,0,0,0,0,0,0,0,0,0,0,0,0,0,0,0,0,0,0,0,0,4,7,0,1,7,7,10,8,7,9,10,12,7,4,7,0,0,0,0,0,0,0,0,0,0,0,0,0,0,0,33,0,
0,0,0,0,22,35,0,40,31,0,0,0,0,0,0,0,0,0,0,0,0,0,0,0,0,0,0,0,0,0,0,0,0,0,0,0,0,5,12,7,11,11,10,5,7,6,0,0,0,0,0,0,0,0,0,0,0,0,0,0,0,0,0,29,
0,0,0,0,0,36,0,37,0,0,0,0,0,0,0,0,0,0,0,0,0,0,0,0,0,0,0,0,0,0,0,0,0,0,0,4,4,8,8,10,11,7,11,16,8,5,0,0,0,0,0,0,0,0,0,0,0,0,0,0,0,0,0,27,
0,0,0,0,0,17,40,0,0,35,0,0,0,0,0,0,0,0,0,0,0,0,0,0,0,0,0,0,0,0,0,0,0,0,0,0,9,10,9,8,7,10,9,14,6,6,0,4,0,0,0,0,0,0,0,0,0,0,0,0,0,0,0,0,
32,0,0,0,0,31,0,41,26,0,0,0,0,0,0,37,0,0,0,0,0,0,0,0,0,0,0,0,0,0,0,0,5,0,0,0,0,3,11,8,33,8,7,14,5,5,4,0,0,0,0,0,0,0,0,0,0,0,0,0,0,0,0,24,
0,0,0,0,12,39,40,0,8,0,46,0,0,0,0,0,0,0,0,0,0,0,0,0,0,0,0,0,0,0,0,0,5,1,0,5,7,7,7,9,9,7,9,7,7,5,5,0,0,0,0,0,0,0,0,0,0,0,0,0,0,0,0,35,
0,0,0,0,11,0,19,0,28,0,0,0,0,0,0,0,0,0,0,0,0,0,0,0,0,0,0,0,0,0,0,0,0,4,0,0,1,2,7,13,11,6,8,7,6,5,5,0,0,0,0,0,0,0,0,0,0,0,0,0,0,0,0,28,
0,0,0,0,0,21,41,0,0,33,0,0,0,0,0,0,0,0,0,0,0,0,0,0,0,0,0,0,0,0,0,0,0,0,0,0,4,8,9,8,8,8,9,12,7,6,3,0,0,0,0,0,0,0,0,0,0,0,0,0,0,0,0,32,
0,0,0,0,0,12,29,38,0,41,0,0,0,0,0,0,0,0,0,0,0,0,0,0,0,0,0,0,0,0,0,0,0,0,0,5,1,10,10,9,7,9,7,9,5,5,0,0,0,0,0,0,0,0,0,0,0,0,0,0,0,0,0,34,
0,0,0,0,0,41,37,0,0,36,0,0,0,0,0,0,0,0,0,0,0,0,0,0,0,0,0,0,0,0,0,0,0,0,0,1,3,12,10,8,9,9,11,11,7,5,4,0,0,0,0,0,0,0,0,0,0,0,0,0,0,0,0,29,
0,0,0,0,0,33,0,39,39,0,0,0,0,0,0,0,0,0,0,0,0,0,0,0,0,0,0,0,0,0,0,1,0,5,0,0,5,7,9,10,8,8,7,9,6,4,6,0,0,0,0,0,0,0,0,0,0,0,0,0,0,0,0,24,
0,0,0,0,0,17,0,41,0,14,44,0,0,0,0,0,0,0,0,0,0,0,0,0,0,0,0,0,0,0,1,0,1,0,0,0,0,5,9,16,8,9,6,12,6,6,8,0,0,0,0,0,0,0,0,0,0,0,0,0,0,0,0,0,
29,0,0,0,0,35,37,0,30,0,0,0,0,0,47,0,0,0,0,0,0,0,0,0,0,0,0,0,0,0,0,0,0,0,0,0,0,2,3,25,9,7,7,5,6,5,0,0,0,0,0,0,0,0,0,0,0,0,0,0,0,0,0,33,
0,0,0,0,0,38,0,0,27,0,0,0,0,0,0,0,0,0,0,0,0,0,0,0,0,0,0,0,0,0,0,1,0,0,0,6,0,8,8,11,10,8,8,9,2,5,6,0,0,0,0,0,0,0,0,0,0,0,0,0,0,0,0,29,
0,0,0,0,0,36,0,37,0,42,0,0,0,0,0,0,0,0,0,0,0,0,0,0,0,0,0,0,0,0,0,0,0,0,0,0,6,9,12,10,9,11,6,5,9,0,4,0,0,0,0,0,0,0,0,0,0,0,0,0,0,0,0,30,
0,0,0,0,0,39,0,39,0,0,0,0,0,0,0,0,0,0,0,0,0,0,0,0,0,0,0,0,0,0,0,0,0,0,5,0,7,10,10,8,7,10,8,9,1,5,4,0,0,0,0,0,0,0,0,0,0,0,0,0,0,0,0,0,
0,0,0,0,0,36,0,38,38,0,0,0,0,0,44,0,0,0,0,0,0,0,0,0,0,0,0,0,0,1,0,0,0,0,5,0,0,9,11,16,10,5,12,9,5,6,6,0,0,0,0,0,0,0,0,0,0,0,0,0,0,0,0,0,
31,0,0,0,0,30,0,39,0,41,0,0,0,0,0,0,0,0,0,0,0,0,0,0,0,0,0,0,0,0,1,0,0,0,0,0,3,8,9,10,7,9,8,7,7,4,4,0,0,0,0,0,0,0,0,0,0,0,0,0,0,0,0,27,
0,0,0,0,0,14,39,0,9,0,0,0,46,0,0,0,0,0,0,0,0,0,0,0,0,0,0,0,0,4,0,0,4,0,4,7,9,10,10,11,30,8,10,7,7,5,1,0,0,0,0,0,0,0,0,0,0,0,0,0,0,0,0,0,
28,0,0,0,0,32,0,42,0,33,0,0,0,0,0,0,0,0,0,0,0,0,0,0,0,0,0,0,0,0,0,0,0,0,5,0,5,9,9,10,8,8,10,8,6,6,2,0,0,0,0,0,0,0,0,0,0,0,0,0,0,0,0,0,
35,0,0,0,0,34,41,0,0,0,44,0,0,0,0,0,0,0,0,0,0,0,0,0,0,0,0,0,0,0,0,0,0,0,4,0,6,11,10,10,10,33,15,7,8,5,6,0,0,0,0,0,5,0,0,0,0,0,0,0,0,0,27,0,
0,0,0,0,17,22,0,36,16,0,0,46,0,0,0,0,0,0,0,0,0,0,33,0,0,0,0,0,0,0,0,1,7,0,5,8,8,8,11,24,9,10,9,9,6,5,4,0,0,0,0,0,0,0,0,0,0,0,0,0,0,0,0,0,
0,0,0,0,0,0,36,0,0,10,43,0,46,0,0,0,0,0,0,0,0,0,0,0,0,0,0,0,0,0,0,0,6,5,7,4,10,10,10,15,9,47,12,8,7,6,7,0,0,0,0,0,0,0,0,0,0,0,0,0,0,0,0,31,
0,0,0,0,0,41,0,0,0,31,0,48,0,0,0,0,0,0,0,0,0,0,0,0,0,0,0,0,0,0,0,0,0,0,1,0,9,11,9,47,11,9,8,8,7,5,5,0,0,0,0,0,0,0,0,0,0,0,0,0,0,0,0,21,
0,0,0,0,0,37,0,0,0,0,0,0,0,0,0,0,0,0,40,0,0,0,0,0,0,0,0,0,0,0,0,1,0,4,0,9,8,9,12,11,9,7,10,9,6,7,6,0,0,0,0,0,0,0,0,0,0,0,0,0,0,0,0,27,
0,0,0,0,0,14,40,0,9,0,0,0,41,0,0,0,0,0,0,0,0,0,0,0,0,0,0,0,0,0,0,0,6,7,6,1,9,9,9,47,10,10,10,9,13,6,7,0,0,0,0,0,0,0,0,0,0,0,0,0,0,0,0,30,
0,0,0,0,0,33,0,0,0,0,32,0,0,0,0,0,0,0,0,0,0,0,0,0,0,0,0,0,0,0,0,0,0,0,0,0,0,6,10,10,9,10,48,7,5,8,1,0,0,0,0,0,0,0,0,0,0,0,0,0,0,0,0,0,
25,0,0,0,0,0,0,40,0,40,48,0,0,0,0,0,0,0,0,0,0,0,0,0,0,0,0,0,0,0,1,0,0,0,0,0,8,7,8,8,48,7,10,10,5,6,0,0,0,0,0,0,0,0,0,0,0,0,0,0,0,0,0,16,
0,0,0,0,0,30,0,36,0,33,0,0,48,0,0,0,0,0,0,0,0,0,0,0,0,0,0,0,0,0,0,0,0,0,0,3,4,8,46,10,9,7,9,16,6,6,0,0,0,0,0,0,0,0,0,0,0,0,0,0,0,0,0,0,
20,0,0,0,0,35,41,0,26,0,0,0,0,10,0,0,0,0,0,0,0,0,0,0,0,0,0,0,0,0,0,0,3,0,0,2,5,12,10,8,9,9,6,13,8,5,5,0,0,0,0,0,0,0,0,0,0,0,0,0,0,0,0,21,
0,0,0,0,0,26,0,42,36,0,0,0,0,0,0,0,0,0,37,0,0,0,0,0,0,0,0,0,0,0,0,0,2,0,0,0,0,8,9,9,10,48,9,13,8,8,4,0,0,0,0,0,0,0,0,0,0,0,0,0,0,0,0,0,
0,0,0,0,14,20,37,27,0,0,0,8,0,0,0,0,0,0,0,0,0,0,0,0,0,0,0,0,0,0,0,0,0,0,1,0,3,3,7,10,48,6,8,6,7,6,5,0,0,0,0,0,0,0,0,0,0,0,0,0,0,0,0,0,
0,0,0,0,0,25,0,0,0,0,0,0,0,48,0,0,0,0,0,0,0,0,0,0,0,0,0,0,0,0,0,0,0,0,0,1,5,8,9,48,10,11,11,6,6,0,3,0,0,0,0,0,0,0,0,0,0,0,0,0,0,0,0,28,
0,0,0,0,6,33,0,41,26,0,0,0,48,0,0,0,0,0,0,0,0,0,0,0,0,0,0,0,0,0,0,0,0,0,0,5,0,8,9,47,11,11,14,8,6,6,4,0,0,0,0,0,0,0,0,0,0,0,0,0,0,0,0,0,
0,0,0,0,0,21,0,0,38,0,0,0,0,47,0,0,0,0,0,0,0,0,0,0,0,0,0,0,0,0,0,0,4,0,0,0,0,9,8,47,8,8,8,4,6,7,0,6,0,0,0,0,0,0,0,0,0,0,0,0,0,0,0,25,
0,0,0,0,0,29,0,0,10,0,0,39,0,0,0,0,0,0,0,0,0,0,0,0,0,0,0,0,0,0,0,1,6,3,7,0,8,8,9,8,10,9,48,10,7,8,7,0,0,0,0,0,0,0,0,0,0,0,0,0,0,0,0,0,
25,0,0,0,0,0,0,0,42,39,48,0,0,0,0,0,0,0,0,0,0,0,0,0,0,0,0,0,0,0,0,5,0,1,0,5,6,8,12,44,11,6,9,12,7,5,5,0,0,0,0,0,0,0,0,0,0,0,0,0,0,0,0,28,
0,0,0,0,7,31,0,39,0,0,40,0,0,8,0,0,0,0,0,47,0,0,0,0,0,0,0,0,0,0,0,0,0,1,7,8,8,8,8,8,11,9,8,12,4,5,3,0,0,0,0,0,0,0,0,0,0,0,0,0,0,0,0,30,
0,0,0,0,0,15,41,0,6,0,0,48,42,0,0,0,0,0,0,0,0,0,0,0,0,0,0,0,0,1,0,0,0,8,0,6,10,9,10,47,8,8,7,9,6,6,7,0,0,0,0,0,0,0,0,0,0,0,0,0,0,0,0,0,
