0,0,0,0,9,0,38,2,0,0,39,0,0,0,0,0,0,0,0,0,0,0,0,0,0,0,0,0,0,3,0,0,0,0,0,0,4,8,9,8,9,8,8,9,7,8,7,0,0,0,0,0,0,0,0,0,0,0,0,0,0,0,0,0,
0,0,0,0,11,22,40,0,29,0,0,40,0,5,0,0,0,0,0,0,0,0,0,0,0,0,0,0,0,3,0,0,0,0,5,1,1,2,11,13,8,7,8,7,5,8,6,0,0,0,0,0,0,0,0,0,0,0,0,0,0,0,0,18,
0,0,0,0,0,11,31,41,8,0,0,47,0,0,0,0,0,0,0,0,0,0,0,0,0,0,0,0,0,0,2,1,0,0,0,0,9,9,9,17,9,9,10,8,6,5,6,0,0,0,0,0,0,0,0,0,0,0,0,0,0,0,0,21,
0,0,0,0,13,0,25,41,0,0,0,0,0,0,0,0,0,0,0,0,0,0,0,0,0,0,0,0,0,0,0,0,2,0,0,0,0,6,10,9,10,8,10,8,5,5,8,0,0,0,0,0,0,0,0,0,0,0,0,0,0,0,0,13,
0,0,0,0,10,0,0,41,0,0,44,0,0,0,0,0,0,0,0,0,0,0,0,0,0,0,0,0,0,0,0,0,0,2,5,0,7,2,7,7,10,11,7,8,9,7,0,0,0,0,0,0,0,0,0,0,0,0,0,0,0,0,10,0,
0,0,0,0,0,32,0,0,38,0,0,0,5,0,0,0,0,0,0,0,0,0,0,0,0,0,0,0,0,0,0,3,0,0,0,0,0,3,12,9,9,7,9,8,7,8,5,0,3,0,0,0,0,0,0,0,0,0,0,0,0,0,16,0,
0,0,0,8,0,0,45,0,0,30,0,0,0,0,0,0,0,0,0,0,0,0,0,0,0,0,0,0,0,0,0,0,0,0,4,0,4,0,7,10,8,9,8,11,8,7,0,0,0,0,0,0,0,0,0,0,0,0,0,0,0,0,0,0,
0,0,0,5,0,32,0,41,0,0,42,0,0,0,0,0,0,0,0,0,0,0,2,0,0,0,0,0,0,0,1,1,0,0,0,1,0,7,7,7,12,7,24,8,9,7,5,0,0,0,0,0,0,0,0,0,0,0,0,0,0,0,0,13,
0,0,0,0,0,0,32,16,0,0,35,0,0,0,0,0,0,0,0,0,0,0,0,0,0,0,0,0,0,0,2,0,0,0,0,0,5,10,9,8,20,8,7,8,7,3,3,1,0,0,0,0,0,0,0,0,0,0,0,0,0,0,0,16,
0,0,0,0,0,14,38,0,27,0,0,37,1,0,0,0,0,0,0,0,0,0,0,0,0,0,0,0,0,0,2,0,0,0,0,0,0,3,4,9,9,8,7,10,5,5,0,6,0,0,0,0,0,0,0,0,0,0,0,0,0,0,15,0,
0,0,0,13,0,32,41,8,0,0,44,26,0,0,0,0,0,0,0,0,0,0,0,0,0,0,0,0,0,0,0,0,0,0,0,0,7,7,9,37,13,10,9,9,6,7,0,3,0,0,1,0,0,0,0,0,0,0,0,0,0,0,0,17,
0,0,0,0,11,0,37,0,0,1,41,0,37,0,0,0,0,0,0,0,0,0,0,0,0,0,0,0,0,1,0,0,0,0,0,0,8,14,9,43,7,7,7,7,10,6,6,0,3,0,0,0,0,0,0,0,0,0,0,0,0,0,21,0,
0,0,0,0,0,16,17,40,0,0,0,47,0,0,0,0,0,0,0,0,0,0,0,0,0,0,0,0,0,0,0,0,0,5,0,0,1,11,8,8,42,8,8,8,7,8,6,0,0,0,0,0,0,0,0,0,0,0,0,0,0,0,0,16,
0,0,0,0,0,38,0,31,0,0,0,47,0,0,0,0,0,0,0,0,0,0,0,0,0,0,0,0,0,0,0,0,2,0,0,0,0,1,8,46,8,10,10,8,8,7,7,0,0,0,0,0,0,0,0,0,0,0,0,0,0,0,19,0,
0,0,0,15,0,0,41,8,0,0,0,0,0,0,0,0,0,0,0,0,0,0,0,0,0,0,0,0,0,0,0,0,0,8,5,5,2,10,10,7,48,8,8,9,6,7,0,0,0,0,0,0,0,0,0,0,0,0,0,0,0,0,19,0,
0,0,0,0,7,0,44,0,0,0,40,0,0,5,0,0,0,0,0,0,0,0,0,0,0,0,0,0,0,0,0,0,4,0,0,0,5,9,7,48,7,7,8,6,7,7,0,0,0,0,0,0,0,0,0,0,0,0,0,0,0,0,11,0,
0,10,0,0,0,12,0,0,30,0,0,0,0,47,0,0,0,0,0,0,0,0,0,0,0,0,0,0,0,0,1,0,2,0,0,0,0,32,1,7,8,7,6,8,6,8,0,0,0,0,0,0,0,0,0,0,0,0,0,0,0,0,0,18,
0,0,0,0,8,29,12,42,0,25,0,0,0,0,0,0,0,0,0,0,0,0,0,0,0,0,0,0,0,0,0,3,0,0,0,0,4,6,4,8,8,9,7,12,5,5,6,0,0,0,0,1,0,0,0,0,0,0,0,0,0,0,0,16,
0,0,0,0,0,24,36,0,11,0,37,0,0,0,0,0,0,0,0,0,0,0,0,0,0,0,0,0,0,0,0,2,0,0,2,5,7,5,9,7,10,8,10,11,5,0,0,0,0,0,0,0,0,0,0,0,0,0,0,0,0,0,0,14,
0,0,0,0,0,37,0,38,7,0,39,0,7,0,0,0,0,0,0,0,0,0,0,0,0,0,0,0,0,5,0,0,2,0,1,0,11,9,8,8,12,8,7,12,7,5,6,0,0,0,0,0,0,0,0,0,0,0,0,0,0,0,0,0,
0,0,0,0,8,23,39,0,0,0,41,0,0,0,0,0,0,0,0,0,0,0,0,0,0,0,0,0,0,0,0,0,2,0,0,0,2,10,13,7,8,8,8,12,11,8,4,0,0,0,0,0,0,0,0,0,0,0,0,0,0,0,0,0,
17,0,0,0,0,11,44,0,10,0,0,0,0,0,0,0,0,0,0,0,0,0,0,0,0,0,0,0,0,0,0,0,0,0,0,0,0,10,8,9,21,11,7,13,8,6,6,0,0,0,0,0,0,0,0,0,0,0,0,0,0,0,22,0,
0,0,3,0,0,22,0,38,39,0,0,0,0,0,0,0,0,0,0,0,0,0,0,0,0,0,0,0,0,0,0,0,0,0,0,1,0,4,8,8,8,9,7,7,7,5,6,0,0,0,0,0,0,0,0,0,0,0,0,0,0,0,0,0,
0,0,0,0,8,0,38,0,8,0,0,46,0,0,0,0,0,1,0,0,0,0,0,0,0,0,0,0,0,0,0,3,1,0,0,0,9,10,8,16,9,11,8,5,9,7,7,0,0,0,0,0,0,0,0,0,0,0,0,0,0,0,17,0,
0,0,7,0,0,0,37,0,0,0,0,46,0,0,0,0,0,0,0,0,0,0,0,0,0,0,0,0,0,0,0,0,0,0,3,1,0,10,10,11,10,8,8,7,11,6,5,0,5,0,0,0,0,0,0,0,0,0,0,0,0,0,16,0,
0,0,19,0,0,0,37,40,30,0,0,0,48,0,0,0,0,0,0,0,0,0,0,0,0,0,0,0,0,1,0,0,0,0,0,0,0,1,6,10,9,7,7,7,5,5,0,0,0,0,0,0,0,0,0,0,0,0,0,0,0,0,19,0,
0,0,0,0,0,0,0,40,0,37,0,0,0,0,0,0,0,0,0,0,0,0,0,0,0,0,0,0,0,0,0,0,0,1,0,0,0,0,8,10,8,9,6,12,5,5,0,0,0,0,0,0,0,0,0,0,0,0,0,0,0,0,0,14,
0,0,0,0,10,0,35,34,0,17,0,0,44,0,0,0,0,0,0,0,0,0,0,0,0,0,0,0,0,0,0,0,4,1,6,0,8,8,8,7,8,7,12,9,7,6,0,0,0,0,0,0,0,0,0,0,0,0,0,0,0,0,0,21,
0,0,0,0,1,41,0,38,39,0,0,0,0,46,0,0,0,0,0,0,0,0,0,0,0,0,0,0,0,0,0,3,0,0,0,0,0,5,7,23,9,8,8,13,8,7,5,0,0,3,0,0,0,0,0,0,0,0,0,0,0,0,15,0,
0,16,0,0,0,0,40,0,0,0,0,0,0,0,0,0,0,0,0,0,0,0,0,0,0,0,0,0,0,0,0,2,0,0,0,0,4,0,10,25,10,8,7,8,9,5,5,6,0,0,0,0,0,0,0,0,0,0,0,0,0,0,7,0,
0,0,12,0,0,21,42,0,0,41,0,0,0,0,0,0,0,0,0,0,0,0,0,0,0,0,0,0,0,0,0,0,0,0,0,1,5,0,10,7,9,11,8,11,5,7,6,0,0,0,0,0,0,0,0,0,0,0,0,0,0,0,0,22,
0,0,0,0,11,0,0,41,9,0,0,41,0,0,0,0,0,0,0,0,0,0,0,0,0,0,0,0,0,0,0,0,1,7,5,0,8,7,10,7,11,9,9,7,5,6,0,0,2,0,0,0,0,0,0,0,0,0,0,0,0,0,22,0,
0,0,0,10,0,0,0,43,0,35,0,0,0,0,0,0,0,0,0,0,0,0,0,0,0,0,0,0,0,0,4,0,0,0,0,5,0,3,8,8,8,8,11,11,8,1,5,0,0,0,0,0,0,0,0,0,0,0,0,0,0,0,14,0,
0,0,16,0,0,0,30,40,37,0,0,0,0,0,0,0,0,0,0,0,0,0,0,0,0,0,0,0,0,6,0,1,0,0,0,0,0,7,7,8,37,6,13,9,8,7,5,0,0,0,0,0,0,0,0,0,0,0,0,0,0,0,0,13,
0,0,0,0,0,0,33,40,0,0,43,0,0,0,0,0,0,0,0,0,0,0,0,0,3,0,0,0,0,0,0,3,0,0,0,0,9,10,9,15,8,19,7,10,8,5,0,0,0,0,0,0,0,0,0,0,0,0,0,0,0,0,16,0,
0,15,0,0,0,19,0,0,33,0,0,36,0,46,0,0,0,0,0,0,0,0,0,0,0,0,0,0,0,0,0,0,4,0,0,0,3,6,9,35,7,8,8,14,9,6,5,0,0,0,0,0,0,0,0,0,0,0,0,0,0,0,17,0,
0,0,0,0,19,0,35,7,42,0,24,0,0,46,0,30,0,0,0,0,0,0,0,0,0,0,0,0,0,2,0,6,0,1,0,0,3,7,9,8,8,12,10,8,6,7,0,0,0,0,0,0,0,0,0,0,0,0,0,0,0,0,10,0,
0,0,0,14,0,0,28,39,0,0,36,0,0,0,0,0,42,0,0,0,0,0,0,0,0,0,0,0,0,0,0,0,2,0,0,0,3,9,10,9,47,8,8,10,7,6,0,0,0,0,0,0,0,0,0,0,0,0,0,0,0,0,22,0,
0,0,0,9,0,37,30,6,0,0,36,47,0,0,0,0,0,0,0,0,0,0,0,0,0,0,0,0,0,0,3,0,0,0,2,0,7,10,10,8,9,9,7,8,6,8,0,0,0,0,0,0,0,0,0,0,0,0,0,0,0,0,0,0,
18,0,0,0,0,21,44,0,0,11,0,47,44,0,0,0,0,0,0,0,0,0,0,0,0,0,0,0,0,0,2,0,7,6,0,0,2,6,11,45,8,11,11,7,8,10,0,0,0,0,0,0,0,0,0,0,0,0,0,0,0,0,16,0,
0,0,0,7,0,37,0,39,0,0,47,0,0,46,0,0,0,0,0,0,0,0,0,0,0,0,0,0,0,2,0,2,0,0,0,0,0,9,9,47,10,8,8,10,8,7,5,0,0,0,0,0,0,0,0,0,0,0,0,0,0,0,23,0,
0,0,0,10,0,33,43,0,0,10,0,0,0,0,0,0,0,0,42,0,0,0,0,0,0,0,0,0,0,0,0,0,0,1,0,0,8,7,41,8,10,7,7,11,5,8,5,0,0,0,0,0,0,0,0,0,0,0,0,0,0,0,0,16,
0,0,0,0,0,31,25,0,8,0,44,0,0,0,0,0,0,0,0,0,0,0,0,0,0,0,0,0,0,0,0,4,0,0,1,0,3,7,6,8,8,9,9,7,7,6,6,0,0,0,0,0,0,0,0,0,0,0,0,0,0,0,0,18,
0,0,0,0,0,32,0,34,25,0,0,0,40,0,0,0,0,0,0,0,0,0,0,0,0,0,0,0,0,0,0,2,0,3,0,0,1,5,12,3,8,8,12,9,8,6,7,0,0,0,0,0,0,0,0,0,0,0,0,0,0,0,0,0,
20,0,0,0,0,25,11,0,0,11,0,0,46,0,0,0,0,0,0,0,0,31,0,0,0,0,0,0,0,0,0,3,0,3,0,1,3,1,8,18,47,9,6,10,7,6,0,0,0,0,0,0,0,0,0,0,0,0,0,0,0,0,0,0,
0,0,0,0,12,30,38,0,0,0,42,0,48,0,0,0,0,0,0,0,0,0,0,0,0,0,0,0,0,0,0,0,2,1,0,8,7,7,8,9,48,10,8,12,7,0,5,0,0,0,0,0,0,0,0,0,0,0,0,0,0,0,14,0,
0,0,0,0,19,34,0,0,0,0,37,48,10,0,0,0,0,0,0,0,0,0,0,0,0,0,0,0,0,0,0,0,4,0,0,0,0,13,8,4,10,10,7,44,7,3,6,0,0,0,0,0,0,0,0,0,0,0,0,0,0,0,19,0,
0,0,0,14,0,33,0,17,47,47,0,0,0,0,0,0,0,0,0,0,0,0,0,0,0,0,0,0,0,0,2,0,0,0,0,0,4,5,7,10,7,27,7,6,7,48,5,0,0,0,0,0,0,0,0,0,0,0,0,0,0,0,0,20,
0,0,0,0,11,21,42,11,48,0,0,0,0,0,0,0,0,0,0,0,0,0,0,0,0,0,0,0,0,0,0,0,2,0,0,0,8,9,9,9,26,7,48,8,6,7,6,4,0,0,0,0,0,0,0,0,0,0,0,0,0,0,0,23,
0,0,0,0,0,8,26,0,41,47,0,0,0,0,0,0,0,0,0,0,0,0,0,0,0,0,0,0,0,0,0,2,0,0,0,2,0,7,6,10,46,6,8,7,7,6,3,0,0,0,0,0,0,0,0,0,0,0,0,0,0,0,0,0,
