0,0,0,8,0,0,35,37,6,0,0,40,0,0,0,0,0,0,0,0,0,0,0,0,0,0,0,0,0,0,0,0,5,7,0,1,3,5,5,9,6,4,6,6,4,0,3,0,1,0,0,0,0,0,0,0,0,0,0,0,0,0,0,0,
0,0,0,0,16,0,35,16,0,0,0,0,0,0,0,0,0,0,0,0,0,0,0,0,0,0,0,0,0,0,0,0,0,0,0,4,5,5,3,7,5,6,5,13,3,8,0,0,0,0,0,0,0,0,0,0,0,0,0,0,0,0,19,0,
0,0,0,15,0,0,42,0,9,0,0,0,33,0,0,0,0,0,0,0,0,0,0,0,0,0,0,0,0,0,0,0,0,4,0,1,2,3,8,7,7,4,8,11,4,5,0,0,0,0,0,0,0,0,0,0,0,0,0,0,0,0,0,0,
0,0,0,0,33,14,0,0,37,0,0,0,0,13,0,5,0,0,0,0,0,0,0,0,0,0,0,0,0,0,0,0,0,0,0,0,3,1,8,3,9,5,4,6,8,3,2,1,0,0,0,0,0,0,0,0,0,0,0,0,0,0,26,0,
0,0,0,0,0,40,0,4,0,0,39,0,0,0,0,0,0,0,0,0,0,0,0,0,0,0,0,0,0,0,1,0,0,0,0,7,1,7,10,7,7,5,6,7,2,4,2,3,0,0,0,0,0,0,0,0,0,0,0,0,0,0,8,0,
0,15,0,0,0,0,19,0,19,0,0,41,0,0,0,0,0,0,0,0,0,0,0,0,0,0,0,0,0,0,0,0,0,0,0,1,7,8,2,7,5,6,9,3,5,2,1,1,2,0,0,0,0,0,0,0,0,0,0,0,0,0,0,0,
0,0,0,0,14,28,36,7,0,0,37,0,0,0,0,0,0,0,0,0,0,0,0,0,0,0,0,0,0,0,1,0,0,3,0,6,6,7,7,9,7,5,10,5,2,3,3,1,0,0,0,0,0,0,0,0,0,0,0,0,0,0,0,21,
0,0,0,0,0,16,37,0,7,0,0,39,0,0,0,0,0,0,0,0,0,0,0,0,0,0,0,0,0,1,0,0,0,0,0,1,6,2,8,6,8,12,4,9,11,2,1,0,0,0,0,0,0,0,0,0,0,0,0,0,0,0,0,22,
0,0,0,0,14,0,9,0,0,14,0,40,0,0,0,0,0,0,0,0,0,0,0,0,0,0,0,0,0,0,0,1,0,0,3,0,4,8,3,6,6,7,6,12,3,3,2,3,0,0,0,0,0,0,0,0,0,0,0,0,0,0,0,0,
0,0,0,0,10,0,41,5,0,33,0,0,0,0,0,0,0,0,0,0,0,0,0,0,0,0,0,0,0,0,0,0,0,0,0,0,1,6,4,5,6,5,7,12,7,0,3,0,0,0,0,0,0,0,0,0,0,0,0,0,0,0,17,0,
0,0,0,0,0,30,0,17,0,0,38,0,0,0,0,0,0,0,0,0,0,0,0,0,0,0,0,0,0,0,1,0,0,0,0,0,3,4,5,5,5,4,5,12,2,5,3,0,36,0,0,0,0,0,0,0,0,0,0,0,0,0,0,0,
0,0,0,0,17,41,0,8,0,0,48,0,0,0,0,0,0,0,0,0,0,0,0,0,0,0,0,0,0,0,0,0,0,1,0,1,0,5,6,7,7,8,7,48,7,2,1,2,0,0,0,0,0,0,0,0,0,0,0,0,0,0,0,0,
0,0,0,0,26,36,0,15,47,21,0,0,46,0,0,0,0,0,0,0,0,0,0,0,0,0,0,0,0,0,0,0,1,4,0,1,4,7,7,10,23,5,5,4,6,8,0,1,0,0,1,0,0,0,0,0,0,0,0,0,0,0,20,0,
0,0,0,0,15,0,28,37,0,0,46,0,0,10,0,0,0,0,0,0,0,0,0,0,0,0,0,0,0,0,0,0,0,0,8,1,2,5,9,14,4,6,48,7,3,5,6,0,0,0,0,0,0,0,0,0,0,0,0,0,0,0,0,18,
0,0,0,0,17,41,0,7,0,0,44,0,48,0,0,0,0,0,0,0,0,0,0,0,0,0,0,0,0,0,0,0,0,0,0,3,3,8,5,6,8,48,5,5,4,4,3,1,0,0,0,0,0,0,0,0,0,0,0,0,0,0,0,12,
0,0,0,0,14,12,36,15,0,35,0,0,0,0,48,0,0,0,0,0,0,0,0,0,0,0,0,0,0,0,0,0,0,0,0,0,6,1,10,12,8,48,5,5,11,0,3,0,0,0,0,0,0,0,0,0,0,0,0,0,0,0,0,18,
0,0,0,0,0,20,0,24,0,0,29,0,48,0,0,0,0,0,0,0,0,0,0,0,0,0,0,0,0,0,1,0,0,0,0,0,7,0,6,12,6,48,7,7,11,1,3,0,0,0,0,0,0,0,0,0,0,0,0,0,0,0,0,19,
0,0,0,0,16,0,0,36,8,0,0,0,0,0,48,0,0,0,0,0,0,0,0,0,0,0,0,0,0,0,0,0,0,1,0,8,3,8,4,6,5,7,8,14,5,4,3,0,0,0,0,0,0,0,0,0,0,0,0,0,0,0,0,0,
0,0,0,0,10,28,38,7,0,36,7,0,0,0,48,0,0,0,0,0,0,0,0,0,0,0,0,0,0,0,0,0,1,0,0,3,7,6,5,7,10,48,5,13,3,3,3,0,0,0,0,0,0,0,0,0,0,0,0,0,0,0,0,0,
0,0,0,0,14,22,31,0,46,40,0,0,0,0,0,0,0,0,0,0,0,0,0,0,0,0,0,0,0,0,0,0,0,0,0,0,8,0,5,20,3,7,8,6,3,4,3,2,0,0,0,0,0,0,0,0,0,0,0,0,0,0,0,0,
0,0,0,0,12,38,0,0,0,0,39,0,0,47,0,0,0,0,0,0,0,0,0,0,0,0,0,0,0,0,0,0,0,0,0,1,1,8,7,7,29,12,10,4,4,5,2,0,0,0,0,0,0,0,0,0,0,0,0,0,0,0,0,14,
0,0,0,0,12,35,36,14,0,37,0,0,44,0,0,0,0,0,0,0,0,0,0,0,0,0,0,0,0,0,0,0,4,7,0,1,7,3,5,7,33,5,8,6,48,3,4,0,0,0,0,0,0,0,0,0,0,0,0,0,0,0,23,0,
0,0,0,7,0,0,41,0,5,48,0,0,46,0,0,0,0,0,0,0,0,0,0,0,0,0,0,0,0,0,0,1,0,0,7,1,5,6,4,8,25,7,12,48,3,5,4,1,0,0,0,0,0,0,0,0,0,0,0,0,0,0,0,0,
22,0,0,0,0,23,32,0,8,48,37,0,0,0,0,0,0,0,0,0,0,0,0,0,0,0,0,0,0,0,0,0,0,0,3,0,1,7,6,7,7,8,6,4,10,0,0,0,0,0,0,0,0,0,0,0,0,0,0,0,0,0,0,0,
20,0,0,0,0,14,33,37,0,0,0,45,44,0,0,0,0,0,0,0,0,0,0,0,0,0,0,0,0,0,0,0,6,0,8,0,1,4,6,18,10,8,48,5,4,3,1,0,0,0,0,0,0,0,0,0,0,0,0,0,0,0,22,0,
0,0,0,0,0,0,39,7,0,48,45,0,0,0,0,0,0,0,0,0,0,0,0,0,0,0,0,0,0,0,0,0,0,0,8,0,7,2,7,8,20,6,3,48,4,3,3,0,0,0,0,0,0,0,0,0,0,0,0,0,0,0,0,16,
0,0,0,0,20,0,0,36,0,29,0,48,0,0,0,0,0,0,0,0,0,0,0,0,0,0,0,0,0,0,0,0,0,0,0,5,4,2,5,5,8,48,6,6,16,1,3,0,0,4,0,0,0,0,0,0,0,0,0,0,0,0,20,0,
0,0,0,0,0,0,40,6,0,46,0,0,0,0,0,0,0,0,0,0,0,0,0,0,0,0,0,0,0,0,1,0,0,0,0,0,3,2,5,8,9,5,4,48,4,4,3,0,0,0,0,0,0,0,0,0,0,0,0,0,0,0,0,22,
0,0,0,0,0,10,0,45,3,0,0,43,0,0,0,0,0,0,0,0,0,0,0,0,0,0,0,0,0,0,0,0,4,0,0,0,0,7,4,21,5,9,7,5,47,12,3,0,0,0,0,0,0,0,0,0,0,0,0,0,0,0,23,0,
0,0,0,0,14,37,27,0,48,0,0,46,0,0,0,0,0,0,0,0,0,0,0,0,0,0,0,0,0,0,0,0,0,0,1,0,0,9,8,7,31,6,5,8,48,3,0,2,0,0,0,0,0,0,0,0,0,0,0,0,0,0,0,0,
0,0,0,0,0,15,45,5,47,0,45,0,0,0,0,0,0,0,0,0,0,0,0,0,0,0,0,0,0,0,0,0,0,0,4,8,1,2,7,14,12,38,14,10,6,2,0,0,0,0,0,0,0,0,0,0,0,0,0,0,0,0,23,0,
0,0,0,8,0,26,0,36,0,0,46,0,0,0,0,0,0,0,0,0,0,0,0,0,0,0,0,0,0,0,0,0,0,7,0,3,2,4,6,7,19,4,48,7,17,3,3,3,0,0,0,0,0,0,0,0,0,0,0,0,0,0,0,16,
0,0,0,0,0,32,37,14,0,0,48,0,0,0,0,0,0,0,0,0,0,0,0,0,0,0,0,0,0,0,0,0,0,0,0,1,5,5,3,7,8,5,4,11,1,1,2,0,0,0,0,0,0,0,0,0,0,0,0,0,0,0,16,0,
0,13,0,0,0,28,0,46,19,0,34,0,0,0,0,0,0,7,0,0,0,0,0,0,0,0,0,0,0,0,0,0,7,0,7,3,2,7,8,3,7,5,6,10,4,3,4,3,0,0,2,0,0,47,0,0,0,0,0,0,0,0,0,20,
0,0,0,0,12,22,35,14,47,10,32,0,0,0,0,0,0,0,0,0,0,0,0,0,0,0,0,0,0,0,0,0,5,0,1,5,6,4,7,7,9,5,11,3,5,3,48,0,0,0,0,0,0,0,0,0,0,0,0,0,0,0,0,20,
0,0,0,0,12,0,34,16,0,0,48,0,0,0,0,0,0,0,0,0,0,0,0,0,0,0,0,0,0,0,0,0,0,0,0,0,8,8,8,8,9,7,4,48,5,3,5,1,0,0,0,0,0,0,0,0,0,0,0,0,0,0,0,16,
0,0,0,0,0,30,0,38,0,48,39,0,0,0,0,0,0,0,0,0,0,0,0,0,0,0,0,0,0,0,0,0,0,0,0,6,0,3,8,7,7,6,8,10,5,48,1,1,0,0,0,0,0,0,0,0,0,0,0,0,0,0,0,0,
0,0,0,0,14,23,0,39,48,15,0,38,0,0,0,0,0,0,0,0,0,0,0,0,0,0,0,0,0,0,0,0,3,5,0,0,3,8,7,7,5,7,7,5,9,3,3,1,0,0,0,0,0,0,0,0,47,0,0,0,0,0,0,0,
0,0,0,0,0,11,7,0,47,0,0,43,0,0,0,0,0,0,0,0,0,0,0,0,0,0,0,0,0,1,0,0,3,0,2,7,2,5,8,9,18,7,14,48,5,3,4,0,0,0,0,0,0,0,0,0,0,0,0,0,0,0,0,16,
0,0,0,0,0,29,0,39,8,0,48,44,0,0,0,0,0,0,0,0,0,0,0,0,0,0,0,0,0,0,0,0,7,0,13,1,2,1,5,10,6,5,48,11,3,3,3,1,0,0,0,0,0,0,0,0,0,0,0,0,0,0,0,15,
0,0,0,0,0,16,3,38,0,26,48,44,0,0,0,0,0,0,0,0,0,0,0,0,0,0,0,0,0,0,0,0,0,5,0,0,9,1,6,21,4,6,9,5,48,4,3,2,0,0,0,0,0,0,0,0,0,0,0,0,0,0,16,0,
0,14,0,0,0,22,0,0,13,0,48,45,0,0,0,0,0,0,0,0,0,0,0,0,0,0,0,0,0,0,0,1,5,0,3,0,3,5,8,5,31,7,48,13,4,5,2,0,0,0,0,0,0,0,0,0,0,0,0,0,0,0,0,17,
0,0,0,0,14,0,0,38,5,0,0,48,0,0,0,0,0,0,0,0,0,0,0,0,0,0,0,0,0,0,0,0,4,0,0,5,4,9,3,19,47,5,4,10,3,3,1,0,0,0,0,0,0,0,0,0,0,0,0,0,0,0,0,0,
0,0,0,0,17,0,28,19,31,34,0,0,0,0,0,0,0,0,0,0,0,0,0,0,0,0,0,0,0,0,0,0,0,0,0,0,8,6,7,8,7,7,7,3,4,3,3,2,0,0,0,0,0,0,0,0,0,0,0,0,0,0,20,0,
0,0,0,0,21,0,0,0,0,0,0,0,0,0,0,0,0,0,0,0,0,0,0,0,0,0,0,0,0,0,0,1,0,0,4,0,6,5,5,16,6,5,14,9,0,5,2,0,0,0,0,0,0,0,0,0,0,0,0,0,0,0,0,18,
0,0,0,0,13,19,40,14,0,0,0,0,0,0,0,0,0,0,0,0,0,0,0,0,0,0,0,0,0,0,1,0,0,5,0,7,3,7,6,5,27,3,9,9,6,4,3,3,0,0,0,0,0,0,0,0,0,0,0,0,0,0,8,0,
0,0,0,0,0,26,0,0,13,0,44,0,0,0,0,2,0,0,0,0,0,0,0,0,0,0,0,0,0,0,0,0,2,2,7,5,0,5,8,5,7,39,11,5,7,2,4,0,0,3,0,0,0,0,0,0,0,0,0,0,0,0,24,0,
0,0,0,0,31,0,28,14,0,0,45,0,0,0,0,0,0,0,0,0,0,0,0,0,0,0,0,0,0,1,0,0,0,0,0,0,1,4,8,4,33,5,7,7,9,4,0,0,0,0,0,0,0,0,0,0,0,0,0,0,0,0,0,14,
0,0,0,0,17,12,0,37,0,0,41,0,0,0,0,0,0,0,0,0,0,0,0,0,0,0,0,0,0,0,0,0,0,6,0,0,3,4,8,3,6,8,7,4,4,7,4,0,0,0,0,0,0,0,0,0,0,0,0,0,0,0,20,0,
0,0,14,0,0,0,39,0,21,0,0,3,0,0,0,0,0,0,0,0,0,0,0,0,0,0,0,0,0,0,0,0,0,1,0,0,0,5,1,13,7,8,5,5,3,3,3,2,0,0,0,0,0,0,0,0,0,0,0,0,0,0,0,0,
