0,0,15,0,0,20,38,0,17,0,35,0,0,0,0,0,0,0,0,0,0,0,0,0,0,0,0,0,0,0,0,0,0,0,2,1,5,1,12,5,10,8,7,8,5,7,4,0,0,0,0,0,0,0,0,0,0,0,0,0,0,0,0,20,
0,0,0,0,0,42,30,0,11,0,48,40,0,0,0,0,0,0,0,0,0,0,0,0,0,0,0,0,0,0,0,0,1,0,2,0,8,14,6,10,7,48,7,9,6,3,4,0,0,0,0,0,0,0,0,0,0,0,0,0,0,0,28,0,
0,0,0,0,19,35,0,0,0,0,33,48,0,0,7,0,0,0,0,0,0,0,0,0,0,0,0,0,0,0,0,1,0,1,9,0,1,6,5,7,48,9,7,11,6,4,0,0,0,0,0,0,0,0,0,0,0,0,0,0,0,0,0,0,
20,0,0,26,0,0,28,0,0,0,8,0,0,0,0,0,0,0,48,0,0,0,0,0,0,0,0,0,0,0,0,0,1,0,0,1,0,8,8,7,7,48,7,6,7,4,4,0,0,0,0,0,0,0,0,0,0,0,0,0,0,0,0,26,
0,0,0,0,0,33,30,5,0,48,0,33,0,0,0,0,0,0,0,0,0,0,0,0,0,0,0,0,0,0,0,1,0,8,0,2,1,8,8,10,8,9,7,48,11,5,4,3,0,0,0,0,0,0,0,0,0,0,0,0,0,0,0,0,
21,0,0,0,0,37,8,0,0,9,48,0,0,0,0,0,0,0,0,0,0,0,0,0,0,0,0,0,0,0,0,1,4,5,1,5,0,4,8,8,7,13,48,5,3,6,1,3,0,0,0,0,0,0,0,0,0,0,0,0,0,0,0,21,
0,0,0,0,0,21,34,0,34,0,0,0,0,48,0,32,0,0,0,0,0,0,0,0,0,0,0,0,0,0,0,0,0,1,0,0,4,8,2,5,30,9,6,5,7,6,3,0,0,0,0,0,0,0,0,0,0,0,0,0,0,0,0,18,
0,0,0,0,0,15,30,0,8,0,0,44,0,0,0,0,0,0,0,0,0,0,0,0,0,0,0,0,0,0,0,3,5,1,0,1,6,1,10,7,21,8,5,5,5,2,3,3,0,0,0,0,0,0,0,0,0,0,0,0,0,0,8,0,
12,0,0,0,0,0,44,0,0,0,0,0,0,0,0,0,0,0,0,0,0,0,0,0,0,0,0,0,0,0,0,1,4,2,0,7,3,5,5,12,7,10,11,7,7,4,3,0,0,0,0,0,0,0,0,0,0,0,0,0,0,0,0,0,
20,0,0,0,0,28,41,0,0,41,0,0,0,0,0,0,0,0,0,0,0,0,0,0,0,0,0,0,0,0,0,0,0,0,0,0,0,5,8,6,10,8,7,5,6,6,3,0,0,0,0,0,0,0,0,0,0,0,0,0,0,0,23,0,
0,0,0,0,17,25,33,0,26,0,0,0,0,42,0,0,0,0,0,0,0,0,0,0,0,0,0,0,0,1,0,0,0,0,1,3,0,3,5,33,9,10,5,5,7,1,0,0,0,0,0,0,0,0,0,0,0,0,0,0,0,0,0,0,
30,0,0,0,35,0,14,0,35,0,0,0,0,0,0,0,0,0,0,0,0,0,0,0,0,0,0,0,0,0,0,0,0,0,2,0,4,1,6,12,10,10,8,7,8,8,3,3,0,0,0,0,0,0,0,0,0,0,0,0,0,0,0,0,
0,0,0,0,0,32,37,0,0,41,0,0,0,0,0,0,0,0,0,0,0,0,0,0,0,0,0,0,0,0,0,0,0,0,0,0,3,6,9,10,8,8,7,7,11,4,0,0,0,0,0,0,0,0,0,0,0,0,0,0,0,0,0,24,
0,0,0,0,12,36,36,0,0,0,42,0,0,0,0,0,0,0,0,0,0,0,0,0,0,0,0,0,0,0,0,1,1,1,7,0,3,5,5,9,5,6,4,7,6,5,3,0,0,0,0,0,0,0,0,0,0,0,0,0,0,0,0,0,
0,0,0,0,0,36,34,15,0,36,0,0,0,0,0,0,0,0,0,0,0,0,0,0,0,0,0,0,0,0,0,0,0,0,0,0,3,1,5,7,6,12,7,6,0,0,4,0,0,0,0,0,0,0,0,0,0,0,0,0,0,0,0,31,
0,0,0,0,42,0,35,0,0,32,0,0,0,0,0,0,0,0,0,0,0,0,0,0,0,0,0,0,0,0,0,0,0,0,0,0,0,9,8,8,8,10,6,6,7,3,2,1,0,0,0,0,0,0,0,0,0,0,0,0,0,0,0,0,
0,0,0,0,0,12,0,5,0,38,0,19,0,0,0,0,0,0,0,0,0,0,0,0,0,0,0,0,0,0,0,0,1,2,0,1,6,3,5,7,7,5,7,8,5,6,4,0,0,0,0,0,0,0,0,0,0,0,0,0,0,0,0,22,
0,0,0,0,0,40,0,38,8,0,0,37,0,0,0,0,0,0,0,0,0,0,0,0,0,0,0,0,0,0,0,0,2,0,5,1,2,9,6,6,10,7,5,5,5,5,7,0,0,0,0,0,0,0,0,0,0,0,0,0,0,0,0,28,
0,0,0,0,0,21,35,0,39,0,0,0,0,0,0,0,0,3,0,0,0,0,0,0,0,0,0,0,0,0,0,0,0,0,2,0,2,7,5,9,6,6,6,12,3,5,0,2,0,0,0,0,0,0,0,0,0,0,0,0,0,0,0,26,
0,0,0,0,0,41,0,0,36,0,0,0,0,0,0,0,0,0,0,0,0,0,0,0,0,0,0,0,0,0,0,0,0,0,0,0,1,10,5,10,10,6,6,7,0,3,0,0,0,0,0,0,0,0,0,0,0,0,0,0,0,0,0,0,
31,0,0,0,0,10,0,0,0,0,9,0,0,0,0,0,0,0,0,0,0,0,0,0,0,0,0,0,0,0,0,0,0,0,0,0,1,4,5,12,9,6,5,7,11,3,0,0,0,0,0,0,0,0,0,0,0,0,0,0,0,0,0,31,
0,0,0,0,0,26,33,0,25,0,0,0,0,0,0,0,0,0,0,0,0,0,0,0,0,0,0,0,0,0,0,0,0,0,0,0,1,0,10,8,9,11,9,5,7,3,0,0,0,0,0,0,0,0,0,0,0,0,0,0,0,0,0,21,
0,0,0,0,43,0,34,6,0,0,39,0,0,0,0,0,0,0,0,0,0,0,0,0,0,0,0,0,0,0,0,0,1,0,2,0,0,4,6,5,9,6,6,5,8,2,4,0,0,0,0,0,0,0,0,0,0,0,0,0,0,0,0,19,
0,0,0,0,0,0,41,0,0,8,0,0,33,0,0,0,0,0,0,0,0,0,0,0,0,0,0,0,0,1,0,4,1,6,0,0,5,8,7,7,9,8,10,9,7,4,4,0,0,0,0,0,0,0,0,0,0,0,0,0,0,0,17,0,
0,0,0,0,24,20,37,0,27,0,0,0,17,0,0,0,0,0,0,0,0,0,0,0,0,0,0,0,0,0,0,1,0,0,1,1,4,1,5,9,8,11,5,7,5,4,5,3,0,0,0,0,0,0,0,0,0,0,0,0,0,0,0,25,
0,0,0,0,0,24,33,0,0,33,0,0,0,0,0,0,0,0,0,0,0,0,0,0,0,0,0,0,0,0,0,0,0,0,0,0,3,8,6,10,7,6,7,6,6,5,12,0,0,0,0,0,0,0,0,0,0,0,0,0,0,0,31,0,
0,0,11,0,0,0,35,0,13,37,0,0,0,0,0,0,0,0,0,0,0,0,0,0,0,0,0,0,0,0,0,0,0,0,1,0,3,8,7,8,7,7,8,6,4,5,3,5,0,0,0,0,0,0,0,0,0,0,0,0,0,0,30,0,
0,0,0,10,0,0,38,21,0,0,32,0,0,0,0,0,0,0,0,0,0,0,0,0,0,0,0,0,0,0,0,0,0,0,1,3,1,5,6,12,7,5,7,7,8,5,1,0,0,0,0,0,0,0,0,0,0,0,0,0,0,0,0,31,
0,0,0,0,0,22,38,0,0,0,0,0,0,0,0,0,0,0,0,0,0,0,0,0,0,0,0,0,0,0,0,1,0,0,0,0,2,7,5,14,5,9,9,7,6,7,5,3,0,0,0,0,0,0,0,0,0,0,0,0,0,0,0,0,
0,0,0,0,0,21,37,0,8,0,0,0,0,0,0,10,0,0,0,0,0,0,0,0,0,0,0,0,0,2,0,1,0,0,0,1,6,2,5,9,3,12,5,8,5,3,7,0,0,0,0,0,0,0,0,0,0,0,0,0,0,0,0,0,
0,0,0,0,16,34,29,0,25,0,0,0,10,0,0,0,0,0,0,0,0,0,0,0,0,0,0,0,0,0,0,0,3,2,0,0,2,4,7,7,7,12,1,7,5,8,7,0,0,0,0,0,0,0,0,0,0,0,0,0,0,0,16,0,
0,0,15,0,0,38,37,12,0,0,38,7,0,0,0,0,0,0,0,0,0,0,0,0,0,0,0,0,0,0,0,0,0,0,0,0,3,9,7,7,12,10,8,8,7,7,4,0,0,0,0,0,0,0,0,0,0,0,0,0,0,0,0,28,
0,0,0,0,0,29,0,0,0,0,0,0,0,0,0,0,0,0,0,0,0,0,0,0,0,0,0,0,0,0,0,0,0,0,3,0,0,3,12,5,10,7,7,8,5,3,2,0,0,0,0,0,0,0,0,0,0,0,0,0,0,0,0,0,
0,0,0,0,0,26,27,0,7,0,39,0,0,7,0,0,0,0,0,0,0,0,0,0,0,0,0,0,0,0,0,1,2,7,2,8,2,4,6,8,14,6,7,7,7,3,5,5,0,0,0,0,0,0,0,0,0,0,0,0,0,0,0,23,
0,0,0,0,0,37,0,0,29,0,0,11,4,0,0,0,0,0,0,0,0,0,0,0,0,0,0,0,0,0,0,1,0,4,0,2,2,6,10,5,7,10,9,7,5,7,3,0,0,0,0,0,0,0,0,0,0,0,0,0,0,0,0,29,
0,0,0,0,0,30,33,0,30,0,0,0,0,0,0,3,0,0,0,0,0,0,0,0,0,0,0,0,0,0,0,0,0,0,0,0,3,11,9,7,7,14,9,6,5,4,7,0,0,0,0,0,0,0,0,0,0,0,0,0,0,0,0,0,
25,0,0,0,0,23,34,0,0,39,0,0,0,0,0,0,0,0,0,0,0,0,0,0,0,0,0,0,0,0,0,0,0,0,0,0,4,2,9,10,9,9,6,6,6,4,5,0,0,0,0,0,0,0,0,0,0,0,0,0,0,0,0,25,
0,0,0,0,0,32,0,0,5,0,0,0,0,0,0,0,0,0,0,0,0,0,0,0,0,0,0,0,0,0,0,1,1,2,8,0,2,5,7,6,7,8,7,10,7,4,5,0,0,0,0,0,0,0,0,0,0,0,0,0,0,0,0,26,
0,0,0,0,0,33,35,0,25,0,0,0,0,0,0,0,0,0,0,0,0,0,0,0,0,0,0,0,0,0,0,0,0,0,0,0,0,0,11,8,7,12,8,4,5,7,3,5,0,0,0,0,0,0,0,0,0,0,0,0,0,0,0,18,
0,0,0,0,0,20,0,0,23,0,0,0,0,0,7,0,0,0,0,0,0,0,0,0,0,0,0,0,0,0,0,1,0,0,2,0,0,3,11,10,10,12,5,8,6,0,0,0,0,0,0,0,0,0,0,0,0,0,0,0,0,0,0,0,
26,0,0,0,35,0,40,0,0,38,0,0,0,0,0,0,0,0,0,0,0,0,0,0,0,0,0,0,0,0,0,0,0,0,0,0,10,1,10,9,7,8,11,8,7,7,5,4,0,0,0,0,0,0,0,0,0,0,0,0,0,0,0,30,
0,0,0,0,0,39,0,0,0,0,0,0,0,0,0,0,0,0,0,0,0,0,0,0,0,0,0,0,0,0,0,0,0,0,0,0,0,7,7,7,8,16,7,6,7,4,3,0,0,0,0,0,0,0,0,0,0,0,0,0,0,0,0,18,
0,0,0,0,0,19,41,0,20,0,0,41,0,0,0,0,0,0,0,0,0,0,0,0,0,0,0,0,0,0,0,0,0,0,5,0,3,5,6,12,8,7,10,7,0,6,4,0,0,0,0,0,0,0,0,0,0,0,0,0,0,0,0,0,
0,0,0,0,0,38,37,0,9,0,0,0,0,0,0,0,0,0,0,0,0,0,0,0,0,0,0,0,0,0,0,0,1,8,0,0,3,5,4,7,8,8,8,7,7,5,2,1,1,0,0,0,0,0,0,0,0,0,0,0,0,0,28,0,
0,0,0,0,17,21,36,16,0,42,0,0,0,0,0,0,0,0,0,0,0,0,0,0,0,0,0,0,0,0,0,1,0,0,2,0,5,8,9,8,11,7,6,4,12,4,3,0,0,0,0,0,0,0,0,0,0,0,0,0,0,0,0,21,
0,0,0,0,0,16,36,0,0,0,38,0,0,0,0,0,0,0,0,0,0,0,0,0,0,0,0,0,0,0,0,0,0,0,1,0,3,8,8,10,8,7,13,8,3,4,5,1,0,0,0,0,0,0,0,0,0,0,0,0,0,0,0,32,
0,0,0,0,0,35,0,0,6,0,36,0,0,14,0,0,0,0,0,0,0,0,0,0,0,0,0,0,0,0,0,0,4,3,0,3,3,5,8,7,7,8,12,5,5,5,1,4,0,0,0,0,0,0,0,0,0,0,0,0,0,0,0,0,
24,0,0,0,0,39,17,0,0,37,0,0,0,0,0,0,0,0,0,0,0,0,0,0,0,0,0,0,0,0,0,0,0,0,0,0,3,7,7,6,8,8,11,5,5,4,6,5,0,0,0,0,0,0,0,0,0,0,0,0,0,0,25,0,
0,0,0,0,9,0,0,0,0,0,0,0,0,0,0,0,0,0,0,0,0,0,0,0,0,0,0,0,0,0,0,0,0,0,0,0,1,6,7,8,10,8,7,5,7,3,5,0,0,0,0,0,0,0,0,0,0,0,0,0,0,0,0,29,
0,0,0,0,0,32,0,0,33,0,0,0,12,0,0,0,0,0,0,0,0,0,0,0,0,0,0,0,0,0,0,0,0,0,0,0,0,1,14,10,9,8,7,9,6,4,3,4,0,0,0,0,0,0,0,0,0,0,0,0,0,0,0,0,
