0,0,0,0,6,0,0,0,0,0,0,0,2,0,0,0,0,0,0,0,0,0,0,0,0,0,0,0,0,0,0,0,0,0,6,0,3,6,8,8,8,8,8,7,6,2,0,0,0,0,0,0,0,0,0,0,0,0,0,0,0,0,0,0,
35,0,0,0,0,25,37,0,31,0,42,0,0,18,0,0,0,0,0,0,0,0,0,0,0,0,0,0,0,0,0,0,1,1,0,3,1,7,9,11,9,7,12,7,2,3,0,0,0,0,0,0,0,0,0,0,0,0,0,0,0,0,0,35,
0,0,0,0,0,18,21,38,32,0,16,0,0,0,0,0,0,0,0,0,0,0,0,0,0,0,0,0,0,0,0,0,1,1,1,1,0,8,7,13,8,10,8,7,3,1,0,0,0,0,0,0,0,0,0,0,0,0,0,0,0,0,0,33,
0,0,0,0,0,21,0,0,0,37,0,0,0,0,0,0,0,0,0,0,0,0,0,0,0,0,0,0,0,0,0,4,0,0,0,0,1,8,10,9,10,8,1,8,6,0,1,0,0,0,0,0,0,0,0,0,0,0,0,0,0,0,0,0,
30,0,0,0,0,25,35,0,35,0,43,0,0,0,0,0,0,0,0,0,0,0,0,0,0,0,0,0,0,0,1,0,2,0,0,4,0,7,8,17,6,7,11,10,6,2,0,0,0,0,0,0,0,0,0,0,0,0,0,0,0,0,0,36,
0,0,0,0,0,26,35,0,19,42,0,0,0,0,0,0,0,0,0,0,0,0,0,0,0,0,0,0,0,0,0,1,2,1,0,0,3,8,7,10,19,7,9,5,5,1,0,0,2,0,0,0,0,0,0,0,0,0,0,0,0,0,0,35,
0,0,0,0,0,24,30,0,26,0,0,0,0,0,0,0,0,0,0,0,0,0,0,0,0,0,0,0,0,0,0,6,0,0,0,0,0,8,8,6,8,8,8,7,1,6,0,0,0,0,0,0,0,0,0,0,0,0,0,0,0,0,0,31,
0,0,0,0,13,21,34,0,32,0,0,0,26,41,0,0,0,0,0,0,0,0,0,0,0,0,0,0,0,3,0,0,0,5,1,0,3,10,7,12,7,11,5,2,7,1,0,1,0,0,0,0,0,0,0,0,0,0,0,0,0,0,0,33,
0,0,0,0,0,29,33,0,32,0,0,0,11,44,0,0,0,0,0,0,0,0,0,0,0,0,0,0,0,0,0,0,3,0,1,0,4,10,9,10,9,9,11,8,0,0,1,1,0,0,0,0,0,0,0,0,0,0,0,0,0,0,0,0,
29,0,0,0,0,19,0,0,40,0,0,0,0,20,0,0,0,42,0,0,0,0,0,0,0,0,0,0,0,0,0,0,2,1,0,1,4,10,10,9,10,10,8,8,6,1,0,0,0,0,0,0,0,0,0,0,0,0,0,0,0,0,0,27,
0,0,0,0,0,20,38,0,35,0,0,0,46,0,0,0,0,0,0,0,0,0,0,0,0,0,0,0,0,0,0,0,0,1,5,1,1,8,7,14,8,10,7,7,4,1,0,0,0,0,0,0,0,0,0,0,0,0,0,0,0,0,0,0,
23,0,0,0,0,0,38,0,30,0,38,0,0,15,0,0,0,0,0,0,0,0,0,0,0,0,0,0,0,0,4,0,1,0,1,4,1,7,8,15,11,9,7,7,10,2,0,0,0,0,0,0,0,0,0,0,0,0,0,0,0,0,0,0,
0,0,0,0,0,31,0,0,31,0,0,0,0,0,0,0,0,0,0,0,0,0,0,0,0,0,0,0,0,0,0,0,1,0,0,3,0,10,9,11,9,8,7,7,1,3,0,0,0,0,0,0,0,0,0,0,0,0,0,0,0,0,0,32,
0,0,0,0,0,17,35,0,41,0,0,0,0,0,46,0,0,0,0,0,0,0,0,0,0,0,0,0,0,0,5,0,2,0,0,3,0,7,8,29,8,8,9,10,2,4,0,0,0,0,0,0,0,0,0,0,0,0,0,0,0,0,0,36,
0,0,0,0,0,25,34,0,0,45,0,0,0,0,0,0,0,0,0,0,0,0,0,0,0,0,0,0,0,0,0,4,0,0,0,0,5,7,8,8,16,10,7,7,1,0,1,0,0,0,0,0,0,0,0,0,0,0,0,0,0,0,0,0,
32,0,0,0,0,14,39,0,0,41,0,13,0,0,0,0,0,0,0,0,0,0,0,0,0,0,0,0,0,0,0,0,0,0,0,1,8,8,7,9,9,8,7,8,3,1,2,0,0,0,0,0,0,0,0,0,0,0,0,0,0,0,0,0,
33,0,0,0,0,19,12,0,38,0,7,0,0,0,0,0,0,0,0,0,0,0,0,0,0,0,0,0,0,0,0,0,0,1,0,0,1,9,7,8,8,9,8,1,5,2,2,0,0,0,0,0,0,0,0,0,0,0,0,0,0,0,0,0,
0,0,0,0,0,22,32,0,22,0,0,0,0,40,0,0,0,0,0,0,0,0,0,0,0,0,0,0,0,0,0,0,0,3,0,0,5,9,8,20,10,5,8,7,5,0,0,0,0,0,0,0,0,0,0,0,0,0,0,0,0,0,0,0,
38,0,0,0,0,11,38,0,35,0,14,22,0,0,0,0,0,0,0,0,0,0,0,0,0,0,0,0,0,0,0,1,0,1,0,1,2,6,9,7,8,14,7,8,1,1,1,0,0,0,0,0,0,0,0,0,0,0,0,0,0,0,0,0,
0,0,0,0,8,21,0,38,39,0,0,0,0,44,0,0,0,0,0,0,0,0,0,0,0,0,0,0,0,0,0,0,4,0,0,0,4,5,7,11,9,9,9,3,5,0,0,0,0,0,0,0,0,0,0,0,0,0,0,0,0,0,0,0,
0,0,0,0,0,23,11,0,35,0,19,0,0,0,0,0,0,0,0,0,0,0,0,0,0,0,0,0,0,0,0,0,0,0,0,0,2,7,10,8,9,10,9,8,3,1,0,1,0,0,0,0,0,0,0,0,0,0,0,0,0,0,0,38,
0,0,0,0,0,21,30,37,0,0,0,42,0,0,0,0,0,0,0,0,0,0,0,0,0,0,0,0,0,0,0,0,2,0,0,0,3,1,8,7,8,11,9,8,8,1,1,0,0,0,0,0,0,0,0,0,0,0,0,0,0,0,0,0,
0,0,0,0,0,19,37,21,32,0,0,44,0,0,23,0,0,0,0,0,0,0,0,0,0,0,0,0,0,0,0,1,0,1,3,3,5,9,7,24,10,10,8,9,8,0,1,0,0,0,0,0,0,0,0,0,0,0,0,0,0,0,0,0,
34,0,0,0,0,19,35,0,33,0,43,0,0,0,0,0,0,0,0,0,0,0,0,0,0,0,0,0,0,0,1,0,0,2,0,5,0,8,11,11,8,12,8,8,7,0,0,0,0,0,0,0,0,0,0,0,0,0,0,0,0,0,0,0,
26,0,0,0,0,24,41,0,0,6,42,0,0,0,0,0,0,0,0,0,0,0,0,0,0,0,0,0,0,0,0,0,0,0,0,3,8,10,7,8,25,9,10,8,8,3,2,0,0,0,0,0,0,0,0,0,0,0,0,0,0,0,0,35,
0,0,0,0,0,19,37,0,36,0,0,0,42,0,0,0,0,0,0,0,0,0,0,0,0,0,0,0,0,0,7,0,0,2,2,0,1,8,8,7,8,9,7,7,7,1,1,0,0,0,0,0,0,0,0,0,0,0,0,0,0,0,0,0,
30,0,0,0,0,25,35,0,23,0,0,0,0,0,0,0,0,0,0,0,0,0,0,0,0,0,0,0,0,0,0,0,0,0,0,0,0,6,7,10,8,8,6,7,1,1,1,1,0,0,0,0,0,0,0,0,0,0,0,0,0,0,0,0,
31,0,0,0,17,0,34,0,35,0,43,0,0,0,0,0,0,0,0,0,0,0,0,0,0,0,0,0,0,0,1,0,0,0,1,2,4,10,9,23,7,9,8,7,6,0,1,0,0,0,0,0,0,0,0,0,0,0,0,0,0,0,0,0,
33,0,0,0,0,21,7,40,34,0,0,0,46,0,0,0,0,0,0,0,0,0,0,0,0,0,0,0,0,0,0,3,0,0,0,0,2,8,18,8,7,10,10,7,3,0,2,0,0,0,0,0,0,0,0,0,0,0,0,0,0,0,0,0,
35,0,0,0,0,18,36,0,0,0,0,0,0,0,0,0,0,0,0,0,0,0,0,0,0,0,0,0,0,0,0,5,0,0,0,0,9,8,10,10,12,8,7,9,1,0,3,0,0,0,0,0,0,0,0,0,0,0,0,0,0,0,0,0,
0,0,0,0,0,17,33,0,0,35,17,0,0,0,0,0,0,0,0,0,0,0,0,0,0,0,0,0,0,0,0,0,0,0,0,0,4,9,9,8,8,8,6,3,8,1,0,0,0,0,0,0,0,0,0,0,0,0,0,0,0,0,0,36,
0,0,0,0,0,21,36,0,44,0,0,0,0,0,0,0,0,0,0,0,0,0,0,0,0,0,0,0,0,0,0,0,1,0,1,0,3,9,8,10,8,9,8,5,7,1,0,0,0,0,0,0,0,0,0,0,0,0,0,0,0,0,0,0,
36,0,0,0,0,21,36,0,26,0,41,0,0,0,0,0,0,0,0,0,0,0,0,0,0,0,0,0,0,0,0,0,1,1,1,5,0,4,8,9,33,5,7,8,7,4,0,0,0,0,0,0,0,0,0,0,0,0,0,0,0,0,0,37,
0,0,0,0,0,25,0,38,38,0,0,0,0,0,0,0,0,0,0,0,0,0,0,0,0,0,0,0,0,0,0,0,0,0,0,4,1,8,7,8,11,8,9,9,2,2,1,0,0,0,0,0,0,0,0,0,0,0,0,0,0,0,0,0,
33,0,0,0,0,22,39,0,35,0,0,0,0,0,0,0,0,0,0,0,0,0,0,0,0,0,0,0,0,0,1,0,0,1,2,0,0,8,7,20,10,7,11,8,5,1,1,1,0,0,0,0,0,0,0,0,0,0,0,0,0,0,0,25,
0,0,0,0,0,23,0,39,33,0,0,0,46,0,0,0,0,0,0,0,0,0,0,0,0,0,0,0,0,0,5,2,5,1,1,0,3,9,12,12,8,12,7,3,7,5,1,0,0,0,0,0,0,0,0,0,0,0,0,0,0,0,0,0,
0,32,0,0,0,28,36,0,0,0,0,42,0,0,0,0,0,0,0,0,0,0,0,0,0,0,0,0,0,0,4,0,0,2,0,2,4,8,8,19,9,11,9,7,4,2,0,1,0,0,0,0,0,0,0,0,0,0,0,0,0,0,0,0,
31,0,0,0,0,20,12,39,0,36,0,0,0,0,0,0,0,0,0,0,0,0,0,0,0,0,0,0,0,0,0,0,0,0,2,1,7,9,8,11,10,10,9,1,6,1,1,0,0,0,0,0,0,0,0,0,0,0,0,0,0,0,0,32,
0,0,0,0,0,15,41,0,0,0,41,7,0,0,0,0,0,0,0,0,0,0,0,0,0,0,0,0,0,0,1,0,0,1,1,1,3,8,7,9,9,8,3,9,5,2,1,0,0,0,0,0,0,0,0,0,0,0,0,0,0,0,0,37,
0,0,0,0,0,25,33,0,39,0,0,0,0,0,0,0,0,0,0,0,0,0,0,0,0,0,0,0,0,0,0,0,6,1,0,0,2,9,7,8,9,8,7,2,2,2,1,0,0,0,0,0,0,0,0,0,0,0,0,0,0,0,0,35,
0,0,0,0,0,26,0,37,32,0,0,0,0,0,0,0,0,0,0,0,0,0,0,0,0,0,0,0,0,0,3,0,2,0,0,0,2,8,8,8,12,8,9,8,2,1,1,0,0,0,0,0,0,0,0,0,0,0,0,0,0,0,0,33,
0,0,0,0,0,24,32,0,0,0,0,0,0,0,0,0,0,0,0,0,0,0,0,0,0,0,0,0,0,0,0,5,0,0,0,0,0,10,7,7,9,9,7,5,6,1,0,1,0,0,0,0,0,0,0,0,0,0,0,0,0,0,0,33,
0,0,0,0,0,17,39,0,38,0,0,0,0,0,40,0,0,0,0,0,0,0,0,0,0,0,0,0,0,9,0,0,3,0,3,0,1,8,6,32,9,7,9,8,6,1,0,1,0,1,0,0,0,0,0,0,0,0,0,0,0,0,0,37,
0,0,0,0,0,22,37,0,37,0,0,0,0,0,0,0,0,0,0,0,0,0,0,0,0,0,0,0,0,0,0,0,7,0,0,1,1,7,7,8,8,9,8,7,5,2,0,0,0,0,0,0,0,0,0,0,0,0,0,0,0,0,0,0,
0,0,0,0,0,22,11,39,0,38,0,0,0,0,0,0,0,0,0,0,0,0,0,0,0,0,0,0,0,0,0,4,0,0,3,0,8,8,8,10,9,6,8,6,5,4,0,0,0,0,0,0,0,0,0,0,0,0,0,0,0,0,0,35,
0,0,0,0,0,19,35,19,0,18,0,0,1,0,0,0,0,0,0,0,0,0,0,0,0,0,0,0,0,0,0,7,0,0,7,0,1,6,7,12,8,9,9,7,9,1,0,0,0,0,0,0,0,0,0,0,0,0,0,0,0,0,0,0,
29,0,0,0,0,21,42,0,0,35,0,35,0,0,0,0,0,0,0,0,0,0,0,0,0,0,0,0,0,0,0,0,2,0,0,0,0,7,9,8,8,10,8,6,2,1,0,0,0,0,0,0,0,0,0,0,0,0,0,0,0,0,0,0,
38,0,0,0,0,21,41,0,0,37,13,0,0,0,0,0,0,0,0,0,0,0,0,0,0,0,0,0,0,0,0,0,1,0,1,0,3,10,8,8,9,9,8,8,1,3,3,2,0,0,0,0,0,0,0,0,0,0,0,0,0,0,35,0,
0,0,0,0,0,38,38,0,35,0,0,0,0,0,0,0,0,0,0,0,0,0,0,0,0,0,0,0,0,0,0,0,4,0,0,0,2,9,9,9,11,10,7,2,1,9,1,0,0,0,0,0,0,0,0,0,0,0,0,0,0,0,0,23,
0,0,0,0,0,33,0,0,37,0,0,0,0,0,0,0,0,0,0,0,0,0,0,0,0,0,0,0,0,0,0,0,0,0,0,0,0,9,9,8,9,7,7,7,1,0,0,0,0,0,0,0,0,0,0,0,0,0,0,0,0,0,0,0,
