0,45,0,0,0,15,37,0,35,39,0,0,0,0,0,0,0,0,0,0,0,0,0,0,0,0,0,0,0,0,0,0,0,0,0,0,4,7,7,8,7,11,7,6,7,0,0,0,0,0,0,0,0,0,0,0,0,0,0,0,0,0,0,0,
0,43,0,0,0,22,39,25,0,0,0,0,0,0,0,0,0,0,0,0,0,0,0,0,0,0,0,0,0,0,0,0,0,4,4,0,3,8,8,8,10,9,7,6,5,1,0,1,0,0,0,0,0,0,0,0,0,0,0,0,0,0,0,0,
0,0,40,0,0,19,35,0,40,0,0,0,0,16,0,0,0,0,0,0,0,0,0,0,0,0,0,0,0,0,0,0,0,1,0,3,3,6,7,8,9,8,6,8,3,5,1,0,0,0,0,0,0,0,0,0,0,0,0,0,0,0,0,0,
40,0,0,0,0,17,35,0,35,0,0,0,0,0,0,0,0,0,0,0,0,0,0,0,0,0,0,0,0,0,0,5,0,0,0,0,5,7,8,8,9,7,5,5,0,2,1,0,0,0,0,0,0,0,0,0,0,0,0,0,0,0,0,0,
0,0,0,0,0,17,37,0,0,38,0,0,42,0,0,0,0,0,0,0,0,0,0,0,0,0,0,0,0,0,4,0,3,0,0,0,7,8,7,24,8,8,7,6,6,0,0,0,0,0,0,0,0,0,0,0,0,0,0,0,0,0,0,0,
0,37,0,0,0,12,32,0,39,0,0,0,0,0,0,0,0,0,0,0,0,0,0,0,0,0,0,0,0,0,8,0,0,0,3,4,3,6,8,25,6,8,8,10,5,1,0,0,0,0,0,0,0,0,0,0,0,0,0,0,0,0,0,0,
43,0,0,0,20,0,40,0,0,36,0,0,0,0,0,0,0,0,0,0,0,0,0,0,0,0,0,0,0,0,0,0,6,0,3,0,4,9,8,7,12,8,5,3,1,6,0,0,0,0,0,0,0,0,0,0,0,0,0,0,0,0,0,0,
0,40,0,0,0,12,0,0,0,0,0,0,45,0,0,0,0,0,0,0,0,0,0,0,0,0,0,0,0,0,5,0,0,3,2,0,3,6,7,25,11,9,9,9,1,5,0,0,0,0,0,0,0,0,0,0,0,0,0,0,0,0,0,0,
35,0,0,0,0,23,0,14,0,36,0,0,0,0,0,0,0,0,0,0,0,0,0,0,0,0,0,0,0,0,0,0,4,0,0,0,5,8,20,7,7,9,5,8,5,1,0,0,0,0,0,0,0,0,0,0,0,0,0,0,0,0,0,0,
0,0,0,0,0,16,37,0,35,0,0,0,0,16,0,0,0,0,0,0,0,0,0,0,0,0,0,0,0,0,0,0,0,0,1,3,3,9,8,8,11,7,13,8,1,5,0,0,0,0,0,0,0,0,0,0,0,0,0,0,0,0,0,0,
36,0,0,0,0,20,35,0,0,35,0,0,43,0,0,0,0,0,0,0,0,0,0,0,0,0,0,0,0,0,0,4,0,0,0,3,4,5,7,24,10,9,7,6,7,1,0,0,0,0,0,0,0,0,0,0,0,0,0,0,0,0,0,0,
0,0,42,0,0,20,0,0,37,0,0,0,0,0,0,0,0,0,0,0,0,0,0,0,0,0,0,0,0,0,0,0,3,0,0,4,0,7,6,10,8,8,8,7,1,1,0,0,0,0,0,0,0,0,0,0,0,0,0,0,0,0,0,0,
0,35,0,0,0,32,0,27,38,0,0,0,0,0,0,0,0,0,0,0,0,0,0,0,0,0,0,0,0,0,0,0,0,7,0,0,0,7,10,9,8,9,7,8,4,5,0,0,0,0,0,0,0,0,0,0,0,0,0,0,0,0,0,0,
38,0,0,0,0,17,0,40,0,38,0,0,0,46,0,0,0,0,0,0,0,0,0,0,0,0,0,0,0,1,0,2,3,0,0,0,7,8,9,9,39,10,8,3,4,0,0,0,0,0,0,0,0,0,0,0,0,0,0,0,0,0,0,0,
0,0,41,0,0,23,37,0,38,0,0,0,0,42,0,0,0,0,0,0,0,0,0,0,0,0,0,0,0,0,6,0,3,1,0,3,3,6,16,8,11,6,8,10,7,1,0,0,0,0,0,0,0,0,0,0,0,0,0,0,0,0,0,37,
0,0,0,0,0,24,0,39,0,0,0,0,0,0,0,0,0,0,0,0,0,0,0,0,0,0,0,0,0,0,0,0,0,0,3,0,0,5,8,7,11,8,6,3,8,6,0,0,0,0,0,0,0,0,0,0,0,0,0,0,0,0,0,0,
0,41,0,0,0,16,37,0,41,0,0,0,0,0,0,0,0,0,0,0,0,0,0,0,0,0,0,0,0,0,0,0,6,0,0,3,0,9,8,8,8,8,7,8,7,2,0,0,0,0,0,0,0,0,0,0,0,0,0,0,0,0,0,0,
37,0,0,0,0,21,35,0,0,40,0,0,0,0,0,0,0,0,0,0,0,0,0,0,0,0,0,0,0,0,0,1,0,0,0,0,2,7,8,8,8,8,3,7,1,1,1,0,0,0,0,0,0,0,0,0,0,0,0,0,0,0,0,0,
0,35,0,0,0,16,38,0,0,0,0,0,0,0,0,0,0,0,0,0,0,0,0,0,0,0,0,0,0,0,0,0,0,0,4,0,4,8,7,10,8,9,8,6,7,3,1,0,0,0,0,0,0,0,0,0,0,0,0,0,0,0,0,0,
0,0,42,0,0,12,38,0,42,0,0,0,0,0,0,0,0,0,0,0,0,0,0,0,0,0,0,0,0,0,0,0,0,5,0,1,6,8,7,16,7,8,8,7,5,5,1,0,0,0,0,0,0,0,0,0,0,0,0,0,0,0,0,0,
40,0,0,0,0,33,38,0,0,34,0,0,0,0,0,0,0,0,0,0,0,0,0,0,0,0,0,0,0,0,0,2,0,0,0,6,7,8,11,8,10,10,7,8,7,6,2,0,0,0,0,0,0,0,0,0,0,0,0,0,0,0,0,40,
0,0,0,0,0,17,37,0,0,0,0,0,0,0,0,0,0,0,0,0,0,0,0,0,0,0,0,0,0,0,0,0,3,0,0,0,3,6,7,8,7,8,7,6,5,0,2,0,0,0,0,0,0,0,0,0,0,0,0,0,0,0,0,0,
38,0,0,0,0,27,37,0,0,33,0,0,1,0,44,0,0,0,0,0,0,0,0,0,0,0,0,0,0,0,14,0,3,0,0,0,2,8,9,32,8,6,7,8,7,0,1,0,0,0,0,0,0,0,0,0,0,0,0,0,0,0,0,0,
0,0,45,0,0,26,0,0,0,35,0,17,0,0,0,0,0,0,0,0,0,0,0,0,0,0,0,0,0,0,1,0,5,0,3,0,4,7,12,7,7,6,8,7,1,1,0,0,0,0,0,0,0,0,0,0,0,0,0,0,0,0,0,0,
43,0,0,0,0,19,0,0,0,36,0,0,0,0,0,0,0,0,0,0,0,0,0,0,0,0,0,0,0,0,0,1,0,0,0,0,7,8,6,7,7,8,8,7,1,1,5,0,0,0,0,0,0,0,0,0,0,0,0,0,0,0,0,0,
0,0,42,0,0,20,0,41,0,39,0,0,0,0,0,0,0,0,0,0,0,0,0,0,0,0,0,0,0,0,0,0,0,4,0,4,6,8,7,11,7,6,12,2,1,0,0,1,0,0,0,0,0,0,0,0,0,0,0,0,0,0,0,0,
0,39,0,0,0,27,0,0,0,36,0,0,0,0,0,0,0,0,0,0,0,0,0,0,0,0,0,0,0,0,0,0,0,0,0,0,0,8,8,9,9,7,7,6,9,7,1,0,0,0,0,0,0,0,0,0,0,0,0,0,0,0,0,0,
40,0,0,0,0,23,38,0,44,0,0,10,0,0,0,0,0,0,0,0,0,0,0,0,0,0,0,0,0,0,0,0,0,0,2,0,1,4,8,9,8,8,6,4,7,5,0,0,0,0,0,0,0,0,0,0,0,0,0,0,0,0,0,0,
0,0,0,42,0,24,0,0,40,0,0,0,0,0,0,0,0,0,0,0,0,0,0,0,0,0,0,0,0,0,0,0,0,0,2,0,0,9,8,9,8,10,8,1,1,1,0,0,0,0,0,0,0,0,0,0,0,0,0,0,0,0,0,0,
0,0,40,0,0,22,0,0,38,0,0,0,0,27,0,0,0,0,0,0,0,0,0,0,0,0,0,0,0,0,0,0,3,0,0,1,2,10,9,9,9,8,8,8,7,1,8,0,0,0,0,0,0,0,0,0,0,0,0,0,0,0,0,0,
39,0,0,0,0,20,37,37,0,0,0,0,0,39,0,0,0,0,0,0,0,0,0,0,0,0,0,0,0,0,9,0,0,3,0,4,0,1,8,31,10,8,9,8,3,3,0,0,0,0,0,0,0,0,0,0,0,0,0,0,0,0,0,0,
0,42,0,0,0,17,39,0,42,0,0,0,0,0,0,0,0,0,0,0,0,0,0,0,0,0,0,0,0,0,0,0,7,0,0,3,0,5,7,9,9,7,8,9,0,2,0,0,0,0,0,0,0,0,0,0,0,0,0,0,0,0,0,0,
0,41,0,0,0,15,0,41,0,35,0,0,0,0,41,0,0,0,0,0,0,0,0,0,0,0,0,0,0,0,7,3,0,0,0,4,6,8,12,9,10,10,6,5,1,10,0,0,0,0,0,0,0,0,0,0,0,0,0,0,0,0,0,0,
39,0,0,0,0,21,37,0,36,0,0,0,46,0,0,0,0,0,0,0,0,0,0,0,0,0,0,0,0,0,0,0,1,4,4,0,7,7,7,23,9,8,9,8,7,2,0,0,0,0,0,0,0,0,0,0,0,0,0,0,0,0,0,0,
0,38,0,0,0,19,37,0,35,0,0,0,0,0,1,0,0,0,0,0,0,0,0,0,0,0,0,0,0,0,0,0,0,0,0,0,3,8,10,9,10,7,7,8,1,1,0,0,0,0,0,0,0,0,0,0,0,0,0,0,0,0,0,0,
0,42,0,0,0,13,0,0,38,34,0,0,0,0,0,0,0,0,0,0,0,0,0,0,0,0,0,0,0,0,0,0,0,0,3,0,8,8,9,10,9,8,9,1,7,0,0,0,0,0,0,0,0,0,0,0,0,0,0,0,0,0,0,0,
0,40,0,0,0,28,37,0,34,0,0,0,44,0,0,0,0,0,0,0,0,0,0,0,0,0,0,0,0,0,3,0,0,3,2,0,5,8,9,17,7,8,11,8,2,1,1,0,0,0,0,0,0,0,0,0,0,0,0,0,0,0,0,0,
34,0,0,0,0,39,0,28,0,34,0,0,0,0,0,0,0,0,0,0,0,0,0,0,0,0,0,0,0,0,0,0,0,0,3,0,8,8,8,10,8,10,5,8,1,7,0,0,0,0,0,0,0,0,0,0,0,0,0,0,0,0,0,0,
39,0,0,0,0,17,36,25,39,0,0,0,0,0,44,0,0,0,0,0,0,0,0,0,0,0,0,0,0,0,0,3,0,0,0,0,3,8,8,10,9,9,8,7,3,1,4,0,0,0,0,0,0,0,0,0,0,0,0,0,0,0,0,0,
0,0,0,0,0,25,36,0,0,42,0,0,0,0,0,0,0,0,0,0,0,0,0,0,0,0,0,0,0,0,0,0,0,0,0,6,8,11,12,10,9,7,7,9,1,3,1,0,0,0,0,0,0,0,0,0,0,0,0,0,0,0,0,0,
43,0,0,0,0,12,37,34,0,41,0,0,0,0,44,0,0,0,0,0,0,0,0,0,0,0,0,0,0,2,0,0,0,0,1,4,8,9,10,18,10,11,7,6,6,0,0,0,0,0,0,0,0,0,3,0,0,0,0,0,0,0,0,0,
0,0,0,0,0,28,36,0,0,36,0,0,0,0,0,0,0,0,0,0,0,0,0,0,0,0,0,0,0,0,0,0,0,0,0,0,7,9,8,8,14,8,7,8,4,5,0,0,0,0,0,0,0,0,0,0,0,0,0,0,0,0,0,0,
0,40,0,0,0,32,35,0,0,0,0,39,0,0,0,0,0,0,0,0,0,0,0,0,0,0,0,0,0,0,0,0,0,3,0,0,3,10,9,22,9,8,9,7,6,0,0,0,0,0,0,0,0,0,0,0,0,0,0,0,0,0,0,0,
39,0,0,0,0,24,0,39,0,41,0,0,0,0,0,0,0,0,0,0,0,0,0,0,0,0,0,0,0,0,0,1,0,0,3,7,5,7,10,9,10,9,7,7,1,6,1,0,0,0,0,0,0,0,0,0,0,0,0,0,0,0,0,0,
0,0,0,0,0,17,37,0,0,36,0,0,42,0,0,0,0,0,0,0,0,0,0,0,0,0,0,0,0,0,0,0,0,3,0,0,7,7,7,20,10,6,7,8,6,1,0,0,0,0,0,0,0,0,0,0,0,0,0,0,0,0,0,0,
39,0,0,0,0,19,0,42,0,43,0,0,0,0,0,0,0,0,0,0,0,0,0,0,0,0,0,0,0,0,0,0,3,8,1,3,9,7,10,14,6,9,7,8,9,0,1,0,0,0,0,0,0,0,0,0,0,0,0,0,0,0,0,0,
0,39,0,0,0,17,0,42,0,37,0,0,0,0,45,0,0,0,0,0,0,0,0,0,0,0,0,0,0,1,0,3,3,0,6,7,9,10,7,21,9,10,8,9,5,1,0,0,0,0,0,0,0,0,0,0,0,0,0,0,0,0,0,0,
33,0,0,0,0,21,39,0,0,38,0,0,0,0,0,0,0,0,0,0,0,0,0,0,0,0,0,0,0,0,0,3,0,0,0,6,8,10,8,10,10,8,3,5,3,0,1,0,0,0,0,0,0,0,0,0,0,0,0,0,0,0,0,0,
0,40,0,0,0,20,0,42,0,40,0,0,0,45,0,0,0,0,0,0,0,0,0,0,0,0,0,0,0,2,0,3,0,0,0,6,7,6,8,9,10,8,10,3,3,7,1,0,0,0,0,0,0,0,0,0,0,0,0,0,0,0,0,0,
0,0,41,0,0,21,37,25,0,0,0,0,0,0,0,0,45,0,0,0,0,0,0,0,0,0,0,0,0,0,0,2,0,2,0,0,6,9,7,25,9,8,8,9,3,1,0,0,0,0,0,0,0,0,0,0,0,0,0,0,0,0,0,0,
