35,0,0,0,0,23,0,0,34,0,48,0,0,0,0,0,0,0,0,0,0,0,0,0,0,0,0,0,0,0,0,0,0,0,0,0,3,8,8,8,9,7,48,10,3,3,0,0,0,0,0,0,0,0,0,0,0,0,0,0,0,0,0,0,
0,0,0,0,0,35,0,0,38,0,0,48,11,0,0,0,0,0,0,0,0,0,0,0,0,0,0,0,0,0,1,1,2,2,0,3,4,8,9,10,48,9,7,4,9,1,0,1,0,0,0,0,0,0,0,0,0,0,0,0,0,0,0,0,
0,0,0,0,0,35,0,0,27,0,0,0,0,48,14,0,0,0,0,0,0,0,0,0,0,0,0,0,0,0,0,0,0,0,0,5,0,1,8,10,48,7,7,4,3,4,1,0,0,0,0,0,0,0,0,0,0,0,0,0,0,0,0,0,
0,0,0,0,26,18,10,0,32,0,0,0,0,0,0,0,48,0,0,0,0,0,0,0,0,0,0,0,0,0,0,0,0,0,0,0,0,0,7,8,48,10,8,8,5,4,0,0,0,0,0,0,0,0,0,0,0,0,0,0,0,0,0,0,
28,0,0,0,0,0,32,0,0,0,37,47,0,0,0,0,0,0,0,0,0,0,0,0,0,0,0,0,0,0,0,0,0,0,0,0,0,3,8,7,10,8,8,8,6,10,4,48,0,0,0,0,0,0,0,0,0,0,0,0,0,0,0,0,
17,0,0,0,26,30,0,0,35,0,48,0,0,29,0,0,0,0,0,0,0,0,0,0,0,0,0,0,0,5,0,0,4,3,0,0,0,14,9,19,10,9,48,4,9,0,0,1,0,0,0,0,0,0,0,0,0,0,0,0,0,0,0,0,
0,0,0,0,0,0,36,0,0,0,39,0,48,0,0,0,22,0,0,0,0,0,0,0,0,0,0,0,0,0,0,0,0,0,0,0,4,5,10,7,10,48,8,5,9,7,1,1,1,0,1,0,0,0,0,0,0,0,0,0,0,0,0,0,
0,0,0,0,28,33,0,0,21,13,0,0,0,48,45,0,0,0,0,0,0,0,0,0,0,0,0,0,0,0,1,0,0,6,1,0,0,9,11,9,48,9,8,8,4,1,1,0,0,0,0,0,0,0,0,0,0,0,0,0,0,0,0,0,
36,0,0,0,0,26,0,0,0,0,0,0,0,0,0,0,0,0,0,0,0,0,0,0,0,0,0,0,0,0,0,3,0,0,0,0,1,8,9,10,48,9,9,4,4,1,1,0,0,0,0,0,0,0,0,0,0,0,0,0,0,0,0,0,
0,30,0,0,0,0,33,15,0,0,9,0,0,0,0,0,0,0,0,48,0,0,0,0,0,0,0,0,0,0,0,0,0,0,0,2,1,4,4,31,16,9,10,8,2,7,1,1,0,0,0,0,0,0,0,0,0,0,0,0,0,0,0,0,
0,0,0,0,0,35,21,0,32,0,0,0,0,0,0,0,0,0,0,0,0,0,0,0,0,0,0,0,0,0,0,0,0,0,0,0,3,8,9,8,8,10,7,1,48,0,0,0,0,0,0,0,0,0,0,0,0,0,0,0,0,0,0,0,
34,0,0,0,0,0,39,0,0,21,48,0,0,0,0,0,0,0,0,0,0,0,0,0,0,0,0,0,0,0,0,0,3,0,0,0,0,0,0,8,8,10,8,8,48,5,3,0,0,0,0,0,0,0,0,0,0,0,0,0,0,0,0,0,
7,0,0,0,0,0,36,0,0,29,0,48,0,0,38,0,0,0,0,0,0,0,0,0,0,0,0,0,0,0,0,1,0,3,0,0,3,4,7,6,8,8,8,48,8,1,6,1,0,0,0,0,0,0,0,0,0,0,0,0,0,0,0,33,
0,0,0,0,0,0,36,0,0,35,48,0,0,0,26,0,0,0,0,0,0,0,0,0,0,0,0,0,0,0,0,0,0,0,0,0,2,8,8,9,9,8,10,7,7,7,1,3,1,0,0,0,0,0,0,0,0,0,0,0,0,0,0,35,
0,0,0,0,0,27,29,0,46,26,12,0,0,0,0,0,0,0,0,0,0,0,0,0,0,0,0,0,0,0,0,0,0,0,0,0,0,3,2,8,8,8,8,8,6,1,1,0,0,0,0,0,0,0,0,0,0,0,0,0,0,0,0,0,
29,0,0,0,0,32,0,0,30,0,0,0,0,0,0,0,39,0,0,0,0,0,0,0,0,0,0,0,0,0,0,0,0,0,0,0,0,5,7,9,36,8,1,7,4,6,0,1,0,0,0,0,0,0,0,0,0,0,0,0,0,0,0,0,
28,0,0,0,0,0,35,0,0,0,36,0,0,0,0,0,0,0,0,0,0,0,0,0,0,0,0,0,0,0,0,0,0,0,0,0,2,1,8,10,10,10,8,7,10,8,1,1,0,0,0,0,0,0,0,0,0,0,0,0,0,0,0,0,
34,0,0,0,0,30,0,28,0,0,34,0,0,0,0,0,0,0,0,0,0,0,0,0,0,0,0,0,0,0,0,0,3,0,0,0,0,1,5,8,7,9,8,12,7,5,0,1,0,0,0,0,0,0,0,0,0,0,0,0,0,0,0,0,
34,0,0,0,0,32,18,0,0,35,0,0,0,45,0,0,0,0,0,0,0,0,0,0,0,0,0,0,0,0,0,0,0,4,0,0,0,3,6,8,19,8,8,6,7,7,6,1,1,0,0,0,0,0,0,0,0,33,0,0,0,0,0,30,
0,0,0,0,0,36,0,0,33,41,48,0,16,0,0,0,0,0,0,0,0,0,0,0,0,0,0,0,0,0,0,0,0,4,0,2,3,5,8,8,10,7,48,4,0,3,0,0,0,0,0,0,0,0,0,0,0,0,0,0,0,0,32,0,
0,0,0,0,0,29,29,0,32,0,23,0,0,0,0,0,0,0,0,0,0,0,0,0,0,0,0,0,0,0,0,0,0,0,0,0,3,5,11,9,10,8,48,8,6,1,1,1,0,0,0,0,0,0,0,0,0,0,0,0,0,0,0,0,
33,0,0,0,0,29,0,0,31,0,0,48,0,0,0,0,0,0,0,0,0,0,0,0,0,0,0,0,0,0,0,0,0,0,0,5,0,8,11,10,48,10,9,4,1,1,1,0,0,0,0,0,0,0,0,0,0,0,0,0,0,0,0,0,
26,0,0,0,0,0,12,0,0,0,31,0,0,0,0,0,0,0,0,0,0,0,0,0,0,0,0,0,0,0,0,0,4,0,0,0,0,0,8,8,8,48,10,8,6,3,1,1,0,0,0,0,0,0,0,0,0,0,0,0,0,0,0,0,
31,0,0,0,0,30,35,0,17,0,0,0,0,0,0,48,0,0,0,0,0,0,0,0,0,0,0,0,0,0,0,0,0,0,0,0,4,5,10,11,48,10,7,2,5,1,0,1,0,0,0,0,0,0,0,0,0,0,0,0,0,0,0,0,
30,0,0,0,0,0,21,34,0,0,7,0,41,0,0,48,0,0,0,0,0,0,0,0,0,0,0,0,0,0,0,0,0,0,0,0,7,0,8,10,23,48,8,8,8,7,1,1,0,0,0,0,0,0,0,0,0,0,0,0,0,0,0,0,
0,0,0,0,0,35,0,0,14,0,0,0,0,0,0,48,0,0,0,0,0,0,0,0,0,0,0,0,0,0,0,0,0,0,0,0,0,8,11,9,48,9,8,5,9,1,1,0,0,0,0,0,0,0,0,0,0,0,0,0,0,0,0,0,
26,0,0,0,0,24,0,0,0,0,0,0,0,48,0,0,0,0,0,0,0,0,0,0,0,0,0,0,0,0,0,0,0,0,0,0,4,7,10,9,9,48,10,4,1,6,1,1,0,0,0,0,0,0,0,0,0,0,0,0,0,0,32,0,
0,0,0,0,20,0,0,0,26,0,0,0,48,40,0,0,0,0,0,0,0,0,0,0,0,0,0,0,0,0,0,5,6,0,4,0,3,2,9,17,48,8,8,7,3,1,1,0,0,5,0,0,0,0,0,0,0,0,0,0,0,0,23,0,
0,0,0,0,21,30,0,6,0,36,0,0,44,0,0,0,0,0,0,0,0,0,0,0,0,0,0,0,0,0,0,3,0,0,0,0,4,12,8,11,8,48,8,2,1,3,0,0,1,0,0,0,0,0,0,0,0,0,0,0,0,0,0,0,
0,34,0,0,0,0,9,39,0,33,0,0,37,19,48,0,0,0,0,0,0,0,0,0,0,0,0,0,0,0,0,0,1,4,0,0,0,4,9,9,8,48,8,9,7,0,2,1,0,0,0,0,0,0,0,0,0,0,0,0,0,0,0,0,
0,0,0,0,0,39,0,0,38,0,0,0,0,0,48,0,0,0,0,0,0,0,0,0,0,0,0,0,0,0,0,0,0,0,0,0,5,8,9,7,48,8,6,8,3,1,0,1,0,0,0,0,0,0,0,0,0,0,0,0,0,0,0,0,
33,0,0,0,0,39,22,0,33,0,0,41,0,0,0,0,0,0,0,0,0,0,0,0,0,0,0,0,0,0,0,0,4,4,0,3,3,8,9,9,42,8,9,8,3,0,4,0,0,0,0,0,0,0,0,0,0,0,0,0,0,0,0,0,
26,0,0,0,0,25,28,17,0,0,0,18,39,0,48,0,0,0,0,0,0,0,0,0,0,0,0,0,0,0,0,1,3,2,3,0,4,10,10,26,48,8,9,8,3,0,1,0,3,0,0,0,0,0,0,0,0,0,0,0,0,0,0,0,
32,0,0,0,0,0,28,33,0,18,0,0,0,0,0,39,0,0,0,0,0,0,0,0,0,39,0,0,0,0,0,0,0,0,0,4,0,4,8,12,43,9,10,7,1,4,8,1,1,1,0,0,0,0,0,0,0,0,0,0,0,0,0,0,
32,0,0,0,0,34,0,0,29,0,0,0,47,0,0,0,47,0,0,0,0,0,0,0,0,0,0,0,0,0,0,0,6,0,5,0,5,9,8,23,9,8,8,7,8,5,1,1,0,0,0,0,0,0,0,0,0,0,0,0,0,0,0,0,
34,0,0,0,0,0,38,0,0,0,0,0,48,0,0,0,0,0,0,0,0,0,0,0,0,0,0,0,0,0,0,0,0,0,0,0,0,0,9,9,10,12,48,8,6,1,2,1,0,0,0,0,0,0,0,0,0,0,0,0,0,0,0,0,
21,0,0,0,0,0,0,0,0,36,0,48,0,0,0,0,0,0,0,0,0,0,0,0,0,0,0,0,0,0,0,0,0,0,0,0,0,3,9,8,9,9,10,48,9,3,1,1,0,0,0,0,0,0,0,0,0,0,0,0,0,0,0,0,
0,29,0,0,0,0,35,19,0,0,37,42,48,0,0,0,0,0,0,0,0,0,0,0,0,0,0,0,0,0,0,0,0,2,0,0,0,0,8,9,10,23,11,10,6,1,1,0,1,0,0,0,0,0,0,0,0,0,0,0,0,0,0,0,
0,0,0,0,0,33,0,0,32,0,0,0,0,48,0,42,0,0,0,0,0,0,0,0,0,0,0,0,0,0,0,0,5,0,0,0,0,10,8,16,48,8,7,8,2,3,6,1,0,0,0,0,0,0,0,0,0,0,0,0,0,0,28,0,
0,0,0,0,16,18,0,0,10,0,0,0,0,48,0,0,0,0,0,0,0,0,0,0,0,0,0,0,0,0,7,0,0,0,3,0,5,10,10,22,48,9,6,8,1,1,1,7,0,0,0,0,0,0,0,0,0,0,0,0,0,0,0,22,
0,0,0,0,0,33,0,0,28,0,0,0,0,0,0,0,0,0,0,0,0,0,0,0,0,0,0,0,0,4,0,0,0,0,0,0,0,10,10,12,11,9,8,8,1,1,1,0,0,0,0,0,0,0,0,0,0,0,0,0,0,0,0,0,
33,0,0,0,0,0,34,22,19,0,9,12,48,0,0,0,0,0,0,0,0,0,0,0,0,0,0,0,0,0,0,0,0,0,3,2,0,3,6,5,9,10,10,48,8,8,2,0,0,0,0,0,0,0,0,0,0,0,0,0,0,0,0,0,
0,0,0,0,0,37,0,19,0,13,0,48,0,0,0,0,0,0,0,0,0,0,0,0,0,0,0,0,0,0,3,1,3,0,3,0,5,3,12,31,10,11,11,12,1,1,2,0,0,0,0,0,0,0,0,0,0,0,0,0,0,0,0,0,
32,0,0,0,0,0,34,20,0,26,0,0,0,48,0,0,0,0,0,0,0,0,0,0,0,0,0,0,0,0,0,0,0,0,0,0,0,1,7,10,9,12,10,8,4,9,1,1,0,0,0,0,0,0,0,0,0,0,0,0,0,0,0,0,
0,0,0,0,0,22,0,0,0,37,0,0,0,0,0,0,0,48,0,0,0,0,0,0,0,0,0,0,0,0,0,0,0,0,0,0,0,12,10,48,12,10,7,5,9,3,0,0,0,0,0,0,0,0,0,0,0,0,0,0,0,0,0,0,
0,35,0,0,0,30,25,0,0,0,0,0,0,0,0,0,0,0,0,0,0,0,0,0,0,0,0,0,0,0,0,0,0,0,0,0,0,0,12,11,10,10,12,7,8,3,1,7,0,0,0,0,0,0,0,0,0,0,0,0,0,0,0,0,
0,0,0,0,28,26,0,0,35,0,0,46,0,0,0,44,0,0,0,0,0,0,0,0,0,0,0,0,0,0,0,0,0,0,8,0,5,8,9,17,11,48,6,15,3,1,1,0,1,0,0,0,0,0,0,0,0,0,0,0,0,0,0,0,
36,0,0,0,0,31,0,25,32,0,0,43,0,0,0,0,0,0,0,0,0,0,0,0,0,0,0,0,0,0,0,0,0,0,0,7,0,7,8,19,48,10,8,12,8,1,8,0,0,0,0,0,0,0,0,0,0,0,0,0,0,0,0,0,
0,0,35,0,0,34,26,0,16,0,0,0,0,46,48,0,0,0,0,0,0,0,0,0,0,0,0,0,0,0,0,0,0,0,5,0,0,0,11,11,10,12,10,9,5,10,1,0,0,0,0,0,0,0,0,0,0,0,0,0,0,0,0,0,
37,0,0,0,0,0,15,0,0,30,0,0,0,0,0,0,0,0,0,0,0,0,0,0,0,0,0,0,0,0,0,0,3,0,0,0,0,0,1,11,11,48,10,9,7,15,1,1,0,0,0,0,0,0,0,0,0,0,0,0,0,0,0,0,
