0,0,0,144,0,0,0,0,0,0,144,0,0,0,144,0,0,0,0,0,0,0,144,0,0,0,144,0,0,0,144,0,0,0,0,0,0,0,0,144,0,0,0,0,144,0,0,0,0,0,0,0,144,0,0,0,0,144,0,0,0,0,144,0
0,0,0,0,144,0,0,0,0,0,0,144,0,0,0,0,0,144,0,0,0,0,0,0,144,0,0,0,144,0,0,0,0,0,0,0,144,0,0,0,0,0,0,0,0,0,0,0,0,144,0,0,0,0,0,144,0,0,0,0,0,0,0,0
144,0,0,0,0,0,0,0,144,0,0,144,0,0,0,0,0,144,0,0,144,0,0,0,0,0,0,0,0,0,0,0,0,0,0,0,144,0,0,0,0,0,0,0,0,0,0,0,144,0,0,0,0,0,0,114,0,0,0,0,144,0,0,0
0,0,144,0,0,0,141,0,0,0,0,0,144,0,0,0,0,0,0,0,0,144,0,0,0,0,0,0,144,0,0,0,0,0,144,0,0,0,0,0,144,0,0,0,0,0,0,144,0,0,144,0,0,0,0,0,144,0,0,0,0,0,144,0
0,144,0,0,0,0,144,0,0,144,0,0,0,0,144,0,0,0,0,144,0,0,0,0,144,0,0,0,0,0,0,144,0,0,0,144,0,0,0,0,0,0,0,144,0,0,0,144,0,0,144,0,0,0,0,0,0,144,0,0,144,0,0,0
0,0,144,0,0,0,0,0,144,0,0,144,0,0,0,0,0,0,0,0,0,0,0,144,0,0,0,144,0,0,0,0,0,0,0,0,0,144,0,0,0,144,0,0,135,0,0,144,0,0,0,0,144,0,0,0,0,0,0,144,0,0,0,144
0,0,0,0,0,0,0,0,0,0,0,0,0,0,0,144,0,0,0,0,0,144,0,0,0,0,0,0,144,0,0,0,0,144,0,0,0,0,0,144,0,0,0,0,0,0,0,0,0,0,144,0,0,0,0,0,0,0,144,0,0,0,0,0
0,0,0,144,0,0,0,0,0,0,0,0,0,0,0,0,144,0,0,0,0,0,0,144,0,0,0,0,0,144,0,0,0,0,0,0,144,0,0,144,0,0,0,144,0,0,0,0,144,0,0,0,0,144,0,0,0,0,144,0,0,0,144,0
0,0,144,0,0,0,0,144,0,144,0,0,0,0,0,0,0,144,0,144,0,0,0,0,0,0,0,0,0,0,0,0,144,0,0,144,0,0,0,0,144,0,0,0,0,0,144,0,0,0,0,0,0,144,0,0,0,144,0,0,0,0,0,0
0,144,0,0,0,0,0,0,0,0,0,0,0,144,0,144,0,0,0,144,0,0,0,0,0,144,0,0,0,0,0,0,0,0,0,0,0,144,0,0,0,0,144,0,0,0,0,0,0,0,0,0,0,0,0,0,0,0,0,0,0,0,0,0
0,144,0,0,0,0,144,0,0,0,0,0,0,144,0,0,0,0,0,0,144,0,0,0,0,0,0,0,0,0,0,0,0,144,144,0,0,0,0,0,0,144,0,0,0,0,0,0,0,0,0,0,0,0,0,0,0,0,0,0,0,0,0,0
0,0,0,0,0,144,0,0,0,0,0,144,0,0,0,0,0,0,144,0,0,0,0,0,0,0,144,0,0,0,0,0,0,144,0,0,0,144,0,0,0,0,0,0,0,0,144,0,0,0,0,0,0,0,144,0,0,0,144,0,0,0,0,144
0,0,0,0,0,144,0,0,0,0,0,0,0,144,0,0,0,0,144,0,0,0,0,0,0,0,144,0,0,0,0,0,0,144,0,0,0,0,144,0,0,0,0,0,0,144,0,0,0,0,144,0,0,0,0,0,144,0,0,0,144,0,0,0
0,0,0,0,0,0,0,144,0,0,0,0,0,0,0,144,0,0,0,0,144,0,0,0,144,0,0,0,144,0,0,0,144,0,0,0,144,0,0,0,0,144,0,0,0,0,0,144,0,0,0,0,0,0,0,0,144,0,0,144,0,0,0,141
0,0,0,144,0,0,0,144,0,0,0,0,144,0,0,144,0,0,0,0,0,144,0,0,0,0,144,0,0,0,0,0,0,144,0,0,0,0,0,144,0,144,0,0,0,144,0,0,0,0,144,0,0,144,0,0,0,0,144,0,0,0,0,144
0,0,0,0,0,144,0,0,0,0,144,0,0,0,0,144,0,0,0,144,0,0,0,123,0,0,0,0,0,144,0,0,0,0,144,0,0,0,0,0,0,0,144,0,0,0,0,144,0,0,144,0,0,0,0,0,144,0,0,0,0,0,0,0
0,144,0,0,144,0,0,0,0,0,0,144,0,0,0,0,144,0,0,0,0,144,0,0,0,0,144,0,0,0,0,0,0,144,0,0,0,0,0,0,0,144,0,0,144,0,0,0,0,0,144,0,0,0,0,0,144,0,0,0,0,0,144,0
0,0,0,0,0,0,0,0,0,0,144,0,0,0,0,0,0,0,0,0,144,0,0,0,0,0,0,144,144,0,0,0,0,0,0,144,0,0,0,0,0,144,0,0,0,0,0,0,0,0,144,0,0,0,0,0,0,0,0,0,0,144,0,0
0,0,0,0,0,0,0,0,0,0,0,0,0,0,0,0,0,0,0,0,0,0,0,0,0,0,0,0,0,0,0,144,0,0,0,0,144,0,0,0,0,0,0,0,0,0,0,0,144,0,0,0,0,0,0,0,0,0,0,0,144,0,0,0
0,0,0,144,0,0,0,0,0,0,0,0,144,0,0,0,0,144,0,0,0,0,0,0,0,0,0,0,0,0,144,0,0,0,0,0,0,0,144,0,0,144,0,0,0,0,0,144,0,0,144,0,0,0,0,0,0,0,144,0,0,0,0,0
144,0,0,144,0,0,0,0,0,0,0,0,144,144,0,0,0,144,0,0,0,0,0,0,0,144,0,0,144,0,144,0,0,0,0,0,0,144,0,0,0,0,144,0,0,0,144,0,0,0,144,0,0,0,0,0,0,0,0,0,0,0,144,0
0,0,144,0,0,0,0,0,0,0,0,0,0,0,144,0,141,0,0,0,0,0,144,0,0,0,0,144,0,0,144,0,0,0,0,0,144,0,0,0,0,144,0,0,0,144,0,0,144,0,0,0,0,0,144,0,0,144,0,0,0,0,144,0
0,0,0,0,0,144,0,0,0,144,0,0,0,144,0,0,0,0,144,0,0,0,144,0,0,0,0,144,0,0,0,0,0,144,144,0,0,0,0,0,144,138,0,0,0,0,0,0,144,0,0,144,0,0,0,0,0,0,144,0,0,0,0,144
0,132,0,0,0,0,0,144,0,0,144,0,0,0,0,0,144,0,0,0,0,0,0,0,0,0,0,144,0,0,0,0,0,144,0,0,0,0,0,0,0,144,0,144,0,0,0,0,0,0,0,0,0,0,0,0,0,0,0,144,0,0,0,0
0,144,0,0,0,0,0,0,0,0,126,0,0,144,0,0,0,0,0,144,0,0,0,0,0,144,0,0,144,0,0,0,0,0,144,0,0,0,144,0,0,0,0,0,0,0,144,0,0,0,0,0,0,0,144,0,0,0,0,0,144,141,0,0
0,0,0,144,0,0,0,0,0,0,144,0,0,0,0,144,0,0,0,0,0,0,144,0,0,144,0,0,0,0,144,0,0,0,0,0,0,144,0,0,0,0,144,0,0,0,0,0,0,0,0,0,0,0,0,0,0,0,0,0,0,0,0,0
0,0,0,144,0,0,0,144,0,0,0,0,0,0,0,0,0,0,144,0,0,0,0,0,0,0,0,144,0,0,0,144,0,0,0,0,63,0,0,0,72,0,0,0,0,0,144,0,0,0,144,0,0,0,0,0,144,0,0,0,144,0,0,0
0,0,0,0,144,0,0,0,0,0,0,0,0,0,144,0,0,0,0,0,0,0,0,0,0,144,0,0,0,0,0,0,0,0,0,0,144,0,0,0,0,0,0,0,0,0,0,0,0,0,0,0,0,0,0,0,0,0,144,0,0,0,0,0
0,0,0,144,0,0,0,0,0,0,0,0,0,144,0,0,0,0,0,0,0,144,0,0,0,144,0,0,0,0,0,144,0,0,0,0,144,0,0,0,0,0,0,0,0,0,144,0,0,144,0,0,0,0,0,144,0,144,0,0,0,0,0,144
0,0,0,0,0,0,0,0,0,144,0,0,0,0,0,144,0,0,0,144,0,0,0,0,0,144,0,0,0,0,144,0,0,0,0,0,0,144,0,0,0,144,0,0,0,0,144,0,0,0,0,0,0,0,0,144,0,0,144,0,0,0,0,144
0,0,0,144,0,0,0,0,144,0,0,0,144,0,0,0,0,0,0,0,0,0,0,0,0,144,144,0,0,144,0,0,0,0,144,0,0,0,0,0,0,0,144,0,0,0,0,0,0,0,0,0,0,0,144,0,0,0,138,0,0,144,144,0
0,0,0,144,0,0,144,0,0,0,0,0,144,0,0,144,0,0,0,0,0,144,0,0,144,0,0,0,144,0,0,0,0,144,0,0,0,144,0,0,0,0,0,144,0,0,0,144,0,0,0,0,0,144,0,0,0,0,144,0,0,0,144,0
0,0,0,0,0,0,0,0,0,0,0,0,0,0,0,0,144,0,0,0,144,0,0,0,0,0,0,0,144,0,0,0,0,0,0,0,0,0,0,144,0,0,0,0,0,0,0,0,0,144,0,0,0,0,0,144,0,0,0,0,0,0,144,0
0,0,0,0,0,144,0,0,0,0,0,0,0,0,144,0,0,0,0,0,0,0,144,0,0,0,0,0,0,0,144,0,0,0,0,0,0,0,0,0,0,0,0,144,0,0,0,0,144,0,0,0,0,0,0,0,0,0,144,0,0,0,0,0
144,0,0,0,0,0,0,144,0,0,0,0,0,144,0,144,0,0,0,0,144,0,0,0,0,0,144,0,0,0,0,0,0,0,0,0,141,0,144,0,0,0,0,0,0,0,0,0,0,0,0,0,0,0,144,0,0,0,0,144,0,0,0,0
0,0,0,144,0,0,0,144,0,0,0,0,0,144,0,0,0,0,0,0,0,0,0,0,0,0,0,0,0,144,0,0,0,0,144,0,0,0,144,0,0,0,0,144,0,0,0,144,0,0,0,0,0,144,0,0,0,144,0,0,0,0,144,0
0,0,0,0,0,0,144,0,0,144,0,0,0,0,0,144,0,0,0,0,0,144,0,0,0,144,0,0,0,0,0,144,0,0,0,0,144,0,0,0,0,0,0,144,0,0,0,0,144,0,144,0,0,0,0,0,0,0,144,0,0,0,0,0
0,0,0,0,0,0,144,0,0,0,144,0,0,0,0,0,144,0,0,0,0,0,0,0,0,0,144,0,144,0,0,0,0,0,0,0,0,0,0,0,0,0,0,0,0,144,0,0,0,0,144,0,0,144,0,0,0,0,0,144,0,0,0,0
0,0,0,144,0,0,0,0,144,0,0,0,0,144,0,0,0,0,0,144,0,0,0,0,144,0,0,0,144,0,0,0,144,0,0,0,144,0,0,0,0,0,0,144,0,0,0,0,0,0,0,0,0,144,0,0,0,144,0,0,0,0,0,0
0,144,0,0,0,144,0,0,0,0,144,0,0,0,0,0,0,0,0,141,0,0,0,0,0,0,0,144,0,0,0,0,0,144,0,0,0,0,0,0,0,0,141,0,0,0,0,0,144,0,0,0,144,0,0,0,0,0,0,0,144,0,0,0
0,0,0,0,0,0,0,0,0,0,144,0,0,0,0,0,0,144,0,0,0,0,0,144,0,0,0,0,0,0,141,0,0,0,0,0,0,0,0,0,0,0,0,0,0,0,0,0,0,144,0,0,0,0,0,144,0,0,0,0,0,0,0,0
0,144,0,0,0,0,144,0,0,0,0,0,0,0,0,0,0,0,144,0,0,0,144,0,0,0,0,0,0,0,0,0,0,0,0,0,0,0,0,0,144,0,0,0,144,0,0,0,0,144,0,0,0,0,0,144,0,0,0,0,0,0,0,0
0,0,0,0,0,144,0,0,0,0,144,0,0,0,0,0,144,0,0,0,0,0,144,0,0,0,0,0,0,0,0,144,0,144,0,0,0,0,144,0,0,0,0,0,0,0,0,0,0,0,0,144,0,0,0,0,0,0,0,0,144,0,0,123
0,0,0,0,0,144,0,0,0,0,0,0,0,0,0,0,0,0,0,0,0,0,0,0,144,0,0,0,0,0,0,0,0,0,0,0,0,144,0,0,0,0,0,0,0,0,0,0,0,0,0,0,0,0,0,0,0,0,144,0,105,0,0,0
0,0,0,0,0,0,0,0,0,0,0,0,0,0,0,0,0,0,144,0,0,0,0,144,0,0,0,0,0,0,0,0,144,0,0,0,144,0,0,0,0,0,0,144,0,0,0,0,144,0,0,0,144,0,0,0,0,0,0,0,144,0,0,0
0,144,0,0,0,0,144,0,0,144,0,0,0,0,0,144,0,0,0,144,0,0,0,0,0,144,0,0,0,0,0,0,0,144,0,0,0,0,0,0,144,0,0,0,57,0,0,144,0,0,0,0,0,0,0,0,0,144,0,0,0,144,0,0
0,0,144,0,0,144,0,0,0,0,0,0,0,144,0,0,144,0,0,0,0,144,0,0,0,0,0,144,0,0,0,0,144,0,0,0,0,144,0,0,0,0,144,0,0,0,144,0,0,0,0,144,0,0,0,0,144,0,0,0,0,144,0,0
144,0,0,0,144,0,0,0,0,144,0,0,0,0,144,0,0,0,0,0,0,144,0,0,0,0,0,144,0,0,0,0,0,0,0,0,0,144,0,0,0,0,0,144,0,0,0,0,0,0,0,0,0,0,144,0,0,0,0,0,0,144,0,0
0,0,144,0,144,0,0,0,0,144,0,0,0,0,0,144,0,0,0,0,0,0,0,0,0,0,0,144,0,0,0,0,0,0,0,0,0,0,0,0,0,0,0,0,0,0,0,0,144,0,0,144,0,0,0,0,0,0,144,0,0,0,144,0
0,0,0,0,144,0,0,0,0,0,0,0,0,0,0,144,0,0,0,0,0,0,0,0,0,0,0,0,0,144,0,0,0,144,0,0,0,0,0,144,0,0,0,144,0,0,0,0,0,0,144,0,0,0,0,0,0,0,0,144,0,0,0,0
