0,0,0,0,0,0,0,0,0,255,0,0,0,0,0,0,0,0,0,0,0,0,0,0,6,18,0,255,0,0,0,0,0,255,0,0,0,0,30,0,0,0,0,0,255,0,0,0,0,0,0,0,255,0,0,0,0,0,255,0,0,0,0,0
255,0,0,0,0,18,255,0,0,0,0,0,0,255,0,0,0,0,255,18,30,0,168,0,255,0,0,0,0,255,0,0,255,0,0,0,0,0,0,0,255,0,0,0,0,0,0,0,255,18,0,0,0,255,0,0,0,0,0,0,0,0,0,0
24,0,0,0,255,0,0,0,0,255,0,0,0,0,255,0,0,255,0,0,0,0,255,0,0,0,255,0,255,0,0,0,0,0,255,0,0,0,255,0,0,0,0,30,255,255,0,0,0,0,0,255,0,0,0,0,255,0,0,255,0,0,0,0
0,0,0,0,255,0,0,0,0,255,12,0,0,114,0,0,0,255,0,0,0,0,0,255,30,6,0,255,0,0,0,0,114,0,0,0,0,0,0,0,255,0,0,255,0,0,0,0,0,255,0,0,255,0,12,0,0,0,255,0,0,0,0,255
0,0,0,255,0,0,0,30,0,255,0,0,0,255,0,0,0,0,0,0,0,0,0,0,0,0,255,0,0,0,0,255,0,0,12,0,0,255,0,0,255,0,0,0,255,0,0,0,255,0,30,0,0,255,0,0,0,0,0,0,0,0,0,0
255,0,0,0,0,0,0,0,0,255,0,0,255,0,0,6,255,0,0,255,0,0,0,255,0,0,0,0,30,255,6,0,0,0,255,0,0,0,0,0,255,0,0,0,0,255,0,0,0,0,255,0,0,0,0,0,0,0,12,255,0,0,0,0
0,255,0,0,0,0,0,0,0,0,18,255,0,0,0,0,0,0,0,0,0,0,0,0,0,0,0,0,0,0,255,0,0,0,0,0,255,0,0,0,18,0,0,0,0,255,0,0,0,0,0,0,0,0,0,0,255,0,0,0,0,0,0,0
0,0,0,0,0,0,0,0,0,0,255,0,0,0,0,0,255,0,0,18,6,0,0,255,0,0,0,0,0,0,0,0,0,0,30,0,0,0,0,0,0,0,0,0,0,0,255,255,0,0,0,0,0,0,0,0,255,0,0,0,0,0,0,255
18,0,0,0,255,0,0,0,0,0,0,0,255,0,30,12,0,0,255,0,0,0,0,0,0,0,0,0,0,255,0,0,0,0,0,0,0,0,0,0,0,0,0,0,255,0,0,0,255,0,0,0,255,0,0,0,0,0,0,255,0,0,0,0
255,0,0,0,0,255,0,0,0,0,0,0,0,255,0,0,0,0,255,0,0,0,0,255,12,0,0,255,0,0,0,0,0,0,255,0,0,30,0,255,156,0,0,0,255,0,0,0,0,0,255,0,0,0,0,0,0,0,255,0,0,0,0,0
0,255,0,0,0,12,0,0,255,0,0,0,0,0,0,0,0,255,0,30,6,0,255,0,0,0,0,255,0,0,0,255,0,0,0,0,0,0,0,255,0,0,0,0,255,0,0,0,0,0,255,0,0,0,0,255,0,0,255,0,0,0,0,255
24,0,0,0,255,0,0,0,0,0,0,255,0,0,0,0,0,0,255,0,0,0,0,0,0,0,0,0,246,18,0,0,0,0,0,0,0,255,0,0,0,0,0,0,255,0,0,0,0,0,0,255,0,0,0,255,0,0,0,0,0,255,0,0
0,0,255,0,0,0,0,0,0,18,6,0,0,0,0,0,0,0,0,0,0,0,0,0,30,6,255,0,0,0,0,0,0,0,0,0,0,0,0,0,255,255,0,0,0,0,0,0,255,0,0,0,255,0,0,0,0,0,0,0,255,0,0,0
0,0,0,255,0,18,0,0,0,255,0,0,0,0,0,0,255,0,0,0,0,255,0,0,0,0,0,0,255,0,0,0,0,0,255,18,0,0,0,0,0,0,0,0,0,0,255,0,0,30,0,0,0,255,0,0,0,0,255,0,0,0,0,0
0,0,0,255,0,0,0,0,0,6,0,0,0,255,18,0,0,255,0,0,0,0,0,0,0,255,0,0,0,30,255,0,0,0,0,0,255,0,0,0,0,0,0,0,0,0,0,255,0,0,0,0,0,0,255,0,0,0,0,18,0,0,255,0
0,0,255,0,0,0,0,0,30,255,12,0,255,0,0,0,0,0,0,0,0,255,0,0,0,0,255,0,0,0,255,0,0,0,0,0,12,0,0,255,0,0,0,0,255,0,0,252,0,255,0,0,0,255,24,0,0,6,255,0,0,0,255,0
0,0,255,0,0,0,0,0,255,0,0,0,0,255,0,0,0,0,0,12,0,0,0,0,0,0,255,0,0,0,255,0,0,0,255,0,0,0,255,0,0,0,0,0,0,0,255,0,0,0,255,0,0,0,0,255,0,0,255,0,0,0,0,0
12,255,0,0,0,0,0,0,255,0,0,0,0,24,0,0,255,0,0,0,255,0,0,0,0,0,0,0,255,0,0,0,0,0,0,0,0,255,0,0,0,0,0,255,0,0,0,0,0,255,0,0,0,0,0,255,0,0,252,30,0,0,0,0
0,255,0,0,255,0,0,0,0,0,0,0,255,0,255,0,0,0,255,0,0,0,0,0,255,0,0,0,255,0,255,0,0,0,0,0,0,255,255,30,0,0,255,0,0,0,255,0,0,0,255,0,0,255,0,0,0,255,0,0,255,0,0,0
255,0,0,0,18,0,255,0,0,0,255,0,0,255,0,0,0,0,255,30,6,255,0,0,0,0,0,255,0,0,0,255,0,0,0,0,0,255,0,0,0,0,0,255,0,0,0,0,0,0,255,255,0,0,0,0,0,0,0,255,0,90,0,0
30,0,255,0,0,0,0,255,0,0,0,0,0,0,0,0,0,255,0,255,0,0,0,0,0,0,0,0,0,12,0,0,0,255,0,0,255,0,0,0,0,0,0,0,255,0,0,0,0,0,255,0,0,0,0,0,0,0,0,255,0,0,0,0
0,0,0,0,255,0,0,0,0,0,18,0,255,168,0,0,0,255,0,0,0,0,0,0,255,0,162,0,0,0,0,0,0,255,0,0,0,0,0,0,255,0,0,0,0,255,0,0,0,0,0,0,0,0,0,255,255,0,0,0,0,0,255,0
0,0,0,0,12,30,0,0,0,0,0,0,0,0,0,0,0,0,0,0,0,0,0,0,255,0,0,0,0,0,0,0,0,0,0,18,0,0,0,0,0,0,0,0,0,255,0,0,0,0,30,0,0,0,0,0,0,0,0,0,0,0,0,0
255,0,0,0,0,0,255,0,0,0,0,0,255,0,0,0,0,0,0,0,0,0,0,0,0,0,0,255,0,30,0,0,0,0,0,0,255,0,0,0,0,0,0,255,0,0,0,0,0,0,0,0,0,0,255,0,0,0,0,255,12,0,0,255
0,0,0,255,0,0,0,6,0,255,30,0,0,0,0,255,0,0,0,255,0,0,0,255,0,0,0,0,0,255,0,0,255,0,0,0,0,18,255,0,0,0,0,255,0,0,255,0,0,0,0,255,0,255,0,0,0,255,0,0,0,0,255,0
0,0,255,0,0,0,0,255,0,0,0,0,255,0,0,0,0,0,255,0,255,255,18,0,0,0,0,0,0,0,0,0,255,0,0,30,0,0,0,0,0,0,255,0,0,0,0,0,255,0,0,0,0,0,0,0,255,0,0,0,255,0,0,0
6,0,0,0,0,255,0,0,0,0,0,0,0,0,30,255,0,234,0,0,0,0,0,0,255,0,0,0,255,0,0,0,0,255,0,0,255,0,0,0,0,255,0,18,0,0,0,0,0,0,0,255,0,0,0,255,0,255,0,24,0,0,0,0
255,0,0,0,0,0,255,0,0,0,255,0,0,0,0,0,255,0,0,0,0,0,0,255,18,0,0,0,0,0,0,0,0,255,0,0,255,0,30,0,0,0,0,126,0,0,0,0,255,0,0,0,0,0,0,0,0,255,0,0,0,0,0,255
0,0,18,0,0,255,0,0,0,0,0,0,0,0,0,0,0,0,0,0,30,255,0,0,0,0,0,0,0,0,255,0,0,0,0,0,0,0,255,0,0,0,0,0,255,0,0,0,12,0,0,0,0,255,0,0,0,0,0,255,0,0,0,30
0,0,12,255,0,0,0,0,0,255,0,0,0,0,0,0,255,0,0,255,0,0,0,0,0,0,0,0,12,0,0,0,255,0,0,0,0,0,0,255,0,0,0,0,0,24,0,0,0,0,0,0,0,0,0,0,0,0,0,0,255,0,0,0
0,0,0,0,255,0,0,0,18,0,0,255,0,0,0,0,0,0,0,255,0,0,0,0,36,0,0,0,0,255,0,0,0,0,0,255,0,0,0,0,255,0,0,0,0,0,255,0,0,0,0,255,0,0,0,0,0,255,0,0,0,255,0,0
0,0,255,0,30,0,6,0,255,0,0,0,0,0,0,0,0,0,0,0,255,0,0,0,255,0,255,0,0,0,0,255,0,0,18,255,0,0,0,0,0,255,0,0,0,0,0,255,0,0,30,0,255,0,0,0,0,0,255,0,0,0,0,0
0,255,0,0,0,0,255,0,0,0,0,255,0,0,18,0,0,0,0,0,255,0,0,0,0,0,0,255,0,30,255,0,0,0,0,0,255,0,0,0,0,0,255,0,0,0,0,255,0,0,0,255,0,0,0,0,255,0,0,6,0,0,0,0
0,0,255,0,0,0,0,255,0,30,255,0,0,0,0,255,0,0,0,0,255,0,0,0,0,0,0,255,0,0,0,0,255,0,0,0,0,0,12,0,0,0,255,0,0,0,0,255,0,0,0,0,255,0,0,255,24,0,0,0,0,0,0,255
0,0,0,0,0,0,0,0,0,0,255,0,0,255,0,0,0,255,0,12,255,0,0,0,0,0,0,0,0,0,0,0,0,0,0,255,0,0,0,0,0,0,255,0,0,0,0,255,0,0,0,0,0,255,0,0,0,255,0,0,0,0,0,12
0,0,0,0,255,0,0,0,0,192,0,0,0,255,0,0,0,0,255,0,0,0,0,0,0,255,0,0,0,0,255,0,0,0,0,0,255,0,0,0,0,0,0,0,12,0,0,0,0,0,0,0,0,0,255,0,0,0,255,0,12,255,0,255
0,255,0,0,0,0,255,0,0,0,0,0,0,0,0,0,255,0,0,255,0,0,0,0,255,0,0,0,0,0,0,0,0,0,0,0,0,0,255,30,0,0,0,0,0,0,255,0,0,0,0,255,0,0,0,0,0,255,0,0,255,0,0,0
0,0,0,0,255,0,0,0,0,255,0,0,0,0,0,0,0,0,255,30,0,0,6,0,0,0,0,0,0,255,0,0,0,0,0,0,0,0,0,0,0,255,0,0,255,0,0,0,0,255,0,0,0,0,0,255,0,0,0,255,0,0,0,30
255,6,0,0,0,0,0,255,0,0,0,0,0,0,255,0,0,0,0,0,255,0,0,0,0,0,0,255,0,12,0,255,0,0,0,0,0,0,0,0,0,0,255,24,0,0,0,6,0,0,0,0,0,0,0,0,0,0,0,255,0,255,0,0
0,255,0,0,0,0,255,0,0,0,255,0,0,0,0,0,255,0,0,0,0,255,0,0,30,0,0,6,6,0,0,255,0,0,0,0,0,0,0,0,0,0,0,0,0,0,0,0,0,0,0,0,12,0,6,0,0,0,0,0,0,0,0,0
0,255,0,0,30,0,0,0,0,0,0,0,0,0,0,0,0,255,0,0,0,0,0,0,0,0,0,0,0,0,0,0,0,0,18,0,0,0,0,0,0,0,0,0,0,0,0,0,0,18,6,0,0,0,0,0,0,0,0,0,0,0,0,255
0,0,0,0,0,0,0,255,0,0,0,0,0,0,18,255,0,0,0,0,0,255,0,0,0,0,0,0,0,0,255,0,0,0,0,0,255,0,0,0,0,0,0,0,0,255,0,0,0,0,0,255,0,0,0,0,0,0,18,0,255,0,0,0
0,0,0,0,0,0,0,0,0,24,0,255,6,0,255,0,0,0,0,0,0,255,0,0,0,0,0,0,255,0,0,0,255,0,0,0,0,0,255,12,0,0,0,0,0,255,0,0,0,0,255,0,0,0,0,255,0,0,0,255,0,0,0,0
0,0,0,0,0,0,0,0,0,0,0,0,0,255,255,0,0,0,0,255,0,12,0,0,0,0,0,0,255,0,0,0,255,0,24,0,0,0,0,255,0,0,0,0,0,0,0,255,0,0,0,0,255,0,0,0,0,255,0,0,0,0,0,255
0,0,0,0,255,0,0,0,0,0,0,0,30,255,0,0,0,0,0,255,0,255,0,0,0,0,0,255,0,0,0,0,0,0,0,0,0,0,255,0,0,0,0,0,0,6,0,255,0,0,0,0,255,0,0,0,0,0,255,6,0,0,255,0
0,0,255,0,255,0,0,0,0,0,255,0,0,0,255,0,0,0,255,0,0,0,0,255,12,0,255,0,0,255,0,0,0,0,0,0,255,0,0,24,0,255,0,0,0,0,0,255,0,0,0,255,0,0,0,0,0,255,0,0,0,0,0,0
255,0,0,255,18,0,0,0,0,0,255,0,0,0,255,0,0,0,255,0,30,0,6,0,0,0,0,0,0,0,0,0,0,255,0,0,0,255,0,0,0,0,0,0,255,0,0,255,12,6,0,0,0,0,255,0,0,0,255,0,0,0,0,30
6,255,0,0,0,255,0,0,0,255,0,0,0,240,255,0,0,0,0,0,255,0,0,0,0,0,0,255,255,0,12,0,255,0,0,0,0,0,0,0,0,0,0,255,18,0,0,255,0,0,255,0,0,0,0,0,0,0,0,0,255,0,0,0
0,0,255,0,0,0,0,0,255,12,0,0,0,255,0,0,0,0,0,0,255,0,0,0,30,255,0,0,0,0,0,0,0,0,0,0,0,255,0,0,0,0,0,0,0,0,0,255,0,0,0,0,0,0,0,0,0,0,255,0,0,0,0,0
255,0,0,255,0,30,0,6,0,0,0,0,0,255,0,0,0,0,0,0,0,0,0,255,0,0,0,0,0,255,0,0,0,0,12,0,0,255,0,0,0,0,0,0,0,0,30,0,0,12,0,0,0,0,0,0,0,0,0,0,0,0,0,0
