0.047202735260770977,0.0,0.0
0.047202735260770977,0.0,0.011111111111111112
0.047202735260770977,0.0,0.022222222222222223
0.047202735260770977,0.0,0.033333333333333333
0.047202735260770977,0.0,0.044444444444444446
0.047202735260770977,0.0,0.055555555555555559
0.047202735260770977,0.0,0.066666666666666666
0.047202735260770977,0.0,0.077777777777777779
0.047202735260770977,0.0,0.088888888888888892
0.047202735260770977,0.0,0.10000000000000001
0.047202735260770977,0.011111111111111112,0.0
0.047202735260770977,0.011111111111111112,0.011111111111111112
0.047202735260770977,0.011111111111111112,0.022222222222222223
0.047202735260770977,0.011111111111111112,0.033333333333333333
0.047202735260770977,0.011111111111111112,0.044444444444444446
0.047202735260770977,0.011111111111111112,0.055555555555555559
0.047202735260770977,0.011111111111111112,0.066666666666666666
0.047202735260770977,0.011111111111111112,0.077777777777777779
0.047202735260770977,0.011111111111111112,0.088888888888888892
0.047202735260770977,0.011111111111111112,0.10000000000000001
0.047202735260770977,0.022222222222222223,0.0
0.047202735260770977,0.022222222222222223,0.011111111111111112
0.047202735260770977,0.022222222222222223,0.022222222222222223
0.047202735260770977,0.022222222222222223,0.033333333333333333
0.047202735260770977,0.022222222222222223,0.044444444444444446
0.047202735260770977,0.022222222222222223,0.055555555555555559
0.047202735260770977,0.022222222222222223,0.066666666666666666
0.047202735260770977,0.022222222222222223,0.077777777777777779
0.047202735260770977,0.022222222222222223,0.088888888888888892
0.047202735260770977,0.022222222222222223,0.10000000000000001
0.047202735260770977,0.033333333333333333,0.0
0.047202735260770977,0.033333333333333333,0.011111111111111112
0.047202735260770977,0.033333333333333333,0.022222222222222223
0.047202735260770977,0.033333333333333333,0.033333333333333333
0.047202735260770977,0.033333333333333333,0.044444444444444446
0.047202735260770977,0.033333333333333333,0.055555555555555559
0.047202735260770977,0.033333333333333333,0.066666666666666666
0.047202735260770977,0.033333333333333333,0.077777777777777779
0.047202735260770977,0.033333333333333333,0.088888888888888892
0.047202735260770977,0.033333333333333333,0.10000000000000001
0.047202735260770977,0.044444444444444446,0.0
0.047202735260770977,0.044444444444444446,0.011111111111111112
0.047202735260770977,0.044444444444444446,0.022222222222222223
0.047202735260770977,0.044444444444444446,0.033333333333333333
0.047202735260770977,0.044444444444444446,0.044444444444444446
0.047202735260770977,0.044444444444444446,0.055555555555555559
0.047202735260770977,0.044444444444444446,0.066666666666666666
0.047202735260770977,0.044444444444444446,0.077777777777777779
0.047202735260770977,0.044444444444444446,0.088888888888888892
0.047202735260770977,0.044444444444444446,0.10000000000000001
0.047202735260770977,0.055555555555555559,0.0
0.047202735260770977,0.055555555555555559,0.011111111111111112
0.047202735260770977,0.055555555555555559,0.022222222222222223
0.047202735260770977,0.055555555555555559,0.033333333333333333
0.047202735260770977,0.055555555555555559,0.044444444444444446
0.047202735260770977,0.055555555555555559,0.055555555555555559
0.047202735260770977,0.055555555555555559,0.066666666666666666
0.047202735260770977,0.055555555555555559,0.077777777777777779
0.047202735260770977,0.055555555555555559,0.088888888888888892
0.047202735260770977,0.055555555555555559,0.10000000000000001
0.047202735260770977,0.066666666666666666,0.0
0.047202735260770977,0.066666666666666666,0.011111111111111112
0.047202735260770977,0.066666666666666666,0.022222222222222223
0.047202735260770977,0.066666666666666666,0.033333333333333333
0.047202735260770977,0.066666666666666666,0.044444444444444446
0.047202735260770977,0.066666666666666666,0.055555555555555559
0.047202735260770977,0.066666666666666666,0.066666666666666666
0.047202735260770977,0.066666666666666666,0.077777777777777779
0.047202735260770977,0.066666666666666666,0.088888888888888892
0.047202735260770977,0.066666666666666666,0.10000000000000001
0.047202735260770977,0.077777777777777779,0.0
0.047202735260770977,0.077777777777777779,0.011111111111111112
0.047202735260770977,0.077777777777777779,0.022222222222222223
0.047202735260770977,0.077777777777777779,0.033333333333333333
0.047202735260770977,0.077777777777777779,0.044444444444444446
0.047202735260770977,0.077777777777777779,0.055555555555555559
0.047202735260770977,0.077777777777777779,0.066666666666666666
0.047202735260770977,0.077777777777777779,0.077777777777777779
0.047202735260770977,0.077777777777777779,0.088888888888888892
0.047202735260770977,0.077777777777777779,0.10000000000000001
0.047202735260770977,0.088888888888888892,0.0
0.047202735260770977,0.088888888888888892,0.011111111111111112
0.047202735260770977,0.088888888888888892,0.022222222222222223
0.047202735260770977,0.088888888888888892,0.033333333333333333
0.047202735260770977,0.088888888888888892,0.044444444444444446
0.047202735260770977,0.088888888888888892,0.055555555555555559
0.047202735260770977,0.088888888888888892,0.066666666666666666
0.047202735260770977,0.088888888888888892,0.077777777777777779
0.047202735260770977,0.088888888888888892,0.088888888888888892
0.047202735260770977,0.088888888888888892,0.10000000000000001
0.047202735260770977,0.10000000000000001,0.0
0.047202735260770977,0.10000000000000001,0.011111111111111112
0.047202735260770977,0.10000000000000001,0.022222222222222223
0.047202735260770977,0.10000000000000001,0.033333333333333333
0.047202735260770977,0.10000000000000001,0.044444444444444446
0.047202735260770977,0.10000000000000001,0.055555555555555559
0.047202735260770977,0.10000000000000001,0.066666666666666666
0.047202735260770977,0.10000000000000001,0.077777777777777779
0.047202735260770977,0.10000000000000001,0.088888888888888892
0.047202735260770977,0.10000000000000001,0.10000000000000001
