0,0,0,0,0,0,0,0,0,1,0,3,0,0,0,0,49,0,0,0,0,0,0,0,0,0,0,0,0,0,0,0,0,0,0,0,0,0,1,3,0,4,5,7,7,10,6,6,6,4,5,5,4,8,3,0,0,4,0,0,0,0,0,0,
0,0,0,0,0,0,0,0,0,0,0,0,4,3,0,0,0,0,0,0,0,0,49,0,0,0,0,0,0,0,0,0,0,0,0,0,0,0,0,3,0,11,4,5,15,3,4,9,6,5,7,7,5,5,6,5,5,0,0,0,0,0,0,0,
0,0,0,0,0,0,0,0,0,0,1,0,4,0,4,49,0,0,0,0,0,0,0,0,0,0,0,0,0,0,0,0,0,0,0,0,0,0,0,0,0,5,5,3,5,7,6,6,5,4,5,3,2,3,3,3,0,0,0,0,0,0,0,0,
0,0,0,0,0,0,0,0,0,0,0,4,0,0,5,0,0,5,0,0,0,0,0,0,0,0,0,0,0,0,0,0,0,0,0,0,0,0,0,0,2,4,5,5,0,5,6,0,5,10,5,5,0,0,0,0,0,0,0,0,0,0,5,0,
0,2,1,1,2,3,0,0,2,0,0,0,3,7,0,0,1,0,0,49,2,3,1,0,0,0,0,3,1,0,0,0,0,0,0,0,0,0,0,2,0,4,6,4,3,7,6,6,0,0,6,5,5,0,0,7,0,4,0,0,0,0,0,0,
0,0,0,0,0,0,0,0,0,0,0,4,0,0,5,0,0,3,2,0,0,0,0,0,0,0,0,0,0,0,0,0,0,0,0,0,0,0,0,0,19,3,5,6,6,5,5,5,12,7,7,4,5,4,0,5,0,0,0,0,0,0,0,0,
0,0,0,0,0,0,0,0,0,0,0,3,0,5,0,0,0,0,0,0,0,0,3,0,0,0,0,0,0,0,0,0,0,0,0,0,0,0,0,0,3,3,5,7,6,7,6,0,6,5,4,4,5,4,9,3,3,3,0,0,0,0,0,0,
0,0,0,0,0,0,0,0,0,0,1,1,1,49,0,49,0,0,0,0,0,0,0,0,0,0,0,0,0,0,0,0,0,0,0,0,0,0,0,3,4,5,6,14,3,16,7,14,6,4,6,3,5,3,8,5,2,2,0,0,0,0,0,0,
0,0,0,0,0,0,0,0,0,1,0,0,2,2,0,2,0,0,0,1,0,0,0,1,0,0,0,0,0,0,0,0,0,0,0,0,0,0,1,2,0,5,6,4,5,5,6,8,9,6,5,5,3,3,3,3,8,3,0,0,0,0,0,0,
0,0,0,0,0,0,0,0,0,0,0,2,0,1,0,2,0,3,0,2,0,1,0,0,0,0,0,0,0,0,0,0,0,0,0,0,0,0,0,0,2,2,3,2,5,5,16,5,6,3,4,3,11,5,5,5,5,0,0,0,0,0,0,0,
0,0,0,0,0,0,0,0,0,0,2,1,0,3,1,2,3,49,0,0,0,1,0,0,0,0,0,0,0,0,0,0,0,0,0,0,0,0,0,0,3,3,3,3,16,8,2,5,6,13,3,1,5,0,4,9,4,0,0,0,0,0,0,0,
0,0,0,0,0,0,0,0,0,0,0,0,4,4,49,0,1,0,0,0,0,1,0,0,0,0,0,0,0,0,0,0,0,0,0,0,0,0,0,1,2,25,6,5,3,8,5,6,11,5,0,5,0,5,4,5,0,6,0,0,0,0,0,0,
0,0,0,0,0,0,0,0,0,0,2,0,0,0,49,15,1,0,0,0,0,0,0,0,0,0,0,0,0,0,0,0,0,0,0,0,0,0,0,0,0,3,4,5,5,5,5,0,8,5,5,3,4,4,4,4,0,0,0,0,0,0,0,0,
0,0,0,0,0,0,0,0,0,0,0,3,0,5,0,49,0,0,0,0,0,0,0,0,0,0,0,0,0,0,0,0,0,0,0,0,0,0,0,0,0,4,5,5,3,3,15,12,8,9,7,7,1,3,4,4,0,5,0,0,0,0,0,0,
0,0,0,0,0,0,0,0,0,0,2,0,5,4,49,0,1,0,0,0,0,0,0,0,0,0,0,0,0,0,0,0,0,0,0,0,0,0,0,1,4,5,4,5,3,5,7,6,3,5,3,3,4,3,3,3,4,0,0,0,0,0,0,0,
0,0,0,0,0,0,0,0,0,0,2,1,49,3,0,0,49,0,0,0,0,0,0,0,0,0,0,0,0,0,0,0,0,0,0,0,0,0,1,0,26,4,5,6,4,11,16,8,7,10,9,8,7,6,0,0,6,0,0,0,0,8,0,0,
1,1,0,0,0,0,0,0,0,0,0,0,0,0,0,0,0,0,0,0,0,0,0,0,0,0,5,2,0,0,0,0,0,0,0,0,0,0,0,0,2,5,6,5,7,5,5,3,5,5,0,6,5,0,5,10,6,0,0,0,0,0,0,0,
0,0,0,0,0,0,0,0,0,0,0,1,1,1,1,2,1,1,0,1,0,0,0,0,0,0,0,0,0,0,0,0,0,0,0,0,0,0,0,0,0,5,6,3,7,8,5,5,15,10,5,0,0,0,5,0,0,0,0,0,0,0,0,0,
0,0,0,0,0,0,0,0,0,0,0,0,3,4,0,0,49,0,49,0,1,1,1,1,0,0,0,0,0,0,0,0,0,0,0,0,0,0,0,26,4,5,5,6,5,4,7,0,7,0,12,7,5,0,12,3,5,3,0,0,0,0,0,0,
0,0,0,0,0,0,0,0,0,1,0,2,2,49,0,1,0,0,0,0,0,0,0,0,0,0,0,0,0,0,0,0,0,0,0,0,0,0,0,0,2,3,3,2,1,1,5,5,5,5,14,4,5,3,3,4,0,0,0,0,0,0,0,0,
0,0,0,0,0,0,0,0,0,0,1,4,1,49,0,1,2,2,1,1,1,0,0,1,0,0,0,0,0,0,0,0,0,0,0,0,0,0,0,0,0,5,4,5,13,12,11,5,5,6,4,5,3,4,5,3,2,2,0,0,0,0,0,0,
0,0,0,0,0,0,0,0,0,0,0,2,49,0,0,0,0,0,0,0,0,0,0,0,0,0,0,0,0,0,0,0,0,0,0,0,0,0,0,0,0,3,4,3,0,14,9,5,4,3,4,3,10,7,4,0,4,0,0,0,0,0,0,0,
0,0,0,0,0,0,0,0,0,0,0,3,49,0,0,1,0,0,0,0,0,0,0,0,0,0,0,0,0,0,0,0,0,0,0,0,0,0,0,0,3,0,4,4,3,3,4,4,14,9,4,8,5,9,3,1,2,3,0,0,0,0,0,0,
0,0,0,0,0,0,0,0,0,0,0,1,2,49,0,0,0,0,0,0,0,0,1,0,0,0,0,0,0,0,0,0,0,0,0,0,0,0,0,3,4,5,5,5,3,4,3,10,6,4,10,4,4,3,4,3,3,0,0,0,0,0,0,0,
0,0,0,0,0,0,0,0,0,0,0,5,49,1,0,0,0,0,0,0,0,0,0,0,0,0,0,0,0,0,0,0,0,0,0,0,0,0,0,3,0,3,5,6,7,5,13,7,3,3,3,3,7,5,5,3,3,3,2,0,0,0,0,0,
0,0,0,0,0,0,0,0,0,0,0,3,0,3,49,0,0,1,0,0,0,0,0,0,0,0,0,0,0,0,0,0,0,0,0,0,0,0,0,0,3,0,4,3,5,5,5,12,8,6,5,4,0,7,4,5,0,4,0,0,0,0,0,0,
0,0,0,0,0,0,0,0,0,0,1,0,3,49,0,0,0,0,0,0,0,0,0,0,0,0,0,0,0,0,0,0,0,0,0,0,0,0,0,2,3,3,5,5,4,4,15,7,2,3,4,4,5,3,4,4,1,3,0,0,0,0,0,0,
0,0,0,0,0,0,0,0,0,0,0,0,3,3,0,2,0,3,0,3,0,0,3,0,0,0,0,0,0,0,0,0,0,0,0,0,0,0,0,3,3,4,3,2,4,4,12,5,4,4,2,1,4,3,1,5,2,2,0,0,0,0,0,0,
0,0,0,0,0,0,0,0,0,0,1,3,0,0,2,49,1,49,0,0,0,0,0,0,0,0,0,0,0,0,0,0,0,0,0,0,0,0,0,2,4,0,6,5,14,3,16,11,6,0,3,3,10,5,2,3,0,3,0,0,0,0,0,0,
0,0,0,0,0,0,0,0,0,0,0,1,2,1,1,0,3,49,0,0,0,0,0,0,0,0,0,0,0,0,0,0,0,0,0,0,0,0,0,2,1,3,5,2,11,5,12,8,8,6,6,4,5,4,1,2,3,2,0,0,0,0,0,0,
0,0,0,0,0,0,0,0,0,0,0,1,49,0,0,0,0,0,0,1,0,0,0,0,0,0,0,0,0,0,0,0,0,0,0,0,0,0,0,1,8,2,2,5,3,17,16,5,7,6,3,6,2,3,4,3,3,3,0,0,0,0,0,0,
0,0,0,0,0,0,0,0,5,0,10,1,2,3,2,49,0,0,0,0,0,0,1,0,0,0,0,0,0,0,0,0,0,0,0,0,0,0,0,0,3,3,3,6,14,5,15,12,11,8,6,4,4,7,4,3,5,3,0,0,0,0,0,0,
0,0,0,0,0,0,0,0,0,0,0,1,0,3,0,3,3,3,0,0,2,0,0,1,0,0,0,0,0,0,0,0,0,0,0,0,0,0,0,0,0,5,5,5,4,5,3,9,9,6,6,7,4,5,2,6,2,3,0,0,0,0,0,0,
0,0,0,0,0,0,0,0,0,0,1,5,3,0,49,0,0,0,0,0,0,49,0,0,0,0,0,0,0,0,0,0,0,0,0,0,0,0,0,3,5,22,4,4,4,17,12,10,6,8,6,5,0,5,6,4,0,4,3,0,0,0,0,0,
0,0,0,0,0,0,0,0,0,0,1,2,0,2,49,0,0,0,0,0,0,0,0,0,0,0,0,0,0,0,0,0,0,0,0,0,0,0,0,0,2,3,3,4,4,6,4,16,12,9,9,6,7,6,7,5,3,0,0,0,0,0,0,0,
0,0,0,0,0,0,0,0,0,0,0,4,2,2,0,2,0,0,0,0,0,0,0,0,0,0,0,0,0,0,0,0,0,0,0,0,0,0,0,0,3,4,5,5,5,5,7,14,3,5,5,5,5,5,10,5,7,3,0,0,0,0,0,0,
0,0,0,0,0,0,0,0,0,0,1,0,2,3,0,49,0,0,0,0,0,0,0,0,0,0,0,0,0,0,0,0,0,0,0,0,0,0,0,1,4,6,4,5,5,3,16,9,4,6,6,3,3,5,9,7,6,3,4,0,0,0,0,0,
0,0,0,0,0,0,0,0,0,0,0,49,0,0,0,1,0,2,0,0,1,0,0,0,0,0,0,0,0,0,0,0,0,0,0,0,0,0,0,0,3,5,5,6,5,11,5,5,5,5,8,4,3,3,0,0,5,3,0,0,0,0,0,0,
0,0,0,0,0,0,0,0,0,0,0,0,1,2,0,0,3,0,0,0,0,0,0,0,0,0,0,0,0,0,0,0,0,0,0,0,0,0,0,0,3,4,6,6,5,4,6,0,5,3,12,8,5,0,7,4,5,0,0,0,0,0,0,0,
0,0,0,0,0,0,0,0,0,0,0,0,2,2,4,2,0,0,0,0,0,3,0,0,0,0,0,0,0,0,0,0,0,1,0,0,0,0,0,0,1,0,1,3,3,6,5,5,4,5,14,3,5,0,12,6,4,5,0,0,0,0,0,1,
0,0,0,0,0,0,0,2,0,5,7,5,3,2,0,2,3,4,4,5,5,3,2,0,0,0,0,0,0,0,0,0,1,1,0,1,1,0,1,0,2,0,5,5,3,5,5,4,5,12,5,4,4,4,4,2,4,3,1,0,0,0,0,0,
0,0,0,0,0,0,0,0,0,0,2,1,7,1,2,3,1,2,1,1,0,0,0,0,0,0,0,0,0,0,0,0,0,0,0,0,0,0,0,0,1,2,1,5,3,3,16,10,7,3,4,3,3,4,4,2,2,2,0,0,0,0,0,0,
0,0,0,0,0,0,0,0,0,0,0,0,2,2,4,0,3,1,0,0,3,0,3,0,0,0,0,0,0,0,0,0,0,0,0,0,0,0,0,0,1,6,2,4,4,12,4,8,7,4,4,4,4,2,3,5,10,3,0,0,0,0,0,0,
0,0,0,0,0,0,0,0,0,0,1,1,1,1,1,0,1,2,1,1,0,1,1,1,0,0,0,0,0,0,0,0,0,0,0,0,0,0,0,0,0,3,5,6,14,4,10,2,7,7,3,3,10,3,2,4,3,2,1,0,0,0,0,0,
0,0,0,0,0,0,0,0,0,0,1,0,0,1,49,0,0,0,0,0,0,1,0,1,0,0,0,0,0,0,0,0,0,0,0,0,0,0,0,3,2,3,3,6,5,4,15,8,12,10,2,7,11,7,4,5,3,0,3,0,0,0,0,0,
0,0,0,0,0,0,0,0,0,0,0,3,49,0,0,1,0,0,0,0,0,0,0,0,0,0,0,0,0,0,0,0,0,0,0,0,0,0,0,0,2,0,3,4,6,5,5,15,6,5,3,3,5,5,3,3,4,3,0,0,0,0,0,0,
0,0,0,0,0,0,0,0,0,0,1,2,0,0,0,2,2,0,2,0,0,3,0,0,2,0,0,0,0,0,0,0,0,0,0,0,0,0,0,0,1,26,1,3,3,14,8,10,2,4,3,10,8,5,3,3,5,0,0,0,0,0,0,0,
0,0,0,0,0,0,0,0,0,0,0,1,2,2,7,0,3,0,0,2,0,49,2,0,0,0,0,0,0,0,0,0,0,0,0,0,0,0,0,0,2,4,5,5,5,16,11,5,3,3,6,5,5,4,3,3,3,0,0,0,0,0,0,0,
0,0,0,0,0,0,0,0,0,0,1,0,0,4,5,3,3,3,3,0,0,0,3,2,0,0,0,0,0,0,0,0,0,0,0,0,0,0,0,0,3,4,5,3,4,5,4,13,4,5,5,0,0,6,0,0,0,0,0,0,0,0,0,0,
0,0,0,0,0,0,0,0,0,1,0,0,2,49,0,0,49,0,0,0,0,0,0,0,0,0,0,0,0,0,0,0,0,0,0,0,0,0,0,0,0,4,5,6,2,4,5,1,6,5,2,0,5,6,5,0,0,0,0,0,0,0,0,0,
