0,0,0,0,0,1,1,4,7,6,14,15,16,19,10,14,9,9,10,7,7,7,6,5,7,4,3,0,0,0,0,0,0,0,0,0,0,2,9,10,12,29,31,37,40,36,36,34,31,33,26,23,21,21,22,17,14,9,10,0,0,0,0,0,
0,0,0,0,0,0,3,2,5,7,9,17,17,17,16,16,14,8,3,9,5,5,5,7,7,2,0,0,0,0,0,0,0,0,0,0,0,0,7,13,16,27,35,36,38,38,36,31,22,30,24,19,21,16,19,15,13,13,5,0,0,0,0,0,
0,0,0,0,0,0,3,5,5,7,11,11,14,14,13,12,10,7,10,7,8,9,7,9,7,8,2,0,0,0,0,0,0,0,0,0,0,2,8,13,6,20,26,34,33,33,34,30,29,21,23,21,17,20,14,12,14,9,1,0,0,0,0,0,
0,0,0,0,0,0,1,4,4,7,10,17,14,14,14,11,10,8,9,10,9,8,5,6,5,3,3,0,0,0,0,0,0,0,0,0,0,3,10,10,14,20,28,35,27,32,34,28,25,22,19,17,16,15,8,15,9,11,7,0,0,0,0,0,
0,0,0,0,0,0,1,5,7,7,12,13,14,15,12,10,12,7,8,7,11,5,5,5,6,4,0,0,0,0,0,0,0,0,0,0,0,0,11,10,9,14,18,26,21,29,31,27,23,21,16,17,19,17,12,12,10,13,0,0,0,0,0,0,
0,0,0,0,0,1,3,4,4,10,16,19,9,22,11,17,15,6,7,10,5,6,9,4,5,6,1,0,0,0,0,0,0,0,0,0,0,0,8,9,15,21,22,30,35,37,36,31,26,24,18,19,17,17,15,15,11,12,10,0,0,0,0,0,
0,0,0,0,1,0,2,2,4,11,10,17,20,12,12,12,8,7,7,9,7,3,7,5,7,3,3,0,0,0,0,0,0,0,0,0,0,4,7,9,10,21,33,28,28,28,29,30,30,19,25,16,16,17,17,11,10,9,9,0,0,0,0,0,
0,0,0,0,0,0,3,5,6,9,10,15,18,15,14,15,16,10,10,10,7,8,7,7,6,4,0,0,0,0,0,0,0,0,0,1,0,1,11,10,12,19,28,35,35,30,31,30,28,25,18,19,15,14,15,11,8,10,10,0,0,0,0,0,
0,0,0,0,0,0,0,10,9,11,18,16,16,14,11,10,12,10,10,8,9,8,9,7,6,5,3,0,0,0,0,0,0,0,0,0,0,0,10,10,8,23,26,29,33,35,28,28,26,23,21,19,14,15,12,14,11,4,0,0,0,0,0,0,
0,0,0,0,0,0,3,8,6,10,12,12,15,12,18,14,18,9,7,12,10,7,10,8,6,2,3,0,0,0,0,0,0,0,0,0,1,3,6,11,11,22,32,36,34,34,35,33,29,27,23,16,21,19,17,15,11,10,0,0,0,0,0,0,
0,0,0,0,0,0,0,4,5,9,14,14,13,11,13,14,12,7,10,10,6,8,5,7,6,5,1,0,0,0,0,0,0,0,0,0,0,1,8,9,12,23,28,32,32,31,37,32,28,26,23,17,18,19,19,14,9,15,5,0,0,0,0,0,
0,0,0,0,0,1,1,3,8,9,13,16,14,19,16,13,10,8,8,9,7,7,5,7,4,6,1,0,0,0,0,0,0,0,0,0,1,4,4,10,11,24,33,37,33,37,38,28,29,23,23,18,16,22,16,16,10,9,6,0,0,0,0,0,
0,0,0,0,0,0,3,3,8,10,16,15,14,16,12,8,14,9,9,7,6,7,5,9,7,3,3,0,0,0,0,0,0,0,0,0,0,1,4,17,9,24,31,37,34,40,32,30,23,25,21,14,14,17,16,11,8,9,8,0,0,0,0,0,
0,0,0,0,0,1,4,2,8,12,15,17,19,19,14,10,12,12,9,9,7,3,6,8,6,5,4,0,0,0,0,0,0,0,0,0,0,1,8,10,15,23,30,28,36,31,29,26,18,17,16,16,13,12,11,14,12,10,3,0,0,0,0,0,
0,0,0,0,0,0,4,0,5,10,14,14,12,13,10,10,10,9,8,6,8,6,6,7,5,0,2,0,0,0,0,0,0,0,0,0,1,0,7,11,12,19,28,29,33,30,30,29,29,27,22,16,22,19,16,17,14,10,0,0,0,0,0,0,
0,0,0,0,0,0,0,3,5,10,16,10,14,16,17,12,6,11,12,9,8,10,4,7,6,5,4,0,0,0,0,0,0,0,0,0,0,1,8,10,16,25,25,32,35,32,30,30,25,25,22,16,17,13,18,13,12,8,0,0,0,0,0,0,
0,0,0,0,0,0,0,1,4,10,13,19,12,17,10,14,7,8,10,9,8,7,7,5,9,4,3,0,0,0,0,0,0,0,0,0,0,2,8,9,10,16,21,25,30,32,28,32,21,22,18,15,15,14,17,10,12,1,0,0,0,0,0,0,
0,0,0,0,0,0,0,5,8,10,17,20,9,17,14,12,9,8,9,6,6,6,9,5,6,7,0,0,0,0,0,0,0,0,0,0,0,0,10,9,10,21,27,32,31,29,33,28,25,23,16,13,16,16,12,14,12,10,5,0,0,0,0,0,
0,0,0,0,0,0,3,4,8,11,13,17,14,11,14,12,10,16,11,12,8,10,10,10,8,6,3,1,0,0,0,0,0,0,0,1,0,3,8,10,14,16,25,30,34,30,27,26,26,25,21,18,17,15,16,11,13,0,5,0,0,0,0,0,
0,0,0,0,0,0,0,5,10,7,9,12,18,12,16,8,10,8,7,7,7,8,9,9,7,5,3,0,0,0,0,0,0,0,0,0,0,0,7,7,10,16,25,30,32,28,29,26,17,21,18,16,10,12,11,10,11,9,0,0,0,0,0,0,
0,0,0,0,0,0,0,3,7,14,8,19,18,13,9,6,10,8,7,5,8,6,7,7,4,4,0,0,0,0,0,0,0,0,0,0,0,5,10,8,10,18,25,32,33,29,32,25,22,22,17,17,16,14,17,16,11,5,0,0,0,0,0,0,
0,0,0,0,0,1,2,3,3,13,9,9,17,12,12,10,14,10,8,8,7,5,6,7,7,5,1,0,0,0,0,0,0,0,0,0,0,0,6,12,11,16,23,31,28,30,31,31,26,16,21,14,17,17,21,14,9,11,3,0,0,0,0,0,
0,0,0,0,0,0,3,4,5,10,13,12,17,17,12,15,12,10,13,6,8,8,6,8,4,5,0,0,0,0,0,0,0,0,0,0,0,1,8,12,13,16,19,23,33,27,30,28,27,23,20,16,17,18,14,16,12,12,2,0,0,0,0,0,
0,0,0,0,0,1,1,4,7,4,10,16,14,16,14,11,11,8,10,8,12,8,8,10,6,3,1,0,0,0,0,0,0,0,0,0,0,4,3,9,12,20,25,23,33,35,33,29,30,23,21,18,16,15,15,13,12,11,7,3,0,0,0,0,
0,0,0,0,0,1,3,5,7,8,10,10,10,15,14,14,14,8,7,8,8,4,7,6,6,0,0,0,0,0,0,0,0,0,0,0,0,1,9,12,11,21,26,32,32,36,33,30,24,21,18,14,12,15,11,12,8,5,9,0,0,0,0,0,
0,0,0,0,0,1,2,5,10,7,13,17,15,16,14,10,8,7,8,5,8,7,5,5,5,3,1,0,0,0,0,0,0,0,0,0,0,2,8,8,11,21,25,32,29,32,30,28,15,21,16,15,14,11,11,16,10,11,11,3,0,0,0,0,
0,0,1,3,4,5,6,6,8,6,14,16,16,16,14,19,10,14,5,7,8,8,8,8,7,5,0,0,0,0,0,0,0,0,0,0,0,5,6,10,12,21,29,33,30,30,30,29,27,25,14,13,17,15,17,17,11,8,5,0,0,0,0,0,
1,2,3,3,4,5,5,6,7,11,13,15,12,16,10,13,13,14,14,6,7,6,5,5,5,6,3,0,0,0,0,0,0,0,0,0,0,1,12,11,12,18,30,31,35,29,30,28,26,23,20,18,16,18,15,16,10,7,8,0,0,0,0,0,
0,0,0,0,0,0,0,4,6,11,11,12,14,18,10,8,16,7,13,11,8,9,8,6,8,3,0,0,0,0,0,0,0,0,0,0,0,1,8,10,12,22,29,34,33,32,28,26,28,25,21,19,14,14,11,12,11,0,6,6,0,0,0,0,
0,0,0,0,0,0,2,3,6,9,12,13,11,11,19,8,13,7,10,8,8,6,6,6,5,5,1,0,0,0,0,0,0,0,0,0,0,1,9,9,10,20,26,32,28,33,30,32,21,20,18,17,18,14,14,13,10,8,8,0,0,0,0,0,
0,0,0,0,0,0,2,4,9,9,14,20,14,18,13,14,12,8,11,8,9,10,5,6,4,0,2,0,0,0,0,0,0,0,0,0,0,1,5,8,12,17,29,33,32,31,28,24,28,20,17,20,18,16,19,17,12,12,9,0,0,0,0,0,
0,0,0,0,0,0,3,5,4,5,16,16,16,20,16,17,7,8,5,5,8,6,7,7,8,1,0,0,0,0,0,0,0,0,0,0,0,3,7,12,13,19,27,31,31,32,27,30,24,20,20,17,16,16,20,14,14,9,6,2,0,0,0,0,
0,0,0,0,0,0,1,5,8,9,9,8,19,16,12,16,17,9,9,7,7,8,5,8,5,4,1,0,0,0,0,0,0,0,0,0,0,5,8,11,10,21,25,30,32,30,32,28,29,26,21,23,15,12,14,16,14,7,7,0,0,0,0,0,
0,0,0,0,0,0,3,5,5,7,11,15,18,14,16,13,14,10,6,8,7,8,9,7,6,5,2,0,0,0,0,0,0,0,0,0,0,5,7,12,10,13,30,29,31,33,24,31,27,21,20,12,14,18,16,11,15,9,8,0,0,0,0,0,
0,0,0,0,0,0,0,5,7,12,9,9,15,15,16,17,12,13,10,6,7,5,5,5,0,7,2,0,0,0,0,0,0,0,0,0,0,3,8,12,10,18,26,31,33,24,30,25,17,24,19,12,16,16,14,13,14,10,8,0,0,0,0,0,
0,0,0,0,0,0,0,3,7,7,16,16,14,19,12,9,8,9,10,12,8,11,6,7,6,5,1,0,0,0,0,0,0,0,0,0,1,5,5,9,10,15,22,27,24,25,26,25,24,17,16,11,12,12,10,14,15,10,8,0,0,0,0,0,
0,0,0,0,0,1,1,4,6,3,14,16,13,16,15,16,11,10,7,8,8,9,6,7,5,5,1,0,0,0,0,0,0,0,0,0,0,2,7,11,12,21,26,27,32,29,24,28,24,17,14,14,15,12,14,14,17,10,8,0,0,0,0,0,
0,0,0,0,0,1,0,4,5,10,14,12,16,14,11,12,12,14,8,10,8,6,8,4,6,3,0,0,0,0,0,0,0,0,0,0,0,1,11,10,10,14,25,32,25,23,21,23,25,21,17,16,14,14,10,14,15,15,7,0,0,0,0,0,
0,0,0,0,0,0,0,4,5,11,16,10,16,12,14,12,14,9,9,7,7,5,10,6,8,5,0,0,0,0,0,0,0,0,0,0,0,5,10,11,12,19,28,30,30,30,28,28,24,25,20,17,16,16,17,15,12,9,7,0,0,0,0,0,
0,0,0,0,0,1,0,5,7,14,13,14,11,13,12,10,10,10,8,8,11,6,7,7,4,5,2,0,0,0,0,0,0,0,0,0,0,3,7,11,12,19,24,27,31,33,34,29,27,23,24,19,17,18,16,13,11,7,7,0,0,0,0,0,
0,0,0,0,0,1,0,5,7,7,9,13,13,16,12,13,14,6,13,7,5,7,6,5,5,3,0,0,0,0,0,0,0,0,0,0,0,1,3,10,12,21,27,29,28,28,28,28,26,19,14,19,17,18,15,14,13,8,5,3,0,0,0,0,
0,0,0,0,0,1,0,1,9,8,10,12,12,17,17,15,15,9,14,7,5,8,8,8,3,3,2,0,0,0,0,0,0,0,0,0,0,3,8,11,12,17,27,31,30,35,28,26,22,20,22,14,15,19,11,13,13,11,7,0,0,0,0,0,
0,0,0,0,0,0,1,5,3,12,12,12,15,13,15,15,7,10,15,6,7,7,7,7,7,5,1,0,0,0,0,0,0,0,0,0,0,3,11,12,10,18,25,29,29,29,29,28,27,20,19,16,18,15,12,14,13,8,5,3,0,0,0,0,
0,0,0,0,1,0,3,0,7,7,11,15,16,17,20,15,13,8,9,7,10,7,7,6,5,3,0,0,0,0,0,0,0,0,0,0,0,0,7,10,14,16,33,25,30,27,28,29,25,22,19,18,18,17,16,17,8,10,9,0,0,0,0,0,
0,0,0,0,0,1,0,3,4,9,8,14,14,10,12,10,10,9,9,9,10,7,8,6,6,5,1,0,0,0,0,0,0,0,0,0,0,2,7,12,8,13,23,23,26,28,30,27,25,23,14,16,16,16,17,15,12,10,8,0,0,0,0,0,
0,0,0,0,0,0,2,3,7,7,11,12,14,12,18,16,10,7,10,7,8,9,8,7,8,6,1,0,0,0,0,0,0,0,0,0,0,1,5,11,14,14,22,24,28,27,31,30,27,24,19,16,17,16,15,15,16,12,3,0,0,0,0,0,
0,0,0,0,0,0,2,7,3,9,7,14,9,11,8,10,11,7,9,7,6,5,7,2,6,3,1,0,0,0,0,0,0,0,0,0,0,5,7,10,10,15,30,32,33,35,26,31,25,20,19,15,17,16,13,14,12,9,6,0,0,0,0,0,
0,0,0,0,0,0,3,2,5,8,10,14,15,12,14,10,9,7,7,9,8,6,8,5,7,3,0,0,0,0,0,0,0,0,0,0,0,1,8,10,9,15,30,33,30,33,32,33,26,24,17,16,18,16,15,14,11,12,5,0,0,0,0,0,
0,0,0,0,0,0,3,2,8,5,12,16,8,14,16,16,8,8,10,5,9,5,7,10,5,2,2,0,0,0,0,0,0,0,0,0,0,0,8,10,12,19,26,34,25,30,26,20,16,19,15,14,17,16,11,15,13,11,5,0,0,0,0,0,
0,0,0,0,0,0,3,1,7,12,13,13,15,16,15,17,9,10,8,7,7,6,7,7,4,5,1,0,0,0,0,0,0,0,0,0,0,4,6,8,10,16,22,31,29,28,35,31,26,23,20,21,18,16,15,11,12,6,5,0,0,0,0,0,
