0,0,0,0,0,0,0,0,1,1,3,2,5,4,8,2,7,2,2,1,3,0,1,0,2,1,0,0,0,0,0,0,0,0,0,0,0,0,6,7,9,8,10,11,15,12,9,10,10,8,7,11,8,6,2,5,6,0,0,0,0,0,0,0,
0,0,0,0,0,0,0,0,0,2,1,3,2,1,2,2,10,0,1,1,1,1,0,1,1,0,0,0,0,0,0,0,0,0,0,0,0,0,6,0,9,7,11,12,6,13,7,12,12,4,5,5,6,8,8,8,4,5,1,0,0,0,0,0,
0,0,0,0,0,0,0,0,1,1,5,1,7,8,2,2,1,1,10,3,2,0,0,3,0,0,0,0,0,0,0,0,0,0,0,0,0,0,0,0,9,6,9,7,5,8,10,16,16,6,6,9,8,9,1,9,8,8,0,0,0,0,0,0,
0,0,0,0,0,0,0,0,0,0,2,1,12,7,3,13,1,7,1,1,2,0,1,0,0,0,0,0,0,0,0,0,0,0,0,0,0,0,5,5,5,6,10,7,5,4,7,12,5,7,5,7,3,4,3,2,2,1,3,0,0,0,0,0,
0,0,0,0,0,0,0,1,2,0,3,3,3,7,7,9,1,2,2,9,0,1,0,2,3,0,0,0,0,0,0,0,0,0,0,0,0,2,0,5,3,8,10,9,7,5,10,9,7,6,5,6,3,4,5,4,1,0,3,0,0,0,0,0,
0,0,0,0,0,0,0,0,0,2,1,5,7,3,8,2,0,2,2,1,1,0,1,1,1,0,0,0,0,0,0,0,0,0,0,0,0,0,5,7,7,10,9,9,8,9,8,6,7,10,9,9,8,11,10,9,5,4,0,0,0,0,0,0,
0,0,0,0,0,0,0,1,1,3,2,13,1,3,1,1,1,1,1,1,1,1,0,0,0,0,0,0,0,0,0,0,0,0,0,0,1,1,1,0,8,15,3,8,11,10,6,7,12,5,5,5,8,7,7,8,8,7,0,0,0,0,0,0,
0,0,0,0,0,0,0,0,1,2,1,7,2,3,2,2,7,2,0,1,2,1,1,1,0,0,0,0,0,0,0,0,0,0,0,0,0,0,4,8,9,10,10,7,8,4,10,6,8,5,9,6,8,5,7,7,8,1,0,0,0,0,0,0,
0,0,0,0,0,0,0,0,1,5,1,2,1,8,18,9,2,1,1,1,2,1,1,0,1,0,0,0,0,0,0,0,0,0,0,0,0,0,0,8,4,11,8,7,8,8,7,12,7,12,10,10,8,7,7,3,10,3,0,0,0,0,0,0,
0,0,0,0,0,0,0,0,0,5,24,4,10,3,1,3,1,7,2,1,2,2,2,0,0,0,0,0,0,0,0,0,0,0,0,0,0,2,4,7,6,4,4,8,14,17,9,5,15,8,6,8,6,8,5,7,7,3,5,0,0,0,0,0,
0,0,0,0,0,0,0,0,0,1,17,3,2,14,6,9,3,3,0,1,1,3,0,1,0,0,0,0,0,0,0,0,0,0,0,0,0,3,5,8,10,10,8,8,8,11,8,6,7,9,5,6,8,5,6,9,5,3,1,0,0,0,0,0,
0,0,0,0,0,0,0,1,0,1,2,3,3,2,1,6,6,7,1,1,1,2,1,1,0,0,0,0,0,0,0,0,0,0,0,0,0,0,1,3,4,6,14,8,9,8,9,10,9,8,7,8,3,6,2,4,7,4,3,0,0,0,0,0,
0,0,0,0,0,0,0,0,1,2,2,1,2,12,11,9,2,2,3,1,3,2,2,3,0,0,0,0,0,0,0,0,0,0,0,0,0,0,4,6,7,8,6,8,7,6,10,8,8,5,6,7,7,4,8,5,9,4,0,0,0,0,0,0,
0,0,0,0,0,0,0,1,0,1,1,7,8,3,2,16,0,1,3,1,0,1,1,1,0,1,0,0,0,0,0,0,0,0,0,0,0,1,5,5,5,4,7,12,5,7,7,5,12,9,4,2,10,5,3,1,2,3,0,0,0,0,0,0,
0,0,0,0,0,0,0,0,1,2,1,3,8,3,2,11,1,2,6,0,0,1,0,0,0,0,0,0,0,0,0,0,0,0,0,0,0,0,3,7,10,5,8,10,11,6,8,11,5,7,10,9,5,1,5,8,5,3,5,2,0,0,0,0,
0,0,0,0,0,0,0,0,1,2,1,15,9,3,5,1,10,0,1,3,0,1,0,3,0,0,0,0,0,0,0,0,0,0,0,0,0,0,6,21,8,5,9,7,7,5,8,8,12,7,11,4,4,6,6,6,2,1,0,0,0,0,0,0,
0,0,0,0,0,0,0,1,0,4,2,3,6,2,8,5,2,3,0,1,1,1,0,1,0,0,0,0,0,0,0,0,0,0,0,0,0,0,5,2,2,10,11,5,11,7,8,7,8,10,6,9,9,8,8,5,3,2,0,0,0,0,0,0,
0,0,0,0,0,0,0,0,0,1,2,3,7,3,1,4,7,1,1,3,1,1,1,0,1,0,0,0,0,0,0,0,0,0,0,0,0,2,6,5,7,12,7,10,12,12,12,13,8,10,10,10,10,8,8,7,0,0,0,0,0,0,0,0,
0,0,0,0,0,0,0,0,1,1,1,2,3,3,2,1,3,0,2,1,1,1,2,1,0,0,0,0,0,0,0,0,0,0,0,0,0,0,5,5,10,9,11,12,10,12,8,11,13,5,6,7,7,6,1,11,2,0,0,0,0,0,0,0,
0,0,0,0,0,0,0,0,0,0,1,11,7,1,3,11,8,1,6,1,2,0,1,3,0,0,0,0,0,0,0,0,0,0,0,0,0,0,5,4,8,8,9,11,10,8,12,5,7,11,5,4,3,4,8,3,4,3,1,1,0,0,0,0,
0,0,0,0,0,0,0,0,1,1,3,1,8,1,14,3,6,1,7,1,2,1,1,0,2,0,0,0,0,0,0,0,0,0,0,0,0,0,0,8,9,8,8,8,12,12,5,10,9,8,5,3,9,6,6,9,7,1,0,0,0,0,0,0,
0,0,0,0,0,0,0,0,0,1,3,3,6,7,4,8,1,1,1,1,0,0,1,0,0,0,0,0,0,0,0,0,0,0,0,0,0,0,2,4,6,5,8,8,11,10,10,11,10,11,8,8,8,10,11,7,1,0,0,0,0,0,0,0,
0,0,0,0,0,0,0,1,1,3,6,1,7,14,1,3,10,1,1,0,0,0,1,1,0,0,0,0,0,0,0,0,0,0,0,0,0,0,1,5,9,10,8,7,8,8,10,7,6,5,6,8,8,5,9,6,4,3,1,0,0,0,0,0,
0,0,0,0,0,0,0,0,3,2,7,3,3,4,1,2,1,8,0,2,0,0,1,0,2,0,0,0,0,0,0,0,0,0,0,0,0,0,5,3,5,9,7,14,7,10,8,11,10,8,10,9,8,10,9,8,7,0,0,0,0,0,0,0,
0,0,0,0,0,0,0,0,0,1,2,23,4,2,3,7,3,7,2,2,3,1,1,0,0,0,0,0,0,0,0,0,0,0,0,0,0,0,2,7,7,8,11,7,8,8,10,6,10,10,7,8,7,7,7,6,7,5,4,0,0,0,0,0,
0,0,0,0,0,0,0,0,1,2,1,3,1,2,1,3,16,0,1,0,1,1,0,0,0,0,0,0,0,0,0,0,0,0,0,0,0,0,0,2,5,7,7,7,8,7,6,7,6,7,6,8,8,8,7,8,7,0,0,0,0,0,0,0,
0,0,0,0,0,0,0,0,1,0,5,1,2,2,1,3,1,2,1,3,0,1,2,2,1,0,0,0,0,0,0,0,0,0,0,0,0,0,2,2,5,7,8,9,9,9,13,9,9,11,8,5,7,8,6,7,5,3,0,0,0,0,0,0,
0,0,0,0,0,0,0,0,1,2,2,1,3,1,4,2,2,9,2,1,1,1,3,1,0,1,0,0,0,0,0,0,0,0,0,0,0,0,1,3,6,8,10,18,11,13,11,12,10,11,11,8,8,8,9,8,8,7,0,0,0,0,0,0,
0,0,0,0,0,0,0,0,0,2,2,1,2,7,8,0,5,1,2,0,1,1,1,1,0,0,0,0,0,0,0,0,0,0,0,0,0,1,1,5,7,10,13,9,12,13,12,14,10,10,11,8,11,10,8,10,6,6,0,0,0,0,0,0,
0,0,0,0,0,0,0,0,3,2,6,2,2,19,8,2,7,1,2,2,1,1,1,1,1,0,0,0,0,0,0,0,0,0,0,0,0,0,2,5,7,8,8,9,11,10,10,10,5,4,7,5,7,10,10,7,8,6,0,0,0,0,0,0,
0,0,0,0,0,0,0,0,0,1,5,1,1,20,5,1,2,0,1,0,1,1,0,3,1,0,0,0,0,0,0,0,0,0,0,0,0,1,1,2,5,11,11,8,12,7,7,9,5,8,9,7,6,7,4,9,3,0,0,0,0,0,0,0,
0,0,0,0,0,0,0,0,23,2,3,3,2,2,0,6,0,1,0,0,0,1,0,1,1,0,0,0,0,0,0,0,0,0,0,0,0,1,1,6,5,8,9,7,7,9,10,8,10,9,8,8,7,7,5,7,7,5,4,0,0,0,0,0,
0,0,0,0,0,0,0,1,1,1,5,1,7,3,10,1,1,1,1,1,1,1,1,1,0,0,0,0,0,0,0,0,0,0,0,0,0,0,1,5,9,10,13,11,12,9,9,12,11,11,10,11,10,10,9,8,1,8,0,0,0,0,0,0,
0,0,0,0,0,0,0,0,0,1,6,1,2,3,1,3,2,2,1,7,1,1,2,2,1,1,0,0,0,0,0,0,0,0,0,0,0,0,2,5,10,10,8,7,8,10,10,14,10,7,5,3,10,11,10,9,8,0,0,0,0,0,0,0,
0,0,0,0,0,0,0,0,1,1,1,2,2,6,1,2,3,1,3,2,0,0,3,0,0,0,0,0,0,0,0,0,0,0,0,0,0,0,0,6,12,10,12,10,12,10,10,8,10,11,9,8,10,8,8,4,9,6,0,0,0,0,0,0,
0,0,0,0,0,0,0,0,1,1,3,4,20,3,3,1,1,1,1,1,1,0,0,0,0,0,0,0,0,0,0,0,0,0,0,0,0,0,0,6,6,8,13,10,8,9,9,5,7,9,10,10,9,7,8,9,2,6,1,0,0,0,0,0,
0,0,0,0,0,0,0,0,1,0,1,3,8,1,1,6,1,1,0,2,0,0,0,1,0,0,0,0,0,0,0,0,0,0,0,0,0,0,1,4,9,8,10,8,16,8,9,6,10,7,8,5,10,9,6,10,6,7,3,0,0,0,0,0,
0,0,0,0,0,0,0,0,1,14,15,13,2,3,3,1,2,4,1,1,0,1,0,0,0,0,0,0,0,0,0,0,0,0,0,0,0,0,0,6,10,10,13,13,9,8,8,8,8,7,7,7,5,5,9,1,8,6,0,0,0,0,0,0,
0,0,0,0,0,0,0,0,1,1,5,2,9,2,2,1,1,7,1,1,1,2,1,0,1,1,0,0,0,0,0,0,0,0,0,0,0,0,0,5,6,8,16,9,10,9,10,11,15,9,8,10,9,5,9,11,10,8,0,0,0,0,0,0,
0,0,0,0,0,0,0,0,1,1,1,3,3,15,2,10,7,0,4,1,1,1,1,1,2,0,0,0,0,0,0,0,0,0,0,0,0,0,0,5,7,10,7,8,10,10,11,9,10,8,10,9,9,10,10,8,9,6,5,0,0,0,0,0,
0,0,0,0,0,0,0,0,1,1,1,3,7,12,13,8,1,1,5,1,2,0,1,0,1,0,0,0,0,0,0,0,0,0,0,0,0,0,1,9,9,10,10,8,9,10,10,7,7,8,8,5,9,6,6,8,5,2,3,0,0,0,0,0,
0,0,0,0,0,0,0,1,1,2,1,3,1,10,13,1,3,0,3,1,2,1,1,3,1,0,0,0,0,0,0,0,0,0,0,0,0,0,3,7,10,8,9,8,9,9,10,9,7,9,8,8,7,8,9,8,9,6,0,0,0,0,0,0,
0,0,0,0,0,0,0,0,0,1,3,2,1,4,9,10,1,1,1,0,0,1,0,1,1,0,0,0,0,0,0,0,0,0,0,0,0,0,1,3,7,19,18,11,8,8,7,7,7,10,7,7,3,5,5,4,6,5,4,0,0,0,0,0,
0,0,0,0,0,0,0,0,1,2,3,2,3,4,2,3,2,5,1,1,1,0,0,1,0,0,0,0,0,0,0,0,0,0,0,0,0,0,0,8,5,8,10,8,7,8,8,7,9,8,7,6,6,7,7,6,7,4,4,0,0,0,0,0,
0,0,0,0,0,0,0,0,1,1,7,2,4,20,3,1,2,2,1,1,1,1,0,0,0,0,0,0,0,0,0,0,0,0,0,0,0,0,1,3,5,7,8,6,10,6,13,9,8,8,10,9,10,8,9,9,8,7,3,0,0,0,0,0,
0,0,0,0,0,0,0,0,0,1,1,2,3,2,8,5,2,2,1,1,1,1,2,0,1,0,0,0,0,0,0,0,0,0,0,0,0,1,2,3,7,8,8,11,18,8,6,8,8,8,8,6,10,6,8,6,5,2,5,0,0,0,0,0,
0,0,0,0,0,0,0,0,1,1,3,3,7,14,2,2,10,2,3,2,1,1,1,1,0,1,0,0,0,0,0,0,0,0,0,0,0,1,0,3,5,7,8,6,8,8,11,8,8,10,6,7,7,7,5,9,5,5,5,0,0,0,0,0,
0,0,0,0,0,0,1,1,0,2,1,1,8,1,3,4,3,2,3,1,3,1,1,0,1,0,0,0,0,0,0,0,0,0,0,0,0,0,2,7,7,1,9,9,7,13,10,8,9,8,8,5,7,7,8,6,4,7,4,0,0,0,0,0,
0,0,0,0,0,0,0,0,2,0,1,8,2,1,3,13,11,0,4,4,1,0,0,0,0,0,0,0,0,0,0,0,0,0,0,0,0,0,0,2,3,10,5,10,9,5,8,7,7,7,10,10,9,8,9,10,5,6,0,0,0,0,0,0,
0,0,0,0,0,0,0,1,1,4,1,2,21,4,3,12,2,3,2,2,0,1,0,1,0,0,0,0,0,0,0,0,0,0,0,0,0,1,4,5,9,10,12,8,8,11,10,8,8,7,8,8,5,5,6,5,5,3,4,0,0,0,0,0,
