0,0,0,0,0,0,0,0,0,0,0,2,4,4,7,5,6,4,1,2,2,0,0,3,0,0,0,0,0,0,0,0,0,0,0,0,0,0,0,0,1,12,26,31,29,27,29,21,26,26,22,25,21,21,24,17,19,9,0,0,0,0,0,0,
0,0,0,0,0,0,0,0,0,0,1,0,7,6,7,5,5,5,3,1,0,0,4,1,0,0,0,0,0,0,0,0,0,0,0,0,0,0,0,0,1,8,23,29,33,32,29,27,26,26,25,25,19,23,22,24,8,7,1,0,0,0,0,0,
0,0,0,0,0,0,0,0,0,0,0,1,4,8,8,7,2,5,3,2,2,2,0,0,1,1,0,0,0,0,0,0,0,0,0,0,0,0,0,0,1,8,22,31,31,26,35,35,18,21,19,14,16,20,20,15,9,6,0,0,0,0,0,0,
0,0,0,0,0,0,0,0,0,0,0,4,5,6,7,5,5,4,2,2,1,1,1,2,0,0,0,0,0,0,0,0,0,0,0,0,0,0,0,0,1,10,27,30,30,30,30,29,23,21,22,19,18,19,19,16,11,2,0,0,0,0,0,0,
0,0,0,0,0,0,0,0,0,0,1,4,4,6,3,4,5,2,0,0,0,2,2,0,0,0,0,0,0,0,0,0,0,0,0,0,0,0,0,0,1,7,26,34,36,30,28,30,26,24,25,21,23,20,17,17,17,8,2,0,0,0,0,0,
0,0,0,0,0,0,0,0,0,0,0,3,7,7,6,9,5,4,3,2,6,0,3,1,1,0,0,0,0,0,0,0,0,0,0,0,0,0,0,0,1,7,21,30,28,26,28,34,30,26,19,17,21,15,16,7,5,4,0,0,0,0,0,0,
0,0,0,0,0,0,0,0,0,0,0,3,5,10,6,5,5,3,1,4,2,1,3,0,1,1,0,0,0,0,0,0,0,0,0,0,0,0,0,0,0,15,30,28,31,35,30,25,27,26,17,18,21,16,16,17,19,8,1,0,0,0,0,0,
0,0,0,0,0,0,0,0,0,0,0,3,5,6,6,7,6,5,3,3,2,3,2,1,1,1,0,0,0,0,0,0,0,0,0,0,0,0,0,0,0,6,12,31,26,39,35,29,30,20,25,22,24,19,20,17,17,9,3,0,0,0,0,0,
0,0,0,0,0,0,0,0,0,0,0,5,7,7,7,9,6,5,5,3,2,2,2,2,1,1,0,0,0,0,0,0,0,0,0,0,0,0,0,0,0,11,29,30,30,32,28,23,25,23,21,19,17,18,23,21,17,8,0,0,0,0,0,0,
0,0,0,0,0,0,0,0,0,0,0,5,6,6,8,5,7,4,4,1,2,1,2,2,1,3,0,0,0,0,0,0,0,0,0,0,0,0,0,0,0,12,29,28,34,29,29,31,25,27,23,24,23,23,22,21,15,7,1,0,0,0,0,0,
0,0,0,0,0,0,0,0,0,0,1,4,5,7,8,5,6,4,3,1,1,2,3,0,0,0,0,0,0,0,0,0,0,0,0,0,0,0,0,0,0,14,28,28,29,26,32,30,28,23,22,24,18,22,18,17,15,9,0,0,0,0,0,0,
0,0,0,0,0,0,0,0,0,0,0,4,5,8,5,5,5,4,4,2,1,1,2,2,1,0,0,0,0,0,0,0,0,0,0,0,0,0,0,0,0,6,23,29,34,32,28,28,25,25,24,24,18,18,19,14,21,10,1,0,0,0,0,0,
0,0,0,0,0,0,0,0,0,0,0,2,7,6,7,8,5,3,3,1,2,1,3,3,0,0,0,0,0,0,0,0,0,0,0,0,0,0,0,0,0,8,20,26,30,33,30,27,24,21,18,17,21,21,19,20,11,8,3,0,0,0,0,0,
0,0,0,0,0,0,0,0,0,0,0,4,6,7,8,6,4,5,3,2,3,2,2,1,0,0,0,0,0,0,0,0,0,0,0,0,0,0,0,0,1,17,28,34,25,33,28,28,26,27,26,17,21,22,21,14,13,8,1,0,0,0,0,0,
0,0,0,0,0,0,0,0,0,0,1,3,8,6,8,5,0,4,3,3,2,1,1,1,1,2,0,0,0,0,0,0,0,0,0,0,0,0,0,0,0,12,27,28,30,31,30,30,26,31,28,21,21,26,23,18,15,12,1,0,0,0,0,0,
0,0,0,0,0,0,0,0,0,0,1,3,6,6,5,6,5,4,3,2,1,1,0,2,1,0,0,0,0,0,0,0,0,0,0,0,0,0,0,0,0,7,28,28,31,31,30,29,31,25,23,21,18,16,22,20,15,9,2,0,0,0,0,0,
0,0,0,0,0,0,0,0,0,0,0,3,3,9,7,5,5,3,2,1,2,2,3,3,1,0,0,0,0,0,0,0,0,0,0,0,0,0,0,0,0,15,27,30,32,31,30,30,28,28,21,20,21,22,21,20,18,10,3,0,0,0,0,0,
0,0,0,0,0,0,0,0,0,0,1,2,8,7,7,5,7,5,3,2,1,0,4,1,0,2,0,0,0,0,0,0,0,0,0,0,0,0,0,0,0,9,26,31,31,33,31,28,27,28,26,25,23,21,22,21,13,7,4,0,0,0,0,0,
0,0,0,0,0,0,0,0,0,0,1,4,7,7,7,5,12,3,2,2,1,2,0,2,1,0,0,0,0,0,0,0,0,0,0,0,0,0,0,0,1,5,27,22,31,29,26,28,27,27,25,19,21,21,17,20,17,9,1,0,0,0,0,0,
0,0,0,0,0,0,0,0,0,0,1,3,9,7,9,5,9,2,4,1,0,1,2,0,0,0,0,0,0,0,0,0,0,0,0,0,0,0,0,0,0,13,26,33,30,29,28,30,27,21,22,19,21,21,18,20,15,8,0,0,0,0,0,0,
0,0,0,0,0,0,0,0,0,0,1,5,5,7,7,5,5,4,3,1,2,0,0,2,1,0,0,0,0,0,0,0,0,0,0,0,0,0,0,0,1,10,25,26,30,29,25,30,28,24,21,23,18,22,19,21,12,10,0,0,0,0,0,0,
0,0,0,0,0,0,0,0,0,0,1,5,5,6,6,4,3,4,3,3,2,1,0,2,1,0,0,0,0,0,0,0,0,0,0,0,0,0,0,0,0,14,24,32,33,28,30,29,26,20,28,20,24,21,20,19,13,5,0,0,0,0,0,0,
0,0,0,0,0,0,0,0,0,0,2,4,5,9,7,9,5,5,3,3,1,3,2,1,2,1,0,0,0,0,0,0,0,0,0,0,0,0,0,0,0,12,22,28,32,33,31,25,28,30,25,21,20,24,17,21,18,11,3,0,0,0,0,0,
0,0,0,0,0,0,0,0,3,0,0,4,4,7,8,7,6,6,4,3,3,4,4,2,2,1,0,0,0,0,0,0,0,0,0,0,0,0,0,0,0,17,21,35,31,30,29,28,27,25,26,22,26,23,21,16,19,9,6,0,0,0,0,0,
0,0,0,0,0,0,0,0,0,0,0,3,5,7,6,7,6,5,4,2,2,2,1,1,3,1,0,0,0,0,0,0,0,0,0,0,0,0,0,0,0,14,30,22,31,32,32,28,26,25,23,21,21,23,18,20,14,8,5,0,0,0,0,0,
0,0,0,0,0,0,0,0,0,0,1,4,4,8,7,8,5,7,3,3,3,2,2,3,1,1,0,0,0,0,0,0,0,0,0,0,0,0,0,0,0,7,27,32,31,31,30,30,28,28,25,23,22,20,24,22,14,11,4,0,0,0,0,0,
0,0,0,0,0,0,0,0,0,0,0,5,7,7,7,10,6,5,4,3,1,3,2,3,1,1,0,0,0,0,0,0,0,0,0,0,0,0,0,0,1,11,19,32,31,31,32,29,26,22,24,21,18,16,17,19,17,7,2,0,0,0,0,0,
0,0,0,0,0,0,0,0,0,0,1,4,5,9,5,7,6,5,3,2,0,2,2,1,2,2,0,0,0,0,0,0,0,0,0,0,0,0,0,0,0,10,23,30,32,28,31,30,24,29,27,20,15,23,23,22,18,10,0,0,0,0,0,0,
0,0,0,0,0,0,0,0,0,0,1,4,6,8,6,8,7,4,3,3,1,1,1,1,1,1,0,0,0,0,0,0,0,0,0,0,0,0,0,0,0,8,19,32,37,35,27,27,31,25,25,25,21,22,24,19,17,8,0,0,0,0,0,0,
0,0,0,0,0,0,0,0,0,0,1,3,4,7,5,6,6,5,3,1,2,2,1,1,0,1,0,0,0,0,0,0,0,0,0,0,0,0,0,0,0,15,21,30,29,30,30,31,26,25,24,22,21,21,25,22,18,7,0,0,0,0,0,0,
0,0,0,0,0,0,0,0,0,0,1,3,4,7,5,7,4,4,2,2,1,1,0,2,1,0,0,0,0,0,0,0,0,0,0,0,0,0,0,0,0,13,21,33,37,33,31,29,26,23,25,18,18,21,19,18,18,7,3,0,0,0,0,0,
0,0,0,0,0,0,0,0,0,0,1,4,6,8,7,7,3,4,3,3,1,1,2,1,0,0,0,0,0,0,0,0,0,0,0,0,0,0,0,0,0,6,26,30,34,31,32,32,29,24,19,18,18,17,21,21,13,8,2,0,0,0,0,0,
0,0,0,0,0,0,0,0,0,0,1,4,5,6,5,5,5,4,3,2,1,0,3,1,0,0,0,0,0,0,0,0,0,0,0,0,0,0,0,0,1,13,19,30,28,32,32,28,25,28,21,24,11,18,20,18,14,8,0,0,0,0,0,0,
0,0,0,0,0,0,0,0,0,0,1,3,4,7,8,8,5,5,3,2,1,1,1,1,2,0,0,0,0,0,0,0,0,0,0,0,0,0,0,0,0,1,25,14,31,35,23,27,23,16,17,21,21,18,17,12,9,6,0,0,0,0,0,0,
0,0,0,0,0,0,0,0,0,0,1,2,7,6,6,5,5,3,3,3,1,0,2,1,1,0,0,0,0,0,0,0,0,0,0,0,0,0,0,0,0,9,23,7,29,34,28,28,26,25,25,16,23,21,25,20,12,7,0,0,0,0,0,0,
0,0,0,0,0,0,0,0,0,0,0,5,6,6,6,4,7,5,3,3,2,2,1,1,1,0,0,0,0,0,0,0,0,0,0,0,0,0,0,0,0,13,21,27,33,32,39,30,28,27,26,19,23,23,19,24,14,11,0,0,0,0,0,0,
0,0,0,0,0,0,0,0,0,0,1,2,6,6,5,4,4,3,4,2,0,2,1,1,0,0,0,0,0,0,0,0,0,0,0,0,0,0,0,0,0,7,19,33,17,41,36,33,28,36,23,20,22,25,21,21,15,10,0,0,0,0,0,0,
0,0,0,0,0,0,0,0,0,0,0,1,3,7,6,5,6,3,2,1,0,4,1,0,2,0,0,0,0,0,0,0,0,0,0,0,0,0,0,0,0,14,15,28,37,39,33,26,28,27,26,25,24,18,23,21,20,12,0,0,0,0,0,0,
0,0,0,0,0,0,0,0,0,0,0,3,4,7,4,1,5,3,1,2,1,3,2,1,0,0,0,0,0,0,0,0,0,0,0,0,0,0,0,0,1,8,30,33,38,35,33,29,30,28,25,24,23,23,22,23,14,9,0,0,0,0,0,0,
0,0,0,0,0,0,0,0,0,0,0,3,5,4,6,5,4,3,2,1,1,2,1,2,1,0,0,0,0,0,0,0,0,0,0,0,0,0,0,0,0,14,28,32,25,37,38,29,29,29,27,26,25,22,19,22,15,8,1,0,0,0,0,0,
0,0,0,0,0,0,0,0,0,0,0,2,4,3,0,6,6,4,1,2,2,2,0,2,1,0,0,0,0,0,0,0,0,0,0,0,0,0,0,0,0,13,27,36,33,28,30,32,29,32,23,21,23,26,26,18,19,9,2,0,0,0,0,0,
0,0,0,0,0,0,0,0,0,0,2,3,5,7,5,7,6,4,3,4,3,1,2,3,0,0,0,0,0,0,0,0,0,0,0,0,0,0,0,0,0,12,24,30,27,40,33,30,25,29,23,25,23,28,22,25,18,9,3,0,0,0,0,0,
0,0,0,0,0,0,0,0,0,0,0,2,5,7,8,6,3,3,7,3,1,2,2,1,0,1,0,0,0,0,0,0,0,0,0,0,0,0,0,0,0,7,25,28,37,27,34,30,34,25,23,21,19,25,21,17,17,10,0,0,0,0,0,0,
0,0,0,0,0,0,0,0,0,0,0,2,3,5,7,8,4,3,2,1,3,0,0,3,1,0,0,0,0,0,0,0,0,0,0,0,0,0,0,0,0,10,30,30,30,27,41,28,28,32,24,27,23,24,18,19,17,10,1,0,0,0,0,0,
0,0,0,0,0,0,0,0,0,0,0,0,3,6,0,6,3,3,2,2,1,0,0,3,0,0,0,0,0,0,0,0,0,0,0,0,0,0,0,0,0,13,28,32,30,31,39,31,30,26,0,0,0,0,10,0,0,0,0,0,0,0,0,0,
0,0,0,0,0,0,0,0,0,0,1,4,4,5,4,4,3,2,1,0,0,3,1,0,0,0,0,0,0,0,0,0,0,0,0,0,0,0,0,0,47,13,25,17,33,31,29,30,28,26,22,21,23,20,16,20,10,12,3,0,0,0,0,0,
0,0,0,0,0,0,0,0,0,0,0,1,5,4,5,7,5,3,5,1,2,1,2,2,2,1,0,0,0,0,0,0,0,0,0,0,0,0,0,0,0,13,25,34,30,35,28,31,31,26,24,26,21,23,23,21,18,9,0,0,0,0,0,0,
0,0,0,0,0,0,0,0,0,0,0,2,5,6,7,5,5,4,3,1,2,2,1,1,0,0,0,0,0,0,0,0,0,0,0,0,0,0,0,0,0,11,16,31,39,39,34,28,38,25,27,23,24,17,22,23,17,10,0,0,0,0,0,0,
0,0,0,0,0,0,0,0,0,0,0,3,10,0,8,4,5,3,2,2,2,1,2,1,0,0,0,0,0,0,0,0,0,0,0,0,0,0,0,0,0,12,13,29,32,29,31,29,26,25,23,20,23,19,17,21,16,9,3,0,0,0,0,0,
0,0,0,0,0,0,0,0,0,0,0,3,6,6,5,6,3,2,2,3,0,3,1,1,2,0,0,0,0,0,0,0,0,0,0,0,0,0,0,0,0,13,21,32,28,30,29,27,24,30,26,19,25,19,18,19,16,9,3,0,0,0,0,0,
