0,0,0,0,0,0,0,47,0,42,0,0,0,0,0,0,0,0,43,0,0,0,0,0,1,0,0,0,0,0,0,2,0,0,0,0,0,0,25,15,0,0,0,1,1,0,0,0,0,0,0,0,0,0,1,0,0,0,0,0,0,0,0,2,
0,29,0,0,0,0,0,35,0,0,0,0,0,0,0,0,0,45,0,0,0,0,0,0,0,0,0,0,0,0,3,1,1,0,1,0,4,2,3,1,12,1,0,0,0,0,0,0,0,1,0,0,0,0,0,0,0,0,0,0,0,0,14,2,
3,0,0,1,0,0,0,0,37,0,0,0,0,0,0,0,0,0,0,0,0,0,0,0,0,0,0,0,0,3,0,0,1,1,0,0,0,1,3,1,2,0,0,0,1,0,0,0,0,0,0,0,0,0,0,0,0,0,0,1,0,0,5,0,
0,1,0,0,0,0,0,0,0,32,40,44,0,0,0,0,0,0,0,0,0,0,0,0,3,0,0,0,0,1,0,0,1,0,0,1,0,37,23,15,0,17,12,1,0,0,0,11,0,0,0,0,0,0,1,0,0,0,0,0,0,0,0,0,
0,0,0,0,1,29,0,21,48,0,0,0,0,0,0,0,0,0,0,0,0,0,0,0,0,0,0,0,0,1,0,1,1,0,0,0,1,18,2,8,3,18,0,1,0,0,0,0,0,1,0,0,0,34,0,0,0,0,0,0,0,0,0,3,
0,0,0,0,0,0,0,38,0,34,0,40,0,0,0,0,0,0,0,0,0,0,0,0,0,0,0,0,0,0,1,0,1,0,0,2,2,7,2,11,1,0,0,0,0,3,0,41,0,0,0,0,0,0,0,0,0,0,0,3,0,0,0,0,
0,0,0,0,0,30,0,44,37,0,0,0,0,0,0,0,0,0,0,0,0,0,0,0,0,0,0,0,0,1,1,1,1,0,0,0,1,2,4,5,1,0,0,0,0,0,0,42,0,0,0,0,0,0,0,0,0,0,0,0,0,0,0,0,
3,0,0,0,0,1,0,47,0,0,36,0,0,0,0,0,0,0,0,1,0,0,0,46,0,0,0,0,0,0,3,0,0,0,1,0,0,1,1,14,0,40,0,2,0,1,0,0,0,0,0,0,0,0,0,0,0,0,0,0,0,0,0,0,
1,0,0,0,0,3,0,43,0,2,48,0,0,0,0,0,0,0,0,0,0,0,0,0,0,0,0,0,0,3,0,0,8,0,0,1,4,3,3,1,30,1,1,1,47,42,0,0,0,0,0,0,0,0,0,0,0,0,0,1,0,0,0,0,
1,0,0,0,0,0,47,42,13,33,1,0,0,0,0,0,0,0,0,0,0,0,0,0,0,0,0,0,0,0,2,0,0,0,0,0,1,1,1,34,16,0,1,1,0,0,47,0,0,0,0,0,0,0,1,0,0,0,0,0,0,0,0,0,
0,0,0,0,0,44,0,41,0,32,47,0,0,0,0,0,0,0,0,3,1,0,0,0,0,0,0,0,0,0,1,0,1,0,2,0,0,0,3,16,29,16,0,0,0,0,0,43,0,1,0,0,0,0,0,0,0,0,0,0,0,0,0,1,
3,0,0,0,10,0,0,28,0,0,30,0,0,0,1,0,0,0,33,0,0,0,0,0,0,0,0,0,0,4,0,0,0,1,0,3,3,1,29,16,1,0,0,0,1,0,0,0,0,0,0,0,0,46,0,0,0,0,0,3,0,0,1,0,
0,26,0,0,0,0,0,0,10,0,32,0,0,0,0,0,0,0,0,0,0,0,0,0,0,0,0,0,0,1,1,0,0,0,1,1,1,0,5,39,0,0,0,0,0,0,0,0,0,0,0,0,0,0,1,0,0,0,0,0,0,1,0,9,
0,0,0,0,0,1,0,34,0,0,0,0,0,0,46,0,0,0,0,1,0,0,0,0,0,0,0,0,0,1,2,1,1,7,3,0,0,3,31,1,1,0,20,10,0,0,0,0,0,0,0,0,0,0,0,0,0,0,0,0,0,0,0,0,
1,0,0,0,0,0,0,0,30,0,42,0,0,0,0,45,0,0,0,0,0,0,0,0,0,0,0,0,0,1,0,0,2,0,0,0,3,2,3,41,47,19,1,0,0,0,0,0,0,0,0,0,0,0,0,0,0,0,0,3,0,1,0,1,
0,0,0,0,0,0,0,0,40,35,0,0,0,0,48,44,0,0,0,0,0,0,0,0,0,0,0,0,0,1,8,0,0,0,0,0,5,1,32,14,42,0,0,0,1,0,0,47,0,0,0,0,0,0,1,0,0,0,0,0,0,0,0,0,
0,0,0,0,35,0,0,0,46,0,0,0,0,0,0,0,0,0,0,1,0,0,0,0,0,0,0,0,0,1,3,0,0,0,1,0,2,1,32,1,0,20,1,0,0,1,0,0,0,3,0,0,0,0,0,0,0,0,0,0,0,0,2,0,
1,0,0,0,0,0,1,0,46,0,0,0,0,0,3,42,0,0,0,0,0,0,0,0,0,0,0,0,0,3,0,0,0,0,0,0,0,2,35,6,0,46,0,0,3,0,0,0,0,0,0,0,0,0,0,0,0,0,0,1,0,0,3,0,
0,0,0,0,0,0,0,0,0,37,0,0,0,0,0,0,43,0,0,0,0,0,0,0,1,0,0,0,0,0,1,1,5,1,0,0,0,2,1,15,38,0,0,0,0,0,0,0,0,0,0,43,0,0,1,0,0,0,0,0,0,0,1,0,
0,0,0,0,0,0,0,1,41,0,0,0,0,0,0,0,0,0,0,1,0,0,0,0,0,0,0,0,0,0,0,0,1,2,3,0,0,3,1,3,2,0,1,0,0,0,0,43,0,3,0,0,0,0,0,0,0,0,0,0,0,0,1,0,
0,0,0,0,0,0,0,0,37,0,0,0,17,0,0,0,0,0,0,0,0,0,5,0,0,0,0,0,0,1,0,0,1,4,0,0,0,2,35,1,16,1,2,0,1,0,23,0,0,0,0,0,0,1,0,0,0,0,0,1,0,0,0,5,
0,0,0,7,0,0,0,0,0,34,0,0,0,0,0,0,0,10,0,0,0,0,0,0,1,0,0,0,0,1,0,0,0,0,0,0,1,2,34,3,0,12,0,0,0,0,0,0,0,0,0,0,0,0,1,0,0,0,0,0,0,0,0,0,
0,0,0,0,3,1,0,1,36,0,34,0,0,0,0,0,0,42,0,1,0,0,0,0,0,0,0,0,0,0,1,5,1,0,3,0,0,3,12,1,2,2,0,1,0,0,0,0,0,0,0,0,0,0,0,0,0,0,0,0,0,0,3,1,
1,0,0,0,0,0,0,0,0,0,34,0,45,0,1,0,0,42,0,0,0,0,0,0,0,0,0,0,0,3,0,1,0,1,0,2,0,21,32,20,1,0,0,1,0,0,0,0,0,0,0,0,0,0,0,0,0,0,0,1,0,0,3,0,
0,0,0,0,0,0,0,46,0,1,28,0,0,0,0,0,0,0,0,40,0,0,0,0,3,0,0,0,0,1,3,1,0,0,0,0,0,2,34,18,1,2,0,47,1,0,0,0,0,0,0,0,0,0,1,0,0,0,0,0,0,0,0,1,
0,0,0,0,3,4,0,43,1,0,32,0,0,0,0,0,0,0,41,0,0,0,0,0,0,0,0,0,0,0,1,0,0,1,3,0,0,1,31,4,2,1,0,44,0,0,0,0,0,3,0,0,0,0,0,0,0,0,0,0,0,0,0,0,
3,0,0,0,1,0,3,34,0,0,0,44,0,0,0,0,0,0,0,0,0,0,0,0,0,0,0,0,0,4,0,0,1,0,0,0,0,1,1,41,1,17,0,0,4,0,0,0,0,0,0,0,0,0,0,0,0,0,0,1,0,0,0,0,
0,0,0,0,0,0,0,21,34,47,0,0,0,0,0,0,0,0,0,0,0,0,0,0,1,0,0,0,0,1,0,0,0,0,0,0,0,1,13,1,19,0,1,0,46,2,0,0,0,0,0,0,0,0,1,0,0,0,0,0,0,0,0,0,
0,0,0,0,1,17,0,0,0,33,0,42,0,0,0,0,0,0,0,1,0,0,0,0,0,0,0,0,0,0,2,1,0,0,3,0,5,1,5,18,4,0,0,1,0,0,0,1,10,3,0,0,0,0,0,29,0,0,0,0,0,0,4,1,
0,0,10,0,0,30,1,0,0,1,1,35,0,42,0,0,0,0,0,0,0,0,0,0,0,0,0,0,0,1,1,1,0,0,0,0,0,1,2,41,5,3,0,0,1,0,21,0,0,0,0,0,0,0,0,0,0,0,0,1,0,0,0,0,
0,0,0,0,0,1,1,9,0,1,28,0,0,0,48,0,0,0,0,0,0,0,0,0,1,0,0,0,0,1,0,1,0,1,1,1,1,1,1,16,0,0,0,0,0,0,32,0,0,0,0,0,0,0,3,46,0,0,0,0,0,0,0,0,
21,0,0,0,3,0,0,42,0,0,0,0,0,0,0,0,0,0,46,0,0,0,0,0,0,0,0,0,0,0,1,0,0,1,0,0,0,2,1,17,1,2,0,43,0,0,45,0,41,4,0,0,0,0,0,0,0,0,0,0,0,0,0,0,
0,26,0,0,0,8,0,42,0,0,0,0,0,0,0,0,0,0,0,0,0,0,1,0,0,0,0,0,0,4,1,3,0,0,0,1,7,0,2,1,2,14,0,0,3,0,0,42,0,0,0,0,0,0,0,0,0,0,0,1,0,0,1,1,
0,0,0,0,16,0,0,0,0,32,0,0,0,0,47,0,0,0,0,0,0,0,0,0,1,0,0,0,0,3,0,1,1,0,1,0,3,21,0,4,16,0,0,0,0,3,0,0,0,0,0,0,0,0,0,0,0,0,0,0,0,0,0,1,
0,0,0,0,1,33,0,0,0,30,0,0,0,0,0,0,41,0,0,0,0,0,0,0,0,0,0,0,0,0,0,0,0,0,1,0,1,1,1,1,1,1,0,0,0,0,0,0,0,0,0,0,0,0,0,0,0,0,0,0,0,0,2,1,
2,0,0,0,0,18,0,2,0,30,0,0,0,0,1,0,0,0,0,0,0,0,0,0,0,0,0,0,0,5,0,0,0,1,0,0,2,3,5,2,21,1,1,0,2,0,46,0,0,0,0,0,0,0,0,0,23,0,0,1,0,7,0,0,
0,0,0,0,18,0,0,3,1,31,0,0,0,0,0,0,0,0,0,0,0,0,0,0,3,0,0,0,0,0,0,2,0,0,0,0,1,4,0,5,17,0,39,0,0,38,0,0,0,0,0,0,0,0,0,0,0,0,0,0,0,0,5,0,
0,0,0,0,3,2,0,44,0,0,34,0,0,0,0,0,0,0,0,0,0,0,0,0,0,0,0,0,0,0,1,0,1,0,3,0,0,1,3,35,26,0,0,0,1,0,43,0,0,0,0,0,0,0,0,0,0,0,0,0,0,0,0,3,
1,0,0,0,0,1,0,42,0,29,0,0,0,0,0,0,0,0,0,0,0,0,0,0,0,0,0,0,0,2,0,1,0,2,0,0,3,1,2,2,46,1,0,0,1,0,0,43,0,0,0,0,0,0,0,0,0,0,0,1,0,0,2,0,
1,0,0,0,18,0,0,0,0,46,0,0,0,0,0,0,0,0,0,0,32,0,0,0,3,0,0,0,0,0,1,0,0,0,0,11,0,2,3,3,47,1,1,1,0,0,0,0,0,0,0,0,0,0,1,0,0,0,0,0,0,0,0,0,
0,0,0,0,1,1,0,0,0,47,32,0,0,0,0,0,0,0,0,0,0,0,0,0,0,0,0,0,0,0,1,1,0,0,0,0,0,2,3,20,46,1,0,0,0,0,0,0,0,1,0,0,0,0,42,0,0,0,0,0,0,0,0,3,
0,0,0,0,1,0,0,0,0,30,0,0,43,0,3,0,0,0,0,0,0,0,0,43,0,0,0,0,0,3,5,0,2,0,0,0,0,4,2,46,21,1,0,2,1,0,0,0,0,0,0,0,0,0,0,0,0,0,1,0,0,2,1,0,
0,0,0,0,1,0,0,0,25,3,43,0,0,0,0,0,0,0,0,0,0,0,0,0,3,0,0,0,0,0,2,1,0,0,2,0,34,4,0,3,20,0,0,0,0,0,0,10,0,0,0,0,0,0,1,32,0,0,0,0,0,0,1,0,
20,3,0,0,1,0,0,0,0,34,0,0,16,0,0,0,0,0,0,1,0,0,0,42,0,0,0,0,0,0,3,0,22,3,0,0,3,1,3,3,21,10,1,0,0,0,0,0,0,1,0,0,0,0,0,0,32,0,0,0,0,0,0,3,
1,0,0,0,1,0,2,0,46,33,48,0,0,0,37,0,0,0,0,0,0,0,0,0,0,0,0,0,0,0,1,1,10,0,1,0,1,1,9,42,21,44,0,0,1,0,0,0,0,0,0,0,0,0,0,0,0,0,0,0,0,0,0,0,
0,0,0,0,0,0,0,1,0,48,0,0,0,0,0,0,0,45,0,0,0,0,0,0,1,0,0,0,0,1,0,0,1,4,0,0,2,2,3,2,47,9,0,0,0,0,0,0,0,0,0,0,0,0,1,0,0,0,0,0,0,1,0,7,
0,0,0,0,1,0,1,15,35,0,36,0,48,0,0,0,0,0,0,1,0,0,0,0,0,0,0,0,0,0,0,0,1,0,1,0,3,1,43,19,1,2,1,0,46,0,0,0,0,0,0,0,0,0,0,0,0,0,0,0,0,0,0,3,
0,0,0,0,0,26,0,47,0,0,33,0,0,0,0,0,0,0,0,0,0,0,0,0,0,0,0,0,0,3,0,2,3,0,0,0,17,3,38,0,21,1,1,0,2,11,0,0,5,0,0,0,0,0,0,0,0,0,1,0,0,0,1,0,
0,0,0,0,0,46,0,0,0,0,34,0,0,0,0,0,0,0,0,0,0,0,0,0,3,0,0,0,0,1,2,0,1,0,0,12,3,2,1,1,22,0,20,0,0,0,0,0,0,0,0,46,0,3,1,0,0,0,0,0,0,0,0,2,
0,0,28,0,1,0,0,1,0,0,0,0,0,0,0,0,0,0,0,0,0,0,0,0,0,0,0,0,0,1,0,0,0,3,1,0,1,1,3,19,1,25,46,1,44,0,0,0,0,0,0,0,0,0,0,0,0,0,0,0,0,1,2,3,
