0,0,0,1,0,0,47,40,0,0,0,0,0,0,0,0,0,0,0,0,0,0,0,0,0,0,0,0,0,0,1,0,1,0,0,0,1,1,1,1,1,46,1,0,47,0,0,0,0,0,0,0,0,0,29,0,0,0,0,0,0,0,1,1,
0,0,0,2,3,0,46,0,0,0,0,0,0,0,44,0,0,37,0,0,0,0,0,0,0,0,0,0,0,1,1,0,1,0,0,0,1,31,3,34,1,20,46,0,0,30,0,0,0,0,0,0,0,0,0,0,0,1,0,0,0,0,0,8,
0,0,0,0,0,0,0,40,0,47,0,0,0,0,0,0,0,0,0,0,0,0,0,0,0,0,0,0,0,0,0,1,0,1,0,1,0,0,1,2,41,43,47,0,0,0,0,0,0,0,0,0,0,0,0,0,0,0,0,0,0,0,0,0,
0,0,0,3,0,1,34,1,0,48,0,0,0,0,0,0,0,0,0,0,0,0,0,0,0,0,0,0,0,1,0,0,0,0,0,1,5,2,41,38,1,44,1,1,46,0,0,0,0,0,0,0,0,0,0,0,0,0,0,0,0,0,1,0,
0,0,0,0,0,6,0,1,37,0,3,0,1,1,0,0,0,0,0,0,0,0,0,0,0,0,0,0,0,0,1,1,0,0,4,0,0,0,35,1,2,1,1,42,0,1,0,0,25,0,0,0,0,0,46,0,0,0,0,0,0,0,0,1,
0,0,0,0,0,12,27,16,0,0,0,45,0,0,0,0,0,0,0,0,0,0,0,0,0,0,0,0,0,2,1,0,19,0,0,0,1,0,1,1,5,46,1,42,0,0,0,46,0,0,0,0,0,0,0,0,0,0,0,0,0,0,0,0,
0,0,0,2,0,0,44,0,4,0,0,0,0,0,0,0,0,0,0,0,0,0,0,0,0,0,0,0,0,0,0,1,1,0,1,0,2,0,1,2,44,1,3,47,1,0,0,0,0,0,0,0,0,0,0,0,0,0,0,0,0,0,0,0,
0,0,0,2,0,10,35,47,0,0,0,0,17,0,0,0,0,0,0,0,0,33,0,0,0,0,0,0,0,0,1,0,16,0,0,0,6,3,1,1,1,0,47,0,0,0,0,43,0,0,0,0,27,0,0,0,0,0,0,0,0,0,0,8,
0,0,0,0,0,0,0,0,48,0,0,0,0,0,0,0,0,0,0,0,33,5,1,0,0,0,0,0,0,0,0,0,0,0,0,1,1,0,45,44,41,1,0,0,0,0,0,0,0,0,0,0,0,0,0,0,0,0,0,0,0,0,1,0,
0,0,0,0,3,0,0,0,0,9,0,0,0,0,0,48,0,0,0,0,0,0,0,0,0,0,0,0,0,0,2,0,0,24,2,0,12,1,35,33,1,0,0,0,5,0,0,0,0,0,0,0,0,0,0,0,0,0,0,0,0,0,2,0,
0,0,0,0,0,0,43,16,1,0,0,0,0,0,0,0,0,0,0,0,0,0,0,0,0,0,0,0,0,0,1,0,1,0,1,1,1,1,0,1,3,0,0,0,0,0,0,0,0,0,0,0,0,0,0,0,0,0,0,0,0,0,0,0,
0,0,0,0,1,0,1,47,17,0,0,0,0,0,0,0,0,0,0,0,0,0,0,0,0,0,0,0,0,2,0,0,1,0,0,0,1,2,1,0,42,0,2,0,0,0,0,0,0,0,0,0,0,0,0,0,0,0,0,0,0,0,0,0,
0,0,0,0,0,7,0,0,0,0,0,0,20,0,0,0,0,0,0,0,0,0,0,0,0,0,0,0,0,0,0,0,1,0,18,2,0,0,2,43,0,0,1,0,0,0,0,0,42,0,0,0,0,0,0,0,0,0,0,0,0,0,0,8,
0,0,0,0,0,0,0,0,18,40,0,0,0,0,0,0,0,0,0,0,0,0,0,0,0,0,0,0,0,0,1,1,0,1,0,0,0,8,1,1,41,1,1,0,0,0,0,0,0,0,5,0,45,0,0,0,1,0,0,0,0,0,0,2,
0,0,25,0,3,15,0,4,0,0,17,0,0,0,0,0,0,0,0,0,0,0,0,0,0,0,0,0,0,0,0,1,1,9,0,0,3,0,0,1,2,0,0,41,1,0,0,0,0,0,0,0,0,0,0,0,0,0,0,0,0,0,5,6,
0,0,1,0,0,2,0,0,21,0,0,0,0,0,0,0,0,0,0,0,0,0,0,0,0,0,0,0,0,0,1,0,0,0,0,1,0,5,2,1,3,0,1,0,0,0,43,0,0,0,0,0,0,0,0,0,0,0,0,0,0,1,0,0,
0,0,0,0,41,0,10,0,0,45,0,0,0,0,13,0,0,0,0,0,0,0,0,0,0,0,0,0,0,0,0,0,0,0,0,0,26,3,0,3,1,48,1,0,1,0,0,0,0,40,0,0,0,0,0,0,0,0,0,0,0,3,0,8,
0,0,0,0,0,0,0,13,1,0,48,0,0,0,0,0,0,0,0,0,0,0,0,0,0,0,0,0,0,1,1,1,0,0,0,0,1,3,0,46,1,1,1,0,0,0,0,0,33,0,0,0,0,0,0,0,0,0,0,0,0,0,4,10,
0,0,0,0,0,0,0,4,45,0,0,0,0,0,0,0,0,47,0,0,0,0,0,0,0,0,0,0,0,1,2,2,20,0,0,19,0,2,1,1,1,1,0,0,0,0,0,0,39,0,46,0,0,0,0,0,0,0,0,0,0,0,0,0,
0,0,29,0,0,1,0,13,0,47,0,0,0,0,0,0,0,0,0,0,0,0,0,0,0,0,0,0,0,1,1,0,0,0,2,0,3,0,2,0,46,45,0,0,0,0,0,0,0,0,0,0,0,0,0,0,0,0,0,0,0,0,1,0,
0,0,0,2,0,0,0,0,0,47,0,0,0,0,0,0,0,0,0,0,0,0,0,0,0,0,0,0,0,0,1,1,2,2,1,0,0,4,0,0,1,0,1,0,0,0,12,0,0,0,0,0,0,0,0,0,0,0,0,0,0,1,0,5,
0,0,0,0,0,1,0,41,0,0,0,0,1,0,0,0,0,0,0,0,0,0,0,0,0,0,0,0,0,0,1,0,0,0,0,0,1,1,18,1,0,1,0,0,47,1,0,0,0,0,0,0,0,0,0,0,0,0,0,0,0,0,0,0,
0,0,0,0,0,0,37,0,19,0,0,0,0,0,0,0,0,0,0,0,0,0,0,0,0,0,0,0,0,1,0,0,0,0,0,0,1,4,2,37,1,0,21,0,0,0,0,0,0,0,0,0,0,0,0,0,0,0,0,0,0,0,0,0,
1,0,0,0,0,0,10,42,0,0,0,0,0,0,0,0,0,0,0,0,0,0,0,0,0,0,0,0,0,0,1,10,0,0,0,0,1,2,1,2,0,0,46,46,0,0,0,0,0,0,0,0,0,0,0,0,0,0,0,0,0,0,0,2,
0,0,0,0,0,0,0,47,22,0,0,0,0,0,0,0,0,0,0,0,0,0,0,0,0,0,0,0,0,0,1,2,0,0,0,2,0,1,23,1,0,1,1,47,1,0,0,0,0,0,0,0,0,0,0,0,0,0,0,0,0,1,2,2,
1,0,0,0,0,0,0,47,0,35,0,0,0,0,0,0,0,0,0,0,0,0,0,0,0,0,1,0,0,1,0,0,3,0,0,1,0,0,2,39,1,2,0,9,0,0,0,0,0,0,0,0,0,0,0,0,0,0,0,0,0,0,0,0,
0,0,0,0,0,0,1,47,0,0,0,0,0,0,0,0,0,0,0,0,0,0,0,0,0,0,0,0,0,0,0,0,0,0,0,0,0,2,0,0,2,44,0,0,0,0,0,0,0,0,0,0,0,0,0,0,0,0,0,0,0,0,0,0,
0,0,3,0,0,1,2,0,46,0,0,0,0,0,0,0,0,0,0,0,0,0,0,0,0,0,0,0,0,0,1,0,2,0,2,3,1,1,1,29,4,1,0,1,42,0,0,0,0,0,0,0,0,0,0,0,0,0,0,0,0,0,3,8,
0,0,0,0,0,0,0,0,17,0,45,0,0,0,0,0,0,0,0,0,0,0,0,0,0,0,0,0,0,1,2,0,2,1,0,1,1,0,3,44,42,1,0,1,0,0,0,0,0,0,0,0,0,0,0,0,0,0,0,0,0,0,2,0,
0,0,0,0,3,0,0,0,0,0,18,0,0,0,0,0,47,0,0,0,0,0,0,0,0,0,0,0,0,3,0,1,0,0,0,10,0,1,0,3,0,2,0,1,0,1,16,0,0,0,0,0,0,0,0,0,0,0,0,0,0,0,1,0,
0,0,7,0,0,0,0,0,0,28,0,0,0,0,0,15,0,0,0,0,0,0,0,0,0,0,0,0,0,0,0,1,0,0,0,0,10,2,0,3,1,0,0,0,0,0,0,0,0,35,0,0,0,0,0,0,0,0,0,0,0,1,4,0,
0,0,0,0,0,0,0,9,0,0,0,0,0,0,0,0,0,0,0,0,0,0,0,0,0,0,0,0,0,0,2,1,0,0,0,0,2,1,3,0,37,0,0,1,0,0,0,0,0,0,0,0,0,0,0,0,0,0,0,0,0,0,0,0,
0,0,0,0,0,0,1,0,0,0,23,0,0,0,0,0,0,0,0,0,0,0,0,0,0,0,0,0,0,0,0,2,1,0,7,9,1,1,3,2,1,1,0,0,0,0,43,0,0,0,0,0,0,0,0,0,0,0,0,0,0,0,1,7,
0,0,0,0,0,0,0,24,23,0,0,0,0,0,0,0,0,0,0,0,0,0,0,0,0,0,0,0,0,0,2,3,1,0,0,0,1,0,3,4,40,1,1,0,0,46,0,0,0,0,0,0,0,0,0,0,26,0,0,0,0,0,0,0,
0,0,0,0,0,7,45,8,0,0,0,17,0,0,0,0,0,0,0,0,0,0,0,0,0,0,0,0,0,1,0,1,0,14,0,0,1,4,1,2,3,1,0,44,0,0,45,0,0,0,0,0,0,0,0,0,0,0,0,0,0,0,7,0,
0,0,2,0,0,0,40,2,0,0,36,0,0,0,0,0,33,0,0,0,0,0,0,0,0,0,0,0,0,0,1,1,0,17,0,0,27,0,3,1,1,1,0,1,41,1,0,0,0,0,33,0,0,0,0,0,0,0,0,0,0,0,0,10,
0,0,0,0,0,0,0,0,26,0,0,0,0,41,0,0,0,0,0,0,0,0,0,0,0,0,0,0,0,1,0,1,0,0,0,0,0,1,2,47,1,2,1,0,0,0,0,0,0,0,43,0,0,0,0,0,0,0,0,0,0,0,0,1,
0,0,0,0,0,9,17,0,0,0,0,41,0,0,0,0,0,0,0,47,0,0,0,0,0,0,0,0,0,1,0,17,1,0,0,0,24,0,1,0,1,0,0,0,0,0,0,0,0,36,0,0,0,0,0,0,0,0,0,0,0,0,1,6,
1,0,0,33,0,0,0,13,0,0,0,0,0,0,0,0,0,0,0,0,0,0,0,0,0,0,0,0,0,1,1,0,0,1,0,1,1,2,1,5,1,44,0,0,0,0,0,0,0,0,0,0,0,0,0,0,0,0,0,0,0,1,0,0,
0,0,0,0,6,2,0,0,2,0,0,0,0,0,0,0,0,0,0,0,0,0,0,0,0,0,0,0,0,1,1,0,0,1,0,13,0,29,1,1,5,0,1,0,0,0,0,0,0,0,0,0,0,0,0,0,0,0,0,0,0,0,0,0,
0,0,0,0,1,2,0,0,0,0,33,0,0,0,0,0,0,0,0,0,0,0,0,0,0,0,0,0,0,0,1,0,0,0,0,10,2,1,3,33,3,0,0,0,0,0,0,42,0,0,0,0,40,0,0,0,0,0,0,0,0,0,0,12,
0,26,0,0,0,0,1,0,25,35,0,0,0,0,47,0,0,0,0,0,0,0,0,0,0,0,0,0,0,0,1,1,0,0,0,7,1,0,1,3,43,0,2,0,44,0,0,0,0,0,0,0,0,0,0,0,0,0,0,0,0,0,1,0,
0,3,0,0,0,13,47,0,0,1,0,0,21,0,0,0,0,0,0,0,0,0,0,0,0,0,0,0,0,0,2,1,0,0,0,0,25,2,38,2,2,1,0,1,1,1,0,0,0,0,0,0,0,47,0,0,0,0,0,0,0,0,3,0,
13,26,0,0,0,0,1,0,0,22,0,0,0,0,0,0,0,0,0,0,0,0,0,42,0,0,0,0,0,0,1,0,1,0,0,6,0,16,0,2,1,2,0,0,0,39,0,0,0,0,1,0,0,0,0,29,0,0,0,0,0,0,0,10,
0,0,0,3,0,0,0,0,18,0,0,0,0,5,0,0,0,0,28,0,0,0,0,0,0,0,0,0,0,0,0,0,0,1,0,0,0,0,28,39,41,1,0,1,0,0,0,0,0,0,0,0,0,0,0,0,0,0,0,0,0,0,0,0,
0,0,0,0,1,0,0,0,0,0,0,41,0,0,0,0,0,0,0,42,0,0,0,0,0,0,0,0,0,0,0,6,0,0,7,3,0,1,3,28,1,0,44,1,0,0,0,0,0,0,0,0,0,0,0,0,0,0,0,0,0,0,0,1,
0,10,0,0,0,6,0,0,47,25,0,0,0,41,0,0,0,0,0,0,0,0,0,0,0,0,0,0,0,0,1,0,1,0,0,0,0,20,2,3,3,1,0,1,0,0,0,0,0,0,0,38,0,0,0,0,0,0,0,0,0,0,2,0,
0,5,0,0,0,0,0,0,28,0,0,0,0,0,0,0,0,0,47,0,0,0,0,0,0,0,0,0,0,1,3,16,0,0,0,1,1,0,1,2,45,1,1,1,0,0,0,0,0,0,0,0,0,0,0,0,0,0,0,0,0,0,3,0,
0,1,0,0,5,45,3,4,0,0,0,0,0,0,41,0,0,0,0,0,0,0,0,0,0,0,0,0,0,1,1,0,0,0,0,1,0,30,26,3,1,1,0,43,0,0,0,0,46,0,0,0,0,0,0,0,0,0,0,0,1,0,2,11,
0,5,0,34,0,0,0,0,0,29,0,0,0,0,0,0,0,0,0,34,0,0,0,0,0,0,0,0,0,0,3,0,1,0,0,0,3,4,25,39,1,2,0,0,10,1,0,0,0,0,0,0,0,0,0,0,0,0,0,0,0,0,3,2,
