0,0,0,0,41,38,42,1,0,0,25,0,12,0,0,0,1,1,1,0,1,0,1,1,0,0,0,0,0,0,0,2,24,0,0,0,3,47,13,0,0,3,0,0,40,0,46,0,0,0,0,0,0,0,0,15,0,0,0,0,0,0,6,0,
1,0,0,0,0,40,40,10,5,0,0,19,48,0,0,1,0,0,1,0,0,0,1,0,0,0,0,0,0,0,0,3,0,0,0,0,48,1,3,3,8,1,0,2,46,0,0,46,7,0,0,41,0,48,0,0,1,0,0,0,0,0,0,0,
0,47,0,0,29,23,46,0,0,3,0,0,0,12,0,48,0,17,0,0,1,1,22,0,0,0,0,0,0,0,32,1,1,0,24,19,6,38,1,2,3,5,6,0,48,0,0,1,0,0,0,0,0,0,0,0,0,0,0,0,0,0,0,6,
0,1,0,0,0,0,48,0,0,47,27,0,6,1,0,1,0,0,0,0,1,44,0,0,0,0,0,0,0,0,0,1,36,0,0,0,0,0,1,2,1,48,1,1,0,46,0,0,0,0,0,1,0,0,0,2,34,0,0,0,0,0,0,1,
0,0,0,0,0,0,35,47,0,0,46,0,0,11,0,0,0,0,0,0,0,0,0,0,0,0,0,0,0,0,0,6,1,0,0,0,24,1,6,3,45,32,1,1,8,0,0,0,0,41,1,1,1,0,0,0,12,0,0,0,0,0,0,0,
0,0,0,0,0,35,3,48,3,1,0,47,1,0,1,1,0,1,1,0,14,0,14,0,0,1,0,0,0,0,16,1,8,0,10,11,1,0,46,3,1,0,0,7,0,38,0,7,4,0,0,0,0,0,0,0,17,0,0,0,0,0,0,0,
0,0,47,0,28,0,1,47,0,0,6,0,10,0,0,8,48,0,0,0,0,0,0,0,0,0,0,0,0,0,0,47,0,0,21,0,1,12,17,16,1,1,3,2,30,0,0,39,0,0,0,26,1,8,0,0,0,0,0,0,0,0,0,0,
0,0,0,0,33,48,0,0,0,9,19,1,14,0,0,0,26,0,0,0,0,0,0,0,0,0,0,0,0,0,1,0,39,0,0,0,3,5,3,1,3,0,17,28,14,48,0,0,0,0,0,0,0,7,0,0,0,0,0,0,0,0,0,4,
0,0,48,0,23,40,3,0,0,0,47,48,7,0,1,0,23,0,1,0,0,0,0,0,0,0,0,0,0,0,1,0,47,0,0,26,2,44,1,0,47,0,4,5,0,0,0,0,1,1,0,0,1,13,0,0,0,0,0,0,0,0,4,0,
0,0,0,0,3,0,0,3,47,47,1,0,1,0,33,0,1,0,0,1,1,3,0,1,0,0,0,0,0,0,0,1,1,0,1,2,0,1,0,2,2,10,3,0,15,0,0,48,0,0,39,0,0,0,0,0,0,0,0,0,0,0,0,0,
0,0,0,0,0,30,39,47,0,0,0,0,0,48,0,1,1,28,0,1,0,1,0,0,0,0,0,0,0,0,0,45,0,0,0,1,0,3,3,25,33,1,37,1,3,47,0,42,5,0,0,0,0,0,0,2,0,0,0,0,0,0,0,2,
0,46,0,0,34,0,47,46,0,7,0,0,0,0,0,1,46,0,3,0,0,0,1,14,1,0,0,0,0,0,44,6,3,0,0,0,0,4,3,0,46,48,3,0,42,0,0,0,11,0,0,0,0,0,0,0,23,0,0,0,0,0,7,0,
0,0,0,0,0,1,39,0,42,48,48,0,0,0,0,0,0,19,0,0,0,0,0,0,0,0,0,0,0,0,0,2,0,0,0,1,0,0,3,0,29,47,3,0,1,1,0,1,0,0,5,0,0,0,0,0,0,0,0,0,0,0,0,0,
0,7,0,0,0,35,1,0,0,6,0,48,0,0,0,45,0,0,47,10,0,0,0,0,0,0,0,0,0,0,47,0,1,22,1,23,0,2,46,4,2,0,16,1,0,0,0,34,0,0,0,12,0,0,0,0,0,0,0,0,0,0,1,0,
2,0,0,25,0,47,0,48,0,1,16,1,0,2,1,26,0,0,0,0,0,0,0,0,0,0,0,0,0,0,2,1,0,0,0,0,0,1,17,3,0,0,0,0,0,0,0,46,0,44,0,0,0,0,0,0,16,0,0,0,0,0,1,0,
0,0,2,0,33,46,0,0,0,0,48,0,0,0,0,0,1,0,0,3,0,0,1,0,0,0,0,0,0,0,1,1,1,0,47,2,0,1,3,3,14,43,7,37,0,41,0,0,0,0,0,0,0,0,0,23,0,0,0,0,0,0,1,0,
0,12,0,0,33,35,7,48,47,0,0,0,0,1,24,0,0,17,1,1,0,0,0,0,0,0,0,0,0,0,0,0,1,0,0,25,2,1,1,12,2,0,48,0,0,0,1,0,1,2,0,0,0,0,32,0,0,0,0,0,0,0,22,0,
0,1,0,0,30,0,44,0,47,1,0,0,0,1,23,0,0,0,0,0,0,0,0,0,0,0,0,0,0,0,3,2,0,0,48,0,30,1,1,7,3,47,17,46,0,0,1,0,0,0,48,0,3,0,0,0,0,0,0,0,0,0,0,0,
1,0,48,22,0,5,0,43,0,47,0,0,0,0,0,34,0,0,0,0,1,0,1,0,0,0,0,0,0,0,0,0,1,18,36,0,0,2,4,0,20,32,47,0,0,0,45,0,0,1,0,0,1,0,0,0,0,0,0,0,0,0,0,1,
0,18,0,1,1,0,0,45,48,0,0,0,1,0,0,0,0,1,0,0,0,0,0,0,0,0,0,0,0,0,0,5,0,0,0,0,23,2,2,0,48,47,46,10,0,0,0,0,0,0,0,0,0,0,0,3,0,0,0,0,0,0,0,1,
4,0,0,0,0,30,0,0,0,48,6,1,0,0,0,1,0,13,0,41,0,0,0,0,0,0,0,0,0,0,1,40,0,0,0,0,1,8,42,26,0,21,1,0,1,0,0,11,0,0,0,0,0,0,0,0,0,0,0,0,0,0,1,0,
1,10,0,0,48,5,41,0,8,0,1,0,1,0,0,47,6,48,0,0,0,0,0,0,0,0,0,0,0,0,0,1,47,1,32,0,0,1,1,23,14,19,2,0,0,0,0,0,46,1,9,0,45,0,0,0,1,0,0,0,0,0,0,0,
0,0,48,0,32,5,1,4,0,0,0,47,0,0,0,4,1,0,0,0,48,0,0,0,0,0,0,0,0,30,2,5,2,0,0,0,10,0,42,0,0,0,1,35,0,0,0,0,0,0,0,0,38,0,1,0,0,0,0,0,0,0,0,0,
1,5,0,0,0,46,1,3,0,48,47,0,1,1,0,0,0,1,0,0,0,0,22,0,7,0,0,0,0,0,0,0,0,0,0,0,0,47,40,2,42,4,42,1,3,0,0,4,0,46,15,0,0,0,1,0,0,0,0,0,0,0,0,4,
0,0,9,0,0,33,4,0,0,1,9,47,1,0,1,0,0,1,0,0,48,0,0,1,0,0,0,0,0,0,0,9,47,1,0,0,0,0,0,37,11,47,4,46,0,47,1,0,1,0,0,0,0,0,0,0,0,0,0,0,0,0,0,4,
4,0,0,0,0,46,44,48,0,7,0,0,0,0,0,1,0,0,0,0,0,0,0,0,0,0,0,0,0,0,2,0,0,0,1,0,1,46,0,1,1,1,9,47,0,1,47,0,1,1,1,0,0,1,0,14,0,0,0,0,0,0,0,0,
0,0,48,0,0,1,46,44,0,0,12,0,1,1,1,0,0,48,0,0,0,0,0,0,0,0,0,0,0,0,0,0,47,0,18,0,0,0,0,2,8,2,0,48,0,46,45,0,33,1,1,0,0,1,0,0,0,0,0,0,0,0,0,0,
0,0,0,0,27,48,47,0,0,8,0,1,0,0,0,1,33,0,0,0,0,0,16,0,47,0,0,0,0,0,0,0,3,0,25,0,0,0,3,3,47,37,3,1,0,40,0,0,1,1,2,1,1,0,0,0,0,0,0,0,0,0,0,2,
5,7,0,24,0,39,1,0,1,48,0,0,0,0,0,0,0,1,0,0,0,0,0,0,0,0,0,0,0,0,1,1,47,0,2,1,1,35,8,47,2,2,1,42,0,1,0,1,1,0,0,0,0,0,0,0,0,15,0,0,0,0,0,0,
2,0,1,48,0,0,42,0,0,0,0,0,48,0,0,42,0,0,0,0,0,0,48,0,0,18,0,0,0,0,0,1,47,2,0,2,24,0,46,1,16,1,0,0,48,0,13,42,1,33,0,1,14,0,0,0,0,0,0,0,0,0,0,46,
0,0,0,0,22,33,1,0,0,7,1,0,1,48,1,30,47,0,0,0,0,0,0,0,12,0,0,0,0,0,0,6,1,48,0,0,30,43,3,0,7,33,47,1,0,32,0,0,31,1,0,0,0,0,0,0,0,0,22,0,0,0,0,0,
3,9,0,0,0,36,5,2,0,1,0,0,12,0,1,0,0,0,46,0,0,0,0,0,0,0,0,0,0,0,0,2,1,0,0,0,1,2,1,3,7,1,48,0,44,0,37,0,0,0,40,0,1,0,0,0,0,0,0,0,0,0,3,2,
2,0,0,30,34,46,0,10,0,0,0,3,0,1,0,0,0,0,47,0,0,14,0,1,0,0,0,0,0,0,0,1,48,0,0,0,26,1,2,1,4,42,0,37,1,0,48,0,0,23,0,20,0,0,0,0,0,0,0,0,0,0,47,0,
2,0,0,0,0,27,46,0,47,0,0,0,0,0,0,0,0,25,0,0,0,0,0,0,0,0,0,0,0,0,0,4,14,0,0,0,0,2,44,8,1,1,0,41,0,0,0,0,0,0,0,47,0,13,0,0,0,0,0,0,0,0,0,3,
0,48,0,1,0,0,36,0,3,0,8,0,0,48,12,0,0,0,0,0,0,0,0,3,0,0,0,0,0,0,0,39,0,0,2,0,0,0,35,17,2,6,0,10,1,0,0,7,0,46,0,0,0,0,15,0,0,0,0,0,0,0,0,0,
1,2,0,0,0,42,0,48,2,13,0,2,0,46,0,0,46,0,0,0,0,0,0,0,0,0,0,0,0,0,0,3,43,2,20,0,5,0,36,1,36,48,0,31,0,0,17,1,1,0,0,43,13,0,0,0,0,0,0,0,0,0,0,0,
0,3,39,0,0,40,41,38,4,1,0,1,0,0,13,0,0,0,0,48,0,0,24,2,0,0,0,0,0,0,0,1,3,0,48,1,0,0,2,36,1,1,48,0,1,0,39,0,0,0,0,1,0,1,0,0,11,0,0,0,0,0,0,0,
0,0,32,0,0,33,0,0,48,0,0,4,0,0,46,0,0,0,1,0,0,0,45,0,0,0,0,0,0,0,0,14,0,5,0,0,0,23,33,41,4,1,0,32,0,0,0,19,1,0,48,1,0,3,0,0,0,0,0,0,0,0,0,0,
0,0,48,0,27,0,40,1,0,2,0,0,0,31,0,0,0,0,0,0,0,0,0,0,0,0,0,0,0,0,0,4,1,0,0,0,0,1,44,48,4,0,2,0,26,14,1,0,0,0,42,0,1,17,0,0,0,0,0,0,0,0,0,7,
0,0,0,0,0,48,1,0,7,4,0,0,0,0,1,0,0,0,47,0,0,0,0,0,0,0,0,0,0,0,0,2,1,0,22,0,37,0,1,1,4,48,1,34,41,0,0,38,0,2,0,0,0,0,0,0,0,0,0,0,0,0,0,0,
0,0,0,0,0,25,0,47,0,0,47,0,0,0,0,0,23,0,0,0,0,0,0,0,0,0,0,0,0,0,0,4,4,0,0,0,0,32,2,13,3,8,2,3,0,0,1,0,0,24,0,0,0,21,0,0,0,0,0,0,0,0,0,1,
0,3,0,0,29,0,1,48,5,0,0,0,0,4,0,47,0,0,0,19,0,0,0,0,0,0,0,0,0,0,0,2,20,0,0,5,1,1,14,1,1,2,0,0,44,0,43,0,47,0,0,0,34,0,7,0,0,0,0,0,0,0,0,1,
18,0,0,0,25,0,40,0,1,0,0,0,0,0,0,0,29,47,0,0,0,0,0,0,0,0,0,0,0,0,3,0,0,19,0,39,1,0,1,45,2,25,3,0,0,0,0,39,2,0,0,45,46,0,0,0,0,0,0,0,0,0,0,0,
1,47,2,0,27,0,3,5,0,0,0,0,0,48,0,0,0,0,0,0,0,0,0,0,0,0,12,0,0,0,0,2,47,1,18,0,0,2,2,42,1,46,1,0,39,0,0,0,46,0,2,0,0,0,0,0,0,0,0,0,0,0,0,7,
0,1,0,0,0,41,40,2,0,46,48,0,0,0,0,0,0,0,0,4,0,0,0,0,0,0,0,0,0,0,0,1,1,35,0,0,33,0,1,4,14,45,0,1,39,1,10,0,0,0,17,42,0,0,0,0,0,0,0,0,0,0,0,1,
0,0,30,47,0,0,37,1,0,46,7,0,0,1,0,0,0,0,0,0,0,48,0,44,0,0,0,0,0,0,0,45,4,0,28,0,0,2,5,23,5,44,1,0,8,0,0,46,0,0,0,0,41,0,0,0,12,0,0,0,0,0,0,0,
4,2,0,0,0,43,48,1,0,1,19,0,0,0,10,0,0,0,0,0,0,0,0,0,0,0,0,0,0,0,0,3,30,1,0,0,0,0,7,16,42,0,3,36,1,1,1,0,0,45,0,0,0,0,0,0,0,0,0,0,0,0,0,0,
0,0,1,0,0,1,0,44,1,4,13,48,0,0,0,0,0,0,0,0,0,0,0,2,0,0,0,0,0,0,0,30,0,0,0,0,2,0,1,32,2,2,2,1,0,46,0,47,0,0,0,0,19,0,0,0,0,0,0,0,0,0,0,2,
0,0,0,0,43,48,0,0,0,0,8,0,46,0,0,0,0,0,0,0,0,0,0,3,0,0,0,0,0,0,0,5,2,0,16,1,1,0,10,0,3,1,1,0,0,48,30,0,0,46,0,0,1,16,1,0,0,0,0,0,0,0,3,0,
0,0,0,48,41,0,0,44,1,0,19,0,0,10,0,0,0,0,0,0,0,0,0,0,1,0,0,0,0,1,2,0,0,0,1,0,0,47,2,2,3,11,46,0,0,0,12,0,0,46,0,0,0,0,0,0,0,0,0,0,0,0,0,0,
