0,0,0,0,0,0,1,46,48,0,0,0,0,0,0,0,0,0,0,0,0,0,0,0,0,0,0,0,0,0,0,0,0,0,0,2,1,5,0,3,2,0,37,0,47,0,0,0,0,0,0,0,0,0,0,0,0,0,0,0,0,0,0,0,
0,0,0,0,0,0,47,46,0,0,0,0,0,0,0,0,0,3,0,0,0,0,0,0,0,0,0,0,0,3,1,1,1,0,0,0,1,0,1,26,47,46,1,0,0,0,0,0,0,0,16,0,0,0,0,0,0,0,0,0,0,3,0,0,
0,0,0,0,0,0,0,0,45,0,47,0,0,0,0,48,0,0,0,0,0,0,0,0,0,0,0,0,0,0,1,0,21,1,0,0,1,22,1,9,2,46,0,0,0,0,5,0,0,0,0,0,0,0,0,0,0,0,0,0,0,0,0,0,
0,0,2,0,0,0,1,44,1,0,0,0,0,0,48,0,40,0,0,0,0,0,0,0,0,0,0,0,0,0,3,0,0,0,0,30,1,0,36,3,45,0,0,0,0,0,0,0,0,0,0,3,0,0,0,0,0,0,0,0,0,0,1,4,
0,0,3,0,0,2,0,0,39,0,0,48,0,0,0,0,0,0,0,0,0,0,0,0,0,0,0,0,0,0,0,0,0,0,0,0,1,5,3,46,44,2,0,1,0,0,0,0,0,0,0,0,0,0,0,0,0,0,0,0,0,0,0,0,
0,0,0,0,0,0,40,0,0,47,0,0,3,0,0,0,0,0,0,0,0,0,0,0,0,0,3,1,0,1,2,3,0,0,0,0,1,1,4,42,1,0,47,0,0,0,0,0,45,0,0,0,0,0,0,0,0,0,0,0,0,0,0,0,
0,0,0,0,0,0,41,0,0,0,44,0,0,0,0,0,0,0,0,0,0,0,0,0,0,0,0,0,0,0,1,1,0,0,0,2,1,1,1,45,2,1,3,0,0,47,0,0,44,0,0,0,0,0,0,0,0,0,0,0,0,0,0,1,
1,0,0,0,0,46,0,0,0,0,47,0,0,0,0,0,0,0,0,0,0,0,0,0,0,0,0,0,0,1,2,3,1,0,0,0,2,5,2,3,1,0,3,0,0,0,8,0,0,0,0,0,0,35,0,0,43,0,0,0,0,3,0,1,
0,0,0,0,0,7,42,0,0,0,0,0,0,0,46,0,0,0,0,0,0,0,0,0,0,0,0,0,0,0,3,0,26,1,0,0,1,2,2,0,0,0,0,0,0,16,0,0,0,0,46,0,0,0,0,0,0,0,0,0,0,0,0,0,
0,0,0,33,0,7,0,0,0,0,0,0,0,0,0,0,0,0,0,0,0,0,0,0,0,0,0,0,0,0,1,1,0,1,0,1,3,1,1,31,1,0,1,6,0,0,0,0,0,0,0,41,0,0,0,0,0,0,0,0,0,0,0,0,
0,0,3,0,0,0,43,0,0,0,0,0,0,0,0,0,0,0,0,0,0,12,0,0,0,0,0,0,0,0,1,3,2,0,0,1,0,1,2,39,13,2,0,0,0,0,0,0,45,0,0,0,12,0,0,0,0,0,0,0,0,0,3,0,
1,0,0,0,0,0,41,0,0,0,0,0,48,0,0,0,0,0,0,0,0,0,0,0,0,0,1,0,0,2,2,0,0,0,0,0,0,2,45,1,4,3,1,0,1,0,18,0,0,0,43,7,0,0,0,0,0,0,0,0,0,0,1,2,
0,0,34,22,0,0,0,0,0,0,0,0,0,0,10,0,0,0,0,0,0,34,0,0,0,0,0,0,0,0,0,0,0,0,0,0,7,16,39,1,1,0,0,1,0,0,0,0,0,0,0,3,0,0,5,0,0,0,0,0,0,0,1,0,
0,0,3,0,0,0,1,0,0,0,0,0,0,0,17,46,0,0,0,0,0,0,0,0,0,0,0,0,0,3,2,3,8,0,0,0,1,1,2,1,4,0,1,11,0,0,0,0,0,0,0,43,0,0,0,0,0,0,0,0,0,1,0,0,
0,0,0,0,3,1,0,47,0,0,0,1,0,0,0,25,0,0,0,38,0,0,0,0,0,0,0,0,0,0,1,1,1,0,0,1,29,1,3,3,0,41,0,0,0,0,0,0,0,0,0,42,0,0,0,0,0,0,0,0,0,0,0,0,
0,0,0,0,1,0,0,40,0,0,0,0,0,0,0,0,0,0,17,0,37,0,0,0,0,0,0,0,0,2,3,1,2,0,0,0,1,2,1,1,1,37,1,0,0,0,0,46,0,0,0,0,0,0,0,0,0,0,0,0,0,0,0,0,
0,17,1,0,0,5,0,0,0,0,37,0,0,0,0,14,2,0,0,2,0,0,0,0,0,0,0,0,0,0,0,1,0,0,0,0,5,0,40,0,1,38,0,1,0,0,2,0,0,0,0,0,0,0,0,0,0,0,0,0,0,0,0,0,
0,0,0,0,0,0,0,0,0,0,0,0,0,0,0,0,46,0,0,0,0,0,0,0,0,0,2,0,0,2,1,0,5,0,1,0,2,2,3,0,17,47,0,0,0,0,0,0,0,0,45,0,0,0,0,0,0,0,0,0,0,1,0,0,
1,0,0,0,0,0,0,0,0,44,0,48,0,0,0,0,0,0,0,0,0,2,0,0,0,0,0,0,0,0,0,0,0,0,0,0,0,5,1,46,1,2,0,0,0,0,0,0,0,0,43,2,0,0,0,0,0,0,0,0,0,0,2,0,
0,2,1,0,0,35,0,0,0,0,0,27,0,0,0,0,0,0,0,47,10,0,0,0,0,0,0,0,0,1,1,1,0,1,25,0,0,12,3,3,1,1,1,0,0,0,0,0,0,0,0,5,0,0,0,0,0,0,0,0,0,0,0,0,
0,0,0,0,5,0,0,46,0,0,0,0,0,0,0,0,0,0,9,0,0,0,0,0,0,0,2,0,0,0,0,2,1,1,0,0,7,1,2,3,1,2,0,0,0,46,10,0,0,0,0,0,0,0,0,0,0,0,0,0,0,0,4,0,
0,0,0,3,0,34,1,1,0,0,0,0,0,0,0,0,0,0,0,0,0,1,0,0,0,0,0,0,0,1,1,1,1,0,0,0,2,19,0,0,3,0,1,39,0,0,0,0,0,0,0,0,0,0,0,0,0,0,0,0,0,0,1,0,
0,0,0,0,0,0,0,0,0,1,10,0,0,0,0,0,0,0,0,0,0,0,0,0,0,0,0,0,0,0,0,1,0,0,0,3,1,1,3,44,4,1,0,1,0,46,0,0,0,0,0,0,0,0,0,0,0,0,0,0,0,0,3,0,
0,0,0,0,0,0,43,0,0,37,0,2,39,0,0,0,0,0,0,0,0,0,0,0,0,0,0,0,0,1,0,3,1,0,0,0,1,42,1,3,0,2,0,0,0,0,0,0,0,44,0,0,0,0,0,0,0,0,0,0,0,0,1,0,
0,0,0,0,0,2,42,13,29,0,0,0,0,0,0,0,0,0,0,0,0,0,0,0,0,0,0,0,0,1,0,1,0,0,0,0,0,3,2,0,47,47,46,0,0,0,0,0,0,0,0,0,0,0,0,0,0,0,0,0,0,0,2,0,
0,1,0,0,0,1,33,1,46,0,0,0,4,0,0,0,0,0,0,0,0,0,0,0,0,0,0,0,0,3,0,2,0,0,0,0,8,0,3,3,1,0,3,0,0,0,8,0,0,0,47,0,0,0,0,0,0,0,0,0,0,1,0,0,
0,0,0,0,0,32,0,0,0,0,0,0,0,0,0,0,0,0,0,0,0,0,0,42,0,0,0,0,0,0,1,0,1,0,0,0,0,4,1,3,2,2,0,0,0,0,0,46,0,0,0,32,0,0,0,0,0,0,0,0,0,0,0,4,
0,0,3,23,0,45,0,0,0,1,0,0,0,0,0,0,38,0,0,0,0,0,0,0,0,0,0,0,0,0,4,1,5,0,0,1,1,1,2,5,2,5,1,47,0,0,0,0,0,0,0,0,0,0,0,0,0,0,0,0,0,0,0,4,
0,0,0,0,0,1,33,2,0,0,5,0,0,0,41,0,1,0,0,0,0,0,0,0,0,0,0,0,0,0,1,1,0,1,0,0,39,1,1,1,0,1,38,0,0,0,0,0,0,0,0,0,0,0,0,0,0,0,0,0,1,0,0,0,
0,0,0,0,0,0,16,0,0,47,0,0,0,0,0,0,0,0,0,0,0,0,0,0,0,0,0,0,0,1,3,1,0,0,0,0,1,1,1,3,1,47,0,46,0,0,0,0,0,0,0,0,0,0,0,0,0,0,0,0,0,0,3,0,
0,0,0,0,11,0,0,43,0,0,0,10,0,0,0,0,0,0,0,0,0,1,0,0,0,0,0,0,0,3,0,0,1,0,0,0,0,1,1,47,1,1,0,0,0,0,0,0,0,0,0,0,0,0,0,0,0,0,0,0,0,0,0,2,
0,0,0,17,0,0,0,3,1,0,0,0,0,0,0,0,1,0,39,0,0,0,0,0,0,0,0,0,0,0,0,0,0,0,0,0,0,1,44,4,3,1,0,47,0,0,0,0,43,0,0,0,0,0,0,0,0,0,0,0,1,0,0,0,
0,0,0,0,0,42,16,0,0,0,0,0,0,46,0,0,0,0,0,0,0,0,0,0,0,0,1,0,0,0,1,0,1,0,0,22,0,1,0,1,2,0,44,0,41,0,0,0,0,0,0,0,0,0,0,0,0,0,0,0,0,0,1,0,
0,0,0,0,2,15,2,0,48,0,0,0,0,0,0,0,0,0,0,0,0,31,0,0,0,0,0,0,0,0,1,1,0,0,18,0,0,1,39,1,2,1,3,0,42,0,0,0,0,16,0,0,0,0,0,0,0,0,0,0,0,0,0,1,
0,0,0,0,0,37,1,1,0,0,0,1,0,0,0,0,1,0,0,0,0,0,0,0,0,0,0,0,0,0,1,0,0,23,0,0,2,23,3,1,1,1,1,0,0,0,45,0,0,0,0,41,0,0,0,0,0,0,0,0,0,0,0,0,
0,0,0,0,42,36,0,0,0,0,0,23,0,0,0,0,0,0,0,0,0,0,0,0,0,0,1,0,0,0,1,1,1,0,4,0,2,2,3,1,14,0,0,0,0,0,0,0,0,0,24,0,0,0,0,0,0,0,0,0,0,0,1,0,
0,0,0,3,0,0,0,0,0,0,0,47,0,0,0,0,0,0,0,0,0,0,0,0,0,0,0,0,0,1,0,0,0,0,0,1,1,1,2,2,47,1,1,0,0,0,0,0,0,0,1,0,0,0,0,0,0,0,0,0,0,0,3,0,
0,0,0,0,0,0,0,0,0,45,35,47,0,0,0,0,0,0,0,0,0,0,0,0,0,0,0,0,0,0,1,2,0,0,1,1,0,1,3,47,47,2,0,0,0,0,0,0,0,0,0,0,0,0,0,0,0,0,0,0,0,0,0,0,
0,0,0,0,0,0,0,0,0,47,47,0,42,0,0,0,0,0,0,0,0,0,0,0,0,0,0,0,0,2,0,1,2,26,0,0,1,0,37,1,1,1,0,1,0,0,0,0,0,0,0,44,0,0,0,0,0,0,0,0,0,0,0,0,
12,0,0,0,0,1,0,0,0,0,0,0,46,0,45,0,0,0,0,0,0,0,0,0,0,0,0,0,0,1,1,4,0,0,0,2,0,0,1,3,3,19,1,46,0,0,46,0,0,0,0,0,0,0,0,0,0,0,0,0,0,0,4,17,
0,0,0,0,0,2,19,1,0,0,0,0,0,0,0,0,0,46,0,0,0,0,0,0,0,0,0,0,0,0,3,1,0,1,0,0,1,1,44,5,1,1,45,0,0,1,0,0,0,0,0,0,0,1,0,0,0,0,0,0,0,0,0,1,
1,0,0,0,0,0,0,0,0,0,0,0,0,0,0,47,0,0,0,0,0,0,0,0,0,0,0,0,0,0,2,7,0,0,0,0,1,2,0,1,0,35,0,0,0,0,0,0,0,0,0,0,0,0,0,0,0,0,0,0,0,1,0,3,
0,0,0,0,0,1,43,0,47,0,0,0,0,0,0,0,0,0,0,0,0,0,0,0,0,0,0,0,0,0,0,0,0,0,0,0,0,2,1,2,3,3,0,0,0,0,0,0,0,44,0,0,0,0,0,0,0,0,0,0,0,0,1,0,
0,0,0,0,1,39,0,1,2,0,0,36,0,0,0,0,0,0,0,0,0,0,0,0,0,0,0,0,0,0,3,0,0,0,0,0,2,0,34,2,21,0,0,0,0,0,0,0,0,0,0,0,0,0,0,0,0,0,0,0,0,0,1,0,
0,0,0,0,0,0,1,0,0,0,47,0,42,0,0,0,0,0,0,0,0,0,0,0,0,0,0,0,0,1,3,0,0,0,0,0,0,20,1,45,1,2,0,0,0,2,0,0,0,0,0,0,0,0,0,0,0,0,0,0,0,0,7,0,
0,0,0,0,0,0,46,0,0,0,0,0,0,0,0,0,0,0,0,0,0,0,0,0,44,0,0,0,0,0,1,1,0,0,0,0,0,4,5,1,1,0,0,47,0,0,0,0,0,0,0,0,0,0,0,0,0,0,0,0,0,0,4,0,
0,0,0,0,0,0,47,0,0,0,0,0,47,0,0,0,1,0,0,0,0,0,0,0,0,0,0,0,0,0,1,0,8,0,0,0,1,2,1,2,1,1,0,47,0,0,0,0,0,0,0,44,0,0,0,0,0,0,0,0,1,0,0,0,
0,0,0,3,0,0,2,47,0,0,0,0,0,0,0,0,0,9,0,0,40,0,0,0,0,1,0,0,0,0,0,8,0,1,0,0,0,12,1,2,2,0,0,0,0,0,0,0,0,47,0,0,0,0,0,0,0,0,0,0,0,1,2,0,
0,0,0,0,0,33,0,0,0,0,0,0,47,0,0,0,0,0,0,0,0,0,0,0,0,0,0,0,0,0,0,2,0,0,0,0,0,2,1,3,1,1,0,0,0,0,0,0,0,0,0,0,0,0,0,0,0,0,0,0,0,0,0,0,
0,0,0,0,0,45,37,0,0,0,0,0,0,0,47,0,0,0,0,0,0,0,0,0,0,0,0,0,0,0,1,0,0,0,0,0,0,1,2,4,1,21,0,1,0,1,0,46,0,0,0,0,0,0,0,0,0,0,0,0,1,0,1,15,
