0,5,0,41,0,2,0,46,3,45,25,7,0,0,0,0,0,0,0,0,0,41,0,0,0,0,0,0,0,0,2,0,44,38,2,0,1,2,7,16,47,10,0,46,15,1,0,43,0,0,0,0,0,43,0,0,0,0,0,0,4,0,0,0,
0,0,0,21,0,0,1,0,0,48,25,1,0,35,0,0,0,0,0,0,0,0,0,0,0,0,0,7,0,0,0,1,1,33,18,17,0,46,0,2,27,20,1,0,47,1,5,0,1,0,0,44,0,0,0,0,7,0,0,0,0,0,0,0,
10,0,0,20,0,1,48,45,0,1,0,0,0,0,8,37,0,0,0,0,0,0,0,2,0,25,0,0,0,0,0,2,7,0,26,0,0,0,9,4,13,47,0,0,0,46,0,0,0,23,0,0,0,42,0,0,0,0,0,7,0,0,0,1,
3,0,0,40,0,47,2,0,28,0,42,0,0,0,0,0,0,0,0,0,0,0,35,0,0,0,0,0,5,0,0,47,16,32,0,1,0,0,6,13,14,0,2,43,1,3,0,39,0,0,0,0,0,0,0,0,0,0,7,0,0,0,0,0,
0,0,0,2,0,0,47,19,4,1,0,48,0,42,0,0,0,0,0,0,14,0,0,0,0,0,7,0,0,0,0,3,0,3,0,19,0,1,33,6,17,22,1,0,39,0,0,1,0,0,0,0,4,0,0,0,0,0,7,0,0,0,0,0,
1,1,0,0,19,0,1,0,0,1,20,48,0,4,0,36,0,0,0,0,0,0,0,0,33,7,0,0,0,0,1,6,8,46,0,0,0,3,2,3,17,17,41,0,0,24,0,0,0,0,0,0,0,0,0,0,0,0,0,7,0,0,0,0,
0,34,1,24,0,1,48,3,0,25,0,3,0,0,39,0,0,0,0,46,0,0,0,0,0,0,0,0,0,0,0,1,0,29,0,4,20,0,6,2,2,16,46,13,0,10,0,0,0,0,0,0,8,0,0,0,0,0,0,0,0,0,0,42,
0,0,0,0,0,22,0,1,0,48,28,0,0,0,48,0,0,0,0,25,0,0,0,0,2,0,0,0,0,0,0,4,47,13,0,3,0,1,11,18,4,1,47,48,13,0,0,39,0,0,0,0,0,0,0,0,0,0,0,0,0,0,0,0,
0,0,1,21,0,0,0,48,47,47,0,28,0,0,0,38,0,0,0,0,0,0,0,5,0,0,0,0,0,0,21,5,2,1,0,1,1,0,43,2,8,3,38,47,0,23,0,1,0,0,0,1,0,0,0,0,0,0,0,6,0,0,0,0,
0,0,0,0,3,0,48,33,1,8,0,0,3,0,0,0,47,0,0,0,0,0,0,0,4,0,7,0,0,0,0,4,2,34,16,0,0,2,3,3,32,1,1,45,0,1,14,0,6,34,0,0,0,0,0,0,0,0,6,0,0,0,0,0,
47,0,6,0,0,0,28,47,0,2,0,48,0,0,0,4,0,0,0,12,14,0,0,0,0,0,0,7,0,0,1,1,0,0,16,0,0,0,45,5,19,1,1,48,0,22,0,0,0,39,0,0,0,0,0,0,5,0,0,6,0,0,0,3,
0,0,0,23,39,19,0,48,0,0,0,27,0,0,0,0,0,0,0,0,0,0,42,0,0,7,0,0,0,0,0,1,0,3,2,0,1,30,1,4,27,3,5,0,0,0,46,0,0,0,31,0,0,25,0,0,0,0,0,0,0,3,0,3,
0,6,0,22,39,37,0,1,48,0,0,37,0,0,34,0,0,0,0,0,0,0,43,0,0,0,0,0,0,5,0,3,0,21,0,0,2,27,43,12,17,3,3,0,46,1,1,41,0,8,1,0,0,0,0,0,0,0,0,0,0,0,0,0,
0,1,0,0,41,0,48,1,0,5,0,27,0,41,38,1,0,0,0,0,16,0,0,0,37,0,0,0,0,0,0,5,0,30,0,24,0,0,3,13,39,0,43,1,0,0,9,0,0,46,7,0,0,35,0,1,0,0,0,0,0,0,0,3,
0,0,0,21,0,0,3,1,1,47,26,0,0,35,44,0,0,0,0,0,0,0,0,0,0,0,0,0,0,0,0,0,1,2,1,2,0,26,46,4,48,17,1,1,0,0,38,0,0,0,0,0,30,0,0,0,0,0,0,0,0,0,0,0,
0,0,0,22,2,2,44,1,0,0,48,0,0,0,0,36,0,0,0,0,0,0,0,7,0,8,0,0,0,0,0,3,10,0,4,47,0,1,46,7,8,19,47,0,1,0,42,13,25,0,0,0,0,0,32,8,0,0,0,0,0,0,0,0,
8,0,17,3,40,0,42,0,1,48,28,0,0,36,0,0,0,0,0,44,0,0,0,9,0,0,7,0,0,0,0,4,0,32,17,0,18,1,0,1,48,26,33,2,1,0,0,39,0,0,0,0,0,0,0,0,0,0,0,0,6,0,0,1,
0,0,0,21,0,42,2,0,48,1,26,0,0,0,33,0,0,0,0,22,0,0,0,0,0,8,0,0,0,0,0,1,9,3,19,0,0,2,44,0,5,21,40,1,47,10,0,0,0,0,0,39,45,0,0,0,0,0,0,0,0,5,0,8,
0,33,21,0,0,48,10,0,47,0,0,0,0,0,34,0,0,0,0,0,45,0,0,0,0,0,0,0,0,0,14,5,3,0,0,21,3,0,2,27,47,7,47,47,0,0,0,0,0,13,0,33,0,0,0,0,0,0,0,0,0,0,0,0,
2,0,16,0,0,1,48,0,47,5,31,0,0,0,0,0,6,0,0,0,0,0,0,0,0,0,0,0,0,0,0,0,0,1,0,1,2,2,5,36,1,22,42,1,47,0,3,0,0,0,0,0,0,0,0,0,0,0,0,0,0,0,0,5,
0,0,0,37,1,23,2,40,2,48,30,0,0,0,6,0,0,0,25,0,0,0,44,0,0,0,0,0,0,0,0,0,7,0,0,0,21,0,3,0,35,21,1,3,1,3,0,45,0,0,0,0,0,32,0,0,8,0,0,0,0,0,0,0,
7,0,12,0,0,0,0,46,2,6,33,48,0,0,0,35,0,0,0,0,0,0,0,0,0,0,0,0,0,0,0,2,1,0,0,1,24,1,1,24,1,17,3,3,0,0,46,0,0,0,0,0,0,32,20,0,0,0,0,0,0,0,0,0,
0,0,10,20,0,48,38,5,3,0,26,0,0,0,0,0,48,0,0,0,0,10,0,0,0,0,0,0,0,0,0,5,11,0,1,0,25,7,7,0,0,18,4,48,42,0,0,0,34,0,0,0,0,0,20,0,0,0,0,0,0,0,0,41,
0,0,0,22,0,14,1,47,47,24,0,0,0,0,0,35,0,0,0,0,0,0,0,0,0,0,0,6,0,0,0,0,7,2,0,48,1,1,3,4,17,17,1,0,48,46,12,47,1,0,0,0,0,0,0,0,0,0,7,0,0,0,0,0,
0,0,0,0,20,48,6,0,2,27,0,6,0,0,31,0,0,0,0,0,0,0,0,0,0,0,0,6,0,0,0,3,47,10,0,0,0,3,0,1,40,18,1,39,42,0,0,0,0,0,0,0,46,17,0,0,0,0,7,0,0,0,0,2,
0,1,0,16,38,0,3,3,47,0,5,48,0,7,0,0,38,0,0,0,0,0,0,0,39,7,0,0,0,0,0,4,22,0,47,1,2,0,10,3,25,34,1,0,47,0,4,0,0,48,0,0,0,0,10,0,0,0,0,6,0,0,0,4,
0,0,0,1,20,0,3,46,2,47,0,48,0,0,0,0,0,0,32,0,0,0,0,0,0,0,7,0,0,0,0,1,3,1,0,47,0,2,10,1,0,40,42,48,0,0,46,0,0,0,0,16,0,0,0,0,0,0,0,1,0,0,0,0,
46,0,0,0,0,0,37,0,4,0,48,0,1,0,0,0,48,0,0,0,0,12,0,0,0,0,0,0,3,1,0,1,21,2,0,0,25,0,4,5,16,47,0,0,2,48,0,1,0,0,0,28,0,0,0,0,0,0,0,3,0,0,0,35,
0,3,1,0,7,0,0,1,0,1,0,28,48,46,44,0,0,0,0,0,0,1,0,0,0,0,0,0,5,0,0,2,47,13,17,0,0,3,1,14,25,1,30,0,4,25,0,6,0,0,0,0,0,12,0,7,0,0,0,0,0,0,0,0,
3,0,0,0,0,1,0,48,0,47,0,26,6,0,0,0,41,0,32,0,0,0,0,0,0,0,0,0,0,0,1,1,15,0,0,0,3,0,0,9,22,48,4,2,0,0,0,42,0,5,0,0,0,0,0,0,0,0,0,0,0,0,0,0,
1,0,0,0,0,0,44,2,47,44,0,26,1,0,0,5,0,0,0,0,0,0,0,0,0,0,0,0,0,0,0,1,1,0,45,0,0,1,3,42,41,0,0,1,1,0,48,0,0,0,0,0,0,0,8,0,0,0,0,0,0,0,0,3,
0,47,0,0,0,0,39,0,0,3,0,0,1,0,0,0,46,0,0,1,0,4,0,0,0,0,0,0,0,0,0,35,3,0,32,0,1,8,8,3,25,5,33,8,1,0,0,0,0,0,46,0,0,10,7,0,0,0,0,0,0,0,0,2,
0,0,0,0,1,46,24,0,48,1,47,30,0,0,7,0,0,0,0,34,0,0,11,0,0,0,0,0,0,0,0,0,11,0,0,0,2,15,45,5,32,46,10,0,46,0,1,0,40,25,0,0,0,0,0,0,0,7,0,0,0,0,0,4,
5,0,0,0,43,48,1,1,0,47,0,46,0,0,0,0,0,0,0,0,0,0,0,0,23,0,5,0,0,0,1,1,0,25,0,0,27,4,22,15,20,46,2,0,0,0,0,0,0,4,0,10,0,0,0,7,0,0,0,0,0,0,3,0,
1,0,47,0,0,1,1,0,0,47,23,0,0,0,40,0,0,0,0,0,48,0,0,0,0,0,0,0,0,0,7,2,1,4,0,1,0,12,5,6,47,47,47,1,0,0,25,0,0,0,0,5,0,7,0,0,0,0,0,0,0,0,0,9,
1,0,0,0,0,0,3,0,39,47,48,48,0,0,0,1,0,0,0,0,0,0,0,0,0,0,0,0,0,0,1,1,0,1,0,13,0,0,4,0,20,46,45,0,0,1,0,0,0,0,0,6,5,0,0,0,0,0,0,0,1,0,0,1,
3,0,0,0,6,0,0,36,47,0,48,4,0,1,6,0,0,0,0,0,0,0,0,0,0,0,0,0,0,0,0,1,5,31,0,0,0,3,3,5,0,47,46,42,47,10,0,0,0,0,0,0,0,0,0,0,0,0,7,0,0,0,0,0,
2,11,0,0,0,0,46,9,1,47,28,0,0,0,0,0,0,48,0,0,0,0,0,0,0,0,0,0,0,0,0,2,1,0,0,16,0,0,11,47,8,39,47,28,0,1,0,1,39,8,1,0,0,0,0,0,0,0,0,0,0,5,0,0,
0,0,22,48,0,0,1,0,47,48,0,0,0,0,36,0,0,1,0,0,0,48,0,7,0,0,0,0,0,0,2,1,8,0,2,21,1,1,1,1,48,7,47,3,0,0,0,0,0,0,0,0,0,0,0,3,0,0,0,1,0,0,0,0,
0,7,19,0,0,0,2,1,48,47,0,47,0,0,0,37,0,0,0,0,0,0,0,0,0,1,0,0,0,0,0,0,3,1,0,3,26,1,6,1,48,12,0,47,45,0,0,0,0,0,0,0,0,0,0,0,0,0,0,0,0,0,0,0,
3,0,1,0,16,0,3,47,47,21,0,48,0,0,0,33,0,1,0,0,0,0,0,0,0,6,0,0,0,0,0,28,1,0,0,0,1,0,6,23,3,16,48,1,45,47,1,0,0,0,1,0,0,0,0,0,0,0,0,0,0,0,0,0,
9,42,0,0,0,0,46,6,0,25,0,0,11,47,0,0,32,0,0,0,0,0,0,0,0,0,0,0,5,0,0,0,41,16,18,0,35,0,1,4,7,47,24,0,0,0,0,0,0,0,35,0,0,0,0,0,7,0,0,0,1,0,0,5,
0,0,9,0,0,0,39,1,0,48,31,1,7,0,8,2,0,0,0,9,0,0,7,0,0,0,1,0,0,0,0,3,2,15,16,0,31,2,0,48,11,5,24,1,0,1,0,0,35,0,37,0,43,0,0,8,0,8,0,0,0,0,0,0,
3,0,2,48,39,1,0,3,3,0,0,28,0,0,0,36,0,35,0,0,48,0,0,6,33,0,0,0,0,0,27,3,1,28,2,0,18,2,42,6,17,10,0,15,7,0,0,0,46,0,14,0,0,0,0,30,0,0,0,0,0,0,0,1,
1,46,0,0,4,0,0,1,0,1,22,0,0,0,46,35,0,0,48,0,0,0,0,5,0,0,0,0,0,0,0,2,47,0,0,19,0,3,39,1,30,4,3,1,0,0,0,0,0,0,10,0,0,0,43,0,0,0,0,0,0,0,0,0,
0,0,0,0,47,39,37,39,2,1,25,0,3,0,15,0,0,0,0,0,12,0,48,0,0,0,3,0,0,0,0,47,1,0,0,0,1,20,37,8,10,47,44,1,1,0,0,37,0,0,0,13,0,0,0,1,0,0,0,0,5,0,0,2,
0,0,1,0,0,42,33,0,48,0,26,0,0,6,46,0,0,0,0,6,0,1,0,0,0,0,0,0,0,0,0,0,0,1,19,16,38,15,1,4,16,7,0,48,0,0,0,6,0,0,0,0,0,0,29,0,30,0,0,0,0,0,0,3,
0,1,30,47,0,0,0,0,3,0,47,0,1,0,0,37,46,0,0,0,48,0,0,0,8,0,0,0,0,0,16,3,18,2,18,0,7,1,4,0,42,46,5,11,1,6,22,0,0,0,47,0,0,0,0,0,6,0,0,0,0,0,0,0,
0,47,32,23,0,0,2,5,0,1,26,48,0,0,0,0,35,0,0,0,0,0,0,0,0,0,1,0,0,0,0,8,1,17,47,0,0,2,45,7,46,3,1,1,0,1,7,0,41,0,0,0,0,0,0,0,0,0,0,0,0,0,0,13,
0,10,0,24,42,0,1,0,0,48,23,47,0,33,0,0,0,0,0,1,0,0,0,0,0,27,0,0,0,0,0,1,9,0,0,0,29,4,5,48,46,0,3,8,0,25,0,44,0,0,0,0,41,0,0,0,0,0,0,0,0,0,0,7,
