0,0,0,0,0,0,2,1,1,0,47,0,0,1,0,0,0,0,0,0,0,0,0,0,0,0,0,0,0,2,6,7,3,2,1,1,2,3,6,4,44,5,3,46,1,4,0,0,1,0,0,0,0,0,0,0,0,0,0,0,0,1,1,1,
0,1,0,0,0,1,2,3,0,1,0,47,0,0,0,0,0,0,0,0,0,0,0,0,0,0,0,0,0,4,5,7,3,1,1,1,3,5,3,4,5,7,46,5,3,1,2,0,0,0,0,0,0,0,0,0,0,0,0,0,0,1,3,1,
0,0,5,0,0,0,0,0,1,1,0,0,0,0,47,0,0,0,0,0,0,0,0,0,0,0,0,0,0,6,3,3,4,1,1,1,2,4,6,5,44,2,3,3,1,0,0,0,0,0,0,0,0,0,0,0,0,0,0,0,0,0,3,1,
0,0,0,0,0,1,0,0,2,0,0,0,0,0,1,0,0,0,0,0,0,46,0,0,0,0,0,0,0,5,4,2,4,2,2,1,1,2,8,6,3,5,3,3,1,0,0,0,28,0,0,0,0,0,0,0,0,0,0,0,0,0,1,2,
2,0,0,0,0,9,1,0,46,2,0,0,0,0,0,0,0,0,0,0,0,0,0,0,0,0,0,0,0,3,4,2,1,1,1,1,2,5,8,6,4,7,3,2,2,1,0,0,0,0,0,0,0,0,0,0,0,0,0,0,0,0,1,5,
0,0,0,0,0,0,0,0,46,1,0,0,0,0,0,0,0,0,0,0,0,0,0,0,0,0,0,8,0,5,5,5,3,2,1,3,2,3,5,8,20,4,3,5,2,2,0,0,0,0,0,0,0,0,0,0,0,0,0,0,0,1,0,2,
0,0,0,0,0,0,32,0,3,1,0,0,0,0,0,0,0,0,0,0,0,0,0,0,0,0,0,0,0,2,6,2,3,5,2,1,2,3,4,5,7,5,5,5,3,1,0,1,1,0,0,0,0,16,0,0,0,0,0,0,0,0,3,1,
1,0,0,0,0,0,3,7,46,1,1,0,0,0,0,0,0,0,0,0,0,0,20,0,0,0,0,0,0,3,4,6,2,2,0,4,3,4,5,6,6,19,4,9,3,0,1,0,0,1,0,0,0,0,0,0,0,0,0,0,0,1,1,0,
0,0,0,0,0,1,7,2,0,0,0,1,0,0,0,0,0,0,0,47,0,0,0,0,0,0,0,0,0,6,3,6,2,1,1,2,1,6,2,5,3,26,3,2,3,1,0,0,0,0,0,0,0,0,0,0,0,0,0,0,0,0,0,0,
3,0,0,0,4,0,0,1,2,0,0,0,47,28,0,0,0,0,0,0,0,0,0,0,0,0,0,0,0,7,3,6,3,2,1,3,5,3,5,8,28,5,3,5,3,3,0,0,0,0,0,0,46,0,0,0,0,0,0,0,0,0,1,1,
0,0,0,0,1,0,34,8,1,0,0,1,0,0,0,0,0,0,0,0,0,0,0,0,0,0,0,0,0,5,4,3,2,3,1,1,1,4,5,6,4,5,5,3,1,1,0,1,0,0,0,0,0,0,0,0,0,0,0,0,0,1,1,2,
0,0,0,0,0,1,1,2,0,1,1,1,27,0,0,0,0,0,0,0,0,0,0,0,0,0,0,0,0,2,4,2,2,1,1,3,2,3,5,8,4,18,3,1,1,1,0,0,0,0,0,0,0,0,0,0,0,0,0,0,0,2,1,3,
1,0,0,0,0,0,0,5,1,2,0,0,0,0,0,0,0,27,0,0,0,0,0,0,0,0,0,0,0,2,4,3,3,3,2,1,3,3,5,7,15,3,6,5,1,1,0,0,0,0,0,0,0,0,0,0,0,0,0,0,0,0,1,1,
0,0,0,0,1,0,0,1,1,0,1,0,0,0,0,0,0,0,0,0,0,23,0,0,0,0,0,0,0,5,7,3,5,5,1,2,3,5,6,14,5,4,3,2,2,2,0,0,0,0,0,0,0,0,0,0,0,0,0,0,0,0,2,0,
1,0,0,0,0,0,1,0,1,0,0,1,0,0,0,0,0,0,0,0,0,0,0,0,0,0,0,0,0,1,6,4,5,1,1,1,4,3,5,38,5,2,7,5,1,2,0,0,0,0,0,0,0,0,12,0,0,0,0,0,0,5,2,0,
0,0,2,0,0,29,1,5,1,1,0,0,0,0,0,0,0,0,0,0,0,0,0,0,0,0,0,0,0,3,3,4,3,3,3,1,5,3,7,5,5,5,5,3,1,1,1,0,0,0,0,0,0,0,0,0,0,0,0,0,0,0,3,0,
2,0,0,0,0,0,0,2,0,46,0,1,0,0,0,0,0,0,0,0,0,0,0,0,0,0,0,0,0,3,6,3,1,1,2,0,2,3,4,5,5,4,46,2,3,1,0,2,0,0,0,0,0,0,0,0,0,0,0,0,0,1,1,1,
1,0,0,0,0,2,2,0,1,4,0,0,0,0,47,0,0,0,0,0,0,0,0,0,0,0,0,0,0,2,5,5,2,2,2,3,3,5,4,5,43,6,3,3,2,1,0,0,0,0,0,0,0,0,0,0,0,0,0,0,0,1,0,1,
1,0,0,0,0,0,1,0,1,0,1,0,0,0,0,0,0,0,0,0,0,0,46,0,0,0,0,0,0,2,3,5,2,3,2,1,2,4,33,5,5,3,2,2,1,1,0,0,0,1,0,0,0,0,0,0,0,0,0,0,0,0,1,0,
0,2,0,0,25,2,0,0,1,1,0,1,0,0,0,0,0,0,0,0,0,0,0,0,0,0,0,0,0,7,3,4,3,3,0,0,2,7,8,7,4,3,3,46,1,1,0,0,1,0,0,0,0,0,0,0,0,0,0,0,0,0,3,0,
1,0,0,0,0,3,0,1,1,0,2,0,0,0,0,0,0,0,0,0,0,0,0,0,0,0,0,0,0,3,4,3,3,2,2,3,2,6,31,5,5,5,3,3,0,0,2,0,0,0,0,0,0,0,0,0,0,0,0,0,0,0,0,0,
0,1,0,0,0,0,2,0,2,0,0,0,0,44,0,0,0,0,0,0,0,0,0,0,0,0,0,0,0,3,3,4,4,3,1,2,1,2,5,7,5,6,47,3,2,0,1,0,0,0,0,0,0,0,0,0,0,0,0,0,0,0,1,0,
0,0,0,0,2,2,16,0,0,0,0,0,0,0,0,0,0,0,0,0,0,0,0,0,0,0,0,0,3,4,3,5,3,2,1,3,1,4,5,5,7,3,1,1,1,0,0,0,0,0,0,0,0,0,0,0,0,0,0,0,0,0,2,0,
1,0,0,0,0,0,1,1,1,1,0,0,0,0,0,0,0,0,0,0,0,0,0,0,0,0,0,0,0,3,5,5,2,2,5,1,2,4,4,5,3,5,6,3,1,1,0,0,0,0,0,0,0,0,0,0,0,15,0,0,0,0,1,3,
0,0,1,0,0,0,1,0,0,0,0,0,34,0,0,0,0,0,0,0,0,0,0,0,0,0,0,0,0,1,3,7,2,4,2,2,16,5,4,4,8,5,3,1,21,1,1,1,0,0,0,0,0,0,0,0,0,0,0,0,0,1,0,1,
0,1,0,14,0,1,1,1,0,1,0,46,1,0,0,0,0,0,0,0,0,0,0,0,0,0,0,0,0,3,5,3,5,5,0,3,3,5,8,7,3,7,9,2,1,1,2,0,0,0,0,0,43,0,46,0,0,0,0,0,0,0,1,4,
1,0,3,0,0,26,0,27,1,1,0,0,1,0,0,0,0,0,0,0,0,0,0,27,0,0,0,0,0,2,4,5,3,1,1,21,3,4,3,8,39,5,6,4,33,1,0,0,0,0,0,0,0,0,0,0,0,0,0,0,0,0,1,1,
4,0,0,0,0,1,0,31,47,46,0,0,0,0,0,0,0,0,0,0,0,0,0,0,0,0,0,0,4,6,3,4,4,1,1,2,3,2,9,23,5,3,4,47,1,0,1,0,0,0,0,0,0,0,0,0,0,0,0,0,0,1,0,0,
0,0,0,0,0,0,5,1,2,0,47,0,0,0,0,0,0,44,0,0,0,0,0,0,0,0,0,0,0,5,7,3,3,2,12,3,1,3,7,3,4,42,5,2,1,47,1,0,30,0,0,0,0,0,0,0,0,0,0,0,0,0,1,1,
8,0,0,0,0,1,1,0,0,2,47,1,0,0,0,32,0,46,0,0,0,0,0,0,0,0,0,0,0,2,5,3,3,11,13,1,2,7,5,6,6,3,5,46,4,1,0,0,34,0,0,0,0,0,44,0,0,0,0,0,0,0,1,1,
1,10,0,0,0,25,1,1,3,1,47,0,0,0,0,0,0,0,0,0,0,28,0,0,0,0,13,0,0,4,3,4,10,2,1,1,1,17,5,7,6,6,6,2,2,47,1,34,0,0,0,0,0,0,0,0,0,0,0,0,0,1,1,0,
1,11,0,0,0,0,0,1,5,1,47,0,0,47,0,0,0,0,0,0,0,0,0,0,0,0,0,0,0,2,5,5,3,3,1,1,3,6,3,4,4,46,3,3,3,0,0,0,47,0,0,0,0,0,0,0,0,0,0,0,0,2,1,1,
0,1,0,0,0,0,2,0,0,1,0,45,0,0,0,0,46,0,0,0,0,0,0,0,0,0,0,0,0,3,4,2,2,4,3,1,4,14,6,38,5,3,2,1,1,1,0,0,1,0,11,0,0,0,0,0,0,0,0,0,0,0,0,1,
0,0,0,11,0,0,39,0,0,2,5,1,0,0,0,0,0,0,0,0,0,0,0,0,0,0,1,0,0,2,4,4,5,3,1,1,11,2,5,4,4,4,46,2,1,1,0,0,0,0,0,0,0,0,0,0,0,0,0,0,0,1,0,3,
0,0,0,0,0,0,1,1,0,0,0,0,0,0,0,0,47,0,46,0,0,0,0,0,0,0,0,0,0,2,5,3,4,3,6,1,2,3,6,32,5,4,1,1,1,0,0,1,0,0,0,17,0,0,0,0,0,0,0,0,0,0,1,2,
0,0,0,2,2,0,36,2,2,0,0,1,1,0,0,0,0,47,0,0,0,0,0,0,0,0,0,0,0,3,4,4,3,2,3,3,4,24,5,6,4,3,3,2,2,1,0,0,0,0,0,0,0,0,42,0,0,0,0,0,0,0,1,0,
0,0,0,0,27,0,0,4,1,2,0,0,0,0,0,0,0,0,0,0,0,0,0,0,0,0,0,0,0,3,3,4,4,3,2,1,3,8,6,5,4,7,5,1,1,1,0,0,0,0,0,0,39,0,0,0,0,0,0,0,0,0,0,0,
0,0,0,0,1,2,3,1,1,0,4,0,0,0,0,0,0,0,0,0,0,0,0,0,0,0,0,0,0,2,5,4,3,3,1,1,1,5,4,6,6,3,3,47,1,1,0,0,0,0,0,0,0,0,0,0,0,0,0,0,0,1,1,3,
0,0,0,0,0,2,10,0,0,1,0,0,47,0,0,0,0,0,0,0,0,0,0,2,2,1,0,0,1,5,2,3,2,1,3,1,5,7,4,4,7,5,5,1,3,3,1,0,0,0,0,0,0,0,0,0,0,0,0,0,0,2,0,1,
1,0,0,0,0,1,24,0,1,0,0,0,0,0,0,0,0,0,0,0,0,0,0,0,0,42,0,0,3,3,5,3,1,1,1,3,6,4,5,5,3,3,46,2,1,0,0,1,0,0,0,0,0,0,0,0,0,0,0,0,4,1,0,0,
1,0,0,0,0,1,0,2,3,0,1,0,47,0,0,0,0,0,0,0,0,0,0,0,0,0,0,0,0,5,5,6,2,3,2,3,2,7,4,5,3,46,3,3,1,1,0,0,1,0,35,0,0,0,0,0,0,0,0,0,0,1,0,0,
6,0,0,0,0,0,0,1,0,1,3,0,0,0,47,0,0,0,0,0,0,0,0,0,0,0,0,0,0,3,5,3,3,1,2,1,3,4,6,40,5,5,3,4,2,1,0,0,0,0,0,0,0,0,0,0,0,0,0,0,0,0,3,1,
6,0,1,0,1,1,1,1,0,1,0,0,0,31,0,0,0,0,0,0,0,0,0,0,0,0,0,0,0,3,5,5,2,3,12,1,3,3,5,5,3,4,5,2,1,0,1,0,0,0,31,0,0,0,0,0,0,0,0,0,0,1,1,0,
8,0,0,0,1,1,0,1,1,0,0,0,1,0,0,0,0,29,0,0,0,0,0,0,0,0,0,0,1,4,5,1,11,3,4,2,5,2,6,6,3,17,3,2,0,1,1,0,0,0,0,0,0,0,0,0,0,0,0,0,0,1,1,0,
0,0,0,0,0,0,2,1,1,42,2,0,0,0,0,0,0,0,0,0,0,0,0,0,0,0,0,0,3,6,5,2,1,2,2,4,5,7,5,6,36,3,2,2,10,0,0,0,0,0,0,0,0,0,0,0,0,0,0,0,0,1,1,0,
0,0,0,0,1,1,0,1,1,0,0,0,45,0,0,0,41,0,0,0,0,0,0,0,0,0,0,0,0,4,4,2,2,3,1,0,2,12,5,11,7,9,3,2,3,2,1,0,38,0,0,0,0,0,0,0,0,0,0,0,0,0,1,1,
0,0,0,0,0,1,1,43,0,0,0,1,0,0,0,0,0,0,0,0,0,0,0,0,0,0,0,0,0,3,5,4,1,5,1,4,1,3,4,4,6,5,5,3,2,2,0,0,0,0,0,0,0,0,0,0,0,0,0,0,0,0,1,2,
0,0,0,0,0,0,2,0,0,2,1,0,0,0,0,0,0,0,0,0,0,0,0,0,0,0,0,0,0,3,7,5,2,1,1,1,3,4,5,10,5,7,6,2,1,0,1,0,0,0,0,0,0,0,20,0,0,0,0,0,0,0,1,0,
0,0,0,0,0,0,1,2,1,1,0,0,0,0,37,0,0,0,0,0,0,0,0,0,0,0,0,0,0,4,3,3,4,9,0,2,5,4,3,11,3,5,5,1,1,0,1,1,0,36,44,0,0,0,0,0,0,0,0,0,0,2,1,0,
0,2,0,0,0,0,0,1,1,1,0,1,0,0,0,0,0,0,0,0,0,0,0,0,0,0,35,0,0,4,5,6,3,11,1,2,3,2,5,6,3,5,5,2,1,0,35,0,37,0,0,0,0,0,0,0,0,0,0,0,0,0,1,1,
