12,16,0,42,0,25,4,0,20,46,47,46,0,0,0,0,46,0,0,0,5,0,0,0,0,0,0,0,3,4,7,5,3,24,2,1,4,12,35,45,5,5,22,45,14,1,0,0,46,0,0,0,0,0,0,0,0,0,0,0,0,4,16,1,
0,19,33,0,1,23,45,2,44,47,26,0,0,0,0,0,0,0,0,0,0,0,38,0,0,0,0,0,4,7,4,5,4,4,42,38,2,5,6,44,34,20,21,42,3,11,44,38,0,0,0,0,0,0,0,0,42,0,0,0,0,4,2,3,
17,16,0,35,2,7,0,3,20,1,47,46,0,0,0,0,0,47,0,0,23,0,0,0,0,0,0,0,5,5,7,5,23,3,0,19,21,4,46,44,5,46,23,41,1,47,0,1,0,0,0,0,0,0,0,0,0,0,0,0,0,6,5,5,
16,0,7,23,0,0,39,47,20,46,38,46,0,46,0,0,0,0,0,0,0,0,0,0,0,0,0,0,1,5,5,3,7,2,0,4,5,38,24,26,5,4,46,1,15,1,0,0,0,0,0,0,0,0,4,0,0,36,0,0,0,3,3,1,
0,0,0,43,16,12,1,46,20,0,1,47,1,35,0,0,0,46,31,0,0,1,0,0,0,0,37,0,4,7,9,6,8,3,3,12,7,5,45,7,40,25,34,47,5,1,0,0,0,0,45,0,0,0,0,0,0,0,0,0,0,7,2,1,
15,0,15,28,0,37,46,0,1,20,0,46,1,0,0,0,47,0,0,0,0,0,22,0,0,0,0,0,3,7,7,7,2,1,3,1,4,5,42,46,14,46,36,46,1,0,1,0,0,0,46,0,0,0,0,0,0,0,0,0,0,4,1,2,
5,17,0,0,0,47,17,0,1,46,0,0,47,0,47,0,35,0,0,0,0,0,0,0,0,0,0,0,2,7,9,5,2,1,26,39,7,8,40,8,8,28,38,3,1,35,46,38,46,0,0,0,0,0,0,0,0,0,42,0,0,3,14,3,
1,0,15,26,33,12,4,46,2,21,0,46,0,47,0,0,2,0,0,0,0,0,22,0,0,0,0,0,6,5,5,3,3,17,2,3,7,7,7,44,46,23,3,10,4,46,0,2,0,42,0,0,46,0,0,0,0,0,0,0,0,7,8,8,
3,24,30,0,0,2,3,47,46,21,0,0,0,0,0,0,0,46,0,0,0,0,0,0,0,0,0,0,5,4,6,5,11,2,3,5,4,6,44,8,30,45,2,47,16,47,0,0,8,0,0,0,0,0,0,34,0,0,14,0,0,2,6,1,
3,1,26,1,2,40,1,46,46,41,47,35,0,25,0,0,0,0,0,0,0,0,0,0,0,0,0,0,3,7,7,6,4,3,2,2,23,4,42,36,3,45,47,3,2,2,46,10,0,0,0,0,0,0,0,0,0,0,0,0,0,3,3,1,
7,0,1,0,2,1,1,44,46,47,40,1,0,0,0,0,0,0,0,0,0,46,0,0,0,0,0,0,3,6,4,5,7,3,2,2,21,30,28,5,46,47,21,2,1,14,2,19,0,0,0,32,0,40,0,9,0,0,0,0,0,4,8,4,
9,3,0,5,0,46,37,2,20,47,16,10,0,0,46,47,29,0,0,0,0,0,0,0,0,0,0,0,5,4,7,4,4,13,0,4,17,5,47,6,46,33,35,4,1,16,0,35,0,0,41,0,23,0,0,0,0,0,0,0,0,6,2,3,
0,14,8,22,46,4,2,46,46,46,0,0,46,46,0,0,0,0,0,24,19,0,0,0,0,0,0,0,3,8,4,8,11,13,1,4,3,26,7,7,46,37,46,1,1,1,0,37,0,0,0,0,0,0,0,0,0,0,0,0,0,7,2,8,
1,15,16,0,1,15,4,45,0,46,1,0,0,0,0,0,5,46,0,25,0,0,0,0,0,0,0,0,2,4,5,5,14,3,2,3,11,5,42,31,45,13,26,1,46,45,1,0,0,41,0,1,46,0,0,0,0,0,0,0,0,3,3,5,
0,35,41,36,14,1,37,3,46,46,0,0,46,0,0,0,0,0,0,0,0,12,0,46,0,0,44,0,4,7,4,4,19,3,13,2,33,7,4,7,46,45,3,33,39,0,44,0,0,0,0,25,0,0,0,39,0,0,0,0,0,2,4,2,
5,0,16,34,0,12,44,23,41,46,1,0,0,0,0,0,0,34,0,0,4,21,0,0,0,0,0,0,3,6,5,2,11,3,1,1,21,7,7,25,45,24,11,3,1,8,37,0,0,0,0,46,42,0,0,0,0,0,0,0,0,0,8,1,
0,17,0,16,12,35,43,2,21,47,47,42,0,0,0,0,0,0,0,0,0,22,39,0,0,0,0,0,5,7,6,5,17,1,3,2,7,3,45,7,46,46,26,44,45,1,45,0,5,0,0,23,0,0,0,0,0,0,0,0,0,0,5,17,
3,0,37,0,14,1,42,1,46,35,46,0,3,46,0,47,0,0,46,0,0,0,0,0,0,0,0,0,1,6,3,4,27,8,10,37,33,42,46,5,46,26,41,47,1,2,46,0,0,30,40,0,0,0,0,0,0,0,0,0,0,4,2,7,
0,0,32,13,0,10,42,2,46,43,0,0,0,0,0,10,5,0,43,0,0,0,0,0,0,0,0,0,3,5,4,3,10,17,3,3,7,19,27,34,46,3,5,33,4,1,38,0,0,0,0,0,0,0,0,0,0,0,0,0,0,2,18,1,
0,19,0,0,3,0,17,2,3,47,28,0,0,0,0,35,46,0,0,0,0,47,0,0,0,0,0,0,5,8,3,5,11,25,3,5,4,7,32,46,5,6,41,42,5,23,37,0,0,15,0,0,0,0,0,0,0,0,0,0,0,1,4,5,
9,15,6,0,16,1,43,9,46,20,47,0,46,46,47,0,28,0,0,0,0,0,0,0,0,0,0,0,3,5,8,3,15,4,1,2,44,40,39,45,46,38,17,26,2,0,0,33,6,27,0,45,0,0,0,0,29,0,0,0,0,2,6,1,
0,15,0,1,24,42,1,1,22,46,46,1,0,0,46,0,0,0,46,24,0,0,0,0,0,0,0,0,1,7,6,5,8,1,1,3,4,46,46,44,47,9,46,16,2,0,37,0,0,0,0,0,0,0,35,0,0,0,0,0,1,1,3,13,
0,16,3,0,0,35,46,2,1,46,0,47,0,0,46,0,0,44,0,0,24,0,0,45,0,47,0,0,2,6,7,4,18,4,15,14,6,41,41,46,10,46,23,44,0,0,1,0,45,0,0,0,37,0,0,0,0,0,0,0,0,3,3,3,
12,5,0,34,2,40,45,45,46,47,47,0,45,0,0,0,0,25,0,0,0,0,0,0,0,0,0,0,3,5,5,4,2,1,3,3,25,21,39,12,11,36,47,2,46,46,46,10,0,0,0,0,0,0,0,0,0,0,0,0,0,1,5,4,
0,0,0,33,34,1,1,46,46,21,0,0,0,44,0,0,0,0,0,46,0,46,0,0,0,0,0,0,1,5,7,5,1,15,15,30,8,42,5,23,5,17,22,32,46,1,0,34,0,0,0,0,0,0,0,0,0,0,0,0,0,1,5,1,
13,0,0,1,0,21,46,1,46,46,0,47,0,0,24,0,38,0,0,0,0,0,0,0,0,0,0,0,2,3,7,3,1,10,2,2,7,34,6,11,23,44,23,5,46,46,1,0,3,0,0,0,0,46,0,0,0,0,0,0,0,3,2,10,
12,0,0,40,36,1,1,43,20,38,2,0,46,0,46,0,0,0,0,0,0,0,0,0,0,0,0,0,1,3,5,8,2,2,5,4,24,21,5,45,45,3,23,2,3,44,1,45,0,0,0,0,0,0,0,0,0,0,0,0,0,2,4,1,
0,21,19,7,37,22,1,1,46,47,46,12,0,0,0,0,0,0,0,0,0,0,0,1,0,0,0,0,3,6,5,2,28,5,1,4,7,10,5,32,46,4,23,7,28,34,3,0,0,0,0,0,0,0,0,0,30,0,0,0,0,4,3,23,
0,0,15,0,41,0,0,46,20,46,46,0,46,0,0,0,46,0,0,0,0,22,0,0,0,0,0,0,4,5,4,4,10,13,1,2,39,7,6,6,44,46,22,3,1,46,36,0,16,0,0,0,0,0,0,0,0,0,0,0,1,1,5,0,
8,21,0,0,0,0,0,45,24,1,46,0,0,0,0,46,0,0,0,0,22,0,0,0,0,0,0,0,4,6,5,10,14,3,1,3,7,4,4,46,33,3,12,1,38,1,46,3,0,0,0,0,41,0,0,0,0,0,0,0,0,3,4,1,
7,0,30,0,4,0,0,46,46,17,46,0,0,46,0,0,0,0,0,0,0,0,0,0,0,0,0,0,5,5,5,2,2,13,29,3,5,3,5,44,33,5,46,46,45,1,14,0,0,0,0,0,0,0,0,0,0,0,0,0,0,1,5,1,
11,0,0,0,4,1,44,29,46,47,46,46,1,0,0,0,0,0,0,0,0,0,0,0,0,0,0,0,2,4,5,5,1,3,1,38,36,15,44,46,38,2,23,1,8,25,1,44,0,0,0,0,0,0,0,0,9,0,0,0,0,1,7,0,
0,5,0,42,0,42,46,45,19,1,46,0,0,0,0,0,0,0,0,0,46,0,0,35,0,0,0,0,1,6,4,5,18,1,3,3,3,21,7,4,46,4,46,13,0,1,0,22,0,0,0,0,0,0,42,0,0,0,0,0,0,5,4,5,
1,0,1,1,0,1,46,36,46,9,46,0,0,0,1,46,47,0,0,0,0,0,0,0,0,0,0,0,3,4,4,5,3,15,19,3,7,5,43,12,46,44,23,33,34,14,0,0,4,0,0,0,0,0,0,0,0,0,0,0,0,1,3,4,
0,3,1,1,39,14,27,0,29,12,1,46,0,0,46,0,0,0,3,0,47,0,0,0,0,0,0,0,2,5,3,7,2,18,1,2,6,3,46,8,4,37,47,3,43,45,0,0,42,7,0,0,0,0,0,0,0,0,0,0,0,5,8,0,
14,0,0,0,22,1,43,46,47,0,0,0,0,0,0,0,46,0,32,0,0,0,0,0,0,0,0,0,4,4,9,5,3,4,2,7,5,40,28,46,45,35,37,1,42,1,1,0,41,0,0,0,0,0,42,0,0,0,0,0,0,4,1,3,
11,29,15,3,2,46,0,20,46,23,0,46,0,46,0,0,0,0,0,0,0,0,0,0,0,0,0,0,1,4,5,6,4,12,3,4,8,38,6,44,6,44,4,35,12,36,0,0,0,0,0,0,26,0,0,0,35,0,0,0,0,4,4,3,
1,1,32,0,1,41,0,30,21,46,1,46,0,0,0,0,0,0,0,0,0,23,0,0,0,0,0,0,2,5,8,3,13,2,1,4,8,5,45,42,12,6,2,23,46,4,0,1,46,0,0,32,0,0,0,0,0,0,0,0,0,2,2,16,
0,0,13,34,0,1,46,46,20,46,0,0,46,0,0,20,0,0,0,0,0,0,0,0,0,0,0,0,3,8,5,5,2,1,3,3,7,44,7,29,34,46,14,46,14,3,0,0,0,0,0,0,0,0,0,0,0,0,0,0,0,1,4,0,
0,0,1,0,0,44,5,46,46,0,40,0,0,0,0,46,0,0,46,0,0,0,0,0,0,0,0,0,3,6,2,6,1,20,18,3,36,10,10,5,22,4,45,41,13,45,0,1,0,0,0,39,32,0,0,0,0,0,0,0,0,2,3,6,
15,0,0,16,0,8,41,46,47,1,0,1,0,0,0,36,0,0,0,0,0,0,0,0,0,0,0,0,5,7,7,6,12,2,2,23,4,14,8,32,25,46,46,22,46,2,8,0,0,0,0,0,0,0,0,0,0,0,0,0,0,1,1,1,
0,16,0,2,25,4,1,2,47,46,0,0,47,0,0,0,0,0,0,24,0,0,0,0,0,0,0,0,3,4,6,5,11,1,1,1,3,19,16,42,47,46,3,23,8,3,41,0,0,0,0,0,0,11,0,0,0,0,0,0,0,4,2,8,
1,16,9,0,3,0,36,2,46,0,3,0,46,17,0,0,0,0,47,0,23,0,0,0,0,0,0,0,3,7,7,7,23,34,3,11,3,5,5,6,6,46,3,39,47,35,0,46,0,0,0,0,0,0,43,0,0,0,0,0,0,2,5,13,
4,12,35,1,1,0,2,1,20,47,47,0,0,0,0,0,0,0,0,0,0,0,22,0,0,0,0,0,4,5,8,5,7,2,1,3,3,4,23,46,37,3,5,46,1,35,3,0,14,0,0,0,0,0,0,6,0,0,0,0,0,1,2,3,
0,5,0,0,0,38,1,42,20,46,46,0,0,0,46,0,0,0,0,0,0,23,0,0,0,0,0,0,5,5,5,15,9,3,1,5,3,20,39,7,4,46,18,23,46,37,0,3,0,0,0,0,0,0,0,13,0,0,0,0,0,1,10,2,
2,0,0,0,0,22,0,46,47,3,0,0,46,0,0,0,0,0,0,0,0,1,0,19,0,0,0,0,4,8,3,5,8,4,2,5,23,16,43,4,4,46,2,35,11,41,0,0,0,0,0,0,0,0,0,0,0,0,0,0,0,3,2,3,
3,16,7,1,19,1,42,45,46,1,40,0,0,46,0,1,0,0,0,0,2,0,0,0,0,0,0,0,4,5,7,6,8,3,16,39,7,15,6,4,46,3,46,39,1,0,36,0,0,8,30,0,0,0,0,0,0,0,0,0,0,1,2,2,
11,16,1,0,5,15,44,45,21,46,1,47,0,0,0,0,0,0,29,0,24,0,0,0,0,0,0,0,3,6,5,8,6,1,1,5,5,10,10,4,46,47,46,4,7,1,1,0,0,0,0,0,0,0,0,0,0,0,0,0,0,1,9,10,
1,6,0,17,4,4,0,46,20,2,47,9,41,0,0,0,0,0,0,0,0,0,0,0,0,46,0,0,1,6,5,9,14,1,1,2,14,40,30,4,46,4,46,22,37,39,0,0,14,0,0,0,0,0,0,0,0,0,0,0,0,3,3,3,
8,0,0,0,39,1,24,45,19,47,47,1,41,0,0,0,0,0,0,0,0,0,0,0,0,0,0,0,5,6,4,3,4,15,2,36,12,25,26,5,3,45,46,8,44,33,12,0,1,0,0,0,0,0,0,0,0,0,0,0,0,4,12,2,
