0,0,4,1,4,4,46,46,21,1,3,47,47,1,46,0,0,0,47,1,46,0,0,0,0,0,0,0,4,7,38,8,2,29,3,32,8,27,46,31,46,16,46,45,1,1,16,0,0,46,41,46,46,0,0,25,0,0,0,0,0,7,4,12,
26,31,0,0,3,7,46,44,29,47,0,24,10,30,36,44,0,0,47,36,47,0,43,45,46,0,0,0,5,33,8,24,22,32,33,13,15,20,34,47,18,19,36,46,1,46,0,1,46,0,0,45,0,0,6,0,0,0,0,0,0,3,9,2,
0,12,13,0,43,37,46,47,47,47,47,40,12,47,38,0,0,0,25,0,0,0,0,0,0,0,0,0,4,8,11,46,3,29,4,3,6,12,46,19,46,45,3,45,46,7,1,12,18,0,0,0,0,0,0,0,42,36,0,0,0,7,6,7,
0,30,6,46,2,46,43,47,26,46,46,8,0,23,0,39,26,0,39,47,28,0,0,9,0,0,0,0,6,8,46,5,7,14,29,28,15,14,6,46,15,3,47,46,28,0,20,46,0,0,37,46,0,46,35,0,0,9,0,0,0,5,6,38,
4,0,2,47,46,3,46,47,42,21,46,47,0,0,0,27,46,0,0,25,0,45,0,0,0,0,0,0,3,13,7,3,11,45,2,4,12,37,35,45,43,46,27,2,19,27,46,0,35,36,0,29,0,0,0,0,0,0,0,0,0,6,8,3,
30,0,0,34,1,47,46,21,47,17,47,35,0,30,39,10,44,1,47,0,14,0,0,0,23,36,0,0,5,12,46,7,2,4,32,38,10,46,8,44,40,43,9,42,11,0,0,22,36,15,40,35,0,0,0,46,0,0,0,0,0,1,13,2,
0,0,0,32,47,47,46,21,46,46,43,45,47,30,46,2,12,0,0,45,0,0,0,0,0,0,0,0,4,10,5,5,7,35,21,14,41,33,39,44,18,44,47,2,1,21,0,0,7,42,45,21,0,0,0,0,0,0,0,0,0,5,27,6,
3,46,11,33,1,46,46,46,10,47,33,47,45,8,46,44,31,0,0,47,0,0,0,0,0,0,0,0,3,7,5,46,3,3,4,4,24,17,38,41,46,47,28,25,1,2,46,0,44,0,44,0,22,0,0,0,0,39,0,0,0,7,5,4,
46,2,36,0,26,1,46,46,1,45,20,41,47,0,0,14,47,0,47,0,35,29,7,47,0,0,0,0,4,13,9,7,17,27,15,32,34,5,17,40,46,37,33,46,39,3,42,43,44,0,46,0,0,0,0,0,0,0,0,0,0,7,8,46,
2,21,0,34,3,3,24,47,46,47,47,46,0,17,44,0,47,0,0,19,40,0,0,0,46,0,19,0,3,9,8,25,7,5,1,3,13,42,17,47,47,37,47,46,44,0,0,0,46,46,39,0,46,3,1,0,0,0,0,0,0,5,14,3,
1,0,34,39,42,47,43,47,9,47,13,0,23,0,42,42,0,27,0,0,0,0,46,30,0,0,0,0,7,9,8,4,28,27,0,5,4,38,6,47,47,45,41,32,2,39,41,47,0,0,0,0,0,0,0,0,21,0,0,0,0,6,7,8,
10,17,0,37,3,30,46,15,7,47,6,47,13,46,29,47,0,0,0,0,46,0,0,0,0,0,0,39,2,9,45,8,6,28,0,13,6,35,37,46,45,3,37,47,44,0,40,0,16,41,0,0,0,0,21,17,2,0,0,0,0,4,6,8,
46,3,0,0,1,46,46,46,47,37,0,24,5,47,0,0,47,41,47,0,0,0,0,38,0,0,0,0,1,9,8,46,5,11,4,9,4,8,8,26,47,44,17,47,45,6,33,46,7,19,0,0,0,0,37,43,0,0,0,0,0,6,3,5,
0,0,27,35,3,45,44,45,47,46,46,28,41,7,21,0,0,0,17,36,0,0,34,28,45,0,0,0,3,12,7,7,17,3,20,11,6,42,47,24,46,10,25,45,45,0,9,33,0,46,0,0,0,0,0,29,0,0,0,0,0,3,1,1,
12,27,46,2,36,44,1,27,47,18,47,43,18,0,47,47,5,0,25,0,18,36,0,0,0,0,0,0,5,6,7,43,27,25,3,33,10,15,24,28,17,47,47,24,47,0,44,0,0,0,11,0,0,0,14,45,0,0,33,0,0,7,6,46,
1,0,0,46,1,14,38,45,46,46,46,0,17,16,0,47,47,47,0,16,29,0,0,0,0,0,0,0,3,20,9,3,14,47,4,6,35,13,23,42,44,32,2,46,38,29,47,0,0,0,46,16,39,0,0,0,0,0,0,0,0,5,6,4,
3,26,32,1,6,45,44,47,46,46,46,5,7,45,2,47,14,3,25,0,46,43,33,0,39,0,0,0,2,13,7,24,33,3,3,37,4,26,18,46,46,47,46,2,46,0,46,0,45,47,46,5,0,19,0,0,0,0,0,0,0,11,46,4,
2,36,35,42,1,3,41,38,46,47,47,47,47,0,29,46,0,19,0,0,32,0,0,0,0,4,0,0,7,7,7,46,46,7,3,4,4,24,45,20,46,4,47,42,4,46,15,33,5,0,20,0,2,0,0,0,0,0,0,0,0,7,9,3,
0,0,0,0,2,39,37,47,46,46,47,2,18,0,0,28,1,0,0,0,47,39,0,36,0,0,0,0,7,10,9,7,7,45,13,5,37,31,47,43,46,44,3,16,15,1,10,45,8,0,0,46,0,43,0,46,0,0,0,0,0,3,18,26,
21,1,28,0,47,7,21,46,46,17,9,11,0,46,32,47,45,0,0,17,0,25,46,0,0,0,27,0,1,11,4,8,27,14,13,36,36,6,24,46,7,46,43,1,47,44,46,42,12,18,0,32,0,0,0,45,0,0,0,0,0,5,11,46,
0,1,8,33,0,2,46,47,2,47,0,47,46,0,1,7,3,8,34,23,0,46,0,38,39,0,0,0,6,8,11,8,3,30,1,26,46,24,41,46,26,28,28,47,44,23,41,46,42,14,17,17,0,0,0,0,0,1,0,0,1,7,6,10,
0,47,2,0,1,46,45,47,35,31,47,18,0,0,0,46,45,0,43,47,0,0,0,0,28,4,0,0,4,12,5,46,1,10,32,31,4,35,37,44,17,27,47,47,45,42,13,31,13,0,0,35,28,0,0,0,46,0,0,0,0,3,11,6,
2,18,29,46,47,3,43,17,46,33,47,37,47,46,41,0,46,47,39,46,0,39,0,0,38,0,0,0,3,8,10,26,28,26,7,5,3,8,46,47,26,44,35,46,42,11,12,0,39,0,0,0,4,0,0,0,30,0,0,0,0,4,3,3,
0,30,26,37,30,46,46,25,46,46,39,23,11,0,46,47,47,5,0,33,46,0,19,0,0,0,0,0,3,8,12,35,25,5,4,33,46,23,32,17,46,44,47,1,44,36,10,13,0,25,0,0,0,0,0,0,0,0,0,0,1,14,6,4,
0,33,1,1,3,44,45,45,47,47,46,46,46,0,0,0,0,0,0,36,0,47,0,0,0,0,0,0,2,8,8,6,27,28,14,46,6,25,10,45,46,46,46,46,47,15,41,46,0,45,13,0,35,1,0,0,0,0,0,0,0,3,8,13,
1,0,30,0,3,1,46,46,26,23,47,47,45,46,0,12,0,0,36,0,25,0,0,6,0,0,0,0,3,28,12,4,39,2,36,5,39,9,19,46,46,46,27,3,5,46,2,6,31,43,0,46,0,16,45,0,0,0,30,0,0,14,3,3,
1,0,0,42,42,9,19,23,47,46,38,47,46,0,47,46,26,20,47,6,39,0,0,0,0,0,0,0,5,10,8,22,4,43,38,30,41,46,26,9,24,25,20,3,0,24,14,0,41,44,46,21,0,46,0,0,0,0,0,0,0,10,3,9,
1,0,33,41,46,21,44,47,47,47,46,47,0,20,0,0,0,0,35,0,0,41,35,0,3,0,0,0,5,8,7,21,5,2,31,32,6,10,8,47,47,45,23,47,46,46,38,0,0,17,0,0,0,0,0,35,0,0,0,0,0,14,7,7,
1,0,0,11,36,21,47,47,46,19,46,44,47,0,47,42,47,0,0,46,0,28,6,0,0,0,0,0,8,6,5,7,12,26,1,33,42,47,27,17,46,42,2,46,45,1,23,0,0,0,40,0,46,16,0,45,0,0,0,0,0,7,11,5,
46,0,42,47,1,38,45,44,19,32,43,46,42,14,0,0,46,0,37,0,46,8,0,4,0,0,0,0,2,12,7,5,3,34,0,2,43,30,37,47,39,15,47,6,45,1,48,46,0,3,0,0,0,0,31,0,0,0,0,0,0,8,14,8,
1,0,0,33,46,46,46,47,28,14,47,0,47,1,37,0,5,1,0,0,0,0,0,46,0,0,0,0,3,30,10,8,29,3,1,37,43,15,43,23,42,38,13,3,46,3,18,45,0,0,42,0,38,0,0,0,0,0,0,0,0,5,5,3,
0,0,42,36,1,47,46,46,18,47,46,0,19,0,47,46,47,0,9,0,31,0,0,1,0,0,0,0,7,8,7,23,21,8,24,4,7,42,24,33,46,43,42,10,47,44,26,0,0,0,7,0,0,0,0,0,0,0,23,0,0,5,15,4,
46,0,0,28,46,11,42,46,46,46,47,42,46,24,0,0,0,0,0,2,0,0,0,21,0,7,0,0,5,10,8,5,2,10,33,47,12,15,17,32,30,14,46,46,46,14,24,42,0,0,0,0,0,46,0,0,0,0,0,0,0,5,3,18,
1,2,0,8,43,29,42,47,47,47,1,47,37,46,34,0,0,41,0,6,0,0,0,12,0,43,0,0,4,9,7,8,3,4,37,30,18,26,27,46,47,43,45,46,46,16,0,0,12,0,0,32,0,0,0,0,0,0,0,0,0,8,6,45,
2,0,33,18,0,3,46,47,19,28,1,47,46,0,47,45,0,0,7,0,0,0,0,38,0,0,0,0,5,7,18,3,23,1,12,4,10,12,25,11,47,46,43,46,46,17,1,12,46,2,0,47,0,0,0,46,0,0,0,0,0,9,8,12,
0,0,25,1,46,46,46,26,1,40,47,0,22,0,0,46,0,46,0,0,0,0,0,0,3,12,0,0,3,5,5,16,36,12,2,36,10,11,11,22,46,6,34,47,45,0,0,0,0,46,0,0,14,0,0,26,0,0,0,0,0,5,29,4,
1,0,10,0,42,46,45,21,47,47,47,0,46,16,0,0,0,7,47,0,46,0,0,0,0,0,0,0,3,10,11,12,12,12,1,2,46,26,14,46,45,33,30,20,2,45,1,13,23,0,0,0,0,3,0,0,0,0,0,0,0,7,8,2,
44,0,0,0,37,47,46,3,47,3,46,13,46,47,18,9,0,0,0,10,0,28,0,47,0,0,0,0,5,17,5,15,28,2,2,42,35,47,13,44,47,47,41,46,47,16,45,0,0,0,41,0,0,0,0,0,0,0,0,0,0,3,12,7,
35,1,0,34,2,39,5,24,47,31,47,45,47,0,47,14,0,0,0,0,0,0,47,0,0,0,0,0,4,13,17,15,5,33,44,20,5,8,25,5,47,31,35,23,38,1,2,0,42,0,44,5,0,0,9,0,0,0,0,0,0,6,12,4,
0,1,45,0,0,28,46,46,46,47,1,4,38,0,0,11,0,0,0,47,0,0,0,33,0,0,0,0,4,33,8,4,28,30,3,7,8,16,30,36,21,32,46,44,16,13,46,0,19,1,0,46,0,0,0,0,0,0,0,0,0,7,13,45,
2,0,28,34,0,40,46,46,47,46,1,46,47,47,0,27,12,0,0,0,0,0,0,0,0,0,0,0,5,9,8,6,1,1,2,2,7,46,44,20,41,27,46,46,1,16,46,0,13,0,0,0,0,0,0,0,0,0,0,0,0,8,9,3,
1,0,24,0,46,47,47,45,22,47,47,0,21,47,47,21,0,9,0,0,0,0,0,0,0,0,0,0,3,39,23,39,10,2,33,17,5,18,36,37,35,47,46,46,6,36,44,0,22,0,38,0,0,46,0,0,0,0,0,0,0,5,46,2,
39,0,0,0,2,46,43,46,46,46,47,47,47,18,8,15,46,0,0,0,5,0,0,0,0,0,0,0,5,7,8,14,2,10,19,7,5,26,19,47,46,19,45,46,22,1,0,41,0,41,0,0,8,32,0,0,0,0,0,0,0,5,5,8,
1,11,38,0,1,38,5,47,46,29,0,46,0,0,46,0,46,0,0,0,0,41,0,0,0,0,0,0,7,5,15,5,5,7,42,31,7,46,28,25,17,20,46,16,45,0,30,0,0,0,0,0,0,0,0,46,0,0,0,0,0,3,6,2,
1,0,0,0,26,47,11,46,2,47,46,22,2,0,0,47,0,0,3,0,0,0,0,0,0,0,0,0,3,12,8,14,22,3,3,2,12,7,18,47,20,46,23,46,5,44,0,0,0,44,46,0,0,10,0,0,0,0,0,0,0,5,41,23,
2,44,33,0,36,4,35,36,47,12,45,8,25,0,47,0,27,0,18,0,0,0,35,0,0,0,0,0,5,41,10,8,11,46,3,5,16,9,9,20,32,46,44,46,46,0,0,0,20,43,0,32,25,0,0,0,0,0,0,0,1,3,3,5,
1,0,46,3,4,25,46,47,21,33,47,47,47,47,0,46,0,0,0,34,7,0,0,0,0,0,0,0,3,6,9,46,44,29,10,16,19,37,30,47,46,46,32,29,36,43,26,45,41,0,16,0,2,0,3,0,0,0,0,0,1,5,7,5,
0,35,0,35,1,47,46,46,46,19,21,41,46,47,2,47,7,0,0,0,46,0,0,0,0,0,0,0,5,8,7,46,4,13,11,19,4,25,46,31,18,25,45,14,43,14,0,46,14,0,0,0,0,5,0,35,0,0,0,0,0,3,1,4,
3,46,0,1,1,2,47,46,42,47,47,5,26,0,0,46,23,0,45,0,47,0,0,0,0,0,0,0,1,37,11,5,5,13,29,3,7,35,16,47,19,47,45,46,31,7,47,0,3,12,5,0,0,6,0,0,0,0,0,0,0,4,10,1,
4,0,1,3,38,26,47,47,47,8,1,0,46,0,42,0,11,0,0,8,0,0,0,0,0,0,0,0,8,10,8,3,5,39,1,14,7,19,8,27,23,39,46,47,34,3,28,47,0,0,0,0,0,0,0,0,0,0,0,0,0,3,6,3,
