14,0,0,0,0,0,1,14,46,0,46,0,0,0,0,0,0,0,0,0,0,0,0,0,0,0,0,0,5,7,5,3,0,1,1,1,5,5,7,7,7,46,3,2,1,1,0,0,46,0,0,0,20,0,0,0,0,0,0,0,0,3,5,5,
0,2,0,0,0,1,42,23,1,2,0,46,0,0,35,0,0,0,0,0,0,0,0,0,0,0,0,0,2,4,7,2,12,2,0,2,3,5,7,12,5,17,7,1,1,0,0,0,21,0,0,0,44,0,0,0,0,0,0,0,1,3,1,1,
0,0,0,40,2,33,1,2,39,1,0,0,0,46,0,0,24,0,0,0,0,0,0,0,0,0,0,0,2,3,6,1,2,3,1,3,6,4,5,10,6,4,1,36,5,0,0,3,0,0,0,0,0,0,0,0,0,0,0,0,1,1,2,1,
0,0,0,0,7,26,43,0,1,1,19,1,0,1,0,0,0,0,0,0,12,0,0,0,0,0,0,0,4,6,5,7,2,2,2,3,6,3,7,12,24,5,26,12,0,5,38,0,0,0,0,0,0,0,0,0,0,0,0,0,0,1,1,1,
15,0,0,0,1,1,1,0,0,1,0,47,0,0,0,46,0,0,0,0,0,0,0,0,0,0,0,0,3,7,7,3,4,2,1,4,3,30,15,8,7,3,4,2,1,19,23,46,0,0,0,0,0,0,0,0,0,0,0,0,0,2,1,2,
14,0,19,0,1,0,1,46,1,0,0,0,0,0,0,0,0,0,0,0,0,0,0,0,37,0,0,0,2,3,2,3,3,0,3,2,3,5,3,7,13,40,19,2,1,0,0,0,0,0,0,0,0,0,0,0,0,0,0,0,0,3,1,0,
3,0,0,0,0,16,1,2,0,2,46,0,0,47,0,0,0,0,0,0,0,0,0,0,0,0,0,0,3,7,5,3,3,3,1,7,7,4,5,7,46,3,46,1,1,16,0,0,0,0,0,0,0,0,0,0,0,0,0,0,1,2,3,1,
0,15,0,0,0,0,3,6,1,0,46,0,0,0,0,0,0,0,0,0,46,0,0,0,0,0,0,0,2,5,6,4,5,1,1,4,26,4,8,6,3,5,2,19,2,2,1,0,0,0,25,0,0,0,0,0,0,0,0,0,1,3,3,0,
1,0,17,0,0,34,0,1,1,0,0,1,0,24,0,0,0,0,0,0,0,0,0,0,0,0,0,0,3,5,4,3,3,1,1,3,4,4,6,6,3,10,5,2,2,0,0,28,0,0,0,0,0,0,0,0,0,0,0,0,0,2,4,0,
14,0,0,2,0,0,15,4,2,1,0,0,0,0,0,0,0,0,0,0,0,0,0,0,0,0,0,0,3,5,3,5,3,2,2,3,2,7,3,5,4,4,6,14,1,3,0,0,0,0,0,0,0,0,0,0,0,0,0,0,0,1,2,3,
6,0,0,18,0,17,0,0,5,0,0,0,0,0,0,0,0,0,0,0,0,0,0,20,0,0,0,0,1,7,4,6,3,5,3,3,2,4,5,7,7,6,3,16,1,1,0,0,0,0,0,0,0,0,0,1,0,0,0,0,4,3,0,1,
0,16,0,0,3,1,3,0,0,0,0,0,0,0,0,0,0,0,0,0,0,0,0,0,0,0,0,0,5,7,4,4,3,1,3,3,3,5,7,4,3,3,13,4,1,1,0,0,0,0,0,0,0,0,0,0,0,0,0,0,0,1,3,0,
7,0,0,2,0,1,1,2,1,26,2,0,0,0,0,0,0,0,0,0,0,0,0,0,0,0,0,0,3,7,5,4,3,1,3,3,4,6,5,11,4,5,2,1,8,1,0,3,0,0,0,0,0,0,0,0,0,0,0,0,0,0,1,1,
12,0,0,0,1,0,20,10,1,0,0,0,0,0,0,0,0,30,0,0,0,0,0,0,0,0,0,0,2,3,5,10,2,1,3,4,5,4,6,14,13,4,5,3,3,2,1,0,0,0,0,0,0,0,0,0,0,0,0,0,0,2,2,0,
0,0,0,0,0,4,4,2,0,45,30,0,0,0,47,0,0,0,0,0,0,0,0,0,0,0,0,0,2,7,4,5,10,1,1,4,12,3,7,9,37,10,37,1,2,3,1,0,0,0,3,0,0,0,0,0,0,0,0,0,0,1,1,0,
1,0,0,0,1,1,2,1,1,46,26,2,0,0,0,0,0,0,0,0,0,0,0,0,0,0,3,0,3,8,3,10,4,2,3,1,7,3,6,13,8,5,5,1,1,2,0,0,0,0,0,37,0,0,0,0,0,0,0,0,1,1,3,1,
2,0,0,0,32,3,1,1,1,0,0,0,46,0,35,0,44,0,0,0,0,0,0,0,0,0,0,0,3,5,6,4,4,1,2,2,4,3,5,28,4,3,1,1,4,5,0,0,0,0,0,0,0,0,0,0,0,0,0,0,0,1,3,1,
1,0,0,0,0,17,1,0,16,1,0,20,0,0,0,0,0,0,0,0,0,0,0,0,0,0,0,0,2,5,4,5,9,3,1,2,5,4,12,5,10,6,14,32,2,1,0,0,0,0,0,0,0,0,0,0,1,0,0,0,1,2,2,1,
0,0,15,0,0,0,0,3,0,0,0,0,0,0,0,0,0,0,0,0,0,0,0,0,0,0,0,31,1,5,6,2,1,0,1,4,4,4,5,7,10,5,16,2,2,1,46,24,0,0,0,0,0,14,0,0,0,0,0,0,0,2,1,3,
0,2,0,0,0,25,4,46,1,0,1,0,23,0,0,0,21,0,0,0,0,0,0,0,0,0,0,0,6,4,5,5,2,0,2,4,2,18,3,12,5,6,2,8,5,1,0,46,0,0,0,0,0,0,7,0,0,0,0,0,0,1,1,1,
1,0,2,10,1,0,44,21,34,0,0,0,0,0,0,46,0,0,0,0,0,0,0,0,0,0,0,0,2,6,5,10,4,2,3,3,3,5,7,5,7,3,3,34,4,45,0,0,20,0,0,0,0,0,0,0,0,0,0,0,0,3,1,1,
2,14,0,0,0,14,0,0,34,3,0,0,0,0,0,0,0,6,0,0,0,0,0,42,0,0,0,0,9,5,5,3,4,2,2,4,6,3,3,31,7,3,4,9,4,1,12,2,0,0,0,0,0,0,33,0,30,0,0,0,0,1,3,1,
0,0,16,0,0,3,0,1,32,37,0,0,0,0,0,0,0,0,20,0,0,0,0,0,0,44,0,0,3,6,3,5,3,3,1,3,3,5,3,8,5,22,5,1,26,26,40,0,0,45,0,0,0,0,0,0,0,0,2,0,1,0,2,1,
0,16,0,1,2,0,30,0,1,0,0,0,0,0,46,40,0,0,0,0,26,0,0,0,0,0,0,0,2,4,3,3,3,7,1,1,1,15,42,5,2,4,5,23,2,0,3,33,23,0,0,0,0,0,0,0,0,0,0,0,0,0,1,0,
14,0,0,0,12,0,1,45,0,42,0,0,0,0,0,0,0,0,0,0,0,0,11,0,0,0,0,0,3,4,6,3,3,2,2,2,2,3,5,12,3,6,2,17,38,1,0,0,0,0,0,0,0,0,0,0,0,0,0,0,0,2,3,2,
14,3,0,0,18,0,27,0,0,0,19,0,0,0,0,41,0,0,0,32,0,0,0,0,0,0,0,0,3,5,10,3,6,1,1,1,33,3,7,7,37,4,3,1,18,0,1,0,0,25,0,0,0,0,0,0,0,0,0,0,0,1,2,1,
0,0,16,0,0,3,1,17,0,46,0,0,0,0,0,0,1,0,0,0,0,0,0,0,0,0,0,0,7,6,5,4,2,2,1,3,3,14,9,5,9,4,4,2,3,0,0,28,0,0,0,0,0,0,0,0,0,0,0,0,0,1,7,1,
15,0,1,11,0,0,1,0,1,0,46,0,17,0,0,0,0,0,0,0,0,0,0,0,0,35,0,0,4,6,4,5,1,2,1,5,5,5,6,5,6,4,3,46,2,3,0,0,0,0,0,0,0,19,0,0,0,0,0,0,0,1,0,8,
0,0,0,0,1,0,1,0,1,1,0,46,0,0,0,0,0,0,37,0,30,0,0,0,0,0,0,0,4,11,3,2,2,2,1,2,21,3,8,8,37,36,2,2,1,0,0,0,0,0,0,0,0,0,0,0,0,0,0,0,0,2,1,3,
0,0,0,0,0,0,1,0,32,4,0,0,0,0,0,0,43,0,0,0,0,0,0,0,0,0,0,0,4,3,5,10,2,3,1,2,3,5,7,6,5,4,3,46,36,1,0,0,0,37,0,0,0,0,0,0,0,0,0,0,0,1,4,1,
0,22,0,0,0,2,0,1,1,46,0,0,0,0,23,0,0,0,0,0,0,0,0,0,0,0,0,0,5,4,8,3,3,3,1,2,9,7,8,7,4,4,10,12,4,1,13,0,0,0,0,0,0,0,0,0,0,0,0,0,0,2,1,0,
0,0,0,1,0,0,1,32,46,0,0,0,0,0,37,0,0,43,0,0,0,0,0,0,0,0,0,0,1,6,3,4,2,3,1,1,4,5,12,5,3,5,3,2,42,46,0,0,0,0,0,41,0,0,18,0,0,0,0,0,0,1,2,0,
0,14,1,0,1,0,7,45,1,0,1,41,0,0,0,0,0,0,0,0,0,0,0,0,0,0,0,0,2,5,4,3,5,2,5,3,3,6,10,7,3,4,2,1,23,2,1,0,0,0,0,45,0,0,37,0,0,0,0,0,1,1,0,3,
4,17,0,0,0,1,0,1,5,0,0,0,0,0,0,0,22,0,0,0,0,0,0,0,0,0,0,0,2,5,6,5,3,5,0,3,3,7,7,4,7,4,2,5,3,0,0,2,0,0,0,0,45,0,40,0,0,0,0,0,0,2,3,1,
0,1,0,18,0,1,1,1,47,2,0,0,0,0,0,0,0,0,0,0,0,0,0,0,0,0,0,0,2,4,4,6,3,1,1,2,5,6,7,4,3,2,1,1,1,1,28,0,0,0,47,0,0,0,0,0,0,0,0,0,1,1,1,1,
13,0,0,0,0,0,0,46,1,0,0,38,12,0,0,0,0,0,0,0,0,0,0,0,0,32,0,0,4,6,5,4,1,2,2,3,4,7,42,12,3,31,7,3,3,2,1,0,0,0,0,0,0,0,0,0,46,0,0,0,2,1,1,7,
1,0,0,1,0,0,27,1,22,3,0,0,0,1,42,0,0,0,0,0,0,0,0,0,0,0,26,0,4,3,6,4,5,1,3,3,30,5,3,4,3,8,5,2,2,39,21,0,7,0,0,0,0,0,0,0,0,0,0,0,0,1,1,3,
7,15,0,0,0,1,23,2,0,0,1,0,0,47,0,0,27,0,0,0,0,0,0,0,0,0,0,0,2,5,6,3,2,1,3,2,4,26,6,7,4,6,29,1,47,0,0,0,0,29,0,0,0,0,0,0,0,0,0,0,0,0,0,1,
6,0,0,0,1,36,0,1,0,46,0,0,0,0,0,0,0,0,0,0,0,0,0,0,0,0,0,0,4,4,5,4,2,2,0,2,3,4,7,7,5,22,1,3,0,0,1,47,0,0,0,0,0,0,0,0,0,0,0,0,0,3,1,0,
0,0,0,0,0,1,2,46,4,1,46,0,0,0,47,0,0,0,44,0,0,0,0,0,0,0,0,0,4,5,6,7,2,2,1,3,6,3,39,11,10,5,5,47,0,1,1,1,0,0,0,0,0,0,0,0,0,0,0,0,0,1,7,3,
0,0,0,1,0,0,5,1,1,47,46,46,0,0,0,0,0,0,0,0,0,0,0,0,0,0,0,0,2,5,5,3,3,3,4,12,5,5,4,5,6,4,3,24,47,3,0,0,0,0,0,0,0,0,0,19,0,0,0,0,0,1,8,4,
1,12,0,0,0,3,1,2,1,0,2,0,35,0,0,0,0,0,0,0,0,0,0,0,0,0,0,0,1,8,5,7,4,15,2,4,3,3,7,7,4,3,5,1,1,5,0,0,32,0,0,0,0,0,0,0,0,0,0,0,1,1,6,0,
2,0,0,25,1,3,3,1,1,0,0,42,0,0,40,0,0,0,0,0,28,0,0,0,0,0,0,0,3,4,7,10,1,1,18,22,3,4,9,7,5,2,3,1,2,0,0,1,0,0,0,0,0,46,0,0,0,0,0,0,0,1,2,0,
1,1,0,28,0,0,0,1,1,0,0,0,0,0,0,0,0,0,0,0,0,0,0,0,0,25,0,0,2,5,6,2,4,1,3,3,3,5,8,4,5,25,3,2,1,43,0,2,0,0,0,0,0,0,0,0,0,0,0,8,0,2,1,1,
2,14,0,0,0,0,1,28,0,0,0,0,0,47,0,0,0,0,0,0,0,0,0,0,0,0,0,0,1,6,5,3,2,1,2,3,5,4,6,8,46,3,4,13,1,1,46,0,0,0,0,0,21,0,0,0,0,0,0,0,0,1,1,10,
0,0,2,0,0,0,1,46,1,46,0,0,0,0,0,0,0,0,0,0,3,0,29,0,0,0,0,0,4,4,3,5,4,1,3,3,4,4,3,10,6,37,6,46,2,1,46,1,0,0,0,0,0,46,0,0,0,0,0,0,0,0,2,2,
0,0,0,25,0,1,2,46,1,46,0,1,0,0,0,0,0,0,0,0,0,0,0,0,0,0,0,0,5,4,3,3,5,3,2,4,4,5,6,7,4,7,3,45,0,1,0,46,0,0,0,0,0,0,0,0,0,0,0,0,0,2,1,0,
0,0,15,0,1,4,1,46,3,0,46,0,0,46,0,0,0,0,0,0,0,0,0,0,0,0,0,0,4,5,5,3,2,3,5,2,2,5,11,5,7,5,46,46,1,1,0,0,0,0,0,46,0,0,0,0,0,0,0,0,2,3,4,10,
0,1,0,16,0,1,4,0,0,0,46,0,0,0,19,0,0,0,0,28,0,0,0,0,0,0,0,0,2,3,7,5,13,2,1,6,5,7,30,2,4,4,46,1,2,45,0,0,0,0,46,0,0,0,0,0,0,0,0,0,0,2,1,1,
0,0,0,0,0,41,2,0,0,42,46,0,0,0,0,0,0,0,0,0,0,0,0,0,0,0,0,0,2,5,4,3,2,1,1,4,3,21,8,6,30,5,7,2,0,46,1,0,0,0,0,0,0,0,0,43,0,0,0,0,1,1,1,0,
