0,0,0,41,0,1,24,47,20,47,3,1,0,0,43,31,0,26,0,0,0,0,0,0,0,0,0,0,6,3,8,7,30,13,4,4,5,4,8,30,47,27,3,45,14,33,0,0,0,12,0,0,0,0,46,0,0,0,0,0,0,4,3,3,
6,0,16,0,46,0,17,2,46,47,0,34,0,0,0,46,24,46,0,0,0,0,0,0,0,0,0,0,6,6,3,40,16,4,1,15,5,8,9,46,17,33,46,30,25,36,37,0,0,45,0,0,0,0,0,0,0,0,0,0,0,1,4,3,
0,0,16,47,1,1,24,39,46,47,46,0,0,0,0,46,24,0,0,0,0,0,0,0,0,0,0,0,3,3,4,4,3,14,1,3,8,37,11,44,43,29,22,44,46,37,46,0,0,0,0,0,0,0,0,0,0,0,0,0,0,3,4,1,
47,15,28,0,29,46,5,47,19,46,45,2,0,0,30,0,40,0,46,0,0,0,0,0,0,0,0,0,2,7,10,6,3,12,1,5,5,5,4,47,5,46,45,46,46,47,0,0,0,0,0,0,0,0,0,0,0,0,0,0,0,1,9,0,
7,0,0,0,17,3,47,4,46,47,0,46,0,0,39,47,0,0,0,0,0,17,0,0,0,0,0,0,8,7,8,36,10,1,1,5,45,3,32,9,5,41,46,3,36,0,0,37,0,0,0,0,0,0,0,0,0,0,0,0,0,1,4,0,
46,1,0,2,0,6,29,13,47,46,47,46,1,0,45,0,0,22,0,0,0,0,0,0,0,0,0,0,1,5,3,4,11,7,1,22,3,4,21,8,5,28,42,47,44,47,26,0,0,0,1,0,0,0,0,0,0,0,0,0,0,4,8,3,
0,1,0,15,3,1,1,21,5,47,47,35,0,0,29,0,0,46,21,0,0,0,0,0,0,0,0,0,3,5,9,34,14,1,23,3,37,5,12,45,46,20,32,42,2,33,0,0,0,45,0,0,0,0,0,0,0,0,0,0,0,4,3,7,
46,0,15,0,1,18,43,46,0,28,0,4,46,20,0,47,0,47,0,0,0,0,0,0,47,0,0,0,3,6,5,14,19,2,2,21,7,7,46,42,42,46,3,46,46,32,0,0,0,0,0,0,0,0,0,0,0,0,0,0,0,2,2,0,
8,30,2,0,1,3,44,47,46,0,0,47,47,0,30,0,25,0,0,0,37,0,0,0,0,0,0,0,3,4,8,7,3,46,8,7,5,44,8,41,40,46,47,22,39,33,15,1,0,0,0,41,0,0,0,0,0,0,0,0,0,4,2,2,
1,17,0,1,0,33,2,46,42,0,47,46,47,47,0,0,24,0,0,0,0,0,0,0,0,0,0,0,7,32,8,6,13,10,28,17,6,30,12,10,10,36,46,45,47,29,17,0,9,0,2,0,0,0,0,37,0,0,0,0,0,5,4,2,
0,0,16,0,0,38,5,46,0,46,47,0,47,32,0,0,24,0,0,0,0,0,2,0,14,0,0,0,3,5,46,4,17,3,2,9,16,7,4,45,46,40,30,46,47,45,0,0,25,0,0,0,0,0,42,0,0,0,0,0,0,6,6,3,
0,1,27,0,0,34,42,45,25,0,47,47,0,0,32,40,25,0,0,46,0,0,0,0,0,1,0,0,2,5,10,6,12,16,12,35,33,16,18,19,17,28,46,45,3,1,1,25,1,0,0,0,0,0,0,5,0,0,0,0,0,5,6,1,
0,15,33,0,0,0,44,17,47,46,1,1,5,0,31,25,0,46,47,27,0,0,0,0,0,0,0,0,5,5,5,3,9,13,39,1,4,5,7,27,41,47,3,21,46,0,45,0,0,0,3,0,0,0,0,0,0,0,0,0,0,4,1,6,
0,0,16,8,46,8,1,45,6,46,0,1,46,46,32,46,24,0,0,5,0,0,0,0,0,44,0,0,3,7,8,5,8,37,5,15,15,18,12,47,14,27,15,46,45,16,21,0,38,0,0,0,0,0,0,0,0,0,0,0,0,4,6,0,
1,8,1,0,17,11,46,46,46,47,1,26,47,0,0,29,0,46,0,0,18,0,0,0,0,0,0,0,2,4,8,7,46,2,2,4,3,5,46,46,22,39,3,47,2,43,1,12,0,46,0,0,10,0,0,0,0,0,0,0,0,4,4,0,
46,1,16,0,0,0,1,47,46,47,47,46,0,0,30,47,24,0,0,0,0,0,0,0,42,0,0,0,2,4,35,4,12,12,14,22,16,26,31,7,5,26,31,19,34,45,0,0,13,0,0,0,35,0,0,0,0,0,0,0,0,3,3,46,
1,0,0,0,17,0,39,46,46,21,47,20,47,46,0,47,1,46,0,45,0,0,16,0,0,0,0,0,1,5,5,46,23,2,14,16,4,8,46,27,44,3,45,46,42,35,0,1,0,0,0,0,0,0,0,0,0,0,0,0,0,1,16,5,
0,0,0,17,21,2,46,47,17,46,47,0,0,0,47,33,23,0,0,20,44,0,0,46,0,0,0,0,1,3,23,6,4,32,1,17,5,6,18,24,47,41,5,39,3,47,0,4,9,42,5,0,0,0,0,0,25,0,0,0,0,5,2,7,
32,0,0,1,16,1,13,44,47,46,0,0,46,46,30,47,47,0,0,0,19,0,0,0,0,0,0,0,2,8,46,6,10,8,23,5,5,7,25,46,8,30,30,46,47,0,3,18,11,0,0,0,0,0,0,0,0,0,0,0,1,3,3,2,
0,4,0,17,1,0,1,19,47,46,0,46,0,31,0,0,0,0,0,20,0,0,0,0,0,0,0,0,2,9,5,3,6,46,13,6,5,14,6,45,6,6,47,20,47,32,21,47,0,0,0,0,0,0,0,0,0,0,0,0,0,3,5,2,
5,0,0,0,47,3,0,47,0,1,47,46,37,0,0,0,24,0,0,0,0,0,0,0,0,0,0,0,2,5,3,8,3,1,1,46,22,5,8,46,42,14,29,38,1,2,0,4,26,0,0,0,39,0,0,0,0,0,0,0,0,0,7,1,
2,0,13,0,31,6,47,1,9,0,47,5,47,7,32,0,0,0,0,46,17,0,2,0,0,0,0,0,3,5,5,8,9,1,1,7,7,8,33,45,7,3,29,20,15,47,39,0,47,0,18,0,0,4,0,0,0,0,0,0,0,1,3,1,
0,0,15,0,0,3,47,46,46,47,1,39,46,31,0,0,0,23,0,12,0,0,0,0,0,0,0,0,3,3,37,6,3,1,5,5,5,28,7,45,7,47,46,20,39,1,5,34,46,0,0,0,0,0,0,0,0,0,0,0,0,3,3,4,
0,0,22,15,1,2,47,45,25,0,0,47,46,14,47,0,17,0,21,0,45,0,10,40,0,47,0,0,3,5,45,5,12,3,2,5,6,6,41,15,47,39,47,20,2,33,0,1,0,0,0,0,0,0,46,0,0,0,0,0,0,2,3,12,
0,15,19,1,1,1,18,20,47,1,25,31,47,46,46,0,25,46,0,0,0,0,0,0,0,0,0,0,0,4,17,4,14,1,1,5,6,45,6,46,44,16,30,21,1,42,30,0,0,27,0,0,0,0,0,0,0,0,0,0,0,4,1,3,
4,15,0,9,0,1,3,47,33,30,47,47,0,0,46,0,0,46,0,0,0,0,0,0,0,5,0,0,3,10,7,5,17,7,35,35,5,6,4,46,46,30,3,46,30,47,1,6,0,11,0,0,0,0,0,0,0,0,0,0,0,16,2,0,
2,20,22,0,0,1,24,19,46,45,46,0,37,0,32,47,24,0,1,0,0,0,0,0,0,0,0,0,5,6,16,6,23,2,5,2,3,14,6,47,46,3,46,36,1,1,0,0,40,0,0,0,0,0,0,0,0,0,0,0,0,2,1,3,
27,0,0,0,46,46,1,19,47,39,0,0,0,32,46,0,0,0,0,0,0,0,0,0,0,0,0,0,3,7,4,5,10,7,9,46,7,12,7,44,7,46,47,22,33,1,0,39,16,0,0,0,4,0,0,0,0,0,0,0,0,4,5,0,
0,1,35,47,45,0,1,27,31,46,38,0,46,0,46,32,47,23,0,0,0,0,0,0,0,0,0,0,2,6,8,19,3,13,6,14,23,6,5,47,17,46,46,21,1,32,0,9,0,0,0,0,0,0,0,0,0,0,0,0,0,3,1,3,
0,0,15,0,22,1,0,25,46,47,25,0,0,47,0,0,24,0,46,0,0,0,47,0,0,0,0,0,5,4,6,5,39,24,2,40,3,5,5,18,6,46,42,41,46,1,47,0,34,15,0,0,0,0,0,0,46,0,0,0,0,2,3,1,
0,6,1,40,14,0,22,46,47,0,46,47,47,0,7,30,25,19,0,0,0,0,0,0,0,0,0,0,2,6,6,6,2,38,4,2,26,7,6,42,7,29,3,33,35,46,0,0,0,41,0,0,0,0,0,0,0,0,0,0,0,4,10,2,
8,16,0,47,1,3,3,19,47,30,46,8,21,47,0,32,0,0,0,0,0,0,0,0,0,0,0,0,3,5,7,17,5,3,1,3,7,17,26,45,45,15,46,46,47,46,37,0,0,0,0,0,43,0,0,0,0,0,0,0,0,1,2,1,
9,47,0,1,0,1,47,30,47,46,47,3,47,0,0,0,0,0,0,0,0,0,0,0,0,0,0,0,3,7,6,25,3,23,13,4,5,9,17,42,46,28,29,47,14,0,0,0,27,0,1,0,0,0,0,0,0,0,0,0,0,3,1,0,
3,14,0,0,10,0,3,46,47,47,0,46,0,0,47,37,0,0,0,0,0,0,0,0,0,0,0,0,1,8,5,8,10,46,1,4,2,8,45,20,44,46,45,20,1,32,0,0,9,23,0,17,0,0,0,0,0,0,0,0,1,1,3,2,
1,3,2,0,46,2,46,25,26,47,0,46,46,0,30,27,0,0,0,47,0,0,0,47,0,0,0,0,1,5,46,4,2,38,1,1,31,18,18,46,17,46,31,21,35,41,0,0,0,0,0,46,0,0,0,0,0,0,0,0,0,1,11,4,
0,0,0,27,14,46,47,19,37,0,0,47,0,32,47,0,24,0,0,0,0,0,0,0,0,0,0,0,3,5,6,5,5,46,3,6,5,9,24,46,23,27,37,47,1,42,0,16,0,0,0,11,0,0,0,0,0,0,0,0,2,3,5,1,
46,13,16,5,4,41,1,1,7,0,47,0,46,37,47,0,0,45,47,47,0,0,0,0,0,0,0,0,4,8,5,2,4,34,1,12,10,37,42,46,32,15,47,12,0,3,2,41,0,0,4,0,14,0,11,0,0,0,0,0,0,2,4,7,
2,46,41,3,9,8,1,47,41,9,19,45,37,32,0,47,0,0,0,0,0,0,45,0,44,0,23,0,1,5,5,21,13,8,1,25,33,19,10,18,46,46,46,3,0,1,39,0,3,0,0,5,0,0,0,0,0,0,0,0,0,2,5,1,
1,0,1,1,7,1,6,2,47,47,23,47,47,46,47,33,0,28,0,10,0,0,0,0,0,0,0,0,4,8,6,4,3,6,34,26,2,17,46,39,45,46,22,46,45,23,1,0,0,37,0,0,39,0,0,0,0,0,0,0,0,5,0,8,
11,0,47,0,6,1,19,47,2,46,47,0,12,0,47,0,4,0,19,47,46,0,14,0,0,0,0,0,2,23,5,5,13,12,24,3,5,5,44,31,46,42,2,42,1,46,11,14,0,0,0,1,0,0,0,0,0,0,0,0,0,7,2,1,
1,0,1,0,46,44,34,1,39,19,1,47,0,46,45,30,47,39,0,18,0,0,0,0,0,0,0,0,1,3,10,22,2,5,16,23,7,33,44,47,44,30,25,47,0,2,0,0,0,3,0,33,31,0,0,0,0,0,0,0,0,25,1,8,
0,0,0,19,3,20,45,32,32,46,15,0,46,47,47,0,0,0,0,0,0,0,0,0,0,0,0,0,3,5,5,3,2,46,20,21,3,7,46,44,5,19,29,33,10,3,0,0,46,11,0,0,0,0,0,0,0,0,0,0,0,7,3,3,
26,0,0,37,8,21,1,30,46,17,39,0,12,46,45,16,0,0,0,0,0,0,0,0,0,0,0,0,2,5,8,5,36,1,20,2,28,5,43,5,38,47,46,33,42,44,46,0,0,0,0,0,0,0,0,0,0,0,0,0,0,1,3,5,
1,0,5,38,45,2,2,47,46,1,46,0,46,0,0,32,0,0,0,0,0,14,0,0,0,0,0,0,4,3,4,4,12,1,1,5,26,30,45,5,25,47,7,46,2,46,0,39,9,0,0,0,0,0,0,0,0,0,0,0,0,3,2,22,
0,16,12,1,0,8,47,2,19,1,3,0,0,0,46,46,36,0,0,0,0,0,0,0,0,0,0,0,6,3,5,7,13,35,14,4,4,34,44,47,13,35,3,40,46,1,0,0,0,45,44,46,0,0,0,0,0,0,0,0,0,3,1,1,
30,0,0,7,44,8,0,25,41,47,39,47,44,0,0,32,46,0,41,0,0,0,6,0,0,0,0,0,5,3,18,10,8,32,2,1,14,7,43,6,44,28,6,47,46,45,0,1,42,35,0,0,0,0,0,0,0,0,0,0,0,2,7,4,
13,47,0,0,45,0,8,43,28,46,46,0,36,0,45,46,0,0,0,0,41,0,0,0,0,0,0,0,3,7,6,38,2,10,2,2,3,22,45,42,47,26,30,28,1,0,47,0,20,0,41,0,0,1,33,0,0,0,0,0,0,1,2,1,
5,35,0,26,0,33,1,47,46,46,47,0,0,13,45,0,30,0,0,0,0,0,0,21,0,0,0,0,2,5,5,10,4,8,2,3,25,32,43,32,3,32,3,21,3,30,14,0,0,0,0,0,0,0,0,0,0,0,0,0,0,1,8,1,
8,18,16,1,26,2,30,19,47,0,37,14,0,0,45,0,0,0,0,46,16,0,0,41,0,0,0,0,3,4,6,4,17,3,3,7,27,40,35,41,10,13,30,22,39,43,0,9,34,17,5,0,0,0,0,0,0,0,0,0,0,3,2,0,
0,47,7,0,1,43,1,1,33,0,46,0,47,0,0,31,0,12,47,37,0,0,0,0,0,0,0,0,5,19,12,7,3,1,2,8,23,16,41,47,4,28,46,23,0,35,42,0,2,0,39,0,0,0,5,0,36,0,0,0,1,3,1,1,
