0,0,0,11,0,1,2,1,1,2,0,37,0,0,0,47,0,0,0,0,0,0,0,0,0,0,0,0,1,3,4,3,2,13,1,1,4,10,5,5,4,3,33,4,34,1,1,0,0,0,0,0,0,0,0,0,0,0,0,0,0,1,1,0,
0,0,0,3,0,0,1,0,1,0,0,37,0,0,0,0,0,0,0,0,0,0,0,0,0,0,0,0,2,5,3,3,1,3,2,2,8,4,6,7,4,30,6,1,1,0,0,0,0,0,0,0,0,0,0,0,0,0,0,0,0,0,1,0,
0,0,0,0,0,1,0,17,0,0,0,0,0,0,0,0,0,0,0,0,0,0,0,0,0,0,0,0,2,3,4,5,1,1,1,1,4,5,4,6,28,5,1,2,0,1,0,0,0,0,0,0,0,0,0,0,0,0,0,0,0,3,0,0,
0,0,0,1,3,0,0,19,2,1,0,0,0,0,0,0,31,0,0,0,0,0,0,0,0,0,0,0,1,4,4,2,4,1,1,3,4,8,5,4,26,3,3,1,2,1,0,0,0,0,0,0,0,0,0,0,0,5,0,0,0,1,2,1,
1,0,0,0,17,0,3,20,0,0,0,0,0,0,0,0,30,0,0,0,0,0,0,0,0,0,0,0,1,5,5,3,3,1,1,1,3,7,4,20,3,5,1,3,1,1,1,0,0,0,0,0,0,0,0,0,0,0,0,0,0,2,1,0,
0,0,0,0,0,0,1,0,0,1,0,0,0,0,0,0,30,0,0,0,0,0,0,0,0,0,0,0,2,5,2,4,3,2,1,2,3,3,7,17,27,3,6,1,0,0,0,0,0,0,0,0,0,0,0,0,0,0,0,0,0,4,1,0,
0,1,0,0,0,0,0,2,23,0,0,0,0,0,0,0,0,0,31,0,0,0,0,0,0,0,0,0,2,3,3,3,1,1,2,3,2,11,12,6,3,3,4,2,0,1,0,1,0,0,0,0,0,0,0,0,0,0,0,0,0,0,1,3,
12,0,0,0,0,1,0,1,0,0,0,25,0,1,0,0,0,0,0,23,0,0,0,0,0,0,0,0,1,3,3,3,2,11,2,3,5,5,16,5,6,10,4,2,0,1,0,1,0,0,0,0,0,0,0,1,0,0,0,0,0,0,0,0,
0,0,0,0,2,14,17,1,1,0,0,0,0,0,0,0,0,0,0,0,0,0,0,2,0,0,0,0,2,5,3,4,0,1,1,8,2,7,4,3,4,2,1,3,1,0,0,0,0,0,0,0,0,0,0,0,0,0,0,0,0,0,1,0,
0,3,0,0,1,0,16,1,0,0,0,0,0,0,0,0,0,0,0,0,0,0,0,0,0,0,0,0,6,1,2,3,2,9,2,1,5,3,5,5,6,1,4,34,1,0,0,0,0,0,0,0,0,0,0,0,0,0,0,0,0,2,1,0,
0,0,0,0,0,1,0,21,1,0,0,0,36,0,0,0,0,0,0,0,0,0,0,0,0,0,0,0,4,3,3,4,2,1,3,2,3,5,5,5,5,2,5,34,1,0,0,1,0,0,0,0,0,0,0,0,0,0,0,0,0,1,0,2,
0,2,0,0,1,13,1,0,24,0,0,0,10,0,0,0,0,0,0,0,0,0,0,0,0,0,0,0,1,4,3,3,3,2,2,2,8,5,5,6,4,3,2,1,3,1,32,0,0,0,0,0,0,0,0,0,0,0,0,0,0,1,0,0,
0,0,0,0,0,1,7,26,1,2,0,0,0,0,0,0,0,0,0,0,0,0,0,0,0,0,0,0,3,3,7,3,1,2,1,1,3,5,5,7,3,4,2,35,0,0,3,0,0,0,0,0,0,0,0,0,0,0,0,0,0,1,1,2,
0,0,0,0,1,16,0,0,0,0,0,0,36,0,0,0,0,0,0,0,0,0,0,0,0,0,0,0,4,8,2,2,4,1,6,1,2,4,8,7,2,3,3,35,0,2,0,0,0,0,16,0,0,0,0,0,0,0,0,0,0,1,1,0,
0,1,0,0,1,1,17,2,0,0,47,0,37,0,0,0,0,0,0,0,0,0,0,0,0,0,0,0,5,5,5,4,1,8,1,1,2,8,5,3,5,3,46,35,0,0,0,0,0,0,0,0,0,0,0,0,0,0,0,0,0,0,1,0,
0,0,0,0,19,0,1,2,19,0,0,47,0,0,0,0,0,0,0,0,0,0,0,0,0,0,0,0,2,5,5,3,3,1,1,3,8,25,6,14,6,3,2,2,2,1,32,27,0,0,0,0,0,0,0,0,0,0,0,0,0,0,0,1,
0,17,1,0,1,14,0,1,0,0,36,2,0,0,0,0,0,0,0,0,0,0,0,0,0,0,0,0,1,3,3,3,1,2,1,1,8,3,5,8,3,3,2,14,16,34,2,0,0,0,0,0,0,0,0,0,0,0,0,0,0,2,1,0,
0,0,0,0,15,0,0,1,46,0,0,37,0,0,0,0,0,0,0,0,0,0,0,23,0,0,0,0,3,5,3,3,1,3,1,2,4,13,3,5,3,3,2,46,35,1,0,0,0,0,0,0,36,0,0,0,0,0,0,0,0,1,1,0,
0,0,0,0,12,1,0,43,2,1,0,37,0,0,0,0,0,0,0,0,0,0,0,0,0,0,0,0,3,7,4,1,2,1,1,1,8,3,3,5,21,5,2,3,35,3,0,1,0,3,0,0,0,0,0,0,0,0,0,0,0,0,2,3,
0,0,0,6,0,0,1,17,1,0,0,0,37,0,0,0,0,0,0,0,0,46,0,0,0,0,0,0,1,4,3,1,1,14,1,1,3,6,5,5,8,17,3,35,3,3,2,0,0,0,0,0,0,0,0,0,0,0,0,0,0,0,0,0,
0,0,0,0,13,1,1,1,1,0,1,0,37,0,0,0,0,0,0,0,0,0,0,0,0,0,0,0,5,4,3,5,9,1,4,1,2,3,5,6,4,2,2,34,1,0,0,0,0,0,45,0,0,0,0,0,0,0,0,0,0,3,1,0,
0,0,0,0,0,1,1,9,0,0,3,0,0,0,0,0,0,0,0,0,0,0,0,0,0,0,0,0,3,7,4,3,1,1,4,1,2,11,7,3,3,4,2,1,2,0,0,0,28,0,0,0,0,0,0,0,0,0,0,0,1,1,1,0,
0,0,0,2,0,0,1,0,1,35,0,0,0,0,0,0,0,0,0,0,0,0,0,0,0,0,0,0,3,5,5,3,2,1,1,3,5,8,5,7,5,3,3,39,15,1,0,1,33,0,0,0,0,0,0,0,0,0,0,0,0,1,2,0,
1,1,0,0,0,0,15,0,1,0,0,47,0,0,0,0,0,0,0,0,0,0,0,0,0,0,0,0,4,3,4,4,3,1,9,3,5,4,5,3,4,3,8,1,1,1,0,0,0,0,0,0,0,0,0,0,0,0,0,0,0,3,1,0,
0,0,0,0,0,0,7,19,1,0,0,38,47,0,0,0,0,0,0,0,0,0,0,0,0,0,0,0,3,3,4,4,1,2,5,1,2,6,7,17,14,3,1,3,1,0,0,1,0,0,0,0,0,0,0,0,0,0,0,0,0,1,2,1,
0,1,0,0,0,2,1,1,24,1,0,0,0,0,0,0,32,0,0,46,0,0,0,0,0,0,0,0,1,3,3,2,3,1,17,2,3,10,7,6,29,5,1,1,39,15,0,0,0,0,0,0,0,0,0,0,0,0,0,0,0,1,0,1,
0,0,0,0,0,13,0,1,46,14,0,1,0,0,0,0,0,0,0,0,0,0,0,0,0,0,0,0,2,2,3,1,2,4,2,3,11,5,6,5,4,7,3,0,34,2,0,0,46,0,0,0,0,0,0,0,0,0,0,0,0,0,1,0,
0,0,0,0,1,1,15,44,1,1,0,0,0,0,0,0,0,0,0,0,0,0,0,0,0,5,0,0,3,3,4,1,3,8,2,3,2,3,6,3,28,3,3,4,5,1,0,0,8,0,0,0,0,0,0,0,0,0,0,0,0,0,1,0,
0,0,0,0,1,2,17,0,0,0,0,0,0,0,0,0,0,47,0,0,0,0,0,0,0,0,0,0,1,3,4,2,2,9,3,2,4,3,35,6,8,3,4,3,1,0,0,0,34,0,19,0,0,0,0,0,0,0,0,0,0,2,1,0,
0,0,4,0,1,1,41,17,30,4,0,0,0,0,0,0,0,0,0,0,0,0,0,0,0,0,0,0,2,3,5,3,1,2,1,2,4,5,4,5,21,3,3,1,1,0,0,0,0,31,0,0,0,42,0,0,0,0,0,0,0,3,2,2,
1,0,0,0,0,30,0,20,0,0,0,0,0,0,0,0,0,0,0,0,0,0,0,0,0,0,0,0,2,5,3,2,2,3,1,3,3,5,5,5,19,6,3,46,1,0,3,0,0,0,30,0,0,0,0,0,0,0,0,0,0,1,0,0,
0,0,0,0,0,1,0,29,1,0,47,0,0,0,0,0,0,0,0,0,0,0,0,0,0,0,0,0,5,3,5,5,2,1,3,1,5,5,6,7,46,6,1,1,3,0,0,0,30,0,0,0,0,0,0,0,0,0,0,0,0,3,1,2,
0,0,0,0,0,1,1,19,0,33,1,0,0,0,0,0,0,46,0,0,0,0,0,0,0,0,0,0,3,4,5,3,10,2,1,2,3,7,3,5,21,4,4,2,0,4,32,0,0,0,0,0,0,0,46,0,0,0,0,0,0,3,0,1,
0,1,0,0,24,0,0,19,1,1,37,0,0,0,0,0,0,0,0,0,0,0,0,0,0,0,0,0,3,5,2,2,2,2,1,3,3,3,5,4,14,4,4,1,34,0,0,0,0,0,0,0,0,0,0,0,0,0,0,0,0,1,1,0,
0,0,0,0,0,0,2,21,1,0,0,37,0,0,0,0,0,0,0,0,0,0,0,0,0,0,0,0,2,4,4,5,2,1,1,3,4,6,4,20,3,3,3,2,35,0,0,1,0,0,0,0,0,0,0,0,0,0,0,0,0,1,0,0,
0,0,0,0,0,0,0,13,1,0,0,0,0,0,0,0,0,0,0,0,0,0,0,0,0,0,0,0,2,5,4,3,3,2,3,3,3,5,8,16,4,4,3,1,1,0,0,0,0,0,0,0,0,0,0,0,0,0,0,0,0,0,0,1,
0,2,0,1,0,1,1,2,0,0,0,0,0,0,0,0,0,0,0,0,0,0,29,0,0,0,0,0,3,4,4,2,4,3,1,2,21,10,7,4,3,32,3,31,3,0,0,0,13,0,0,0,0,0,0,0,0,0,0,0,0,3,2,1,
13,0,0,2,0,0,1,0,1,0,47,24,0,0,34,0,0,0,0,0,0,0,0,0,0,0,0,0,1,4,3,4,3,10,1,7,4,5,4,3,3,34,2,46,1,1,2,1,0,0,0,0,0,0,0,0,0,0,0,0,0,0,0,0,
1,12,0,0,0,0,1,0,0,1,47,1,0,35,0,0,0,0,0,0,0,0,0,0,0,0,0,0,2,3,3,3,4,1,0,3,3,5,10,6,41,3,34,2,3,1,0,0,0,0,0,0,0,0,0,0,0,0,0,0,0,1,1,2,
0,0,1,0,0,11,3,0,0,0,0,0,0,0,0,0,0,0,0,0,46,0,0,0,0,0,0,0,2,5,3,3,3,1,3,4,3,33,5,4,5,5,2,1,2,0,0,0,28,0,0,0,0,0,0,0,0,0,0,0,0,2,0,0,
0,0,0,0,16,0,0,1,0,34,0,0,39,0,0,0,0,0,0,0,0,0,0,0,0,0,0,0,3,4,3,3,2,1,1,4,29,3,5,5,3,4,13,1,1,0,0,0,33,0,0,0,0,0,0,0,0,0,0,0,0,1,2,0,
0,0,0,0,0,12,18,1,32,0,0,0,0,47,0,0,0,0,0,0,0,0,0,0,0,0,0,0,2,5,3,4,0,3,1,3,6,4,4,7,45,3,3,3,2,1,1,0,0,33,0,0,0,0,0,0,0,0,0,0,0,1,2,1,
1,0,0,0,4,0,1,20,30,0,0,0,0,0,0,0,0,0,0,0,0,0,0,0,0,0,0,0,1,4,4,1,6,2,3,2,4,5,33,20,5,5,1,1,3,1,31,0,0,0,0,0,0,0,0,0,0,0,0,0,0,1,0,1,
0,0,0,0,0,1,1,2,0,0,37,0,0,0,0,0,0,0,0,44,0,0,0,0,0,0,0,0,3,5,6,3,3,2,1,3,3,4,33,5,5,3,2,1,1,0,0,0,0,0,0,0,0,0,0,0,0,0,0,0,0,0,5,0,
0,0,0,12,0,0,0,0,0,0,0,37,0,0,0,0,0,0,0,0,0,0,0,0,0,0,0,0,1,3,3,3,3,1,1,3,3,4,6,5,46,2,2,2,34,0,1,0,0,0,0,0,0,0,0,0,0,0,0,0,0,1,1,3,
0,1,0,0,12,0,0,0,0,0,0,0,0,0,0,0,0,0,0,0,0,0,0,0,0,0,0,0,4,5,3,5,2,1,1,3,5,14,8,4,7,5,2,35,13,1,0,0,0,0,0,0,0,0,0,0,0,0,0,0,0,1,1,0,
0,1,0,0,0,12,4,0,1,1,0,0,0,0,0,0,0,0,0,0,0,0,0,0,0,0,0,0,3,4,3,4,4,1,2,3,4,12,4,7,3,5,5,1,8,0,1,0,0,26,0,0,0,0,0,0,0,0,0,0,1,1,0,0,
0,0,0,0,0,1,15,0,1,35,1,0,0,0,0,0,0,0,0,0,0,0,0,0,0,0,0,0,0,4,5,3,2,2,11,3,4,6,5,6,5,2,46,2,1,0,0,0,0,0,0,0,0,0,0,0,0,0,0,0,1,0,0,0,
0,1,1,0,0,0,1,18,1,0,0,0,0,0,0,0,0,0,0,0,0,0,0,0,0,0,0,0,1,5,5,2,3,1,2,3,4,5,5,4,18,3,4,3,1,13,32,0,0,0,0,0,0,0,0,0,0,0,0,0,0,1,0,0,
0,0,0,0,0,6,0,19,1,0,37,0,0,0,0,1,46,0,0,0,0,0,0,0,0,0,0,0,3,3,3,3,3,1,15,3,3,3,5,3,3,3,2,2,34,0,0,0,0,0,0,0,0,0,0,0,0,0,0,0,0,0,1,0,
