0,1,7,0,8,7,10,49,48,14,19,49,49,49,33,0,0,0,0,0,6,46,45,0,0,0,0,0,0,49,2,0,3,0,0,5,0,5,10,16,9,49,20,18,24,2,50,0,0,0,3,0,0,1,0,0,0,0,0,0,0,0,0,1,
8,2,0,2,0,1,7,49,5,50,22,49,6,49,0,0,7,20,0,0,0,49,0,0,0,0,0,0,0,0,0,1,1,0,0,1,0,1,8,5,49,50,49,49,33,0,49,1,2,0,0,0,0,0,0,0,0,0,0,0,0,0,0,0,
0,0,49,1,0,8,48,17,49,12,50,47,49,11,3,49,48,49,0,0,3,0,0,0,0,0,0,0,0,0,0,1,0,0,0,4,10,4,14,50,49,7,10,49,49,49,1,0,0,0,0,0,27,0,0,0,0,0,0,0,0,0,0,0,
0,1,1,0,0,1,49,46,49,50,49,49,49,0,0,0,11,0,0,0,0,0,0,0,0,0,0,0,0,0,0,3,1,3,0,0,0,2,49,50,12,49,49,12,12,49,5,49,0,49,0,0,0,0,1,0,0,0,0,0,0,0,0,0,
0,0,49,0,0,47,4,49,50,12,49,6,12,5,0,49,3,0,0,0,0,1,0,0,0,0,0,0,0,0,2,1,0,0,0,3,8,14,4,49,49,4,9,49,5,49,3,0,2,0,2,0,0,8,4,0,0,0,0,0,0,0,0,0,
0,0,48,0,0,4,6,49,48,49,49,49,33,10,0,6,1,0,0,7,1,2,0,0,0,0,0,0,0,0,0,1,1,0,1,19,0,0,16,49,23,50,3,10,25,49,5,0,3,0,0,0,0,0,0,0,0,0,0,0,0,0,1,0,
0,1,0,0,1,1,11,20,25,12,50,49,21,49,11,0,0,0,0,0,0,0,0,0,0,0,0,0,0,0,0,1,3,0,10,2,49,6,48,2,49,7,35,49,50,0,49,0,0,0,0,0,0,2,3,0,0,0,0,0,0,7,0,2,
0,14,0,0,0,48,0,49,49,21,0,49,0,18,46,0,0,0,0,0,0,0,1,0,0,0,0,0,0,0,0,18,0,1,0,4,2,1,49,12,49,50,4,50,49,1,2,5,0,0,0,0,1,0,0,0,0,0,0,0,0,10,0,0,
3,10,0,0,3,47,0,49,20,14,12,50,2,2,15,13,0,0,0,0,0,0,0,25,11,0,0,0,7,0,1,1,0,49,8,0,0,5,12,17,49,20,49,14,18,49,3,0,0,0,0,0,0,0,0,0,2,0,0,0,0,0,10,43,
0,0,0,0,11,1,1,14,49,49,14,49,12,16,28,0,0,0,0,0,0,0,0,0,0,0,0,0,0,0,0,0,0,0,0,0,17,0,49,8,22,49,50,49,9,3,0,0,2,0,0,0,0,0,0,0,0,1,0,0,0,0,0,0,
0,1,0,5,0,1,49,4,50,4,49,21,1,8,50,0,0,0,0,0,0,0,0,0,0,0,0,0,0,0,5,6,0,49,0,4,3,11,3,14,50,50,0,49,49,49,5,0,0,0,0,0,0,1,0,0,0,0,0,0,0,0,16,1,
0,0,3,0,0,41,12,21,49,49,6,49,1,17,9,8,0,49,0,0,0,0,0,0,0,0,0,0,0,0,0,0,0,0,0,0,0,1,8,49,7,50,5,1,20,49,0,50,0,0,0,0,0,0,0,0,0,0,0,0,0,10,1,0,
0,12,0,0,0,1,49,49,50,7,16,50,0,49,0,49,0,0,2,0,0,0,0,0,0,0,0,0,0,0,14,0,0,0,0,0,0,14,10,1,19,50,3,50,6,0,3,0,6,0,22,0,0,0,0,0,0,0,0,0,0,11,0,0,
0,0,1,0,6,47,48,16,49,21,46,49,48,5,0,50,0,0,0,1,0,0,0,0,0,0,0,0,0,0,0,0,0,16,0,0,0,3,8,50,49,20,49,49,46,11,0,0,0,0,0,0,3,1,0,0,0,0,0,0,0,0,0,0,
15,0,0,0,8,0,4,49,46,50,49,19,8,49,48,2,0,0,3,0,0,0,0,0,0,0,0,0,0,0,19,0,0,4,0,0,11,11,1,11,50,49,14,25,4,9,3,3,1,19,0,0,0,0,0,0,0,0,0,0,0,0,15,0,
0,0,0,0,1,0,16,49,26,49,50,49,49,48,48,0,5,0,0,0,0,49,0,0,0,0,0,0,7,0,49,2,1,1,49,0,1,50,3,5,48,21,9,49,16,32,16,0,0,0,0,0,49,0,1,0,0,0,0,0,0,0,11,0,
1,0,0,0,4,3,15,49,49,31,9,12,49,0,8,0,0,0,0,0,0,0,0,0,0,0,0,0,0,7,0,0,4,4,0,0,0,49,3,0,50,49,14,32,25,10,49,0,0,21,0,0,4,1,0,0,1,0,0,0,8,17,10,0,
0,32,0,0,9,2,13,49,49,5,16,49,46,20,0,0,6,0,5,0,0,0,0,0,0,0,0,0,0,0,0,19,7,0,2,0,50,49,10,16,19,9,50,0,9,5,0,0,2,6,0,0,0,0,0,0,0,0,0,0,0,0,0,0,
0,0,0,9,0,42,3,4,49,50,14,50,49,5,0,0,3,0,0,0,0,0,0,0,0,0,0,0,0,0,10,49,0,0,0,0,7,49,2,14,50,49,27,49,17,9,0,16,3,0,12,0,0,0,0,0,0,5,1,0,0,0,0,13,
0,0,0,0,0,4,49,49,50,21,47,49,5,4,49,49,0,0,1,7,0,0,0,2,0,0,0,0,0,9,0,0,49,0,0,0,0,10,1,49,8,50,49,49,49,0,2,19,0,0,0,0,2,0,0,0,0,0,0,0,0,0,11,0,
9,0,0,2,10,3,48,50,49,49,49,27,49,49,0,1,0,7,4,0,0,0,0,0,0,0,0,0,0,0,12,4,0,5,0,0,1,49,0,10,11,49,49,20,28,48,49,3,0,12,0,0,0,0,0,0,0,0,0,0,0,6,3,0,
7,1,0,0,6,3,47,49,49,5,22,34,49,3,0,8,0,1,0,0,0,0,0,7,0,0,0,0,3,3,0,0,0,0,0,0,0,0,0,12,49,49,35,49,8,1,33,0,0,0,1,4,7,0,49,0,0,6,0,0,1,1,11,48,
1,0,39,0,11,14,10,49,49,49,47,48,34,0,0,12,0,0,4,0,0,0,0,0,0,0,0,0,0,0,0,0,7,0,1,0,0,5,3,10,49,10,49,49,34,13,5,1,0,0,0,0,2,0,0,0,0,0,0,0,0,0,0,16,
0,1,0,3,0,0,10,49,49,47,17,49,4,49,1,49,0,0,4,0,1,0,0,0,0,0,0,0,0,0,0,17,1,2,0,0,0,0,0,50,49,26,50,20,49,0,0,6,49,1,0,0,0,0,11,0,0,0,0,0,2,0,8,0,
2,0,0,3,1,48,48,21,44,45,21,49,49,3,0,13,3,0,0,0,1,0,0,0,0,0,0,0,7,0,0,0,49,0,1,0,0,6,49,27,17,49,33,14,17,21,49,0,0,0,0,0,0,1,0,0,0,2,0,0,3,2,12,0,
0,0,0,0,0,0,48,49,49,49,49,14,49,0,9,49,0,0,0,0,0,0,0,4,0,0,0,0,0,0,0,0,49,4,0,2,0,5,1,49,50,49,7,49,49,7,7,1,0,0,0,0,2,0,13,22,0,0,0,0,0,0,24,0,
0,0,0,4,0,1,49,5,49,49,20,49,7,4,39,49,0,0,4,0,2,8,7,0,0,0,0,0,0,0,0,16,8,4,13,1,1,13,16,49,16,49,49,10,0,12,0,21,0,0,1,1,0,0,0,0,0,0,0,0,0,0,2,13,
0,0,0,2,0,0,49,50,11,19,11,1,3,3,7,2,0,0,49,0,0,0,0,0,0,0,0,3,2,0,8,0,0,0,0,0,0,7,7,16,50,13,27,3,49,8,49,0,0,0,0,0,0,0,0,0,0,2,0,0,0,0,0,16,
1,0,0,0,0,18,1,50,7,49,49,50,8,0,49,0,0,0,0,0,0,0,0,0,0,0,0,0,0,0,48,0,2,0,1,3,3,8,10,49,36,50,49,24,3,12,49,0,5,5,0,0,7,0,0,1,1,0,0,0,0,0,14,2,
2,38,0,7,4,49,48,49,10,49,0,10,49,0,0,0,0,0,1,0,0,0,3,0,0,0,0,0,0,0,0,2,49,22,0,0,0,3,23,49,49,49,15,50,19,49,4,2,0,0,0,0,0,0,0,0,0,0,0,0,0,0,3,46,
0,0,0,0,0,18,7,20,49,5,49,49,1,1,0,4,7,0,0,0,0,0,0,0,0,0,0,2,1,0,0,0,2,0,0,0,0,0,7,19,49,50,10,2,49,26,15,3,0,0,0,0,0,0,0,0,0,2,0,0,0,0,12,0,
0,0,0,0,1,1,49,7,48,49,18,49,49,49,0,7,0,0,0,0,14,1,2,7,0,0,0,0,0,0,0,12,0,1,0,0,0,2,7,50,4,49,28,49,0,4,0,0,0,0,0,0,3,5,0,0,0,0,0,0,0,0,15,2,
1,0,0,4,1,49,49,49,49,17,0,49,48,10,8,7,0,0,4,0,0,1,0,0,0,0,0,0,0,0,0,48,2,0,0,0,0,1,2,17,50,49,49,49,7,10,22,18,49,49,0,0,0,0,0,10,0,0,0,0,0,0,15,0,
0,49,0,0,0,16,48,5,50,14,49,12,49,49,7,0,0,0,0,0,0,0,0,0,0,0,0,2,1,0,0,3,6,17,0,0,0,5,7,49,3,16,14,1,0,49,11,49,0,0,0,0,0,0,0,1,0,0,0,0,0,0,16,0,
0,0,0,0,48,0,19,49,10,48,49,49,5,2,50,12,0,0,0,0,0,0,0,0,0,0,0,0,0,0,0,0,5,0,8,0,2,5,21,50,13,50,18,14,50,1,0,0,0,0,30,0,7,0,42,1,0,0,0,0,0,12,0,0,
0,0,12,2,0,10,2,49,49,48,49,49,15,0,0,24,15,2,0,0,0,0,0,0,0,0,0,0,0,0,13,1,7,1,0,1,49,3,0,5,16,50,3,21,22,2,49,49,0,0,0,0,1,5,0,0,0,0,0,0,0,0,14,0,
0,1,0,1,0,49,14,49,28,49,26,49,0,0,0,10,0,0,0,0,0,0,0,0,0,0,0,1,0,0,2,0,49,0,0,0,0,3,1,13,50,3,49,1,8,26,4,49,0,0,2,0,0,3,22,0,0,3,0,0,8,4,0,44,
47,2,0,0,0,7,48,15,49,48,49,49,10,49,49,0,49,0,2,0,2,0,7,1,0,1,0,0,0,0,0,40,0,0,50,0,0,4,49,11,49,49,9,9,49,49,0,18,0,0,1,0,6,0,0,1,0,0,0,0,1,10,0,0,
0,48,0,5,43,49,14,1,49,13,48,50,3,16,49,12,0,4,1,0,0,2,0,0,0,0,0,0,0,0,0,48,16,0,0,0,0,9,22,16,49,24,49,11,49,49,0,6,2,0,0,2,0,3,0,0,0,0,0,0,0,7,10,0,
49,1,0,0,0,47,49,10,23,49,50,49,7,48,0,4,1,49,0,0,1,0,0,0,0,0,0,0,0,49,4,49,3,2,0,0,34,7,1,6,50,40,25,9,15,49,3,1,9,1,0,0,0,48,1,0,0,4,0,0,1,7,2,2,
0,33,0,0,49,6,49,49,17,49,49,49,48,12,0,0,0,7,0,2,0,0,47,1,0,0,0,0,0,0,49,0,0,0,3,0,2,49,4,50,11,49,15,50,49,35,50,0,0,0,0,0,4,0,0,0,0,0,0,0,0,0,0,0,
0,30,0,0,0,49,4,49,49,50,49,8,49,49,3,49,0,5,1,0,0,0,0,0,0,0,0,0,0,0,49,0,1,0,0,0,1,8,49,13,7,3,20,49,6,49,1,5,0,0,0,0,0,0,0,0,0,0,0,0,1,10,6,0,
9,0,0,0,0,47,1,13,50,49,12,8,48,0,5,3,0,0,0,0,0,0,3,0,0,0,0,5,0,0,0,5,25,1,0,7,4,0,7,50,8,2,49,49,15,16,17,6,0,1,0,0,0,0,0,0,0,1,0,0,0,0,10,0,
1,8,0,7,0,47,10,5,49,42,14,49,49,1,0,49,0,0,0,0,6,0,1,0,0,0,0,0,1,0,0,0,1,0,0,0,5,5,3,8,49,50,49,14,9,0,4,0,0,5,0,0,0,0,0,47,0,0,0,0,0,0,0,17,
0,0,4,2,0,48,49,18,48,48,14,48,0,13,5,0,11,6,0,0,0,0,0,0,0,0,0,0,0,12,0,8,5,0,0,0,0,0,13,49,14,17,20,1,23,49,2,1,0,1,4,0,0,0,1,0,0,0,0,0,0,10,0,0,
0,48,0,3,0,49,20,8,48,37,12,48,49,5,1,49,0,0,0,0,0,0,0,0,0,0,0,5,0,0,10,1,10,0,0,0,0,0,8,16,50,7,16,49,10,26,4,0,0,0,0,0,0,0,0,10,0,5,0,0,0,8,0,0,
0,0,0,0,0,46,15,49,44,9,48,49,49,21,2,0,0,0,0,0,0,0,0,0,0,0,0,0,0,0,11,0,0,0,2,13,4,5,48,8,50,12,49,3,2,19,8,7,0,0,49,0,5,0,0,1,0,0,0,0,0,6,0,11,
1,5,5,2,10,35,12,12,49,49,49,49,49,0,0,0,10,5,32,0,0,0,0,0,0,0,0,0,5,0,1,0,1,16,0,7,12,0,49,50,49,49,49,19,49,9,41,5,0,0,1,0,1,0,0,0,0,0,0,0,0,1,3,0,
0,1,0,0,5,48,5,49,12,39,49,13,45,10,8,21,0,0,0,0,49,0,10,0,0,0,0,3,0,0,0,0,1,0,0,4,1,8,8,50,49,16,49,49,20,50,1,6,0,0,0,1,0,0,0,0,0,5,0,0,0,0,0,12,
0,0,0,1,5,0,48,50,14,9,49,21,32,11,9,0,0,2,0,0,0,0,5,0,0,0,0,0,0,0,0,0,0,14,0,13,1,4,3,12,49,33,50,49,48,41,0,8,0,0,0,0,4,0,0,0,0,0,0,0,0,0,0,0,
