1,5,0,0,0,0,17,1,10,18,50,12,0,22,0,17,0,0,0,0,0,0,3,0,0,0,0,0,0,0,0,1,1,0,0,0,1,7,6,2,0,49,25,16,46,13,0,4,0,3,0,0,0,0,2,1,0,0,0,0,0,0,0,21,
1,2,0,1,0,1,5,1,16,4,50,28,30,0,0,30,0,0,0,0,10,0,16,13,1,0,0,0,0,0,1,3,6,0,0,0,11,8,5,6,7,49,2,10,24,7,5,29,1,1,0,3,0,42,0,49,0,0,0,0,0,0,0,0,
0,0,0,7,23,5,5,15,17,49,19,13,10,49,14,23,0,0,0,0,0,0,0,0,0,0,0,0,0,0,3,0,1,0,0,3,6,4,7,49,10,4,5,0,13,49,4,0,2,0,0,0,0,0,12,0,0,0,0,0,0,0,0,0,
3,1,0,6,0,3,6,1,3,49,16,12,26,19,0,0,0,4,0,16,0,0,0,0,0,17,0,0,0,0,0,0,0,0,5,0,7,7,4,2,49,13,1,7,9,10,7,4,7,3,49,0,0,3,2,0,0,0,0,0,0,0,0,0,
2,4,0,0,2,5,30,7,0,50,15,23,0,20,20,18,0,8,0,0,0,5,0,15,0,0,0,0,0,0,0,0,2,0,0,5,1,7,4,5,16,9,12,28,49,5,3,0,0,0,1,3,0,1,0,3,0,0,0,0,0,0,0,0,
0,5,0,7,3,0,2,2,49,23,15,50,11,31,0,10,0,0,0,0,0,0,21,0,0,0,0,0,0,0,0,6,0,4,5,4,4,6,6,17,49,15,5,50,49,11,0,1,8,3,0,0,0,25,0,0,0,0,0,0,0,0,0,1,
0,2,0,0,4,4,4,5,49,18,16,15,5,7,5,22,12,0,21,1,0,0,20,0,0,0,0,0,0,0,3,0,1,11,3,0,6,5,0,14,14,1,49,10,10,49,7,2,2,0,0,0,0,0,0,5,0,3,0,0,0,0,0,3,
3,0,1,0,3,49,3,7,8,50,14,33,16,0,19,7,0,4,7,0,0,4,12,3,0,0,0,0,0,0,0,5,5,3,0,3,5,4,7,21,10,49,7,12,11,2,6,49,4,0,5,0,0,0,2,7,1,5,0,0,0,0,0,0,
7,2,3,0,2,1,9,6,49,49,22,28,19,8,0,6,0,0,50,0,0,14,2,0,0,0,0,0,0,0,1,0,8,0,0,5,3,3,49,3,38,25,3,49,19,6,8,3,3,0,0,0,4,0,0,0,0,0,0,0,0,0,0,0,
0,3,0,3,0,7,1,8,50,16,12,3,4,6,6,0,0,26,0,9,0,1,8,0,0,0,0,0,0,0,4,48,4,0,3,26,5,7,8,9,49,10,6,10,5,3,3,16,6,49,0,0,0,0,0,0,0,0,0,0,0,0,0,3,
0,1,0,0,0,7,0,7,14,17,49,10,10,5,4,27,0,0,0,0,0,0,0,0,0,0,0,0,0,0,6,3,8,7,0,9,5,8,15,7,49,12,7,15,49,33,12,10,6,3,0,0,4,7,0,0,0,0,0,0,0,0,0,0,
3,0,0,3,2,3,5,3,29,13,50,8,32,33,2,3,20,1,5,0,0,0,0,0,0,0,0,0,0,0,4,0,8,5,49,0,0,6,11,10,9,49,13,49,10,8,9,8,8,0,0,49,0,8,5,6,9,0,0,0,0,0,0,5,
2,1,0,0,2,5,0,10,14,50,17,10,35,18,29,0,0,5,5,2,3,8,0,14,0,0,0,0,0,0,3,5,2,7,0,0,11,5,11,17,4,14,49,16,20,7,1,7,1,0,0,0,2,0,0,0,0,0,0,0,0,0,0,0,
1,5,0,1,0,8,0,12,50,21,0,21,25,8,5,0,50,0,0,21,5,10,0,0,0,0,0,0,0,0,0,7,5,7,0,4,0,9,14,49,6,15,7,49,18,19,11,4,0,10,0,0,49,3,7,1,0,0,0,0,0,0,0,0,
0,4,0,3,0,0,2,16,50,13,13,16,12,31,8,50,5,0,4,3,0,0,12,14,0,0,0,0,0,0,0,14,4,3,1,4,3,8,6,50,10,16,7,50,7,12,6,0,0,0,9,1,0,0,0,0,2,0,0,0,0,0,0,0,
0,0,0,3,4,5,5,7,21,50,0,10,7,13,2,1,0,0,0,0,0,7,0,0,0,0,0,0,0,0,2,7,1,0,8,1,0,7,49,16,16,49,10,8,49,49,10,14,15,0,0,4,0,0,5,0,0,0,0,0,0,0,0,0,
0,0,0,1,1,3,5,3,22,17,50,24,20,15,6,0,0,25,0,1,0,0,0,0,9,0,0,0,0,0,2,6,2,3,7,3,1,2,7,17,7,14,39,49,12,5,14,1,0,3,0,3,0,0,1,0,0,0,0,0,0,0,0,1,
4,1,1,1,0,3,9,3,12,49,48,11,0,22,0,0,0,3,0,0,0,0,0,0,0,0,0,0,0,0,5,2,4,49,0,16,6,11,9,7,10,49,14,15,49,48,15,7,3,0,3,3,2,5,2,2,0,0,0,0,0,0,0,2,
0,3,0,0,1,4,4,14,49,17,20,12,18,3,35,0,0,0,3,7,0,0,0,6,0,0,0,0,0,0,5,0,2,3,0,0,2,0,12,16,10,17,50,5,12,12,1,1,7,19,2,0,2,6,3,2,0,0,0,0,0,0,0,7,
5,0,0,1,3,0,9,6,49,10,14,16,7,5,25,49,0,0,0,0,0,28,3,0,0,0,0,0,0,0,5,3,8,1,1,0,4,15,8,6,12,10,8,21,4,49,31,7,0,5,0,0,0,8,0,0,0,0,0,0,0,0,0,1,
3,0,2,2,1,0,9,3,20,16,19,12,27,15,16,0,19,0,0,0,0,0,0,0,1,0,0,0,0,0,0,4,1,0,2,5,0,3,15,9,14,5,49,4,14,13,1,7,0,0,0,0,49,0,6,3,0,0,0,0,0,0,1,1,
3,0,7,0,1,1,5,2,23,49,5,27,49,49,8,0,0,10,0,0,2,13,5,0,0,0,0,0,0,0,6,5,4,5,0,0,3,3,7,17,49,10,21,17,1,12,3,3,5,0,10,5,4,0,0,0,0,0,0,0,0,0,23,33,
1,0,0,0,0,10,4,6,12,8,14,49,19,17,13,12,22,1,0,14,12,6,1,0,0,0,0,0,0,3,0,2,0,0,4,3,2,5,12,5,6,50,22,34,1,14,49,0,17,0,0,0,6,7,0,0,0,0,0,0,0,0,1,0,
2,0,0,0,5,0,13,11,5,49,22,20,7,27,24,19,17,3,9,0,0,0,0,0,0,0,0,0,0,0,1,3,4,0,0,3,5,10,7,13,6,17,14,49,16,9,0,11,32,4,0,0,0,0,0,0,0,0,0,0,0,0,0,0,
5,0,0,0,0,3,10,10,12,17,17,49,25,4,0,2,28,5,0,1,0,0,0,0,0,0,0,0,0,0,0,0,8,1,0,0,4,7,9,8,12,49,19,13,21,18,2,22,0,42,8,0,16,0,9,0,0,0,0,0,0,0,0,0,
0,0,1,0,1,0,3,12,14,16,22,0,33,10,23,8,0,0,0,0,1,0,0,0,0,0,0,0,0,1,3,2,3,7,1,0,0,7,1,9,15,12,14,13,49,6,5,7,2,0,0,0,7,0,0,12,0,0,0,0,0,0,1,1,
1,0,0,3,0,1,5,14,23,10,49,16,17,8,7,0,21,0,0,0,0,0,0,0,0,0,0,0,0,0,7,6,1,0,5,0,10,6,12,13,14,10,15,22,1,49,39,15,10,0,16,0,7,0,0,0,0,0,0,0,0,0,0,1,
0,1,0,2,1,5,3,49,19,9,7,17,7,15,21,12,11,1,8,0,0,1,0,0,0,0,0,0,0,0,0,5,5,0,5,5,1,5,12,50,12,6,14,11,32,5,13,7,0,0,0,0,0,6,0,0,0,0,0,0,0,0,0,0,
0,0,0,0,12,0,8,19,21,16,49,1,5,2,0,8,0,0,0,0,4,15,7,0,0,0,0,0,0,0,4,1,5,2,6,4,7,1,16,12,14,49,12,10,9,13,7,0,0,0,0,0,13,0,0,8,0,0,0,0,0,0,0,0,
5,0,0,0,1,1,1,13,15,12,49,1,13,11,0,7,23,0,0,0,0,0,0,0,0,0,0,0,0,4,2,6,1,7,0,0,10,6,7,2,5,49,8,10,14,49,9,7,0,0,0,0,8,0,8,6,0,0,0,0,0,0,0,1,
1,1,0,0,4,2,2,20,11,49,23,35,14,6,12,10,8,49,0,0,2,0,3,0,0,0,0,0,0,0,1,1,7,3,0,0,8,1,6,7,7,49,49,14,7,49,12,0,0,0,0,0,1,0,12,0,0,0,0,0,0,0,0,1,
1,1,1,0,0,5,4,12,1,10,12,0,3,0,10,35,0,0,2,2,0,15,0,0,0,0,0,0,0,0,0,5,2,6,0,0,3,14,12,10,16,18,49,9,49,14,12,1,14,0,0,0,0,7,1,0,0,0,0,0,0,0,0,0,
48,2,0,0,0,7,12,49,9,17,17,3,49,5,13,0,3,0,0,21,2,0,0,4,0,0,0,0,0,0,8,6,5,6,6,0,5,2,15,6,12,11,21,10,8,49,0,14,6,0,0,0,0,8,6,0,0,0,0,0,0,0,0,1,
0,0,0,5,1,12,1,14,36,49,12,26,20,31,10,24,49,3,0,12,0,0,0,0,0,0,0,0,0,0,0,6,2,5,0,0,3,10,16,6,49,14,17,7,49,7,16,14,5,1,0,0,0,0,0,0,0,0,0,0,0,0,0,2,
1,0,0,0,5,0,5,16,13,50,4,32,19,5,0,0,0,0,18,2,0,0,0,0,0,0,0,0,0,0,2,3,5,1,7,9,0,10,9,10,49,12,7,37,18,19,14,49,3,0,0,0,3,0,0,6,0,0,0,0,0,0,0,1,
21,3,0,0,4,5,49,12,14,23,13,28,2,10,49,0,0,0,17,0,0,0,0,0,0,0,0,0,0,1,10,1,8,8,2,0,0,8,2,49,17,11,49,15,10,15,7,3,5,0,0,0,25,0,10,0,0,0,0,0,0,0,0,0,
6,4,0,3,3,5,6,10,17,16,50,17,19,9,49,9,1,0,0,0,0,3,7,1,0,0,0,0,0,0,5,1,3,0,10,7,0,5,12,22,50,12,15,8,6,17,49,5,0,0,0,0,3,6,0,1,0,0,0,0,0,0,0,4,
0,0,2,0,0,4,49,14,5,25,50,26,15,8,5,19,0,5,0,25,0,4,0,0,0,0,0,0,0,0,1,11,8,1,0,8,0,5,7,12,9,33,10,13,50,25,11,5,5,0,0,0,6,6,7,0,0,0,0,0,0,0,0,4,
1,2,4,0,4,0,0,16,25,50,16,50,21,16,0,5,21,1,0,0,7,0,0,12,13,0,0,0,0,0,5,10,1,2,0,1,5,14,8,12,8,49,6,50,9,11,12,0,1,0,4,4,0,0,0,5,0,0,0,0,0,0,1,0,
5,3,0,3,6,0,10,11,18,29,25,2,35,8,9,1,24,9,26,0,0,0,0,49,0,0,0,0,0,0,4,0,9,0,0,9,10,4,12,12,9,9,49,17,10,22,10,8,0,3,0,0,0,0,7,0,0,0,0,0,0,0,0,0,
8,0,2,0,0,11,9,16,23,17,33,49,19,26,28,18,0,0,0,0,0,0,12,0,0,0,0,0,0,0,0,3,7,8,2,7,4,3,16,10,49,47,47,23,49,7,18,10,0,0,0,0,0,8,8,0,5,0,0,0,0,0,0,0,
5,2,0,5,1,4,19,49,5,22,11,48,19,4,8,5,0,0,0,21,0,0,24,0,0,0,0,0,0,0,3,0,1,4,5,0,0,7,8,4,49,8,21,49,14,8,12,32,2,0,0,0,0,9,0,3,0,0,0,0,0,0,2,2,
0,2,0,0,0,15,11,9,50,12,23,16,47,0,16,8,5,0,0,8,5,0,0,2,4,0,0,0,0,0,3,5,5,1,5,7,0,38,5,14,11,13,49,14,50,10,4,25,12,0,49,3,0,0,0,9,0,0,0,0,0,0,0,1,
3,0,0,0,0,8,1,17,49,10,49,15,27,8,13,0,1,0,2,9,7,2,15,0,2,0,0,0,0,0,8,1,3,2,7,1,3,2,9,8,50,8,13,19,25,49,10,1,5,0,5,5,0,0,9,23,0,0,0,0,0,1,0,49,
3,2,0,5,4,6,6,6,18,12,14,4,35,22,0,49,1,1,20,2,7,0,0,0,0,0,0,0,0,0,1,9,8,7,0,9,3,4,1,49,8,49,12,49,17,26,21,0,0,4,0,0,10,0,0,0,9,0,0,0,0,0,0,0,
5,5,0,7,2,18,0,49,24,23,30,14,49,32,2,19,9,7,0,16,5,0,0,8,9,0,0,0,0,0,0,6,9,8,0,3,0,5,17,9,50,6,12,14,50,0,10,11,7,13,0,0,0,7,0,0,0,0,0,0,0,0,0,7,
0,1,8,3,0,0,15,11,26,3,22,29,15,19,17,12,0,26,0,0,7,22,0,0,0,0,0,0,0,0,1,4,5,0,7,3,8,4,6,14,13,49,12,12,49,7,8,0,14,0,18,0,0,4,16,2,0,0,0,0,0,0,0,1,
0,6,0,6,7,2,5,8,8,49,15,49,12,21,39,11,0,0,0,0,0,2,1,0,0,0,0,0,0,0,6,8,3,0,7,0,1,14,8,12,49,22,49,21,12,5,13,3,8,42,24,0,0,0,5,1,0,0,0,0,0,0,0,0,
0,3,49,2,1,0,7,19,11,49,36,13,13,16,37,2,0,0,0,0,0,0,0,0,0,0,0,0,0,1,40,49,4,2,11,0,3,11,5,7,11,12,4,50,28,10,7,12,3,10,0,0,0,0,3,0,0,0,0,0,0,0,0,0,
0,0,0,0,0,7,0,13,16,49,14,8,19,49,2,18,0,0,8,0,0,5,0,0,0,0,0,0,0,0,3,6,2,0,8,10,5,2,9,20,6,50,49,12,19,19,22,9,6,0,0,0,0,0,0,9,0,0,0,0,0,0,0,4,
