0,0,0,0,0,0,1,2,12,0,8,11,7,10,0,5,5,1,0,2,10,0,0,0,0,0,0,0,0,0,0,0,0,0,0,0,0,0,0,1,0,0,5,2,6,1,0,1,0,1,0,0,0,0,0,0,0,0,0,0,0,0,0,0,
0,0,0,0,0,0,3,1,1,8,12,2,8,2,1,11,2,1,0,0,0,0,0,0,6,0,0,0,0,0,0,0,0,0,0,0,0,0,3,0,4,0,8,7,1,5,3,0,0,2,0,2,0,0,0,0,0,0,0,0,0,0,0,0,
0,0,0,0,0,0,0,0,2,1,5,5,19,16,3,5,1,0,1,3,0,0,3,0,0,0,0,0,0,0,0,0,0,0,0,0,0,0,0,0,1,0,4,12,0,4,3,1,1,0,0,0,0,0,0,0,0,0,0,0,0,0,0,0,
0,0,0,0,0,0,1,0,14,10,21,11,11,11,7,9,1,2,0,4,4,1,0,0,0,0,0,0,0,0,0,0,0,0,0,0,0,0,0,0,6,0,2,0,9,6,3,0,3,1,0,1,1,0,2,0,0,0,0,0,0,0,0,0,
0,0,1,0,0,0,0,0,7,5,16,5,12,5,1,0,0,6,0,0,0,0,1,1,0,0,0,0,0,0,0,0,0,0,0,0,0,0,0,0,0,3,5,0,9,1,0,0,0,0,2,0,0,0,0,0,1,0,0,0,0,0,0,0,
0,0,0,0,0,0,0,12,3,10,17,5,3,3,6,0,0,0,0,1,0,0,0,0,0,0,0,0,0,0,0,0,0,0,0,0,0,0,1,0,4,3,1,3,5,5,0,12,4,0,0,0,0,0,0,0,0,0,0,0,0,0,0,0,
0,0,0,0,0,0,0,6,13,1,13,5,7,17,20,0,8,0,0,1,0,0,0,0,0,0,0,0,0,0,0,0,0,0,0,0,0,0,0,0,0,5,9,0,3,2,5,0,0,0,0,0,0,0,5,0,0,0,0,0,0,0,0,0,
0,0,0,0,4,0,3,2,8,11,15,6,11,0,4,2,1,3,0,0,1,0,0,0,0,0,0,0,0,0,0,0,0,1,0,0,0,0,0,0,3,3,1,2,12,11,4,0,5,0,0,1,0,0,0,0,0,0,0,0,0,0,0,0,
0,0,1,1,0,0,6,4,9,5,3,5,8,7,8,0,17,5,0,0,5,0,0,0,0,0,0,0,0,0,0,0,0,0,0,0,0,0,0,0,1,10,2,2,6,17,5,0,0,7,0,1,0,0,0,0,0,0,0,0,0,0,0,0,
0,0,0,0,1,0,1,3,2,15,2,18,5,8,19,10,1,0,0,0,11,0,0,1,0,0,0,0,0,0,0,0,0,0,0,0,0,0,0,5,0,1,5,1,2,1,1,7,0,0,0,5,1,0,0,0,0,0,0,0,0,0,0,0,
0,0,0,0,0,1,8,0,13,17,10,49,1,4,11,0,0,0,0,0,1,0,0,0,0,0,0,0,0,0,0,0,0,0,0,0,0,0,0,6,0,8,8,5,4,0,2,7,0,0,0,0,0,1,0,0,0,0,0,0,0,0,0,0,
0,0,0,0,0,0,2,3,3,1,15,5,10,1,7,1,1,0,12,1,2,0,1,0,0,0,0,0,0,0,0,0,0,0,0,0,0,2,2,1,48,0,7,2,0,0,11,0,0,0,0,0,0,0,0,0,2,0,0,0,0,0,0,0,
0,0,0,0,0,0,0,8,3,6,5,16,7,4,17,5,0,0,2,2,0,0,0,0,0,0,0,0,0,0,0,0,0,0,0,0,0,0,0,0,0,0,7,3,0,3,0,1,0,0,0,0,0,2,0,0,0,0,0,0,0,0,0,0,
0,0,0,0,0,0,2,0,8,8,2,5,10,10,6,3,12,3,0,1,0,0,0,0,3,0,0,0,0,0,0,0,0,0,0,0,0,0,0,8,0,1,1,8,6,10,0,0,8,0,0,0,1,0,0,0,0,0,0,0,0,0,0,0,
0,1,0,0,0,1,1,3,1,14,9,14,9,8,12,2,0,0,2,0,0,0,1,0,0,0,0,0,0,0,0,0,0,0,0,0,0,0,1,1,0,5,0,4,11,11,0,0,0,2,0,0,0,0,1,0,0,0,0,0,0,0,0,0,
0,0,0,0,0,0,0,2,5,14,11,1,15,1,1,1,4,1,1,0,1,1,2,0,0,0,0,0,0,0,0,0,0,0,0,0,0,0,1,0,1,3,4,6,3,3,1,0,2,0,0,0,0,0,0,0,0,0,0,0,0,0,0,0,
0,0,0,0,0,0,1,1,2,12,5,6,10,17,1,9,0,3,0,0,15,0,1,0,0,0,0,0,0,0,0,0,0,0,0,0,0,0,0,0,8,1,3,0,9,4,5,0,0,0,0,0,0,0,0,0,0,0,0,0,0,0,0,0,
0,0,0,0,0,0,1,0,0,12,6,10,1,6,11,8,2,7,0,0,0,0,0,4,0,0,0,0,0,0,0,0,0,0,0,0,0,0,0,0,1,10,3,4,5,1,3,2,0,0,0,0,0,0,0,0,0,0,0,0,0,0,0,0,
0,0,0,0,0,0,0,4,1,2,9,8,13,0,2,9,1,0,0,0,2,0,4,0,0,0,0,0,0,0,0,0,0,0,0,0,0,0,0,4,6,5,49,1,3,17,0,0,2,0,0,0,0,0,2,0,0,0,0,0,0,0,0,0,
0,0,0,0,0,0,0,7,1,6,6,6,10,4,10,3,0,0,3,0,3,0,0,1,0,0,0,0,0,0,0,0,0,0,0,0,0,0,0,0,0,2,2,0,8,3,3,3,0,1,0,0,0,0,0,0,1,0,0,0,0,0,0,0,
0,1,0,0,0,0,1,0,12,3,6,8,7,5,8,0,2,5,10,0,0,0,0,0,0,0,0,0,0,0,0,0,0,0,1,0,0,0,1,0,1,1,3,0,12,0,0,0,0,0,0,0,0,0,0,0,0,0,0,0,0,0,0,0,
0,0,0,0,0,0,0,1,6,1,9,10,7,4,12,0,0,0,5,0,0,0,0,0,0,0,0,0,0,0,0,0,0,0,0,0,0,1,0,0,1,1,1,4,2,10,10,0,0,0,0,0,0,0,0,0,0,0,0,0,0,0,0,0,
0,0,0,0,0,0,1,0,10,8,7,6,12,0,0,0,14,1,0,0,0,1,1,0,0,0,0,0,0,0,0,0,0,0,0,0,0,0,0,1,5,0,0,1,0,7,0,11,2,0,0,0,0,0,0,0,0,0,0,0,0,0,0,0,
0,0,1,0,0,1,1,0,1,0,0,9,5,1,1,1,1,12,0,0,0,1,11,0,0,0,0,0,0,0,0,0,0,0,0,0,0,0,7,0,1,3,0,7,5,2,3,0,4,0,0,0,0,0,0,6,0,0,0,0,0,0,0,0,
0,0,0,0,0,0,2,0,6,7,5,1,9,13,3,2,2,0,8,0,0,0,1,0,0,0,0,0,0,0,0,0,0,0,0,0,0,0,0,0,1,11,10,4,1,0,0,1,1,0,6,0,0,0,0,0,0,4,0,0,0,0,0,0,
0,0,0,0,1,0,0,3,0,7,7,14,5,15,3,10,7,0,2,1,0,0,0,0,1,0,0,0,0,0,0,0,0,0,0,0,0,0,0,0,0,4,10,0,6,16,2,0,0,0,0,0,0,0,0,0,0,0,0,0,0,0,0,0,
0,0,0,0,0,0,0,7,2,3,7,9,5,7,8,1,5,0,15,0,0,0,3,3,0,0,0,0,0,0,0,0,0,0,0,0,0,0,0,0,6,3,1,5,0,1,3,3,1,0,0,0,0,1,1,0,0,0,0,0,0,0,0,0,
0,0,1,0,0,0,2,7,7,8,4,3,9,24,17,9,5,2,0,0,0,0,0,0,0,0,0,0,0,0,0,0,0,0,2,0,0,0,0,0,1,7,2,2,1,1,12,0,0,0,1,5,0,0,0,0,0,0,0,0,0,0,0,0,
0,0,0,1,0,0,0,0,2,3,6,12,4,6,0,0,0,1,0,0,0,0,0,0,0,0,0,0,0,0,0,0,0,1,0,0,0,0,0,0,0,1,8,4,49,3,1,1,0,0,1,0,0,0,1,0,0,0,0,0,0,0,0,0,
0,0,0,0,0,0,1,2,17,16,15,5,6,11,10,5,11,1,0,1,0,7,0,0,0,0,0,0,0,0,0,0,0,0,0,0,1,3,0,0,15,1,10,4,1,3,1,2,0,0,0,0,0,0,0,0,0,0,0,0,0,0,0,0,
0,0,0,0,0,0,0,9,2,3,14,12,4,15,7,1,5,0,0,0,0,0,0,0,0,0,0,0,0,0,0,0,0,0,0,0,0,0,0,1,0,8,3,1,1,6,0,0,0,5,0,1,0,0,0,0,0,0,0,0,0,0,0,0,
0,0,0,0,4,0,1,2,21,11,9,9,7,7,2,1,0,1,1,0,6,0,0,0,0,0,0,0,0,0,0,0,0,0,0,0,0,0,3,2,1,1,4,11,0,1,3,7,0,2,0,0,0,0,0,0,0,0,0,0,0,0,0,0,
0,0,0,0,0,0,0,6,17,6,4,8,9,2,2,12,0,1,0,0,0,0,0,0,3,0,0,0,0,0,0,0,0,0,0,0,0,0,1,0,1,7,0,5,2,2,5,6,8,0,0,0,0,0,0,0,0,0,0,0,0,0,0,0,
0,0,0,0,1,1,3,0,1,10,8,8,21,4,0,2,13,0,0,0,5,0,0,2,0,0,0,0,0,0,0,0,0,0,0,0,0,0,0,0,0,5,0,3,0,10,1,4,0,0,0,10,0,0,0,0,0,0,0,0,0,0,0,0,
0,0,0,0,0,0,2,1,7,6,8,2,4,2,13,11,3,1,0,2,0,0,0,0,0,0,0,0,0,0,0,0,0,0,0,0,0,0,0,0,1,0,9,1,1,0,0,0,3,0,0,0,0,0,0,0,0,0,0,0,0,0,0,0,
0,0,0,0,0,1,0,0,13,7,7,10,10,4,7,1,0,1,0,1,3,0,3,0,0,0,0,0,0,0,0,0,0,0,0,0,0,0,3,1,2,1,6,0,5,1,8,3,0,0,0,0,0,0,0,0,0,0,0,0,0,0,0,0,
0,0,0,0,0,0,2,1,8,7,9,7,14,10,4,0,0,0,0,0,0,1,7,0,0,0,0,0,0,0,0,0,0,0,0,0,0,0,0,0,0,0,0,2,5,0,5,0,7,0,0,0,1,0,0,0,0,0,0,0,0,0,0,0,
0,0,0,0,0,0,4,0,7,10,7,5,12,6,4,2,14,0,7,0,0,0,5,10,0,0,0,0,0,0,0,0,0,0,0,0,0,0,0,1,1,5,4,9,8,3,2,0,0,0,0,0,0,0,0,0,0,0,0,0,0,0,0,0,
0,0,1,0,0,0,1,1,2,2,16,16,0,10,8,10,1,0,0,5,0,0,5,0,0,0,0,0,0,0,0,0,0,0,0,0,0,0,0,3,0,14,2,3,2,0,3,0,0,0,0,0,0,0,0,0,0,0,0,0,0,0,0,0,
0,0,0,0,0,0,0,5,4,7,9,8,3,10,2,0,9,0,1,0,0,0,0,0,7,0,0,0,0,0,0,0,0,0,0,0,0,0,2,1,1,9,4,1,0,0,2,1,0,0,0,0,0,0,0,0,0,0,0,0,0,0,0,0,
0,0,0,0,0,3,0,7,12,14,8,11,11,8,14,0,3,0,0,0,1,0,3,0,0,0,0,0,0,0,0,0,0,0,0,0,0,0,0,0,3,3,1,5,1,0,9,0,3,1,0,0,0,0,0,0,0,0,0,0,0,0,0,0,
0,0,0,0,1,2,2,12,9,3,10,10,5,11,1,9,13,1,1,0,7,0,0,0,0,0,0,0,0,0,0,0,0,0,0,0,0,0,0,11,0,4,3,2,8,1,2,9,0,0,0,3,0,0,0,0,0,0,0,0,0,0,0,0,
0,0,0,0,0,0,1,4,10,6,17,8,8,3,3,3,5,0,0,5,0,4,0,0,2,0,0,0,0,0,0,0,0,0,0,0,0,0,3,3,1,8,2,12,1,2,1,0,0,1,1,0,0,0,0,0,0,0,0,0,0,0,0,0,
0,0,1,0,6,0,3,3,8,5,14,8,11,12,9,3,3,7,0,0,0,0,7,0,2,0,0,0,0,0,0,0,0,0,0,0,0,0,0,3,0,3,1,1,2,1,4,1,4,0,0,1,0,0,0,0,0,0,0,0,0,0,0,0,
0,0,0,0,0,0,0,7,3,5,8,10,17,2,8,16,0,7,0,0,0,7,0,0,0,3,0,0,0,0,0,0,0,0,0,0,0,0,0,0,2,1,6,5,10,17,0,4,2,0,0,0,0,0,0,0,0,0,0,0,0,0,0,0,
0,0,0,0,0,1,5,2,7,23,13,14,8,11,0,6,0,0,8,0,0,7,0,0,0,0,0,0,0,0,0,0,0,0,0,0,0,0,1,0,1,7,1,16,5,2,7,1,0,0,0,0,0,0,0,0,0,0,0,0,0,0,0,0,
0,0,0,0,0,0,3,3,9,10,5,5,10,1,4,3,11,0,1,1,0,0,2,0,0,0,0,0,0,0,0,0,0,0,1,0,0,2,1,0,4,8,0,7,14,2,0,3,1,0,0,0,0,0,1,0,5,0,0,0,0,0,0,0,
0,0,0,0,0,0,0,3,12,8,11,7,7,1,4,7,1,0,0,0,0,0,0,6,0,0,0,0,0,0,0,0,0,0,0,0,0,0,0,0,3,0,2,3,1,0,3,2,3,0,0,0,0,0,0,0,0,0,0,0,0,0,0,0,
0,0,0,0,0,0,2,0,9,2,19,8,13,2,1,25,1,5,1,4,0,0,0,2,0,0,0,0,0,0,0,0,0,0,0,0,0,1,0,0,0,13,2,12,1,3,1,2,1,0,0,0,0,0,0,0,0,0,0,0,0,0,0,0,
0,0,1,0,0,0,2,7,8,8,8,7,5,2,7,3,0,0,5,0,0,0,0,5,1,0,0,0,0,0,0,0,0,0,0,0,0,0,0,3,1,3,1,3,7,1,3,1,0,2,3,0,0,0,0,7,0,0,0,0,0,0,0,0,
