0,0,0,1,0,0,2,7,8,16,9,8,6,0,6,5,11,0,0,0,0,0,0,0,0,0,0,0,0,17,0,0,0,0,0,0,1,0,0,1,1,8,5,16,5,6,1,0,1,0,5,1,0,7,0,0,0,0,0,0,0,0,0,0,
0,0,0,3,0,0,1,1,3,6,8,7,12,9,4,12,1,8,0,0,0,4,1,0,0,0,0,0,0,0,0,3,1,1,0,0,0,1,1,1,3,10,5,0,14,0,17,6,0,8,0,0,1,0,5,0,0,0,0,0,0,0,0,0,
0,0,1,0,0,1,0,6,10,7,16,16,13,21,10,7,0,5,11,1,0,6,1,0,0,0,0,0,0,0,0,28,0,7,1,0,0,0,1,3,2,10,10,10,0,0,1,0,0,0,0,0,0,0,0,0,0,0,0,0,0,0,0,0,
0,0,0,0,0,2,1,2,11,5,16,16,25,11,0,0,9,0,7,7,0,0,0,0,0,0,0,0,0,0,0,0,0,0,0,0,0,0,2,3,0,10,5,18,5,8,1,1,0,0,0,0,0,9,0,0,0,0,0,0,0,0,0,0,
0,0,0,0,1,0,1,5,5,20,10,16,7,5,5,12,7,0,8,0,0,1,1,0,0,0,0,0,0,0,0,0,0,2,0,0,0,0,2,4,1,8,7,3,1,3,3,1,0,0,0,16,0,0,0,0,0,0,0,0,0,0,0,0,
1,0,1,0,0,2,2,0,10,5,16,8,12,8,11,0,3,0,3,0,0,0,2,0,4,0,0,0,0,0,0,1,0,0,0,0,1,0,6,0,7,8,1,8,1,3,3,1,0,11,0,0,0,0,0,0,0,0,0,0,0,0,0,0,
0,0,0,2,0,0,1,3,12,10,10,11,1,7,24,3,6,0,0,0,0,0,0,0,0,6,0,0,0,0,0,0,0,0,0,0,0,0,0,1,12,2,11,16,2,3,1,1,15,7,1,0,2,0,0,0,0,0,0,0,0,0,0,0,
0,0,0,0,0,0,3,5,6,9,49,2,5,8,0,2,0,6,1,0,0,0,0,0,0,0,0,0,0,0,0,0,0,0,0,0,0,0,0,0,2,5,49,3,1,0,7,0,8,0,0,0,0,0,0,0,0,0,0,0,0,0,0,0,
0,0,0,0,0,1,3,3,3,13,13,11,10,11,5,7,1,4,0,0,0,0,0,0,2,0,0,0,0,0,0,0,0,0,2,0,2,0,0,7,3,0,5,8,8,9,2,5,3,0,1,0,0,0,0,0,0,0,0,0,0,0,0,0,
0,0,0,0,0,0,3,1,10,12,14,11,12,1,14,0,10,0,21,0,3,0,0,0,0,0,0,0,0,0,0,0,0,0,0,0,1,0,1,0,3,0,8,3,9,0,2,8,0,1,0,0,0,0,0,0,0,0,0,0,0,0,0,0,
0,0,1,0,0,4,1,2,7,12,9,8,2,10,3,4,0,0,0,0,17,0,0,0,0,0,0,0,0,0,0,1,0,0,1,0,0,1,1,3,7,1,2,9,9,0,0,3,3,1,0,10,4,0,0,0,0,0,0,0,0,0,0,0,
0,0,0,0,1,1,1,12,7,2,9,8,26,5,0,7,1,0,0,11,0,0,1,2,0,0,0,0,0,0,0,3,0,0,0,1,2,0,0,0,6,9,2,2,1,6,6,0,4,0,4,0,0,0,0,0,0,0,0,0,0,0,0,0,
0,0,0,0,0,0,3,1,11,7,9,2,10,2,10,18,0,0,4,0,0,7,0,17,0,0,0,0,0,0,0,0,0,2,0,0,0,3,0,5,8,3,14,11,1,8,1,0,1,7,0,1,0,0,0,0,0,0,0,0,0,0,0,0,
0,0,3,0,0,0,0,1,4,6,16,10,15,7,9,12,1,5,3,0,8,1,1,1,0,1,0,0,0,0,0,0,0,0,0,0,0,0,0,0,6,0,3,5,5,12,10,2,1,0,0,0,2,3,0,2,0,0,0,0,0,0,0,0,
0,0,0,0,0,0,0,4,7,2,17,12,11,9,7,0,1,0,0,1,2,0,0,6,0,0,0,0,0,0,0,0,0,0,0,0,0,1,4,3,10,11,5,2,3,12,2,4,13,0,0,0,1,0,0,1,0,0,0,0,0,0,0,0,
0,0,1,0,0,1,5,2,5,9,1,15,7,4,0,5,0,0,0,0,0,10,0,0,0,0,0,0,0,0,0,0,0,0,0,3,0,0,1,0,0,10,1,5,29,17,6,2,0,0,10,0,4,1,0,0,0,0,0,0,0,0,0,0,
0,0,0,0,0,0,1,4,4,3,14,12,0,4,9,12,0,0,0,0,0,0,0,1,0,0,0,0,0,0,0,0,0,0,0,1,0,0,0,2,1,2,7,3,7,8,2,0,5,10,0,0,0,0,4,0,0,0,0,0,0,0,0,0,
0,0,0,0,0,0,3,1,9,15,11,3,12,8,0,7,11,0,0,6,1,0,0,0,0,0,0,0,0,0,0,0,0,0,6,0,0,3,0,3,0,4,10,5,12,1,4,0,0,0,0,0,0,0,0,0,0,0,0,0,0,0,0,0,
0,0,1,3,1,0,2,2,8,4,6,4,7,13,14,10,7,3,0,0,0,0,0,6,0,0,0,0,0,0,0,0,0,1,0,0,0,1,1,0,7,3,3,1,6,15,0,22,5,0,0,0,0,0,0,0,0,0,0,0,0,0,0,0,
0,0,0,1,0,0,1,1,1,13,12,10,2,3,21,3,13,16,0,0,1,0,0,0,0,0,0,0,0,0,0,0,1,0,1,0,0,0,3,0,5,2,5,12,10,8,8,1,13,0,0,0,0,0,0,0,0,0,0,0,0,0,0,0,
0,0,0,0,0,0,6,2,14,10,1,11,15,15,8,10,8,0,0,0,5,2,0,0,0,0,0,0,0,0,0,0,1,0,0,0,0,0,0,1,5,7,3,6,1,9,7,7,1,0,0,0,0,3,0,0,0,0,0,0,0,0,0,0,
0,0,0,0,0,3,0,1,5,5,10,6,8,7,7,8,0,2,0,3,4,0,0,2,0,0,0,0,0,0,0,0,0,3,0,0,0,1,0,1,0,2,3,11,5,3,2,1,1,0,0,1,0,0,0,3,0,0,0,0,0,0,0,0,
0,0,0,0,1,0,3,8,8,11,5,17,9,13,11,0,0,12,1,0,0,1,0,0,0,0,0,0,0,0,0,0,0,0,3,0,0,0,0,4,1,17,2,7,6,3,2,1,13,0,0,0,0,0,1,0,0,0,0,0,0,0,0,0,
0,0,0,0,0,3,1,7,16,11,3,12,8,19,3,5,5,0,0,0,12,0,0,5,0,0,0,0,0,0,0,1,0,1,3,0,0,1,0,3,1,3,1,5,9,21,10,2,4,1,0,0,0,0,0,0,0,0,0,0,0,0,0,0,
0,0,0,0,5,3,2,3,8,9,9,3,22,5,8,0,0,0,1,3,0,0,5,1,0,0,0,0,0,0,0,2,0,1,0,2,0,0,1,0,6,7,3,3,2,1,5,0,0,0,0,0,0,5,0,0,0,0,0,0,0,0,0,0,
0,0,0,0,0,1,3,0,10,18,8,10,7,7,15,3,0,1,0,0,4,0,0,0,0,0,0,0,0,0,0,1,0,0,0,0,0,0,1,3,7,7,7,2,5,7,0,11,12,0,0,0,0,0,0,0,0,0,0,0,0,0,0,0,
0,0,0,1,1,0,1,5,10,8,13,4,7,11,0,0,5,14,0,0,0,0,0,12,0,0,0,0,0,0,0,0,0,0,5,0,0,0,1,1,4,13,1,17,7,14,5,4,0,0,0,0,1,0,0,1,3,0,0,0,0,0,0,0,
0,0,0,0,1,0,3,3,5,7,16,7,8,3,16,0,7,0,0,0,0,7,0,0,0,0,0,0,0,0,0,1,0,0,0,0,0,1,0,0,0,9,1,10,8,7,1,2,0,0,0,0,0,0,0,0,0,0,0,0,0,0,0,0,
0,0,0,0,1,5,0,4,10,4,16,9,6,14,5,0,0,0,0,7,0,0,0,0,17,0,0,0,0,0,0,0,0,0,7,0,0,0,0,1,5,6,2,7,4,8,0,1,0,7,0,9,0,0,0,1,0,0,0,0,0,0,0,0,
0,0,0,2,0,1,4,5,12,5,13,9,6,12,3,2,12,13,0,0,0,0,0,0,0,0,0,0,0,0,0,0,0,0,0,0,2,0,1,1,2,3,5,10,7,6,7,0,5,0,0,0,0,0,0,8,0,0,0,0,0,0,0,0,
0,1,0,0,2,0,2,0,5,2,6,17,0,10,1,0,10,1,0,0,3,4,0,0,0,2,0,0,0,0,0,0,0,6,1,0,0,0,1,0,2,7,0,6,10,10,2,0,0,13,0,0,4,0,0,1,0,0,0,0,0,0,0,0,
0,0,0,0,0,0,3,7,2,10,11,9,2,16,7,10,4,12,1,7,0,0,0,0,0,0,0,0,0,0,0,0,0,3,0,0,0,0,0,0,3,7,8,3,3,0,3,1,0,0,0,14,0,0,2,0,0,0,0,0,0,0,0,0,
0,0,0,0,1,0,0,1,8,7,16,4,5,14,6,21,0,0,2,0,6,12,12,0,12,6,0,0,0,0,0,0,0,0,0,0,0,0,1,3,2,12,3,7,6,4,0,10,0,1,0,0,0,0,8,0,0,0,0,0,0,0,0,0,
0,0,0,0,0,0,0,3,2,17,3,17,12,8,18,5,8,2,0,0,0,0,0,7,0,0,0,0,0,0,0,0,0,0,0,0,0,2,1,3,5,10,7,2,9,1,9,1,0,0,0,2,0,0,0,0,0,0,0,0,0,0,0,0,
0,1,0,0,0,1,2,5,3,7,10,4,5,19,2,0,0,0,0,0,12,0,0,0,0,0,0,0,0,0,0,3,0,0,0,0,1,1,1,2,3,2,8,19,14,16,4,0,10,1,0,0,0,0,0,0,0,0,0,0,0,0,0,0,
0,0,0,0,0,2,2,1,4,5,17,14,10,6,10,1,24,0,0,0,0,0,0,0,0,0,0,0,0,0,0,0,0,0,6,0,0,0,0,2,4,6,14,3,9,4,33,4,1,3,0,0,0,0,0,0,0,0,0,0,0,0,0,0,
0,0,0,0,2,0,2,1,3,5,17,10,21,10,1,5,14,3,0,0,1,1,0,0,0,0,0,0,0,0,0,2,0,0,0,0,0,0,1,0,1,5,4,12,3,2,0,5,5,0,0,0,0,0,0,0,0,0,0,0,0,0,0,0,
0,0,0,0,0,0,0,6,6,5,11,10,5,2,17,9,0,6,0,0,1,7,0,12,0,0,0,0,0,0,0,0,5,0,1,0,0,0,1,1,3,10,3,13,16,10,5,0,7,2,0,0,0,6,0,0,0,0,0,0,0,0,0,0,
0,0,0,2,2,0,6,3,4,14,14,3,2,17,3,3,1,2,1,0,5,2,2,0,8,0,0,0,0,0,0,0,0,0,0,0,4,0,1,1,1,2,19,7,10,2,2,1,0,0,0,0,0,14,0,0,0,0,0,0,0,0,0,0,
0,0,0,0,0,0,1,5,7,12,10,6,10,5,12,10,1,10,0,15,0,1,0,0,1,0,0,0,0,0,0,0,0,0,2,0,0,0,0,1,5,1,13,1,1,8,13,0,0,1,0,0,2,0,1,0,0,0,0,0,0,0,0,0,
0,0,0,1,0,2,3,7,4,10,10,11,2,7,13,17,19,0,0,0,0,1,0,5,0,0,0,0,0,0,0,0,1,0,0,0,0,1,5,4,1,8,1,18,11,16,0,3,0,0,1,0,2,0,0,0,0,0,0,0,0,0,0,0,
0,0,0,0,0,0,0,2,3,7,2,13,8,8,0,0,2,8,0,4,0,1,0,0,0,0,0,0,0,0,0,0,0,3,0,0,0,3,0,4,4,4,1,5,15,15,0,1,3,0,0,4,0,0,0,0,0,0,0,0,0,0,0,0,
0,0,0,0,0,3,1,8,3,3,8,13,11,14,3,3,8,1,0,5,0,0,0,4,0,0,0,0,0,0,0,2,0,0,0,0,4,0,0,1,4,11,7,7,2,5,3,4,7,0,0,4,0,1,0,0,0,0,0,0,0,0,0,0,
1,0,0,0,0,0,3,1,3,7,13,8,7,15,3,2,0,17,0,0,1,0,1,0,0,2,0,0,0,0,0,0,0,0,0,4,0,0,0,0,4,2,10,6,1,1,3,12,1,0,0,0,0,2,0,0,0,0,0,0,0,0,0,0,
0,0,0,0,0,1,9,3,12,8,9,4,9,3,6,1,12,9,0,0,0,8,1,1,0,0,0,0,0,0,0,0,0,1,0,0,0,0,1,1,0,10,8,3,13,5,0,0,0,0,0,0,5,1,0,0,0,0,0,0,0,0,0,0,
0,0,0,1,0,4,3,1,5,5,9,2,8,5,10,6,6,2,0,0,0,0,6,0,0,0,0,0,0,0,0,0,0,5,0,0,3,0,1,0,2,49,7,24,8,0,0,5,1,0,0,0,0,6,0,0,0,0,0,0,0,0,0,0,
0,0,0,0,0,2,0,2,8,12,11,5,3,8,5,8,4,0,0,0,9,0,0,0,8,0,0,0,0,0,0,1,0,0,0,0,0,1,1,8,6,2,5,13,10,7,1,0,1,2,0,3,0,7,0,0,1,0,0,0,0,0,0,0,
0,1,0,0,5,2,1,10,12,5,18,5,10,2,8,21,25,0,0,3,0,0,0,0,0,0,0,0,0,0,0,0,0,0,0,0,0,0,0,0,6,3,3,4,5,1,5,0,0,7,2,7,0,3,0,0,0,0,0,0,0,0,0,0,
0,1,0,1,0,0,0,3,12,8,8,3,9,3,8,11,2,6,1,0,0,0,0,1,10,6,0,0,0,0,26,0,0,0,0,4,0,1,0,2,2,2,16,4,5,5,0,0,2,0,1,0,12,1,0,0,0,0,0,0,0,0,0,0,
0,1,0,2,0,2,2,1,6,17,12,10,4,23,12,9,0,0,0,9,1,10,0,1,0,0,0,0,0,0,0,0,4,0,0,0,0,1,0,0,6,10,12,2,9,6,7,0,10,0,2,0,6,1,0,0,0,0,0,0,0,0,0,0,
