0,0,0,0,0,0,1,0,10,12,8,13,10,7,12,0,11,11,2,19,0,0,0,0,2,0,0,0,0,0,0,1,0,1,0,0,4,0,2,0,9,3,4,4,25,7,0,0,3,4,0,0,0,0,0,5,0,0,0,0,0,0,0,0,
0,0,0,0,0,0,0,3,9,14,13,5,12,15,7,12,5,0,8,0,0,0,1,0,0,0,0,0,0,0,0,0,0,0,0,0,0,3,1,1,4,2,15,5,0,5,17,0,3,2,1,0,0,0,0,0,0,0,0,0,0,0,0,0,
0,1,0,0,0,0,2,3,10,5,14,8,10,2,13,1,6,0,0,0,0,0,6,0,0,0,0,0,0,0,0,0,0,0,0,0,0,0,0,2,0,3,5,10,0,5,10,1,0,4,0,0,0,0,2,0,0,0,0,0,0,0,0,0,
0,0,0,0,0,2,1,8,4,3,4,3,6,16,14,0,6,0,0,0,0,1,0,0,0,7,0,0,0,0,0,1,0,0,1,1,0,2,0,2,1,1,5,5,4,2,0,3,0,0,7,1,0,1,0,0,0,0,0,0,0,0,0,0,
0,1,0,0,0,6,0,3,1,12,2,11,14,2,39,1,20,0,0,2,0,5,11,3,0,0,0,0,0,0,0,0,1,0,0,0,0,0,1,1,2,6,1,6,7,1,16,1,0,0,0,0,0,1,0,0,0,0,0,0,0,0,0,0,
0,0,0,0,0,4,3,8,7,17,1,17,7,3,1,1,8,1,7,0,2,0,0,0,0,0,0,0,0,0,0,0,1,0,0,0,0,1,0,6,0,8,5,7,11,6,1,5,11,0,0,0,0,1,0,0,0,0,0,0,0,0,0,0,
0,0,1,0,0,0,1,5,10,24,1,15,13,13,0,12,1,3,10,0,1,3,0,0,0,0,0,0,0,0,0,0,0,0,1,0,0,0,1,1,5,14,3,1,3,0,4,2,10,4,0,0,0,1,0,0,0,0,0,0,0,0,0,0,
0,0,0,0,0,0,3,4,6,8,2,12,19,0,21,2,0,16,0,0,0,1,6,0,0,0,0,0,0,0,0,0,0,0,1,0,0,0,0,4,5,4,5,8,2,1,8,0,0,0,0,0,0,0,0,1,0,0,0,0,0,0,0,0,
0,0,0,0,1,0,2,1,0,3,16,10,1,15,10,1,0,2,0,2,0,0,15,0,0,0,0,0,0,0,0,0,1,0,0,0,0,0,4,4,9,5,8,4,3,1,1,12,0,1,0,0,9,0,0,0,0,0,0,0,0,0,0,0,
0,0,0,0,0,0,2,4,1,8,10,7,7,13,2,6,0,0,0,0,0,0,0,0,0,0,0,0,0,0,0,0,0,0,0,0,0,1,2,5,0,1,1,3,3,3,3,0,4,1,0,15,0,0,0,0,0,0,0,0,0,0,0,0,
0,0,0,0,0,0,3,4,6,20,3,7,12,11,6,4,0,5,11,0,1,0,0,0,0,0,0,0,0,0,0,0,0,0,0,0,1,4,1,1,3,4,8,3,4,8,8,1,0,0,0,0,0,0,0,1,1,0,0,0,0,0,0,0,
0,0,0,0,0,0,4,8,12,8,12,8,7,16,0,12,0,0,0,1,6,0,0,0,0,0,0,0,0,0,0,0,0,0,0,0,1,0,2,1,6,3,1,3,5,6,19,14,0,0,0,2,0,0,3,0,0,0,0,0,0,0,0,0,
0,0,0,0,0,7,0,5,10,9,10,19,5,0,8,0,3,8,12,0,0,0,0,0,0,0,0,0,0,0,0,0,0,0,0,0,0,2,3,1,3,3,3,5,3,1,0,0,0,0,0,0,2,3,0,0,0,0,0,0,0,0,0,0,
0,0,0,0,0,2,0,2,7,4,10,16,7,5,3,4,6,0,1,15,0,0,0,1,0,0,0,0,0,0,0,0,0,0,0,1,0,0,0,0,3,3,2,8,12,1,1,2,3,0,0,0,0,2,1,0,0,0,0,0,0,0,0,0,
0,0,0,0,0,0,4,1,0,3,19,12,1,1,18,1,17,0,0,0,0,0,0,1,0,0,0,0,0,0,0,0,0,0,0,2,0,0,3,3,4,8,5,9,4,15,8,4,1,0,0,12,0,0,0,0,0,0,0,0,0,0,0,0,
0,0,0,0,0,1,0,6,8,6,4,10,23,4,0,24,5,0,0,0,0,0,0,0,0,0,0,0,0,0,0,0,0,0,0,0,0,0,0,0,0,5,6,1,4,7,0,4,1,0,0,0,0,0,0,0,1,0,0,0,0,0,0,0,
0,0,0,0,2,1,0,1,6,12,6,19,13,7,17,12,17,3,0,0,3,0,4,0,0,0,0,0,0,0,0,0,0,0,0,0,0,0,0,0,0,0,7,5,6,7,1,0,20,0,3,0,0,0,0,0,1,0,0,0,0,0,0,0,
0,0,0,0,0,0,5,4,0,17,14,9,10,23,3,0,5,5,0,0,0,0,6,2,0,0,0,0,0,0,0,0,0,0,0,0,2,0,0,1,1,2,2,10,12,0,1,1,1,0,13,0,1,0,0,3,0,0,0,0,0,0,0,0,
0,0,4,0,0,0,2,2,3,2,7,22,12,10,5,25,23,0,2,0,2,0,3,1,0,0,0,0,0,0,0,0,0,0,0,1,0,0,0,8,6,12,3,11,2,25,7,0,1,0,0,0,0,0,1,0,0,0,0,0,0,0,0,0,
0,0,0,0,1,0,1,1,3,9,16,2,17,8,5,33,3,2,0,0,0,0,0,0,0,0,0,0,0,0,0,0,0,4,0,1,0,4,6,2,10,3,9,5,14,9,5,1,0,0,0,0,0,1,0,0,0,0,0,0,0,0,0,0,
0,0,0,0,0,0,3,1,5,12,22,10,11,0,5,0,0,5,0,0,0,17,0,3,0,0,0,0,0,0,0,0,0,0,0,1,0,0,2,1,7,0,7,4,7,0,2,10,7,5,0,1,2,0,10,0,0,0,0,0,0,0,0,0,
0,0,0,0,1,0,0,2,11,8,10,11,1,20,16,3,0,3,0,0,17,0,0,0,0,0,0,0,0,0,0,0,1,0,0,1,0,0,1,4,10,1,10,5,15,8,2,9,0,0,1,0,0,0,0,0,1,0,0,0,0,0,0,0,
0,0,0,0,0,1,1,2,7,16,8,10,11,2,8,3,1,0,0,12,0,0,2,0,0,0,0,0,0,0,0,0,0,0,0,0,0,0,3,5,3,1,10,13,18,14,5,2,3,0,0,0,3,1,0,0,0,0,0,0,0,0,0,0,
0,0,0,0,4,3,0,9,2,5,12,19,7,11,4,22,2,0,0,0,0,0,1,0,0,0,0,0,0,0,0,0,0,0,1,0,0,2,3,10,1,7,6,19,3,2,0,1,1,4,1,0,1,0,0,0,0,0,0,0,0,0,0,0,
0,0,0,1,0,0,2,5,1,9,14,0,4,7,10,10,4,0,0,3,0,0,0,0,0,0,0,0,0,0,0,0,0,0,0,0,0,1,2,0,5,5,5,0,2,7,0,3,0,0,1,1,0,0,0,0,0,0,0,0,0,0,0,0,
0,0,0,0,0,0,7,1,14,5,12,2,16,9,12,8,0,1,0,2,2,2,2,0,0,0,0,0,0,0,0,0,0,0,0,1,0,1,1,1,1,2,0,1,8,9,0,1,4,0,0,0,0,0,0,6,0,0,0,0,0,0,0,0,
0,0,0,0,0,0,3,1,7,13,0,18,5,12,18,0,3,36,3,0,0,0,0,0,0,0,0,0,0,0,0,0,0,0,0,0,0,0,1,0,3,8,1,13,2,4,12,1,2,0,0,0,1,0,0,0,2,0,0,0,0,0,0,0,
0,0,0,0,0,0,2,0,8,12,16,7,19,8,5,2,7,4,8,3,0,7,0,0,0,0,0,0,0,0,0,0,0,0,0,0,0,1,0,6,6,0,1,1,8,12,11,2,12,0,0,0,0,1,3,0,0,0,0,0,0,0,0,0,
0,0,0,0,1,0,3,0,7,2,9,9,8,14,1,10,7,2,12,0,0,1,3,1,0,0,0,0,0,0,0,0,0,0,0,0,0,0,1,2,1,3,2,3,11,5,6,0,6,0,0,0,2,0,0,0,0,0,0,0,0,0,0,0,
1,0,0,0,0,1,1,5,10,25,1,9,12,7,16,3,0,0,5,2,0,0,3,0,0,0,0,0,0,0,0,0,0,0,1,0,0,0,0,0,1,13,5,12,7,3,4,0,0,0,2,0,0,0,0,2,0,0,0,0,0,0,0,0,
0,1,0,0,0,0,2,4,5,8,17,14,3,14,12,10,1,3,2,0,0,0,0,0,1,0,0,0,0,0,0,0,0,1,0,0,0,1,3,3,0,2,3,7,7,13,0,2,0,12,0,0,0,0,0,0,0,0,0,0,0,0,0,0,
0,0,0,0,0,0,0,5,7,8,10,14,10,6,7,1,0,0,0,0,0,0,0,0,0,0,0,0,0,0,0,0,0,0,0,0,0,0,0,7,0,8,3,4,1,0,16,2,4,0,0,5,0,4,0,0,0,0,0,0,0,0,0,0,
0,0,0,0,0,1,0,5,5,9,5,15,12,23,3,1,0,3,0,0,0,0,3,0,0,5,0,0,0,0,0,1,0,0,0,0,0,0,0,0,3,3,8,7,6,0,4,8,3,1,0,0,0,0,8,0,0,0,0,0,0,0,0,0,
0,0,0,0,0,0,3,8,8,7,2,10,17,8,7,3,3,6,0,0,0,5,1,0,0,0,0,0,0,0,0,0,0,1,0,0,0,0,1,1,1,3,3,3,5,0,8,14,0,8,0,0,1,0,0,0,0,0,0,0,0,0,0,0,
0,0,0,0,0,1,5,5,2,13,5,14,24,16,3,1,3,3,7,0,1,0,0,5,0,0,0,0,0,0,0,0,0,0,0,0,0,0,0,5,4,4,12,2,0,12,0,11,0,0,0,0,0,0,3,1,0,0,0,0,0,0,0,0,
0,0,0,0,0,0,0,1,2,14,20,7,8,8,14,0,8,1,0,0,0,2,0,0,0,0,0,0,0,0,0,0,0,0,0,1,0,0,0,1,1,2,3,1,10,10,0,0,0,0,0,0,0,0,0,0,0,0,0,0,0,0,0,0,
0,0,0,0,4,0,1,8,7,2,8,12,13,9,3,0,17,7,0,0,0,0,1,0,14,0,0,0,0,0,0,0,0,0,0,0,0,0,2,3,1,4,0,3,12,10,1,1,3,0,0,0,0,0,0,0,0,0,0,0,0,0,0,0,
0,0,0,0,0,0,1,5,7,24,21,3,3,12,11,13,0,1,0,8,0,0,14,0,0,0,0,0,0,0,0,0,0,0,2,0,0,0,4,5,3,8,2,3,5,2,1,0,0,8,0,1,1,0,0,0,0,0,0,0,0,0,0,0,
0,0,0,0,0,0,0,6,8,3,3,23,2,14,12,2,3,4,7,0,1,0,0,0,0,0,0,0,0,0,0,0,0,1,0,0,0,1,0,6,8,7,9,16,1,0,1,13,0,0,2,2,0,0,0,0,0,0,0,0,0,0,0,0,
0,0,0,0,0,0,0,5,6,0,7,22,3,7,1,2,0,4,0,0,21,0,0,8,0,0,0,0,0,0,0,0,0,0,0,0,0,0,1,1,3,4,14,3,5,2,7,14,0,0,0,0,0,0,0,1,0,0,0,0,0,0,0,0,
0,0,0,0,0,0,0,2,3,4,12,32,10,3,17,0,0,0,0,0,0,3,3,0,0,8,0,0,0,0,0,0,0,0,0,1,0,0,1,0,0,7,2,5,8,1,2,1,7,1,0,0,0,1,0,8,0,0,0,0,0,0,0,0,
0,0,0,0,0,0,0,5,6,19,0,7,10,4,7,19,1,0,0,7,0,0,0,0,0,0,0,0,0,0,0,1,0,0,0,0,0,0,3,0,3,7,3,0,2,4,9,0,0,0,0,0,0,18,0,0,0,0,0,0,0,0,0,0,
0,0,0,0,0,1,0,7,10,3,17,2,10,8,6,19,6,0,2,0,0,0,0,0,0,0,0,0,0,0,0,0,0,1,0,0,1,0,0,1,0,10,7,10,5,7,3,0,0,0,0,1,0,0,10,0,0,0,0,0,0,0,0,0,
0,0,0,0,5,0,2,5,12,8,2,5,19,3,3,2,0,0,0,0,0,0,0,0,12,0,0,0,0,0,0,0,0,0,0,0,0,2,1,8,4,1,1,5,5,3,15,0,1,0,0,0,0,0,0,0,0,0,0,0,0,0,0,0,
0,0,0,0,0,2,1,0,3,7,14,5,5,5,5,4,1,0,1,0,0,5,1,0,0,0,0,0,0,0,0,0,0,0,0,0,0,0,0,1,0,7,4,5,1,1,0,5,3,1,0,0,0,0,9,0,2,0,0,0,0,0,0,0,
0,0,0,0,0,1,1,3,12,5,14,1,4,14,14,0,0,0,0,2,0,0,0,0,0,0,0,0,0,0,0,0,0,0,0,0,2,0,0,7,4,2,6,12,8,14,1,3,0,1,1,5,0,0,0,0,0,0,0,0,0,0,0,0,
0,0,0,0,0,1,0,0,5,10,11,6,8,1,1,15,0,0,0,3,0,0,16,1,0,0,0,0,0,0,0,0,0,0,0,0,5,0,0,0,0,0,10,4,3,8,8,1,0,1,0,0,0,2,0,0,0,0,0,0,0,0,0,0,
0,0,0,0,0,5,1,0,7,4,10,16,8,1,1,3,16,2,1,12,1,0,0,2,1,0,0,0,0,0,0,0,0,0,0,0,0,0,1,1,4,3,1,12,0,16,0,0,1,1,9,1,0,0,0,0,0,0,0,0,0,0,0,0,
0,0,0,0,0,0,1,6,12,9,1,14,4,15,25,0,0,4,0,0,0,0,1,0,0,0,0,0,0,0,0,0,0,0,0,0,0,0,0,2,1,2,8,5,1,2,11,2,1,0,0,0,0,0,0,0,0,0,0,0,0,0,0,0,
0,0,0,0,0,0,1,4,3,7,15,6,25,3,9,5,0,13,0,11,0,2,0,0,0,0,0,0,0,0,0,0,0,0,0,0,1,0,2,0,2,5,11,1,8,9,3,1,3,0,1,2,0,0,0,0,0,0,0,0,0,0,0,0,
