3,1,3,47,1,49,7,16,49,49,8,49,32,13,0,5,0,0,13,0,14,3,0,0,0,0,0,0,0,5,0,0,14,15,49,17,28,14,44,50,29,49,30,50,23,49,49,48,1,0,46,0,0,31,0,1,0,0,0,0,0,3,15,37,
6,2,0,5,3,42,7,49,48,48,49,47,38,16,24,1,0,1,2,0,14,7,0,3,0,0,0,0,0,5,12,12,49,21,9,33,16,50,48,42,49,50,25,49,39,49,19,16,4,12,9,0,11,0,0,7,0,0,0,0,0,8,12,45,
45,8,35,2,7,46,5,21,49,42,25,21,39,17,49,6,0,21,0,4,0,12,0,0,0,0,0,0,0,0,0,1,48,49,0,0,12,49,7,9,50,48,11,4,49,49,2,3,0,0,0,0,0,4,0,7,0,0,0,0,0,0,0,0,
5,5,2,49,48,5,6,19,48,50,0,18,49,11,50,0,0,7,0,0,0,3,0,0,0,0,0,0,0,0,14,1,49,0,0,0,4,9,49,10,12,50,49,10,49,39,8,2,5,0,0,0,0,0,5,0,0,0,0,0,0,1,1,0,
0,5,3,0,44,49,5,8,49,17,48,34,14,20,12,9,0,49,0,14,1,0,1,0,0,0,0,0,0,0,42,0,49,0,0,1,0,1,48,50,49,49,8,50,49,49,7,21,0,0,0,5,0,0,0,0,0,0,0,0,0,0,0,0,
0,5,0,1,40,12,7,3,49,15,26,13,49,35,25,49,0,0,0,0,0,5,0,0,0,0,0,3,0,0,0,1,49,0,0,0,3,50,1,50,50,49,19,50,5,11,6,35,0,0,0,0,0,24,0,6,0,0,0,0,0,0,0,1,
5,49,0,0,3,9,48,49,7,50,30,15,26,6,17,41,2,0,0,0,0,0,0,0,0,0,0,0,0,0,6,1,0,6,12,4,14,46,44,27,49,48,42,50,47,47,6,17,49,13,0,0,0,8,0,0,0,0,0,0,0,0,40,43,
49,6,7,36,1,39,48,49,32,27,42,37,49,44,22,16,24,0,0,0,0,1,0,0,0,0,1,0,0,0,7,26,18,16,17,14,17,21,29,40,38,50,45,46,46,40,26,13,49,49,0,0,0,20,3,0,0,0,0,0,1,14,1,45,
5,4,0,3,5,18,42,49,39,49,19,44,26,39,46,1,0,0,0,0,0,3,0,0,0,0,0,0,0,0,0,12,7,8,4,0,5,49,5,49,12,49,49,23,27,15,44,28,12,0,17,5,0,0,0,0,0,0,0,0,2,0,7,0,
7,48,4,21,13,28,11,12,47,49,25,48,15,12,49,6,1,5,0,0,0,0,4,0,0,0,0,0,0,0,0,0,2,13,9,8,47,49,36,50,39,50,47,50,46,48,31,5,1,0,3,0,3,11,0,0,0,0,0,0,7,4,0,42,
2,0,1,2,40,48,17,12,48,18,46,49,9,10,1,0,0,0,0,0,10,18,0,0,0,0,0,0,0,0,0,1,48,1,0,1,5,6,1,49,50,14,6,50,37,5,10,0,1,49,0,0,0,0,0,0,0,0,0,0,0,0,0,5,
3,0,2,1,3,3,49,47,49,49,34,25,49,0,0,10,0,0,8,0,0,0,0,0,0,0,0,0,0,0,0,0,0,1,1,0,0,47,49,50,49,50,49,48,8,8,50,0,0,0,0,0,0,3,20,0,0,0,0,0,0,0,0,4,
0,4,0,0,0,11,6,42,31,50,49,33,31,46,49,0,0,0,0,0,0,0,0,0,0,0,0,0,0,0,1,3,0,0,16,50,49,49,25,18,50,49,3,14,50,19,13,0,2,0,1,0,0,5,31,0,0,0,0,0,0,0,0,0,
2,1,0,0,48,4,14,16,49,26,46,50,7,13,35,0,2,0,2,3,0,2,3,0,0,0,0,0,0,1,5,2,1,49,3,0,50,8,21,49,10,21,50,16,11,49,1,49,0,49,0,0,1,1,16,0,0,0,0,0,0,0,0,1,
0,7,4,48,1,49,6,19,48,49,24,48,20,49,1,0,2,0,0,0,4,2,0,0,0,0,0,0,0,1,0,2,0,3,0,1,1,9,49,13,50,49,49,50,9,29,0,2,19,0,0,2,0,0,1,1,3,0,0,0,0,0,0,32,
8,11,3,1,16,9,16,17,50,49,14,42,49,0,8,5,3,4,0,0,0,0,0,0,0,0,0,0,0,0,8,0,3,0,8,1,48,49,48,50,49,50,49,49,16,46,20,12,15,13,9,8,4,5,12,2,0,0,0,0,0,0,42,48,
7,3,2,0,0,8,49,7,50,22,49,19,10,34,4,48,1,10,6,2,1,16,0,0,0,0,0,0,0,0,1,6,1,0,0,4,3,40,49,49,7,50,35,10,49,49,4,0,10,0,0,0,0,0,0,0,0,0,0,0,0,0,0,14,
23,3,49,1,2,12,6,50,27,49,48,48,8,16,12,19,20,0,0,0,0,12,2,0,0,0,0,0,0,0,0,0,0,40,0,1,0,4,12,49,49,49,50,49,17,36,36,46,0,48,0,0,15,0,3,0,0,0,0,0,0,0,2,43,
5,0,0,6,1,48,19,48,49,0,49,22,39,48,0,25,1,49,0,0,3,0,9,0,0,0,0,0,0,0,0,1,0,3,0,2,39,49,49,48,48,49,47,49,48,5,17,7,0,0,0,49,0,0,3,1,0,0,0,0,0,0,5,1,
0,49,0,0,6,10,7,30,25,50,22,11,8,49,17,30,32,0,0,0,3,0,1,0,0,0,0,0,0,0,0,0,49,0,0,3,0,2,8,50,8,49,49,42,49,7,49,2,0,0,0,49,0,0,0,0,0,0,0,0,0,0,0,0,
47,0,1,4,2,49,7,14,13,50,48,31,49,17,18,0,1,0,0,8,1,3,2,0,0,0,0,0,0,0,0,0,12,0,1,0,3,0,50,8,12,50,10,10,16,50,1,5,0,0,0,0,0,0,0,0,0,0,0,0,0,0,0,0,
5,3,0,0,0,48,16,7,49,25,49,6,49,11,8,12,4,0,0,0,0,0,9,0,0,0,0,0,0,0,0,2,2,0,0,6,4,49,50,2,50,50,49,19,23,11,49,4,4,49,49,1,1,1,2,0,48,0,0,0,0,0,11,47,
0,1,0,11,49,7,13,48,49,25,14,22,48,18,16,16,0,0,8,0,0,6,11,0,0,0,0,0,0,0,5,0,0,1,0,0,0,3,49,49,16,49,50,49,46,44,47,49,17,0,7,5,0,0,8,1,0,0,0,0,0,0,0,32,
48,48,0,1,4,3,48,48,12,48,49,13,49,47,0,3,0,0,42,6,7,0,0,0,0,0,0,0,0,0,15,49,48,1,7,7,49,48,49,50,47,48,38,50,28,23,27,5,14,12,13,10,4,10,49,3,3,0,0,0,0,27,23,8,
5,2,1,2,9,3,49,14,33,25,49,1,19,20,18,16,20,0,1,0,0,1,4,0,0,0,0,0,19,44,18,18,8,12,17,16,7,21,25,37,50,30,50,33,37,50,17,24,26,5,19,15,47,14,5,49,0,0,0,0,2,31,15,14,
0,7,0,16,13,2,7,49,24,27,49,49,40,4,22,0,3,7,0,0,0,2,6,14,0,0,0,0,7,21,18,21,16,10,21,15,17,21,16,24,50,50,49,41,31,27,11,5,1,5,0,0,3,0,5,9,0,0,0,0,0,18,33,10,
14,5,15,49,16,19,49,12,29,12,48,15,21,25,0,5,7,26,0,0,0,0,3,0,0,0,0,0,25,16,24,23,23,17,12,9,12,16,50,17,49,50,23,47,49,19,30,17,16,9,4,4,3,1,0,5,0,0,0,0,14,0,31,4,
49,0,0,0,1,6,8,17,49,25,19,13,16,3,0,8,49,0,6,0,0,0,3,0,0,0,0,0,16,25,19,18,21,12,16,16,12,19,20,18,19,50,23,30,49,24,23,50,5,5,4,8,14,3,7,10,3,0,0,0,16,12,0,2,
0,2,0,5,8,5,13,19,49,30,14,28,24,16,0,50,10,0,0,0,0,0,0,0,0,0,0,0,15,20,21,13,16,17,14,14,13,17,18,20,50,23,50,49,23,18,50,13,1,2,0,0,3,0,8,0,0,0,0,0,0,21,12,18,
31,5,0,0,25,36,49,17,9,49,28,25,10,23,14,16,21,0,0,8,3,4,49,0,0,0,0,0,11,13,19,21,12,19,19,17,50,17,34,50,49,20,49,19,21,12,15,3,10,9,4,7,6,8,9,8,0,0,0,0,14,0,48,24,
1,1,0,28,0,15,49,21,11,49,35,26,17,49,22,17,49,0,0,0,2,0,0,0,0,0,0,0,17,14,21,48,21,17,12,10,13,50,23,21,50,22,17,31,50,35,23,13,10,0,1,0,0,0,3,0,0,0,0,0,11,31,24,12,
28,16,0,3,31,34,19,49,14,35,49,19,20,9,3,15,0,17,12,0,41,0,2,1,0,0,0,0,0,14,19,18,14,9,12,12,25,19,19,16,25,14,19,49,25,14,49,16,9,0,0,21,2,5,0,0,0,0,0,0,1,15,31,48,
8,0,0,2,2,24,20,18,49,23,22,27,37,26,49,19,3,0,0,0,0,5,0,0,11,0,0,0,7,9,17,0,0,5,50,12,15,16,13,50,19,14,19,50,49,16,15,4,13,49,5,0,5,0,0,0,0,0,0,0,0,18,0,24,
49,5,0,10,3,7,5,36,11,50,7,25,14,17,0,0,21,0,0,5,7,0,0,1,0,0,0,0,7,14,22,49,32,26,22,14,14,23,20,29,50,21,35,50,20,19,16,49,9,7,7,6,5,4,5,3,0,0,0,0,0,16,0,33,
0,27,0,24,1,34,50,16,16,25,49,18,26,5,10,13,0,9,0,0,0,0,4,0,0,0,0,0,0,14,21,21,19,8,8,23,13,15,50,31,19,50,29,21,28,17,49,7,0,0,0,0,0,0,0,22,0,0,0,0,0,0,0,5,
33,22,3,1,1,49,9,48,49,20,8,49,14,14,14,1,8,0,0,0,0,0,1,0,0,0,0,0,0,0,2,16,31,0,50,0,3,1,45,50,48,50,2,23,24,2,7,10,0,0,6,0,0,1,0,0,0,0,0,0,0,0,3,0,
1,1,1,0,49,47,7,44,38,49,41,49,17,42,31,12,2,0,0,0,0,0,1,0,0,0,0,0,0,0,1,0,0,3,48,0,50,1,49,7,48,49,49,47,49,49,12,17,15,12,8,10,9,8,1,10,0,0,0,0,0,0,0,0,
48,49,6,0,4,44,14,50,49,19,49,41,10,49,43,5,11,0,0,0,8,0,0,0,0,0,0,0,0,3,5,1,0,1,0,7,16,49,50,49,11,50,48,16,30,50,34,35,0,0,0,0,0,3,0,0,0,0,0,0,0,0,0,3,
1,0,0,6,1,0,12,49,49,24,13,32,16,18,14,5,48,0,0,7,1,0,0,0,0,0,0,0,0,0,0,3,0,3,2,0,6,49,11,10,50,22,49,4,5,49,1,5,49,48,8,0,0,0,0,0,0,0,0,0,0,0,0,49,
42,4,0,0,0,6,47,23,15,21,27,35,49,7,15,7,0,0,0,0,0,0,0,19,0,0,0,0,0,1,1,1,1,1,0,50,7,49,15,49,5,9,16,50,7,1,49,49,0,0,0,2,0,0,5,0,0,0,0,0,0,0,0,2,
1,0,0,47,4,12,8,49,49,12,33,49,0,0,8,14,0,1,0,0,7,0,4,0,0,0,0,0,0,0,12,0,1,1,11,3,1,3,50,49,50,49,46,48,50,4,7,0,0,12,0,0,6,0,0,0,0,0,0,0,0,0,0,0,
2,5,1,1,3,48,15,9,49,25,1,50,19,49,12,17,0,0,9,0,3,0,0,0,0,0,0,0,0,0,0,2,13,10,2,10,14,11,49,48,48,41,49,50,10,7,0,10,0,0,7,0,3,7,0,0,0,0,0,0,0,0,1,1,
3,0,2,3,0,16,7,46,34,12,21,14,23,12,25,22,10,0,0,12,0,0,1,0,0,0,0,0,1,0,0,3,0,1,1,8,1,50,2,49,5,7,49,15,25,49,1,0,0,50,0,0,3,0,0,15,0,0,0,0,0,0,0,1,
0,0,0,2,48,6,3,10,47,24,42,49,14,17,12,15,0,0,1,0,0,0,0,0,49,0,0,0,4,0,0,0,4,3,3,49,1,49,50,49,14,50,49,49,42,49,0,12,4,0,0,0,0,0,0,0,3,0,0,0,0,1,3,1,
47,0,3,9,40,8,48,44,44,49,20,49,49,5,9,7,0,1,0,0,0,4,14,0,0,0,0,0,0,0,0,1,0,0,49,0,49,50,49,4,49,50,17,14,9,49,8,50,0,0,0,1,0,0,1,5,0,0,0,0,0,0,0,1,
5,0,3,47,6,19,3,22,49,26,49,10,49,12,9,0,0,0,0,1,0,8,0,0,0,0,0,0,0,41,0,3,5,0,1,0,10,3,50,11,49,17,50,49,1,3,5,1,0,1,0,0,1,0,0,0,0,0,0,0,0,0,0,0,
6,0,0,48,0,5,10,20,49,49,9,47,9,26,11,17,0,1,17,3,0,0,0,0,0,0,0,0,6,0,12,0,15,29,0,0,7,8,8,49,9,7,49,8,49,18,1,1,0,0,0,3,0,6,0,49,5,2,0,0,0,0,1,2,
3,2,9,2,1,49,48,49,49,13,22,11,49,26,0,39,8,0,1,0,2,0,3,6,0,0,0,0,0,0,0,0,3,12,2,0,0,3,49,50,17,49,49,50,14,5,4,5,0,0,0,0,0,0,0,0,0,27,0,0,0,0,0,46,
2,3,0,49,2,49,13,9,49,48,25,48,16,18,46,10,0,12,0,0,0,0,1,0,0,0,0,0,0,0,0,7,3,3,2,0,2,5,50,8,49,50,32,49,50,0,12,1,5,1,3,7,0,0,0,0,0,0,0,0,0,0,0,48,
3,3,8,1,0,48,49,8,32,19,27,8,11,14,49,2,0,0,0,0,2,0,0,0,0,0,0,0,0,0,2,9,49,0,3,1,1,4,49,3,14,27,11,49,50,1,49,6,0,0,0,1,0,0,0,0,0,0,0,0,0,1,0,1,
