3,0,9,1,0,8,4,49,20,17,50,48,25,12,0,15,0,0,0,0,0,7,11,0,0,0,0,0,0,0,2,1,2,40,1,10,0,14,9,50,49,14,49,48,48,48,1,49,0,0,1,0,10,49,1,0,0,0,0,0,0,0,1,1,
0,1,14,0,1,23,12,50,48,18,22,28,49,48,23,23,6,0,1,0,0,2,0,0,0,0,0,0,0,15,3,24,4,1,0,0,4,11,49,49,49,49,10,49,4,49,49,2,0,0,0,0,0,4,5,0,0,0,0,0,0,0,5,2,
1,12,1,4,5,9,12,49,17,30,13,50,16,40,8,18,0,0,0,0,2,0,5,8,0,0,0,0,0,1,20,49,1,49,0,12,0,12,12,49,49,50,45,49,48,46,16,50,20,3,0,0,0,0,6,0,0,0,0,0,0,1,9,36,
11,0,1,0,3,3,49,39,14,25,46,49,7,14,9,3,12,0,0,0,13,0,0,0,0,0,0,0,0,0,2,5,3,12,0,7,9,49,21,49,50,49,11,19,11,49,49,10,10,11,0,0,1,0,0,0,0,0,0,0,0,0,0,11,
1,12,1,9,5,8,42,20,39,49,44,38,3,10,4,9,0,0,0,0,0,5,5,8,0,0,0,0,0,4,8,5,1,3,0,0,0,49,6,49,49,50,49,48,48,18,10,20,34,1,7,8,49,0,9,0,0,0,0,0,0,0,0,6,
0,12,0,3,7,48,41,18,50,15,49,28,22,2,39,49,0,0,0,0,0,8,0,0,0,0,0,0,0,1,1,31,18,49,2,1,3,10,7,49,49,50,49,49,21,12,15,1,2,49,48,0,3,10,2,0,0,0,0,0,0,4,31,8,
5,37,1,0,2,7,48,12,35,49,48,50,17,28,0,4,0,0,3,0,1,0,1,4,0,0,0,0,0,1,1,1,13,3,0,7,4,2,49,50,16,49,26,25,49,5,11,16,0,0,21,0,0,13,0,19,0,0,0,0,0,0,1,46,
49,0,4,0,1,49,41,29,49,49,45,49,10,31,4,11,2,0,1,0,0,0,1,0,0,0,0,0,0,0,0,1,35,38,4,3,1,3,9,50,49,11,49,28,49,11,9,49,15,0,11,5,7,0,1,0,0,0,0,0,0,6,0,2,
42,10,9,9,5,20,49,49,12,21,48,49,3,36,5,0,47,0,0,0,0,0,0,0,0,0,0,0,0,11,17,6,0,18,6,47,5,5,7,10,50,49,49,49,48,32,0,9,7,5,0,0,0,9,0,1,0,0,0,0,0,0,6,0,
4,16,0,1,5,18,48,8,27,49,49,39,47,11,14,26,0,10,0,0,6,5,0,0,0,0,0,0,0,0,1,5,8,1,0,1,6,5,50,49,49,50,49,48,9,49,16,3,0,0,1,0,0,0,0,0,0,0,0,0,0,0,0,0,
10,11,0,3,8,48,7,16,19,49,27,10,19,41,5,16,2,10,0,10,0,1,0,0,5,0,0,0,0,0,0,1,49,0,3,4,5,4,49,49,49,50,49,49,49,49,43,25,30,2,20,21,9,8,29,0,0,0,0,0,0,0,44,40,
11,0,13,1,0,48,14,8,49,49,33,49,15,28,10,13,1,0,0,14,0,17,14,0,0,0,0,0,0,0,0,2,3,1,0,1,10,12,8,8,50,12,5,49,7,49,19,3,0,0,0,0,0,10,5,0,0,0,0,0,0,0,1,9,
1,5,46,1,3,47,7,49,14,49,39,19,30,50,1,19,17,0,0,0,0,0,0,0,0,0,0,0,0,0,5,1,3,12,10,9,3,3,49,23,50,10,1,49,20,49,27,7,0,1,0,0,0,12,50,0,0,0,0,0,0,0,1,7,
1,3,0,0,49,4,49,14,48,46,50,24,42,13,0,0,0,6,0,3,1,1,0,0,0,0,0,0,0,3,1,1,9,0,0,12,6,14,49,3,12,47,46,49,49,49,16,9,1,0,0,2,0,0,0,0,0,0,0,0,0,0,0,39,
17,0,6,0,3,30,18,35,42,49,29,40,49,7,28,0,0,0,0,5,0,0,0,0,0,0,0,0,9,8,8,4,7,10,0,1,48,50,49,49,50,50,49,26,9,50,49,2,0,0,2,0,0,0,8,0,0,0,0,0,0,0,0,7,
15,7,0,49,1,17,27,48,49,16,28,27,18,20,19,25,0,0,0,50,1,2,0,0,0,0,0,0,0,1,2,0,49,0,1,2,4,2,49,45,49,49,25,48,39,49,20,40,11,49,0,10,0,0,40,4,0,0,0,0,6,14,26,26,
27,0,10,37,7,38,31,38,18,14,50,30,21,47,0,49,0,3,5,0,0,0,0,0,0,0,0,0,2,5,4,12,43,27,10,16,45,22,23,50,32,50,49,49,31,49,18,14,6,0,0,0,0,0,0,0,0,0,0,0,0,0,16,45,
27,7,0,0,8,47,45,24,48,25,48,50,39,26,3,0,0,0,0,0,8,0,0,1,3,0,0,0,0,13,27,40,23,22,13,4,10,35,30,49,37,40,44,41,5,37,49,28,0,0,0,5,0,0,0,0,0,0,0,0,0,0,0,39,
0,7,0,7,8,35,5,21,49,44,19,37,50,1,16,40,4,0,0,5,0,3,5,0,0,0,0,0,1,0,0,18,10,12,19,21,9,30,50,37,44,49,45,24,14,50,49,42,31,14,0,14,14,2,0,0,4,49,0,0,0,0,0,29,
4,44,0,3,6,37,43,14,49,21,49,27,15,2,35,1,49,0,0,0,1,0,1,0,0,0,0,0,0,1,2,3,2,49,3,48,50,14,48,29,50,38,48,49,49,49,28,9,0,0,0,0,7,9,0,0,0,0,0,0,0,1,0,32,
11,15,0,1,3,21,46,49,48,50,49,37,42,16,6,6,0,0,0,0,5,10,1,0,0,0,0,0,0,5,7,8,4,4,8,8,46,48,50,48,49,50,40,41,18,21,23,12,15,0,0,0,0,0,0,1,0,0,0,0,0,8,0,5,
4,0,47,9,3,1,12,48,42,49,9,12,20,11,33,16,0,0,16,40,0,0,0,0,0,0,0,0,0,0,0,3,14,1,0,0,7,2,32,50,49,49,50,6,48,49,0,0,0,5,0,0,0,0,0,0,0,0,0,0,0,1,2,10,
3,46,0,1,0,2,14,20,23,46,49,9,37,17,49,7,14,0,0,0,0,0,5,0,0,0,0,0,0,0,49,1,0,12,1,8,1,6,50,49,50,49,50,50,16,43,49,0,6,0,0,0,0,0,1,25,0,0,0,0,0,1,0,3,
48,0,0,9,5,48,11,48,49,26,50,12,21,26,4,6,0,0,0,0,33,9,32,7,0,0,0,0,0,48,26,17,24,42,21,7,0,46,43,50,44,48,48,40,49,39,17,20,29,0,35,0,1,25,0,1,24,0,0,0,0,30,25,15,
10,6,3,1,3,5,27,19,13,36,36,48,26,4,28,10,0,8,6,0,5,0,13,0,49,0,0,0,22,19,24,49,42,17,23,25,3,42,50,35,48,49,49,35,49,49,41,8,28,28,0,17,26,7,1,0,0,0,0,0,0,25,10,32,
20,17,6,14,11,49,15,20,21,32,49,19,7,30,34,25,27,0,2,0,3,0,0,0,0,0,0,0,6,24,29,19,48,21,8,33,27,22,26,50,25,49,32,27,21,12,16,16,4,0,0,1,4,0,0,5,0,0,0,0,2,15,19,0,
30,2,0,1,0,0,49,18,22,24,48,41,12,17,0,29,25,0,0,0,1,5,49,0,0,0,0,0,12,21,27,48,32,33,22,3,10,42,20,50,33,50,33,48,28,17,25,49,49,0,0,14,1,0,0,10,0,0,0,0,0,16,24,49,
12,22,22,8,17,25,18,21,32,26,12,21,23,49,12,24,0,11,0,0,0,0,0,0,0,0,0,0,0,0,39,33,35,18,17,0,8,30,30,26,50,26,21,25,40,37,21,21,12,11,0,10,0,8,10,0,0,0,0,0,0,0,11,13,
4,10,23,0,19,15,19,28,30,29,49,25,49,24,1,7,0,3,0,22,0,0,0,0,0,0,0,0,0,0,33,19,20,12,12,14,22,20,33,39,50,34,40,42,49,46,42,37,9,0,0,0,0,0,0,0,0,0,0,0,0,0,41,37,
4,49,0,1,8,26,10,16,16,50,5,27,4,16,2,33,6,0,0,16,0,0,12,7,0,0,0,0,0,0,24,17,26,3,23,3,15,22,24,21,50,29,31,24,46,49,7,28,49,0,18,0,0,0,0,0,0,0,0,0,0,0,19,4,
8,1,6,2,2,25,25,43,49,26,49,35,15,23,4,21,0,0,9,0,0,3,0,0,0,0,0,0,10,0,10,5,23,6,5,26,14,16,19,49,30,50,49,42,30,36,49,10,0,7,10,9,49,11,0,0,0,0,0,0,0,36,0,1,
40,15,0,0,19,14,49,47,17,47,48,16,50,45,4,24,10,6,0,0,0,0,5,0,0,0,0,0,0,0,3,1,49,3,10,3,6,0,14,49,50,33,50,39,33,50,24,16,29,0,11,4,0,0,9,0,0,0,0,0,0,0,48,0,
15,13,0,40,13,22,17,18,49,28,50,26,50,11,9,14,2,0,0,0,1,1,0,0,0,0,0,0,0,0,0,48,35,0,0,0,34,13,48,50,30,48,31,46,48,17,16,0,0,9,0,16,0,1,3,0,0,0,0,0,0,0,0,2,
7,3,0,4,41,10,10,37,49,41,48,19,50,48,38,0,2,0,0,3,8,0,0,0,0,0,0,0,0,0,0,1,14,1,0,5,5,2,7,50,38,28,50,49,48,46,24,22,15,12,0,0,0,11,1,0,0,0,0,0,0,10,25,14,
4,3,0,2,5,49,14,10,22,49,39,26,41,12,8,34,24,1,0,0,0,0,2,0,0,0,0,0,0,0,1,25,45,21,12,11,12,11,14,46,49,48,50,13,49,35,5,1,0,0,0,2,0,0,4,0,0,0,0,0,0,0,5,2,
5,40,0,7,42,20,14,49,48,49,37,49,31,7,13,1,0,9,0,0,0,0,1,0,0,49,0,0,0,0,14,2,11,3,0,1,6,49,16,49,50,50,16,16,49,17,16,3,9,11,1,3,3,3,49,0,0,0,0,0,0,0,2,3,
4,0,30,6,8,6,40,48,39,50,45,39,30,49,9,12,0,2,0,3,2,0,8,1,0,0,0,0,0,2,1,2,0,0,1,2,11,13,49,49,49,27,49,49,15,48,0,5,13,1,0,0,0,3,21,0,0,0,5,0,0,39,8,35,
0,15,41,0,3,44,14,49,40,44,22,23,36,44,19,0,0,0,0,0,0,0,1,0,0,0,0,0,0,0,1,1,11,0,0,0,3,5,49,49,33,49,17,28,49,14,7,10,49,0,0,0,0,1,0,0,0,0,0,0,0,0,0,2,
43,0,1,7,1,10,17,21,42,50,49,32,48,23,15,49,0,0,0,1,11,0,0,0,0,0,0,0,0,1,0,0,5,49,1,20,49,49,48,44,17,49,11,0,18,49,0,1,49,0,0,0,0,2,3,7,0,0,0,0,0,0,0,47,
0,32,1,3,13,42,9,36,49,23,49,29,6,19,8,49,9,0,0,2,12,0,0,5,0,0,0,0,0,3,7,5,5,11,5,8,2,8,50,21,15,49,50,49,49,4,9,10,49,0,0,0,0,1,1,3,0,0,0,0,0,0,0,0,
33,4,0,2,1,48,7,49,16,49,49,3,31,3,8,6,17,9,0,0,0,0,8,0,0,0,0,0,0,0,1,1,8,9,0,0,3,9,7,50,49,49,48,49,1,14,7,28,0,0,0,2,1,0,6,0,0,0,0,0,0,0,0,2,
1,0,48,3,11,8,8,21,37,14,48,25,50,7,29,0,12,0,0,0,0,0,1,0,0,0,0,0,0,1,0,3,3,7,0,0,12,9,49,48,48,49,48,32,48,17,49,3,0,0,0,0,0,1,0,0,0,0,0,0,0,0,2,2,
0,3,0,1,3,45,17,49,42,41,50,48,17,34,49,16,0,0,0,0,0,1,0,4,0,0,0,0,0,0,0,0,5,0,12,2,5,13,49,50,14,49,49,50,12,26,48,11,48,0,3,49,0,1,48,0,0,0,0,0,0,0,0,47,
0,1,0,0,2,1,14,48,49,13,48,38,22,42,49,49,0,0,0,0,0,0,11,0,0,0,0,0,0,1,1,3,0,39,49,36,6,10,7,49,49,13,50,49,49,44,36,49,10,0,0,0,0,0,7,0,0,0,0,0,0,0,1,0,
5,48,0,0,3,0,17,49,22,48,33,49,40,3,1,16,0,10,0,0,0,3,0,0,0,0,0,0,0,0,3,5,3,7,2,6,46,6,49,50,16,49,9,16,49,0,5,5,11,8,3,0,0,0,4,0,0,0,0,0,0,0,3,0,
12,13,0,0,1,16,48,25,49,14,18,7,26,49,0,27,0,0,0,7,0,14,0,0,0,0,0,0,0,0,3,49,0,48,2,48,3,35,49,49,50,49,44,49,48,50,7,1,13,49,0,0,0,0,7,0,0,0,0,0,0,0,3,0,
4,14,6,8,1,7,18,48,29,50,12,28,43,49,10,0,0,0,0,0,0,8,0,0,0,0,0,0,0,0,0,5,2,0,0,3,2,8,12,49,49,50,49,49,49,7,8,49,4,0,4,0,0,0,0,0,0,0,0,0,0,0,0,12,
2,5,0,29,3,49,49,49,29,47,49,11,50,30,14,8,1,0,0,0,0,0,8,1,0,0,0,0,0,0,2,6,6,49,5,4,49,14,48,49,49,50,30,49,49,16,22,49,49,0,0,2,0,0,0,0,0,0,0,0,0,0,0,20,
0,17,3,1,14,10,49,12,49,26,31,23,46,18,12,1,0,26,0,0,49,0,4,0,0,0,0,0,0,0,4,9,2,7,50,0,8,17,49,10,20,50,19,49,49,49,25,18,0,0,0,1,12,0,0,0,0,0,0,0,0,0,36,3,
12,3,1,6,47,3,12,47,14,39,50,49,32,18,0,0,0,12,0,0,0,10,2,0,0,0,0,0,0,2,0,9,0,1,1,12,12,50,49,17,19,49,50,11,50,48,49,3,3,5,50,0,0,0,0,4,2,0,0,0,0,3,5,6,
