14,0,0,0,7,7,21,49,17,24,49,17,12,10,14,14,10,0,0,0,2,0,0,10,0,0,0,0,0,0,1,2,4,1,0,0,2,5,47,50,20,9,49,49,23,3,5,15,0,0,0,1,0,0,0,0,0,0,0,0,0,0,0,6,
3,2,9,48,3,5,14,49,29,49,49,33,49,17,28,10,3,17,1,0,12,0,1,0,0,0,0,0,8,0,16,27,32,26,21,23,35,4,50,48,48,49,46,49,47,30,0,1,50,0,0,8,0,19,0,1,0,0,0,0,0,1,6,18,
44,5,0,2,18,19,46,27,49,49,44,14,31,48,8,14,14,0,0,0,49,0,11,4,0,0,0,0,0,0,0,0,5,23,0,12,6,8,47,8,7,49,43,49,20,9,6,20,1,3,5,1,0,3,0,0,0,0,0,0,0,0,7,3,
1,1,6,0,2,12,48,23,50,49,23,49,42,14,9,28,0,0,0,0,1,1,0,0,0,0,0,0,0,0,0,3,2,12,8,39,3,2,50,3,49,49,49,5,49,25,0,5,0,0,7,15,0,49,0,0,0,0,0,0,0,0,7,3,
48,4,0,15,9,48,37,49,38,25,21,31,18,49,48,5,21,0,0,0,0,0,9,0,0,0,0,0,3,0,10,17,10,6,0,0,43,49,12,49,49,17,49,49,43,9,7,8,0,2,3,0,10,0,2,5,0,0,0,0,0,1,1,0,
1,42,0,0,8,11,49,8,28,48,50,23,20,8,14,3,0,41,10,7,23,0,0,0,0,0,0,0,0,0,19,44,48,4,0,3,3,26,43,37,33,39,50,49,49,44,17,18,14,0,0,1,0,2,0,0,0,0,0,0,0,3,12,41,
42,44,4,30,36,46,46,49,23,28,29,23,21,46,31,3,50,0,0,0,0,7,2,1,0,0,0,0,4,19,28,32,25,17,11,16,15,18,33,50,40,43,37,40,49,24,27,27,22,14,7,9,13,10,2,15,4,0,0,0,3,19,1,1,
0,6,0,0,8,3,30,15,50,22,36,18,20,2,19,0,12,0,0,3,0,49,0,0,0,0,0,0,5,13,17,23,23,21,15,17,50,15,21,18,21,50,35,21,23,17,49,15,12,19,7,0,0,0,0,0,0,0,0,0,8,0,26,8,
4,22,22,5,49,19,19,27,25,50,24,26,4,27,10,1,11,0,4,0,0,0,1,1,0,0,0,0,0,2,20,23,18,14,14,13,13,18,49,35,24,21,26,33,19,27,17,21,10,50,0,0,11,1,0,0,0,0,0,0,1,12,23,22,
1,0,1,0,0,17,1,25,50,28,16,50,49,49,26,21,0,10,0,15,0,0,3,9,0,0,0,3,0,22,20,20,23,11,8,14,14,17,21,22,50,22,19,49,23,18,26,49,9,0,7,0,9,5,7,0,0,0,0,0,2,11,11,14,
8,14,0,6,2,49,33,22,30,49,31,18,22,26,18,3,8,0,0,0,0,0,12,0,3,0,0,0,2,0,8,9,10,12,19,1,19,24,25,35,41,20,25,24,18,25,10,10,0,0,0,0,3,0,0,0,0,0,0,0,0,0,24,14,
28,0,0,31,28,24,8,23,49,21,12,20,30,28,3,49,1,0,3,0,0,0,0,3,0,0,0,0,2,0,8,3,16,20,16,26,26,27,29,33,33,49,26,37,49,44,18,28,15,11,0,28,8,1,6,0,0,0,0,0,0,0,0,0,
14,7,33,0,8,49,49,17,17,49,49,14,26,11,19,50,0,0,12,0,2,0,2,0,0,0,0,0,2,0,11,3,14,16,17,15,25,18,23,24,23,37,49,49,25,16,15,0,3,0,0,0,4,0,0,0,0,0,0,0,0,0,18,29,
6,21,26,5,4,19,49,16,49,28,28,27,29,0,7,7,4,0,4,22,14,0,22,0,0,0,0,0,0,16,12,20,18,19,0,23,14,17,27,36,25,50,27,30,50,24,17,34,1,4,0,0,0,0,0,10,0,0,0,0,0,0,0,2,
44,16,1,3,8,15,10,12,34,12,31,29,30,12,10,2,3,21,6,0,3,0,1,0,0,0,0,0,0,7,0,15,16,19,15,8,21,31,16,26,50,42,27,23,49,20,17,49,27,19,5,15,4,7,4,0,0,0,0,0,0,0,19,15,
46,12,12,3,4,6,23,50,22,31,48,15,38,17,21,13,6,15,1,0,6,4,0,0,0,0,0,0,0,0,19,13,22,19,15,16,14,21,39,37,33,26,33,50,49,1,21,0,0,0,49,0,0,2,5,0,0,0,0,0,0,0,43,0,
0,3,39,0,9,10,48,6,21,41,50,17,18,19,25,12,2,0,2,0,0,1,0,0,0,0,0,0,0,0,0,0,0,16,0,4,0,12,49,50,50,49,23,23,20,49,17,17,7,2,5,0,1,6,1,0,0,0,0,0,0,10,12,0,
10,6,3,44,6,15,7,49,30,27,31,50,27,2,39,8,5,0,6,0,0,0,0,0,0,0,0,0,5,0,25,21,19,16,18,8,21,31,36,50,38,34,26,49,27,34,24,0,11,12,0,0,1,0,49,0,0,0,0,0,0,11,0,14,
18,12,3,26,13,49,17,18,49,21,49,39,11,29,9,16,49,5,0,28,0,0,5,0,0,0,0,0,15,5,49,16,17,25,12,17,23,17,16,50,50,18,37,30,49,14,12,16,10,6,7,1,5,13,2,0,0,0,0,0,0,18,1,48,
0,4,1,3,5,7,15,11,49,21,34,34,19,16,10,5,5,0,50,5,0,3,0,0,0,0,0,0,15,14,17,20,25,11,10,13,13,14,20,50,49,27,50,21,49,30,32,21,16,0,0,0,5,0,0,8,0,0,0,0,0,10,16,18,
26,4,23,2,7,41,35,13,26,49,35,21,22,26,7,3,6,4,0,15,13,0,6,0,0,0,0,0,7,0,18,17,24,34,17,3,16,36,35,50,28,49,26,49,25,16,11,49,10,0,8,0,8,0,0,6,0,0,0,0,0,0,3,18,
13,11,25,3,7,46,17,42,50,47,13,34,25,49,50,0,0,0,0,0,12,23,0,0,0,0,0,0,0,0,0,0,1,0,17,4,0,7,21,50,49,14,10,17,26,50,21,27,31,28,16,24,9,24,15,0,0,0,0,0,0,48,24,21,
23,22,15,1,2,8,11,17,49,49,48,23,19,13,17,10,24,7,1,3,0,0,6,0,0,0,0,0,9,4,7,14,16,25,17,22,24,23,50,25,28,29,49,49,27,21,4,1,4,49,0,0,0,8,6,1,3,0,0,0,0,10,1,15,
2,8,6,3,8,48,46,50,48,49,24,7,23,19,18,0,0,0,10,8,11,16,50,0,0,0,0,0,0,0,0,1,0,5,17,7,0,7,50,49,50,48,49,49,10,24,8,3,6,5,0,0,0,1,0,0,0,0,0,0,0,0,0,2,
5,0,0,12,0,8,6,8,49,19,24,49,49,0,29,0,0,0,0,0,0,0,0,0,0,0,0,0,0,0,4,1,2,3,5,21,7,7,50,50,49,19,50,26,18,12,27,50,3,0,0,0,3,4,0,0,0,5,0,0,0,0,0,3,
0,18,3,0,14,14,49,49,12,49,23,50,3,33,48,49,0,0,0,0,0,1,0,0,0,0,0,0,0,0,0,5,0,1,0,1,1,15,49,49,12,49,49,13,11,2,21,2,0,0,6,0,0,0,49,0,0,0,0,0,0,0,8,1,
4,5,2,2,0,28,12,49,46,49,16,44,49,26,21,0,16,5,14,0,0,0,0,0,0,0,0,0,0,0,0,3,0,0,1,0,1,14,49,47,49,50,19,32,17,28,16,13,1,25,10,0,0,48,0,0,0,0,0,0,0,0,49,48,
3,6,0,49,46,15,10,49,20,49,48,24,48,15,18,9,0,6,0,7,0,0,11,0,0,0,0,0,0,0,2,0,0,6,0,0,0,10,49,6,50,13,49,23,49,1,50,0,2,10,0,0,0,0,1,0,0,0,0,0,0,0,0,0,
0,7,5,5,9,42,10,49,17,27,49,7,12,22,10,3,2,0,0,0,0,13,3,0,0,0,0,0,0,0,0,3,0,2,0,2,0,3,6,49,50,49,8,16,6,19,5,0,0,0,0,0,4,0,0,0,0,0,0,0,0,0,0,2,
0,3,1,0,5,23,7,49,37,49,28,49,14,33,3,48,0,19,0,5,0,0,13,49,0,0,0,0,0,0,0,3,0,0,0,0,2,0,12,48,50,49,49,16,4,0,4,0,49,5,4,0,1,0,0,5,0,0,0,0,0,0,0,3,
3,5,0,14,7,0,50,12,20,49,49,49,23,0,11,3,1,0,0,0,49,48,0,3,0,0,0,0,0,0,3,2,9,3,3,0,8,49,50,13,13,49,49,16,20,19,30,49,16,0,48,0,0,5,4,0,0,0,0,0,0,0,2,7,
48,0,1,0,10,21,49,19,48,49,18,48,12,49,9,26,9,0,2,2,3,49,0,3,0,0,0,0,0,0,2,1,1,15,1,0,50,4,49,50,50,12,48,17,23,50,49,10,3,0,0,0,0,0,0,0,0,0,0,0,0,0,0,0,
0,29,1,16,3,19,48,5,49,49,20,49,29,49,32,49,49,0,0,0,16,0,0,0,0,0,0,0,0,0,0,0,1,2,1,0,0,46,7,50,7,17,24,50,16,49,49,1,49,3,0,0,3,0,2,0,0,0,0,0,0,0,0,0,
17,0,10,0,3,9,48,49,49,19,20,16,50,8,13,27,0,0,0,0,2,0,0,0,0,0,0,0,0,0,0,0,0,23,3,11,0,12,23,49,9,16,50,16,16,11,10,15,7,2,4,0,1,12,0,0,0,0,0,0,0,0,2,6,
2,6,10,6,5,47,10,49,50,15,49,29,4,5,0,19,0,0,4,0,4,0,3,0,0,0,0,0,0,0,0,0,0,0,0,2,0,0,1,2,50,49,13,50,49,4,3,49,0,0,0,0,0,10,0,0,0,0,0,0,0,0,0,0,
4,1,0,6,47,49,13,17,49,49,48,7,49,0,4,0,7,0,7,0,0,1,0,0,0,0,0,0,0,0,0,0,1,1,0,13,0,9,50,47,48,49,12,49,9,1,5,7,0,0,0,0,0,0,0,1,0,0,0,0,0,9,0,0,
40,14,9,0,1,11,49,46,49,16,38,48,13,21,0,0,2,2,0,11,0,0,0,0,0,0,0,0,0,0,2,0,1,0,0,1,50,0,10,10,50,4,8,8,10,49,49,8,0,0,0,0,0,0,0,0,0,0,0,0,0,0,0,9,
49,2,17,0,3,10,49,17,49,26,26,49,4,19,29,4,0,0,0,0,0,0,14,0,0,0,0,0,0,2,0,0,0,7,0,0,1,8,1,50,49,14,49,7,15,13,17,50,0,0,3,0,0,0,0,0,0,0,0,0,0,0,0,2,
0,3,4,9,0,5,12,14,49,24,46,15,17,34,50,0,1,0,0,6,0,0,0,0,0,0,0,0,0,0,0,0,1,0,0,0,4,50,48,16,12,49,49,16,9,49,7,49,0,0,0,13,0,0,49,0,0,0,0,0,0,0,0,0,
9,0,1,0,14,10,14,49,24,49,19,27,19,50,3,0,0,18,0,0,0,0,0,0,0,0,0,0,0,0,5,0,0,0,0,0,0,4,50,7,49,49,46,10,7,4,1,1,0,2,0,49,0,0,0,0,0,0,0,0,0,0,5,1,
0,0,4,2,3,47,49,13,39,24,40,16,49,13,5,9,14,48,0,0,0,0,0,0,0,0,0,0,0,0,0,0,1,0,22,5,0,3,50,49,49,6,49,48,49,6,0,44,46,0,0,0,49,3,0,0,0,0,0,0,0,8,39,0,
14,1,0,37,5,14,8,49,47,23,39,50,44,27,3,7,7,0,0,0,0,11,0,0,0,0,0,0,0,0,0,0,14,0,0,0,0,18,26,49,49,9,49,49,7,49,4,15,3,49,0,0,2,0,2,0,0,0,0,0,0,3,0,5,
42,7,0,1,0,7,45,50,44,24,40,26,19,26,10,0,16,14,0,0,0,1,0,0,0,0,0,0,0,0,0,49,1,0,0,0,47,50,49,4,48,49,49,18,1,9,5,3,1,6,0,0,0,0,0,0,0,0,0,0,0,0,11,0,
0,3,14,2,4,10,11,12,49,21,49,21,49,22,49,15,14,1,0,0,0,0,1,0,0,0,0,0,0,0,0,0,0,0,0,3,2,49,8,10,50,48,40,49,17,13,49,0,1,0,0,0,0,0,1,0,0,0,0,0,0,0,1,0,
0,0,4,2,1,8,14,48,8,30,50,26,41,16,7,0,26,3,0,0,0,0,0,0,0,0,0,0,0,0,5,1,9,0,1,9,3,7,49,48,48,50,48,49,49,14,27,3,0,6,13,0,0,0,0,0,0,0,0,0,0,0,0,1,
21,0,5,1,1,49,19,20,50,41,26,19,48,49,2,7,0,0,9,0,0,0,0,0,0,0,0,0,0,1,0,1,3,5,0,0,7,0,20,49,16,48,49,49,8,10,48,1,12,0,0,0,15,6,0,0,0,0,0,0,0,0,0,0,
17,1,48,0,5,5,17,49,37,49,7,35,12,25,50,1,0,4,0,0,10,0,12,0,0,0,0,0,0,1,0,0,12,4,0,0,2,1,21,48,49,49,5,50,26,50,24,8,5,0,0,0,48,3,2,0,0,0,0,0,0,0,0,3,
2,3,0,1,6,0,50,49,22,17,25,49,30,19,49,1,11,21,0,0,0,0,19,0,0,0,0,0,0,0,7,0,0,0,7,0,0,7,50,50,48,10,49,17,13,17,9,50,9,0,0,48,0,0,49,6,0,0,0,0,0,3,0,11,
44,4,0,2,0,49,49,8,10,49,49,22,47,23,50,0,0,0,0,0,0,0,3,0,0,0,0,0,0,0,0,0,0,1,1,8,0,2,49,50,5,49,3,50,9,7,14,5,0,0,0,0,0,0,0,8,0,0,0,0,0,0,0,7,
0,5,4,3,4,1,49,23,20,33,18,50,32,30,4,0,25,0,0,8,0,2,0,0,0,0,0,0,0,0,0,0,1,0,0,0,2,49,7,9,49,50,12,23,47,20,49,12,7,6,5,0,0,0,6,0,0,0,0,0,0,0,0,12,
