0,0,1,2,0,1,7,4,4,5,8,12,6,6,0,0,0,0,1,3,0,0,0,0,0,0,0,0,0,0,0,0,1,0,0,0,0,2,12,3,2,4,4,1,3,2,1,4,0,0,0,0,0,0,0,0,0,0,0,0,0,0,0,0,
0,1,0,0,0,1,5,1,4,8,3,14,6,13,12,0,3,0,0,0,0,0,0,0,0,0,0,0,0,0,0,4,0,0,0,0,0,11,2,8,7,14,5,7,4,5,1,0,0,0,0,0,0,0,0,0,0,0,0,0,0,0,0,0,
0,0,0,0,0,1,0,1,2,3,7,7,5,6,1,6,0,3,0,0,0,0,0,0,0,0,0,0,0,0,0,0,0,1,0,0,0,7,0,1,1,4,3,2,3,3,0,0,0,0,0,5,0,0,0,0,0,0,0,0,0,0,0,0,
0,0,2,0,0,0,1,3,5,10,7,7,8,4,5,0,0,0,0,1,0,0,0,0,0,0,0,0,0,0,0,0,0,1,0,0,3,0,0,2,12,6,3,10,5,0,6,0,0,0,4,0,0,0,0,0,0,0,0,0,0,0,0,0,
0,0,0,0,4,0,0,1,3,3,8,2,9,3,9,0,8,0,1,0,0,3,0,0,0,0,0,0,0,0,0,0,0,0,0,0,0,0,1,11,3,0,10,5,1,3,0,3,0,0,2,0,2,0,2,0,0,0,0,0,0,0,0,0,
0,0,1,0,0,0,5,4,1,3,7,10,7,12,1,0,0,0,0,0,0,0,5,0,0,0,0,0,0,0,0,0,0,0,0,0,2,0,2,0,0,5,13,0,5,1,0,0,0,0,0,0,0,0,0,0,0,0,0,0,0,0,0,0,
0,0,0,0,1,0,0,1,4,10,11,9,8,0,11,3,0,0,1,0,0,0,1,0,0,0,0,0,0,0,0,0,0,0,1,0,1,4,0,1,9,1,8,5,0,0,3,1,2,0,0,0,0,0,0,0,0,0,0,0,0,0,0,0,
0,0,0,0,0,2,6,0,10,4,1,7,8,9,4,1,2,0,0,3,0,0,0,0,0,0,0,0,0,0,0,0,0,0,0,0,3,0,0,16,2,1,8,4,1,4,8,0,0,0,0,0,0,0,0,0,0,0,0,0,0,0,0,0,
0,0,0,0,0,0,4,7,7,7,2,8,13,5,8,11,1,0,0,2,0,0,4,0,0,0,0,0,0,0,0,0,4,1,3,0,0,13,1,4,8,3,0,14,0,0,0,0,2,0,5,0,0,0,0,0,0,0,0,0,0,0,0,0,
1,0,1,1,0,0,0,4,2,7,3,5,7,7,2,6,0,3,0,0,3,0,0,0,5,0,0,0,0,0,0,0,1,0,0,1,0,0,0,5,0,4,6,2,5,3,5,0,3,0,0,0,0,0,0,0,2,0,0,0,0,0,0,0,
0,1,0,0,0,0,0,7,7,2,11,2,7,15,2,7,9,2,2,0,0,0,11,0,0,0,0,0,0,0,0,1,0,0,0,0,0,4,1,1,6,1,12,6,5,1,1,19,1,1,0,0,0,1,3,0,0,0,0,0,0,0,0,0,
0,0,0,0,0,1,1,3,6,9,8,5,4,9,8,6,0,8,0,0,0,0,0,0,0,0,0,0,0,0,0,0,0,0,0,0,0,0,1,0,0,0,5,10,1,0,3,5,0,1,0,0,0,0,0,0,0,0,0,0,0,0,0,0,
0,0,1,0,0,0,0,3,2,7,4,8,3,5,0,14,0,3,1,0,7,0,0,0,0,0,0,0,0,0,0,0,0,1,0,0,0,0,0,10,1,23,1,3,4,2,2,1,1,3,3,0,0,3,0,0,1,0,0,0,0,0,0,0,
0,0,0,0,1,1,2,8,6,7,6,2,7,8,8,7,0,0,0,0,0,0,0,0,0,0,0,0,0,0,0,0,1,0,0,0,0,0,7,1,3,1,10,11,13,2,3,3,1,0,0,0,0,0,0,0,0,0,0,0,0,0,0,0,
0,1,0,0,0,0,2,2,10,10,9,5,1,7,8,2,11,2,0,0,0,0,6,1,0,0,0,0,0,0,0,0,0,0,0,0,1,1,1,4,13,3,1,8,5,10,0,2,0,0,2,0,5,0,0,0,0,0,0,0,0,0,0,0,
0,0,0,0,0,0,0,2,2,8,11,13,6,12,9,5,0,0,3,0,2,0,0,0,0,0,0,0,0,0,0,0,1,0,0,0,0,4,0,9,6,3,0,6,5,3,9,0,0,0,0,0,0,0,0,0,0,0,0,0,0,0,0,0,
0,0,0,0,0,1,2,6,3,5,7,4,4,12,2,4,0,1,0,0,0,1,2,0,7,0,0,0,0,0,0,0,0,0,0,0,0,8,0,0,7,3,1,4,9,2,6,1,0,0,0,0,0,0,0,3,0,0,0,0,0,0,0,0,
0,2,0,0,0,1,2,1,1,8,11,10,3,7,3,5,10,0,0,0,0,0,3,0,0,0,0,0,0,0,0,0,0,4,0,0,0,0,0,7,5,1,2,4,1,5,2,3,0,0,0,0,6,0,0,0,0,0,0,0,0,0,0,0,
0,0,0,0,0,4,1,5,1,7,7,3,10,1,13,3,3,4,6,1,4,0,0,0,0,0,0,0,0,0,0,0,0,0,0,0,7,0,0,0,4,6,3,3,5,2,9,4,0,0,2,0,0,0,0,0,0,0,0,0,0,0,0,0,
0,0,0,0,0,0,1,0,9,8,7,7,7,16,2,7,0,1,0,0,0,0,0,0,0,0,0,0,0,0,0,0,0,0,0,2,3,0,8,5,7,3,7,3,8,3,0,0,0,0,0,0,0,0,0,0,0,0,0,0,0,0,0,1,
0,0,0,0,0,1,1,2,4,5,16,14,8,5,0,10,9,0,0,0,0,0,0,0,5,0,0,0,0,0,0,0,0,0,0,0,0,0,1,3,6,2,7,3,0,6,5,1,0,0,0,0,0,0,0,2,0,0,0,0,0,0,0,0,
0,0,0,0,0,0,4,2,5,2,9,9,14,2,10,9,3,0,0,0,1,0,3,4,0,0,0,0,0,0,0,0,1,0,4,0,0,1,0,7,2,3,2,5,3,8,0,7,0,0,0,0,0,0,0,0,0,0,0,0,0,0,0,0,
0,0,0,0,2,1,4,2,5,11,7,5,8,3,9,3,0,4,0,0,0,0,0,0,16,0,0,0,0,0,0,0,0,0,0,1,0,1,5,12,3,3,5,14,8,6,1,0,8,1,0,0,0,0,0,2,0,0,0,0,0,0,0,0,
0,1,0,1,0,0,3,2,3,6,10,13,7,8,0,12,4,0,5,0,0,0,0,3,0,0,0,0,0,0,0,0,0,0,0,0,0,0,0,1,4,6,2,8,2,0,8,0,0,0,0,0,0,0,0,0,0,0,0,0,0,0,0,0,
0,0,0,0,0,4,2,0,8,7,7,1,14,8,4,6,0,0,0,0,0,0,0,4,1,0,0,0,0,0,0,0,0,0,0,0,0,1,0,9,1,2,2,16,14,2,8,4,1,1,0,0,0,0,0,0,0,0,0,0,0,0,0,0,
0,0,3,0,1,0,0,3,2,8,12,8,2,1,9,8,0,0,0,0,0,3,0,0,0,0,0,0,0,0,0,0,0,0,4,0,0,0,3,0,3,1,4,6,0,1,3,3,0,0,0,0,0,0,0,0,0,0,0,0,0,0,0,0,
0,0,0,1,0,1,0,3,3,7,10,4,6,9,0,8,1,1,0,3,0,0,1,0,0,0,0,0,0,0,0,0,2,0,0,0,1,0,7,7,3,3,6,8,3,6,0,8,0,0,1,0,0,0,0,0,0,0,0,0,0,0,0,0,
0,1,2,2,2,0,2,2,5,15,8,9,6,2,4,3,5,0,14,0,0,0,8,0,2,0,0,0,0,0,0,0,0,0,0,0,1,0,1,5,1,2,8,11,1,2,0,3,0,5,0,0,0,0,0,0,0,0,0,0,0,0,0,0,
0,0,3,0,2,0,3,2,12,7,9,8,8,14,1,11,0,3,0,0,0,0,0,1,1,0,0,0,0,0,0,0,0,0,4,0,0,0,0,5,4,2,8,3,2,0,11,2,0,0,0,0,0,0,0,1,0,0,0,0,0,0,0,0,
0,0,1,0,4,1,0,5,6,6,17,5,7,0,6,8,7,3,0,0,0,0,2,0,0,0,0,0,0,0,0,0,0,0,0,0,2,14,7,6,2,3,1,11,3,4,7,0,0,0,0,0,0,0,0,0,0,0,0,0,0,0,0,0,
0,0,0,0,0,1,2,5,3,4,7,7,12,7,1,1,3,0,1,0,0,0,0,0,0,0,0,0,0,0,0,0,0,0,0,0,0,2,2,1,16,5,3,0,1,3,1,1,0,0,0,0,0,0,0,2,0,0,0,0,0,0,0,0,
0,1,0,0,0,0,0,7,3,5,6,9,10,3,8,16,3,0,0,0,0,0,0,0,1,0,0,0,0,0,0,0,0,0,3,0,0,0,10,1,1,2,2,10,10,3,6,0,1,1,0,0,0,0,0,0,0,0,0,0,0,0,0,0,
0,0,0,0,0,1,1,2,3,6,9,15,14,9,8,5,4,1,0,0,0,0,0,0,0,0,0,0,0,0,0,0,0,0,0,0,0,2,1,1,3,2,1,5,0,24,0,0,0,0,0,0,0,0,0,0,0,0,0,0,0,0,0,0,
0,0,0,4,0,1,0,0,6,7,7,1,6,4,1,11,3,0,1,0,0,0,3,0,0,0,0,0,0,0,0,1,0,0,0,0,0,0,6,5,9,3,7,6,3,5,0,2,0,0,2,0,1,0,0,0,0,0,0,0,0,0,0,0,
0,0,0,0,0,3,2,5,4,10,14,8,5,11,8,8,7,0,3,0,0,0,0,5,0,0,0,0,0,0,0,1,0,0,0,0,0,5,12,4,3,11,6,8,7,6,0,0,0,0,0,0,0,0,0,0,0,0,0,0,0,0,0,0,
0,0,0,0,0,0,2,3,5,5,5,6,5,0,12,11,0,0,0,0,0,0,5,0,5,0,0,0,0,0,0,0,0,0,0,0,0,0,4,1,9,3,8,7,3,6,1,3,0,0,0,0,0,0,0,0,0,0,0,0,0,0,0,0,
0,0,0,1,0,1,5,5,5,5,14,11,7,6,0,12,2,0,6,0,0,0,0,0,0,0,0,0,0,0,0,0,0,0,0,0,1,3,12,1,7,4,6,1,0,1,6,0,0,0,0,0,0,0,0,0,0,0,0,0,0,0,0,0,
0,2,0,0,0,0,1,2,3,7,5,4,4,7,4,7,0,0,0,0,0,0,0,1,0,0,0,0,0,0,0,0,0,0,0,0,0,0,1,15,2,2,3,5,10,0,8,0,2,0,0,0,0,0,0,0,0,0,0,0,0,0,0,0,
0,2,0,0,0,3,1,6,5,3,5,4,4,6,12,6,1,0,0,1,0,0,0,3,0,0,0,0,0,0,0,0,0,3,6,0,0,1,2,13,3,9,10,2,6,1,0,2,0,0,0,0,0,0,0,0,0,0,0,0,0,0,0,0,
0,1,0,0,0,1,0,1,5,8,7,9,11,15,1,7,0,0,3,0,0,0,0,4,0,0,0,0,0,0,0,0,0,0,0,0,6,0,3,3,3,1,8,1,7,3,5,5,0,0,0,0,0,0,0,0,2,3,0,0,0,0,0,0,
0,0,0,0,1,3,1,1,3,9,10,7,12,7,8,0,0,1,0,0,0,0,0,0,1,0,0,0,0,0,0,0,0,0,0,0,5,0,4,0,6,3,4,7,3,0,5,0,0,0,0,0,0,0,0,0,0,0,0,0,0,0,0,0,
0,0,0,0,3,0,2,0,6,7,12,16,8,12,5,3,0,9,0,3,0,6,0,0,0,0,0,0,0,0,0,0,0,1,0,0,0,1,3,1,5,1,6,9,10,2,2,4,1,0,0,0,0,0,0,1,0,0,0,0,0,0,0,0,
0,0,0,0,0,0,2,0,5,6,6,3,5,12,5,0,0,0,5,0,0,0,0,0,0,0,0,0,0,0,0,0,0,0,0,1,1,1,0,1,12,4,4,2,7,8,1,1,0,0,0,0,0,0,0,3,0,0,0,0,0,0,0,0,
0,0,0,0,0,3,2,3,1,6,13,5,7,14,3,0,5,8,0,4,0,0,3,1,2,0,0,0,0,0,0,0,1,0,3,2,0,1,1,1,14,0,14,15,5,11,0,0,2,0,0,0,0,0,0,0,0,0,0,0,0,0,0,0,
0,0,0,0,0,0,1,1,17,8,7,10,5,8,6,7,0,12,0,0,0,0,6,0,0,0,0,0,0,0,0,0,0,0,0,0,0,0,7,3,1,11,4,6,2,4,4,0,1,3,0,0,0,0,0,0,0,0,0,0,0,0,0,0,
0,0,0,0,1,0,3,1,8,8,12,6,7,1,2,0,4,0,0,2,0,0,0,0,0,0,0,0,0,0,0,0,5,0,0,0,0,2,0,1,3,2,0,8,1,14,4,0,0,0,0,0,0,0,0,0,0,0,0,0,0,0,0,0,
0,0,1,0,0,2,1,1,12,9,4,13,7,1,15,9,5,0,0,0,1,0,0,0,1,0,0,0,0,0,0,1,0,0,3,0,0,0,3,1,16,8,5,5,5,14,0,0,0,0,0,0,0,0,5,1,0,0,0,0,0,0,0,0,
0,1,0,0,1,6,3,2,4,5,8,16,2,14,13,9,0,0,0,0,0,0,0,0,0,0,0,0,0,0,0,0,2,1,0,1,0,1,1,10,6,4,3,7,8,5,1,0,0,2,0,0,0,0,0,0,0,0,0,0,0,0,0,0,
1,0,0,0,0,0,3,1,4,6,8,8,8,4,1,12,0,2,0,0,9,0,0,0,1,0,0,0,0,0,0,1,0,0,0,0,2,0,0,3,3,1,3,5,6,6,3,0,0,0,0,0,0,0,0,0,0,0,0,0,0,0,0,0,
0,1,0,4,0,0,3,2,12,5,12,5,6,11,5,1,7,0,0,0,4,0,0,5,0,0,0,0,0,0,0,0,5,0,0,0,0,1,0,12,0,7,1,11,6,1,0,2,0,0,0,0,0,0,0,0,0,0,0,0,0,0,0,0,
